date,close_price
1998-01-02,8.3556
1998-01-05,8.95948
1998-01-06,8.53183
1998-01-07,7.85746
1998-01-08,7.68123
1998-01-09,7.02097
1998-01-12,7.1079
1998-01-13,7.75407
1998-01-14,7.57785
1998-01-15,7.91621
1998-01-16,7.5332
1998-01-20,8.10653
1998-01-21,8.12063
1998-01-22,7.27003
1998-01-23,7.28413
1998-01-26,7.04916
1998-01-27,7.00451
1998-01-28,7.63659
1998-01-29,7.76817
1998-01-30,8.04779
1998-02-02,8.54828
1998-02-03,9.04642
1998-02-04,8.87019
1998-02-05,8.51773
1998-02-06,8.72451
1998-02-09,8.38615
1998-02-10,9.01822
1998-02-11,8.78325
1998-02-12,8.81145
1998-02-13,8.75271
1998-02-17,8.54828
1998-02-18,9.09106
1998-02-19,9.34013
1998-02-20,9.23674
1998-02-23,9.28139
1998-02-24,8.82555
1998-02-25,10.0592
1998-02-26,10.3834
1998-02-27,10.1344
1998-03-02,9.61975
1998-03-03,9.76543
1998-03-04,10.2941
1998-03-05,9.44352
1998-03-06,9.67849
1998-03-09,9.82418
1998-03-10,9.92756
1998-03-11,10.1038
1998-03-12,10.1626
1998-03-13,10.1931
1998-03-16,10.2518
1998-03-17,10.0004
1998-03-18,9.6644
1998-03-19,9.06757
1998-03-20,9.07697
1998-03-23,9.19445
1998-03-24,9.25319
1998-03-25,9.29549
1998-03-26,9.48817
1998-03-27,9.56101
1998-03-30,9.2673
1998-03-31,8.87019
1998-04-01,9.07697
1998-04-02,9.16391
1998-04-03,8.94304
1998-04-06,8.842
1998-04-07,8.51773
1998-04-08,8.75271
1998-04-09,8.92894
1998-04-13,8.842
1998-04-14,8.98768
1998-04-15,10.0309
1998-04-16,9.41298
1998-04-17,9.37068
1998-04-20,9.85473
1998-04-21,9.79598
1998-04-22,9.85473
1998-04-23,9.48817
1998-04-24,9.72314
1998-04-27,9.60566
1998-04-28,9.6644
1998-04-29,9.39888
1998-04-30,9.48817
1998-05-01,9.69259
1998-05-04,9.6644
1998-05-05,9.95811
1998-05-06,10.1344
1998-05-07,10.045
1998-05-08,10.2941
1998-05-11,10.1931
1998-05-12,10.0169
1998-05-13,9.70669
1998-05-14,9.47172
1998-05-15,9.17801
1998-05-18,8.842
1998-05-19,9.06052
1998-05-20,8.7668
1998-05-21,8.45899
1998-05-22,8.45899
1998-05-26,8.57647
1998-05-27,8.72451
1998-05-28,8.60703
1998-05-29,7.93031
1998-06-01,8.04779
1998-06-02,8.28276
1998-06-03,8.13708
1998-06-04,8.16528
1998-06-05,8.29686
1998-06-08,8.25457
1998-06-09,8.26867
1998-06-10,7.87156
1998-06-11,7.49091
1998-06-12,7.22538
1998-06-15,7.04916
1998-06-16,7.70943
1998-06-17,7.22538
1998-06-18,7.04916
1998-06-19,6.78598
1998-06-22,6.81419
1998-06-23,7.04916
1998-06-24,7.23949
1998-06-25,6.97632
1998-06-26,7.1079
1998-06-29,7.12199
1998-06-30,6.94577
1998-07-01,7.18074
1998-07-02,6.91758
1998-07-06,7.02097
1998-07-07,7.93031
1998-07-08,7.98904
1998-07-09,8.07834
1998-07-10,7.9021
1998-07-13,8.04779
1998-07-14,8.00314
1998-07-15,8.62112
1998-07-16,9.11926
1998-07-17,8.92894
1998-07-20,9.14981
1998-07-21,9.42942
1998-07-22,9.01822
1998-07-23,8.54828
1998-07-24,8.72451
1998-07-27,9.07697
1998-07-28,8.75271
1998-07-29,8.54828
1998-07-30,9.16391
1998-07-31,8.60703
1998-08-03,8.69396
1998-08-04,8.63522
1998-08-05,8.95948
1998-08-06,9.60566
1998-08-07,10.0309
1998-08-10,9.6644
1998-08-11,9.22265
1998-08-12,9.28139
1998-08-13,9.11926
1998-08-14,8.95948
1998-08-17,9.06052
1998-08-18,9.60566
1998-08-19,9.37068
1998-08-20,8.92894
1998-08-21,8.87019
1998-08-24,8.85609
1998-08-25,8.87019
1998-08-26,8.4073
1998-08-27,7.79872
1998-08-28,7.60839
1998-08-31,6.88702
1998-09-01,7.68123
1998-09-02,7.63659
1998-09-03,7.41571
1998-09-04,7.49091
1998-09-08,8.22402
1998-09-09,7.87156
1998-09-10,7.76817
1998-09-11,8.10653
1998-09-14,8.19582
1998-09-15,8.25457
1998-09-16,8.31331
1998-09-17,8.19582
1998-09-18,8.029
1998-09-21,8.10653
1998-09-22,7.84336
1998-09-23,8.17938
1998-09-24,8.57647
1998-09-25,8.97358
1998-09-28,9.03232
1998-09-29,8.94304
1998-09-30,8.25457
1998-10-01,7.65069
1998-10-02,7.66713
1998-10-05,7.18074
1998-10-06,7.38752
1998-10-07,7.28413
1998-10-08,7.63659
1998-10-09,7.73998
1998-10-12,8.31331
1998-10-13,8.3415
1998-10-14,8.81145
1998-10-15,9.03232
1998-10-16,8.842
1998-10-19,9.25319
1998-10-20,9.2673
1998-10-21,9.31194
1998-10-22,9.45762
1998-10-23,9.98629
1998-10-26,9.69259
1998-10-27,9.6644
1998-10-28,9.6644
1998-10-29,9.63385
1998-10-30,9.78188
1998-11-02,10.0169
1998-11-03,9.5751
1998-11-04,10.4116
1998-11-05,10.4704
1998-11-06,11.0437
1998-11-09,11.2199
1998-11-10,10.9262
1998-11-11,11.2504
1998-11-12,11.4267
1998-11-13,11.4408
1998-11-16,11.4267
1998-11-17,11.6757
1998-11-18,11.5278
1998-11-19,12.0869
1998-11-20,12.2186
1998-11-23,12.5851
1998-11-24,12.0869
1998-11-25,11.9765
1998-11-27,12.2186
1998-11-30,11.5442
1998-12-01,12.2186
1998-12-02,12.4677
1998-12-03,12.8059
1998-12-04,13.0997
1998-12-07,13.3065
1998-12-08,13.1302
1998-12-09,12.9235
1998-12-10,12.8507
1998-12-11,13.0715
1998-12-14,12.4981
1998-12-15,12.7472
1998-12-16,12.2186
1998-12-17,13.3934
1998-12-18,13.1302
1998-12-21,13.3794
1998-12-22,12.7472
1998-12-23,13.4075
1998-12-24,13.5109
1998-12-28,13.3346
1998-12-29,12.9235
1998-12-30,13.8775
1998-12-31,14.2605
1999-01-04,14.3051
1999-01-05,15.2732
1999-01-06,14.8925
1999-01-07,15.0382
1999-01-08,14.775
1999-01-11,14.5542
1999-01-12,14.1288
1999-01-13,14.7445
1999-01-14,14.5307
1999-01-15,15.1557
1999-01-19,15.3907
1999-01-20,16.199
1999-01-21,14.3638
1999-01-22,14.0984
1999-01-25,13.673
1999-01-26,13.7905
1999-01-27,13.3934
1999-01-28,13.8775
1999-01-29,14.7892
1999-02-01,14.3051
1999-02-02,13.5697
1999-02-03,14.0536
1999-02-04,13.6284
1999-02-05,13.3488
1999-02-08,12.9751
1999-02-09,12.1011
1999-02-10,12.571
1999-02-11,13.8352
1999-02-12,13.2759
1999-02-16,13.6871
1999-02-17,13.4827
1999-02-18,13.673
1999-02-19,13.7458
1999-02-22,14.2158
1999-02-23,14.0114
1999-02-24,13.8352
1999-02-25,12.9376
1999-02-26,11.3821
1999-03-01,12.2772
1999-03-02,11.6616
1999-03-03,12.3948
1999-03-04,12.6298
1999-03-05,13.4521
1999-03-08,13.9221
1999-03-09,13.4827
1999-03-10,14.002
1999-03-11,14.2745
1999-03-12,13.8775
1999-03-15,13.5415
1999-03-16,14.0984
1999-03-17,14.1288
1999-03-18,14.3333
1999-03-19,13.7764
1999-03-22,13.7176
1999-03-23,13.055
1999-03-24,13.6001
1999-03-25,14.0396
1999-03-26,14.0255
1999-03-29,14.4814
1999-03-30,13.5697
1999-03-31,13.9667
1999-04-01,15.4494
1999-04-05,16.0955
1999-04-06,16.7629
1999-04-07,16.1849
1999-04-08,16.6242
1999-04-09,16.4034
1999-04-12,15.2873
1999-04-13,15.0829
1999-04-14,15.8606
1999-04-15,17.9613
1999-04-16,17.3292
1999-04-19,16.596
1999-04-20,17.7122
1999-04-21,18.3278
1999-04-22,18.7978
1999-04-23,18.4453
1999-04-26,17.8719
1999-04-27,17.6534
1999-04-28,17.0801
1999-04-29,17.3151
1999-04-30,17.1247
1999-05-03,17.5641
1999-05-04,17.2704
1999-05-05,18.1516
1999-05-06,16.9768
1999-05-07,17.8297
1999-05-10,17.771
1999-05-11,17.8884
1999-05-12,18.7978
1999-05-13,18.0928
1999-05-14,17.7991
1999-05-17,18.2409
1999-05-18,17.9471
1999-05-19,18.8283
1999-05-20,17.9189
1999-05-21,16.9462
1999-05-24,16.8005
1999-05-25,14.0984
1999-05-26,16.2412
1999-05-27,16.6266
1999-05-28,16.2742
1999-06-01,16.213
1999-06-02,17.8014
1999-06-03,15.3343
1999-06-04,16.3916
1999-06-07,16.1238
1999-06-08,15.3343
1999-06-09,16.3587
1999-06-10,17.1671
1999-06-11,17.4772
1999-06-14,17.2704
1999-06-15,17.3879
1999-06-16,18.121
1999-06-17,17.7686
1999-06-18,17.4161
1999-06-21,17.684
1999-06-22,16.8287
1999-06-23,18.9153
1999-06-24,17.3879
1999-06-25,17.8014
1999-06-28,17.4161
1999-06-29,17.5055
1999-06-30,17.2704
1999-07-01,19.5026
1999-07-02,19.0938
1999-07-06,19.7377
1999-07-07,20.3251
1999-07-08,21.1615
1999-07-09,20.8843
1999-07-12,21.1193
1999-07-13,20.56
1999-07-14,21.998
1999-07-15,21.1757
1999-07-16,19.2677
1999-07-19,18.8588
1999-07-20,17.9189
1999-07-21,18.7978
1999-07-22,17.7122
1999-07-23,17.8861
1999-07-26,16.918
1999-07-27,17.5947
1999-07-28,18.0646
1999-07-29,17.0966
1999-07-30,17.0354
1999-08-02,16.5655
1999-08-03,16.8287
1999-08-04,18.154
1999-08-05,18.0928
1999-08-06,18.5487
1999-08-09,18.826
1999-08-10,18.5628
1999-08-11,19.7658
1999-08-12,18.6803
1999-08-13,20.0337
1999-08-16,19.2395
1999-08-17,19.2959
1999-08-18,18.6239
1999-08-19,18.1821
1999-08-20,19.3288
1999-08-23,20.6212
1999-08-24,20.6775
1999-08-25,20.56
1999-08-26,20.1794
1999-08-27,20.2076
1999-08-30,20.0901
1999-08-31,19.7658
1999-09-01,20.9407
1999-09-02,21.6597
1999-09-03,23.6758
1999-09-07,23.1166
1999-09-08,23.2622
1999-09-09,23.7322
1999-09-10,24.9352
1999-09-13,24.8177
1999-09-14,25.5555
1999-09-15,24.7895
1999-09-16,24.8177
1999-09-17,25.9644
1999-09-20,24.6721
1999-09-21,23.5254
1999-09-22,22.703
1999-09-23,20.4708
1999-09-24,21.998
1999-09-27,22.5573
1999-09-28,22.5573
1999-09-29,22.2659
1999-09-30,20.3862
1999-10-01,21.0911
1999-10-04,21.998
1999-10-05,21.9699
1999-10-06,22.2941
1999-10-07,21.265
1999-10-08,20.2076
1999-10-11,21.326
1999-10-12,20.0901
1999-10-13,19.8552
1999-10-14,21.2932
1999-10-15,21.1757
1999-10-18,19.7095
1999-10-19,20.8232
1999-10-20,21.1193
1999-10-21,21.7349
1999-10-22,22.0874
1999-10-25,21.3542
1999-10-26,21.1193
1999-10-27,20.0337
1999-10-28,21.8242
1999-10-29,22.9097
1999-11-01,22.5291
1999-11-02,23.3797
1999-11-03,24.8507
1999-11-04,25.5227
1999-11-05,27.0218
1999-11-08,27.4353
1999-11-09,27.7549
1999-11-10,30.1939
1999-11-11,31.6319
1999-11-12,30.5181
1999-11-15,29.8415
1999-11-16,29.1647
1999-11-17,27.5528
1999-11-18,29.489
1999-11-19,27.9899
1999-11-22,26.7586
1999-11-23,25.4945
1999-11-24,27.05
1999-11-26,27.5058
1999-11-29,26.9653
1999-11-30,25.3488
1999-12-01,25.4381
1999-12-02,27.6327
1999-12-03,27.4917
1999-12-06,26.7586
1999-12-07,26.2276
1999-12-08,25.4663
1999-12-09,24.5828
1999-12-10,23.422
1999-12-13,23.3515
1999-12-14,21.3542
1999-12-15,22.4116
1999-12-16,22.764
1999-12-17,23.4079
1999-12-20,23.0554
1999-12-21,24.1128
1999-12-22,24.8788
1999-12-23,23.9953
1999-12-27,23.8496
1999-12-28,23.939
1999-12-29,23.6758
1999-12-30,24.1128
1999-12-31,23.0554
2000-01-03,24.6438
2000-01-04,23.4079
2000-01-05,23.0883
2000-01-06,22.5573
2000-01-07,24.907
2000-01-10,26.5519
2000-01-11,24.9682
2000-01-12,25.7154
2000-01-13,26.4202
2000-01-14,28.0227
2000-01-18,28.4035
2000-01-19,27.9899
2000-01-20,33.0135
2000-01-21,33.2767
2000-01-24,32.7222
2000-01-25,33.366
2000-01-26,31.5755
2000-01-27,31.0163
2000-01-28,29.7521
2000-01-31,30.8989
2000-02-01,32.3697
2000-02-02,32.6047
2000-02-03,35.1894
2000-02-04,34.0709
2000-02-07,35.9507
2000-02-08,36.275
2000-02-09,34.8369
2000-02-10,35.8614
2000-02-11,34.4515
2000-02-14,35.1001
2000-02-15,34.6019
2000-02-16,36.0117
2000-02-17,37.5391
2000-02-18,34.9545
2000-02-22,32.9572
2000-02-23,34.2918
2000-02-24,36.275
2000-02-25,33.9534
2000-02-28,33.601
2000-02-29,37.5297
2000-03-01,39.7384
2000-03-02,38.5636
2000-03-03,45.5564
2000-03-06,44.2029
2000-03-07,43.498
2000-03-08,43.6766
2000-03-09,45.2603
2000-03-10,44.2922
2000-03-13,41.4161
2000-03-14,41.4161
2000-03-15,39.6821
2000-03-16,40.4434
2000-03-17,40.5609
2000-03-20,40.1802
2000-03-21,41.0027
2000-03-22,41.7357
2000-03-23,43.2349
2000-03-24,45.0864
2000-03-27,44.1184
2000-03-28,41.1812
2000-03-29,39.8888
2000-03-30,35.7768
2000-03-31,41.8344
2000-04-03,38.5965
2000-04-04,40.2037
2000-04-05,40.5609
2000-04-06,39.6586
2000-04-07,43.3524
2000-04-10,39.0054
2000-04-11,40.7394
2000-04-12,38.5636
2000-04-13,37.3605
2000-04-14,34.0991
2000-04-17,39.9453
2000-04-18,44.4708
2000-04-19,42.4407
2000-04-20,42.7649
2000-04-24,42.2526
2000-04-25,46.2612
2000-04-26,45.8478
2000-04-27,49.8047
2000-04-28,48.0518
2000-05-01,48.7566
2000-05-02,45.2932
2000-05-03,45.4671
2000-05-04,45.1428
2000-05-05,46.6701
2000-05-08,45.2979
2000-05-09,41.7498
2000-05-10,37.9855
2000-05-11,40.0345
2000-05-12,39.4659
2000-05-15,41.0027
2000-05-16,43.3524
2000-05-17,42.1493
2000-05-18,39.5645
2000-05-19,37.5062
2000-05-22,39.4188
2000-05-23,35.3069
2000-05-24,37.7411
2000-05-25,36.4488
2000-05-26,36.6274
2000-05-30,40.6783
2000-05-31,40.387
2000-06-01,42.5581
2000-06-02,46.7312
2000-06-05,47.61
2000-06-06,48.9635
2000-06-07,47.6053
2000-06-08,48.08
2000-06-09,51.4871
2000-06-12,48.8178
2000-06-13,51.8113
2000-06-14,48.5311
2000-06-15,48.9258
2000-06-16,49.6073
2000-06-19,51.9006
2000-06-20,54.0435
2000-06-21,52.7512
2000-06-22,48.376
2000-06-23,48.6392
2000-06-26,49.8752
2000-06-27,47.7886
2000-06-28,47.7604
2000-06-29,45.4295
2000-06-30,47.8779
2000-07-03,48.8648
2000-07-05,43.4134
2000-07-06,47.2294
2000-07-07,49.4381
2000-07-10,48.47
2000-07-11,46.0827
2000-07-12,48.3478
2000-07-13,52.1637
2000-07-14,56.1019
2000-07-17,57.3331
2000-07-18,56.1865
2000-07-19,54.2504
2000-07-20,55.5709
2000-07-21,51.722
2000-07-24,49.6965
2000-07-25,51.0782
2000-07-26,46.172
2000-07-27,41.2986
2000-07-28,43.7471
2000-07-31,46.1438
2000-08-01,43.7142
2000-08-02,45.7631
2000-08-03,48.4654
2000-08-04,45.6456
2000-08-07,47.8403
2000-08-08,48.7003
2000-08-09,49.2266
2000-08-10,50.7539
2000-08-11,51.7503
2000-08-14,53.1036
2000-08-15,54.4007
2000-08-16,56.1583
2000-08-17,59.9178
2000-08-18,60.181
2000-08-21,57.7467
2000-08-22,58.0944
2000-08-23,60.6698
2000-08-24,59.6829
2000-08-25,59.3915
2000-08-28,58.2731
2000-08-29,58.3952
2000-08-30,56.7504
2000-08-31,61.0739
2000-09-01,58.1603
2000-09-05,55.6884
2000-09-06,52.2859
2000-09-07,54.5699
2000-09-08,50.9889
2000-09-11,51.2239
2000-09-12,49.2877
2000-09-13,50.7539
2000-09-14,49.9362
2000-09-15,49.0057
2000-09-18,46.7312
2000-09-19,49.2314
2000-09-20,52.521
2000-09-21,50.9889
2000-09-22,48.9305
2000-09-25,43.4698
2000-09-26,44.9361
2000-09-27,45.171
2000-09-28,47.4643
2000-09-29,44.9361
2000-10-02,43.4698
2000-10-03,43.7048
2000-10-04,47.9343
2000-10-05,45.0018
2000-10-06,41.59
2000-10-09,38.5354
2000-10-10,27.9617
2000-10-11,28.7887
2000-10-12,26.3732
2000-10-13,30.7813
2000-10-16,30.5463
2000-10-17,28.488
2000-10-18,32.6047
2000-10-19,38.6576
2000-10-20,36.8342
2000-10-23,37.182
2000-10-24,33.2532
2000-10-25,30.3114
2000-10-26,34.2495
2000-10-27,33.3096
2000-10-30,34.6631
2000-10-31,38.4226
2000-11-01,30.7532
2000-11-02,30.5463
2000-11-03,30.8377
2000-11-06,31.1949
2000-11-07,28.6666
2000-11-08,26.7398
2000-11-09,27.2567
2000-11-10,25.377
2000-11-13,26.5519
2000-11-14,29.785
2000-11-15,30.6685
2000-11-16,28.1402
2000-11-17,28.6102
2000-11-20,28.3188
2000-11-21,26.7868
2000-11-22,26.7304
2000-11-24,29.2587
2000-11-27,25.4992
2000-11-28,24.3807
2000-11-29,24.4371
2000-11-30,22.5009
2000-12-01,24.4371
2000-12-04,25.7342
2000-12-05,28.0839
2000-12-06,25.5555
2000-12-07,25.6683
2000-12-08,27.5481
2000-12-11,27.9617
2000-12-12,26.2605
2000-12-13,24.7755
2000-12-14,23.7322
2000-12-15,23.7886
2000-12-18,24.5593
2000-12-19,23.4972
2000-12-20,23.3844
2000-12-21,23.7322
2000-12-22,25.9033
2000-12-26,24.7942
2000-12-27,26.3168
2000-12-28,27.4917
2000-12-29,24.4371
2001-01-02,23.8543
2001-01-03,30.0764
2001-01-04,27.9052
2001-01-05,27.6139
2001-01-08,27.5481
2001-01-09,27.0782
2001-01-10,29.4937
2001-01-11,32.3134
2001-01-12,30.0764
2001-01-16,28.0839
2001-01-17,29.2587
2001-01-18,30.2926
2001-01-19,28.0839
2001-01-22,27.2567
2001-01-23,28.6102
2001-01-24,29.0801
2001-01-25,27.9617
2001-01-26,27.3789
2001-01-29,27.7078
2001-01-30,27.0688
2001-01-31,28.5538
2001-02-01,29.6064
2001-02-02,27.9052
2001-02-05,26.5519
2001-02-06,26.0255
2001-02-07,25.0856
2001-02-08,25.3206
2001-02-09,25.2642
2001-02-12,26.0255
2001-02-13,26.0819
2001-02-14,28.1966
2001-02-15,28.9579
2001-02-16,26.0255
2001-02-20,24.2585
2001-02-21,24.3807
2001-02-22,24.5593
2001-02-23,24.7942
2001-02-26,23.9108
2001-02-27,21.9088
2001-02-28,21.6174
2001-03-01,23.8543
2001-03-02,24.3807
2001-03-05,25.5555
2001-03-06,27.4353
2001-03-07,26.6741
2001-03-08,26.1383
2001-03-09,24.3807
2001-03-12,23.9108
2001-03-13,25.7905
2001-03-14,25.424
2001-03-15,23.6852
2001-03-16,21.796
2001-03-19,23.7322
2001-03-20,22.2096
2001-03-21,22.7359
2001-03-22,24.907
2001-03-23,25.142
2001-03-26,24.7285
2001-03-27,24.2585
2001-03-28,22.1437
2001-03-29,21.1005
2001-03-30,20.1512
2001-04-02,19.5026
2001-04-03,18.45
2001-04-04,18.6192
2001-04-05,21.3824
2001-04-06,20.1512
2001-04-09,20.0102
2001-04-10,23.0273
2001-04-11,25.471
2001-04-12,25.8469
2001-04-16,25.33
2001-04-17,24.5311
2001-04-18,27.0688
2001-04-19,28.4786
2001-04-20,26.6741
2001-04-23,25.1796
2001-04-24,24.5499
2001-04-25,24.1552
2001-04-26,22.8111
2001-04-27,23.6569
2001-04-30,23.7604
2001-05-01,25.048
2001-05-02,25.7905
2001-05-03,25.0104
2001-05-04,25.2078
2001-05-07,25.3676
2001-05-08,25.9879
2001-05-09,25.048
2001-05-10,24.4559
2001-05-11,24.3807
2001-05-14,23.6287
2001-05-15,23.9671
2001-05-16,25.4333
2001-05-17,25.9879
2001-05-18,26.1665
2001-05-21,28.4316
2001-05-22,27.9804
2001-05-23,25.9033
2001-05-24,24.813
2001-05-25,24.4559
2001-05-29,23.3375
2001-05-30,21.7772
2001-05-31,22.6889
2001-06-01,23.5912
2001-06-04,23.3562
2001-06-05,25.5462
2001-06-06,24.6533
2001-06-07,27.2567
2001-06-08,26.1571
2001-06-11,24.907
2001-06-12,25.1702
2001-06-13,24.5781
2001-06-14,23.5066
2001-06-15,23.9108
2001-06-18,24.1739
2001-06-19,24.5216
2001-06-20,24.2115
2001-06-21,24.8036
2001-06-22,23.8449
2001-06-25,25.2359
2001-06-26,25.3111
2001-06-27,24.5686
2001-06-28,26.345
2001-06-29,27.83
2001-07-02,27.5388
2001-07-03,27.2474
2001-07-05,26.533
2001-07-06,24.9728
2001-07-09,25.6402
2001-07-10,25.377
2001-07-11,27.1722
2001-07-12,30.9129
2001-07-13,29.3057
2001-07-16,27.6985
2001-07-17,28.7887
2001-07-18,27.3883
2001-07-19,28.5725
2001-07-20,27.5388
2001-07-23,27.0312
2001-07-24,25.8657
2001-07-25,26.0067
2001-07-26,28.1214
2001-07-27,28.4974
2001-07-30,28.5068
2001-07-31,28.3376
2001-08-01,30.2738
2001-08-02,30.678
2001-08-03,29.3715
2001-08-06,29.9918
2001-08-07,29.6534
2001-08-08,27.7173
2001-08-09,28.1402
2001-08-10,27.9899
2001-08-13,28.9109
2001-08-14,28.5632
2001-08-15,27.1722
2001-08-16,27.6703
2001-08-17,26.2698
2001-08-20,26.6176
2001-08-21,24.9634
2001-08-22,27.0218
2001-08-23,26.4484
2001-08-24,28.1214
2001-08-27,28.3564
2001-08-28,28.1121
2001-08-29,26.486
2001-08-30,26.2041
2001-08-31,26.6646
2001-09-04,26.1758
2001-09-05,26.2228
2001-09-06,25.4333
2001-09-07,25.2266
2001-09-10,24.719
2001-09-17,21.5046
2001-09-18,20.4143
2001-09-19,19.3429
2001-09-20,18.1868
2001-09-21,16.8522
2001-09-24,17.9519
2001-09-25,17.3785
2001-09-26,15.386
2001-09-27,14.9066
2001-09-28,15.4987
2001-10-01,14.8032
2001-10-02,14.4085
2001-10-03,16.8052
2001-10-04,17.5947
2001-10-05,17.8014
2001-10-08,18.9857
2001-10-09,18.0083
2001-10-10,19.7095
2001-10-11,21.8523
2001-10-12,21.7866
2001-10-15,19.1549
2001-10-16,19.8128
2001-10-17,18.0835
2001-10-18,17.3221
2001-10-19,17.5007
2001-10-22,18.779
2001-10-23,18.92
2001-10-24,19.7752
2001-10-25,20.7057
2001-10-26,20.546
2001-10-29,19.4181
2001-10-30,18.3654
2001-10-31,19.2865
2001-11-01,20.217
2001-11-02,21.2885
2001-11-05,22.9991
2001-11-06,23.7979
2001-11-07,23.0743
2001-11-08,21.6362
2001-11-09,22.2284
2001-11-12,23.0273
2001-11-13,23.4972
2001-11-14,23.234
2001-11-15,23.3092
2001-11-16,23.5348
2001-11-19,23.0743
2001-11-20,21.5046
2001-11-21,21.9275
2001-11-23,22.0215
2001-11-26,22.6983
2001-11-27,22.2566
2001-11-28,20.5083
2001-11-29,22.0404
2001-11-30,21.4482
2001-12-03,21.2415
2001-12-04,22.7922
2001-12-05,25.0104
2001-12-06,25.1796
2001-12-07,23.5536
2001-12-10,22.6701
2001-12-11,23.1306
2001-12-12,23.2998
2001-12-13,21.3919
2001-12-14,21.7584
2001-12-17,21.9934
2001-12-18,23.0084
2001-12-19,20.8749
2001-12-20,18.7601
2001-12-21,20.217
2001-12-24,20.2921
2001-12-26,20.029
2001-12-27,20.0478
2001-12-28,21.0347
2001-12-31,19.9632
2002-01-02,20.9031
2002-01-03,23.375
2002-01-04,23.1494
2002-01-07,22.4821
2002-01-08,23.4126
2002-01-09,23.7886
2002-01-10,23.375
2002-01-11,22.9239
2002-01-14,22.6795
2002-01-15,22.7829
2002-01-16,21.8148
2002-01-17,22.6983
2002-01-18,21.702
2002-01-22,20.8279
2002-01-23,21.7584
2002-01-24,22.1532
2002-01-25,22.5855
2002-01-28,23.3938
2002-01-29,22.6983
2002-01-30,23.8638
2002-01-31,23.6382
2002-02-01,23.4972
2002-02-04,23.0084
2002-02-05,22.0215
2002-02-06,21.8242
2002-02-07,21.5141
2002-02-08,21.9934
2002-02-11,22.6137
2002-02-12,22.1344
2002-02-13,21.937
2002-02-14,22.5197
2002-02-15,22.0967
2002-02-19,20.7151
2002-02-20,20.7997
2002-02-21,18.6661
2002-02-22,18.7131
2002-02-25,20.2546
2002-02-26,19.5403
2002-02-27,18.7978
2002-02-28,17.9049
2002-03-01,19.5591
2002-03-04,21.0628
2002-03-05,21.8523
2002-03-06,21.2509
2002-03-07,21.6456
2002-03-08,23.328
2002-03-11,22.5385
2002-03-12,21.7772
2002-03-13,20.8467
2002-03-14,20.9219
2002-03-15,21.2979
2002-03-18,21.2979
2002-03-19,21.8054
2002-03-20,20.9031
2002-03-21,21.2509
2002-03-22,21.0535
2002-03-25,20.0948
2002-03-26,20.546
2002-03-27,20.3016
2002-03-28,20.6399
2002-04-01,21.5798
2002-04-02,20.7903
2002-04-03,20.3298
2002-04-04,20.9219
2002-04-05,20.7716
2002-04-08,20.9876
2002-04-09,20.3016
2002-04-10,20.9031
2002-04-11,19.6625
2002-04-12,20.2264
2002-04-15,20.9407
2002-04-16,22.078
2002-04-17,22.9709
2002-04-18,22.6983
2002-04-19,21.1193
2002-04-22,20.311
2002-04-23,19.6437
2002-04-24,19.3899
2002-04-25,19.653
2002-04-26,18.7978
2002-04-29,18.6379
2002-04-30,19.2489
2002-05-01,19.5215
2002-05-02,18.6098
2002-05-03,17.1999
2002-05-06,16.4386
2002-05-07,16.3729
2002-05-08,18.4876
2002-05-09,17.6793
2002-05-10,16.7864
2002-05-13,17.7545
2002-05-14,19.3523
2002-05-15,18.8353
2002-05-16,19.1362
2002-05-17,19.3993
2002-05-20,19.1925
2002-05-21,18.7601
2002-05-22,18.8448
2002-05-23,18.7038
2002-05-24,17.9801
2002-05-28,17.7639
2002-05-29,17.1059
2002-05-30,17.2846
2002-05-31,16.9837
2002-06-03,15.7056
2002-06-04,16.2225
2002-06-05,15.6491
2002-06-06,15.48
2002-06-07,15.6774
2002-06-10,15.8841
2002-06-11,15.3578
2002-06-12,15.4987
2002-06-13,15.2262
2002-06-14,15.6304
2002-06-17,16.1379
2002-06-18,15.7431
2002-06-19,14.6622
2002-06-20,13.6941
2002-06-21,13.0926
2002-06-24,13.5814
2002-06-25,12.8953
2002-06-26,12.6979
2002-06-27,13.29
2002-06-28,12.7731
2002-07-01,11.9554
2002-07-02,12.0024
2002-07-03,12.7543
2002-07-05,14.0514
2002-07-08,13.0926
2002-07-09,12.8106
2002-07-10,12.4253
2002-07-11,13.0738
2002-07-12,12.3125
2002-07-15,12.9516
2002-07-16,12.8201
2002-07-17,12.3595
2002-07-18,11.9554
2002-07-19,11.7486
2002-07-22,11.6076
2002-07-23,11.1189
2002-07-24,12.0118
2002-07-25,10.9591
2002-07-26,10.3387
2002-07-29,11.3821
2002-07-30,11.5606
2002-07-31,11.0907
2002-08-01,10.3012
2002-08-02,10.2542
2002-08-05,9.71844
2002-08-06,10.5456
2002-08-07,10.4797
2002-08-08,10.9027
2002-08-09,10.7618
2002-08-12,10.4986
2002-08-13,10.32
2002-08-14,10.7805
2002-08-15,11.3069
2002-08-16,11.8332
2002-08-19,12.2843
2002-08-20,11.7298
2002-08-21,12.1998
2002-08-22,12.1058
2002-08-23,11.2317
2002-08-26,11.5513
2002-08-27,10.6019
2002-08-28,10.4422
2002-08-29,10.3294
2002-08-30,10.0193
2002-09-03,9.29549
2002-09-04,9.79363
2002-09-05,9.12631
2002-09-06,9.53986
2002-09-09,9.56806
2002-09-10,9.90641
2002-09-11,10.4422
2002-09-12,9.69024
2002-09-13,9.60566
2002-09-16,9.2673
2002-09-17,9.40828
2002-09-18,9.2297
2002-09-19,9.02292
2002-09-20,9.04172
2002-09-23,8.3932
2002-09-24,8.58117
2002-09-25,9.24849
2002-09-26,8.72216
2002-09-27,8.60937
2002-09-30,8.17702
2002-10-01,9.05112
2002-10-02,9.34248
2002-10-03,8.87254
2002-10-04,8.85374
2002-10-07,8.3556
2002-10-08,8.30861
2002-10-09,8.28981
2002-10-10,9.01352
2002-10-11,9.45527
2002-10-14,9.28609
2002-10-15,9.73724
2002-10-16,9.00412
2002-10-17,9.99097
2002-10-18,9.91581
2002-10-21,10.7618
2002-10-22,10.4797
2002-10-23,11.2599
2002-10-24,11.1471
2002-10-25,11.3633
2002-10-28,10.9779
2002-10-29,10.7618
2002-10-30,11.4291
2002-10-31,11.0343
2002-11-01,11.7862
2002-11-04,12.2655
2002-11-05,11.8426
2002-11-06,12.416
2002-11-07,10.6771
2002-11-08,10.8275
2002-11-11,10.038
2002-11-12,10.3575
2002-11-13,10.2918
2002-11-14,11.1471
2002-11-15,11.1847
2002-11-18,11.1
2002-11-19,10.7618
2002-11-20,11.4666
2002-11-21,13.0645
2002-11-22,13.0175
2002-11-25,14.0419
2002-11-26,13.3276
2002-11-27,14.0701
2002-11-29,13.6566
2002-12-02,13.8633
2002-12-03,13.0645
2002-12-04,12.3877
2002-12-05,12.1339
2002-12-06,11.9836
2002-12-09,11.1095
2002-12-10,11.6828
2002-12-11,11.664
2002-12-12,11.3726
2002-12-13,11.2786
2002-12-16,12.1433
2002-12-17,11.9272
2002-12-18,11.0907
2002-12-19,11.1471
2002-12-20,11.3162
2002-12-23,11.6358
2002-12-24,11.5324
2002-12-26,11.5418
2002-12-27,11.4854
2002-12-30,11.3726
2002-12-31,11.4666
2003-01-02,12.4535
2003-01-03,12.5851
2003-01-06,13.2242
2003-01-07,13.3559
2003-01-08,13.1678
2003-01-09,13.4028
2003-01-10,13.6001
2003-01-13,13.5532
2003-01-14,13.5814
2003-01-15,13.243
2003-01-16,12.7919
2003-01-17,11.6828
2003-01-21,11.5043
2003-01-22,10.884
2003-01-23,10.8087
2003-01-24,10.6489
2003-01-27,10.2354
2003-01-28,10.6678
2003-01-29,11.1282
2003-01-30,10.2918
2003-01-31,10.3482
2003-02-03,10.367
2003-02-04,10.4234
2003-02-05,10.5174
2003-02-06,10.4797
2003-02-07,10.1978
2003-02-10,10.4892
2003-02-11,10.7053
2003-02-12,10.4327
2003-02-13,10.6678
2003-02-14,10.9873
2003-02-18,11.7862
2003-02-19,11.7204
2003-02-20,11.5982
2003-02-21,11.8426
2003-02-24,11.4666
2003-02-25,11.4196
2003-02-26,10.8463
2003-02-27,11.1847
2003-02-28,11.6922
2003-03-03,11.2222
2003-03-04,11.3256
2003-03-05,11.4666
2003-03-06,11.4008
2003-03-07,11.3726
2003-03-10,11.0625
2003-03-11,10.9591
2003-03-12,11.7862
2003-03-13,13.196
2003-03-14,13.008
2003-03-17,13.854
2003-03-18,14.1265
2003-03-19,13.8727
2003-03-20,13.901
2003-03-21,14.2863
2003-03-24,13.5908
2003-03-25,13.713
2003-03-26,13.76
2003-03-27,13.9103
2003-03-28,13.2994
2003-03-31,12.7354
2003-04-01,12.9141
2003-04-02,13.5062
2003-04-03,13.4968
2003-04-04,13.2994
2003-04-07,13.4968
2003-04-08,13.2054
2003-04-09,13.149
2003-04-10,13.196
2003-04-11,13.0833
2003-04-14,13.5249
2003-04-15,13.6753
2003-04-16,14.3333
2003-04-17,14.8409
2003-04-21,14.8409
2003-04-22,15.2168
2003-04-23,15.7526
2003-04-24,15.6867
2003-04-25,14.9536
2003-04-28,15.5364
2003-04-29,15.2638
2003-04-30,14.9254
2003-05-01,14.9536
2003-05-02,15.5175
2003-05-05,15.8371
2003-05-06,16.1285
2003-05-07,15.7901
2003-05-08,15.5457
2003-05-09,16.1097
2003-05-12,16.3729
2003-05-13,16.0157
2003-05-14,15.9968
2003-05-15,16.6266
2003-05-16,16.5796
2003-05-19,15.9123
2003-05-20,15.7713
2003-05-21,15.9217
2003-05-22,16.3071
2003-05-23,16.4386
2003-05-27,18.168
2003-05-28,17.8579
2003-05-29,18.1023
2003-05-30,17.9988
2003-06-02,17.2469
2003-06-03,17.4443
2003-06-04,17.8954
2003-06-05,17.8579
2003-06-06,17.6605
2003-06-09,17.1529
2003-06-10,17.2846
2003-06-11,17.1717
2003-06-12,16.4104
2003-06-13,15.7807
2003-06-16,16.2694
2003-06-17,16.1285
2003-06-18,16.5138
2003-06-19,16.1567
2003-06-20,15.7619
2003-06-23,15.1134
2003-06-24,15.0006
2003-06-25,15.0852
2003-06-26,15.4612
2003-06-27,15.1416
2003-06-30,15.4142
2003-07-01,15.8371
2003-07-02,16.0063
2003-07-03,16.2037
2003-07-07,17.7732
2003-07-08,18.2432
2003-07-09,18.6004
2003-07-10,18.0083
2003-07-11,18.0083
2003-07-14,18.0458
2003-07-15,17.7639
2003-07-16,17.3973
2003-07-17,17.1059
2003-07-18,17.6699
2003-07-21,17.3598
2003-07-22,16.8992
2003-07-23,17.3973
2003-07-24,16.9274
2003-07-25,17.3785
2003-07-28,17.9988
2003-07-29,17.9613
2003-07-30,17.6229
2003-07-31,18.0271
2003-08-01,18.5628
2003-08-04,18.6474
2003-08-05,17.8767
2003-08-06,17.8202
2003-08-07,17.3128
2003-08-08,17.0872
2003-08-11,17.6229
2003-08-12,18.1868
2003-08-13,18.1868
2003-08-14,18.7508
2003-08-15,18.5157
2003-08-18,19.6248
2003-08-19,20.4802
2003-08-20,20.1136
2003-08-21,20.9031
2003-08-22,20.7621
2003-08-25,20.7716
2003-08-26,20.5554
2003-08-27,21.1005
2003-08-28,20.9876
2003-08-29,21.1098
2003-09-02,20.9125
2003-09-03,20.5365
2003-09-04,20.7434
2003-09-05,21.0817
2003-09-08,21.6081
2003-09-09,21.4294
2003-09-10,20.4238
2003-09-11,20.7245
2003-09-12,20.546
2003-09-15,20.0384
2003-09-16,20.6024
2003-09-17,20.3016
2003-09-18,20.4143
2003-09-19,20.1512
2003-09-22,19.5308
2003-09-23,20.0666
2003-09-24,19.1173
2003-09-25,18.8448
2003-09-26,18.3842
2003-09-29,18.2432
2003-09-30,17.8297
2003-10-01,16.871
2003-10-02,16.4386
2003-10-03,16.824
2003-10-06,16.7112
2003-10-07,17.8673
2003-10-08,17.4443
2003-10-09,17.0872
2003-10-10,17.4161
2003-10-13,17.7169
2003-10-14,18.215
2003-10-15,18.2338
2003-10-16,18.3467
2003-10-17,17.435
2003-10-20,17.6229
2003-10-21,17.8202
2003-10-22,17.4913
2003-10-23,17.3598
2003-10-24,17.3315
2003-10-27,17.2846
2003-10-28,18.6379
2003-10-29,19.1737
2003-10-30,18.967
2003-10-31,19.0233
2003-11-03,20.0948
2003-11-04,19.982
2003-11-05,20.0196
2003-11-06,20.499
2003-11-07,20.9876
2003-11-10,20.0196
2003-11-11,20.2828
2003-11-12,21.3637
2003-11-13,21.0253
2003-11-14,21.373
2003-11-17,21.7208
2003-11-18,21.7584
2003-11-19,22.2284
2003-11-20,22.0122
2003-11-21,22.5103
2003-11-24,23.5348
2003-11-25,23.0084
2003-11-26,23.7509
2003-11-28,23.8074
2003-12-01,23.7698
2003-12-02,23.3092
2003-12-03,23.0084
2003-12-04,23.2058
2003-12-05,22.0404
2003-12-08,22.0028
2003-12-09,21.0723
2003-12-10,21.5329
2003-12-11,21.5234
2003-12-12,21.185
2003-12-15,20.5083
2003-12-16,20.6212
2003-12-17,20.264
2003-12-18,21.2509
2003-12-19,21.1381
2003-12-22,20.9031
2003-12-23,21.4482
2003-12-24,21.3072
2003-12-26,21.1193
2003-12-29,21.7208
2003-12-30,21.4389
2003-12-31,21.2602
2004-01-02,21.3824
2004-01-05,22.0592
2004-01-06,21.9088
2004-01-07,21.9558
2004-01-08,24.2397
2004-01-09,24.4277
2004-01-12,25.1326
2004-01-13,24.0611
2004-01-14,24.2491
2004-01-15,23.5254
2004-01-16,23.7886
2004-01-20,23.5536
2004-01-21,22.3693
2004-01-22,22.9332
2004-01-23,22.4258
2004-01-26,22.7453
2004-01-27,21.2697
2004-01-28,21.2509
2004-01-29,21.326
2004-01-30,21.1005
2004-02-02,20.5929
2004-02-03,20.7057
2004-02-04,20.0666
2004-02-05,20.452
2004-02-06,21.5611
2004-02-09,21.4389
2004-02-10,21.5046
2004-02-11,21.89
2004-02-12,21.3824
2004-02-13,20.9971
2004-02-17,21.0628
2004-02-18,21.1475
2004-02-19,20.7903
2004-02-20,20.5647
2004-02-23,20.5177
2004-02-24,20.5177
2004-02-25,21.2415
2004-02-26,21.4482
2004-02-27,20.8373
2004-03-01,21.5046
2004-03-02,21.5516
2004-03-03,21.2697
2004-03-04,21.4764
2004-03-05,21.326
2004-03-08,20.1606
2004-03-09,20.0009
2004-03-10,19.5966
2004-03-11,19.4556
2004-03-12,19.8222
2004-03-15,19.1549
2004-03-16,19.1455
2004-03-17,19.4839
2004-03-18,19.1831
2004-03-19,18.6849
2004-03-22,18.3278
2004-03-23,18.1493
2004-03-24,18.403
2004-03-25,19.2771
2004-03-26,19.0233
2004-03-29,19.4087
2004-03-30,19.3523
2004-03-31,19.2207
2004-04-01,19.5685
2004-04-02,20.6587
2004-04-05,20.8467
2004-04-06,20.6212
2004-04-07,20.7809
2004-04-08,20.9971
2004-04-12,20.9971
2004-04-13,20.546
2004-04-14,20.2264
2004-04-15,19.5308
2004-04-16,19.0233
2004-04-19,19.653
2004-04-20,18.5534
2004-04-21,19.1455
2004-04-22,19.8128
2004-04-23,20.4802
2004-04-26,19.9444
2004-04-27,19.9069
2004-04-28,19.3993
2004-04-29,18.8918
2004-04-30,18.7696
2004-05-03,18.7319
2004-05-04,19.1362
2004-05-05,19.5591
2004-05-06,19.4087
2004-05-07,19.7565
2004-05-10,20.123
2004-05-11,20.7339
2004-05-12,20.264
2004-05-13,19.9632
2004-05-14,19.4087
2004-05-17,18.873
2004-05-18,19.5496
2004-05-19,20.1512
2004-05-20,19.935
2004-05-21,20.2264
2004-05-24,20.3298
2004-05-25,20.9501
2004-05-26,21.4012
2004-05-27,21.2885
2004-05-28,21.5986
2004-06-01,21.4764
2004-06-02,20.8749
2004-06-03,20.6212
2004-06-04,21.1568
2004-06-07,22.1437
2004-06-08,22.1344
2004-06-09,21.4764
2004-06-10,21.3637
2004-06-14,20.4708
2004-06-15,20.5554
2004-06-16,20.264
2004-06-17,19.1455
2004-06-18,19.3053
2004-06-21,18.9293
2004-06-22,19.8128
2004-06-23,20.1324
2004-06-24,19.8035
2004-06-25,20.0196
2004-06-28,20.499
2004-06-29,20.6494
2004-06-30,20.8373
2004-07-01,19.7752
2004-07-02,19.4745
2004-07-06,18.8635
2004-07-07,18.8635
2004-07-08,19.0609
2004-07-09,19.4651
2004-07-12,18.826
2004-07-13,18.6379
2004-07-14,18.1398
2004-07-15,17.9988
2004-07-16,17.6981
2004-07-19,17.9613
2004-07-20,18.1398
2004-07-21,17.6981
2004-07-22,18.4687
2004-07-23,18.6756
2004-07-26,18.1962
2004-07-27,18.7038
2004-07-28,18.826
2004-07-29,19.794
2004-07-30,19.6907
2004-08-02,20.17
2004-08-03,19.5403
2004-08-04,19.7282
2004-08-05,19.7188
2004-08-06,18.873
2004-08-09,18.8448
2004-08-10,19.1455
2004-08-11,18.3184
2004-08-12,18.0741
2004-08-13,18.3748
2004-08-16,18.4782
2004-08-17,18.5252
2004-08-18,19.4181
2004-08-19,19.4087
2004-08-20,19.3334
2004-08-23,19.1831
2004-08-24,18.4312
2004-08-25,18.45
2004-08-26,18.0553
2004-08-27,18.1398
2004-08-30,17.9236
2004-08-31,17.8109
2004-09-01,17.8767
2004-09-02,17.8673
2004-09-03,16.7676
2004-09-07,16.6924
2004-09-08,16.6454
2004-09-09,17.5195
2004-09-10,18.1868
2004-09-13,19.0892
2004-09-14,18.9293
2004-09-15,18.215
2004-09-16,18.2715
2004-09-17,18.6474
2004-09-20,19.2771
2004-09-21,19.5873
2004-09-22,18.9952
2004-09-23,19.1549
2004-09-24,18.1775
2004-09-27,17.7545
2004-09-28,17.7451
2004-09-29,18.1868
2004-09-30,18.3654
2004-10-01,19.0609
2004-10-04,19.1455
2004-10-05,19.1831
2004-10-06,19.1267
2004-10-07,19.1362
2004-10-08,18.5252
2004-10-11,18.6286
2004-10-12,18.6849
2004-10-13,18.6192
2004-10-14,18.403
2004-10-15,18.4218
2004-10-18,18.544
2004-10-19,18.6379
2004-10-20,19.0703
2004-10-21,21.2227
2004-10-22,20.4332
2004-10-25,20.6117
2004-10-26,20.264
2004-10-27,21.3072
2004-10-28,21.3072
2004-10-29,21.3637
2004-11-01,21.5141
2004-11-02,21.843
2004-11-03,21.2697
2004-11-04,21.3167
2004-11-05,21.4764
2004-11-08,21.279
2004-11-09,21.0065
2004-11-10,20.4802
2004-11-11,21.0911
2004-11-12,21.5986
2004-11-15,21.9464
2004-11-16,21.8148
2004-11-17,22.2377
2004-11-18,22.5949
2004-11-19,21.9934
2004-11-22,22.0122
2004-11-23,21.6081
2004-11-24,21.6926
2004-11-26,21.3824
2004-11-29,21.2227
2004-11-30,21.326
2004-12-01,22.3129
2004-12-02,21.6644
2004-12-03,21.8523
2004-12-06,21.9745
2004-12-07,21.279
2004-12-08,20.8467
2004-12-09,19.2677
2004-12-10,19.0515
2004-12-13,18.9388
2004-12-14,19.1737
2004-12-15,19.1362
2004-12-16,18.92
2004-12-17,18.779
2004-12-20,18.6944
2004-12-21,18.8823
2004-12-22,18.8918
2004-12-23,19.0422
2004-12-27,18.8823
2004-12-28,18.9857
2004-12-29,19.1831
2004-12-30,19.1925
2004-12-31,19.4087
2005-01-03,18.826
2005-01-04,18.0458
2005-01-05,17.7451
2005-01-06,17.5759
2005-01-07,17.5477
2005-01-10,17.3691
2005-01-11,17.012
2005-01-12,16.9837
2005-01-13,16.918
2005-01-14,17.0402
2005-01-18,17.3785
2005-01-19,16.8615
2005-01-20,17.1529
2005-01-21,16.9744
2005-01-24,16.824
2005-01-25,17.1999
2005-01-26,17.2939
2005-01-27,17.5195
2005-01-28,17.3973
2005-01-31,18.0083
2005-02-01,18.121
2005-02-02,18.0271
2005-02-03,17.7827
2005-02-04,18.2245
2005-02-07,18.4124
2005-02-08,18.8166
2005-02-09,18.3278
2005-02-10,18.6756
2005-02-11,19.2489
2005-02-14,19.2207
2005-02-15,19.2771
2005-02-16,19.1737
2005-02-17,18.9952
2005-02-18,18.8918
2005-02-22,18.9011
2005-02-23,18.8823
2005-02-24,19.3523
2005-02-25,19.7
2005-02-28,19.4933
2005-03-01,20.0854
2005-03-02,19.747
2005-03-03,19.2207
2005-03-04,19.2489
2005-03-07,19.8222
2005-03-08,19.5496
2005-03-09,19.2207
2005-03-10,19.3241
2005-03-11,19.1455
2005-03-14,19.2677
2005-03-15,18.873
2005-03-16,18.6756
2005-03-17,18.7226
2005-03-18,18.0646
2005-03-21,18.1586
2005-03-22,18.0271
2005-03-23,18.1398
2005-03-24,18.2056
2005-03-28,18.121
2005-03-29,18.0458
2005-03-30,18.5816
2005-03-31,18.5628
2005-04-01,18.1775
2005-04-04,18.2997
2005-04-05,18.356
2005-04-06,18.5064
2005-04-07,18.826
2005-04-08,18.8918
2005-04-11,18.4687
2005-04-12,18.2997
2005-04-13,18.0741
2005-04-14,17.8767
2005-04-15,17.1624
2005-04-18,17.3128
2005-04-19,17.5853
2005-04-20,17.8297
2005-04-21,18.309
2005-04-22,17.8861
2005-04-25,18.0928
2005-04-26,19.3993
2005-04-27,19.4651
2005-04-28,19.3147
2005-04-29,19.4651
2005-05-02,19.3617
2005-05-03,19.3617
2005-05-04,19.5215
2005-05-05,19.3899
2005-05-06,19.6061
2005-05-09,19.7188
2005-05-10,19.4275
2005-05-11,19.3241
2005-05-12,19.5121
2005-05-13,19.8787
2005-05-16,19.9069
2005-05-17,20.4802
2005-05-18,20.7245
2005-05-19,20.7434
2005-05-20,20.9595
2005-05-23,20.7621
2005-05-24,20.9595
2005-05-25,20.9313
2005-05-26,21.2227
2005-05-27,20.9313
2005-05-31,20.8561
2005-06-01,20.8279
2005-06-02,21.2227
2005-06-03,20.8467
2005-06-06,20.499
2005-06-07,20.4143
2005-06-08,20.4425
2005-06-09,20.7903
2005-06-10,20.2828
2005-06-13,20.1794
2005-06-14,19.9539
2005-06-15,19.9256
2005-06-16,19.9632
2005-06-17,19.6343
2005-06-20,19.3804
2005-06-21,19.3899
2005-06-22,19.4181
2005-06-23,19.4839
2005-06-24,19.1173
2005-06-27,18.5064
2005-06-28,18.3842
2005-06-29,18.6286
2005-06-30,18.6192
2005-07-01,18.6286
2005-07-05,18.9952
2005-07-06,19.4275
2005-07-07,19.6813
2005-07-08,20.2546
2005-07-11,20.5083
2005-07-12,20.5835
2005-07-13,20.7151
2005-07-14,20.6775
2005-07-15,20.6494
2005-07-18,20.6587
2005-07-19,20.8279
2005-07-20,21.0159
2005-07-21,20.7621
2005-07-22,20.9125
2005-07-25,21.1475
2005-07-26,21.1475
2005-07-27,20.8091
2005-07-28,20.7527
2005-07-29,20.5742
2005-08-01,20.2734
2005-08-02,21.4294
2005-08-03,21.4859
2005-08-04,21.2133
2005-08-05,21.1098
2005-08-08,21.1005
2005-08-09,21.1005
2005-08-10,21.0253
2005-08-11,20.9689
2005-08-12,20.5929
2005-08-15,20.6775
2005-08-16,20.3298
2005-08-17,20.4425
2005-08-18,20.3392
2005-08-19,20.2921
2005-08-22,20.4895
2005-08-23,20.5742
2005-08-24,20.3862
2005-08-25,20.4708
2005-08-26,20.0854
2005-08-29,20.405
2005-08-30,20.3955
2005-08-31,20.546
2005-09-01,20.1981
2005-09-02,20.1606
2005-09-06,20.4708
2005-09-07,18.8635
2005-09-08,18.6286
2005-09-09,18.5909
2005-09-12,18.3748
2005-09-13,18.356
2005-09-14,18.309
2005-09-15,17.8579
2005-09-16,17.9894
2005-09-19,17.7262
2005-09-20,18.1023
2005-09-21,17.6323
2005-09-22,17.4537
2005-09-23,17.5853
2005-09-26,17.8109
2005-09-27,17.6323
2005-09-28,17.3973
2005-09-29,17.7357
2005-09-30,17.9331
2005-10-03,18.309
2005-10-04,17.8297
2005-10-05,17.5195
2005-10-06,17.3033
2005-10-07,17.2469
2005-10-10,16.9085
2005-10-11,16.1942
2005-10-12,16.4762
2005-10-13,16.5984
2005-10-14,16.5326
2005-10-17,16.8146
2005-10-18,16.5796
2005-10-19,16.589
2005-10-20,16.3634
2005-10-21,16.2789
2005-10-24,16.6173
2005-10-25,15.4047
2005-10-26,15.433
2005-10-27,15.3202
2005-10-28,15.339
2005-10-31,15.6679
2005-11-01,15.6021
2005-11-02,15.8653
2005-11-03,15.9311
2005-11-04,15.9311
2005-11-07,16.26
2005-11-08,16.1755
2005-11-09,16.1755
2005-11-10,16.5703
2005-11-11,16.4199
2005-11-14,16.5608
2005-11-15,16.5608
2005-11-16,16.3634
2005-11-17,16.7018
2005-11-18,17.2939
2005-11-21,17.2376
2005-11-22,17.2658
2005-11-23,17.1717
2005-11-25,17.2939
2005-11-28,17.1906
2005-11-29,17.1999
2005-11-30,17.1341
2005-12-01,17.9706
2005-12-02,17.9424
2005-12-05,17.1811
2005-12-06,18.215
2005-12-07,18.1586
2005-12-08,17.8202
2005-12-09,17.8767
2005-12-12,18.2715
2005-12-13,18.4782
2005-12-14,18.3278
2005-12-15,18.1493
2005-12-16,17.9801
2005-12-19,17.7075
2005-12-20,17.7827
2005-12-21,17.7262
2005-12-22,18.0458
2005-12-23,18.0271
2005-12-27,17.8109
2005-12-28,17.7639
2005-12-29,17.5853
2005-12-30,17.4537
2006-01-03,17.9801
2006-01-04,18.0364
2006-01-05,18.5346
2006-01-06,18.6286
2006-01-09,18.6098
2006-01-10,18.3748
2006-01-11,18.2997
2006-01-12,17.9613
2006-01-13,17.8673
2006-01-17,17.8579
2006-01-18,17.9613
2006-01-19,18.5816
2006-01-20,17.435
2006-01-23,17.3598
2006-01-24,17.5477
2006-01-25,17.7921
2006-01-26,18.2808
2006-01-27,18.1023
2006-01-30,18.1586
2006-01-31,18.1305
2006-02-01,18.9011
2006-02-02,18.168
2006-02-03,17.8391
2006-02-06,18.0646
2006-02-07,18.356
2006-02-08,18.967
2006-02-09,19.0045
2006-02-10,18.6004
2006-02-13,18.5628
2006-02-14,18.7319
2006-02-15,18.7508
2006-02-16,18.7978
2006-02-17,18.7601
2006-02-21,18.4782
2006-02-22,18.7601
2006-02-23,18.4312
2006-02-24,18.5064
2006-02-27,18.5628
2006-02-28,18.8541
2006-03-01,19.9444
2006-03-02,19.9256
2006-03-03,19.7
2006-03-06,19.0515
2006-03-07,18.5816
2006-03-08,18.5722
2006-03-09,18.5534
2006-03-10,18.6661
2006-03-13,18.4687
2006-03-14,18.967
2006-03-15,19.1549
2006-03-16,18.6474
2006-03-17,18.6192
2006-03-20,18.6004
2006-03-21,18.7696
2006-03-22,19.2019
2006-03-23,19.1455
2006-03-24,19.4933
2006-03-27,19.7282
2006-03-28,19.1549
2006-03-29,19.4933
2006-03-30,19.6061
2006-03-31,19.4181
2006-04-03,19.3241
2006-04-04,19.014
2006-04-05,19.5966
2006-04-06,19.9256
2006-04-07,19.4275
2006-04-10,19.5685
2006-04-11,19.5308
2006-04-12,19.1173
2006-04-13,19.3429
2006-04-17,19.1267
2006-04-18,19.9162
2006-04-19,20.2734
2006-04-20,20.311
2006-04-21,20.123
2006-04-24,19.9632
2006-04-25,20.1512
2006-04-26,20.0948
2006-04-27,20.4613
2006-04-28,20.5083
2006-05-01,20.0102
2006-05-02,20.3486
2006-05-03,20.7151
2006-05-04,20.5083
2006-05-05,20.5083
2006-05-08,20.7057
2006-05-09,19.8035
2006-05-10,18.873
2006-05-11,18.8448
2006-05-12,18.45
2006-05-15,18.3936
2006-05-16,18.544
2006-05-17,18.2715
2006-05-18,17.5759
2006-05-19,17.5759
2006-05-22,17.2469
2006-05-23,17.0684
2006-05-24,17.8297
2006-05-25,17.8673
2006-05-26,17.9801
2006-05-30,17.9049
2006-05-31,18.3654
2006-06-01,18.262
2006-06-02,17.9049
2006-06-05,17.2563
2006-06-06,17.3221
2006-06-07,16.9274
2006-06-08,16.9837
2006-06-09,16.7676
2006-06-12,16.5044
2006-06-13,16.3447
2006-06-14,16.4104
2006-06-15,16.8615
2006-06-16,16.6548
2006-06-19,16.5138
2006-06-20,16.4011
2006-06-21,16.7676
2006-06-22,16.1942
2006-06-23,16.2412
2006-06-26,16.2225
2006-06-27,16.0909
2006-06-28,16.0251
2006-06-29,16.6173
2006-06-30,16.5326
2006-07-03,16.4386
2006-07-05,16.119
2006-07-06,16.1379
2006-07-07,15.9029
2006-07-10,15.5927
2006-07-11,16.072
2006-07-12,15.4987
2006-07-13,15.4424
2006-07-14,15.3013
2006-07-17,15.4235
2006-07-18,15.5364
2006-07-19,15.9123
2006-07-20,15.2262
2006-07-21,14.8127
2006-07-24,15.3765
2006-07-25,15.7901
2006-07-26,15.8841
2006-07-27,15.9029
2006-07-28,16.2882
2006-07-31,16.2789
2006-08-01,15.9029
2006-08-02,16.1755
2006-08-03,16.3916
2006-08-04,16.4292
2006-08-07,16.3729
2006-08-08,16.2977
2006-08-09,16.6266
2006-08-10,16.8334
2006-08-11,16.5421
2006-08-14,17.0026
2006-08-15,17.5665
2006-08-16,18.2526
2006-08-17,18.0835
2006-08-18,18.2526
2006-08-21,18.0553
2006-08-22,18.1868
2006-08-23,17.8391
2006-08-24,18.0458
2006-08-25,17.8014
2006-08-28,18.3936
2006-08-29,18.7601
2006-08-30,18.9952
2006-08-31,19.014
2006-09-01,18.6474
2006-09-05,18.7883
2006-09-06,18.1398
2006-09-07,18.121
2006-09-08,18.1305
2006-09-11,18.3467
2006-09-12,18.8918
2006-09-13,18.6192
2006-09-14,18.5157
2006-09-15,18.3842
2006-09-18,18.3654
2006-09-19,17.9613
2006-09-20,18.2997
2006-09-21,17.7827
2006-09-22,17.4255
2006-09-25,17.9331
2006-09-26,17.6511
2006-09-27,17.4161
2006-09-28,17.2751
2006-09-29,17.2563
2006-10-02,17.1624
2006-10-03,17.1247
2006-10-04,17.7262
2006-10-05,17.5571
2006-10-06,17.3598
2006-10-09,17.7639
2006-10-10,17.4725
2006-10-11,17.7827
2006-10-12,18.1868
2006-10-13,17.9894
2006-10-16,17.8579
2006-10-17,17.5947
2006-10-18,17.3221
2006-10-19,17.5759
2006-10-20,17.2846
2006-10-23,17.1059
2006-10-24,16.7112
2006-10-25,16.9932
2006-10-26,17.3033
2006-10-27,16.8428
2006-10-30,17.0872
2006-10-31,17.3221
2006-11-01,16.6642
2006-11-02,16.5796
2006-11-03,16.683
2006-11-06,17.3315
2006-11-07,18.168
2006-11-08,18.0646
2006-11-09,17.8484
2006-11-10,18.0364
2006-11-13,18.6192
2006-11-14,19.0515
2006-11-15,19.1267
2006-11-16,19.3334
2006-11-17,19.2489
2006-11-20,19.4087
2006-11-21,19.2207
2006-11-22,19.2959
2006-11-24,19.2771
2006-11-27,18.7978
2006-11-28,18.7131
2006-11-29,18.6286
2006-11-30,18.6944
2006-12-01,18.3936
2006-12-04,19.1079
2006-12-05,19.0515
2006-12-06,19.014
2006-12-07,18.544
2006-12-08,18.3936
2006-12-11,18.2808
2006-12-12,18.3467
2006-12-13,18.2245
2006-12-14,18.6944
2006-12-15,18.873
2006-12-18,18.6379
2006-12-19,18.2997
2006-12-20,18.6004
2006-12-21,18.2902
2006-12-22,18.2997
2006-12-26,18.3748
2006-12-27,18.4594
2006-12-28,18.6004
2006-12-29,18.4782
2007-01-03,18.4218
2007-01-04,18.8541
2007-01-05,18.7696
2007-01-08,18.6286
2007-01-09,18.6568
2007-01-10,19.0045
2007-01-11,19.2677
2007-01-12,19.1925
2007-01-16,19.2114
2007-01-17,18.9481
2007-01-18,18.4312
2007-01-19,18.6379
2007-01-22,18.5157
2007-01-23,18.4782
2007-01-24,18.9575
2007-01-25,18.9388
2007-01-26,19.0045
2007-01-29,18.8353
2007-01-30,18.7226
2007-01-31,18.8541
2007-02-01,19.0045
2007-02-02,19.1737
2007-02-05,19.1549
2007-02-06,19.0045
2007-02-07,19.5591
2007-02-08,19.5403
2007-02-09,19.5403
2007-02-12,19.2959
2007-02-13,19.3899
2007-02-14,19.653
2007-02-15,19.8222
2007-02-16,19.8504
2007-02-20,19.9256
2007-02-21,19.841
2007-02-22,20.546
2007-02-23,20.7245
2007-02-26,20.4143
2007-02-27,19.9726
2007-02-28,19.841
2007-03-01,19.7377
2007-03-02,19.0233
2007-03-05,18.6756
2007-03-06,18.8353
2007-03-07,19.014
2007-03-08,19.2114
2007-03-09,19.4933
2007-03-12,19.8974
2007-03-13,19.6437
2007-03-14,19.7282
2007-03-15,19.6907
2007-03-16,19.5778
2007-03-19,19.3804
2007-03-20,19.7377
2007-03-21,20.3955
2007-03-22,20.1418
2007-03-23,20.1606
2007-03-26,19.8128
2007-03-27,19.6718
2007-03-28,18.8541
2007-03-29,18.8918
2007-03-30,18.7601
2007-04-02,18.7508
2007-04-03,18.9763
2007-04-04,18.9011
2007-04-05,19.2207
2007-04-09,19.014
2007-04-10,19.1362
2007-04-11,18.7601
2007-04-12,18.9575
2007-04-13,18.9763
2007-04-16,18.8635
2007-04-17,18.92
2007-04-18,19.4839
2007-04-19,19.7752
2007-04-20,19.8317
2007-04-23,20.0384
2007-04-24,21.6081
2007-04-25,21.702
2007-04-26,21.6833
2007-04-27,21.4294
2007-04-30,21.2133
2007-05-01,21.42
2007-05-02,21.9934
2007-05-03,22.0404
2007-05-04,22.0497
2007-05-07,21.9652
2007-05-08,22.1252
2007-05-09,22.6619
2007-05-10,21.8522
2007-05-11,22.1629
2007-05-14,21.8899
2007-05-15,21.5509
2007-05-16,21.758
2007-05-17,21.5038
2007-05-18,21.4944
2007-05-21,21.5697
2007-05-22,21.7392
2007-05-23,21.5697
2007-05-24,21.1555
2007-05-25,20.9672
2007-05-29,21.1366
2007-05-30,21.2214
2007-05-31,21.4568
2007-06-01,21.372
2007-06-04,21.4473
2007-06-05,21.5792
2007-06-06,21.3249
2007-06-07,20.8542
2007-06-08,21.1555
2007-06-11,21.0613
2007-06-12,20.8448
2007-06-13,21.1555
2007-06-14,21.3249
2007-06-15,21.598
2007-06-18,21.5415
2007-06-19,21.0613
2007-06-20,21.212
2007-06-21,21.7863
2007-06-22,21.212
2007-06-25,20.7506
2007-06-26,20.5906
2007-06-27,21.0896
2007-06-28,20.8825
2007-06-29,20.8166
2007-07-02,21.372
2007-07-03,21.2497
2007-07-05,21.8428
2007-07-06,22.144
2007-07-09,22.5301
2007-07-10,21.9369
2007-07-11,22.21
2007-07-12,22.7843
2007-07-13,22.9443
2007-07-16,22.8973
2007-07-17,23.4621
2007-07-18,23.255
2007-07-19,23.5187
2007-07-20,23.2738
2007-07-23,23.3962
2007-07-24,23.0761
2007-07-25,22.8219
2007-07-26,22.3512
2007-07-27,21.758
2007-07-30,22.1064
2007-07-31,21.8522
2007-08-01,22.0876
2007-08-02,22.1535
2007-08-03,21.5509
2007-08-06,22.0687
2007-08-07,22.5395
2007-08-08,23.558
2007-08-09,24.0579
2007-08-10,23.5769
2007-08-13,22.8695
2007-08-14,22.4169
2007-08-15,21.9925
2007-08-16,21.587
2007-08-17,21.653
2007-08-20,21.6247
2007-08-21,21.7378
2007-08-22,22.1905
2007-08-23,22.0114
2007-08-24,22.2283
2007-08-27,21.8511
2007-08-28,21.4173
2007-08-29,22.1151
2007-08-30,22.134
2007-08-31,22.4546
2007-09-04,22.9355
2007-09-05,23.1241
2007-09-06,23.077
2007-09-07,22.332
2007-09-10,22.3037
2007-09-11,22.6338
2007-09-12,22.3509
2007-09-13,22.5395
2007-09-14,22.398
2007-09-17,22.1811
2007-09-18,22.9827
2007-09-19,23.36
2007-09-20,23.6334
2007-09-21,23.7277
2007-09-24,23.2562
2007-09-25,23.6146
2007-09-26,22.879
2007-09-27,22.9545
2007-09-28,22.7093
2007-10-01,22.9167
2007-10-02,22.9355
2007-10-03,22.9922
2007-10-04,23.077
2007-10-05,23.4165
2007-10-08,23.3128
2007-10-09,23.0581
2007-10-10,22.8507
2007-10-11,22.2188
2007-10-12,22.4169
2007-10-15,22.266
2007-10-16,22.0962
2007-10-17,22.0585
2007-10-18,22.3509
2007-10-19,21.8228
2007-10-22,21.9548
2007-10-23,21.9831
2007-10-24,18.4748
2007-10-25,17.7392
2007-10-26,17.7486
2007-10-29,17.9184
2007-10-30,18.39
2007-10-31,18.4654
2007-11-01,18.1731
2007-11-02,18.2579
2007-11-05,18.0505
2007-11-06,18.2957
2007-11-07,18.2294
2007-11-08,18.0311
2007-11-09,17.9459
2007-11-12,17.8514
2007-11-13,18.1349
2007-11-14,17.8231
2007-11-15,17.9176
2007-11-16,17.8798
2007-11-19,17.653
2007-11-20,17.379
2007-11-21,17.2561
2007-11-23,17.5868
2007-11-26,17.1994
2007-11-27,17.7853
2007-11-28,18.1633
2007-11-29,18.0311
2007-11-30,17.757
2007-12-03,17.8514
2007-12-04,17.7664
2007-12-05,17.9648
2007-12-06,18.1444
2007-12-07,18.1349
2007-12-10,18.1539
2007-12-11,17.8893
2007-12-12,18.1822
2007-12-13,18.2294
2007-12-14,18.1728
2007-12-17,18.0027
2007-12-18,18.0783
2007-12-19,18.1822
2007-12-20,18.1917
2007-12-21,18.3239
2007-12-24,18.5508
2007-12-26,18.6075
2007-12-27,18.3239
2007-12-28,18.2294
2007-12-31,18.2294
2008-01-02,17.5018
2008-01-03,17.7097
2008-01-04,17.0955
2008-01-07,17.275
2008-01-08,16.7553
2008-01-09,16.7646
2008-01-10,16.6608
2008-01-11,16.1788
2008-01-14,16.604
2008-01-15,15.8953
2008-01-16,16.4339
2008-01-17,16.1032
2008-01-18,16.5851
2008-01-22,16.2544
2008-01-23,17.2372
2008-01-24,17.4073
2008-01-25,17.0576
2008-01-28,17.6813
2008-01-29,17.3411
2008-01-30,16.9631
2008-01-31,15.8291
2008-02-01,18.3523
2008-02-04,17.757
2008-02-05,17.1049
2008-02-06,16.5095
2008-02-07,16.2916
2008-02-08,16.4716
2008-02-11,16.9925
2008-02-12,16.6989
2008-02-13,17.1441
2008-02-14,16.5
2008-02-15,16.2822
2008-02-19,16.1684
2008-02-20,16.3674
2008-02-21,16.2442
2008-02-22,16.1969
2008-02-25,16.4621
2008-02-26,16.7842
2008-02-27,17.1724
2008-02-28,16.7462
2008-02-29,16.2442
2008-03-03,16.2348
2008-03-04,16.6421
2008-03-05,16.9641
2008-03-06,16.3579
2008-03-07,16.5568
2008-03-10,16.3863
2008-03-11,17.2293
2008-03-12,16.8125
2008-03-13,16.5284
2008-03-14,16.6421
2008-03-17,16.7557
2008-03-18,17.3998
2008-03-19,16.9736
2008-03-20,17.3429
2008-03-24,17.7882
2008-03-25,17.8544
2008-03-26,17.7219
2008-03-27,17.3809
2008-03-28,17.1157
2008-03-31,17.4661
2008-04-01,17.9871
2008-04-02,17.8923
2008-04-03,18.2333
2008-04-04,18.2144
2008-04-07,18.0912
2008-04-08,17.9207
2008-04-09,18.0818
2008-04-10,18.3564
2008-04-11,17.6745
2008-04-14,17.2956
2008-04-15,17.1346
2008-04-16,18.1954
2008-04-17,19.7962
2008-04-18,20.3171
2008-04-21,20.4687
2008-04-22,20.0425
2008-04-23,20.7434
2008-04-24,20.8381
2008-04-25,20.715
2008-04-28,20.4024
2008-04-29,20.0519
2008-04-30,20.175
2008-05-01,20.9328
2008-05-02,20.9707
2008-05-05,20.8002
2008-05-06,21.5769
2008-05-07,21.198
2008-05-08,21.4732
2008-05-09,21.3783
2008-05-12,21.7296
2008-05-13,21.5872
2008-05-14,21.5492
2008-05-15,21.7391
2008-05-16,21.8055
2008-05-19,21.758
2008-05-20,21.2834
2008-05-21,21.2644
2008-05-22,21.4163
2008-05-23,21.217
2008-05-27,21.815
2008-05-28,21.5492
2008-05-29,21.5777
2008-05-30,21.9764
2008-06-02,21.9099
2008-06-03,21.7486
2008-06-04,22.3181
2008-06-05,22.6219
2008-06-06,21.9384
2008-06-09,21.6347
2008-06-10,21.6631
2008-06-11,20.9037
2008-06-12,20.9037
2008-06-13,21.6537
2008-06-16,22.2042
2008-06-17,21.5967
2008-06-18,20.9132
2008-06-19,21.5872
2008-06-20,21.1885
2008-06-23,20.6189
2008-06-24,20.6664
2008-06-25,20.9891
2008-06-26,19.9449
2008-06-27,19.8595
2008-06-30,19.6791
2008-07-01,19.4133
2008-07-02,18.8627
2008-07-03,20.0493
2008-07-07,18.3975
2008-07-08,18.6824
2008-07-09,18.1602
2008-07-10,18.2551
2008-07-11,18.2457
2008-07-14,18.0937
2008-07-15,18.1982
2008-07-16,20.4385
2008-07-17,20.391
2008-07-18,20.4385
2008-07-21,20.1158
2008-07-22,20.3056
2008-07-23,20.6474
2008-07-24,20.0777
2008-07-25,20.4101
2008-07-28,20.0493
2008-07-29,20.7423
2008-07-30,20.7898
2008-07-31,20.8373
2008-08-01,20.4765
2008-08-04,20.6094
2008-08-05,21.4353
2008-08-06,21.9574
2008-08-07,21.8718
2008-08-08,22.3189
2008-08-11,22.6804
2008-08-12,22.69
2008-08-13,22.5949
2008-08-14,22.9658
2008-08-15,22.709
2008-08-18,22.3855
2008-08-19,21.9574
2008-08-20,21.6434
2008-08-21,21.4913
2008-08-22,21.7576
2008-08-25,21.5103
2008-08-26,21.5579
2008-08-27,21.8813
2008-08-28,22.2618
2008-08-29,21.5579
2008-09-02,21.339
2008-09-03,19.8358
2008-09-04,19.4077
2008-09-05,19.7502
2008-09-08,19.7407
2008-09-09,19.2746
2008-09-10,19.2746
2008-09-11,19.3697
2008-09-12,19.5885
2008-09-15,19.0843
2008-09-16,19.541
2008-09-17,19.1033
2008-09-18,20.2735
2008-09-19,20.7207
2008-09-22,19.8358
2008-09-23,19.4934
2008-09-24,19.4458
2008-09-25,19.9976
2008-09-26,20.2925
2008-09-29,19.0843
2008-09-30,19.6361
2008-10-01,19.2936
2008-10-02,18.1996
2008-10-03,17.9236
2008-10-06,17.4479
2008-10-07,16.2397
2008-10-08,16.1541
2008-10-09,15.4025
2008-10-10,14.8127
2008-10-13,16.6393
2008-10-14,16.2873
2008-10-15,15.6879
2008-10-16,16.3444
2008-10-17,16.6773
2008-10-20,17.134
2008-10-21,16.4395
2008-10-22,15.9163
2008-10-23,15.6403
2008-10-24,15.7926
2008-10-27,15.8497
2008-10-28,17.5906
2008-10-29,16.7535
2008-10-30,16.9627
2008-10-31,16.5156
2008-11-03,15.9163
2008-11-04,16.6679
2008-11-05,15.9733
2008-11-06,14.685
2008-11-07,14.8187
2008-11-10,14.5705
2008-11-11,14.5515
2008-11-12,14.0648
2008-11-13,15.3243
2008-11-14,14.3129
2008-11-17,13.8549
2008-11-18,13.6641
2008-11-19,12.9675
2008-11-20,12.7575
2008-11-21,13.6354
2008-11-24,14.7614
2008-11-25,13.521
2008-11-26,14.5419
2008-11-28,14.0362
2008-12-01,13.4255
2008-12-02,13.769
2008-12-03,14.7423
2008-12-04,13.3683
2008-12-05,13.3492
2008-12-08,13.3683
2008-12-09,14.1412
2008-12-10,14.3988
2008-12-11,13.9598
2008-12-12,14.6373
2008-12-15,14.8759
2008-12-16,15.8777
2008-12-17,16.0114
2008-12-18,15.4484
2008-12-19,15.7633
2008-12-22,15.372
2008-12-23,15.038
2008-12-24,14.9809
2008-12-26,14.9809
2008-12-29,15.143
2008-12-30,15.9637
2008-12-31,15.9254
2009-01-02,16.2976
2009-01-05,16.5075
2009-01-06,16.6412
2009-01-07,16.0972
2009-01-08,15.7728
2009-01-09,15.0858
2009-01-12,14.3129
2009-01-13,14.7233
2009-01-14,14.4084
2009-01-15,14.9522
2009-01-16,15.3529
2009-01-20,14.3606
2009-01-21,14.5705
2009-01-22,14.3701
2009-01-23,15.0953
2009-01-26,15.3052
2009-01-27,15.9637
2009-01-28,15.5438
2009-01-29,14.9809
2009-01-30,14.685
2009-02-02,14.9809
2009-02-03,15.2003
2009-02-04,15.1621
2009-02-05,15.8683
2009-02-06,16.0883
2009-02-09,15.7055
2009-02-10,14.8823
2009-02-11,14.7483
2009-02-12,15.0068
2009-02-13,15.38
2009-02-17,14.2411
2009-02-18,14.5378
2009-02-19,13.7626
2009-02-20,13.9348
2009-02-23,13.3798
2009-02-24,13.9827
2009-02-25,14.6335
2009-02-26,14.6431
2009-02-27,14.6718
2009-03-02,13.9731
2009-03-03,14.5283
2009-03-04,15.6193
2009-03-05,15.1982
2009-03-06,15.0355
2009-03-09,14.8154
2009-03-10,15.7533
2009-03-11,16.1169
2009-03-12,16.672
2009-03-13,16.7104
2009-03-16,15.9064
2009-03-17,16.6912
2009-03-18,17.007
2009-03-19,16.7199
2009-03-20,16.452
2009-03-23,17.1793
2009-03-24,16.6816
2009-03-25,16.8252
2009-03-26,17.5621
2009-03-27,17.208
2009-03-30,16.7677
2009-03-31,16.7391
2009-04-01,16.7199
2009-04-02,16.9305
2009-04-03,17.1505
2009-04-06,16.7582
2009-04-07,16.3562
2009-04-08,16.6147
2009-04-09,16.9305
2009-04-13,16.7199
2009-04-14,16.94
2009-04-15,16.5763
2009-04-16,17.275
2009-04-17,17.1698
2009-04-20,16.6816
2009-04-21,16.7677
2009-04-22,15.9926
2009-04-23,15.447
2009-04-24,15.5619
2009-04-27,15.313
2009-04-28,14.9972
2009-04-29,15.1312
2009-04-30,15.6097
2009-05-01,15.4757
2009-05-04,15.7915
2009-05-05,15.9447
2009-05-06,16.0499
2009-05-07,15.0707
2009-05-08,14.8596
2009-05-11,14.9364
2009-05-12,14.658
2009-05-13,14.466
2009-05-14,14.6291
2009-05-15,14.5908
2009-05-18,14.6771
2009-05-19,15.2147
2009-05-20,15.0899
2009-05-21,14.8404
2009-05-22,15.0707
2009-05-26,15.5507
2009-05-27,15.7523
2009-05-28,16.165
2009-05-29,16.309
2009-06-01,16.9618
2009-06-02,16.0018
2009-06-03,16.069
2009-06-04,16.0883
2009-06-05,16.021
2009-06-08,16.1938
2009-06-09,16.7698
2009-06-10,16.6163
2009-06-11,16.693
2009-06-12,16.069
2009-06-15,15.8387
2009-06-16,15.5987
2009-06-17,15.8099
2009-06-18,15.5123
2009-06-19,15.6659
2009-06-22,15.5123
2009-06-23,15.5891
2009-06-24,15.7235
2009-06-25,15.9923
2009-06-26,15.6755
2009-06-29,15.6467
2009-06-30,15.6371
2009-07-01,15.733
2009-07-02,15.5027
2009-07-06,15.2244
2009-07-07,14.8019
2009-07-08,14.9939
2009-07-09,15.2627
2009-07-10,15.4067
2009-07-13,15.6851
2009-07-14,15.8675
2009-07-15,16.5778
2009-07-16,16.4914
2009-07-17,16.7122
2009-07-20,16.501
2009-07-21,16.8946
2009-07-22,17.6913
2009-07-23,18.1521
2009-07-24,18.3441
2009-07-27,18.2193
2009-07-28,18.1713
2009-07-29,18.0273
2009-07-30,18.0081
2009-07-31,17.9505
2009-08-03,18.5841
2009-08-04,18.8048
2009-08-05,18.4496
2009-08-06,18.0839
2009-08-07,18.0359
2009-08-10,18.0647
2009-08-11,17.8627
2009-08-12,18.3342
2009-08-13,18.4016
2009-08-14,18.0839
2009-08-17,17.7086
2009-08-18,17.9878
2009-08-19,18.2669
2009-08-20,18.4689
2009-08-21,18.7673
2009-08-24,18.3823
2009-08-25,18.3053
2009-08-26,18.5748
2009-08-27,18.392
2009-08-28,18.8154
2009-08-31,18.5075
2009-09-01,17.9974
2009-09-02,17.8338
2009-09-03,18.238
2009-09-04,18.8539
2009-09-08,19.5854
2009-09-09,19.6046
2009-09-10,19.8741
2009-09-11,19.6238
2009-09-14,19.6913
2009-09-15,19.5951
2009-09-16,19.4507
2009-09-17,19.4314
2009-09-18,19.7201
2009-09-21,19.6335
2009-09-22,19.5469
2009-09-23,20.2494
2009-09-24,19.6238
2009-09-25,19.6527
2009-09-28,19.8452
2009-09-29,19.5854
2009-09-30,19.7298
2009-10-01,19.4026
2009-10-02,19.2004
2009-10-05,19.4507
2009-10-06,19.8452
2009-10-07,19.5662
2009-10-08,19.3737
2009-10-09,20.1724
2009-10-12,20.5671
2009-10-13,20.6152
2009-10-14,21.1156
2009-10-15,20.8269
2009-10-16,20.7403
2009-10-19,20.9328
2009-10-20,20.6248
2009-10-21,20.1532
2009-10-22,20.49
2009-10-23,20.0569
2009-10-26,20.1243
2009-10-27,19.7201
2009-10-28,19.2967
2009-10-29,19.441
2009-10-30,19.056
2009-11-02,19.1715
2009-11-03,18.8732
2009-11-04,19.0753
2009-11-05,19.2004
2009-11-06,19.0557
2009-11-09,19.5574
2009-11-10,19.7407
2009-11-11,20.1556
2009-11-12,20.0302
2009-11-13,20.1943
2009-11-16,20.6284
2009-11-17,20.7249
2009-11-18,20.3004
2009-11-19,20.0784
2009-11-20,19.9531
2009-11-23,20.0784
2009-11-24,20.2908
2009-11-25,20.3293
2009-11-27,20.3293
2009-11-30,20.3004
2009-12-01,21.217
2009-12-02,21.2555
2009-12-03,21.1302
2009-12-04,21.3714
2009-12-07,21.2845
2009-12-08,21.7477
2009-12-09,21.7669
2009-12-10,21.709
2009-12-11,21.6319
2009-12-14,21.6415
2009-12-15,21.4485
2009-12-16,21.8249
2009-12-17,21.4003
2009-12-18,21.709
2009-12-21,21.9599
2009-12-22,22.1722
2009-12-23,22.0081
2009-12-24,22.3266
2009-12-28,22.0274
2009-12-29,21.7766
2009-12-30,21.9696
2009-12-31,21.8344
2010-01-04,22.2011
2010-01-05,21.902
2010-01-06,21.6608
2010-01-07,21.5547
2010-01-08,21.9599
2010-01-11,21.7766
2010-01-12,21.1012
2010-01-13,21.3617
2010-01-14,21.3135
2010-01-15,20.6381
2010-01-19,20.9661
2010-01-20,20.8985
2010-01-21,21.3907
2010-01-22,20.4548
2010-01-25,20.5898
2010-01-26,20.4837
2010-01-27,21.6608
2010-01-28,21.159
2010-01-29,20.6188
2010-02-01,21.1205
2010-02-02,21.4967
2010-02-03,21.6125
2010-02-04,20.4354
2010-02-05,20.9082
2010-02-08,20.9372
2010-02-09,21.2274
2010-02-10,21.3337
2010-02-11,21.914
2010-02-12,22.1074
2010-02-16,22.6199
2010-02-17,22.6393
2010-02-18,22.9874
2010-02-19,23.0455
2010-02-22,22.9584
2010-02-23,22.4555
2010-02-24,23.3645
2010-02-25,23.6353
2010-02-26,23.6257
2010-03-01,24.1866
2010-03-02,23.9545
2010-03-03,23.8385
2010-03-04,23.7417
2010-03-05,24.1382
2010-03-08,23.8675
2010-03-09,23.8287
2010-03-10,24.1963
2010-03-11,24.0996
2010-03-12,24.1382
2010-03-15,24.0319
2010-03-16,24.5831
2010-03-17,24.7378
2010-03-18,24.5444
2010-03-19,23.8578
2010-03-22,24.5444
2010-03-23,24.8152
2010-03-24,23.6741
2010-03-25,23.5096
2010-03-26,23.5386
2010-03-29,23.5
2010-03-30,23.6837
2010-03-31,23.5096
2010-04-01,23.5386
2010-04-05,24.2446
2010-04-06,24.3026
2010-04-07,24.2639
2010-04-08,24.0125
2010-04-09,24.0802
2010-04-12,24.5734
2010-04-13,24.9022
2010-04-14,25.2407
2010-04-15,25.6179
2010-04-16,25.4534
2010-04-19,25.1827
2010-04-20,25.8596
2010-04-21,25.2697
2010-04-22,25.8113
2010-04-23,25.6468
2010-04-26,25.7339
2010-04-27,24.5154
2010-04-28,24.8732
2010-04-29,25.086
2010-04-30,24.5541
2010-05-03,25.0472
2010-05-04,23.8964
2010-05-05,23.8964
2010-05-06,23.286
2010-05-07,22.8112
2010-05-10,23.6833
2010-05-11,23.4314
2010-05-12,23.9837
2010-05-13,23.2182
2010-05-14,22.6755
2010-05-17,23.3925
2010-05-18,22.6367
2010-05-19,22.8596
2010-05-20,22.1813
2010-05-21,22.501
2010-05-24,22.2104
2010-05-25,22.2007
2010-05-26,22.1909
2010-05-27,23.0728
2010-05-28,22.8693
2010-06-01,22.3654
2010-06-02,23.1115
2010-06-03,23.7221
2010-06-04,22.908
2010-06-07,22.5398
2010-06-08,22.5495
2010-06-09,22.1716
2010-06-10,22.9177
2010-06-11,23.6348
2010-06-14,23.5476
2010-06-15,24.7202
2010-06-16,25.2434
2010-06-17,25.1369
2010-06-18,25.1465
2010-06-21,24.9527
2010-06-22,24.6717
2010-06-23,25.1659
2010-06-24,24.6426
2010-06-25,24.7299
2010-06-28,24.914
2010-06-29,24.1969
2010-06-30,24.0709
2010-07-01,24.2841
2010-07-02,24.1193
2010-07-06,24.255
2010-07-07,25.9605
2010-07-08,26.0187
2010-07-09,26.7455
2010-07-12,26.9296
2010-07-13,27.5885
2010-07-14,27.133
2010-07-15,27.3753
2010-07-16,26.697
2010-07-19,27.4044
2010-07-20,27.4237
2010-07-21,26.7067
2010-07-22,27.6175
2010-07-23,27.9955
2010-07-26,28.1021
2010-07-27,28.0052
2010-07-28,27.4335
2010-07-29,26.7455
2010-07-30,26.9005
2010-08-02,27.0167
2010-08-03,26.852
2010-08-04,27.0556
2010-08-05,26.8036
2010-08-06,26.8229
2010-08-09,26.92
2010-08-10,26.8229
2010-08-11,26.1237
2010-08-12,24.5407
2010-08-13,24.2495
2010-08-16,24.3562
2010-08-17,24.7933
2010-08-18,25.0555
2010-08-19,24.7835
2010-08-20,24.8806
2010-08-23,24.6184
2010-08-24,24.3562
2010-08-25,24.8127
2010-08-26,24.1426
2010-08-27,24.8127
2010-08-30,24.0843
2010-08-31,23.9289
2010-09-01,24.871
2010-09-02,25.5993
2010-09-03,26.0363
2010-09-07,25.8324
2010-09-08,26.2403
2010-09-09,25.5022
2010-09-10,25.4633
2010-09-13,25.9198
2010-09-14,26.92
2010-09-15,27.0269
2010-09-16,27.3085
2010-09-17,27.8815
2010-09-20,27.9398
2010-09-21,27.5415
2010-09-22,26.4539
2010-09-23,26.6578
2010-09-24,28.2893
2010-09-27,28.202
2010-09-28,29.4644
2010-09-29,29.6393
2010-09-30,29.3285
2010-10-01,29.2508
2010-10-04,28.8818
2010-10-05,29.1343
2010-10-06,28.4448
2010-10-07,28.6487
2010-10-08,28.4836
2010-10-11,28.6099
2010-10-12,29.1926
2010-10-13,28.8041
2010-10-14,28.6293
2010-10-15,28.9304
2010-10-18,28.7749
2010-10-19,28.6293
2010-10-20,28.0661
2010-10-21,28.2699
2010-10-22,28.571
2010-10-25,29.3382
2010-10-26,29.445
2010-10-27,30.154
2010-10-28,29.8529
2010-10-29,30.3287
2010-11-01,30.3385
2010-11-02,30.6881
2010-11-03,30.9698
2010-11-04,32.0671
2010-11-05,32.2808
2010-11-08,32.8548
2010-11-09,32.5629
2010-11-10,32.9034
2010-11-11,31.9694
2010-11-12,31.6192
2010-11-15,31.4246
2010-11-16,31.3468
2010-11-17,31.6289
2010-11-18,32.0862
2010-11-19,32.5337
2010-11-22,33.0494
2010-11-23,33.4678
2010-11-24,35.0048
2010-11-26,34.7908
2010-11-29,34.4892
2010-11-30,34.2071
2010-12-01,35.968
2010-12-02,36.328
2010-12-03,36.688
2010-12-06,36.3766
2010-12-07,36.221
2010-12-08,36.9993
2010-12-09,36.5323
2010-12-10,36.2405
2010-12-13,35.9291
2010-12-14,36.328
2010-12-15,35.5692
2010-12-16,35.7151
2010-12-17,35.6567
2010-12-20,35.0146
2010-12-21,34.8492
2010-12-22,35.034
2010-12-23,35.0048
2010-12-27,34.9854
2010-12-28,35.034
2010-12-29,35.0244
2010-12-30,34.966
2010-12-31,34.6158
2011-01-03,35.2481
2011-01-04,35.1411
2011-01-05,34.9271
2011-01-06,35.3454
2011-01-07,35.219
2011-01-10,35.0244
2011-01-11,35.1021
2011-01-12,35.7638
2011-01-13,35.9583
2011-01-14,38.2738
2011-01-18,38.2057
2011-01-19,37.6901
2011-01-20,36.6491
2011-01-21,36.1043
2011-01-24,37.2231
2011-01-25,36.8923
2011-01-26,35.8221
2011-01-27,37.4663
2011-01-28,36.2989
2011-01-31,36.581
2011-02-01,38.3809
2011-02-02,38.2641
2011-02-03,38.3809
2011-02-04,39.8888
2011-02-07,39.5386
2011-02-08,39.636
2011-02-09,39.7334
2011-02-10,39.8991
2011-02-11,40.3082
2011-02-14,40.4837
2011-02-15,39.9478
2011-02-16,40.6298
2011-02-17,40.698
2011-02-18,40.6298
2011-02-22,39.217
2011-02-23,38.8565
2011-02-24,39.753
2011-02-25,41.5359
2011-02-28,40.7662
2011-03-01,40.2401
2011-03-02,41.4288
2011-03-03,43.0461
2011-03-04,43.2508
2011-03-07,42.1108
2011-03-08,42.1693
2011-03-09,39.1683
2011-03-10,39.1489
2011-03-11,39.4412
2011-03-14,39.2268
2011-03-15,38.2622
2011-03-16,38.8468
2011-03-17,39.1976
2011-03-18,38.7786
2011-03-21,39.9381
2011-03-22,39.7042
2011-03-23,40.8149
2011-03-24,41.341
2011-03-25,42.3057
2011-03-28,41.9842
2011-03-29,42.7636
2011-03-30,42.6565
2011-03-31,42.9
2011-04-01,41.575
2011-04-04,41.3996
2011-04-05,41.5068
2011-04-06,42.4323
2011-04-07,41.9355
2011-04-08,41.7016
2011-04-11,41.4872
2011-04-12,40.6103
2011-04-13,41.6334
2011-04-14,41.117
2011-04-15,42.0524
2011-04-18,41.2632
2011-04-19,41.6626
2011-04-20,44.5076
2011-04-21,44.839
2011-04-25,44.5369
2011-04-26,45.4138
2011-04-27,47.4502
2011-04-28,48.1322
2011-04-29,47.5282
2011-05-02,47.1677
2011-05-03,46.7681
2011-05-04,46.1153
2011-05-05,46.739
2011-05-06,46.9632
2011-05-09,47.0511
2011-05-10,46.9925
2011-05-11,46.3975
2011-05-12,47.4316
2011-05-13,47.1096
2011-05-16,45.9584
2011-05-17,45.2658
2011-05-18,46.9145
2011-05-19,46.1438
2011-05-20,46.6901
2011-05-23,45.3341
2011-05-24,44.6902
2011-05-25,45.3926
2011-05-26,46.0267
2011-05-27,45.8999
2011-05-31,46.8169
2011-06-01,45.6268
2011-06-02,46.0365
2011-06-03,44.4463
2011-06-06,44.3975
2011-06-07,44.9633
2011-06-08,43.2464
2011-06-09,43.0318
2011-06-10,42.5732
2011-06-13,42.2806
2011-06-14,42.7782
2011-06-15,42.027
2011-06-16,41.6855
2011-06-17,41.7733
2011-06-20,41.8611
2011-06-21,42.9244
2011-06-22,42.583
2011-06-23,43.2952
2011-06-24,42.6025
2011-06-27,43.5196
2011-06-28,44.2122
2011-06-29,44.1927
2011-06-30,45.217
2011-07-01,46.3487
2011-07-05,45.9779
2011-07-06,45.9097
2011-07-07,46.934
2011-07-08,45.656
2011-07-11,45.0024
2011-07-12,43.9585
2011-07-13,42.622
2011-07-14,41.5489
2011-07-15,41.5977
2011-07-18,41.5197
2011-07-19,42.4562
2011-07-20,39.7831
2011-07-21,41.2661
2011-07-22,41.227
2011-07-25,40.7197
2011-07-26,40.7685
2011-07-27,39.4027
2011-07-28,39.6271
2011-07-29,39.9686
2011-08-01,39.871
2011-08-02,38.271
2011-08-03,38.593
2011-08-04,36.6711
2011-08-05,35.6078
2011-08-08,34.1218
2011-08-09,34.7868
2011-08-10,34.0534
2011-08-11,36.0578
2011-08-12,35.6862
2011-08-15,36.703
2011-08-16,35.9403
2011-08-17,35.7938
2011-08-18,33.4472
2011-08-19,32.2446
2011-08-22,33.281
2011-08-23,35.5689
2011-08-24,35.1484
2011-08-25,34.2588
2011-08-26,35.4809
2011-08-29,36.615
2011-08-30,36.8008
2011-08-31,35.4906
2011-09-01,35.1582
2011-09-02,34.0045
2011-09-06,34.1317
2011-09-07,34.3858
2011-09-08,34.3956
2011-09-09,33.9068
2011-09-12,35.3635
2011-09-13,36.0381
2011-09-14,36.6053
2011-09-15,37.4558
2011-09-16,37.358
2011-09-19,37.1626
2011-09-20,36.5759
2011-09-21,35.6764
2011-09-22,34.1805
2011-09-23,34.8063
2011-09-26,34.1317
2011-09-27,34.992
2011-09-28,33.4375
2011-09-29,32.274
2011-09-30,30.9444
2011-10-03,30.211
2011-10-04,31.5896
2011-10-05,31.9416
2011-10-06,32.2544
2011-10-07,32.5673
2011-10-10,33.5939
2011-10-11,33.418
2011-10-12,33.4766
2011-10-13,34.513
2011-10-14,35.1093
2011-10-17,33.8774
2011-10-18,34.2685
2011-10-19,32.6651
2011-10-20,32.362
2011-10-21,36.2337
2011-10-24,37.231
2011-10-25,37.3385
2011-10-26,37.2016
2011-10-27,39.333
2011-10-28,39.0592
2011-10-31,37.1234
2011-11-01,36.6639
2011-11-02,36.1457
2011-11-03,37.4266
2011-11-04,38.15
2011-11-07,37.6514
2011-11-08,37.622
2011-11-09,35.5548
2011-11-10,35.8389
2011-11-11,36.5835
2011-11-14,36.4463
2011-11-15,37.0832
2011-11-16,35.6919
2011-11-17,34.5457
2011-11-18,34.4868
2011-11-21,34.4967
2011-11-22,34.7318
2011-11-23,34.0459
2011-11-25,33.6638
2011-11-28,34.4574
2011-11-29,34.2125
2011-11-30,36.897
2011-12-01,36.7501
2011-12-02,36.4561
2011-12-05,36.8186
2011-12-06,36.1034
2011-12-07,35.6135
2011-12-08,34.7415
2011-12-09,35.202
2011-12-12,34.9179
2011-12-13,33.9479
2011-12-14,33.2327
2011-12-15,32.9486
2011-12-16,33.4385
2011-12-19,33.3601
2011-12-20,35.4176
2011-12-21,34.9865
2011-12-22,37.1811
2011-12-23,36.7794
2011-12-27,36.4855
2011-12-28,36.417
2011-12-29,36.7108
2011-12-30,36.368
2012-01-03,36.8578
2012-01-04,36.4561
2012-01-05,36.7011
2012-01-06,36.7108
2012-01-09,37.0342
2012-01-10,36.897
2012-01-11,36.7598
2012-01-12,37.8473
2012-01-13,36.5247
2012-01-17,36.2994
2012-01-18,39.8656
2012-01-19,40.0223
2012-01-20,39.4933
2012-01-23,38.8663
2012-01-24,39.2581
2012-01-25,39.7775
2012-01-26,39.5717
2012-01-27,39.4345
2012-01-30,38.9349
2012-01-31,38.9936
2012-02-01,38.8075
2012-02-02,38.9055
2012-02-03,39.9832
2012-02-06,39.4835
2012-02-07,39.6011
2012-02-08,40.0036
2012-02-09,40.3374
2012-02-10,39.3459
2012-02-13,38.9336
2012-02-14,38.9433
2012-02-15,38.9433
2012-02-16,39.925
2012-02-17,39.3459
2012-02-21,38.6194
2012-02-22,38.2954
2012-02-23,38.4035
2012-02-24,38.1384
2012-02-27,38.0893
2012-02-28,38.4035
2012-02-29,37.7653
2012-03-01,37.3432
2012-03-02,36.5481
2012-03-05,36.0769
2012-03-06,36.6659
2012-03-07,36.4303
2012-03-08,36.764
2012-03-09,37.3236
2012-03-12,36.9113
2012-03-13,37.3138
2012-03-14,38.1188
2012-03-15,38.7667
2012-03-16,38.7372
2012-03-19,38.8649
2012-03-20,38.5507
2012-03-21,38.433
2012-03-22,38.1679
2012-03-23,38.0893
2012-03-26,38.482
2012-03-27,38.6194
2012-03-28,38.3936
2012-03-29,38.5213
2012-03-30,39.1201
2012-04-02,38.6391
2012-04-03,37.8832
2012-04-04,37.1371
2012-04-05,37.4709
2012-04-09,36.8426
2012-04-10,36.1751
2012-04-11,36.8721
2012-04-12,37.6966
2012-04-13,36.8131
2012-04-16,36.9113
2012-04-17,37.9813
2012-04-18,37.8243
2012-04-19,37.8144
2012-04-20,34.6142
2012-04-23,33.9269
2012-04-24,33.3576
2012-04-25,34.1724
2012-04-26,35.3406
2012-04-27,34.8792
2012-04-30,34.9283
2012-05-01,34.6043
2012-05-02,34.8105
2012-05-03,33.8877
2012-05-04,33.1024
2012-05-07,32.7195
2012-05-08,33.0246
2012-05-09,33.064
2012-05-10,32.9361
2012-05-11,33.2312
2012-05-14,33.2411
2012-05-15,33.064
2012-05-16,33.3985
2012-05-17,32.9262
2012-05-18,32.6901
2012-05-21,33.8118
2012-05-22,33.1034
2012-05-23,33.5658
2012-05-24,33.1919
2012-05-25,33.8709
2012-05-29,34.5696
2012-05-30,33.3395
2012-05-31,32.9163
2012-06-01,31.7749
2012-06-04,31.893
2012-06-05,32.444
2012-06-06,33.2018
2012-06-07,32.5129
2012-06-08,32.9459
2012-06-11,32.1783
2012-06-12,33.0836
2012-06-13,32.4736
2012-06-14,32.0996
2012-06-15,32.5523
2012-06-18,33.1919
2012-06-19,33.5461
2012-06-20,33.7134
2012-06-21,32.3259
2012-06-22,32.9262
2012-06-25,31.6469
2012-06-26,31.893
2012-06-27,31.9618
2012-06-28,31.9323
2012-06-29,33.251
2012-07-02,33.2116
2012-07-03,33.6642
2012-07-05,33.123
2012-07-06,32.2472
2012-07-09,31.6273
2012-07-10,31.3222
2012-07-11,30.9778
2012-07-12,30.4464
2012-07-13,30.8597
2012-07-16,30.2497
2012-07-17,30.1906
2012-07-18,31.2829
2012-07-19,31.3911
2012-07-20,30.7318
2012-07-23,30.6432
2012-07-24,30.1906
2012-07-25,33.8021
2012-07-26,34.1956
2012-07-27,35.4158
2012-07-30,34.6188
2012-07-31,34.9239
2012-08-01,35.0419
2012-08-02,34.5893
2012-08-03,35.2092
2012-08-06,34.8943
2012-08-07,36.1244
2012-08-08,35.996
2012-08-09,36.3711
2012-08-10,36.6177
2012-08-13,36.1835
2012-08-14,35.5915
2012-08-15,35.6705
2012-08-16,36.1737
2012-08-17,35.8677
2012-08-20,35.4632
2012-08-21,35.404
2012-08-22,35.2757
2012-08-23,35.2461
2012-08-24,35.8776
2012-08-27,35.9862
2012-08-28,36.5683
2012-08-29,36.4302
2012-08-30,35.9862
2012-08-31,36.9433
2012-09-04,36.5683
2012-09-05,35.9566
2012-09-06,37.486
2012-09-07,37.4466
2012-09-10,37.1012
2012-09-11,36.9532
2012-09-12,36.7361
2012-09-13,37.0914
2012-09-14,37.634
2012-09-17,37.2393
2012-09-18,36.9334
2012-09-19,36.6079
2012-09-20,36.3019
2012-09-21,36.223
2012-09-24,35.5521
2012-09-25,34.7528
2012-09-26,34.289
2012-09-27,34.2101
2012-09-28,33.5489
2012-10-01,33.4108
2012-10-02,33.5589
2012-10-03,33.0556
2012-10-04,33.0654
2012-10-05,32.9372
2012-10-08,32.9273
2012-10-09,32.5622
2012-10-10,31.6445
2012-10-11,31.5755
2012-10-12,31.9208
2012-10-15,32.4438
2012-10-16,33.105
2012-10-17,32.9569
2012-10-18,32.7596
2012-10-19,32.0689
2012-10-22,32.5129
2012-10-23,32.2563
2012-10-24,29.4738
2012-10-25,29.8191
2012-10-26,30.0066
2012-10-31,30.0855
2012-11-01,31.1906
2012-11-02,30.1053
2012-11-05,30.8058
2012-11-06,31.3979
2012-11-07,30.1941
2012-11-08,30.3427
2012-11-09,30.3229
2012-11-12,30.3625
2012-11-13,30.3427
2012-11-14,30.4218
2012-11-15,29.9664
2012-11-16,30.204
2012-11-19,30.7683
2012-11-20,30.7683
2012-11-21,30.6891
2012-11-23,31.3525
2012-11-26,31.5999
2012-11-27,31.1742
2012-11-28,32.0058
2012-11-29,31.887
2012-11-30,32.085
2012-12-03,31.8573
2012-12-04,31.887
2012-12-05,30.6298
2012-12-06,30.8178
2012-12-07,31.2633
2012-12-10,31.7682
2012-12-11,32.7186
2012-12-12,32.6691
2012-12-13,32.6889
2012-12-14,32.5305
2012-12-17,33.065
2012-12-18,33.768
2012-12-19,34.2233
2012-12-20,34.4016
2012-12-21,34.1838
2012-12-24,34.1045
2012-12-26,34.0451
2012-12-27,34.055
2012-12-28,33.7284
2012-12-31,34.0353
2013-01-02,35.54
2013-01-03,34.8074
2013-01-04,34.7579
2013-01-07,34.8767
2013-01-08,34.1639
2013-01-09,33.9956
2013-01-10,34.55
2013-01-11,34.8866
2013-01-14,34.2629
2013-01-15,33.9956
2013-01-16,34.8173
2013-01-17,35.3816
2013-01-18,35.2431
2013-01-22,35.1341
2013-01-23,34.8866
2013-01-24,33.174
2013-01-25,33.164
2013-01-28,33.1838
2013-01-29,32.9364
2013-01-30,33.0354
2013-01-31,33.0997
2013-02-01,34.1243
2013-02-04,33.3868
2013-02-05,34.1293
2013-02-06,34.3026
2013-02-07,34.2429
2013-02-08,35.1217
2013-02-11,34.9777
2013-02-12,35.3946
2013-02-13,35.2408
2013-02-14,36.0103
2013-02-15,35.4641
2013-02-19,35.9308
2013-02-20,35.196
2013-02-21,34.5805
2013-02-22,35.0968
2013-02-25,34.8288
2013-02-26,35.767
2013-02-27,35.6329
2013-02-28,35.216
2013-03-01,35.2258
2013-03-04,34.8882
2013-03-05,34.8784
2013-03-06,34.6599
2013-03-07,34.9975
2013-03-08,35.0074
2013-03-11,34.8386
2013-03-12,34.7791
2013-03-13,34.7394
2013-03-14,35.3053
2013-03-15,34.8784
2013-03-18,34.3025
2013-03-19,34.3522
2013-03-20,34.7989
2013-03-21,34.5606
2013-03-22,34.4217
2013-03-25,34.5507
2013-03-26,34.8585
2013-03-27,34.4415
2013-03-28,35.2258
2013-04-01,34.5507
2013-04-02,33.9053
2013-04-03,32.9126
2013-04-04,33.5777
2013-04-05,32.9423
2013-04-08,33.0118
2013-04-09,32.9324
2013-04-10,33.4586
2013-04-11,33.399
2013-04-12,33.0416
2013-04-15,32.6047
2013-04-16,33.1607
2013-04-17,31.7609
2013-04-18,31.185
2013-04-19,30.8475
2013-04-22,31.1651
2013-04-23,31.5722
2013-04-24,31.473
2013-04-25,32.6544
2013-04-26,30.9666
2013-04-29,31.3737
2013-04-30,31.7707
2013-05-01,31.6616
2013-05-02,32.1183
2013-05-03,32.4955
2013-05-06,32.8728
2013-05-07,32.7934
2013-05-08,32.8232
2013-05-09,32.8432
2013-05-10,32.8929
2013-05-13,32.6739
2013-05-14,32.7037
2013-05-15,33.0622
2013-05-16,33.1718
2013-05-17,33.9585
2013-05-20,33.7494
2013-05-21,33.7593
2013-05-22,32.6639
2013-05-23,32.5643
2013-05-24,32.7834
2013-05-28,32.9627
2013-05-29,33.2116
2013-05-30,33.4506
2013-05-31,33.122
2013-06-03,32.9627
2013-06-04,33.5303
2013-06-05,32.8631
2013-06-06,31.8373
2013-06-07,32.4946
2013-06-10,32.4946
2013-06-11,32.0066
2013-06-12,31.3494
2013-06-13,32.3751
2013-06-14,32.1859
2013-06-17,32.7037
2013-06-18,32.7934
2013-06-19,32.4149
2013-06-20,31.668
2013-06-21,31.8672
2013-06-24,31.668
2013-06-25,32.5444
2013-06-26,32.6041
2013-06-27,32.9328
2013-06-28,32.9328
2013-07-01,33.0025
2013-07-02,32.8631
2013-07-03,33.122
2013-07-05,33.5303
2013-07-08,32.8631
2013-07-09,33.4705
2013-07-10,33.7095
2013-07-11,34.327
2013-07-12,34.8846
2013-07-15,34.6357
2013-07-16,34.7054
2013-07-17,34.9544
2013-07-18,35.5519
2013-07-19,35.3627
2013-07-22,35.3925
2013-07-23,35.3328
2013-07-24,34.9344
2013-07-25,35.044
2013-07-26,34.8249
2013-07-29,34.7253
2013-07-30,35.0938
2013-07-31,35.4324
2013-08-01,36.3485
2013-08-02,36.249
2013-08-05,36.0498
2013-08-06,36.0597
2013-08-07,36.01
2013-08-08,36.25
2013-08-09,36.01
