date,close_price
1998-01-02,6.63895
1998-01-05,7.07411
1998-01-06,6.69897
1998-01-07,6.31097
1998-01-08,6.2831
1998-01-09,6.00228
1998-01-12,6.01514
1998-01-13,6.43101
1998-01-14,6.31097
1998-01-15,6.40529
1998-01-16,6.37742
1998-01-20,6.57892
1998-01-21,6.91334
1998-01-22,6.4846
1998-01-23,6.55106
1998-01-26,6.47174
1998-01-27,6.59179
1998-01-28,7.00766
1998-01-29,6.79329
1998-01-30,7.02052
1998-02-02,7.42353
1998-02-03,7.46212
1998-02-04,7.89085
1998-02-05,7.67648
1998-02-06,7.70435
1998-02-09,7.46212
1998-02-10,7.71721
1998-02-11,7.70435
1998-02-12,7.91872
1998-02-13,8.06663
1998-02-17,7.81153
1998-02-18,7.89085
1998-02-19,8.07949
1998-02-20,7.79867
1998-02-23,7.99803
1998-02-24,7.73008
1998-02-25,8.01304
1998-02-26,8.12022
1998-02-27,7.90586
1998-03-02,7.59717
1998-03-03,7.58431
1998-03-04,7.62289
1998-03-05,7.15557
1998-03-06,7.1813
1998-03-09,6.85546
1998-03-10,7.1277
1998-03-11,7.10198
1998-03-12,7.04839
1998-03-13,7.24775
1998-03-16,7.46212
1998-03-17,7.15557
1998-03-18,7.11484
1998-03-19,7.26276
1998-03-20,7.15557
1998-03-23,7.1813
1998-03-24,7.31635
1998-03-25,7.55644
1998-03-26,7.77081
1998-03-27,7.61003
1998-03-30,7.5693
1998-03-31,7.55644
1998-04-01,8.07949
1998-04-02,8.31959
1998-04-03,8.05163
1998-04-06,7.85227
1998-04-07,7.55644
1998-04-08,7.55644
1998-04-09,7.44925
1998-04-13,7.35493
1998-04-14,7.77081
1998-04-15,7.93158
1998-04-16,7.69149
1998-04-17,7.59717
1998-04-20,7.86513
1998-04-21,8.17382
1998-04-22,8.19954
1998-04-23,7.94444
1998-04-24,7.91872
1998-04-27,7.69149
1998-04-28,7.65076
1998-04-29,7.70435
1998-04-30,7.74508
1998-05-01,7.72364
1998-05-04,7.66362
1998-05-05,7.83726
1998-05-06,7.79867
1998-05-07,7.74508
1998-05-08,7.86513
1998-05-11,7.98517
1998-05-12,8.12022
1998-05-13,8.45464
1998-05-14,8.281
1998-05-15,7.93158
1998-05-18,8.10522
1998-05-19,7.97231
1998-05-20,7.67648
1998-05-21,7.31635
1998-05-22,7.14057
1998-05-26,7.04839
1998-05-27,6.91334
1998-05-28,7.24561
1998-05-29,6.87261
1998-06-01,6.41815
1998-06-02,6.52533
1998-06-03,6.31097
1998-06-04,6.17591
1998-06-05,6.3517
1998-06-08,6.4846
1998-06-09,6.44387
1998-06-10,6.16305
1998-06-11,6.04301
1998-06-12,6.12018
1998-06-15,5.81578
1998-06-16,6.24451
1998-06-17,5.88438
1998-06-18,6.00228
1998-06-19,5.86937
1998-06-22,6.10946
1998-06-23,6.2981
1998-06-24,6.60465
1998-06-25,6.40529
1998-06-26,6.44387
1998-06-29,6.49747
1998-06-30,6.33669
1998-07-01,6.52533
1998-07-02,6.37742
1998-07-06,6.4846
1998-07-07,6.72684
1998-07-08,6.44387
1998-07-09,6.20378
1998-07-10,6.32383
1998-07-13,6.10946
1998-07-14,6.12232
1998-07-15,6.56606
1998-07-16,6.68611
1998-07-17,6.60465
1998-07-20,6.56606
1998-07-21,6.83402
1998-07-22,6.72684
1998-07-23,6.56606
1998-07-24,6.52533
1998-07-27,6.64538
1998-07-28,7.03338
1998-07-29,6.88761
1998-07-30,7.06125
1998-07-31,7.16843
1998-08-03,7.23489
1998-08-04,6.9948
1998-08-05,7.30134
1998-08-06,7.51571
1998-08-07,7.51571
1998-08-10,7.23489
1998-08-11,7.04839
1998-08-12,6.87261
1998-08-13,6.75256
1998-08-14,6.64538
1998-08-17,7.11484
1998-08-18,7.31635
1998-08-19,7.0098
1998-08-20,6.68611
1998-08-21,6.56606
1998-08-24,6.56606
1998-08-25,6.72684
1998-08-26,6.33669
1998-08-27,5.86937
1998-08-28,5.70859
1998-08-31,5.27986
1998-09-01,5.58641
1998-09-02,5.33345
1998-09-03,5.14481
1998-09-04,5.09122
1998-09-08,5.46636
1998-09-09,5.15767
1998-09-10,5.18554
1998-09-11,5.27986
1998-09-14,5.21126
1998-09-15,5.06549
1998-09-16,5.15767
1998-09-17,5.15767
1998-09-18,5.25199
1998-09-21,5.29272
1998-09-22,5.34631
1998-09-23,5.50709
1998-09-24,5.47922
1998-09-25,5.74718
1998-09-28,5.68716
1998-09-29,5.73432
1998-09-30,5.42563
1998-10-01,5.10408
1998-10-02,5.13195
1998-10-05,4.97117
1998-10-06,5.07836
1998-10-07,4.93044
1998-10-08,4.78253
1998-10-09,5.05049
1998-10-12,5.74718
1998-10-13,5.66786
1998-10-14,5.86937
1998-10-15,6.17591
1998-10-16,6.27024
1998-10-19,6.5382
1998-10-20,6.2981
1998-10-21,6.49747
1998-10-22,7.00766
1998-10-23,7.28848
1998-10-26,7.14057
1998-10-27,6.87261
1998-10-28,7.31635
1998-10-29,7.59717
1998-10-30,7.42353
1998-11-02,7.14057
1998-11-03,7.04839
1998-11-04,7.55644
1998-11-05,7.47712
1998-11-06,7.90586
1998-11-09,7.75794
1998-11-10,7.61003
1998-11-11,8.03876
1998-11-12,8.30672
1998-11-13,8.2124
1998-11-16,7.77081
1998-11-17,8.01304
1998-11-18,7.90586
1998-11-19,8.15881
1998-11-20,8.42677
1998-11-23,8.58754
1998-11-24,9.06987
1998-11-25,8.70973
1998-11-27,8.89623
1998-11-30,8.30672
1998-12-01,8.44177
1998-12-02,9.40643
1998-12-03,9.20492
1998-12-04,9.46002
1998-12-07,9.46002
1998-12-08,9.72798
1998-12-09,9.29924
1998-12-10,8.84907
1998-12-11,8.97769
1998-12-14,8.40104
1998-12-15,8.69473
1998-12-16,8.48036
1998-12-17,8.81692
1998-12-18,9.7537
1998-12-21,9.5672
1998-12-22,9.33783
1998-12-23,9.5672
1998-12-24,9.40643
1998-12-28,9.35283
1998-12-29,9.3121
1998-12-30,8.99055
1998-12-31,9.16419
1999-01-04,9.46002
1999-01-05,10.6519
1999-01-06,11.4815
1999-01-07,11.7237
1999-01-08,11.9102
1999-01-11,11.8438
1999-01-12,11.4686
1999-01-13,11.7645
1999-01-14,11.4558
1999-01-15,12.0324
1999-01-19,11.7366
1999-01-20,12.3261
1999-01-21,11.8438
1999-01-22,11.7237
1999-01-25,11.5094
1999-01-26,12.5533
1999-01-27,12.071
1999-01-28,12.6477
1999-01-29,13.5587
1999-02-01,13.3315
1999-02-02,12.7141
1999-02-03,13.5459
1999-02-04,13.2372
1999-02-05,13.0228
1999-02-08,14.4569
1999-02-09,13.5866
1999-02-10,13.0228
1999-02-11,14.3755
1999-02-12,14.3219
1999-02-16,14.2683
1999-02-17,14.4441
1999-02-18,14.1611
1999-02-19,14.697
1999-02-22,14.6048
1999-02-23,14.712
1999-02-24,14.6306
1999-02-25,13.653
1999-02-26,11.9381
1999-03-01,12.2318
1999-03-02,12.2725
1999-03-03,12.4869
1999-03-04,12.3132
1999-03-05,13.2114
1999-03-08,13.518
1999-03-09,12.6477
1999-03-10,13.0507
1999-03-11,13.2114
1999-03-12,13.0357
1999-03-15,12.9821
1999-03-16,13.6123
1999-03-17,13.7195
1999-03-18,13.6659
1999-03-19,13.0764
1999-03-22,12.8749
1999-03-23,12.5533
1999-03-24,12.2725
1999-03-25,13.0764
1999-03-26,12.3926
1999-03-29,13.13
1999-03-30,13.4108
1999-03-31,13.25
1999-04-01,13.8138
1999-04-05,14.0818
1999-04-06,14.577
1999-04-07,13.8803
1999-04-08,13.9617
1999-04-09,14.2683
1999-04-12,13.4258
1999-04-13,12.8363
1999-04-14,12.6477
1999-04-15,13.2908
1999-04-16,13.1836
1999-04-19,12.5748
1999-04-20,12.1246
1999-04-21,13.1578
1999-04-22,13.25
1999-04-23,12.9821
1999-04-26,13.0228
1999-04-27,12.6477
1999-04-28,11.6294
1999-04-29,11.1214
1999-04-30,11.4558
1999-05-03,11.8566
1999-05-04,11.3893
1999-05-05,12.3797
1999-05-06,11.5758
1999-05-07,12.1653
1999-05-10,12.0581
1999-05-11,12.1525
1999-05-12,12.8899
1999-05-13,12.6477
1999-05-14,13.0099
1999-05-17,13.518
1999-05-18,13.5587
1999-05-19,13.9874
1999-05-20,13.1964
1999-05-21,12.7548
1999-05-24,12.0581
1999-05-25,11.8566
1999-05-26,11.683
1999-05-27,11.8181
1999-05-28,11.8031
1999-06-01,11.6037
1999-06-02,12.3754
1999-06-03,12.2725
1999-06-04,13.0228
1999-06-07,13.2372
1999-06-08,13.2779
1999-06-09,13.9081
1999-06-10,14.1761
1999-06-11,14.1354
1999-06-14,14.1354
1999-06-15,14.4162
1999-06-16,15.0464
1999-06-17,14.8042
1999-06-18,14.2683
1999-06-21,14.9928
1999-06-22,14.712
1999-06-23,14.8985
1999-06-24,14.1354
1999-06-25,13.8931
1999-06-28,14.1761
1999-06-29,14.8192
1999-06-30,15.8632
1999-07-01,15.5416
1999-07-02,15.4623
1999-07-06,15.9296
1999-07-07,15.0872
1999-07-08,15.6231
1999-07-09,15.876
1999-07-12,15.6488
1999-07-13,15.5416
1999-07-14,16.6006
1999-07-15,16.3583
1999-07-16,16.8278
1999-07-19,16.6413
1999-07-20,15.4752
1999-07-21,15.5952
1999-07-22,14.6434
1999-07-23,15.1665
1999-07-26,14.8856
1999-07-27,15.5695
1999-07-28,16.0904
1999-07-29,15.3937
1999-07-30,15.4216
1999-08-02,15.3937
1999-08-03,15.7967
1999-08-04,15.6231
1999-08-05,15.5159
1999-08-06,16.0368
1999-08-09,16.6799
1999-08-10,16.4934
1999-08-11,16.6542
1999-08-12,15.5823
1999-08-13,14.9521
1999-08-16,15.1257
1999-08-17,15.368
1999-08-18,13.9467
1999-08-19,13.9617
1999-08-20,13.7195
1999-08-23,14.309
1999-08-24,14.98
1999-08-25,14.6177
1999-08-26,14.5234
1999-08-27,14.7656
1999-08-30,15.0057
1999-08-31,15.2201
1999-09-01,15.8632
1999-09-02,15.9575
1999-09-03,16.6134
1999-09-07,16.5599
1999-09-08,16.4527
1999-09-09,16.9479
1999-09-10,16.815
1999-09-13,16.3048
1999-09-14,17.4709
1999-09-15,16.7614
1999-09-16,17.4452
1999-09-17,18.1676
1999-09-20,17.9532
1999-09-21,17.4581
1999-09-22,17.9275
1999-09-23,16.8814
1999-09-24,16.9221
1999-09-27,17.6596
1999-09-28,17.2973
1999-09-29,17.1086
1999-09-30,16.6134
1999-10-01,16.7614
1999-10-04,17.5781
1999-10-05,18.3284
1999-10-06,18.5899
1999-10-07,17.6853
1999-10-08,17.6446
1999-10-11,17.7389
1999-10-12,17.4173
1999-10-13,17.055
1999-10-14,17.203
1999-10-15,17.0958
1999-10-18,16.6799
1999-10-19,15.9982
1999-10-20,16.815
1999-10-21,17.0165
1999-10-22,16.8814
1999-10-25,17.203
1999-10-26,17.203
1999-10-27,16.9479
1999-10-28,17.9532
1999-10-29,19.2523
1999-11-01,18.8236
1999-11-02,19.4667
1999-11-03,20.232
1999-11-04,19.8418
1999-11-05,21.008
1999-11-08,20.8215
1999-11-09,21.3038
1999-11-10,21.7861
1999-11-11,23.1795
1999-11-12,23.3403
1999-11-15,22.59
1999-11-16,22.6157
1999-11-17,23.6618
1999-11-18,22.9244
1999-11-19,22.9373
1999-11-22,22.1334
1999-11-23,22.0541
1999-11-24,21.9469
1999-11-26,22.0005
1999-11-29,21.7711
1999-11-30,20.9136
1999-12-01,21.4646
1999-12-02,23.098
1999-12-03,23.6876
1999-12-06,24.5858
1999-12-07,23.9019
1999-12-08,24.5986
1999-12-09,24.1442
1999-12-10,23.4603
1999-12-13,23.2181
1999-12-14,22.4292
1999-12-15,22.1205
1999-12-16,23.6704
1999-12-17,23.7154
1999-12-20,24.948
1999-12-21,26.395
1999-12-22,25.9256
1999-12-23,26.0199
1999-12-27,27.3061
1999-12-28,27.0231
1999-12-29,27.0767
1999-12-30,26.5944
1999-12-31,27.6533
2000-01-03,27.1046
2000-01-04,25.7776
2000-01-05,24.8537
2000-01-06,24.8794
2000-01-07,25.0145
2000-01-10,26.9438
2000-01-11,25.9084
2000-01-12,27.2375
2000-01-13,26.5815
2000-01-14,29.0467
2000-01-18,28.9674
2000-01-19,30.5344
2000-01-20,29.9857
2000-01-21,30.2922
2000-01-24,30.1121
2000-01-25,30.9503
2000-01-26,28.7659
2000-01-27,29.1668
2000-01-28,27.827
2000-01-31,29.3683
2000-02-01,30.0928
2000-02-02,30.8453
2000-02-03,31.8464
2000-02-04,31.0832
2000-02-07,33.0254
2000-02-08,34.5002
2000-02-09,35.0897
2000-02-10,37.3813
2000-02-11,35.3706
2000-02-14,34.541
2000-02-15,35.5849
2000-02-16,37.1391
2000-02-17,40.3953
2000-02-18,38.1702
2000-02-22,38.4253
2000-02-23,38.8004
2000-02-24,39.3364
2000-02-25,36.8711
2000-02-28,37.9387
2000-02-29,39.1884
2000-03-01,39.5786
2000-03-02,38.704
2000-03-03,40.8777
2000-03-06,39.4564
2000-03-07,39.4435
2000-03-08,38.4532
2000-03-09,40.7833
2000-03-10,41.4393
2000-03-13,40.301
2000-03-14,38.3717
2000-03-15,36.6568
2000-03-16,37.7286
2000-03-17,41.077
2000-03-20,40.301
2000-03-21,42.0159
2000-03-22,44.9099
2000-03-23,43.8938
2000-03-24,46.0075
2000-03-27,46.6248
2000-03-28,43.8123
2000-03-29,41.5358
2000-03-30,39.8465
2000-03-31,40.5154
2000-04-03,38.4532
2000-04-04,42.1789
2000-04-05,44.7213
2000-04-06,45.7674
2000-04-07,49.2058
2000-04-10,44.5883
2000-04-11,44.6955
2000-04-12,41.9645
2000-04-13,38.2388
2000-04-14,34.273
2000-04-17,40.9998
2000-04-18,43.2207
2000-04-19,39.1777
2000-04-20,39.8465
2000-04-24,39.1477
2000-04-25,40.8369
2000-04-26,38.749
2000-04-27,42.9291
2000-04-28,43.7309
2000-05-01,42.8477
2000-05-02,41.2399
2000-05-03,40.3567
2000-05-04,41.8873
2000-05-05,43.7309
2000-05-08,41.0256
2000-05-09,38.8562
2000-05-10,36.2838
2000-05-11,36.4681
2000-05-12,36.0951
2000-05-15,38.1059
2000-05-16,39.7908
2000-05-17,38.4789
2000-05-18,36.4981
2000-05-19,34.4145
2000-05-22,34.0844
2000-05-23,30.8431
2000-05-24,33.7885
2000-05-25,32.9311
2000-05-26,31.8592
2000-05-30,36.4424
2000-05-31,35.7993
2000-06-01,37.6471
2000-06-02,40.0866
2000-06-05,40.0866
2000-06-06,38.346
2000-06-07,40.0952
2000-06-08,39.8465
2000-06-09,40.6783
2000-06-12,39.0705
2000-06-13,39.4907
2000-06-14,36.9269
2000-06-15,37.8572
2000-06-16,39.8723
2000-06-19,41.3728
2000-06-20,41.2142
2000-06-21,41.9902
2000-06-22,40.2753
2000-06-23,38.9076
2000-06-26,38.3717
2000-06-27,37.8358
2000-06-28,38.8347
2000-06-29,38.1831
2000-06-30,38.8605
2000-07-03,39.4435
2000-07-05,35.7736
2000-07-06,37.2484
2000-07-07,38.4789
2000-07-10,37.943
2000-07-11,37.3256
2000-07-12,38.1573
2000-07-13,37.4885
2000-07-14,38.0244
2000-07-17,40.301
2000-07-18,38.1316
2000-07-19,37.1927
2000-07-20,35.6407
2000-07-21,33.467
2000-07-24,34.5946
2000-07-25,36.228
2000-07-26,35.1562
2000-07-27,31.8335
2000-07-28,31.7006
2000-07-31,32.5838
2000-08-01,31.9664
2000-08-02,31.1218
2000-08-03,29.5312
2000-08-04,29.1282
2000-08-07,29.9599
2000-08-08,30.2258
2000-08-09,30.9246
2000-08-10,29.7156
2000-08-11,29.7156
2000-08-14,32.1036
2000-08-15,33.3598
2000-08-16,34.7275
2000-08-17,35.9622
2000-08-18,35.9879
2000-08-21,34.8346
2000-08-22,35.2634
2000-08-23,36.6053
2000-08-24,36.6568
2000-08-25,36.3352
2000-08-28,35.7993
2000-08-29,36.5239
2000-08-30,36.1766
2000-08-31,37.0941
2000-09-01,36.3909
2000-09-05,36.2023
2000-09-06,34.0844
2000-09-07,34.4788
2000-09-08,32.4509
2000-09-11,32.318
2000-09-12,30.6545
2000-09-13,31.7006
2000-09-14,32.0479
2000-09-15,31.4048
2000-09-18,30.976
2000-09-19,33.0683
2000-09-20,33.4413
2000-09-21,31.5677
2000-09-22,29.9599
2000-09-25,28.9396
2000-09-26,28.1078
2000-09-27,27.439
2000-09-28,27.439
2000-09-29,25.4025
2000-10-02,24.3307
2000-10-03,22.1355
2000-10-04,23.2331
2000-10-05,22.8044
2000-10-06,23.2588
2000-10-09,23.9019
2000-10-10,21.008
2000-10-11,22.187
2000-10-12,20.7679
2000-10-13,22.8858
2000-10-16,20.9822
2000-10-17,19.1344
2000-10-18,18.0626
2000-10-19,21.6253
2000-10-20,21.7068
2000-10-23,22.9115
2000-10-24,21.2223
2000-10-25,20.9265
2000-10-26,22.7786
2000-10-27,20.6607
2000-10-30,21.2481
2000-10-31,22.8044
2000-11-01,21.8912
2000-11-02,22.2942
2000-11-03,21.2223
2000-11-06,21.2481
2000-11-07,20.069
2000-11-08,18.5985
2000-11-09,18.5985
2000-11-10,17.5781
2000-11-13,17.3423
2000-11-14,17.741
2000-11-15,18.3027
2000-11-16,17.8311
2000-11-17,17.6767
2000-11-20,17.6253
2000-11-21,18.114
2000-11-22,18.114
2000-11-24,19.829
2000-11-27,18.92
2000-11-28,17.6038
2000-11-29,18.3755
2000-11-30,17.3637
2000-12-01,16.562
2000-12-04,16.4805
2000-12-05,18.8643
2000-12-06,17.4195
2000-12-07,17.1751
2000-12-08,18.9715
2000-12-11,21.8397
2000-12-12,19.5631
2000-12-13,18.2426
2000-12-14,17.2308
2000-12-15,16.9607
2000-12-18,17.0165
2000-12-19,16.7764
2000-12-20,16.2061
2000-12-21,15.1686
2000-12-22,16.562
2000-12-26,16.2662
2000-12-27,16.9093
2000-12-28,16.9093
2000-12-29,16.3991
2001-01-02,16.8278
2001-01-03,21.2481
2001-01-04,18.9715
2001-01-05,18.3027
2001-01-08,19.5889
2001-01-09,18.5685
2001-01-10,19.2116
2001-01-11,19.8547
2001-01-12,19.9919
2001-01-16,18.9715
2001-01-17,20.6607
2001-01-18,21.4624
2001-01-19,21.4367
2001-01-22,21.008
2001-01-23,20.6607
2001-01-24,21.2223
2001-01-25,20.9565
2001-01-26,20.5278
2001-01-29,21.5439
2001-01-30,22.4828
2001-01-31,21.6253
2001-02-01,21.7068
2001-02-02,20.4463
2001-02-05,19.5889
2001-02-06,19.6617
2001-02-07,19.2416
2001-02-08,18.114
2001-02-09,18.3284
2001-02-12,18.8386
2001-02-13,17.6853
2001-02-14,20.069
2001-02-15,21.1709
2001-02-16,20.6864
2001-02-20,19.6703
2001-02-21,20.0347
2001-02-22,20.0991
2001-02-23,20.5535
2001-02-26,20.4721
2001-02-27,19.3188
2001-02-28,18.0883
2001-03-01,19.4002
2001-03-02,19.3488
2001-03-05,20.4721
2001-03-06,21.3552
2001-03-07,21.3295
2001-03-08,21.5696
2001-03-09,20.0176
2001-03-12,19.8847
2001-03-13,20.5535
2001-03-14,20.635
2001-03-15,19.696
2001-03-16,19.0787
2001-03-19,19.9919
2001-03-20,18.3841
2001-03-21,19.2416
2001-03-22,21.2223
2001-03-23,21.5182
2001-03-26,21.1152
2001-03-27,21.784
2001-03-28,20.4206
2001-03-29,19.5631
2001-03-30,18.6757
2001-04-02,17.1151
2001-04-03,17.2565
2001-04-04,16.159
2001-04-05,18.1397
2001-04-06,17.1494
2001-04-09,16.6306
2001-04-10,18.3155
2001-04-11,19.7218
2001-04-12,21.2095
2001-04-16,20.5449
2001-04-17,20.442
2001-04-18,22.7744
2001-04-19,25.1881
2001-04-20,24.142
2001-04-23,22.56
2001-04-24,22.1784
2001-04-25,22.7829
2001-04-26,21.7968
2001-04-27,23.083
2001-04-30,23.456
2001-05-01,23.5761
2001-05-02,23.4732
2001-05-03,22.5557
2001-05-04,22.0541
2001-05-07,21.7411
2001-05-08,22.5686
2001-05-09,21.8783
2001-05-10,21.8826
2001-05-11,22.127
2001-05-14,21.3081
2001-05-15,21.3724
2001-05-16,23.1988
2001-05-17,23.1259
2001-05-18,23.5632
2001-05-21,24.6608
2001-05-22,24.2663
2001-05-23,22.7229
2001-05-24,23.3446
2001-05-25,23.0273
2001-05-29,22.157
2001-05-30,20.9651
2001-05-31,21.411
2001-06-01,22.0198
2001-06-04,21.4367
2001-06-05,22.4914
2001-06-06,22.5686
2001-06-07,24.0177
2001-06-08,23.6961
2001-06-11,22.993
2001-06-12,23.3617
2001-06-13,23.0573
2001-06-14,21.8483
2001-06-15,21.4153
2001-06-18,21.1838
2001-06-19,20.6864
2001-06-20,20.7422
2001-06-21,20.5749
2001-06-22,21.0208
2001-06-25,21.3938
2001-06-26,21.5782
2001-06-27,20.785
2001-06-28,21.2181
2001-06-29,22.0712
2001-07-02,21.3895
2001-07-03,21.5439
2001-07-05,20.8836
2001-07-06,19.4131
2001-07-09,19.1859
2001-07-10,18.3455
2001-07-11,18.9157
2001-07-12,19.9361
2001-07-13,19.8975
2001-07-16,17.9382
2001-07-17,19.1087
2001-07-18,18.6885
2001-07-19,19.3445
2001-07-20,19.3145
2001-07-23,18.6928
2001-07-24,18.367
2001-07-25,18.7314
2001-07-26,19.3745
2001-07-27,19.8804
2001-07-30,20.0047
2001-07-31,19.6746
2001-08-01,20.6778
2001-08-02,21.441
2001-08-03,21.2652
2001-08-06,20.9008
2001-08-07,20.0862
2001-08-08,19.1687
2001-08-09,19.1816
2001-08-10,19.0529
2001-08-13,19.2159
2001-08-14,18.7571
2001-08-15,18.7443
2001-08-16,19.1644
2001-08-17,18.2941
2001-08-20,18.5556
2001-08-21,18.0326
2001-08-22,18.6971
2001-08-23,18.9243
2001-08-24,20.1076
2001-08-27,20.3006
2001-08-28,19.4088
2001-08-29,18.7957
2001-08-30,18.4956
2001-08-31,18.4827
2001-09-04,17.9254
2001-09-05,18.0025
2001-09-06,17.2866
2001-09-07,17.2694
2001-09-10,17.1622
2001-09-17,15.7388
2001-09-18,14.2383
2001-09-19,13.3379
2001-09-20,12.6477
2001-09-21,12.5362
2001-09-24,12.5919
2001-09-25,13.1064
2001-09-26,12.4633
2001-09-27,11.9488
2001-09-28,12.1546
2001-10-01,12.1203
2001-10-02,11.7688
2001-10-03,12.9178
2001-10-04,13.3894
2001-10-05,13.5094
2001-10-08,14.3883
2001-10-09,13.3336
2001-10-10,13.8524
2001-10-11,15.353
2001-10-12,15.0743
2001-10-15,14.4312
2001-10-16,14.6413
2001-10-17,13.7795
2001-10-18,13.488
2001-10-19,13.9296
2001-10-22,14.8042
2001-10-23,14.4869
2001-10-24,15.13
2001-10-25,16.0561
2001-10-26,15.8374
2001-10-29,14.8385
2001-10-30,14.2125
2001-10-31,14.7356
2001-11-01,15.7989
2001-11-02,16.2747
2001-11-05,16.4591
2001-11-06,17.0679
2001-11-07,16.8664
2001-11-08,16.3991
2001-11-09,16.4977
2001-11-12,16.6649
2001-11-13,17.4623
2001-11-14,17.4409
2001-11-15,16.7249
2001-11-16,16.8364
2001-11-19,16.6006
2001-11-20,15.7131
2001-11-21,16.2876
2001-11-23,16.6134
2001-11-26,17.1751
2001-11-27,18.0111
2001-11-28,17.1708
2001-11-29,17.7667
2001-11-30,17.0593
2001-12-03,16.8364
2001-12-04,18.1526
2001-12-05,19.606
2001-12-06,19.5331
2001-12-07,19.0701
2001-12-10,18.6714
2001-12-11,18.8214
2001-12-12,19.2373
2001-12-13,17.7282
2001-12-14,18.144
2001-12-17,18.5299
2001-12-18,18.397
2001-12-19,17.7196
2001-12-20,16.9521
2001-12-21,17.0979
2001-12-24,17.218
2001-12-26,17.3723
2001-12-27,17.6124
2001-12-28,17.9339
2001-12-31,17.2137
2002-01-02,17.7667
2002-01-03,19.4431
2002-01-04,19.3745
2002-01-07,19.1644
2002-01-08,19.6103
2002-01-09,19.9876
2002-01-10,19.7089
2002-01-11,19.323
2002-01-14,19.4474
2002-01-15,19.4945
2002-01-16,17.8139
2002-01-17,17.8525
2002-01-18,17.3423
2002-01-22,17.0207
2002-01-23,17.6638
2002-01-24,17.1622
2002-01-25,18.0669
2002-01-28,18.3627
2002-01-29,17.8053
2002-01-30,18.4313
2002-01-31,18.7314
2002-02-01,18.427
2002-02-04,18.83
2002-02-05,18.9843
2002-02-06,19.1516
2002-02-07,18.0411
2002-02-08,18.4313
2002-02-11,19.5974
2002-02-12,19.2159
2002-02-13,20.5492
2002-02-14,20.3477
2002-02-15,20.2148
2002-02-19,19.5889
2002-02-20,19.9361
2002-02-21,18.5427
2002-02-22,18.1955
2002-02-25,19.2673
2002-02-26,19.1044
2002-02-27,19.0572
2002-02-28,18.6499
2002-03-01,20.5749
2002-03-04,21.4753
2002-03-05,21.8011
2002-03-06,21.6339
2002-03-07,21.9855
2002-03-08,22.9201
2002-03-11,22.3628
2002-03-12,21.7154
2002-03-13,21.2095
2002-03-14,21.1409
2002-03-15,21.6511
2002-03-18,22.2299
2002-03-19,22.5214
2002-03-20,21.8826
2002-03-21,22.3328
2002-03-22,22.1527
2002-03-25,21.9941
2002-03-26,22.4357
2002-03-27,22.2899
2002-03-28,23.2331
2002-04-01,23.7647
2002-04-02,23.1559
2002-04-03,22.8044
2002-04-04,23.1688
2002-04-05,22.4871
2002-04-08,22.7186
2002-04-09,22.0369
2002-04-10,21.8569
2002-04-11,21.6296
2002-04-12,21.6382
2002-04-15,22.1313
2002-04-16,23.2031
2002-04-17,23.5289
2002-04-18,22.8515
2002-04-19,22.62
2002-04-22,22.3456
2002-04-23,22.1999
2002-04-24,21.3938
2002-04-25,21.6511
2002-04-26,20.3734
2002-04-29,20.5192
2002-04-30,20.8708
2002-05-01,20.9737
2002-05-02,19.7389
2002-05-03,19.1644
2002-05-06,19.0015
2002-05-07,19.1644
2002-05-08,21.8569
2002-05-09,21.6768
2002-05-10,20.322
2002-05-13,21.8569
2002-05-14,22.9973
2002-05-15,22.9887
2002-05-16,23.2631
2002-05-17,23.4089
2002-05-20,23.0402
2002-05-21,22.56
2002-05-22,22.4142
2002-05-23,21.8997
2002-05-24,20.4849
2002-05-28,20.7765
2002-05-29,19.919
2002-05-30,19.233
2002-05-31,19.0272
2002-06-03,18.3069
2002-06-04,18.77
2002-06-05,19.1901
2002-06-06,18.0068
2002-06-07,17.5952
2002-06-10,17.5867
2002-06-11,16.8321
2002-06-12,17.6724
2002-06-13,17.4409
2002-06-14,17.0207
2002-06-17,18.0754
2002-06-18,17.6295
2002-06-19,16.9521
2002-06-20,16.4462
2002-06-21,16.1118
2002-06-24,17.0122
2002-06-25,16.7635
2002-06-26,16.2576
2002-06-27,17.0722
2002-06-28,16.4205
2002-07-01,15.5287
2002-07-02,14.5341
2002-07-03,15.4344
2002-07-05,17.0207
2002-07-08,16.3176
2002-07-09,15.2201
2002-07-10,14.2597
2002-07-11,15.7002
2002-07-12,15.8117
2002-07-15,16.4977
2002-07-16,15.7774
2002-07-17,15.5202
2002-07-18,14.6713
2002-07-19,14.4741
2002-07-22,14.4912
2002-07-23,13.3508
2002-07-24,14.1225
2002-07-25,12.3475
2002-07-26,12.2618
2002-07-29,12.862
2002-07-30,13.4194
2002-07-31,12.742
2002-08-01,12.0131
2002-08-02,11.7473
2002-08-05,10.9499
2002-08-06,11.6101
2002-08-07,11.6015
2002-08-08,12.1932
2002-08-09,11.8588
2002-08-12,11.6273
2002-08-13,11.4472
2002-08-14,12.3475
2002-08-15,11.8416
2002-08-16,12.5533
2002-08-19,13.2736
2002-08-20,12.922
2002-08-21,13.7109
2002-08-22,13.8996
2002-08-23,12.9649
2002-08-26,12.8449
2002-08-27,11.9445
2002-08-28,11.3872
2002-08-29,11.4815
2002-08-30,11.5501
2002-09-03,11.1214
2002-09-04,10.8384
2002-09-05,10.3925
2002-09-06,11.0356
2002-09-09,10.8813
2002-09-10,11.5072
2002-09-11,11.7216
2002-09-12,10.9499
2002-09-13,11.1471
2002-09-16,10.8898
2002-09-17,10.4697
2002-09-18,10.4525
2002-09-19,10.281
2002-09-20,10.1953
2002-09-23,9.63794
2002-09-24,10.041
2002-09-25,10.5211
2002-09-26,10.0581
2002-09-27,10.0838
2002-09-30,9.94663
2002-10-01,10.4182
2002-10-02,10.7355
2002-10-03,9.86946
2002-10-04,9.73226
2002-10-07,9.29496
2002-10-08,8.94339
2002-10-09,8.93482
2002-10-10,9.56934
2002-10-11,10.3411
2002-10-14,10.2982
2002-10-15,11.1557
2002-10-16,10.3068
2002-10-17,11.027
2002-10-18,11.4729
2002-10-21,12.0217
2002-10-22,11.19
2002-10-23,12.3304
2002-10-24,11.6616
2002-10-25,12.459
2002-10-28,12.9135
2002-10-29,12.3132
2002-10-30,13.1536
2002-10-31,12.8706
2002-11-01,13.4708
2002-11-04,14.0453
2002-11-05,13.5909
2002-11-06,14.3369
2002-11-07,13.4794
2002-11-08,13.5051
2002-11-11,12.5448
2002-11-12,12.862
2002-11-13,12.6048
2002-11-14,13.4537
2002-11-15,13.5651
2002-11-18,13.1793
2002-11-19,12.922
2002-11-20,13.6595
2002-11-21,14.5684
2002-11-22,14.3283
2002-11-25,14.5941
2002-11-26,14.2168
2002-11-27,15.0057
2002-11-29,14.6627
2002-12-02,14.4226
2002-12-03,13.6766
2002-12-04,12.9478
2002-12-05,12.7849
2002-12-06,12.6305
2002-12-09,11.8845
2002-12-10,12.6477
2002-12-11,12.459
2002-12-12,12.3132
2002-12-13,11.7902
2002-12-16,12.3733
2002-12-17,11.8674
2002-12-18,11.3615
2002-12-19,11.6187
2002-12-20,11.4301
2002-12-23,11.936
2002-12-24,11.7902
2002-12-26,11.8416
2002-12-27,11.5844
2002-12-30,11.4129
2002-12-31,11.1642
2003-01-02,11.9445
2003-01-03,12.399
2003-01-06,13.205
2003-01-07,13.0764
2003-01-08,12.5619
2003-01-09,12.9478
2003-01-10,13.4623
2003-01-13,13.1707
2003-01-14,13.1621
2003-01-15,12.3733
2003-01-16,12.3132
2003-01-17,11.5501
2003-01-21,11.593
2003-01-22,11.8159
2003-01-23,12.056
2003-01-24,11.3529
2003-01-27,11.3357
2003-01-28,11.3443
2003-01-29,11.6701
2003-01-30,11.0956
2003-01-31,10.2725
2003-02-03,10.2725
2003-02-04,10.4268
2003-02-05,10.3496
2003-02-06,10.3239
2003-02-07,10.161
2003-02-10,10.3754
2003-02-11,10.1867
2003-02-12,10.1353
2003-02-13,10.0753
2003-02-14,10.624
2003-02-18,10.8727
2003-02-19,10.6326
2003-02-20,10.967
2003-02-21,10.9756
2003-02-24,10.9756
2003-02-25,10.8555
2003-02-26,10.5554
2003-02-27,10.787
2003-02-28,11.1299
2003-03-03,10.847
2003-03-04,10.5126
2003-03-05,10.5211
2003-03-06,10.3411
2003-03-07,10.2639
2003-03-10,9.94663
2003-03-11,9.94663
2003-03-12,10.0495
2003-03-13,10.7784
2003-03-14,10.6069
2003-03-17,11.2328
2003-03-18,11.5672
2003-03-19,11.6358
2003-03-20,11.9617
2003-03-21,12.2018
2003-03-24,11.6187
2003-03-25,11.6873
2003-03-26,11.7645
2003-03-27,11.5672
2003-03-28,11.3529
2003-03-31,10.847
2003-04-01,10.9241
2003-04-02,11.6444
2003-04-03,11.7902
2003-04-04,11.6187
2003-04-07,11.9445
2003-04-08,11.5244
2003-04-09,11.2671
2003-04-10,11.3529
2003-04-11,11.1728
2003-04-14,11.5587
2003-04-15,11.5072
2003-04-16,12.0474
2003-04-17,12.6477
2003-04-21,12.8449
2003-04-22,13.5566
2003-04-23,13.3594
2003-04-24,12.9735
2003-04-25,12.1846
2003-04-28,12.4076
2003-04-29,12.7591
2003-04-30,12.5533
2003-05-01,12.6391
2003-05-02,12.9735
2003-05-05,12.9478
2003-05-06,13.2565
2003-05-07,13.0078
2003-05-08,12.519
2003-05-09,12.8963
2003-05-12,13.4794
2003-05-13,13.3422
2003-05-14,12.7849
2003-05-15,12.7763
2003-05-16,12.2618
2003-05-19,11.773
2003-05-20,11.7902
2003-05-21,11.6873
2003-05-22,11.9102
2003-05-23,11.8245
2003-05-27,12.6134
2003-05-28,12.6391
2003-05-29,12.7248
2003-05-30,13.3251
2003-06-02,13.1021
2003-06-03,13.5308
2003-06-04,14.2854
2003-06-05,14.4826
2003-06-06,13.891
2003-06-09,13.5566
2003-06-10,13.5737
2003-06-11,13.5223
2003-06-12,13.3937
2003-06-13,13.0421
2003-06-16,13.4365
2003-06-17,13.5394
2003-06-18,13.8138
2003-06-19,13.7281
2003-06-20,13.3937
2003-06-23,13.3251
2003-06-24,13.1536
2003-06-25,13.2908
2003-06-26,13.6766
2003-06-27,13.7195
2003-06-30,13.6166
2003-07-01,13.8567
2003-07-02,13.9853
2003-07-03,13.7366
2003-07-07,15.0914
2003-07-08,15.1686
2003-07-09,15.16
2003-07-10,14.98
2003-07-11,14.9114
2003-07-14,15.5373
2003-07-15,16.0604
2003-07-16,16.4548
2003-07-17,15.726
2003-07-18,15.5545
2003-07-21,15.3315
2003-07-22,16.0604
2003-07-23,16.5406
2003-07-24,16.2147
2003-07-25,16.5406
2003-07-28,16.9264
2003-07-29,16.6006
2003-07-30,16.532
2003-07-31,16.6778
2003-08-01,16.7635
2003-08-04,16.9264
2003-08-05,16.1976
2003-08-06,15.9403
2003-08-07,16.1461
2003-08-08,15.3487
2003-08-11,15.6831
2003-08-12,15.8117
2003-08-13,16.2747
2003-08-14,16.4462
2003-08-15,16.2233
2003-08-18,16.9264
2003-08-19,17.1922
2003-08-20,17.1837
2003-08-21,17.7753
2003-08-22,18.1869
2003-08-25,18.1526
2003-08-26,17.9811
2003-08-27,18.5213
2003-08-28,18.4699
2003-08-29,18.4699
2003-09-02,18.2555
2003-09-03,17.9211
2003-09-04,18.1955
2003-09-05,18.2641
2003-09-08,19.0358
2003-09-09,18.9157
2003-09-10,17.7239
2003-09-11,18.0754
2003-09-12,17.9039
2003-09-15,17.6467
2003-09-16,18.2812
2003-09-17,17.9983
2003-09-18,17.8611
2003-09-19,17.5609
2003-09-22,16.8835
2003-09-23,16.875
2003-09-24,15.8975
2003-09-25,16.0004
2003-09-26,15.8289
2003-09-29,16.1633
2003-09-30,15.5888
2003-10-01,15.8632
2003-10-02,15.8803
2003-10-03,16.7121
2003-10-06,16.5491
2003-10-07,17.0122
2003-10-08,17.2523
2003-10-09,17.5781
2003-10-10,17.9039
2003-10-13,17.9468
2003-10-14,17.9125
2003-10-15,18.5213
2003-10-16,18.7271
2003-10-17,18.0926
2003-10-20,18.5127
2003-10-21,18.7357
2003-10-22,18.2898
2003-10-23,17.7324
2003-10-24,17.6981
2003-10-27,17.7753
2003-10-28,19.3016
2003-10-29,19.4045
2003-10-30,19.8504
2003-10-31,19.9876
2003-11-03,21.0337
2003-11-04,21.3853
2003-11-05,21.3681
2003-11-06,21.8397
2003-11-07,21.6425
2003-11-10,20.9222
2003-11-11,21.3338
2003-11-12,21.7711
2003-11-13,21.1623
2003-11-14,20.1076
2003-11-17,20.3477
2003-11-18,19.7646
2003-11-19,20.0562
2003-11-20,19.6189
2003-11-21,19.6617
2003-11-24,20.3992
2003-11-25,20.6221
2003-11-26,20.3563
2003-11-28,20.8279
2003-12-01,20.725
2003-12-02,20.6478
2003-12-03,20.2534
2003-12-04,19.9276
2003-12-05,19.2159
2003-12-08,19.293
2003-12-09,18.3412
2003-12-10,18.5813
2003-12-11,19.113
2003-12-12,19.2244
2003-12-15,18.6242
2003-12-16,18.3412
2003-12-17,18.0068
2003-12-18,18.6928
2003-12-19,18.83
2003-12-22,18.8214
2003-12-23,19.1901
2003-12-24,19.0787
2003-12-26,19.0101
2003-12-29,19.4731
2003-12-30,19.3102
2003-12-31,19.1901
2004-01-02,18.95
2004-01-05,20.0905
2004-01-06,20.4592
2004-01-07,20.4249
2004-01-08,20.8279
2004-01-09,20.785
2004-01-12,21.1366
2004-01-13,20.4506
2004-01-14,20.1419
2004-01-15,20.6135
2004-01-16,20.8622
2004-01-20,20.8794
2004-01-21,20.5449
2004-01-22,20.2277
2004-01-23,19.3359
2004-01-26,19.6532
2004-01-27,18.7786
2004-01-28,18.3841
2004-01-29,18.4013
2004-01-30,18.6071
2004-02-02,18.5127
2004-02-03,18.5213
2004-02-04,18.2984
2004-02-05,18.3241
2004-02-06,19.173
2004-02-09,18.9672
2004-02-10,18.8729
2004-02-11,19.0787
2004-02-12,18.9157
2004-02-13,18.6671
2004-02-17,18.7957
2004-02-18,19.1473
2004-02-19,19.0015
2004-02-20,18.7185
2004-02-23,18.1869
2004-02-24,18.2126
2004-02-25,18.6071
2004-02-26,18.6156
2004-02-27,18.2555
2004-03-01,18.6242
2004-03-02,18.5813
2004-03-03,18.1869
2004-03-04,18.4699
2004-03-05,18.3498
2004-03-08,17.7753
2004-03-09,18.0068
2004-03-10,17.9897
2004-03-11,17.8954
2004-03-12,18.2469
2004-03-15,17.7839
2004-03-16,18.1355
2004-03-17,18.2041
2004-03-18,18.1355
2004-03-19,17.4666
2004-03-22,17.2951
2004-03-23,17.4666
2004-03-24,17.7925
2004-03-25,18.5642
2004-03-26,18.4013
2004-03-29,18.4013
2004-03-30,18.3241
2004-03-31,18.2812
2004-04-01,18.6242
2004-04-02,19.2845
2004-04-05,19.4474
2004-04-06,19.1044
2004-04-07,19.0529
2004-04-08,19.3102
2004-04-12,19.5246
2004-04-13,19.2759
2004-04-14,19.2073
2004-04-15,18.4699
2004-04-16,17.8182
2004-04-19,18.1097
2004-04-20,17.3723
2004-04-21,17.3637
2004-04-22,16.9779
2004-04-23,17.1151
2004-04-26,16.6177
2004-04-27,16.5491
2004-04-28,16.2747
2004-04-29,15.7946
2004-04-30,15.6745
2004-05-03,15.6059
2004-05-04,16.0261
2004-05-05,15.9232
2004-05-06,16.0089
2004-05-07,16.0004
2004-05-10,16.3691
2004-05-11,16.7892
2004-05-12,16.6263
2004-05-13,16.2061
2004-05-14,15.9318
2004-05-17,15.8546
2004-05-18,16.2061
2004-05-19,16.0604
2004-05-20,15.6917
2004-05-21,15.7517
2004-05-24,16.069
2004-05-25,16.4805
2004-05-26,16.6778
2004-05-27,16.7464
2004-05-28,17.1151
2004-06-01,16.875
2004-06-02,16.3519
2004-06-03,15.9575
2004-06-04,16.1118
2004-06-07,16.6006
2004-06-08,16.4034
2004-06-09,16.0004
2004-06-10,16.1804
2004-06-14,15.9575
2004-06-15,16.2233
2004-06-16,16.0175
2004-06-17,15.7088
2004-06-18,15.5888
2004-06-21,15.4944
2004-06-22,15.8889
2004-06-23,16.249
2004-06-24,16.2061
2004-06-25,16.4977
2004-06-28,16.2233
2004-06-29,16.8235
2004-06-30,16.8321
2004-07-01,16.2833
2004-07-02,15.906
2004-07-06,15.4944
2004-07-07,15.6231
2004-07-08,15.726
2004-07-09,15.9489
2004-07-12,15.5373
2004-07-13,15.3916
2004-07-14,14.4226
2004-07-15,14.3969
2004-07-16,14.3111
2004-07-19,14.3969
2004-07-20,14.7742
2004-07-21,14.2854
2004-07-22,14.5084
2004-07-23,14.0282
2004-07-26,13.8996
2004-07-27,13.891
2004-07-28,13.608
2004-07-29,14.1139
2004-07-30,14.5855
2004-08-02,14.6713
2004-08-03,14.1139
2004-08-04,14.5598
2004-08-05,14.4569
2004-08-06,14.0625
2004-08-09,14.0968
2004-08-10,14.4483
2004-08-11,13.9339
2004-08-12,13.3851
2004-08-13,13.3937
2004-08-16,13.4451
2004-08-17,13.6423
2004-08-18,13.8395
2004-08-19,13.5994
2004-08-20,13.7452
2004-08-23,13.9167
2004-08-24,13.6509
2004-08-25,13.8738
2004-08-26,13.6938
2004-08-27,14.0282
2004-08-30,13.7366
2004-08-31,13.6166
2004-09-01,13.7795
2004-09-02,13.9939
2004-09-03,13.4623
2004-09-07,13.428
2004-09-08,13.548
2004-09-09,14.0368
2004-09-10,14.4826
2004-09-13,14.5512
2004-09-14,14.757
2004-09-15,14.3712
2004-09-16,14.3969
2004-09-17,14.4741
2004-09-20,15.0914
2004-09-21,15.1172
2004-09-22,14.6456
2004-09-23,14.7485
2004-09-24,14.2854
2004-09-27,14.0368
2004-09-28,13.8824
2004-09-29,14.0282
2004-09-30,14.1568
2004-10-01,14.7999
2004-10-04,14.7142
2004-10-05,14.8513
2004-10-06,14.757
2004-10-07,14.7142
2004-10-08,13.891
2004-10-11,13.9596
2004-10-12,13.8395
2004-10-13,14.0453
2004-10-14,13.4537
2004-10-15,13.4537
2004-10-18,13.5909
2004-10-19,13.608
2004-10-20,13.8224
2004-10-21,13.9853
2004-10-22,13.6852
2004-10-25,13.5909
2004-10-26,13.4623
2004-10-27,13.831
2004-10-28,13.8395
2004-10-29,13.8138
2004-11-01,13.7452
2004-11-02,13.9081
2004-11-03,13.8224
2004-11-04,13.8567
2004-11-05,13.951
2004-11-08,14.0539
2004-11-09,14.0282
2004-11-10,13.7109
2004-11-11,13.7881
2004-11-12,13.8481
2004-11-15,14.3969
2004-11-16,14.354
2004-11-17,14.8599
2004-11-18,15.1343
2004-11-19,14.577
2004-11-22,14.6456
2004-11-23,14.5255
2004-11-24,14.5341
2004-11-26,14.5512
2004-11-29,14.5169
2004-11-30,14.3197
2004-12-01,15.1772
2004-12-02,15.0057
2004-12-03,15.3144
2004-12-06,15.3573
2004-12-07,15.04
2004-12-08,14.8171
2004-12-09,14.7313
2004-12-10,14.637
2004-12-13,14.7056
2004-12-14,14.9542
2004-12-15,14.9628
2004-12-16,14.6113
2004-12-17,14.4398
2004-12-20,14.3712
2004-12-21,14.4655
2004-12-22,14.5855
2004-12-23,14.5941
2004-12-27,14.4226
2004-12-28,14.4998
2004-12-29,14.5855
2004-12-30,14.6198
2004-12-31,14.6198
2005-01-03,14.4226
2005-01-04,14.1397
2005-01-05,13.8996
2005-01-06,13.8138
2005-01-07,13.8138
2005-01-10,13.8653
2005-01-11,13.831
2005-01-12,14.2254
2005-01-13,13.951
2005-01-14,14.174
2005-01-18,14.1654
2005-01-19,13.7366
2005-01-20,13.7109
2005-01-21,13.3765
2005-01-24,13.0164
2005-01-25,13.428
2005-01-26,13.8138
2005-01-27,14.1139
2005-01-28,13.7967
2005-01-31,13.6337
2005-02-01,14.0368
2005-02-02,13.9682
2005-02-03,13.8567
2005-02-04,14.3369
2005-02-07,14.3197
2005-02-08,14.4741
2005-02-09,14.174
2005-02-10,14.3026
2005-02-11,14.6713
2005-02-14,14.6541
2005-02-15,14.9714
2005-02-16,15.0228
2005-02-17,14.8599
2005-02-18,14.8942
2005-02-22,14.9628
2005-02-23,14.7999
2005-02-24,15.0314
2005-02-25,15.3573
2005-02-28,14.9714
2005-03-01,15.1343
2005-03-02,14.7742
2005-03-03,14.6884
2005-03-04,14.4998
2005-03-07,14.7056
2005-03-08,14.4055
2005-03-09,14.3197
2005-03-10,14.414
2005-03-11,14.1139
2005-03-14,14.1568
2005-03-15,13.8653
2005-03-16,13.7624
2005-03-17,13.8224
2005-03-18,13.7195
2005-03-21,13.7195
2005-03-22,13.5737
2005-03-23,13.8738
2005-03-24,14.2768
2005-03-28,14.0968
2005-03-29,13.9767
2005-03-30,14.2597
2005-03-31,13.951
2005-04-01,13.7281
2005-04-04,13.7795
2005-04-05,13.7452
2005-04-06,13.7195
2005-04-07,13.8567
2005-04-08,13.7795
2005-04-11,13.7281
2005-04-12,13.668
2005-04-13,13.2565
2005-04-14,13.1107
2005-04-15,12.4161
2005-04-18,12.7506
2005-04-19,12.8277
2005-04-20,12.6648
2005-04-21,12.9392
2005-04-22,12.8363
2005-04-25,12.8449
2005-04-26,12.8534
2005-04-27,12.802
2005-04-28,12.742
2005-04-29,12.742
2005-05-02,12.9135
2005-05-03,12.9563
2005-05-04,13.1879
2005-05-05,13.2565
2005-05-06,13.3679
2005-05-09,13.4451
2005-05-10,13.5223
2005-05-11,13.4965
2005-05-12,13.4451
2005-05-13,13.8395
2005-05-16,13.8051
2005-05-17,13.7708
2005-05-18,13.6763
2005-05-19,13.5045
2005-05-20,13.6247
2005-05-23,13.745
2005-05-24,14.1574
2005-05-25,14.0715
2005-05-26,14.3378
2005-05-27,14.2862
2005-05-31,14.166
2005-06-01,14.3034
2005-06-02,14.4666
2005-06-03,14.4752
2005-06-06,14.4323
2005-06-07,14.2433
2005-06-08,14.5096
2005-06-09,14.9219
2005-06-10,14.7501
2005-06-13,14.6041
2005-06-14,14.5182
2005-06-15,14.5182
2005-06-16,14.4838
2005-06-17,14.5354
2005-06-20,14.3378
2005-06-21,14.3378
2005-06-22,14.501
2005-06-23,14.4838
2005-06-24,14.1745
2005-06-27,13.9512
2005-06-28,14.0457
2005-06-29,13.9168
2005-06-30,13.8739
2005-07-01,13.8911
2005-07-05,13.977
2005-07-06,13.8481
2005-07-07,14.0371
2005-07-08,14.3378
2005-07-11,14.7501
2005-07-12,14.6986
2005-07-13,14.6814
2005-07-14,14.9305
2005-07-15,14.9219
2005-07-18,14.8188
2005-07-19,15.1711
2005-07-20,15.781
2005-07-21,15.6178
2005-07-22,15.7037
2005-07-25,15.635
2005-07-26,15.6779
2005-07-27,15.5405
2005-07-28,15.7037
2005-07-29,15.8669
2005-08-01,15.6607
2005-08-02,15.9528
2005-08-03,15.7896
2005-08-04,15.446
2005-08-05,15.3601
2005-08-08,15.1625
2005-08-09,15.2656
2005-08-10,14.9563
2005-08-11,15.2913
2005-08-12,14.9477
2005-08-15,15.1456
2005-08-16,14.8186
2005-08-17,15.6533
2005-08-18,15.5673
2005-08-19,15.6361
2005-08-22,15.9201
2005-08-23,15.834
2005-08-24,15.5328
2005-08-25,15.507
2005-08-26,15.4726
2005-08-29,15.6017
2005-08-30,15.5587
2005-08-31,15.7308
2005-09-01,15.2489
2005-09-02,15.223
2005-09-06,15.3005
2005-09-07,15.1542
2005-09-08,15.3177
2005-09-09,15.4554
2005-09-12,15.3177
2005-09-13,15.5931
2005-09-14,15.3349
2005-09-15,15.5328
2005-09-16,15.4468
2005-09-19,15.0251
2005-09-20,14.7067
2005-09-21,14.483
2005-09-22,14.5604
2005-09-23,14.5862
2005-09-26,14.5174
2005-09-27,14.3711
2005-09-28,14.4055
2005-09-29,14.526
2005-09-30,14.5776
2005-10-03,14.6293
2005-10-04,14.5604
2005-10-05,14.3883
2005-10-06,14.3453
2005-10-07,14.5346
2005-10-10,14.4916
2005-10-11,14.4658
2005-10-12,14.6121
2005-10-13,14.9563
2005-10-14,14.9305
2005-10-17,14.9391
2005-10-18,14.853
2005-10-19,14.6809
2005-10-20,14.6293
2005-10-21,14.569
2005-10-24,14.6551
2005-10-25,14.8186
2005-10-26,14.569
2005-10-27,14.4141
2005-10-28,14.0613
2005-10-31,14.0957
2005-11-01,13.7945
2005-11-02,14.0699
2005-11-03,14.5088
2005-11-04,14.4658
2005-11-07,14.7239
2005-11-08,15.0337
2005-11-09,15.4038
2005-11-10,15.4296
2005-11-11,15.4468
2005-11-14,15.4468
2005-11-15,15.3003
2005-11-16,15.3348
2005-11-17,14.921
2005-11-18,14.8693
2005-11-21,14.99
2005-11-22,15.0762
2005-11-23,15.421
2005-11-25,15.7313
2005-11-28,15.6278
2005-11-29,15.6623
2005-11-30,15.6278
2005-12-01,16.0847
2005-12-02,16.1968
2005-12-05,16.0071
2005-12-06,16.3174
2005-12-07,16.3692
2005-12-08,16.145
2005-12-09,16.1968
2005-12-12,16.4726
2005-12-13,16.5502
2005-12-14,16.3692
2005-12-15,16.4036
2005-12-16,16.3519
2005-12-19,15.9123
2005-12-20,15.783
2005-12-21,15.6451
2005-12-22,15.7916
2005-12-23,15.8778
2005-12-27,15.6882
2005-12-28,15.714
2005-12-29,15.5675
2005-12-30,15.4727
2006-01-03,15.8002
2006-01-04,15.9209
2006-01-05,16.0761
2006-01-06,16.6967
2006-01-09,16.826
2006-01-10,17.0501
2006-01-11,17.7742
2006-01-12,17.9811
2006-01-13,17.3346
2006-01-17,16.9984
2006-01-18,17.0329
2006-01-19,17.1708
2006-01-20,16.464
2006-01-23,16.4036
2006-01-24,16.3778
2006-01-25,16.3347
2006-01-26,16.9036
2006-01-27,16.9639
2006-01-30,16.9036
2006-01-31,16.4209
2006-02-01,16.6364
2006-02-02,16.283
2006-02-03,16.0933
2006-02-06,16.4381
2006-02-07,16.7829
2006-02-08,17.3001
2006-02-09,17.3432
2006-02-10,17.1967
2006-02-13,17.1018
2006-02-14,17.473
2006-02-15,17.6457
2006-02-16,17.2227
2006-02-17,17.0328
2006-02-21,16.6615
2006-02-22,16.6011
2006-02-23,16.4457
2006-02-24,16.2644
2006-02-27,15.9018
2006-02-28,15.8242
2006-03-01,16.2558
2006-03-02,16.4457
2006-03-03,16.1004
2006-03-06,16.04
2006-03-07,15.7983
2006-03-08,15.4529
2006-03-09,15.2975
2006-03-10,15.3752
2006-03-13,15.4788
2006-03-14,15.8155
2006-03-15,16.0141
2006-03-16,15.2716
2006-03-17,15.0558
2006-03-20,15.099
2006-03-21,15.1076
2006-03-22,15.2457
2006-03-23,15.2026
2006-03-24,15.4616
2006-03-27,15.4184
2006-03-28,15.0472
2006-03-29,15.2026
2006-03-30,15.3407
2006-03-31,15.1594
2006-04-03,15.3407
2006-04-04,15.3234
2006-04-05,15.7551
2006-04-06,15.9191
2006-04-07,15.5738
2006-04-10,15.2716
2006-04-11,15.1163
2006-04-12,15.0645
2006-04-13,15.6515
2006-04-17,15.2198
2006-04-18,15.6429
2006-04-19,15.8155
2006-04-20,16.0313
2006-04-21,15.5997
2006-04-24,15.4702
2006-04-25,15.4443
2006-04-26,15.4529
2006-04-27,15.8242
2006-04-28,15.5134
2006-05-01,15.2198
2006-05-02,15.2803
2006-05-03,15.5824
2006-05-04,16.0486
2006-05-05,16.4716
2006-05-08,16.3335
2006-05-09,16.0486
2006-05-10,15.686
2006-05-11,15.6429
2006-05-12,15.6083
2006-05-15,15.3666
2006-05-16,15.436
2006-05-17,14.6915
2006-05-18,14.5616
2006-05-19,14.7174
2006-05-22,14.5962
2006-05-23,14.0768
2006-05-24,14.5703
2006-05-25,14.4923
2006-05-26,14.6395
2006-05-30,14.475
2006-05-31,14.5876
2006-06-01,14.83
2006-06-02,14.7521
2006-06-05,14.3971
2006-06-06,14.2932
2006-06-07,14.1547
2006-06-08,14.3885
2006-06-09,14.224
2006-06-12,14.0422
2006-06-13,13.9556
2006-06-14,14.224
2006-06-15,14.5529
2006-06-16,14.1287
2006-06-19,14.1201
2006-06-20,14.2326
2006-06-21,14.501
2006-06-22,14.3279
2006-06-23,13.9902
2006-06-26,14.0335
2006-06-27,13.8084
2006-06-28,13.895
2006-06-29,14.3019
2006-06-30,14.1893
2006-07-03,14.2673
2006-07-05,14.0075
2006-07-06,14.1807
2006-07-07,13.895
2006-07-10,13.6612
2006-07-11,13.9556
2006-07-12,13.5747
2006-07-13,13.4102
2006-07-14,13.3582
2006-07-17,13.3756
2006-07-18,13.4188
2006-07-19,13.7218
2006-07-20,12.9254
2006-07-21,12.7955
2006-07-24,13.0899
2006-07-25,13.0552
2006-07-26,13.0552
2006-07-27,13.0812
2006-07-28,13.4968
2006-07-31,13.6439
2006-08-01,13.3929
2006-08-02,13.4881
2006-08-03,13.6006
2006-08-04,13.4015
2006-08-07,13.3323
2006-08-08,13.2024
2006-08-09,13.0985
2006-08-10,13.3582
2006-08-11,13.1418
2006-08-14,13.3149
2006-08-15,13.5928
2006-08-16,13.6623
2006-08-17,13.7405
2006-08-18,13.7057
2006-08-21,13.5407
2006-08-22,13.532
2006-08-23,13.8187
2006-08-24,13.9924
2006-08-25,14.0097
2006-08-28,14.2008
2006-08-29,14.5048
2006-08-30,14.7306
2006-08-31,14.6612
2006-09-01,14.6264
2006-09-05,14.6177
2006-09-06,14.279
2006-09-07,14.2703
2006-09-08,14.3311
2006-09-11,14.279
2006-09-12,15.1475
2006-09-13,15.0694
2006-09-14,15.0173
2006-09-15,14.9651
2006-09-18,15.4168
2006-09-19,15.1389
2006-09-20,14.9912
2006-09-21,14.7133
2006-09-22,14.6351
2006-09-25,15.0781
2006-09-26,15.2518
2006-09-27,15.2518
2006-09-28,15.3994
2006-09-29,15.3907
2006-10-02,15.2691
2006-10-03,15.356
2006-10-04,15.7382
2006-10-05,15.6947
2006-10-06,15.8945
2006-10-09,16.0508
2006-10-10,16.1551
2006-10-11,16.1724
2006-10-12,16.2245
2006-10-13,16.5285
2006-10-16,16.4764
2006-10-17,16.2245
2006-10-18,15.4776
2006-10-19,15.0781
2006-10-20,14.9825
2006-10-23,15.0954
2006-10-24,14.8001
2006-10-25,14.9565
2006-10-26,15.3473
2006-10-27,14.9912
2006-10-30,15.0694
2006-10-31,15.0781
2006-11-01,14.9478
2006-11-02,14.8435
2006-11-03,14.8609
2006-11-06,15.0173
2006-11-07,15.4602
2006-11-08,15.495
2006-11-09,15.1302
2006-11-10,15.3212
2006-11-13,15.7121
2006-11-14,16.1214
2006-11-15,16.1301
2006-11-16,15.6337
2006-11-17,15.7992
2006-11-20,15.895
2006-11-21,15.8427
2006-11-22,16.0082
2006-11-24,16.1824
2006-11-27,15.6511
2006-11-28,15.7905
2006-11-29,15.7992
2006-11-30,15.6772
2006-12-01,15.4246
2006-12-04,15.9734
2006-12-05,16.165
2006-12-06,16.1824
2006-12-07,16.0517
2006-12-08,16.0866
2006-12-11,16.0343
2006-12-12,15.8514
2006-12-13,15.625
2006-12-14,15.8601
2006-12-15,15.8166
2006-12-18,15.9472
2006-12-19,15.7992
2006-12-20,15.9211
2006-12-21,15.6685
2006-12-22,15.8427
2006-12-26,16.2259
2006-12-27,16.2085
2006-12-28,16.1563
2006-12-29,16.0692
2007-01-03,16.0169
2007-01-04,16.3566
2007-01-05,16.2608
2007-01-08,16.4524
2007-01-09,16.7659
2007-01-10,17.0011
2007-01-11,17.0011
2007-01-12,16.975
2007-01-16,16.9575
2007-01-17,16.8966
2007-01-18,15.8775
2007-01-19,15.8775
2007-01-22,15.6424
2007-01-23,15.2417
2007-01-24,15.2766
2007-01-25,15.2243
2007-01-26,15.4856
2007-01-29,15.3288
2007-01-30,15.4943
2007-01-31,15.4072
2007-02-01,15.6076
2007-02-02,15.7817
2007-02-05,15.7817
2007-02-06,15.7992
2007-02-07,15.9037
2007-02-08,15.9385
2007-02-09,15.6424
2007-02-12,15.5901
2007-02-13,15.8696
2007-02-14,16.4985
2007-02-15,16.6906
2007-02-16,16.6208
2007-02-20,16.3762
2007-02-21,16.5858
2007-02-22,16.7518
2007-02-23,16.743
2007-02-26,16.6644
2007-02-27,16.1491
2007-02-28,16.2277
2007-03-01,16.0967
2007-03-02,15.7212
2007-03-05,15.5378
2007-03-06,15.8609
2007-03-07,15.9046
2007-03-08,16.0793
2007-03-09,16.0007
2007-03-12,16.219
2007-03-13,16.0181
2007-03-14,16.0443
2007-03-15,16.219
2007-03-16,16.1579
2007-03-19,16.1229
2007-03-20,16.1579
2007-03-21,16.4636
2007-03-22,16.4199
2007-03-23,16.4024
2007-03-26,16.4898
2007-03-27,16.4636
2007-03-28,16.2889
2007-03-29,16.1579
2007-03-30,15.9832
2007-04-02,16.0269
2007-04-03,16.0181
2007-04-04,16.2889
2007-04-05,16.3063
2007-04-09,16.2889
2007-04-10,16.9701
2007-04-11,16.7867
2007-04-12,16.9177
2007-04-13,16.6732
2007-04-16,16.7954
2007-04-17,16.9177
2007-04-18,17.2059
2007-04-19,17.0837
2007-04-20,16.9963
2007-04-23,16.7343
2007-04-24,17.0313
2007-04-25,17.0313
2007-04-26,16.8479
2007-04-27,16.8479
2007-04-30,16.7954
2007-05-01,16.9701
2007-05-02,16.9963
2007-05-03,17.0313
2007-05-04,17.2583
2007-05-07,17.2758
2007-05-08,16.9701
2007-05-09,17.2059
2007-05-10,16.7256
2007-05-11,17.2758
2007-05-14,17.8872
2007-05-15,17.2828
2007-05-16,16.7835
2007-05-17,16.5908
2007-05-18,16.5032
2007-05-21,16.547
2007-05-22,16.8098
2007-05-23,16.7835
2007-05-24,16.6521
2007-05-25,16.8536
2007-05-29,16.836
2007-05-30,16.5645
2007-05-31,16.7309
2007-06-01,16.9499
2007-06-04,16.8448
2007-06-05,16.6784
2007-06-06,16.6609
2007-06-07,16.1178
2007-06-08,16.4068
2007-06-11,16.3017
2007-06-12,16.2141
2007-06-13,16.7572
2007-06-14,17.0112
2007-06-15,17.3704
2007-06-18,17.3791
2007-06-19,17.3353
2007-06-20,17.2039
2007-06-21,17.677
2007-06-22,17.7646
2007-06-25,17.3967
2007-06-26,17.2828
2007-06-27,17.8259
2007-06-28,17.493
2007-06-29,17.3879
2007-07-02,17.677
2007-07-03,17.7032
2007-07-05,17.5631
2007-07-06,17.5105
2007-07-09,17.6857
2007-07-10,17.3791
2007-07-11,17.5281
2007-07-12,18.1763
2007-07-13,17.9485
2007-07-16,18.0887
2007-07-17,19.1223
2007-07-18,18.9734
2007-07-19,19.096
2007-07-20,18.7719
2007-07-23,18.7807
2007-07-24,18.6843
2007-07-25,19.061
2007-07-26,18.9208
2007-07-27,18.877
2007-07-30,19.2887
2007-07-31,19.3588
2007-08-01,19.6129
2007-08-02,19.5428
2007-08-03,19.4639
2007-08-06,20.0421
2007-08-07,19.8318
2007-08-08,20.0158
2007-08-09,19.6654
2007-08-10,19.1661
2007-08-13,19.0873
2007-08-14,18.7097
2007-08-15,17.8664
2007-08-16,17.8577
2007-08-17,18.2441
2007-08-20,18.4023
2007-08-21,18.2968
2007-08-22,18.086
2007-08-23,18.2002
2007-08-24,18.3144
2007-08-27,18.0772
2007-08-28,17.7171
2007-08-29,18.1914
2007-08-30,18.4023
2007-08-31,18.7536
2007-09-04,19.1313
2007-09-05,18.7185
2007-09-06,18.7273
2007-09-07,18.3056
2007-09-10,18.3671
2007-09-11,18.455
2007-09-12,18.0333
2007-09-13,18.0597
2007-09-14,17.8577
2007-09-17,17.8489
2007-09-18,18.4989
2007-09-19,18.4989
2007-09-20,18.4813
2007-09-21,18.7185
2007-09-24,18.455
2007-09-25,18.4462
2007-09-26,18.1475
2007-09-27,18.1827
2007-09-28,18.1563
2007-10-01,18.736
2007-10-02,18.982
2007-10-03,18.2617
2007-10-04,18.1475
2007-10-05,18.5604
2007-10-08,18.3583
2007-10-09,18.1387
2007-10-10,17.7347
2007-10-11,17.6908
2007-10-12,18.4725
2007-10-15,18.2441
2007-10-16,18.3056
2007-10-17,18.982
2007-10-18,18.3408
2007-10-19,17.6732
2007-10-22,17.9455
2007-10-23,18.007
2007-10-24,17.6468
2007-10-25,16.9968
2007-10-26,16.5137
2007-10-29,16.6718
2007-10-30,16.8651
2007-10-31,17.0583
2007-11-01,16.5049
2007-11-02,16.5489
2007-11-05,16.2414
2007-11-06,16.136
2007-11-07,15.7232
2007-11-08,15.7319
2007-11-09,16.4786
2007-11-12,16.0921
2007-11-13,16.3477
2007-11-14,16.6914
2007-11-15,16.6209
2007-11-16,16.3389
2007-11-19,16.1274
2007-11-20,16.0216
2007-11-21,15.863
2007-11-23,16.2684
2007-11-26,15.7308
2007-11-27,16.0304
2007-11-28,16.5416
2007-11-29,16.5063
2007-11-30,16.568
2007-12-03,16.0392
2007-12-04,15.9159
2007-12-05,16.5151
2007-12-06,16.4358
2007-12-07,16.1009
2007-12-10,16.4358
2007-12-11,15.9423
2007-12-12,16.1979
2007-12-13,15.9159
2007-12-14,15.6691
2007-12-17,15.5017
2007-12-18,15.6162
2007-12-19,15.5193
2007-12-20,15.8365
2007-12-21,15.8013
2007-12-24,15.9952
2007-12-26,16.0304
2007-12-27,15.6691
2007-12-28,15.7396
2007-12-31,15.6162
2008-01-02,15.3342
2008-01-03,15.0522
2008-01-04,14.779
2008-01-07,14.7085
2008-01-08,14.3913
2008-01-09,14.6644
2008-01-10,14.4794
2008-01-11,14.4441
2008-01-14,14.8407
2008-01-15,14.9729
2008-01-16,15.3607
2008-01-17,15.4664
2008-01-18,15.8894
2008-01-22,15.8454
2008-01-23,15.9776
2008-01-24,15.8365
2008-01-25,15.3518
2008-01-28,15.8189
2008-01-29,15.581
2008-01-30,15.7925
2008-01-31,15.766
2008-02-01,16.6121
2008-02-04,16.2948
2008-02-05,15.9952
2008-02-06,15.4223
2008-02-07,15.5545
2008-02-08,15.8013
2008-02-11,16.286
2008-02-12,16.0119
2008-02-13,17.568
2008-02-14,16.9756
2008-02-15,16.8076
2008-02-19,16.3479
2008-02-20,17.1524
2008-02-21,17.0021
2008-02-22,17.3912
2008-02-25,17.3823
2008-02-26,17.5945
2008-02-27,17.7802
2008-02-28,17.5061
2008-02-29,16.9668
2008-03-03,16.7104
2008-03-04,18.0012
2008-03-05,18.1073
2008-03-06,17.8067
2008-03-07,17.789
2008-03-10,17.9835
2008-03-11,18.514
2008-03-12,18.5671
2008-03-13,18.5936
2008-03-14,18.2488
2008-03-17,18.2841
2008-03-18,19.0268
2008-03-19,18.2841
2008-03-20,18.6555
2008-03-24,18.4875
2008-03-25,18.2399
2008-03-26,17.9924
2008-03-27,17.6918
2008-03-28,17.2851
2008-03-31,17.2232
2008-04-01,17.7537
2008-04-02,18.2399
2008-04-03,18.4433
2008-04-04,18.4787
2008-04-07,17.8509
2008-04-08,17.2055
2008-04-09,17.3735
2008-04-10,17.8421
2008-04-11,16.896
2008-04-14,16.7015
2008-04-15,16.5512
2008-04-16,17.0994
2008-04-17,16.9491
2008-04-18,16.896
2008-04-21,16.7899
2008-04-22,16.3125
2008-04-23,16.6131
2008-04-24,17.0287
2008-04-25,16.896
2008-04-28,16.7899
2008-04-29,16.7988
2008-04-30,16.507
2008-05-01,17.2409
2008-05-02,17.4
2008-05-05,17.1701
2008-05-06,17.1701
2008-05-07,16.9933
2008-05-08,17.2851
2008-05-09,17.0552
2008-05-12,17.5238
2008-05-13,17.5503
2008-05-14,17.6478
2008-05-15,17.3995
2008-05-16,17.3552
2008-05-19,17.3019
2008-05-20,16.9029
2008-05-21,16.8408
2008-05-22,17.0182
2008-05-23,16.7965
2008-05-27,17.3552
2008-05-28,17.3197
2008-05-29,17.3995
2008-05-30,17.5414
2008-06-02,17.2753
2008-06-03,16.8142
2008-06-04,17.0625
2008-06-05,17.1334
2008-06-06,16.7876
2008-06-09,16.7698
2008-06-10,16.8408
2008-06-11,16.6191
2008-06-12,17.1689
2008-06-13,17.7808
2008-06-16,18.4371
2008-06-17,18.1622
2008-06-18,18.0469
2008-06-19,18.1622
2008-06-20,17.8518
2008-06-23,17.5237
2008-06-24,17.7276
2008-06-25,18.2597
2008-06-26,17.2221
2008-06-27,17.1068
2008-06-30,16.9383
2008-07-01,17.0891
2008-07-02,16.7078
2008-07-03,16.628
2008-07-07,16.7078
2008-07-08,16.7166
2008-07-09,15.8387
2008-07-10,16.2644
2008-07-11,15.883
2008-07-14,15.7943
2008-07-15,16.0249
2008-07-16,16.22
2008-07-17,16.5127
2008-07-18,16.2112
2008-07-21,15.8121
2008-07-22,15.4396
2008-07-23,15.617
2008-07-24,15.076
2008-07-25,15.0849
2008-07-28,14.7922
2008-07-29,15.076
2008-07-30,15.2445
2008-07-31,15.3864
2008-08-01,15.5372
2008-08-04,15.8564
2008-08-05,15.9894
2008-08-06,15.9185
2008-08-07,16.3885
2008-08-08,16.6191
2008-08-11,16.3885
2008-08-12,16.4151
2008-08-13,17.2247
2008-08-14,17.0023
2008-08-15,17.1625
2008-08-18,16.7265
2008-08-19,16.4062
2008-08-20,16.4151
2008-08-21,16.3439
2008-08-22,16.4329
2008-08-25,16.1126
2008-08-26,16.1838
2008-08-27,16.2816
2008-08-28,16.4418
2008-08-29,15.9613
2008-09-02,15.8635
2008-09-03,15.2674
2008-09-04,14.9293
2008-09-05,15.2941
2008-09-08,15.4364
2008-09-09,15.0627
2008-09-10,14.5645
2008-09-11,14.778
2008-09-12,14.4399
2008-09-15,14.5378
2008-09-16,14.6891
2008-09-17,14.0129
2008-09-18,14.1819
2008-09-19,14.1374
2008-09-22,13.7816
2008-09-23,13.8527
2008-09-24,13.915
2008-09-25,14.2264
2008-09-26,14.1908
2008-09-29,13.2033
2008-09-30,13.4346
2008-10-01,13.2922
2008-10-02,12.7584
2008-10-03,12.6338
2008-10-06,12.0911
2008-10-07,11.0324
2008-10-08,11.1124
2008-10-09,11.4238
2008-10-10,11.2459
2008-10-13,11.7886
2008-10-14,11.3438
2008-10-15,10.2672
2008-10-16,11.1124
2008-10-17,10.6587
2008-10-20,11.3082
2008-10-21,10.8811
2008-10-22,10.3651
2008-10-23,10.0626
2008-10-24,10.1871
2008-10-27,10.0804
2008-10-28,11.0324
2008-10-29,10.6943
2008-10-30,10.7299
2008-10-31,11.5128
2008-11-03,11.5217
2008-11-04,11.842
2008-11-05,11.068
2008-11-06,9.68891
2008-11-07,10.027
2008-11-10,9.59752
2008-11-11,9.48124
2008-11-12,8.94457
2008-11-13,10.0895
2008-11-14,9.19501
2008-11-17,8.92668
2008-11-18,8.45261
2008-11-19,7.53132
2008-11-20,7.27193
2008-11-21,7.44188
2008-11-24,7.83544
2008-11-25,7.79966
2008-11-26,8.66728
2008-11-28,8.56889
2008-12-01,7.93383
2008-12-02,8.03222
2008-12-03,8.31845
2008-12-04,8.51523
2008-12-05,8.95351
2008-12-08,8.94457
2008-12-09,9.16818
2008-12-10,9.2934
2008-12-11,8.99823
2008-12-12,9.32024
2008-12-15,9.14135
2008-12-16,9.58858
2008-12-17,9.57069
2008-12-18,9.02507
2008-12-19,9.09662
2008-12-22,9.09662
2008-12-23,8.72095
2008-12-24,8.79251
2008-12-26,8.65834
2008-12-29,8.73884
2008-12-30,9.08768
2008-12-31,9.09662
2009-01-02,9.50807
2009-01-05,9.54385
2009-01-06,10.3578
2009-01-07,9.49913
2009-01-08,9.58858
2009-01-09,9.30235
2009-01-12,8.94457
2009-01-13,9.10557
2009-01-14,8.71201
2009-01-15,8.69412
2009-01-16,9.08768
2009-01-20,8.42578
2009-01-21,8.43473
2009-01-22,8.20217
2009-01-23,8.70306
2009-01-26,8.80145
2009-01-27,9.01612
2009-01-28,9.27552
2009-01-29,8.60467
2009-01-30,8.40789
2009-02-02,8.38106
2009-02-03,8.54206
2009-02-04,8.81934
2009-02-05,9.09662
2009-02-06,9.32024
2009-02-09,9.1324
2009-02-10,8.81754
2009-02-11,8.82654
2009-02-12,8.48463
2009-02-13,8.55661
2009-02-17,7.77383
2009-02-18,7.73784
2009-02-19,7.5399
2009-02-20,7.8908
2009-02-23,7.5309
2009-02-24,7.81882
2009-02-25,8.50263
2009-02-26,8.85353
2009-02-27,8.31368
2009-03-02,7.98977
2009-03-03,7.98077
2009-03-04,8.33168
2009-03-05,8.19671
2009-03-06,7.83681
2009-03-09,7.71985
2009-03-10,8.2417
2009-03-11,8.6106
2009-03-12,9.07847
2009-03-13,9.49235
2009-03-16,9.33939
2009-03-17,9.60032
2009-03-18,9.71729
2009-03-19,9.61832
2009-03-20,9.21343
2009-03-23,9.88824
2009-03-24,9.51934
2009-03-25,9.85225
2009-03-26,10.3921
2009-03-27,10.1132
2009-03-30,9.63631
2009-03-31,9.63631
2009-04-01,9.6723
2009-04-02,10.2571
2009-04-03,10.608
2009-04-06,10.3831
2009-04-07,9.46536
2009-04-08,9.6813
2009-04-09,10.2122
2009-04-13,10.3651
2009-04-14,10.5721
2009-04-15,10.2931
2009-04-16,10.59
2009-04-17,10.689
2009-04-20,10.0412
2009-04-21,10.1042
2009-04-22,10.3741
2009-04-23,10.3111
2009-04-24,10.4911
2009-04-27,10.4371
2009-04-28,10.2751
2009-04-29,10.3741
2009-04-30,10.914
2009-05-01,10.9589
2009-05-04,11.4538
2009-05-05,11.1299
2009-05-06,11.4088
2009-05-07,10.662
2009-05-08,10.68
2009-05-11,10.608
2009-05-12,10.4001
2009-05-13,9.92982
2009-05-14,9.97503
2009-05-15,9.66755
2009-05-18,10.0293
2009-05-19,10.0655
2009-05-20,9.90269
2009-05-21,9.64947
2009-05-22,9.66755
2009-05-26,9.87556
2009-05-27,10.0203
2009-05-28,10.2463
2009-05-29,10.1469
2009-06-01,10.8794
2009-06-02,10.4815
2009-06-03,10.2916
2009-06-04,10.391
2009-06-05,9.9479
2009-06-08,9.79416
2009-06-09,9.98408
2009-06-10,9.87556
2009-06-11,10.0655
2009-06-12,10.1378
2009-06-15,10.0564
2009-06-16,9.85747
2009-06-17,9.91173
2009-06-18,9.81225
2009-06-19,9.92077
2009-06-22,9.54094
2009-06-23,9.60425
2009-06-24,9.74895
2009-06-25,9.92077
2009-06-26,9.87556
2009-06-29,9.93886
2009-06-30,9.92982
2009-07-01,10.0564
2009-07-02,10.0745
2009-07-06,10.1921
2009-07-07,9.87556
2009-07-08,9.71277
2009-07-09,9.87556
2009-07-10,9.93886
2009-07-13,10.3277
2009-07-14,10.5176
2009-07-15,11.1507
2009-07-16,11.5034
2009-07-17,11.4763
2009-07-20,11.5396
2009-07-21,11.5938
2009-07-22,11.9827
2009-07-23,12.1907
2009-07-24,11.9465
2009-07-27,12.0098
2009-07-28,12.1093
2009-07-29,12.3354
2009-07-30,12.2811
2009-07-31,12.4982
2009-08-03,12.661
2009-08-04,12.5796
2009-08-05,12.4349
2009-08-06,12.1364
2009-08-07,12.2359
2009-08-10,12.2359
2009-08-11,11.9907
2009-08-12,12.3813
2009-08-13,12.681
2009-08-14,12.3177
2009-08-17,11.918
2009-08-18,12.1088
2009-08-19,12.0815
2009-08-20,12.1996
2009-08-21,12.463
2009-08-24,12.2268
2009-08-25,12.027
2009-08-26,12.0724
2009-08-27,12.0815
2009-08-28,12.0542
2009-08-31,11.9452
2009-09-01,11.7454
2009-09-02,11.7726
2009-09-03,11.9362
2009-09-04,12.2178
2009-09-08,12.4267
2009-09-09,12.6174
2009-09-10,12.3904
2009-09-11,12.2723
2009-09-14,12.0633
2009-09-15,12.1269
2009-09-16,12.1542
2009-09-17,11.8362
2009-09-18,11.8453
2009-09-21,11.5092
2009-09-22,12.0452
2009-09-23,12.0088
2009-09-24,11.8453
2009-09-25,11.8907
2009-09-28,12.245
2009-09-29,12.0724
2009-09-30,12.1451
2009-10-01,11.7363
2009-10-02,11.5092
2009-10-05,11.5728
2009-10-06,11.9452
2009-10-07,11.8181
2009-10-08,11.8907
2009-10-09,11.9997
2009-10-12,12.3904
2009-10-13,12.1996
2009-10-14,12.4539
2009-10-15,12.3449
2009-10-16,12.1451
2009-10-19,12.2904
2009-10-20,12.2178
2009-10-21,11.9089
2009-10-22,11.9997
2009-10-23,11.7726
2009-10-26,11.7545
2009-10-27,11.4638
2009-10-28,11.2549
2009-10-29,11.5819
2009-10-30,11.1004
2009-11-02,11.164
2009-11-03,10.8007
2009-11-04,10.837
2009-11-05,11.264
2009-11-06,11.264
2009-11-09,11.8208
2009-11-10,11.8573
2009-11-11,12.0764
2009-11-12,11.7021
2009-11-13,11.6017
2009-11-16,11.9029
2009-11-17,11.8116
2009-11-18,11.7386
2009-11-19,11.4009
2009-11-20,11.1909
2009-11-23,11.3005
2009-11-24,11.264
2009-11-25,11.3279
2009-11-27,11.1179
2009-11-30,11.2183
2009-12-01,11.7569
2009-12-02,11.8664
2009-12-03,11.9303
2009-12-04,12.1676
2009-12-07,12.1037
2009-12-08,12.1676
2009-12-09,12.3137
2009-12-10,12.1494
2009-12-11,12.2224
2009-12-14,12.3776
2009-12-15,12.3502
2009-12-16,12.405
2009-12-17,12.2041
2009-12-18,12.405
2009-12-21,12.6332
2009-12-22,12.7336
2009-12-23,12.7427
2009-12-24,12.834
2009-12-28,12.6514
2009-12-29,12.551
2009-12-30,12.834
2009-12-31,12.7244
2010-01-04,13.053
2010-01-05,12.9435
2010-01-06,12.8979
2010-01-07,12.7792
2010-01-08,13.2721
2010-01-11,13.5642
2010-01-12,12.98
2010-01-13,13.0165
2010-01-14,13.1078
2010-01-15,12.5328
2010-01-19,12.7518
2010-01-20,12.6058
2010-01-21,12.3958
2010-01-22,11.5378
2010-01-25,11.5287
2010-01-26,11.5561
2010-01-27,11.8938
2010-01-28,11.5378
2010-01-29,11.1453
2010-02-01,11.4283
2010-02-02,11.4283
2010-02-03,11.1909
2010-02-04,10.771
2010-02-05,11.1544
2010-02-08,11.0175
2010-02-09,11.0997
2010-02-10,11.1636
2010-02-11,11.3644
2010-02-12,11.3644
2010-02-16,11.8299
2010-02-17,11.8664
2010-02-18,11.5652
2010-02-19,11.4191
2010-02-22,11.4192
2010-02-23,11.034
2010-02-24,11.2633
2010-02-25,11.2082
2010-02-26,11.2266
2010-03-01,11.4559
2010-03-02,11.3917
2010-03-03,11.3641
2010-03-04,11.2449
2010-03-05,11.2816
2010-03-08,11.3458
2010-03-09,11.2724
2010-03-10,11.4926
2010-03-11,11.3733
2010-03-12,11.3458
2010-03-15,11.2082
2010-03-16,11.4192
2010-03-17,11.621
2010-03-18,11.5751
2010-03-19,11.4559
2010-03-22,11.7219
2010-03-23,12.1438
2010-03-24,11.9328
2010-03-25,12.0887
2010-03-26,12.1163
2010-03-29,12.1988
2010-03-30,12.3364
2010-03-31,12.3639
2010-04-01,12.2538
2010-04-05,12.4006
2010-04-06,12.3731
2010-04-07,12.4464
2010-04-08,12.2263
2010-04-09,12.3547
2010-04-12,12.5107
2010-04-13,12.6574
2010-04-14,13.2169
2010-04-15,13.1527
2010-04-16,13.1894
2010-04-19,13.1068
2010-04-20,13.2444
2010-04-21,13.2352
2010-04-22,13.1894
2010-04-23,13.2628
2010-04-26,13.1619
2010-04-27,12.7858
2010-04-28,12.905
2010-04-29,13.0701
2010-04-30,12.6391
2010-05-03,12.8225
2010-05-04,12.2905
2010-05-05,12.1254
2010-05-06,11.6852
2010-05-07,11.5109
2010-05-10,12.0887
2010-05-11,12.2814
2010-05-12,12.6391
2010-05-13,12.1438
2010-05-14,11.8778
2010-05-17,12.0979
2010-05-18,11.8686
2010-05-19,11.9328
2010-05-20,11.6668
2010-05-21,11.6485
2010-05-24,11.5193
2010-05-25,11.7037
2010-05-26,11.5654
2010-05-27,12.0542
2010-05-28,11.9251
2010-06-01,11.6115
2010-06-02,11.8513
2010-06-03,12.0265
2010-06-04,11.5654
2010-06-07,11.2334
2010-06-08,11.3717
2010-06-09,11.2426
2010-06-10,11.5746
2010-06-11,11.6945
2010-06-14,11.676
2010-06-15,12.2386
2010-06-16,12.3585
2010-06-17,12.3493
2010-06-18,12.3032
2010-06-21,12.2202
2010-06-22,12.045
2010-06-23,12.1003
2010-06-24,11.7498
2010-06-25,11.7867
2010-06-28,11.8328
2010-06-29,11.3625
2010-06-30,11.1135
2010-07-01,11.0489
2010-07-02,11.0581
2010-07-06,10.846
2010-07-07,11.2426
2010-07-08,11.178
2010-07-09,11.3348
2010-07-12,11.3532
2010-07-13,11.5469
2010-07-14,11.5654
2010-07-15,11.4824
2010-07-16,11.2518
2010-07-19,11.4178
2010-07-20,11.3717
2010-07-21,11.261
2010-07-22,11.4731
2010-07-23,11.5285
2010-07-26,11.5654
2010-07-27,11.6023
2010-07-28,11.3901
2010-07-29,10.9936
2010-07-30,10.8737
2010-08-02,11.0766
2010-08-03,10.9013
2010-08-04,10.9474
2010-08-05,10.8829
2010-08-06,10.929
2010-08-09,10.9382
2010-08-10,10.6339
2010-08-11,10.3387
2010-08-12,10.3019
2010-08-13,10.3111
2010-08-16,10.348
2010-08-17,10.5048
2010-08-18,10.514
2010-08-19,10.4863
2010-08-20,10.2373
2010-08-23,10.1909
2010-08-24,9.82897
2010-08-25,9.93106
2010-08-26,9.79184
2010-08-27,9.92178
2010-08-30,9.72687
2010-08-31,9.6155
2010-09-01,9.94035
2010-09-02,10.0146
2010-09-03,10.1909
2010-09-07,10.0053
2010-09-08,9.79184
2010-09-09,10.0053
2010-09-10,9.90322
2010-09-13,10.0239
2010-09-14,10.3209
2010-09-15,10.2466
2010-09-16,10.2745
2010-09-17,10.2373
2010-09-20,10.3673
2010-09-21,10.4323
2010-09-22,10.358
2010-09-23,10.4694
2010-09-24,10.8128
2010-09-27,10.6921
2010-09-28,10.9056
2010-09-29,10.8406
2010-09-30,10.8499
2010-10-01,10.8685
2010-10-04,10.6643
2010-10-05,11.0263
2010-10-06,10.887
2010-10-07,10.8778
2010-10-08,10.9799
2010-10-11,10.9706
2010-10-12,11.0912
2010-10-13,11.1005
2010-10-14,11.0541
2010-10-15,11.1562
2010-10-18,11.082
2010-10-19,10.9335
2010-10-20,11.0727
2010-10-21,11.0448
2010-10-22,11.249
2010-10-25,11.2861
2010-10-26,11.2212
2010-10-27,11.3604
2010-10-28,11.3604
2010-10-29,11.4532
2010-11-01,11.4718
2010-11-02,11.5831
2010-11-03,11.6296
2010-11-04,11.9544
2010-11-05,12.0287
2010-11-08,11.8616
2010-11-09,11.8802
2010-11-10,11.9358
2010-11-11,11.7131
2010-11-12,11.6852
2010-11-15,11.7131
2010-11-16,11.5924
2010-11-17,11.4903
2010-11-18,11.7688
2010-11-19,11.6296
2010-11-22,11.6949
2010-11-23,11.5829
2010-11-24,11.7509
2010-11-26,11.6949
2010-11-29,11.6949
2010-11-30,11.6109
2010-12-01,11.9002
2010-12-02,12.0496
2010-12-03,12.1896
2010-12-06,12.1429
2010-12-07,12.1242
2010-12-08,12.1616
2010-12-09,12.3856
2010-12-10,12.4696
2010-12-13,12.3296
2010-12-14,12.3949
2010-12-15,12.3389
2010-12-16,12.4882
2010-12-17,12.7029
2010-12-20,12.6842
2010-12-21,12.9736
2010-12-22,13.0762
2010-12-23,13.0669
2010-12-27,13.1509
2010-12-28,13.1696
2010-12-29,13.1789
2010-12-30,13.1976
2010-12-31,13.0949
2011-01-03,13.1229
2011-01-04,13.0296
2011-01-05,12.8522
2011-01-06,12.9736
2011-01-07,13.0296
2011-01-10,12.8522
2011-01-11,13.1602
2011-01-12,13.3096
2011-01-13,13.2816
2011-01-14,14.2896
2011-01-18,14.1869
2011-01-19,14.2149
2011-01-20,14.0469
2011-01-21,14.0003
2011-01-24,14.3456
2011-01-25,14.3363
2011-01-26,14.4203
2011-01-27,15.0363
2011-01-28,14.7096
2011-01-31,14.6349
2011-02-01,15.1109
2011-02-02,15.2509
2011-02-03,15.0549
2011-02-04,15.4003
2011-02-07,15.2976
2011-02-08,15.0736
2011-02-09,14.8123
2011-02-10,15.0176
2011-02-11,14.9243
2011-02-14,15.1109
2011-02-15,15.0456
2011-02-16,15.2416
2011-02-17,15.335
2011-02-18,15.3536
2011-02-22,14.5976
2011-02-23,14.6256
2011-02-24,14.7843
2011-02-25,15.0456
2011-02-28,15.4112
2011-03-01,15.1956
2011-03-02,15.3925
2011-03-03,15.7955
2011-03-04,15.6737
2011-03-07,14.9706
2011-03-08,14.8487
2011-03-09,14.3425
2011-03-10,14.0238
2011-03-11,14.0613
2011-03-14,14.0238
2011-03-15,13.9394
2011-03-16,13.5457
2011-03-17,13.8926
2011-03-18,13.9207
2011-03-21,14.2582
2011-03-22,14.1738
2011-03-23,14.2301
2011-03-24,14.4738
2011-03-25,14.4738
2011-03-28,14.5206
2011-03-29,14.7269
2011-03-30,14.7363
2011-03-31,14.6613
2011-04-01,14.5488
2011-04-04,14.4363
2011-04-05,14.5488
2011-04-06,14.7644
2011-04-07,14.5113
2011-04-08,14.3613
2011-04-11,14.3613
2011-04-12,14.0988
2011-04-13,13.9488
2011-04-14,13.8551
2011-04-15,13.7895
2011-04-18,13.5645
2011-04-19,13.6863
2011-04-20,14.3238
2011-04-21,14.2863
2011-04-25,14.3332
2011-04-26,14.6331
2011-04-27,14.9237
2011-04-28,14.7175
2011-04-29,14.6238
2011-05-02,14.2019
2011-05-03,14.2957
2011-05-04,14.1457
2011-05-05,14.0332
2011-05-06,14.2675
2011-05-09,14.1082
2011-05-10,14.1082
2011-05-11,13.9957
2011-05-12,14.1269
2011-05-13,13.8832
2011-05-16,13.6301
2011-05-17,13.4239
2011-05-18,13.5739
2011-05-19,13.4332
2011-05-20,13.2364
2011-05-23,12.9364
2011-05-24,12.852
2011-05-25,12.9927
2011-05-26,12.7864
2011-05-27,12.6827
2011-05-31,12.9844
2011-06-01,12.3432
2011-06-02,12.3904
2011-06-03,12.2301
2011-06-06,12.1641
2011-06-07,12.2867
2011-06-08,12.0226
2011-06-09,12.0603
2011-06-10,11.8529
2011-06-13,11.768
2011-06-14,11.9849
2011-06-15,11.8529
2011-06-16,11.7586
2011-06-17,11.702
2011-06-20,11.7115
2011-06-21,11.9472
2011-06-22,11.8623
2011-06-23,12.0415
2011-06-24,11.7209
2011-06-27,11.9378
2011-06-28,11.9755
2011-06-29,11.9566
2011-06-30,12.2678
2011-07-01,12.5224
2011-07-05,12.3338
2011-07-06,12.2867
2011-07-07,12.6544
2011-07-08,12.3621
2011-07-11,12.2301
2011-07-12,11.9189
2011-07-13,11.7209
2011-07-14,11.5794
2011-07-15,11.7397
2011-07-18,11.5983
2011-07-19,11.9378
2011-07-20,11.9566
2011-07-21,12.2112
2011-07-22,12.4092
2011-07-25,12.3621
2011-07-26,12.3527
2011-07-27,11.9378
2011-07-28,11.7869
2011-07-29,11.6454
2011-08-01,11.6266
2011-08-02,11.3909
2011-08-03,11.5323
2011-08-04,10.8439
2011-08-05,10.8157
2011-08-08,10.5045
2011-08-09,10.7496
2011-08-10,10.5893
2011-08-11,11.0702
2011-08-12,10.9382
2011-08-15,11.1834
2011-08-16,11.0042
2011-08-17,10.9477
2011-08-18,10.3536
2011-08-19,10.2027
2011-08-22,10.2216
2011-08-23,10.7685
2011-08-24,10.6931
2011-08-25,10.2027
2011-08-26,10.4385
2011-08-29,10.8185
2011-08-30,10.866
2011-08-31,10.733
2011-09-01,10.524
2011-09-02,10.3151
2011-09-06,10.1536
2011-09-07,10.5145
2011-09-08,10.3246
2011-09-09,10.2106
2011-09-12,10.3246
2011-09-13,10.4765
2011-09-14,10.695
2011-09-15,11.0654
2011-09-16,10.9799
2011-09-19,10.676
2011-09-20,10.581
2011-09-21,10.3341
2011-09-22,9.86864
2011-09-23,10.0586
2011-09-26,9.88764
2011-09-27,10.2581
2011-09-28,10.0776
2011-09-29,10.0776
2011-09-30,9.84015
2011-10-03,9.38424
2011-10-04,9.74517
2011-10-05,10.0491
2011-10-06,10.2011
2011-10-07,10.1726
2011-10-10,10.448
2011-10-11,10.4195
2011-10-12,10.7235
2011-10-13,10.9989
2011-10-14,11.0179
2011-10-17,10.771
2011-10-18,11.0654
2011-10-19,10.9039
2011-10-20,10.7805
2011-10-21,11.0939
2011-10-24,11.3314
2011-10-25,11.1699
2011-10-26,11.2459
2011-10-27,11.8918
2011-10-28,11.9867
2011-10-31,11.7208
2011-11-01,11.3029
2011-11-02,11.4359
2011-11-03,11.7493
2011-11-04,11.7873
2011-11-07,11.7778
2011-11-08,12.0057
2011-11-09,11.5308
2011-11-10,11.6258
2011-11-11,12.0817
2011-11-14,11.9203
2011-11-15,11.9962
2011-11-16,11.8348
2011-11-17,10.9419
2011-11-18,10.676
2011-11-21,10.4465
2011-11-22,10.1021
2011-11-23,9.79596
2011-11-25,9.70986
2011-11-28,9.94902
2011-11-29,9.81509
2011-11-30,10.3125
2011-12-01,10.2934
2011-12-02,10.3795
2011-12-05,10.5134
2011-12-06,10.6187
2011-12-07,10.7526
2011-12-08,10.4369
2011-12-09,10.7239
2011-12-12,10.0734
2011-12-13,10.0447
2011-12-14,9.89162
2011-12-15,9.75769
2011-12-16,9.89162
2011-12-19,9.70029
2011-12-20,9.96815
2011-12-21,9.76726
2011-12-22,10.0638
2011-12-23,10.3412
2011-12-27,10.3699
2011-12-28,10.1308
2011-12-29,10.2169
2011-12-30,10.2551
2012-01-03,10.2264
2012-01-04,10.2934
2012-01-05,10.3508
2012-01-06,10.523
2012-01-09,10.8578
2012-01-10,11.0779
2012-01-11,11.2118
2012-01-12,11.2979
2012-01-13,11.0013
2012-01-17,11.25
2012-01-18,11.5849
2012-01-19,11.7666
2012-01-20,11.9101
2012-01-23,11.6901
2012-01-24,11.7762
2012-01-25,11.8336
2012-01-26,11.8623
2012-01-27,11.7092
2012-01-30,11.537
2012-01-31,11.7475
2012-02-01,12.0154
2012-02-02,12.1015
2012-02-03,12.2354
2012-02-06,12.0536
2012-02-07,12.1684
2012-02-08,12.4363
2012-02-09,12.5606
2012-02-10,12.3789
2012-02-13,12.3693
2012-02-14,12.2928
2012-02-15,12.3406
2012-02-16,12.618
2012-02-17,12.4267
2012-02-21,12.2149
2012-02-22,12.4171
2012-02-23,12.2535
2012-02-24,12.1572
2012-02-27,12.0706
2012-02-28,12.0898
2012-02-29,11.7914
2012-03-01,11.7722
2012-03-02,11.7625
2012-03-05,11.5893
2012-03-06,11.5604
2012-03-07,11.647
2012-03-08,11.7529
2012-03-09,11.8973
2012-03-12,11.9069
2012-03-13,12.0417
2012-03-14,12.0802
2012-03-15,12.3208
2012-03-16,12.3401
2012-03-19,12.3401
2012-03-20,12.2246
2012-03-21,12.2535
2012-03-22,12.1572
2012-03-23,12.2053
2012-03-26,12.4556
2012-03-27,12.3593
2012-03-28,11.9936
2012-03-29,12.0128
2012-03-30,11.9839
2012-04-02,12.0513
2012-04-03,11.7818
2012-04-04,11.6374
2012-04-05,11.5893
2012-04-09,11.416
2012-04-10,11.3294
2012-04-11,11.4738
2012-04-12,11.6085
2012-04-13,11.3486
2012-04-16,11.416
2012-04-17,11.5893
2012-04-18,11.4353
2012-04-19,11.4353
2012-04-20,11.3486
2012-04-23,11.1465
2012-04-24,11.0502
2012-04-25,11.2043
2012-04-26,11.4738
2012-04-27,11.5797
2012-04-30,11.5315
2012-05-01,11.4449
2012-05-02,11.3679
2012-05-03,11.108
2012-05-04,10.8866
2012-05-07,10.7807
2012-05-08,10.7519
2012-05-09,10.6845
2012-05-10,10.6267
2012-05-11,10.569
2012-05-14,10.5593
2012-05-15,10.415
2012-05-16,10.2609
2012-05-17,10.0973
2012-05-18,9.9818
2012-05-21,10.2802
2012-05-22,10.2124
2012-05-23,10.358
2012-05-24,10.0765
2012-05-25,10.2221
2012-05-29,10.3969
2012-05-30,10.1639
2012-05-31,10.0377
2012-06-01,9.72703
2012-06-04,9.79498
2012-06-05,9.97942
2012-06-06,10.3289
2012-06-07,10.3095
2012-06-08,10.4357
2012-06-11,10.2804
2012-06-12,10.5133
2012-06-13,10.4357
2012-06-14,10.4454
2012-06-15,10.659
2012-06-18,10.6687
2012-06-19,10.8434
2012-06-20,11.2123
2012-06-21,10.8434
2012-06-22,10.9211
2012-06-25,10.6104
2012-06-26,10.6784
2012-06-27,10.8046
2012-06-28,10.7657
2012-06-29,11.0958
2012-07-02,10.9696
2012-07-03,11.1346
2012-07-05,10.9987
2012-07-06,10.7172
2012-07-09,10.6881
2012-07-10,10.4066
2012-07-11,10.2707
2012-07-12,10.0571
2012-07-13,10.193
2012-07-16,10.0571
2012-07-17,10.0765
2012-07-18,10.358
2012-07-19,10.3871
2012-07-20,10.1833
2012-07-23,10.193
2012-07-24,10.0765
2012-07-25,10.1542
2012-07-26,10.3386
2012-07-27,10.5716
2012-07-30,10.5133
2012-07-31,10.591
2012-08-01,10.591
2012-08-02,10.6104
2012-08-03,10.8822
2012-08-06,10.9696
2012-08-07,11.5229
2012-08-08,11.5521
2012-08-09,11.5326
2012-08-10,11.6103
2012-08-13,11.455
2012-08-14,11.3773
2012-08-15,11.4744
2012-08-16,11.62
2012-08-17,11.6491
2012-08-20,11.6006
2012-08-21,11.5124
2012-08-22,11.532
2012-08-23,11.532
2012-08-24,11.4929
2012-08-27,11.3657
2012-08-28,11.3755
2012-08-29,11.4537
2012-08-30,11.219
2012-08-31,11.4635
2012-09-04,11.4929
2012-09-05,11.4537
2012-09-06,11.6298
2012-09-07,11.5907
2012-09-10,11.4244
2012-09-11,11.4048
2012-09-12,11.3461
2012-09-13,11.5711
2012-09-14,11.7765
2012-09-17,11.6689
2012-09-18,11.444
2012-09-19,11.2483
2012-09-20,11.1701
2012-09-21,11.2092
2012-09-24,11.1114
2012-09-25,10.906
2012-09-26,10.8864
2012-09-27,11.0625
2012-09-28,10.9256
2012-10-01,10.8766
2012-10-02,10.9451
2012-10-03,10.9256
2012-10-04,10.8473
2012-10-05,10.8962
2012-10-08,10.7886
2012-10-09,10.6615
2012-10-10,10.6615
2012-10-11,10.7299
2012-10-12,10.6615
2012-10-15,10.7201
2012-10-16,10.9842
2012-10-17,10.9256
2012-10-18,10.9451
2012-10-19,10.6028
2012-10-22,10.6223
2012-10-23,10.593
2012-10-24,10.4658
2012-10-25,10.4463
2012-10-26,10.4071
2012-10-31,10.368
2012-11-01,10.7397
2012-11-02,10.5441
2012-11-05,10.8571
2012-11-06,11.2092
2012-11-07,10.7104
2012-11-08,10.2702
2012-11-09,10.4463
2012-11-12,10.4071
2012-11-13,10.2409
2012-11-14,10.1235
2012-11-15,10.0746
2012-11-16,9.94743
2012-11-19,10.2239
2012-11-20,10.2338
2012-11-21,10.3029
2012-11-23,10.293
2012-11-26,10.3226
2012-11-27,10.2437
2012-11-28,10.4706
2012-11-29,10.6088
2012-11-30,10.6187
2012-12-03,10.52
2012-12-04,10.7371
2012-12-05,10.6384
2012-12-06,10.7371
2012-12-07,10.8062
2012-12-10,10.9246
2012-12-11,10.9345
2012-12-12,10.9345
2012-12-13,10.9443
2012-12-14,10.9246
2012-12-17,10.9542
2012-12-18,11.0628
2012-12-19,11.1812
2012-12-20,11.2207
2012-12-21,11.349
2012-12-24,11.2207
2012-12-26,11.2503
2012-12-27,11.2009
2012-12-28,11.122
2012-12-31,11.2503
2013-01-02,11.6844
2013-01-03,11.635
2013-01-04,11.6548
2013-01-07,11.5068
2013-01-08,11.3588
2013-01-09,11.5166
2013-01-10,11.4969
2013-01-11,11.566
2013-01-14,11.5758
2013-01-15,11.6252
2013-01-16,11.793
2013-01-17,12.1285
2013-01-18,12.4838
2013-01-22,12.543
2013-01-23,12.5331
2013-01-24,12.4147
2013-01-25,12.6614
2013-01-28,12.7997
2013-01-29,12.6319
2013-01-30,12.6911
2013-01-31,12.7602
2013-02-01,12.997
2013-02-04,12.849
2013-02-05,13.224
2013-02-06,13.224
2013-02-07,13.1253
2013-02-08,13.4214
2013-02-11,13.5102
2013-02-12,13.4905
2013-02-13,13.5595
2013-02-14,13.7174
2013-02-15,13.6529
2013-02-19,13.7968
2013-02-20,13.4889
2013-02-21,13.1512
2013-02-22,13.4591
2013-02-25,13.1513
2013-02-26,13.5535
2013-02-27,13.6628
2013-02-28,13.6131
2013-03-01,13.5088
2013-03-04,13.4889
2013-03-05,13.6379
2013-03-06,13.5783
2013-03-07,13.4691
2013-03-08,13.4492
2013-03-11,13.4293
2013-03-12,13.33
2013-03-13,13.5386
2013-03-14,13.5783
2013-03-15,13.2108
2013-03-18,12.9525
2013-03-19,12.8731
2013-03-20,13.0717
2013-03-21,12.8731
2013-03-22,13.1611
2013-03-25,13.2505
2013-03-26,13.3201
2013-03-27,13.3002
2013-03-28,13.4293
2013-04-01,13.2505
2013-04-02,13.1611
2013-04-03,13.0618
2013-04-04,13.1214
2013-04-05,13.1115
2013-04-08,13.2903
2013-04-09,13.2207
2013-04-10,13.7273
2013-04-11,13.7074
2013-04-12,13.5386
2013-04-15,13.2605
2013-04-16,13.3896
2013-04-17,12.9625
2013-04-18,12.8234
2013-04-19,12.8433
2013-04-22,12.9923
2013-04-23,13.33
2013-04-24,13.5485
2013-04-25,14.0452
2013-04-26,14.0452
2013-04-29,14.3233
2013-04-30,14.4027
2013-05-01,14.3829
2013-05-02,14.6809
2013-05-03,14.7206
2013-05-06,14.7107
2013-05-07,14.6213
2013-05-08,14.7603
2013-05-09,14.81
2013-05-10,14.8696
2013-05-13,14.6113
2013-05-14,14.6908
2013-05-15,14.7107
2013-05-16,14.512
2013-05-17,14.8299
2013-05-20,14.8199
2013-05-21,14.69
2013-05-22,14.54
2013-05-23,14.61
2013-05-24,14.5
2013-05-28,14.89
2013-05-29,14.82
2013-05-30,15.26
2013-05-31,15.2
2013-06-03,15.42
2013-06-04,15.54
2013-06-05,15.15
2013-06-06,14.96
2013-06-07,15.51
2013-06-10,15.47
2013-06-11,15.2
2013-06-12,15.25
2013-06-13,15.6
2013-06-14,15.4
2013-06-17,15.76
2013-06-18,15.955
2013-06-19,15.7
2013-06-20,15.08
2013-06-21,15.09
2013-06-24,14.99
2013-06-25,15.28
2013-06-26,14.97
2013-06-27,14.92
2013-06-28,14.93
2013-07-01,14.81
2013-07-02,14.82
2013-07-03,15.04
2013-07-05,15.22
2013-07-08,15.13
2013-07-09,15.65
2013-07-10,16.3
2013-07-11,16.49
2013-07-12,16.64
2013-07-15,16.47
2013-07-16,16.56
2013-07-17,16.69
2013-07-18,16.58
2013-07-19,16.56
2013-07-22,16.33
2013-07-23,16.25
2013-07-24,16.11
2013-07-25,16.13
2013-07-26,16.12
2013-07-29,16.01
2013-07-30,16.29
2013-07-31,16.32
2013-08-01,16.48
2013-08-02,16.32
2013-08-05,16.11
2013-08-06,16.15
2013-08-07,15.9
2013-08-08,15.65
2013-08-09,15.67
