date,close_price
1998-01-02,12.9661
1998-01-05,12.9204
1998-01-06,12.7714
1998-01-07,12.8002
1998-01-08,12.8315
1998-01-09,12.6656
1998-01-12,12.7257
1998-01-13,12.4853
1998-01-14,12.019
1998-01-15,11.7931
1998-01-16,11.7642
1998-01-20,11.9902
1998-01-21,11.9301
1998-01-22,11.3435
1998-01-23,11.644
1998-01-26,11.7185
1998-01-27,11.7786
1998-01-28,12.0791
1998-01-29,11.8988
1998-01-30,12.019
1998-02-02,12.9805
1998-02-03,12.8603
1998-02-04,12.7113
1998-02-05,12.3195
1998-02-06,12.9517
1998-02-09,12.7113
1998-02-10,13.2522
1998-02-11,13.1921
1998-02-12,13.2209
1998-02-13,12.9204
1998-02-17,12.9805
1998-02-18,13.2209
1998-02-19,13.2209
1998-02-20,13.0262
1998-02-23,13.0719
1998-02-24,12.7714
1998-02-25,12.8315
1998-02-26,12.8748
1998-02-27,12.7858
1998-03-02,12.6055
1998-03-03,12.8603
1998-03-04,12.6801
1998-03-05,12.6344
1998-03-06,12.6945
1998-03-09,13.0863
1998-03-10,13.055
1998-03-11,13.2065
1998-03-12,14.0334
1998-03-13,14.0166
1998-03-16,14.3339
1998-03-17,14.4829
1998-03-18,14.6944
1998-03-19,14.6632
1998-03-20,14.6031
1998-03-23,14.6632
1998-03-24,14.7233
1998-03-25,14.7834
1998-03-26,14.7545
1998-03-27,14.5574
1998-03-30,14.4541
1998-03-31,14.6488
1998-04-01,14.4541
1998-04-02,14.2137
1998-04-03,14.0238
1998-04-06,13.8363
1998-04-07,13.9877
1998-04-08,13.8531
1998-04-09,13.8363
1998-04-13,13.8074
1998-04-14,13.9565
1998-04-15,13.9276
1998-04-16,13.4156
1998-04-17,13.8531
1998-04-20,13.8675
1998-04-21,13.8531
1998-04-22,13.7618
1998-04-23,13.882
1998-04-24,14.0021
1998-04-27,13.656
1998-04-28,13.6416
1998-04-29,13.9565
1998-04-30,14.317
1998-05-01,14.0622
1998-05-04,13.942
1998-05-05,14.394
1998-05-06,13.9733
1998-05-07,13.7762
1998-05-08,14.1969
1998-05-11,14.3627
1998-05-12,14.394
1998-05-13,14.5574
1998-05-14,14.6488
1998-05-15,14.8435
1998-05-18,14.9036
1998-05-19,14.918
1998-05-20,14.8747
1998-05-21,14.8435
1998-05-22,15.7521
1998-05-26,14.5743
1998-05-27,14.4685
1998-05-28,14.5574
1998-05-29,14.5743
1998-06-01,14.3771
1998-06-02,14.8435
1998-06-03,14.7834
1998-06-04,14.9036
1998-06-05,15.1752
1998-06-08,15.3242
1998-06-09,15.3988
1998-06-10,15.2954
1998-06-11,15.2185
1998-06-12,15.2641
1998-06-15,14.9036
1998-06-16,14.9348
1998-06-17,14.9637
1998-06-18,14.8891
1998-06-19,14.7978
1998-06-22,14.4372
1998-06-23,15.0839
1998-06-24,16.1055
1998-06-25,15.5045
1998-06-26,15.656
1998-06-29,15.7449
1998-06-30,15.6992
1998-07-01,15.7593
1998-07-02,16.0598
1998-07-06,16.2858
1998-07-07,16.4372
1998-07-08,16.5862
1998-07-09,16.1968
1998-07-10,16.3603
1998-07-13,16.466
1998-07-14,16.8122
1998-07-15,17.0285
1998-07-16,16.9781
1998-07-17,17.4276
1998-07-20,17.4732
1998-07-21,17.8338
1998-07-22,17.2016
1998-07-23,18.3747
1998-07-24,18.1487
1998-07-27,17.9227
1998-07-28,17.8026
1998-07-29,18.0141
1998-07-30,18.2545
1998-07-31,17.6679
1998-08-03,17.3987
1998-08-04,16.5406
1998-08-05,16.7208
1998-08-06,16.4204
1998-08-07,16.9925
1998-08-10,17.2785
1998-08-11,16.7665
1998-08-12,16.7208
1998-08-13,16.3459
1998-08-14,16.7064
1998-08-17,17.0213
1998-08-18,16.9324
1998-08-19,16.841
1998-08-20,16.6776
1998-08-21,16.1199
1998-08-24,16.6776
1998-08-25,16.9468
1998-08-26,16.8266
1998-08-27,16.2858
1998-08-28,15.6391
1998-08-31,14.6175
1998-09-01,14.7545
1998-09-02,15.204
1998-09-03,15.4156
1998-09-04,15.3242
1998-09-08,16.7665
1998-09-09,16.466
1998-09-10,17.0982
1998-09-11,17.3987
1998-09-14,17.353
1998-09-15,17.2016
1998-09-16,17.0381
1998-09-17,17.2184
1998-09-18,17.579
1998-09-21,18.0742
1998-09-22,17.9155
1998-09-23,18.7208
1998-09-24,18.1487
1998-09-25,18.329
1998-09-28,19.1415
1998-09-29,18.5694
1998-09-30,18.2689
1998-10-01,17.7881
1998-10-02,18.0285
1998-10-05,17.3987
1998-10-06,17.2929
1998-10-07,16.7064
1998-10-08,16.6319
1998-10-09,17.067
1998-10-12,17.3386
1998-10-13,17.1583
1998-10-14,17.7136
1998-10-15,18.4348
1998-10-16,18.0742
1998-10-19,18.6751
1998-10-20,17.8795
1998-10-21,17.5478
1998-10-22,17.8795
1998-10-23,18.3747
1998-10-26,18.7497
1998-10-27,18.6607
1998-10-28,18.5694
1998-10-29,19.0501
1998-10-30,18.8915
1998-11-02,19.1703
1998-11-03,19.3506
1998-11-04,19.5453
1998-11-05,19.6511
1998-11-06,19.8314
1998-11-09,20.0261
1998-11-10,19.6367
1998-11-11,19.1415
1998-11-12,19.2905
1998-11-13,19.3218
1998-11-16,18.9612
1998-11-17,18.6006
1998-11-18,19.0357
1998-11-19,18.5093
1998-11-20,18.5838
1998-11-23,18.9756
1998-11-24,18.2088
1998-11-25,18.3602
1998-11-27,18.2833
1998-11-30,18.1487
1998-12-01,18.3747
1998-12-02,19.0501
1998-12-03,18.24
1998-12-04,18.8698
1998-12-07,19.3049
1998-12-08,19.591
1998-12-09,19.9828
1998-12-10,19.9828
1998-12-11,19.9516
1998-12-14,19.5621
1998-12-15,20.1775
1998-12-16,20.6438
1998-12-17,20.6727
1998-12-18,21.0789
1998-12-21,24.1125
1998-12-22,24.7135
1998-12-23,24.5644
1998-12-24,24.2928
1998-12-28,25.0909
1998-12-29,25.1798
1998-12-30,24.8505
1998-12-31,25.1341
1999-01-04,25.7952
1999-01-05,25.6918
1999-01-06,25.526
1999-01-07,26.413
1999-01-08,26.6221
1999-01-11,26.0524
1999-01-12,25.7207
1999-01-13,26.1558
1999-01-14,25.2399
1999-01-15,26.1726
1999-01-19,26.7351
1999-01-20,27.3144
1999-01-21,26.4731
1999-01-22,27.5091
1999-01-25,27.4346
1999-01-26,27.1029
1999-01-27,27.8697
1999-01-28,28.711
1999-01-29,30.7687
1999-02-01,30.0788
1999-02-02,30.7687
1999-02-03,30.6797
1999-02-04,30.2735
1999-02-05,28.7567
1999-02-08,29.0716
1999-02-09,27.8096
1999-02-10,28.0355
1999-02-11,30.0018
1999-02-12,28.9658
1999-02-16,29.3865
1999-02-17,29.4177
1999-02-18,29.7014
1999-02-19,29.8071
1999-02-22,30.4225
1999-02-23,31.1292
1999-02-24,30.4538
1999-02-25,30.4682
1999-02-26,30.0187
1999-03-01,30.8889
1999-03-02,30.7398
1999-03-03,30.0475
1999-03-04,31.009
1999-03-05,31.759
1999-03-08,32.7542
1999-03-09,32.3311
1999-03-10,33.8023
1999-03-11,35.8455
1999-03-12,36.0859
1999-03-15,36.7782
1999-03-16,35.8791
1999-03-17,35.8166
1999-03-18,37.4416
1999-03-19,37.2589
1999-03-22,37.9801
1999-03-23,36.4176
1999-03-24,35.4272
1999-03-25,36.1772
1999-03-26,35.8455
1999-03-29,37.0185
1999-03-30,37.8599
1999-03-31,36.057
1999-04-01,37.0185
1999-04-05,38.0714
1999-04-06,38.4897
1999-04-07,37.0474
1999-04-08,38.0426
1999-04-09,37.4993
1999-04-12,37.5282
1999-04-13,36.4801
1999-04-14,34.6772
1999-04-15,33.2638
1999-04-16,32.0908
1999-04-19,29.3264
1999-04-20,33.1725
1999-04-21,30.7687
1999-04-22,30.2302
1999-04-23,31.3119
1999-04-26,32.7542
1999-04-27,33.5042
1999-04-28,31.7013
1999-04-29,31.0379
1999-04-30,29.5379
1999-05-03,29.235
1999-05-04,29.1485
1999-05-05,29.9898
1999-05-06,29.4466
1999-05-07,30.5908
1999-05-10,30.711
1999-05-11,30.7687
1999-05-12,30.11
1999-05-13,30.7687
1999-05-14,29.3552
1999-05-17,28.3649
1999-05-18,28.6966
1999-05-19,29.2062
1999-05-20,30.4994
1999-05-21,29.461
1999-05-24,28.937
1999-05-25,28.9658
1999-05-26,29.4754
1999-05-27,30.1677
1999-05-28,30.4081
1999-06-01,29.8071
1999-06-02,29.6293
1999-06-03,29.0283
1999-06-04,29.086
1999-06-07,29.1773
1999-06-08,28.5139
1999-06-09,27.7639
1999-06-10,25.7207
1999-06-11,25.1486
1999-06-14,25.8409
1999-06-15,26.5909
1999-06-16,26.7255
1999-06-17,26.6245
1999-06-18,25.4803
1999-06-21,25.4226
1999-06-22,25.5091
1999-06-23,25.4803
1999-06-24,26.7735
1999-06-25,26.8649
1999-06-28,27.9466
1999-06-29,28.7543
1999-06-30,29.2975
1999-07-01,29.235
1999-07-02,29.2975
1999-07-06,28.4274
1999-07-07,30.1677
1999-07-08,31.5811
1999-07-09,33.4128
1999-07-12,31.9129
1999-07-13,34.7349
1999-07-14,37.0185
1999-07-15,37.9224
1999-07-16,37.2878
1999-07-19,35.283
1999-07-20,35.1243
1999-07-21,35.9657
1999-07-22,34.7349
1999-07-23,36.1195
1999-07-26,35.1243
1999-07-27,35.8166
1999-07-28,36.1195
1999-07-29,35.4272
1999-07-30,36.9897
1999-08-02,37.8022
1999-08-03,36.8407
1999-08-04,36.9897
1999-08-05,38.0426
1999-08-06,36.7493
1999-08-09,36.8695
1999-08-10,36.057
1999-08-11,37.1099
1999-08-12,38.3118
1999-08-13,40.2637
1999-08-16,39.9945
1999-08-17,39.2108
1999-08-18,38.8214
1999-08-19,37.5907
1999-08-20,38.4897
1999-08-23,40.2348
1999-08-24,38.9127
1999-08-25,39.1531
1999-08-26,38.581
1999-08-27,38.6724
1999-08-30,38.9127
1999-08-31,39.9656
1999-09-01,40.5954
1999-09-02,39.6916
1999-09-03,41.5858
1999-09-07,41.0762
1999-09-08,40.6242
1999-09-09,41.2877
1999-09-10,42.0954
1999-09-13,41.8886
1999-09-14,41.3165
1999-09-15,39.4512
1999-09-16,39.4848
1999-09-17,39.9656
1999-09-20,41.2877
1999-09-21,39.7252
1999-09-22,40.2637
1999-09-23,38.4897
1999-09-24,37.4416
1999-09-27,39.1531
1999-09-28,40.1146
1999-09-29,39.932
1999-09-30,39.182
1999-10-01,41.6771
1999-10-04,41.3165
1999-10-05,40.8935
1999-10-06,42.3694
1999-10-07,42.3694
1999-10-08,42.5184
1999-10-11,43.2107
1999-10-12,42.2492
1999-10-13,41.105
1999-10-14,41.0762
1999-10-15,38.7926
1999-10-18,38.7637
1999-10-19,40.3262
1999-10-20,41.4079
1999-10-21,38.4608
1999-10-22,39.0041
1999-10-25,38.4608
1999-10-26,36.5378
1999-10-27,36.3888
1999-10-28,37.682
1999-10-29,38.3118
1999-11-01,38.6099
1999-11-02,38.9127
1999-11-03,37.7397
1999-11-04,40.2637
1999-11-05,40.9271
1999-11-08,41.0762
1999-11-09,41.3454
1999-11-10,42.1867
1999-11-11,43.5088
1999-11-12,44.2011
1999-11-15,43.1771
1999-11-16,43.7492
1999-11-17,43.8405
1999-11-18,43.8694
1999-11-19,45.552
1999-11-22,46.3357
1999-11-23,45.7972
1999-11-24,47.4126
1999-11-26,47.2395
1999-11-29,46.7588
1999-11-30,43.6915
1999-12-01,42.605
1999-12-02,43.028
1999-12-03,44.4703
1999-12-06,43.153
1999-12-07,43.3261
1999-12-08,43.5953
1999-12-09,42.2492
1999-12-10,43.028
1999-12-13,44.7684
1999-12-14,44.2299
1999-12-15,43.9319
1999-12-16,42.73
1999-12-17,43.8069
1999-12-20,47.0568
1999-12-21,48.201
1999-12-22,50.9414
1999-12-23,52.076
1999-12-27,51.201
1999-12-28,55.4701
1999-12-29,59.4316
1999-12-30,62.2585
1999-12-31,58.172
2000-01-03,60.6335
2000-01-04,55.7105
2000-01-05,57.7489
2000-01-06,58.7778
2000-01-07,65.5084
2000-01-10,69.4122
2000-01-11,63.7007
2000-01-12,61.2393
2000-01-13,64.3065
2000-01-14,65.6238
2000-01-18,66.4699
2000-01-19,69.2295
2000-01-20,68.9314
2000-01-21,71.816
2000-01-24,66.7103
2000-01-25,66.7103
2000-01-26,61.6719
2000-01-27,59.1912
2000-01-28,57.4509
2000-01-31,61.1143
2000-02-01,62.8642
2000-02-02,61.2969
2000-02-03,61.595
2000-02-04,62.1239
2000-02-07,66.5276
2000-02-08,67.7872
2000-02-09,64.3642
2000-02-10,62.4988
2000-02-11,60.2777
2000-02-14,62.2585
2000-02-15,62.5565
2000-02-16,67.1911
2000-02-17,69.9218
2000-02-18,68.6333
2000-02-22,64.9026
2000-02-23,68.691
2000-02-24,69.8352
2000-02-25,70.6718
2000-02-28,65.8642
2000-02-29,65.5084
2000-03-01,62.6238
2000-03-02,62.7392
2000-03-03,63.6431
2000-03-06,61.9892
2000-03-07,58.7105
2000-03-08,59.0181
2000-03-09,56.7297
2000-03-10,57.3932
2000-03-13,55.7682
2000-03-14,50.2395
2000-03-15,56.1913
2000-03-16,62.0758
2000-03-17,60.6335
2000-03-20,55.7682
2000-03-21,58.7105
2000-03-22,59.2585
2000-03-23,55.5278
2000-03-24,52.4606
2000-03-27,58.0566
2000-03-28,60.5758
2000-03-29,59.7393
2000-03-30,57.9509
2000-03-31,59.0758
2000-04-03,57.4509
2000-04-04,54.2778
2000-04-05,57.4509
2000-04-06,59.9797
2000-04-07,58.5951
2000-04-10,56.8547
2000-04-11,56.8547
2000-04-12,56.249
2000-04-13,55.7105
2000-04-14,50.8452
2000-04-17,51.201
2000-04-18,56.249
2000-04-19,54.2682
2000-04-20,51.9798
2000-04-24,49.2202
2000-04-25,52.0471
2000-04-26,54.9894
2000-04-27,52.0567
2000-04-28,53.9029
2000-05-01,53.6625
2000-05-02,54.2105
2000-05-03,51.8067
2000-05-04,54.3836
2000-05-05,57.1528
2000-05-08,59.5566
2000-05-09,57.6335
2000-05-10,57.5759
2000-05-11,59.2585
2000-05-12,59.7489
2000-05-15,61.595
2000-05-16,62.2585
2000-05-17,60.5758
2000-05-18,58.6528
2000-05-19,57.5759
2000-05-22,55.0471
2000-05-23,53.6048
2000-05-24,57.1912
2000-05-25,55.9509
2000-05-26,57.1239
2000-05-30,60.9796
2000-05-31,61.2393
2000-06-01,62.1239
2000-06-02,64.3642
2000-06-05,64.4219
2000-06-06,64.6623
2000-06-07,65.3834
2000-06-08,63.345
2000-06-09,59.9797
2000-06-12,58.7778
2000-06-13,62.9219
2000-06-14,61.8354
2000-06-15,63.7007
2000-06-16,65.3834
2000-06-19,67.5468
2000-06-20,67.3064
2000-06-21,67.6045
2000-06-22,64.1238
2000-06-23,64.1238
2000-06-26,67.1911
2000-06-27,65.3834
2000-06-28,66.4507
2000-06-29,65.8065
2000-06-30,67.5468
2000-07-03,65.143
2000-07-05,70.9698
2000-07-06,70.4891
2000-07-07,71.1525
2000-07-10,70.2487
2000-07-11,70.3737
2000-07-12,70.4314
2000-07-13,66.8834
2000-07-14,68.1526
2000-07-17,69.6526
2000-07-18,72.1141
2000-07-19,70.5564
2000-07-20,71.1525
2000-07-21,75.1236
2000-07-24,72.0564
2000-07-25,70.8545
2000-07-26,66.8738
2000-07-27,65.8642
2000-07-28,63.8354
2000-07-31,62.3835
2000-08-01,66.3257
2000-08-02,67.6718
2000-08-03,67.4891
2000-08-04,66.4699
2000-08-07,69.3545
2000-08-08,66.8834
2000-08-09,66.4026
2000-08-10,65.4411
2000-08-11,66.9026
2000-08-14,66.768
2000-08-15,65.0853
2000-08-16,65.143
2000-08-17,65.3834
2000-08-18,63.4604
2000-08-21,64.72
2000-08-22,66.3449
2000-08-23,67.8449
2000-08-24,69.8352
2000-08-25,71.691
2000-08-28,71.0371
2000-08-29,69.3545
2000-08-30,70.316
2000-08-31,72.8929
2000-09-01,73.3159
2000-09-05,70.0756
2000-09-06,65.6238
2000-09-07,68.9699
2000-09-08,71.9987
2000-09-11,69.7103
2000-09-12,69.8352
2000-09-13,69.1526
2000-09-14,64.9603
2000-09-15,65.143
2000-09-18,62.7969
2000-09-19,63.22
2000-09-20,66.2872
2000-09-21,65.8065
2000-09-22,69.2872
2000-09-25,67.0468
2000-09-26,68.8064
2000-09-27,68.7487
2000-09-28,67.4891
2000-09-29,67.1911
2000-10-02,63.22
2000-10-03,64.1238
2000-10-04,61.9604
2000-10-05,63.9988
2000-10-06,60.7008
2000-10-09,60.7008
2000-10-10,58.3547
2000-10-11,62.8642
2000-10-12,59.4989
2000-10-13,62.3162
2000-10-16,61.2777
2000-10-17,61.5373
2000-10-18,64.845
2000-10-19,65.3834
2000-10-20,65.8642
2000-10-23,68.393
2000-10-24,68.8064
2000-10-25,65.9219
2000-10-26,65.9219
2000-10-27,57.0278
2000-10-30,52.0471
2000-10-31,55.6528
2000-11-01,57.9316
2000-11-02,59.1335
2000-11-03,57.4509
2000-11-06,57.6335
2000-11-07,59.4316
2000-11-08,59.1912
2000-11-09,60.5181
2000-11-10,62.2585
2000-11-13,60.4604
2000-11-14,61.72
2000-11-15,64.7873
2000-11-16,63.2777
2000-11-17,62.5565
2000-11-20,61.1143
2000-11-21,62.0181
2000-11-22,62.7969
2000-11-24,63.9411
2000-11-27,64.6623
2000-11-28,63.8065
2000-11-29,65.5661
2000-11-30,61.2393
2000-12-01,62.0181
2000-12-04,62.5565
2000-12-05,65.8642
2000-12-06,63.4604
2000-12-07,62.8642
2000-12-08,65.7488
2000-12-11,66.5853
2000-12-12,65.5084
2000-12-13,64.6046
2000-12-14,61.9027
2000-12-15,57.6335
2000-12-18,61.3546
2000-12-19,63.1046
2000-12-20,61.4796
2000-12-21,60.9412
2000-12-22,63.8834
2000-12-26,65.268
2000-12-27,63.1623
2000-12-28,63.8257
2000-12-29,61.5373
2001-01-02,60.3354
2001-01-03,64.5469
2001-01-04,60.2777
2001-01-05,56.1336
2001-01-08,56.374
2001-01-09,59.4989
2001-01-10,58.4701
2001-01-11,58.1528
2001-01-12,57.5759
2001-01-16,59.297
2001-01-17,57.9893
2001-01-18,59.672
2001-01-19,57.5759
2001-01-22,65.0853
2001-01-23,65.0853
2001-01-24,66.3449
2001-01-25,69.2487
2001-01-26,68.9891
2001-01-29,68.268
2001-01-30,68.268
2001-01-31,67.6718
2001-02-01,66.5853
2001-02-02,67.2488
2001-02-05,65.7488
2001-02-06,67.1911
2001-02-07,67.9122
2001-02-08,67.1911
2001-02-09,69.6622
2001-02-12,71.1525
2001-02-13,69.5276
2001-02-14,69.2295
2001-02-15,69.2872
2001-02-16,68.566
2001-02-20,65.7488
2001-02-21,67.9507
2001-02-22,67.4314
2001-02-23,67.7295
2001-02-26,70.6141
2001-02-27,71.1525
2001-02-28,69.3545
2001-03-01,68.316
2001-03-02,69.5949
2001-03-05,70.0756
2001-03-06,70.8545
2001-03-07,68.393
2001-03-08,65.8065
2001-03-09,64.0757
2001-03-12,59.0181
2001-03-13,62.6238
2001-03-14,62.4412
2001-03-15,62.4988
2001-03-16,59.9124
2001-03-19,61.4796
2001-03-20,58.9508
2001-03-21,53.4221
2001-03-22,52.8836
2001-03-23,54.0278
2001-03-26,56.4893
2001-03-27,58.3547
2001-03-28,57.3932
2001-03-29,57.2682
2001-03-30,57.8739
2001-04-02,54.6913
2001-04-03,52.5856
2001-04-04,52.7683
2001-04-05,54.6144
2001-04-06,52.4029
2001-04-09,51.7875
2001-04-10,49.5472
2001-04-11,49.8068
2001-04-12,52.0471
2001-04-16,52.4221
2001-04-17,54.8067
2001-04-18,59.172
2001-04-19,58.5278
2001-04-20,57.1624
2001-04-23,57.5951
2001-04-24,55.2778
2001-04-25,55.999
2001-04-26,53.7298
2001-04-27,57.547
2001-04-30,58.7393
2001-05-01,58.8931
2001-05-02,59.8354
2001-05-03,57.172
2001-05-04,59.9412
2001-05-07,59.7008
2001-05-08,59.8066
2001-05-09,58.6912
2001-05-10,57.8643
2001-05-11,58.4028
2001-05-14,58.5951
2001-05-15,58.2297
2001-05-16,62.3738
2001-05-17,64.2584
2001-05-18,62.9508
2001-05-21,64.1238
2001-05-22,63.6527
2001-05-23,61.7777
2001-05-24,64.393
2001-05-25,63.345
2001-05-29,64.6046
2001-05-30,63.4123
2001-05-31,63.8161
2001-06-01,65.8449
2001-06-04,67.1622
2001-06-05,67.3449
2001-06-06,65.6238
2001-06-07,66.1142
2001-06-08,64.8834
2001-06-11,64.1911
2001-06-12,64.3546
2001-06-13,65.1334
2001-06-14,64.3738
2001-06-15,64.518
2001-06-18,64.4411
2001-06-19,64.393
2001-06-20,64.8546
2001-06-21,64.7007
2001-06-22,62.7873
2001-06-25,61.8162
2001-06-26,60.8162
2001-06-27,60.6623
2001-06-28,60.2489
2001-06-29,59.5181
2001-07-02,59.422
2001-07-03,58.4028
2001-07-05,55.9797
2001-07-06,55.0567
2001-07-09,56.4509
2001-07-10,55.4221
2001-07-11,54.9028
2001-07-12,52.874
2001-07-13,53.4894
2001-07-16,51.9606
2001-07-17,52.9413
2001-07-18,57.7393
2001-07-19,57.1912
2001-07-20,58.2682
2001-07-23,56.4509
2001-07-24,55.5471
2001-07-25,56.9028
2001-07-26,55.5759
2001-07-27,58.422
2001-07-30,58.2778
2001-07-31,60.422
2001-08-01,59.7393
2001-08-02,59.8547
2001-08-03,59.3258
2001-08-06,60.0277
2001-08-07,60.2681
2001-08-08,58.5951
2001-08-09,58.6047
2001-08-10,58.9124
2001-08-13,60.5566
2001-08-14,59.7393
2001-08-15,57.9893
2001-08-16,58.6143
2001-08-17,57.6528
2001-08-20,57.5759
2001-08-21,56.2393
2001-08-22,58.4412
2001-08-23,60.5758
2001-08-24,62.3065
2001-08-27,62.0565
2001-08-28,60.5854
2001-08-29,60.3835
2001-08-30,62.0758
2001-08-31,61.9027
2001-09-04,61.5565
2001-09-05,62.7392
2001-09-06,63.22
2001-09-07,61.4796
2001-09-10,61.6046
2001-09-17,58.4605
2001-09-18,57.1912
2001-09-19,55.8355
2001-09-20,56.9413
2001-09-21,53.9221
2001-09-24,53.0663
2001-09-25,54.3163
2001-09-26,55.124
2001-09-27,57.1432
2001-09-28,56.5278
2001-10-01,56.2682
2001-10-02,56.7009
2001-10-03,57.4509
2001-10-04,55.5182
2001-10-05,56.3451
2001-10-08,55.374
2001-10-09,55.2394
2001-10-10,56.7297
2001-10-11,59.172
2001-10-12,59.1239
2001-10-15,59.7008
2001-10-16,59.2393
2001-10-17,56.7393
2001-10-18,56.5374
2001-10-19,57.672
2001-10-22,57.5182
2001-10-23,56.7297
2001-10-24,54.7874
2001-10-25,56.0086
2001-10-26,57.0566
2001-10-29,55.0951
2001-10-30,54.3548
2001-10-31,54.6624
2001-11-01,55.6817
2001-11-02,55.3932
2001-11-05,56.1913
2001-11-06,57.2201
2001-11-07,57.422
2001-11-08,55.4221
2001-11-09,54.7105
2001-11-12,54.2201
2001-11-13,55.7394
2001-11-14,54.9798
2001-11-15,54.8067
2001-11-16,54.3836
2001-11-19,55.9797
2001-11-20,55.874
2001-11-21,59.6047
2001-11-23,62.0181
2001-11-26,64.6719
2001-11-27,63.3546
2001-11-28,62.1335
2001-11-29,63.2008
2001-11-30,63.7488
2001-12-03,63.1911
2001-12-04,63.8834
2001-12-05,64.7969
2001-12-06,65.9219
2001-12-07,64.3642
2001-12-10,62.4508
2001-12-11,61.7681
2001-12-12,62.0662
2001-12-13,57.9797
2001-12-14,53.8452
2001-12-17,57.1432
2001-12-18,56.0855
2001-12-19,56.172
2001-12-20,55.6336
2001-12-21,55.7682
2001-12-24,55.0471
2001-12-26,56.0855
2001-12-27,56.1913
2001-12-28,56.7201
2001-12-31,54.3067
2002-01-02,53.9894
2002-01-03,52.2298
2002-01-04,53.3548
2002-01-07,53.7105
2002-01-08,54.3259
2002-01-09,53.6721
2002-01-10,54.3163
2002-01-11,54.9798
2002-01-14,53.5855
2002-01-15,53.8932
2002-01-16,53.7105
2002-01-17,53.4413
2002-01-18,52.3836
2002-01-22,53.8163
2002-01-23,56.2009
2002-01-24,54.9509
2002-01-25,54.9028
2002-01-28,54.1048
2002-01-29,52.499
2002-01-30,52.8163
2002-01-31,53.4413
2002-02-01,55.6913
2002-02-04,53.9702
2002-02-05,54.4028
2002-02-06,54.4413
2002-02-07,53.8452
2002-02-08,55.5278
2002-02-11,55.4509
2002-02-12,56.7297
2002-02-13,56.7586
2002-02-14,55.8355
2002-02-15,55.8547
2002-02-19,54.6817
2002-02-20,56.5855
2002-02-21,55.6047
2002-02-22,55.2874
2002-02-25,56.6143
2002-02-26,56.2105
2002-02-27,55.5278
2002-02-28,55.8932
2002-03-01,56.2778
2002-03-04,57.4989
2002-03-05,56.7297
2002-03-06,58.2682
2002-03-07,57.4701
2002-03-08,57.2009
2002-03-11,57.1336
2002-03-12,57.2009
2002-03-13,57.3451
2002-03-14,57.9509
2002-03-15,59.047
2002-03-18,60.0181
2002-03-19,59.8162
2002-03-20,58.8354
2002-03-21,59.7489
2002-03-22,59.5085
2002-03-25,58.1047
2002-03-26,58.172
2002-03-27,58.5566
2002-03-28,57.4989
2002-04-01,59.0278
2002-04-02,57.5566
2002-04-03,57.5759
2002-04-04,56.7682
2002-04-05,55.9797
2002-04-08,56.7201
2002-04-09,54.2971
2002-04-10,56.3355
2002-04-11,54.9605
2002-04-12,55.0182
2002-04-15,54.7394
2002-04-16,55.4509
2002-04-17,54.1721
2002-04-18,55.3932
2002-04-19,54.7201
2002-04-22,53.8067
2002-04-23,52.5952
2002-04-24,53.9125
2002-04-25,53.124
2002-04-26,51.874
2002-04-29,49.8068
2002-04-30,50.7298
2002-05-01,49.6049
2002-05-02,48.5376
2002-05-03,47.0472
2002-05-06,45.0184
2002-05-07,44.7107
2002-05-08,47.1626
2002-05-09,45.9318
2002-05-10,43.8453
2002-05-13,46.028
2002-05-14,49.6722
2002-05-15,49.3645
2002-05-16,48.5472
2002-05-17,48.6914
2002-05-20,47.8549
2002-05-21,46.7876
2002-05-22,47.451
2002-05-23,50.7394
2002-05-24,48.7779
2002-05-28,49.6241
2002-05-29,48.7683
2002-05-30,48.278
2002-05-31,45.9415
2002-06-03,43.4703
2002-06-04,42.605
2002-06-05,43.6434
2002-06-06,41.1627
2002-06-07,39.5954
2002-06-10,40.2589
2002-06-11,37.2108
2002-06-12,36.6436
2002-06-13,36.2301
2002-06-14,38.7397
2002-06-17,40.9704
2002-06-18,41.6723
2002-06-19,41.2877
2002-06-20,39.6531
2002-06-21,38.9897
2002-06-24,40.0185
2002-06-25,38.9031
2002-06-26,39.1724
2002-06-27,39.8839
2002-06-28,40.2685
2002-07-01,37.0185
2002-07-02,35.3551
2002-07-03,34.4224
2002-07-05,36.6051
2002-07-08,34.8455
2002-07-09,33.4417
2002-07-10,31.3744
2002-07-11,33.1628
2002-07-12,32.8455
2002-07-15,29.4802
2002-07-16,31.5379
2002-07-17,35.5378
2002-07-18,32.7109
2002-07-19,33.8551
2002-07-22,33.9513
2002-07-23,34.2494
2002-07-24,35.6724
2002-07-25,40.4512
2002-07-26,41.5858
2002-07-29,42.1435
2002-07-30,43.8934
2002-07-31,43.8453
2002-08-01,41.6915
2002-08-02,41.8165
2002-08-05,40.4992
2002-08-06,42.4608
2002-08-07,43.8742
2002-08-08,45.9607
2002-08-09,45.8453
2002-08-12,46.0761
2002-08-13,43.9126
2002-08-14,45.7203
2002-08-15,45.6049
2002-08-16,45.6434
2002-08-19,44.7107
2002-08-20,45.0376
2002-08-21,45.7395
2002-08-22,46.5953
2002-08-23,45.5569
2002-08-26,44.8742
2002-08-27,43.6338
2002-08-28,43.605
2002-08-29,43.7684
2002-08-30,43.3454
2002-09-03,41.2973
2002-09-04,42.5184
2002-09-05,41.7588
2002-09-06,42.8934
2002-09-09,43.8838
2002-09-10,44.3165
2002-09-11,44.0857
2002-09-12,43.4703
2002-09-13,43.73
2002-09-16,43.7011
2002-09-17,43.4319
2002-09-18,43.6723
2002-09-19,40.4223
2002-09-20,39.932
2002-09-23,38.5666
2002-09-24,40.4127
2002-09-25,42.3165
2002-09-26,41.9896
2002-09-27,40.3454
2002-09-30,40.0089
2002-10-01,42.7684
2002-10-02,43.1242
2002-10-03,43.7588
2002-10-04,42.1242
2002-10-07,42.9511
2002-10-08,43.9126
2002-10-09,43.9319
2002-10-10,46.2876
2002-10-11,46.153
2002-10-14,47.2587
2002-10-15,48.3933
2002-10-16,48.5376
2002-10-17,48.0664
2002-10-18,48.4799
2002-10-21,48.3837
2002-10-22,47.8837
2002-10-23,48.153
2002-10-24,46.8549
2002-10-25,47.826
2002-10-28,47.1722
2002-10-29,46.9703
2002-10-30,46.1722
2002-10-31,44.653
2002-11-01,44.8838
2002-11-04,46.3645
2002-11-05,47.9895
2002-11-06,44.403
2002-11-07,43.6627
2002-11-08,42.7781
2002-11-11,42.6723
2002-11-12,43.7492
2002-11-13,43.0954
2002-11-14,45.3645
2002-11-15,45.8549
2002-11-18,44.6915
2002-11-19,44.0376
2002-11-20,44.9126
2002-11-21,45.903
2002-11-22,45.528
2002-11-25,45.1722
2002-11-26,45.2492
2002-11-27,46.4799
2002-11-29,45.0953
2002-12-02,46.5857
2002-12-03,45.3549
2002-12-04,45.028
2002-12-05,46.1338
2002-12-06,47.576
2002-12-09,46.0376
2002-12-10,45.2203
2002-12-11,45.4703
2002-12-12,48.5087
2002-12-13,48.3837
2002-12-16,48.4799
2002-12-17,49.6241
2002-12-18,49.8452
2002-12-19,48.826
2002-12-20,49.5087
2002-12-23,49.5087
2002-12-24,49.4125
2002-12-26,48.6241
2002-12-27,47.5857
2002-12-30,47.2972
2002-12-31,46.4511
2003-01-02,47.2876
2003-01-03,47.1434
2003-01-06,48.2203
2003-01-07,48.2299
2003-01-08,47.0376
2003-01-09,47.6241
2003-01-10,48.4606
2003-01-13,49.451
2003-01-14,49.1337
2003-01-15,48.9029
2003-01-16,49.2299
2003-01-17,49.3452
2003-01-21,48.9414
2003-01-22,50.4221
2003-01-23,51.4414
2003-01-24,50.2298
2003-01-27,48.7683
2003-01-28,49.7106
2003-01-29,50.2779
2003-01-30,49.0376
2003-01-31,49.0279
2003-02-03,50.076
2003-02-04,49.8356
2003-02-05,49.4125
2003-02-06,49.0952
2003-02-07,50.0183
2003-02-10,50.9221
2003-02-11,51.3452
2003-02-12,50.3068
2003-02-13,49.7875
2003-02-14,50.4606
2003-02-18,51.4798
2003-02-19,51.874
2003-02-20,51.874
2003-02-21,52.3644
2003-02-24,51.2298
2003-02-25,51.6529
2003-02-26,51.1721
2003-02-27,51.9413
2003-02-28,52.499
2003-03-03,51.8548
2003-03-04,52.0952
2003-03-05,53.2875
2003-03-06,53.3452
2003-03-07,53.7009
2003-03-10,52.9509
2003-03-11,52.8644
2003-03-12,53.0086
2003-03-13,54.6048
2003-03-14,55.4413
2003-03-17,56.1624
2003-03-18,56.5374
2003-03-19,55.8643
2003-03-20,55.7297
2003-03-21,56.3259
2003-03-24,55.1913
2003-03-25,56.1143
2003-03-26,55.8163
2003-03-27,56.1817
2003-03-28,56.3932
2003-03-31,55.4028
2003-04-01,56.4316
2003-04-02,57.4316
2003-04-03,56.9893
2003-04-04,57.1239
2003-04-07,56.172
2003-04-08,56.3259
2003-04-09,55.4605
2003-04-10,55.7682
2003-04-11,55.6432
2003-04-14,56.8932
2003-04-15,57.7489
2003-04-16,57.2393
2003-04-17,57.7489
2003-04-21,57.7682
2003-04-22,58.5566
2003-04-23,61.2681
2003-04-24,61.4219
2003-04-25,60.7008
2003-04-28,60.672
2003-04-29,59.7297
2003-04-30,59.2585
2003-05-01,60.0758
2003-05-02,60.8162
2003-05-05,60.4316
2003-05-06,58.547
2003-05-07,57.2586
2003-05-08,58.172
2003-05-09,58.8258
2003-05-12,59.5854
2003-05-13,59.3354
2003-05-14,59.4412
2003-05-15,60.2681
2003-05-16,59.9027
2003-05-19,57.8259
2003-05-20,58.6528
2003-05-21,58.5662
2003-05-22,59.4124
2003-05-23,59.4027
2003-05-27,61.1335
2003-05-28,61.3354
2003-05-29,60.7489
2003-05-30,61.9604
2003-06-02,61.0662
2003-06-03,61.5373
2003-06-04,61.9219
2003-06-05,62.8931
2003-06-06,61.1239
2003-06-09,60.3547
2003-06-10,61.3162
2003-06-11,62.7969
2003-06-12,62.6431
2003-06-13,62.5181
2003-06-16,64.72
2003-06-17,64.2777
2003-06-18,63.0565
2003-06-19,61.47
2003-06-20,62.3354
2003-06-23,61.4989
2003-06-24,62.7873
2003-06-25,62.095
2003-06-26,63.7392
2003-06-27,62.97
2003-06-30,63.3642
2003-07-01,63.4988
2003-07-02,64.4411
2003-07-03,63.4604
2003-07-07,66.2007
2003-07-08,67.1718
2003-07-09,67.2295
2003-07-10,66.8834
2003-07-11,67.3064
2003-07-14,67.8161
2003-07-15,68.643
2003-07-16,68.6333
2003-07-17,68.1526
2003-07-18,68.1718
2003-07-21,66.4507
2003-07-22,66.1815
2003-07-23,66.9988
2003-07-24,65.9603
2003-07-25,65.9796
2003-07-28,67.0084
2003-07-29,66.4988
2003-07-30,66.6622
2003-07-31,66.8738
2003-08-01,65.9122
2003-08-04,65.7776
2003-08-05,63.7584
2003-08-06,63.7007
2003-08-07,64.2296
2003-08-08,64.518
2003-08-11,64.9699
2003-08-12,66.4315
2003-08-13,65.5276
2003-08-14,65.8257
2003-08-15,66.0757
2003-08-18,66.8353
2003-08-19,65.8642
2003-08-20,65.8545
2003-08-21,66.0469
2003-08-22,63.9796
2003-08-25,63.6238
2003-08-26,63.2488
2003-08-27,63.1334
2003-08-28,63.5757
2003-08-29,63.3546
2003-09-02,65.0276
2003-09-03,63.8354
2003-09-04,64.4796
2003-09-05,64.7103
2003-09-08,65.6238
2003-09-09,65.1334
2003-09-10,64.4219
2003-09-11,65.6238
2003-09-12,65.8257
2003-09-15,66.0661
2003-09-16,67.0084
2003-09-17,66.7295
2003-09-18,67.1526
2003-09-19,66.1719
2003-09-22,65.893
2003-09-23,65.9315
2003-09-24,63.3065
2003-09-25,62.8258
2003-09-26,62.8161
2003-09-29,62.7681
2003-09-30,62.0469
2003-10-01,63.3546
2003-10-02,63.5757
2003-10-03,62.6046
2003-10-06,62.5181
2003-10-07,63.6623
2003-10-08,62.72
2003-10-09,63.7969
2003-10-10,63.6719
2003-10-13,64.518
2003-10-14,64.1911
2003-10-15,62.9315
2003-10-16,62.5565
2003-10-17,60.6623
2003-10-20,59.3643
2003-10-21,61.7585
2003-10-22,57.922
2003-10-23,57.4989
2003-10-24,59.0854
2003-10-27,58.3739
2003-10-28,58.5662
2003-10-29,57.9124
2003-10-30,58.547
2003-10-31,59.3931
2003-11-03,58.9893
2003-11-04,58.797
2003-11-05,58.8547
2003-11-06,58.7297
2003-11-07,57.5855
2003-11-10,56.8163
2003-11-11,56.5566
2003-11-12,57.7682
2003-11-13,57.7585
2003-11-14,56.0374
2003-11-17,57.6239
2003-11-18,56.5086
2003-11-19,57.7489
2003-11-20,57.5855
2003-11-21,57.6432
2003-11-24,57.3836
2003-11-25,56.6816
2003-11-26,55.9413
2003-11-28,55.2009
2003-12-01,56.7874
2003-12-02,56.6336
2003-12-03,56.6336
2003-12-04,57.3162
2003-12-05,56.0374
2003-12-08,55.749
2003-12-09,55.7105
2003-12-10,55.9893
2003-12-11,56.3355
2003-12-12,57.1047
2003-12-15,57.4989
2003-12-16,58.0278
2003-12-17,59.6047
2003-12-18,59.1816
2003-12-19,59.4412
2003-12-22,58.797
2003-12-23,59.422
2003-12-24,59.1239
2003-12-26,58.8451
2003-12-29,59.4604
2003-12-30,59.6047
2003-12-31,59.2008
2004-01-02,59.797
2004-01-05,59.9316
2004-01-06,60.1816
2004-01-07,60.9412
2004-01-08,60.6527
2004-01-09,60.5758
2004-01-12,60.595
2004-01-13,61.1623
2004-01-14,61.5565
2004-01-15,60.7873
2004-01-16,61.0373
2004-01-20,60.7393
2004-01-21,60.6335
2004-01-22,59.2393
2004-01-23,61.4316
2004-01-26,62.8161
2004-01-27,62.2008
2004-01-28,61.9508
2004-01-29,62.5085
2004-01-30,62.2008
2004-02-02,63.6334
2004-02-03,63.6623
2004-02-04,62.9027
2004-02-05,62.1335
2004-02-06,62.3065
2004-02-09,61.8258
2004-02-10,62.3546
2004-02-11,63.1911
2004-02-12,62.9219
2004-02-13,62.4892
2004-02-17,62.0662
2004-02-18,61.7392
2004-02-19,60.9123
2004-02-20,61.2969
2004-02-23,60.7393
2004-02-24,61.0662
2004-02-25,61.3258
2004-02-26,61.8642
2004-02-27,61.2969
2004-03-01,61.6142
2004-03-02,61.2008
2004-03-03,60.5758
2004-03-04,60.4989
2004-03-05,60.9989
2004-03-08,60.1239
2004-03-09,60.4027
2004-03-10,58.7489
2004-03-11,57.922
2004-03-12,58.5374
2004-03-15,57.2105
2004-03-16,56.8259
2004-03-17,59.0181
2004-03-18,58.9508
2004-03-19,58.922
2004-03-22,57.9028
2004-03-23,55.7009
2004-03-24,55.8643
2004-03-25,56.7201
2004-03-26,55.9605
2004-03-29,57.2201
2004-03-30,56.7874
2004-03-31,56.047
2004-04-01,56.1817
2004-04-02,57.1047
2004-04-05,57.3066
2004-04-06,56.6143
2004-04-07,55.9124
2004-04-08,56.0567
2004-04-12,56.6336
2004-04-13,56.374
2004-04-14,56.9316
2004-04-15,58.0662
2004-04-16,57.9316
2004-04-19,58.0182
2004-04-20,56.4797
2004-04-21,55.2297
2004-04-22,55.2778
2004-04-23,55.9701
2004-04-26,56.7874
2004-04-27,57.5951
2004-04-28,56.4028
2004-04-29,55.9605
2004-04-30,54.3355
2004-05-03,55.5855
2004-05-04,55.4701
2004-05-05,56.1528
2004-05-06,55.6432
2004-05-07,54.9221
2004-05-10,54.8067
2004-05-11,54.8355
2004-05-12,55.0567
2004-05-13,55.1432
2004-05-14,54.5278
2004-05-17,54.2971
2004-05-18,53.9029
2004-05-19,52.6144
2004-05-20,51.4125
2004-05-21,51.6817
2004-05-24,51.4029
2004-05-25,52.1817
2004-05-26,52.5663
2004-05-27,52.7971
2004-05-28,52.7106
2004-06-01,52.2106
2004-06-02,53.1721
2004-06-03,53.0279
2004-06-04,53.2202
2004-06-07,53.6048
2004-06-08,53.4894
2004-06-09,52.9125
2004-06-10,53.249
2004-06-14,53.2586
2004-06-15,52.8259
2004-06-16,52.4029
2004-06-17,51.7587
2004-06-18,51.5567
2004-06-21,50.8644
2004-06-22,51.0856
2004-06-23,52.0856
2004-06-24,52.4317
2004-06-25,52.0567
2004-06-28,51.5952
2004-06-29,52.0087
2004-06-30,52.6433
2004-07-01,52.624
2004-07-02,53.0952
2004-07-06,51.9894
2004-07-07,51.7587
2004-07-08,51.3164
2004-07-09,51.6048
2004-07-12,51.8933
2004-07-13,52.499
2004-07-14,53.249
2004-07-15,54.0182
2004-07-16,53.5279
2004-07-19,53.4798
2004-07-20,54.6048
2004-07-21,53.8548
2004-07-22,53.8548
2004-07-23,53.3548
2004-07-26,53.2586
2004-07-27,53.7682
2004-07-28,54.8836
2004-07-29,54.8548
2004-07-30,54.7778
2004-08-02,54.1913
2004-08-03,54.3067
2004-08-04,54.2971
2004-08-05,53.0567
2004-08-06,51.8356
2004-08-09,51.2491
2004-08-10,51.7779
2004-08-11,53.1817
2004-08-12,52.7106
2004-08-13,52.2779
2004-08-16,53.8259
2004-08-17,53.749
2004-08-18,55.0663
2004-08-19,55.1048
2004-08-20,55.9605
2004-08-23,55.7874
2004-08-24,56.5855
2004-08-25,57.0182
2004-08-26,56.9413
2004-08-27,57.4124
2004-08-30,56.7682
2004-08-31,57.0278
2004-09-01,57.0374
2004-09-02,57.6047
2004-09-03,57.3259
2004-09-07,57.5566
2004-09-08,57.6912
2004-09-09,56.7778
2004-09-10,55.1721
2004-09-13,55.5278
2004-09-14,56.0086
2004-09-15,55.9317
2004-09-16,55.9124
2004-09-17,55.999
2004-09-20,55.6913
2004-09-21,56.2201
2004-09-22,55.5086
2004-09-23,55.4221
2004-09-24,55.0182
2004-09-27,54.4125
2004-09-28,55.2586
2004-09-29,55.672
2004-09-30,54.6624
2004-10-01,55.5567
2004-10-04,55.4221
2004-10-05,55.2394
2004-10-06,55.2874
2004-10-07,54.4221
2004-10-08,53.5952
2004-10-11,53.7971
2004-10-12,53.5471
2004-10-13,52.576
2004-10-14,51.9413
2004-10-15,53.2106
2004-10-18,54.4028
2004-10-19,54.499
2004-10-20,54.3451
2004-10-21,52.1144
2004-10-22,50.6818
2004-10-25,51.0952
2004-10-26,52.7875
2004-10-27,53.9605
2004-10-28,54.0086
2004-10-29,54.4605
2004-11-01,53.6048
2004-11-02,52.9798
2004-11-03,56.2201
2004-11-04,56.7682
2004-11-05,58.4028
2004-11-08,57.6335
2004-11-09,57.5086
2004-11-10,57.1336
2004-11-11,57.6047
2004-11-12,57.5759
2004-11-15,57.5278
2004-11-16,57.4701
2004-11-17,57.547
2004-11-18,57.7201
2004-11-19,57.4412
2004-11-22,57.6912
2004-11-23,57.6528
2004-11-24,58.1816
2004-11-26,57.6047
2004-11-29,58.3066
2004-11-30,58.0182
2004-12-01,58.4989
2004-12-02,60.4797
2004-12-03,59.5951
2004-12-06,60.422
2004-12-07,59.6143
2004-12-08,60.6335
2004-12-09,61.5662
2004-12-10,61.5662
2004-12-13,61.4796
2004-12-14,61.9123
2004-12-15,60.9604
2004-12-16,60.7777
2004-12-17,60.7777
2004-12-20,60.5277
2004-12-21,61.3066
2004-12-22,61.1719
2004-12-23,61.6623
2004-12-27,61.1623
2004-12-28,62.0758
2004-12-29,62.1431
2004-12-30,61.8354
2004-12-31,61.7969
2005-01-03,61.7489
2005-01-04,61.0469
2005-01-05,59.9989
2005-01-06,60.4027
2005-01-07,60.47
2005-01-10,61.1046
2005-01-11,61.4027
2005-01-12,62.4027
2005-01-13,61.3643
2005-01-14,61.2393
2005-01-18,61.4412
2005-01-19,61.0373
2005-01-20,60.345
2005-01-21,60.2008
2005-01-24,59.7489
2005-01-25,59.8739
2005-01-26,61.22
2005-01-27,59.2393
2005-01-28,58.8643
2005-01-31,59.7489
2005-02-01,60.0566
2005-02-02,60.3547
2005-02-03,59.7585
2005-02-04,60.3739
2005-02-07,60.672
2005-02-08,60.6623
2005-02-09,59.7104
2005-02-10,60.3835
2005-02-11,61.0854
2005-02-14,60.8162
2005-02-15,61.345
2005-02-16,60.9027
2005-02-17,60.1527
2005-02-18,59.5854
2005-02-22,59.2008
2005-02-23,58.9701
2005-02-24,59.5854
2005-02-25,60.2873
2005-02-28,59.3931
2005-03-01,59.8258
2005-03-02,59.0566
2005-03-03,59.6143
2005-03-04,59.7681
2005-03-07,59.5085
2005-03-08,59.4124
2005-03-09,58.797
2005-03-10,58.5182
2005-03-11,57.5951
2005-03-14,58.0951
2005-03-15,56.4124
2005-03-16,55.8067
2005-03-17,56.6816
2005-03-18,56.4124
2005-03-21,55.8451
2005-03-22,56.0086
2005-03-23,56.5374
2005-03-24,56.7778
2005-03-28,56.2393
2005-03-29,55.999
2005-03-30,56.624
2005-03-31,55.9317
2005-04-01,55.2201
2005-04-04,55.2682
2005-04-05,55.6144
2005-04-06,55.8067
2005-04-07,56.4316
2005-04-08,56.4124
2005-04-11,57.047
2005-04-12,58.297
2005-04-13,58.1335
2005-04-14,57.4316
2005-04-15,57.6143
2005-04-18,56.8066
2005-04-19,56.374
2005-04-20,55.8067
2005-04-21,57.0566
2005-04-22,56.672
2005-04-25,55.7586
2005-04-26,55.0567
2005-04-27,55.672
2005-04-28,55.1721
2005-04-29,56.0278
2005-05-02,56.4797
2005-05-03,55.9605
2005-05-04,56.624
2005-05-05,56.547
2005-05-06,56.2586
2005-05-09,57.8835
2005-05-10,58.6912
2005-05-11,58.922
2005-05-12,59.3739
2005-05-13,59.7393
2005-05-16,60.547
2005-05-17,60.345
2005-05-18,59.8835
2005-05-19,59.3547
2005-05-20,59.5374
2005-05-23,59.6527
2005-05-24,60.0758
2005-05-25,59.9604
2005-05-26,60.2489
2005-05-27,60.4316
2005-05-31,60.345
2005-06-01,60.7296
2005-06-02,60.4027
2005-06-03,59.1143
2005-06-06,58.7489
2005-06-07,57.9605
2005-06-08,57.8162
2005-06-09,58.0759
2005-06-10,57.9028
2005-06-13,57.7874
2005-06-14,57.9316
2005-06-15,57.4893
2005-06-16,57.9605
2005-06-17,58.422
2005-06-20,58.8162
2005-06-21,58.797
2005-06-22,58.5662
2005-06-23,58.4412
2005-06-24,59.1335
2005-06-27,58.7105
2005-06-28,59.4124
2005-06-29,58.7105
2005-06-30,58.1528
2005-07-01,58.5758
2005-07-05,60.0566
2005-07-06,61.2008
2005-07-07,64.2873
2005-07-08,66.4411
2005-07-11,66.2392
2005-07-12,66.7103
2005-07-13,66.3161
2005-07-14,67.7295
2005-07-15,67.9699
2005-07-18,67.8449
2005-07-19,67.8257
2005-07-20,78.1236
2005-07-21,78.7101
2005-07-22,78.1139
2005-07-25,78.1043
2005-07-26,79.0755
2005-07-27,78.0755
2005-07-28,77.8928
2005-07-29,76.8447
2005-08-01,78.5178
2005-08-02,79.4504
2005-08-03,80.6331
2005-08-04,79.4985
2005-08-05,78.8447
2005-08-08,77.2678
2005-08-09,76.9986
2005-08-10,76.4217
2005-08-11,77.7966
2005-08-12,77.2582
2005-08-15,77.4697
2005-08-16,76.4794
2005-08-17,75.989
2005-08-18,76.489
2005-08-19,76.5178
2005-08-22,76.2101
2005-08-23,75.7967
2005-08-24,75.7967
2005-08-25,76.5274
2005-08-26,75.6813
2005-08-29,77.0178
2005-08-30,77.037
2005-08-31,76.9024
2005-09-01,77.0274
2005-09-02,77.1717
2005-09-06,79.2293
2005-09-07,78.4505
2005-09-08,79.1332
2005-09-09,81.2485
2005-09-12,80.2101
2005-09-13,79.6428
2005-09-14,79.2101
2005-09-15,80.4697
2005-09-16,81.537
2005-09-19,82.9312
2005-09-20,81.6235
2005-09-21,80.9697
2005-09-22,80.7774
2005-09-23,80.0658
2005-09-26,78.8832
2005-09-27,76.8928
2005-09-28,76.8159
2005-09-29,76.7101
2005-09-30,76.5082
2005-10-03,76.6332
2005-10-04,77.1332
2005-10-05,75.1332
2005-10-06,72.9025
2005-10-07,74.0948
2005-10-10,73.8929
2005-10-11,73.5563
2005-10-12,71.9506
2005-10-13,72.9794
2005-10-14,72.8448
2005-10-17,72.4025
2005-10-18,73.0371
2005-10-19,74.8448
2005-10-20,71.2295
2005-10-21,70.5852
2005-10-24,72.3448
2005-10-25,73.0563
2005-10-26,72.3833
2005-10-27,70.816
2005-10-28,72.7487
2005-10-31,72.7487
2005-11-01,72.3833
2005-11-02,71.0756
2005-11-03,74.3544
2005-11-04,75.989
2005-11-07,76.7774
2005-11-08,76.6717
2005-11-09,77.1236
2005-11-10,78.5466
2005-11-11,77.8832
2005-11-14,78.4793
2005-11-15,78.4409
2005-11-16,78.2293
2005-11-17,79.7966
2005-11-18,79.9889
2005-11-21,81.037
2005-11-22,80.5658
2005-11-23,79.6235
2005-11-25,79.6043
2005-11-28,78.2389
2005-11-29,77.9601
2005-11-30,77.8063
2005-12-01,78.3832
2005-12-02,77.614
2005-12-05,77.5755
2005-12-06,76.6717
2005-12-07,75.9121
2005-12-08,76.5755
2005-12-09,75.2294
2005-12-12,74.4121
2005-12-13,74.4025
2005-12-14,73.8736
2005-12-15,77.4216
2005-12-16,76.0947
2005-12-19,74.6525
2005-12-20,75.3928
2005-12-21,76.0178
2005-12-22,77.8063
2005-12-23,77.7966
2005-12-27,77.114
2005-12-28,76.7101
2005-12-29,75.9217
2005-12-30,75.8255
2006-01-03,77.2774
2006-01-04,76.9313
2006-01-05,75.7678
2006-01-06,74.989
2006-01-09,75.9986
2006-01-10,75.0082
2006-01-11,74.8159
2006-01-12,74.2294
2006-01-13,74.5755
2006-01-17,75.2102
2006-01-18,75.8544
2006-01-19,75.3928
2006-01-20,72.9025
2006-01-23,72.1044
2006-01-24,72.0756
2006-01-25,72.5179
2006-01-26,69.1718
2006-01-27,68.5276
2006-01-30,69.6045
2006-01-31,70.0468
2006-02-01,73.0756
2006-02-02,71.9506
2006-02-03,71.7487
2006-02-06,70.6429
2006-02-07,70.0852
2006-02-08,69.268
2006-02-09,68.3449
2006-02-10,68.7776
2006-02-13,68.3641
2006-02-14,69.2487
2006-02-15,70.1429
2006-02-16,71.0756
2006-02-17,71.9698
2006-02-21,71.7967
2006-02-22,72.2775
2006-02-23,71.7487
2006-02-24,71.8448
2006-02-27,72.4121
2006-02-28,72.5852
2006-03-01,73.0467
2006-03-02,73.5083
2006-03-03,72.5083
2006-03-06,70.7679
2006-03-07,70.9891
2006-03-08,71.3544
2006-03-09,70.816
2006-03-10,70.5756
2006-03-13,70.7102
2006-03-14,72.1044
2006-03-15,71.9987
2006-03-16,71.1525
2006-03-17,70.1814
2006-03-20,70.0852
2006-03-21,69.2487
2006-03-22,69.7103
2006-03-23,70.0083
2006-03-24,70.2487
2006-03-27,70.3256
2006-03-28,69.816
2006-03-29,69.2295
2006-03-30,69.8064
2006-03-31,70.2102
2006-04-03,69.1141
2006-04-04,69.2295
2006-04-05,70.0468
2006-04-06,69.066
2006-04-07,68.2584
2006-04-10,67.9026
2006-04-11,67.518
2006-04-12,67.2872
2006-04-13,67.3257
2006-04-17,66.9603
2006-04-18,68.1718
2006-04-19,65.6719
2006-04-20,65.7872
2006-04-21,64.0854
2006-04-24,64.143
2006-04-25,63.9219
2006-04-26,63.9219
2006-04-27,64.7776
2006-04-28,64.9411
2006-05-01,64.2969
2006-05-02,63.4892
2006-05-03,63.9123
2006-05-04,64.3834
2006-05-05,64.5757
2006-05-08,65.4219
2006-05-09,65.2969
2006-05-10,64.9892
2006-05-11,64.6815
2006-05-12,65.4988
2006-05-15,67.2007
2006-05-16,66.6526
2006-05-17,65.7969
2006-05-18,64.5084
2006-05-19,65.0949
2006-05-22,65.2007
2006-05-23,64.345
2006-05-24,65.3642
2006-05-25,65.5084
2006-05-26,66.1045
2006-05-30,64.345
2006-05-31,64.9988
2006-06-01,66.0565
2006-06-02,66.4988
2006-06-05,64.9026
2006-06-06,64.9988
2006-06-07,64.6238
2006-06-08,65.8545
2006-06-09,65.1142
2006-06-12,64.518
2006-06-13,64.2488
2006-06-14,64.8065
2006-06-15,64.6815
2006-06-16,64.3161
2006-06-19,63.3161
2006-06-20,62.4123
2006-06-21,63.0758
2006-06-22,62.4508
2006-06-23,62.4988
2006-06-26,62.345
2006-06-27,61.5469
2006-06-28,61.4892
2006-06-29,62.5277
2006-06-30,62.9796
2006-07-03,63.2584
2006-07-05,63.0277
2006-07-06,63.3738
2006-07-07,63.8354
2006-07-10,64.0565
2006-07-11,64.1238
2006-07-12,63.7007
2006-07-13,63.1238
2006-07-14,61.8835
2006-07-17,62.0469
2006-07-18,61.6816
2006-07-19,61.9604
2006-07-20,61.4892
2006-07-21,63.7296
2006-07-24,64.3257
2006-07-25,65.2007
2006-07-26,66.9218
2006-07-27,66.5853
2006-07-28,66.3545
2006-07-31,67.0468
2006-08-01,67.3064
2006-08-02,68.0468
2006-08-03,68.2584
2006-08-04,66.1238
2006-08-07,65.2873
2006-08-08,64.4988
2006-08-09,64.6719
2006-08-10,64.2104
2006-08-11,63.7007
2006-08-14,63.1238
2006-08-15,63.0854
2006-08-16,64.0565
2006-08-17,64.3642
2006-08-18,64.6623
2006-08-21,64.4988
2006-08-22,64.2007
2006-08-23,64.6334
2006-08-24,64.4411
2006-08-25,64.9507
2006-08-28,65.5949
2006-08-29,66.018
2006-08-30,65.6719
2006-08-31,65.393
2006-09-01,65.8257
2006-09-05,66.5853
2006-09-06,65.9219
2006-09-07,65.6526
2006-09-08,65.3353
2006-09-11,65.6526
2006-09-12,66.4603
2006-09-13,66.518
2006-09-14,66.893
2006-09-15,67.0372
2006-09-18,67.1045
2006-09-19,66.8353
2006-09-20,68.268
2006-09-21,69.2295
2006-09-22,68.1045
2006-09-25,68.4987
2006-09-26,67.9795
2006-09-27,69.3929
2006-09-28,68.7391
2006-09-29,68.816
2006-10-02,67.643
2006-10-03,68.5757
2006-10-04,70.0949
2006-10-05,71.7679
2006-10-06,71.1814
2006-10-09,71.1237
2006-10-10,70.9025
2006-10-11,70.6622
2006-10-12,71.2583
2006-10-13,70.4795
2006-10-16,69.6526
2006-10-17,69.0853
2006-10-18,69.6045
2006-10-19,70.1718
2006-10-20,71.1237
2006-10-23,70.441
2006-10-24,72.0179
2006-10-25,72.4506
2006-10-26,73.0467
2006-10-27,72.614
2006-10-30,73.5467
2006-10-31,72.9698
2006-11-01,72.3064
2006-11-02,72.364
2006-11-03,72.0275
2006-11-06,72.1814
2006-11-07,72.2967
2006-11-08,71.941
2006-11-09,70.7391
2006-11-10,70.5948
2006-11-13,69.9506
2006-11-14,70.3449
2006-11-15,70.8448
2006-11-16,69.6333
2006-11-17,69.7295
2006-11-20,70.0756
2006-11-21,70.1045
2006-11-22,69.9122
2006-11-24,69.8545
2006-11-27,69.1141
2006-11-28,69.018
2006-11-29,69.6814
2006-11-30,68.3257
2006-12-01,66.7103
2006-12-04,66.4603
2006-12-05,66.4026
2006-12-06,67.1526
2006-12-07,66.5276
2006-12-08,67.1911
2006-12-11,67.1911
2006-12-12,66.9411
2006-12-13,67.1526
2006-12-14,67.3064
2006-12-15,67.5468
2006-12-18,67.3641
2006-12-19,67.6141
2006-12-20,66.7968
2006-12-21,66.5468
2006-12-22,66.1045
2006-12-26,66.0853
2006-12-27,65.8065
2006-12-28,65.8642
2006-12-29,65.6719
2007-01-03,65.7199
2007-01-04,68.4987
2007-01-05,68.7968
2007-01-08,68.2007
2007-01-09,68.5564
2007-01-10,68.2487
2007-01-11,69.1045
2007-01-12,70.3737
2007-01-16,70.6141
2007-01-17,71.066
2007-01-18,70.9025
2007-01-19,71.3737
2007-01-22,72.8833
2007-01-23,71.7583
2007-01-24,72.2198
2007-01-25,72.0179
2007-01-26,68.7583
2007-01-29,67.2872
2007-01-30,67.6526
2007-01-31,67.6526
2007-02-01,66.8065
2007-02-02,66.7776
2007-02-05,67.1911
2007-02-06,66.9795
2007-02-07,67.3257
2007-02-08,67.0661
2007-02-09,66.4026
2007-02-12,65.8738
2007-02-13,66.2295
2007-02-14,66.1142
2007-02-15,65.643
2007-02-16,64.1334
2007-02-20,63.7584
2007-02-21,64.8257
2007-02-22,64.1527
2007-02-23,63.7007
2007-02-26,63.6046
2007-02-27,61.7777
2007-02-28,61.7489
2007-03-01,59.3066
2007-03-02,59.4124
2007-03-05,59.7393
2007-03-06,59.9124
2007-03-07,59.5662
2007-03-08,59.7585
2007-03-09,58.4124
2007-03-12,58.3258
2007-03-13,58.0759
2007-03-14,58.2585
2007-03-15,57.7297
2007-03-16,56.9989
2007-03-19,56.8451
2007-03-20,57.1143
2007-03-21,58.2489
2007-03-22,58.172
2007-03-23,55.749
2007-03-26,54.9317
2007-03-27,54.0759
2007-03-28,53.5663
2007-03-29,53.6529
2007-03-30,53.7105
2007-04-02,53.4125
2007-04-03,53.5759
2007-04-04,54.4605
2007-04-05,56.047
2007-04-09,54.9894
2007-04-10,54.9028
2007-04-11,54.2682
2007-04-12,55.4605
2007-04-13,56.749
2007-04-16,57.3066
2007-04-17,57.7489
2007-04-18,57.6912
2007-04-19,59.9124
2007-04-20,59.5374
2007-04-23,59.7874
2007-04-24,58.8547
2007-04-25,59.2681
2007-04-26,60.095
2007-04-27,60.8162
2007-04-30,61.7008
2007-05-01,62.5373
2007-05-02,62.5758
2007-05-03,61.4123
2007-05-04,61.2873
2007-05-07,61.2681
2007-05-08,60.2873
2007-05-09,60.6431
2007-05-10,55.0759
2007-05-11,54.0855
2007-05-14,53.9125
2007-05-15,51.826
2007-05-16,52.2298
2007-05-17,51.5567
2007-05-18,51.9317
2007-05-21,52.0567
2007-05-22,51.874
2007-05-23,52.5471
2007-05-24,52.4606
2007-05-25,52.4125
2007-05-29,52.499
2007-05-30,53.1048
2007-05-31,54.2682
2007-06-01,54.7682
2007-06-04,54.749
2007-06-05,55.3932
2007-06-06,55.0663
2007-06-07,54.5759
2007-06-08,55.1721
2007-06-11,55.2297
2007-06-12,55.2201
2007-06-13,55.8355
2007-06-14,55.9124
2007-06-15,56.7297
2007-06-18,56.3259
2007-06-19,55.9605
2007-06-20,55.3836
2007-06-21,55.0855
2007-06-22,54.1048
2007-06-25,53.7009
2007-06-26,53.0086
2007-06-27,53.374
2007-06-28,53.1817
2007-06-29,53.0952
2007-07-02,53.0663
2007-07-03,53.0759
2007-07-05,52.7586
2007-07-06,52.6721
2007-07-09,52.4317
2007-07-10,52.2586
2007-07-11,53.0663
2007-07-12,53.7586
2007-07-13,54.7682
2007-07-16,53.8355
2007-07-17,53.4125
2007-07-18,53.7298
2007-07-19,53.4413
2007-07-20,54.0375
2007-07-23,54.6144
2007-07-24,54.3355
2007-07-25,54.9124
2007-07-26,54.5471
2007-07-27,53.5471
2007-07-30,53.999
2007-07-31,51.701
2007-08-01,49.9702
2007-08-02,49.4222
2007-08-03,49.0376
2007-08-06,49.701
2007-08-07,49.4222
2007-08-08,49.7875
2007-08-09,49.2299
2007-08-10,48.1241
2007-08-13,49.3068
2007-08-14,49.4702
2007-08-15,48.6337
2007-08-16,47.5857
2007-08-17,48.1145
2007-08-20,47.8164
2007-08-21,47.3164
2007-08-22,47.3645
2007-08-23,48.2972
2007-08-24,48.2972
2007-08-27,47.9799
2007-08-28,47.1434
2007-08-29,48.2203
2007-08-30,48.1722
2007-08-31,48.1049
2007-09-04,49.3837
2007-09-05,50.3933
2007-09-06,50.0375
2007-09-07,48.951
2007-09-10,49.0087
2007-09-11,52.1048
2007-09-12,53.5855
2007-09-13,54.7778
2007-09-14,54.1432
2007-09-17,53.3163
2007-09-18,53.8259
2007-09-19,53.6625
2007-09-20,53.124
2007-09-21,53.3452
2007-09-24,53.1144
2007-09-25,52.7875
2007-09-26,53.9702
2007-09-27,54.3836
2007-09-28,54.4125
2007-10-01,54.2009
2007-10-02,53.8644
2007-10-03,53.4029
2007-10-04,53.2298
2007-10-05,54.5663
2007-10-08,54.374
2007-10-09,54.8548
2007-10-10,55.3836
2007-10-11,55.6528
2007-10-12,55.9701
2007-10-15,55.4797
2007-10-16,54.624
2007-10-17,54.2394
2007-10-18,54.4701
2007-10-19,53.8355
2007-10-22,53.999
2007-10-23,55.5374
2007-10-24,55.9317
2007-10-25,55.0951
2007-10-26,54.9124
2007-10-29,54.5471
2007-10-30,54.7971
2007-10-31,55.8643
2007-11-01,55.0374
2007-11-02,54.4221
2007-11-05,55.3355
2007-11-06,55.624
2007-11-07,54.1625
2007-11-08,53.9029
2007-11-09,52.1721
2007-11-12,52.4894
2007-11-13,52.2779
2007-11-14,51.5567
2007-11-15,52.7779
2007-11-16,53.4605
2007-11-19,52.6048
2007-11-20,51.9894
2007-11-21,50.8068
2007-11-23,51.5471
2007-11-26,50.6529
2007-11-27,51.8933
2007-11-28,52.5856
2007-11-29,53.3163
2007-11-30,53.2298
2007-12-03,52.9221
2007-12-04,52.7875
2007-12-05,52.6817
2007-12-06,52.9702
2007-12-07,50.0375
2007-12-10,48.9702
2007-12-11,47.9222
2007-12-12,48.153
2007-12-13,47.576
2007-12-14,46.5664
2007-12-17,45.0472
2007-12-18,45.4895
2007-12-19,45.3453
2007-12-20,45.6915
2007-12-21,46.1241
2007-12-24,46.3068
2007-12-26,45.6242
2007-12-27,45.528
2007-12-28,45.2203
2007-12-31,44.6626
2008-01-02,44.8165
2008-01-03,43.9703
2008-01-04,43.0473
2008-01-07,43.7203
2008-01-08,44.4799
2008-01-09,45.8068
2008-01-10,45.778
2008-01-11,45.7588
2008-01-14,46.0472
2008-01-15,45.6338
2008-01-16,45.653
2008-01-17,45.5665
2008-01-18,45.6626
2008-01-22,43.6915
2008-01-23,43.028
2008-01-24,44.2684
2008-01-25,46.2972
2008-01-28,46.2395
2008-01-29,46.2491
2008-01-30,45.528
2008-01-31,44.7684
2008-02-01,45.4703
2008-02-04,45.3934
2008-02-05,44.5569
2008-02-06,44.8646
2008-02-07,44.8934
2008-02-08,44.7203
2008-02-11,44.5184
2008-02-12,44.7684
2008-02-13,45.2395
2008-02-14,44.9703
2008-02-15,44.8838
2008-02-19,45.1145
2008-02-20,45.528
2008-02-21,45.028
2008-02-22,44.6915
2008-02-25,44.9607
2008-02-26,45.9318
2008-02-27,44.7876
2008-02-28,43.7877
2008-02-29,43.7588
2008-03-03,43.7973
2008-03-04,43.9415
2008-03-05,43.4607
2008-03-06,42.4704
2008-03-07,42.4319
2008-03-10,42.903
2008-03-11,42.8454
2008-03-12,43.2204
2008-03-13,45.3742
2008-03-14,42.8646
2008-03-17,41.5281
2008-03-18,39.6627
2008-03-19,38.4608
2008-03-20,38.6147
2008-03-24,39.4127
2008-03-25,39.2685
2008-03-26,40.3839
2008-03-27,39.9223
2008-03-28,39.8454
2008-03-31,40.1723
2008-04-01,40.48
2008-04-02,40.7492
2008-04-03,40.0377
2008-04-04,39.9416
2008-04-07,39.8935
2008-04-08,39.9416
2008-04-09,39.98
2008-04-10,42.3069
2008-04-11,41.3165
2008-04-14,41.3069
2008-04-15,41.6723
2008-04-16,41.7396
2008-04-17,40.9992
2008-04-18,41.4031
2008-04-21,40.9416
2008-04-22,40.4992
2008-04-23,41.0281
2008-04-24,40.7685
2008-04-25,40.5089
2008-04-28,40.2589
2008-04-29,40.4992
2008-04-30,40.2877
2008-05-01,41.5665
2008-05-02,41.2204
2008-05-05,41.1819
2008-05-06,41.3069
2008-05-07,40.4992
2008-05-08,40.4608
2008-05-09,40.4319
2008-05-12,41.2973
2008-05-13,40.8166
2008-05-14,40.5762
2008-05-15,40.3839
2008-05-16,40.3358
2008-05-19,40.7204
2008-05-20,40.8262
2008-05-21,40.5089
2008-05-22,41.0569
2008-05-23,40.7685
2008-05-27,41.4319
2008-05-28,41.1723
2008-05-29,41.7685
2008-05-30,42.3261
2008-06-02,42.5569
2008-06-03,42.5665
2008-06-04,42.7588
2008-06-05,43.2011
2008-06-06,42.5954
2008-06-09,42.6146
2008-06-10,42.1627
2008-06-11,41.3165
2008-06-12,41.605
2008-06-13,42.2492
2008-06-16,42.2588
2008-06-17,42.7684
2008-06-18,42.5088
2008-06-19,43.105
2008-06-20,43.4607
2008-06-23,44.153
2008-06-24,44.6146
2008-06-25,44.9703
2008-06-26,44.5953
2008-06-27,44.7972
2008-06-30,45.3549
2008-07-01,46.7011
2008-07-02,47.0087
2008-07-03,48.9414
2008-07-07,48.278
2008-07-08,48.5568
2008-07-09,48.9606
2008-07-10,49.6625
2008-07-11,49.0952
2008-07-14,49.076
2008-07-15,50.6818
2008-07-16,50.3837
2008-07-17,51.0471
2008-07-18,50.5279
2008-07-21,51.076
2008-07-22,52.5471
2008-07-23,51.7779
2008-07-24,51.8452
2008-07-25,51.8644
2008-07-28,58.1528
2008-07-29,59.9027
2008-07-30,59.845
2008-07-31,60.2104
2008-08-01,60.345
2008-08-04,61.2008
2008-08-05,61.2008
2008-08-06,61.2104
2008-08-07,59.6624
2008-08-08,61.2489
2008-08-11,61.5373
2008-08-12,61.0758
2008-08-13,61.0085
2008-08-14,61.7489
2008-08-15,62.5277
2008-08-18,62.1046
2008-08-19,61.6239
2008-08-20,61.2104
2008-08-21,61.4123
2008-08-22,61.4219
2008-08-25,61.6431
2008-08-26,61.5181
2008-08-27,61.2008
2008-08-28,61.5373
2008-08-29,60.47
2008-09-02,60.1623
2008-09-03,60.7873
2008-09-04,58.6335
2008-09-05,58.2682
2008-09-08,57.5182
2008-09-09,58.2682
2008-09-10,59.6335
2008-09-11,60.9508
2008-09-12,60.547
2008-09-15,60.047
2008-09-16,62.0085
2008-09-17,59.5662
2008-09-18,57.3836
2008-09-19,57.547
2008-09-22,55.8836
2008-09-23,55.6047
2008-09-24,56.1528
2008-09-25,57.6335
2008-09-26,58.3643
2008-09-29,55.3932
2008-09-30,56.7874
2008-10-01,57.3066
2008-10-02,56.4797
2008-10-03,56.7682
2008-10-06,52.999
2008-10-07,50.0664
2008-10-08,50.0375
2008-10-09,48.9799
2008-10-10,46.9991
2008-10-13,51.8452
2008-10-14,49.826
2008-10-15,46.2203
2008-10-16,48.8452
2008-10-17,48.6241
2008-10-20,51.2587
2008-10-21,50.201
2008-10-22,47.7587
2008-10-23,53.1625
2008-10-24,55.2874
2008-10-27,52.7298
2008-10-28,57.5759
2008-10-29,56.9701
2008-10-30,58.4893
2008-10-31,57.672
2008-11-03,58.9797
2008-11-04,57.9797
2008-11-05,57.1239
2008-11-06,54.5951
2008-11-07,56.5566
2008-11-10,56.4893
2008-11-11,55.9124
2008-11-12,53.5279
2008-11-13,57.1912
2008-11-14,55.874
2008-11-17,53.7971
2008-11-18,53.3452
2008-11-19,51.826
2008-11-20,48.5953
2008-11-21,52.7683
2008-11-24,53.6048
2008-11-25,52.9029
2008-11-26,53.6529
2008-11-28,53.4029
2008-12-01,52.8452
2008-12-02,52.6433
2008-12-03,55.4509
2008-12-04,54.2201
2008-12-05,55.3836
2008-12-08,55.8547
2008-12-09,55.6144
2008-12-10,55.9605
2008-12-11,54.999
2008-12-12,55.8355
2008-12-15,55.624
2008-12-16,57.0182
2008-12-17,56.3355
2008-12-18,55.7009
2008-12-19,55.5855
2008-12-22,54.9894
2008-12-23,55.1528
2008-12-24,54.9605
2008-12-26,55.1144
2008-12-29,54.4125
2008-12-30,55.2778
2008-12-31,55.7105
2009-01-02,56.5663
2009-01-05,57.1528
2009-01-06,56.0374
2009-01-07,56.0086
2009-01-08,56.8259
2009-01-09,55.6528
2009-01-12,54.874
2009-01-13,55.4221
2009-01-14,54.0471
2009-01-15,55.0278
2009-01-16,55.3067
2009-01-20,52.9894
2009-01-21,53.3836
2009-01-22,53.1529
2009-01-23,51.3164
2009-01-26,52.326
2009-01-27,51.2106
2009-01-28,52.6048
2009-01-29,52.749
2009-01-30,52.7394
2009-02-02,53.3067
2009-02-03,54.4605
2009-02-04,54.6432
2009-02-05,54.749
2009-02-06,55.6528
2009-02-09,56.4028
2009-02-10,55.374
2009-02-11,55.7297
2009-02-12,56.0855
2009-02-13,55.8067
2009-02-17,54.4221
2009-02-18,55.0951
2009-02-19,54.9894
2009-02-20,54.5278
2009-02-23,54.0375
2009-02-24,54.5278
2009-02-25,54.5567
2009-02-26,49.4222
2009-02-27,47.0857
2009-03-02,46.0472
2009-03-03,46.0568
2009-03-04,46.8645
2009-03-05,45.4126
2009-03-06,44.5953
2009-03-09,44.5953
2009-03-10,46.403
2009-03-11,45.3549
2009-03-12,48.1914
2009-03-13,49.1241
2009-03-16,48.8837
2009-03-17,49.5472
2009-03-18,48.3453
2009-03-19,46.9222
2009-03-20,46.7011
2009-03-23,48.9222
2009-03-24,47.1337
2009-03-25,48.0183
2009-03-26,49.2972
2009-03-27,49.5472
2009-03-30,48.3549
2009-03-31,47.5953
2009-04-01,46.4703
2009-04-02,45.1242
2009-04-03,44.6338
2009-04-06,45.8068
2009-04-07,45.5857
2009-04-08,46.028
2009-04-09,45.8357
2009-04-13,45.7684
2009-04-14,46.2876
2009-04-15,45.8453
2009-04-16,45.2684
2009-04-17,45.2684
2009-04-20,44.0953
2009-04-21,44.3646
2009-04-22,43.278
2009-04-23,44.9222
2009-04-24,47.7876
2009-04-27,48.1818
2009-04-28,48.576
2009-04-29,48.9606
2009-04-30,46.6914
2009-05-01,46.6338
2009-05-04,46.6241
2009-05-05,46.0184
2009-05-06,45.653
2009-05-07,45.0665
2009-05-08,45.2876
2009-05-11,45.9703
2009-05-12,46.3741
2009-05-13,46.3164
2009-05-14,46.2972
2009-05-15,46.4318
2009-05-18,47.3837
2009-05-19,47.9318
2009-05-20,48.6337
2009-05-21,47.4991
2009-05-22,47.4318
2009-05-26,48.3068
2009-05-27,47.7491
2009-05-28,48.2587
2009-05-29,47.8357
2009-06-01,48.1914
2009-06-02,48.8356
2009-06-03,49.8645
2009-06-04,48.9606
2009-06-05,48.8741
2009-06-08,48.9799
2009-06-09,48.8933
2009-06-10,48.2203
2009-06-11,47.951
2009-06-12,48.3933
2009-06-15,47.4222
2009-06-16,49.2875
2009-06-17,50.7779
2009-06-18,50.9798
2009-06-19,50.4991
2009-06-22,49.1049
2009-06-23,49.0952
2009-06-24,49.0952
2009-06-25,49.9125
2009-06-26,50.5952
2009-06-29,51.076
2009-06-30,50.8933
2009-07-01,50.7298
2009-07-02,49.5375
2009-07-06,50.0568
2009-07-07,50.2779
2009-07-08,57.2105
2009-07-09,55.9317
2009-07-10,55.5663
2009-07-13,55.7009
2009-07-14,55.749
2009-07-15,55.7105
2009-07-16,56.124
2009-07-17,56.5374
2009-07-20,55.922
2009-07-21,56.3547
2009-07-22,56.0663
2009-07-23,57.5662
2009-07-24,58.6528
2009-07-27,58.5374
2009-07-28,60.0854
2009-07-29,60.8162
2009-07-30,60.6046
2009-07-31,59.9797
2009-08-03,60.4412
2009-08-04,61.7681
2009-08-05,59.9508
2009-08-06,58.3835
2009-08-07,58.2489
2009-08-10,58.922
2009-08-11,60.4508
2009-08-12,59.7874
2009-08-13,58.3355
2009-08-14,58.422
2009-08-17,57.5855
2009-08-18,57.3836
2009-08-19,57.797
2009-08-20,58.0085
2009-08-21,58.2008
2009-08-24,57.9509
2009-08-25,57.9893
2009-08-26,58.7778
2009-08-27,57.9316
2009-08-28,57.3932
2009-08-31,57.4989
2009-09-01,56.749
2009-09-02,56.749
2009-09-03,56.2009
2009-09-04,56.7201
2009-09-08,56.797
2009-09-09,56.8643
2009-09-10,56.7393
2009-09-11,56.3067
2009-09-14,56.9316
2009-09-15,56.3259
2009-09-16,57.4605
2009-09-17,58.1912
2009-09-18,58.5374
2009-09-21,59.8835
2009-09-22,58.5182
2009-09-23,58.1912
2009-09-24,58.5374
2009-09-25,57.9124
2009-09-28,58.1912
2009-09-29,58.0855
2009-09-30,57.8259
2009-10-01,56.8643
2009-10-02,56.3451
2009-10-05,56.1432
2009-10-06,56.624
2009-10-07,56.2201
2009-10-08,56.624
2009-10-09,57.1432
2009-10-12,57.1624
2009-10-13,57.047
2009-10-14,58.1912
2009-10-15,59.4412
2009-10-16,58.9508
2009-10-19,57.8835
2009-10-20,55.9605
2009-10-21,57.0086
2009-10-22,54.6048
2009-10-23,53.9894
2009-10-26,52.2106
2009-10-27,52.2394
2009-10-28,51.7298
2009-10-29,52.2298
2009-10-30,51.5664
2009-11-02,50.3741
2009-11-03,50.4221
2009-11-04,50.076
2009-11-05,51.9317
2009-11-06,52.6144
2009-11-09,52.6721
2009-11-10,51.8644
2009-11-11,52.7298
2009-11-12,53.1048
2009-11-13,53.3067
2009-11-16,53.9894
2009-11-17,54.1048
2009-11-18,54.0278
2009-11-19,53.9413
2009-11-20,53.3259
2009-11-23,54.0663
2009-11-24,54.5567
2009-11-25,54.874
2009-11-27,54.3259
2009-11-30,54.2201
2009-12-01,54.9028
2009-12-02,55.2297
2009-12-03,54.3644
2009-12-04,54.7105
2009-12-07,54.2586
2009-12-08,53.7779
2009-12-09,54.0086
2009-12-10,53.9798
2009-12-11,54.0567
2009-12-14,54.6913
2009-12-15,53.5375
2009-12-16,52.9509
2009-12-17,52.5856
2009-12-18,53.6625
2009-12-21,54.5375
2009-12-22,55.0086
2009-12-23,55.124
2009-12-24,55.2105
2009-12-28,55.4509
2009-12-29,55.3451
2009-12-30,55.2874
2009-12-31,54.5471
2010-01-04,55.4317
2010-01-05,55.1144
2010-01-06,54.5759
2010-01-07,54.1144
2010-01-08,54.5663
2010-01-11,54.8836
2010-01-12,53.8452
2010-01-13,54.3644
2010-01-14,53.999
2010-01-15,54.124
2010-01-19,55.2874
2010-01-20,55.0374
2010-01-21,54.3836
2010-01-22,54.4317
2010-01-25,53.6721
2010-01-26,54.5278
2010-01-27,55.5567
2010-01-28,55.9028
2010-01-29,56.3451
2010-02-01,56.4413
2010-02-02,56.9316
2010-02-03,56.8836
2010-02-04,55.3355
2010-02-05,55.4701
2010-02-08,55.2586
2010-02-09,54.8644
2010-02-10,54.6048
2010-02-11,54.3355
2010-02-12,54.3355
2010-02-16,54.7298
2010-02-17,54.9221
2010-02-18,55.1048
2010-02-19,55.2586
2010-02-22,54.7971
2010-02-23,54.2009
2010-02-24,54.5182
2010-02-25,54.0182
2010-02-26,54.5567
2010-03-01,54.6528
2010-03-02,54.6144
2010-03-03,54.6913
2010-03-04,54.5182
2010-03-05,55.0086
2010-03-08,55.3932
2010-03-09,55.4797
2010-03-10,55.5471
2010-03-11,55.3355
2010-03-12,55.2201
2010-03-15,54.624
2010-03-16,55.2394
2010-03-17,55.1721
2010-03-18,55.999
2010-03-19,57.3643
2010-03-22,57.7778
2010-03-23,57.7297
2010-03-24,56.8163
2010-03-25,57.0182
2010-03-26,57.1239
2010-03-29,57.5662
2010-03-30,57.7105
2010-03-31,57.4605
2010-04-01,58.4605
2010-04-05,58.0566
2010-04-06,57.9701
2010-04-07,58.0182
2010-04-08,58.1528
2010-04-09,58.5662
2010-04-12,58.0278
2010-04-13,58.4124
2010-04-14,58.8354
2010-04-15,58.2682
2010-04-16,58.3739
2010-04-19,58.7681
2010-04-20,57.7874
2010-04-21,56.4797
2010-04-22,55.9797
2010-04-23,56.6047
2010-04-26,56.172
2010-04-27,55.5951
2010-04-28,55.9413
2010-04-29,56.3355
2010-04-30,55.3067
2010-05-03,55.3836
2010-05-04,54.6144
2010-05-05,54.4317
2010-05-06,52.7875
2010-05-07,52.499
2010-05-10,53.4413
2010-05-11,53.7779
2010-05-12,54.4701
2010-05-13,53.7009
2010-05-14,52.5279
2010-05-17,52.6913
2010-05-18,52.5663
2010-05-19,53.0856
2010-05-20,50.8837
2010-05-21,50.326
2010-05-24,50.6914
2010-05-25,50.5568
2010-05-26,48.4222
2010-05-27,49.4414
2010-05-28,49.8452
2010-06-01,48.8741
2010-06-02,54.0855
2010-06-03,53.4894
2010-06-04,52.0952
2010-06-07,51.4317
2010-06-08,51.7202
2010-06-09,51.1144
2010-06-10,51.951
2010-06-11,51.9606
2010-06-14,51.9798
2010-06-15,52.9798
2010-06-16,53.0856
2010-06-17,53.2875
2010-06-18,53.0759
2010-06-21,54.374
2010-06-22,53.9029
2010-06-23,54.0375
2010-06-24,54.0086
2010-06-25,54.4605
2010-06-28,53.2971
2010-06-29,52.0952
2010-06-30,50.6818
2010-07-01,50.0471
2010-07-02,49.8164
2010-07-06,49.201
2010-07-07,49.4029
2010-07-08,50.2491
2010-07-09,50.5856
2010-07-12,50.4606
2010-07-13,50.7106
2010-07-14,50.5375
2010-07-15,50.9029
2010-07-16,50.1914
2010-07-19,51.4221
2010-07-20,51.0471
2010-07-21,50.1818
2010-07-22,51.2587
2010-07-23,50.6721
2010-07-26,51.6048
2010-07-27,52.4413
2010-07-28,51.7779
2010-07-29,51.2971
2010-07-30,52.4317
2010-08-02,52.6913
2010-08-03,52.5183
2010-08-04,53.6336
2010-08-05,53.0856
2010-08-06,53.7586
2010-08-09,53.5855
2010-08-10,53.5375
2010-08-11,51.6144
2010-08-12,52.749
2010-08-13,53.0375
2010-08-16,51.9221
2010-08-17,51.8067
2010-08-18,52.1048
2010-08-19,50.7491
2010-08-20,50.4125
2010-08-23,49.9606
2010-08-24,49.1433
2010-08-25,49.951
2010-08-26,48.9799
2010-08-27,50.1721
2010-08-30,49.7106
2010-08-31,48.9991
2010-09-01,50.5856
2010-09-02,50.4125
2010-09-03,50.8933
2010-09-07,50.4991
2010-09-08,50.8933
2010-09-09,51.8067
2010-09-10,52.2298
2010-09-13,52.249
2010-09-14,52.4029
2010-09-15,53.2106
2010-09-16,52.9798
2010-09-17,53.1048
2010-09-20,53.8355
2010-09-21,53.5567
2010-09-22,54.124
2010-09-23,53.624
2010-09-24,54.1432
2010-09-27,53.5279
2010-09-28,53.7586
2010-09-29,52.7971
2010-09-30,53.0375
2010-10-01,53.4125
2010-10-04,52.9798
2010-10-05,53.9413
2010-10-06,53.6048
2010-10-07,53.9413
2010-10-08,54.2586
2010-10-11,53.8932
2010-10-12,53.8644
2010-10-13,53.4029
2010-10-14,52.6625
2010-10-15,54.5182
2010-10-18,55.672
2010-10-19,55.0567
2010-10-20,55.5182
2010-10-21,55.4124
2010-10-22,55.2682
2010-10-25,55.7297
2010-10-26,55.0182
2010-10-27,54.8548
2010-10-28,55.0663
2010-10-29,55.0663
2010-11-01,55.1624
2010-11-02,55.0663
2010-11-03,55.124
2010-11-04,53.8355
2010-11-05,53.249
2010-11-08,53.0952
2010-11-09,52.6913
2010-11-10,52.5952
2010-11-11,52.5567
2010-11-12,52.3933
2010-11-15,52.451
2010-11-16,51.9606
2010-11-17,51.8163
2010-11-18,53.0279
2010-11-19,52.8932
2010-11-22,52.6144
2010-11-23,51.4991
2010-11-24,51.7298
2010-11-26,52.874
2010-11-29,51.2971
2010-11-30,50.7971
2010-12-01,51.451
2010-12-02,51.7971
2010-12-03,51.6817
2010-12-06,51.4029
2010-12-07,51.0856
2010-12-08,51.2394
2010-12-09,51.3452
2010-12-10,51.8356
2010-12-13,51.999
2010-12-14,54.624
2010-12-15,53.5663
2010-12-16,54.5182
2010-12-17,55.3547
2010-12-20,55.4221
2010-12-21,55.2009
2010-12-22,54.7586
2010-12-23,54.4605
2010-12-27,54.3067
2010-12-28,53.8163
2010-12-29,53.7394
2010-12-30,53.4413
2010-12-31,52.8067
2011-01-03,53.3836
2011-01-04,54.5759
2011-01-05,54.5567
2011-01-06,54.3932
2011-01-07,54.749
2011-01-10,54.3355
2011-01-11,54.0182
2011-01-12,54.6913
2011-01-13,54.1144
2011-01-14,54.3163
2011-01-18,55.0663
2011-01-19,54.7586
2011-01-20,55.0855
2011-01-21,54.8644
2011-01-24,55.0759
2011-01-25,54.9124
2011-01-26,54.3836
2011-01-27,54.3067
2011-01-28,53.2298
2011-01-31,52.9798
2011-02-01,53.5759
2011-02-02,53.4702
2011-02-03,53.3452
2011-02-04,53.0086
2011-02-07,52.7298
2011-02-08,52.8356
2011-02-09,52.2971
2011-02-10,52.0856
2011-02-11,51.6433
2011-02-14,51.7683
2011-02-15,51.7394
2011-02-16,50.8741
2011-02-17,50.3837
2011-02-18,50.2106
2011-02-22,49.9029
2011-02-23,49.1337
2011-02-24,49.0183
2011-02-25,50.2875
2011-02-28,50.0279
2011-03-01,49.9414
2011-03-02,49.4222
2011-03-03,50.3452
2011-03-04,50.2971
2011-03-07,49.7202
2011-03-08,50.5183
2011-03-09,50.4894
2011-03-10,49.8645
2011-03-11,51.4894
2011-03-14,51.4991
2011-03-15,50.9894
2011-03-16,50.6048
2011-03-17,51.4029
2011-03-18,50.9318
2011-03-21,51.0471
2011-03-22,50.7875
2011-03-23,50.7106
2011-03-24,51.1914
2011-03-25,51.1337
2011-03-28,50.6241
2011-03-29,51.3644
2011-03-30,51.7875
2011-03-31,51.5279
2011-04-01,50.9606
2011-04-04,51.8837
2011-04-05,51.9606
2011-04-06,51.9702
2011-04-07,51.8163
2011-04-08,51.8163
2011-04-11,52.2394
2011-04-12,52.5279
2011-04-13,52.7971
2011-04-14,52.7106
2011-04-15,53.3644
2011-04-18,53.124
2011-04-19,53.0471
2011-04-20,54.0182
2011-04-21,51.6337
2011-04-25,52.5663
2011-04-26,54.0567
2011-04-27,54.6048
2011-04-28,54.9317
2011-04-29,54.5951
2011-05-02,55.1432
2011-05-03,55.2971
2011-05-04,55.499
2011-05-05,55.1817
2011-05-06,55.4701
2011-05-09,55.4797
2011-05-10,56.0182
2011-05-11,56.6336
2011-05-12,57.3643
2011-05-13,58.1528
2011-05-16,57.6047
2011-05-17,58.4989
2011-05-18,58.8258
2011-05-19,58.6816
2011-05-20,58.6335
2011-05-23,58.1528
2011-05-24,57.5951
2011-05-25,57.5278
2011-05-26,57.422
2011-05-27,57.0759
2011-05-31,58.1624
2011-06-01,57.4412
2011-06-02,56.9605
2011-06-03,56.4797
2011-06-06,56.3355
2011-06-07,56.5374
2011-06-08,56.7297
2011-06-09,56.6528
2011-06-10,55.7778
2011-06-13,56.124
2011-06-14,56.297
2011-06-15,55.6336
2011-06-16,56.0855
2011-06-17,55.7874
2011-06-20,56.1624
2011-06-21,55.8836
2011-06-22,55.8932
2011-06-23,55.7297
2011-06-24,54.9124
2011-06-27,55.624
2011-06-28,56.3836
2011-06-29,55.5567
2011-06-30,56.0759
2011-07-01,56.0182
2011-07-05,55.6817
2011-07-06,55.499
2011-07-07,55.6528
2011-07-08,55.4028
2011-07-11,54.7298
2011-07-12,54.7298
2011-07-13,54.4605
2011-07-14,53.5279
2011-07-15,52.8836
2011-07-18,52.5086
2011-07-19,53.1144
2011-07-20,52.8932
2011-07-21,53.3452
2011-07-22,53.1048
2011-07-25,52.8067
2011-07-26,52.6433
2011-07-27,51.7587
2011-07-28,51.3933
2011-07-29,52.7106
2011-08-01,51.7202
2011-08-02,51.2298
2011-08-03,51.2875
2011-08-04,49.6625
2011-08-05,50.1914
2011-08-08,48.0472
2011-08-09,48.5183
2011-08-10,46.3164
2011-08-11,47.701
2011-08-12,48.0183
2011-08-15,49.6337
2011-08-16,49.5661
2011-08-17,50.0012
2011-08-18,49.7015
2011-08-19,50.1848
2011-08-22,50.5232
2011-08-23,51.7897
2011-08-24,52.4374
2011-08-25,51.693
2011-08-26,52.2247
2011-08-29,52.9498
2011-08-30,53.4622
2011-08-31,53.4525
2011-09-01,53.2108
2011-09-02,52.3117
2011-09-06,52.8241
2011-09-07,53.5299
2011-09-08,53.5395
2011-09-09,52.2634
2011-09-12,52.2441
2011-09-13,53.1335
2011-09-14,53.4622
2011-09-15,54.3419
2011-09-16,54.7576
2011-09-19,54.661
2011-09-20,55.4634
2011-09-21,54.2066
2011-09-22,53.2302
2011-09-23,53.2688
2011-09-26,53.5782
2011-09-27,54.632
2011-09-28,53.8586
2011-09-29,53.8876
2011-09-30,53.1915
2011-10-03,52.1474
2011-10-04,52.5631
2011-10-05,54.1389
2011-10-06,54.9413
2011-10-07,54.3709
2011-10-10,55.4151
2011-10-11,55.1347
2011-10-12,54.7576
2011-10-13,55.096
2011-10-14,55.5601
2011-10-17,54.4676
2011-10-18,55.328
2011-10-19,55.4054
2011-10-20,55.4344
2011-10-21,56.6332
2011-10-24,57.0005
2011-10-25,54.4773
2011-10-26,54.9993
2011-10-27,56.0338
2011-10-28,55.299
2011-10-31,55.3957
2011-11-01,53.7425
2011-11-02,52.9401
2011-11-03,53.8682
2011-11-04,53.2302
2011-11-07,56.4978
2011-11-08,56.1015
2011-11-09,55.5987
2011-11-10,56.0725
2011-11-11,55.9564
2011-11-14,55.4054
2011-11-15,54.9681
2011-11-16,54.6281
2011-11-17,54.1909
2011-11-18,53.9966
2011-11-21,53.4914
2011-11-22,54.1132
2011-11-23,53.4428
2011-11-25,53.1805
2011-11-28,54.2783
2011-11-29,54.5504
2011-11-30,56.2699
2011-12-01,56.3379
2011-12-02,56.4934
2011-12-05,55.9493
2011-12-06,56.3476
2011-12-07,56.6488
2011-12-08,56.7071
2011-12-09,57.0374
2011-12-12,55.5899
2011-12-13,55.7647
2011-12-14,56.0076
2011-12-15,56.9403
2011-12-16,58.3781
2011-12-19,58.4073
2011-12-20,59.3885
2011-12-21,61.3121
2011-12-22,61.5064
2011-12-23,61.8658
2011-12-27,62.6333
2011-12-28,62.099
2011-12-29,62.9248
2011-12-30,62.4585
2012-01-03,62.2836
2012-01-04,61.895
2012-01-05,62.6528
2012-01-06,62.8762
2012-01-09,62.3224
2012-01-10,63.7797
2012-01-11,64.5181
2012-01-12,65.6256
2012-01-13,65.5867
2012-01-17,66.1308
2012-01-18,67.2286
2012-01-19,67.1606
2012-01-20,67.6269
2012-01-23,65.9073
2012-01-24,66.2376
2012-01-25,67.3743
2012-01-26,66.1502
2012-01-27,66.4028
2012-01-30,66.3445
2012-01-31,66.0239
2012-02-01,67.8795
2012-02-02,67.6852
2012-02-03,67.3257
2012-02-06,67.1509
2012-02-07,67.2286
2012-02-08,66.053
2012-02-09,64.9164
2012-02-10,65.3827
2012-02-13,66.6033
2012-02-14,66.2028
2012-02-15,66.281
2012-02-16,67.2675
2012-02-17,66.2419
2012-02-21,65.2163
2012-02-22,65.2066
2012-02-23,65.7828
2012-02-24,66.1149
2012-02-27,65.9
2012-02-28,66.6619
2012-02-29,66.3884
2012-03-01,66.0075
2012-03-02,66.2126
2012-03-05,65.5973
2012-03-06,64.9917
2012-03-07,65.314
2012-03-08,66.2321
2012-03-09,66.4177
2012-03-12,66.4568
2012-03-13,67.2968
2012-03-14,66.613
2012-03-15,66.6326
2012-03-16,65.9293
2012-03-19,66.4372
2012-03-20,65.9879
2012-03-21,65.5093
2012-03-22,65.1089
2012-03-23,65.1382
2012-03-26,65.9586
2012-03-27,66.281
2012-03-28,66.0856
2012-03-29,65.734
2012-03-30,66.3493
2012-04-02,66.5349
2012-04-03,66.3298
2012-04-04,66.3591
2012-04-05,66.4861
2012-04-09,65.4898
2012-04-10,64.6791
2012-04-11,65.187
2012-04-12,65.3726
2012-04-13,64.1028
2012-04-16,64.728
2012-04-17,65.8219
2012-04-18,65.6363
2012-04-19,65.607
2012-04-20,66.8963
2012-04-23,66.7498
2012-04-24,67.033
2012-04-25,68.5763
2012-04-26,69.1135
2012-04-27,69.8851
2012-04-30,69.4553
2012-05-01,69.0158
2012-05-02,69.4846
2012-05-03,69.2404
2012-05-04,68.2637
2012-05-07,68.0977
2012-05-08,69.006
2012-05-09,68.0293
2012-05-10,68.3809
2012-05-11,69.1232
2012-05-14,68.8876
2012-05-15,69.4668
2012-05-16,69.7024
2012-05-17,69.3097
2012-05-18,67.896
2012-05-21,68.0924
2012-05-22,67.6506
2012-05-23,67.091
2012-05-24,67.788
2012-05-25,67.7782
2012-05-29,68.0433
2012-05-30,68.4164
2012-05-31,68.3084
2012-06-01,66.5609
2012-06-04,67.4543
2012-06-05,67.2383
2012-06-06,68.5931
2012-06-07,67.9157
2012-06-08,67.5917
2012-06-11,66.5314
2012-06-12,67.3659
2012-06-13,67.5524
2012-06-14,69.1526
2012-06-15,69.9969
2012-06-18,70.7136
2012-06-19,71.6953
2012-06-20,71.4204
2012-06-21,70.2816
2012-06-22,71.0277
2012-06-25,70.1049
2012-06-26,70.2718
2012-06-27,71.0277
2012-06-28,70.154
2012-06-29,71.607
2012-07-02,72.9323
2012-07-03,73.3839
2012-07-05,72.9715
2012-07-06,72.461
2012-07-09,73.4133
2012-07-10,73.5409
2012-07-11,74.6208
2012-07-12,74.3558
2012-07-13,75.5731
2012-07-16,75.8284
2012-07-17,77.2519
2012-07-18,78.1354
2012-07-19,78.1943
2012-07-20,76.3389
2012-07-23,76.0836
2012-07-24,75.0037
2012-07-25,76.4665
2012-07-26,77.9194
2012-07-27,82.1507
2012-07-30,81.974
2012-07-31,81.2082
2012-08-01,80.3541
2012-08-02,79.6178
2012-08-03,80.6879
2012-08-06,80.9235
2012-08-07,80.0792
2012-08-08,79.8338
2012-08-09,80.3934
2012-08-10,81.2082
2012-08-13,80.6781
2012-08-14,82.3541
2012-08-15,82.5218
2012-08-16,81.94
2012-08-17,82.1865
2012-08-20,82.0485
2012-08-21,81.8611
2012-08-22,82.7584
2012-08-23,82.4527
2012-08-24,83.4486
2012-08-27,83.1627
2012-08-28,82.8472
2012-08-29,82.6006
2012-08-30,81.9794
2012-08-31,82.857
2012-09-04,83.2317
2012-09-05,82.8767
2012-09-06,83.5867
2012-09-07,82.7584
2012-09-10,82.8767
2012-09-11,82.7781
2012-09-12,81.9992
2012-09-13,82.1865
2012-09-14,80.1454
2012-09-17,80.9244
2012-09-18,80.8356
2012-09-19,80.5891
2012-09-20,81.1019
2012-09-21,80.9342
2012-09-24,81.7921
2012-09-25,82.6302
2012-09-26,82.2161
2012-09-27,83.0937
2012-09-28,83.1627
2012-10-01,83.7839
2012-10-02,85.1446
2012-10-03,85.5489
2012-10-04,85.1742
2012-10-05,85.687
2012-10-08,84.8883
2012-10-09,84.2572
2012-10-10,83.4388
2012-10-11,83.5374
2012-10-12,82.8866
2012-10-15,85.1052
2012-10-16,86.9491
2012-10-17,87.8858
2012-10-18,88.5366
2012-10-19,85.8743
2012-10-22,86.6533
2012-10-23,86.4462
2012-10-24,86.4265
2012-10-25,86.8209
2012-10-26,86.387
2012-10-31,85.332
2012-11-01,86.0715
2012-11-02,85.2235
2012-11-05,85.1841
2012-11-06,86.0124
2012-11-07,84.2276
2012-11-08,83.636
2012-11-09,83.991
2012-11-12,84.3952
2012-11-13,84.96
2012-11-14,83.0885
2012-11-15,83.4351
2012-11-16,83.8906
2012-11-19,84.554
2012-11-20,85.663
2012-11-21,85.7422
2012-11-23,85.8017
2012-11-26,86.4354
2012-11-27,86.0492
2012-11-28,86.2473
2012-11-29,87.8316
2012-11-30,88.0989
2012-12-03,87.5246
2012-12-04,87.5246
2012-12-05,88.1188
2012-12-06,87.6633
2012-12-07,87.4058
2012-12-10,88.8812
2012-12-11,89.1288
2012-12-12,89.1783
2012-12-13,88.198
2012-12-14,88.2277
2012-12-17,88.6238
2012-12-18,88.4554
2012-12-19,87.6038
2012-12-20,87.5939
2012-12-21,86.3265
2012-12-24,86.5839
2012-12-26,86.0096
2012-12-27,85.4848
2012-12-28,84.5144
2012-12-31,85.3858
2013-01-02,88.2174
2013-01-03,87.6035
2013-01-04,88.1085
2013-01-07,87.6431
2013-01-08,87.2073
2013-01-09,87.7817
2013-01-10,86.9004
2013-01-11,86.1281
2013-01-14,85.9696
2013-01-15,84.2071
2013-01-16,83.5238
2013-01-17,83.1773
2013-01-18,81.3454
2013-01-22,82.3851
2013-01-23,82.395
2013-01-24,81.8108
2013-01-25,82.4643
2013-01-28,84.7421
2013-01-29,85.8413
2013-01-30,84.4748
2013-01-31,84.6629
2013-02-01,85.3759
2013-02-04,84.96
2013-02-05,85.4353
2013-02-06,85.6828
2013-02-07,84.3461
2013-02-08,85.8512
2013-02-11,84.5864
2013-02-12,84.1085
2013-02-13,84.5566
2013-02-14,84.3674
2013-02-15,83.2125
2013-02-19,83.7796
2013-02-20,84.3869
2013-02-21,84.7752
2013-02-22,86.3383
2013-02-25,89.2757
2013-02-26,89.1214
2013-02-27,90.6198
2013-02-28,91.3366
2013-03-01,92.1032
2013-03-04,92.272
2013-03-05,92.8794
2013-03-06,92.7798
2013-03-07,92.6205
2013-03-08,92.5707
2013-03-11,91.0375
2013-03-12,91.3163
2013-03-13,91.1271
2013-03-14,91.7344
2013-03-15,91.2267
2013-03-18,89.9921
2013-03-19,91.9833
2013-03-20,93.636
2013-03-21,93.8152
2013-03-22,96.0354
2013-03-25,96.4536
2013-03-26,98.2058
2013-03-27,99.7291
2013-03-28,102.049
2013-04-01,101.79
2013-04-02,105.733
2013-04-03,104.398
2013-04-04,105.384
2013-04-05,103.662
2013-04-08,104.637
2013-04-09,103.761
2013-04-10,107.624
2013-04-11,107.783
2013-04-12,111.129
2013-04-15,108.241
2013-04-16,110.442
2013-04-17,109.237
2013-04-18,107.166
2013-04-19,110.84
2013-04-22,112.692
2013-04-23,112.483
2013-04-24,104.289
2013-04-25,108.251
2013-04-26,107.853
2013-04-29,106.191
2013-04-30,103.702
2013-05-01,103.97
2013-05-02,105.155
2013-05-03,105.932
2013-05-06,104.349
2013-05-07,103.881
2013-05-08,104.518
2013-05-09,103.851
2013-05-10,106.24
2013-05-13,106.25
2013-05-14,107.87
2013-05-15,107.46
2013-05-16,104.91
2013-05-17,105.66
2013-05-20,102.18
2013-05-21,104.32
2013-05-22,104.4
2013-05-23,105.6
2013-05-24,105.81
2013-05-28,106.28
2013-05-29,104.49
2013-05-30,105.24
2013-05-31,101.57
2013-06-03,99.08
2013-06-04,97.37
2013-06-05,94.83
2013-06-06,97.4
2013-06-07,98.98
2013-06-10,98.27
2013-06-11,98.02
2013-06-12,96.46
2013-06-13,98.57
2013-06-14,97.34
2013-06-17,99.12
2013-06-18,101.42
2013-06-19,99.36
2013-06-20,96.34
2013-06-21,98.32
2013-06-24,96.44
2013-06-25,96.44
2013-06-26,99.73
2013-06-27,99.01
2013-06-28,98.92
2013-07-01,97.32
2013-07-02,96.12
2013-07-03,95.81
2013-07-05,97.55
2013-07-08,98.0
2013-07-09,98.35
2013-07-10,101.81
2013-07-11,103.28
2013-07-12,103.89
2013-07-15,104.32
2013-07-16,103.99
2013-07-17,104.29
2013-07-18,104.82
2013-07-19,109.05
2013-07-22,108.77
2013-07-23,106.64
2013-07-24,106.59
2013-07-25,109.54
2013-07-26,109.36
2013-07-29,109.25
2013-07-30,111.15
2013-07-31,108.32
2013-08-01,109.44
2013-08-02,108.89
2013-08-05,107.37
2013-08-06,105.12
2013-08-07,112.51
2013-08-08,110.41
2013-08-09,109.59
