date,close_price
1998-01-02,29.4957
1998-01-05,29.5381
1998-01-06,28.8983
1998-01-07,28.6332
1998-01-08,28.1913
1998-01-09,27.1308
1998-01-12,27.396
1998-01-13,27.152
1998-01-14,27.3076
1998-01-15,27.4419
1998-01-16,27.859
1998-01-20,27.9262
1998-01-21,27.7494
1998-01-22,27.8166
1998-01-23,27.707
1998-01-26,27.9722
1998-01-27,28.4564
1998-01-28,28.1913
1998-01-29,28.1913
1998-01-30,28.3469
1998-02-02,29.5169
1998-02-03,29.7396
1998-02-04,29.4745
1998-02-05,29.6937
1998-02-06,29.9164
1998-02-09,29.2978
1998-02-10,30.4007
1998-02-11,29.9588
1998-02-12,30.2239
1998-02-13,30.4007
1998-02-17,30.4466
1998-02-18,30.7117
1998-02-19,30.7542
1998-02-20,30.9521
1998-02-23,30.7542
1998-02-24,30.0048
1998-02-25,29.828
1998-02-26,29.7821
1998-02-27,29.6937
1998-03-02,29.5629
1998-03-03,29.6513
1998-03-04,29.4957
1998-03-05,29.121
1998-03-06,29.0326
1998-03-09,29.0963
1998-03-10,29.0963
1998-03-11,28.8559
1998-03-12,29.0963
1998-03-13,28.7887
1998-03-16,29.0326
1998-03-17,29.2518
1998-03-18,29.319
1998-03-19,29.4073
1998-03-20,29.273
1998-03-23,29.4957
1998-03-24,29.5841
1998-03-25,29.4957
1998-03-26,29.1846
1998-03-27,28.9867
1998-03-30,29.0044
1998-03-31,29.4054
1998-04-01,29.2492
1998-04-02,29.3592
1998-04-03,29.3592
1998-04-06,29.4941
1998-04-07,29.4054
1998-04-08,29.2492
1998-04-09,29.4054
1998-04-13,29.1605
1998-04-14,29.714
1998-04-15,30.381
1998-04-16,30.2036
1998-04-17,30.9345
1998-04-20,30.7997
1998-04-21,31.4667
1998-04-22,31.1793
1998-04-23,31.5554
1998-04-24,31.598
1998-04-27,31.2219
1998-04-28,30.9345
1998-04-29,30.8245
1998-04-30,30.7997
1998-05-01,30.9345
1998-05-04,31.5093
1998-05-05,31.268
1998-05-06,31.1545
1998-05-07,30.8671
1998-05-08,31.0445
1998-05-11,31.3567
1998-05-12,31.9102
1998-05-13,32.0202
1998-05-14,31.8428
1998-05-15,31.4667
1998-05-18,31.2006
1998-05-19,31.0232
1998-05-20,31.4206
1998-05-21,31.3319
1998-05-22,31.2219
1998-05-26,30.4697
1998-05-27,30.3562
1998-05-28,30.8245
1998-05-29,30.9132
1998-06-01,31.0658
1998-06-02,31.1119
1998-06-03,31.1119
1998-06-04,31.0019
1998-06-05,30.8671
1998-06-08,31.1545
1998-06-09,31.0019
1998-06-10,31.0019
1998-06-11,30.6897
1998-06-12,30.2462
1998-06-15,29.7814
1998-06-16,30.6046
1998-06-17,30.8245
1998-06-18,30.7323
1998-06-19,28.2062
1998-06-22,28.4261
1998-06-23,28.6035
1998-06-24,28.7383
1998-06-25,27.9862
1998-06-26,27.9436
1998-06-29,27.7512
1998-06-30,28.5066
1998-07-01,27.573
1998-07-02,27.124
1998-07-06,28.193
1998-07-07,28.2429
1998-07-08,28.1075
1998-07-09,27.5303
1998-07-10,26.9459
1998-07-13,26.8604
1998-07-14,27.2594
1998-07-15,27.1739
1998-07-16,27.0813
1998-07-17,27.1739
1998-07-20,27.0385
1998-07-21,26.8176
1998-07-22,27.124
1998-07-23,26.5468
1998-07-24,26.9459
1998-07-27,27.2167
1998-07-28,26.4613
1998-07-29,26.4613
1998-07-30,26.1477
1998-07-31,24.9433
1998-08-03,24.9433
1998-08-04,23.7389
1998-08-05,23.8743
1998-08-06,23.518
1998-08-07,24.0097
1998-08-10,24.4088
1998-08-11,24.3233
1998-08-12,24.8578
1998-08-13,24.366
1998-08-14,24.1451
1998-08-17,24.4515
1998-08-18,24.9005
1998-08-19,24.9433
1998-08-20,25.2569
1998-08-21,25.1642
1998-08-24,24.6297
1998-08-25,24.2306
1998-08-26,23.6961
1998-08-27,22.6699
1998-08-28,22.6699
1998-08-31,21.8717
1998-09-01,22.6699
1998-09-02,22.4917
1998-09-03,22.8481
1998-09-04,22.4062
1998-09-08,23.1189
1998-09-09,22.9407
1998-09-10,22.0926
1998-09-11,22.4062
1998-09-14,22.7198
1998-09-15,23.4752
1998-09-16,23.6961
1998-09-17,23.3825
1998-09-18,23.297
1998-09-21,22.8481
1998-09-22,22.3634
1998-09-23,22.0926
1998-09-24,21.9572
1998-09-25,22.0926
1998-09-28,21.9572
1998-09-29,22.036
1998-09-30,21.3194
1998-10-01,21.3624
1998-10-02,21.5416
1998-10-05,21.5917
1998-10-06,22.5305
1998-10-07,22.7956
1998-10-08,21.4556
1998-10-09,22.2152
1998-10-12,23.2471
1998-10-13,23.6914
1998-10-14,24.9957
1998-10-15,25.6191
1998-10-16,26.6511
1998-10-19,26.4289
1998-10-20,26.4719
1998-10-21,25.6191
1998-10-22,26.8732
1998-10-23,26.0204
1998-10-26,26.694
1998-10-27,26.0204
1998-10-28,25.7983
1998-10-29,26.6511
1998-10-30,26.9664
1998-11-02,27.6328
1998-11-03,28.5788
1998-11-04,28.6218
1998-11-05,29.2452
1998-11-06,28.9801
1998-11-09,28.7579
1998-11-10,28.2204
1998-11-11,27.2745
1998-11-12,27.0954
1998-11-13,28.2634
1998-11-16,29.0231
1998-11-17,29.3384
1998-11-18,28.7077
1998-11-19,28.3064
1998-11-20,28.1273
1998-11-23,28.9371
1998-11-24,28.5286
1998-11-25,28.9371
1998-11-27,28.4426
1998-11-30,27.3247
1998-12-01,27.1885
1998-12-02,26.4719
1998-12-03,26.1136
1998-12-04,26.3357
1998-12-07,26.6081
1998-12-08,25.5331
1998-12-09,26.2497
1998-12-10,26.1566
1998-12-11,25.8914
1998-12-14,26.4289
1998-12-15,25.5761
1998-12-16,25.354
1998-12-17,26.737
1998-12-18,26.2497
1998-12-21,27.0954
1998-12-22,27.0524
1998-12-23,27.3677
1998-12-24,27.6328
1998-12-28,27.9481
1998-12-29,27.769
1998-12-30,27.4879
1998-12-31,28.8338
1999-01-04,28.0709
1999-01-05,28.2076
1999-01-06,28.7907
1999-01-07,28.1645
1999-01-08,28.7907
1999-01-11,29.5104
1999-01-12,28.4308
1999-01-13,28.4308
1999-01-14,27.6678
1999-01-15,27.9845
1999-01-19,27.9341
1999-01-20,26.6745
1999-01-21,26.365
1999-01-22,25.8684
1999-01-25,26.0052
1999-01-26,25.5517
1999-01-27,24.8319
1999-01-28,24.4289
1999-01-29,24.1554
1999-02-01,24.069
1999-02-02,23.7523
1999-02-03,22.9893
1999-02-04,23.486
1999-02-05,23.2557
1999-02-08,23.8459
1999-02-09,23.7955
1999-02-10,24.2057
1999-02-11,24.8319
1999-02-12,24.652
1999-02-16,24.1554
1999-02-17,24.8751
1999-02-18,23.889
1999-02-19,23.8459
1999-02-22,24.2921
1999-02-23,23.6155
1999-02-24,22.8526
1999-02-25,22.8958
1999-02-26,23.0325
1999-03-01,22.7158
1999-03-02,21.9529
1999-03-03,22.4063
1999-03-04,23.0757
1999-03-05,23.1261
1999-03-08,22.8526
1999-03-09,23.306
1999-03-10,23.1261
1999-03-11,22.9893
1999-03-12,22.8526
1999-03-15,22.8094
1999-03-16,22.5359
1999-03-17,22.6295
1999-03-18,23.1261
1999-03-19,23.2125
1999-03-22,24.0258
1999-03-23,23.2557
1999-03-24,23.7523
1999-03-25,24.5656
1999-03-26,24.5656
1999-03-29,25.3286
1999-03-30,25.4515
1999-03-31,24.6849
1999-04-01,24.5909
1999-04-05,25.0899
1999-04-06,24.3666
1999-04-07,24.8657
1999-04-08,24.9959
1999-04-09,24.8151
1999-04-12,25.3141
1999-04-13,24.6343
1999-04-14,26.9849
1999-04-15,29.6971
1999-04-16,31.4618
1999-04-19,33.2266
1999-04-20,32.5033
1999-04-21,32.1851
1999-04-22,31.5559
1999-04-23,30.782
1999-04-26,30.2902
1999-04-27,29.8779
1999-04-28,31.7801
1999-04-29,33.8558
1999-04-30,33.9498
1999-05-03,35.4398
1999-05-04,35.0781
1999-05-05,34.2681
1999-05-06,33.8124
1999-05-07,34.6297
1999-05-10,34.4489
1999-05-11,35.0781
1999-05-12,33.9498
1999-05-13,33.5448
1999-05-14,33.364
1999-05-17,31.7801
1999-05-18,30.8326
1999-05-19,32.3659
1999-05-20,32.0983
1999-05-21,31.7367
1999-05-24,31.1942
1999-05-25,31.0568
1999-05-26,30.9628
1999-05-27,29.6971
1999-05-28,29.6971
1999-06-01,31.3244
1999-06-02,30.6012
1999-06-03,30.0587
1999-06-04,30.8326
1999-06-07,30.782
1999-06-08,30.1527
1999-06-09,29.6537
1999-06-10,29.6537
1999-06-11,30.0153
1999-06-14,31.375
1999-06-15,32.1851
1999-06-16,31.8235
1999-06-17,32.5467
1999-06-18,32.6841
1999-06-21,33.4942
1999-06-22,32.0043
1999-06-23,32.2791
1999-06-24,29.6537
1999-06-25,29.6103
1999-06-28,29.8345
1999-06-29,30.147
1999-06-30,29.8783
1999-07-01,29.8783
1999-07-02,31.1931
1999-07-06,30.6919
1999-07-07,30.6919
1999-07-08,30.6483
1999-07-09,31.1931
1999-07-12,29.9219
1999-07-13,30.147
1999-07-14,30.0599
1999-07-15,29.9654
1999-07-16,26.7909
1999-07-19,26.1081
1999-07-20,26.3333
1999-07-21,25.832
1999-07-22,25.5197
1999-07-23,25.7884
1999-07-26,25.338
1999-07-27,25.2
1999-07-28,24.8368
1999-07-29,24.1975
1999-07-30,24.1975
1999-08-02,25.7013
1999-08-03,25.4252
1999-08-04,24.7424
1999-08-05,25.062
1999-08-06,25.0184
1999-08-09,24.7932
1999-08-10,24.7424
1999-08-11,24.3792
1999-08-12,23.8343
1999-08-13,25.2
1999-08-16,25.2436
1999-08-17,25.5632
1999-08-18,25.5632
1999-08-19,25.7013
1999-08-20,26.4713
1999-08-23,26.1081
1999-08-24,26.0136
1999-08-25,25.97
1999-08-26,26.0645
1999-08-27,25.6068
1999-08-30,25.0184
1999-08-31,24.7424
1999-09-01,25.0184
1999-09-02,24.7932
1999-09-03,24.924
1999-09-07,24.7424
1999-09-08,24.7424
1999-09-09,24.8804
1999-09-10,25.2436
1999-09-13,25.2
1999-09-14,24.292
1999-09-15,24.8368
1999-09-16,24.0159
1999-09-17,23.6091
1999-09-20,23.7036
1999-09-21,23.2459
1999-09-22,22.2507
1999-09-23,21.9747
1999-09-24,21.8875
1999-09-27,21.9311
1999-09-28,21.5679
1999-09-29,20.3768
1999-09-30,21.4731
1999-10-01,21.2904
1999-10-04,21.9263
1999-10-05,22.0651
1999-10-06,22.2917
1999-10-07,22.3356
1999-10-08,23.1176
1999-10-11,22.2917
1999-10-12,21.3781
1999-10-13,21.0565
1999-10-14,21.1515
1999-10-15,19.8287
1999-10-18,20.1429
1999-10-19,20.3257
1999-10-20,20.1941
1999-10-21,19.9164
1999-10-22,19.7775
1999-10-25,20.1941
1999-10-26,19.9602
1999-10-27,20.83
1999-10-28,20.1429
1999-10-29,20.0552
1999-11-01,20.4645
1999-11-02,20.5084
1999-11-03,20.0552
1999-11-04,20.2818
1999-11-05,19.5509
1999-11-08,19.3682
1999-11-09,19.5509
1999-11-10,20.0114
1999-11-11,20.4645
1999-11-12,22.796
1999-11-15,23.3003
1999-11-16,23.98
1999-11-17,24.5282
1999-11-18,24.0312
1999-11-19,23.2053
1999-11-22,23.0664
1999-11-23,23.4319
1999-11-24,23.6146
1999-11-26,23.5269
1999-11-29,23.2053
1999-11-30,23.7096
1999-12-01,23.6658
1999-12-02,23.7973
1999-12-03,23.1615
1999-12-06,22.9787
1999-12-07,22.5694
1999-12-08,23.0664
1999-12-09,22.9787
1999-12-10,23.0664
1999-12-13,22.3356
1999-12-14,23.1615
1999-12-15,22.796
1999-12-16,22.6571
1999-12-17,23.0226
1999-12-20,22.3867
1999-12-21,21.5608
1999-12-22,21.2904
1999-12-23,22.3356
1999-12-27,22.6133
1999-12-28,22.9349
1999-12-29,24.5282
1999-12-30,24.2139
1999-12-31,24.6622
2000-01-03,24.1111
2000-01-04,23.3762
2000-01-05,23.3321
2000-01-06,25.0811
2000-01-07,26.8668
2000-01-10,25.2134
2000-01-11,24.067
2000-01-12,24.4344
2000-01-13,24.2948
2000-01-14,23.7951
2000-01-18,22.6928
2000-01-19,22.7368
2000-01-20,21.9579
2000-01-21,21.3112
2000-01-24,22.0461
2000-01-25,22.7809
2000-01-26,23.1043
2000-01-27,22.6928
2000-01-28,21.9064
2000-01-31,21.7742
2000-02-01,22.6928
2000-02-02,22.2298
2000-02-03,22.5531
2000-02-04,22.6928
2000-02-07,22.5972
2000-02-08,22.1416
2000-02-09,21.1275
2000-02-10,20.6719
2000-02-11,19.8856
2000-02-14,21.0834
2000-02-15,21.2671
2000-02-16,20.6204
2000-02-17,20.9438
2000-02-18,19.937
2000-02-22,20.4367
2000-02-23,19.937
2000-02-24,19.3858
2000-02-25,19.2462
2000-02-28,19.2462
2000-02-29,19.0184
2000-03-01,19.0184
2000-03-02,18.7833
2000-03-03,19.2903
2000-03-06,18.5995
2000-03-07,17.7765
2000-03-08,18.3276
2000-03-09,18.2321
2000-03-10,18.3276
2000-03-13,18.1439
2000-03-14,18.3276
2000-03-15,20.1207
2000-03-16,21.8183
2000-03-17,20.3044
2000-03-20,20.5763
2000-03-21,20.8997
2000-03-22,19.8856
2000-03-23,20.9438
2000-03-24,21.223
2000-03-27,20.5322
2000-03-28,20.5763
2000-03-29,20.9438
2000-03-30,21.2621
2000-03-31,21.4026
2000-04-03,22.2309
2000-04-04,22.0016
2000-04-05,21.9573
2000-04-06,21.8611
2000-04-07,21.5875
2000-04-10,21.7724
2000-04-11,22.9261
2000-04-12,23.3402
2000-04-13,22.4158
2000-04-14,21.4026
2000-04-17,22.046
2000-04-18,21.6762
2000-04-19,20.663
2000-04-20,22.1421
2000-04-24,23.3402
2000-04-25,24.1315
2000-04-26,22.7855
2000-04-27,22.6524
2000-04-28,22.8817
2000-05-01,23.3402
2000-05-02,23.7618
2000-05-03,22.6007
2000-05-04,23.0666
2000-05-05,23.3402
2000-05-08,23.111
2000-05-09,22.4675
2000-05-10,23.0666
2000-05-11,25.655
2000-05-12,26.4389
2000-05-15,25.6994
2000-05-16,25.1447
2000-05-17,25.3296
2000-05-18,25.8399
2000-05-19,26.6238
2000-05-22,27.1341
2000-05-23,28.5688
2000-05-24,27.6444
2000-05-25,26.2984
2000-05-26,25.4701
2000-05-30,25.6106
2000-05-31,25.6994
2000-06-01,26.7643
2000-06-02,26.9492
2000-06-05,26.5794
2000-06-06,25.9804
2000-06-07,25.5145
2000-06-08,24.9598
2000-06-09,24.9155
2000-06-12,25.0042
2000-06-13,24.9155
2000-06-14,25.5145
2000-06-15,25.6994
2000-06-16,25.6106
2000-06-19,25.2409
2000-06-20,23.8949
2000-06-21,23.111
2000-06-22,23.2515
2000-06-23,22.8817
2000-06-26,22.8817
2000-06-27,24.5901
2000-06-28,24.5901
2000-06-29,24.3595
2000-06-30,22.8719
2000-07-03,23.1545
2000-07-05,23.3405
2000-07-06,22.9686
2000-07-07,22.4553
2000-07-10,22.2694
2000-07-11,22.4553
2000-07-12,22.4107
2000-07-13,22.9165
2000-07-14,23.2438
2000-07-17,22.8719
2000-07-18,22.6413
2000-07-19,22.2248
2000-07-20,22.6413
2000-07-21,23.4297
2000-07-24,23.8016
2000-07-25,24.3148
2000-07-26,24.3595
2000-07-27,24.5008
2000-07-28,24.5454
2000-07-31,24.776
2000-08-01,24.776
2000-08-02,24.7314
2000-08-03,25.2892
2000-08-04,25.2892
2000-08-07,25.4752
2000-08-08,25.6165
2000-08-09,25.8024
2000-08-10,25.4752
2000-08-11,26.1297
2000-08-14,26.5462
2000-08-15,26.5909
2000-08-16,26.8735
2000-08-17,27.4314
2000-08-18,26.5909
2000-08-21,26.4495
2000-08-22,26.5462
2000-08-23,27.3793
2000-08-24,27.7512
2000-08-25,27.8479
2000-08-28,27.9371
2000-08-29,28.1752
2000-08-30,27.476
2000-08-31,27.1041
2000-09-01,27.1487
2000-09-05,27.8925
2000-09-06,29.0082
2000-09-07,27.4314
2000-09-08,26.7768
2000-09-11,26.5016
2000-09-12,26.4049
2000-09-13,25.9884
2000-09-14,26.219
2000-09-15,25.9884
2000-09-18,25.5198
2000-09-19,25.3859
2000-09-20,24.9173
2000-09-21,24.9173
2000-09-22,25.2
2000-09-25,24.8727
2000-09-26,24.5454
2000-09-27,24.9173
2000-09-28,26.3685
2000-09-29,26.8847
2000-10-02,26.8847
2000-10-03,27.5878
2000-10-04,27.6327
2000-10-05,28.3359
2000-10-06,28.4256
2000-10-09,28.4256
2000-10-10,28.6127
2000-10-11,28.3808
2000-10-12,27.4906
2000-10-13,26.8847
2000-10-16,27.2587
2000-10-17,26.8398
2000-10-18,26.6004
2000-10-19,24.6405
2000-10-20,25.2465
2000-10-23,25.4784
2000-10-24,27.0268
2000-10-25,27.3485
2000-10-26,26.7425
2000-10-27,27.2138
2000-10-30,27.3036
2000-10-31,27.9619
2000-11-01,27.4906
2000-11-02,27.1166
2000-11-03,26.8847
2000-11-06,26.6528
2000-11-07,26.9296
2000-11-08,27.5878
2000-11-09,26.9744
2000-11-10,25.9945
2000-11-13,25.6654
2000-11-14,25.8075
2000-11-15,25.9047
2000-11-16,24.8276
2000-11-17,25.2913
2000-11-20,24.8724
2000-11-21,24.8276
2000-11-22,25.1043
2000-11-24,25.2465
2000-11-27,25.1567
2000-11-28,24.8724
2000-11-29,25.6654
2000-11-30,25.6654
2000-12-01,26.2788
2000-12-04,27.4008
2000-12-05,27.3485
2000-12-06,26.7425
2000-12-07,26.6004
2000-12-08,26.9744
2000-12-11,26.8847
2000-12-12,27.0717
2000-12-13,27.5878
2000-12-14,27.0717
2000-12-15,26.4134
2000-12-18,27.4008
2000-12-19,28.3359
2000-12-20,27.7748
2000-12-21,28.7997
2000-12-22,29.8768
2000-12-26,30.4828
2000-12-27,31.4178
2000-12-28,31.4174
2000-12-29,30.7185
2001-01-02,30.4781
2001-01-03,30.6209
2001-01-04,31.0943
2001-01-05,30.7185
2001-01-08,30.6659
2001-01-09,29.5388
2001-01-10,29.6365
2001-01-11,28.5995
2001-01-12,28.0885
2001-01-16,27.9458
2001-01-17,27.6151
2001-01-18,27.525
2001-01-19,26.9614
2001-01-22,27.3371
2001-01-23,27.1943
2001-01-24,27.7128
2001-01-25,28.0885
2001-01-26,27.3822
2001-01-29,27.8556
2001-01-30,28.577
2001-01-31,28.4417
2001-02-01,28.4793
2001-02-02,28.5394
2001-02-05,29.3059
2001-02-06,28.9377
2001-02-07,29.1255
2001-02-08,29.7342
2001-02-09,29.3284
2001-02-12,29.2908
2001-02-13,29.6064
2001-02-14,29.5914
2001-02-15,30.0272
2001-02-16,29.5914
2001-02-20,30.2451
2001-02-21,29.2908
2001-02-22,29.1255
2001-02-23,28.096
2001-02-26,29.118
2001-02-27,29.5313
2001-02-28,30.3654
2001-03-01,30.0197
2001-03-02,30.2451
2001-03-05,30.3804
2001-03-06,31.485
2001-03-07,31.9058
2001-03-08,32.3116
2001-03-09,32.1237
2001-03-12,30.959
2001-03-13,30.6133
2001-03-14,30.0873
2001-03-15,29.9596
2001-03-16,29.8694
2001-03-19,30.4029
2001-03-20,29.7943
2001-03-21,29.0128
2001-03-22,28.2764
2001-03-23,29.1556
2001-03-26,29.5689
2001-03-27,29.3434
2001-03-28,29.2082
2001-03-29,28.4908
2001-03-30,28.9892
2001-04-02,29.8425
2001-04-03,29.0496
2001-04-04,29.9633
2001-04-05,30.658
2001-04-06,30.2804
2001-04-09,31.1866
2001-04-10,32.6591
2001-04-11,32.1078
2001-04-12,32.1456
2001-04-16,32.4628
2001-04-17,31.9417
2001-04-18,33.2028
2001-04-19,32.3419
2001-04-20,31.9191
2001-04-23,31.9417
2001-04-24,32.3646
2001-04-25,32.2891
2001-04-26,32.8026
2001-04-27,32.7724
2001-04-30,32.4401
2001-05-01,32.2815
2001-05-02,32.3495
2001-05-03,32.0323
2001-05-04,32.6968
2001-05-07,32.3344
2001-05-08,32.8101
2001-05-09,33.0744
2001-05-10,33.6256
2001-05-11,33.2707
2001-05-14,33.6332
2001-05-15,33.8673
2001-05-16,35.2643
2001-05-17,35.8684
2001-05-18,34.7281
2001-05-21,34.7206
2001-05-22,34.9622
2001-05-23,34.7357
2001-05-24,33.9957
2001-05-25,34.6677
2001-05-29,34.9622
2001-05-30,34.7659
2001-05-31,35.3398
2001-06-01,35.6796
2001-06-04,36.042
2001-06-05,36.1704
2001-06-06,36.1326
2001-06-07,36.2535
2001-06-08,35.8986
2001-06-11,35.6116
2001-06-12,35.6418
2001-06-13,35.823
2001-06-14,35.1132
2001-06-15,35.5134
2001-06-18,35.7098
2001-06-19,35.9288
2001-06-20,35.9061
2001-06-21,35.4077
2001-06-22,34.4714
2001-06-25,34.0334
2001-06-26,34.5242
2001-06-27,34.3959
2001-06-28,34.5022
2001-06-29,34.7753
2001-07-02,35.0483
2001-07-03,35.0407
2001-07-05,34.889
2001-07-06,33.9789
2001-07-09,34.3581
2001-07-10,34.6236
2001-07-11,34.4567
2001-07-12,35.382
2001-07-13,35.4579
2001-07-16,35.2759
2001-07-17,35.9509
2001-07-18,36.1253
2001-07-19,36.3605
2001-07-20,33.5011
2001-07-23,32.1965
2001-07-24,31.5518
2001-07-25,31.9235
2001-07-26,31.5063
2001-07-27,31.3243
2001-07-30,30.9071
2001-07-31,30.9754
2001-08-01,31.1043
2001-08-02,31.3015
2001-08-03,31.5215
2001-08-06,31.8173
2001-08-07,32.151
2001-08-08,31.7794
2001-08-09,31.4001
2001-08-10,31.9235
2001-08-13,31.8931
2001-08-14,31.9766
2001-08-15,31.4912
2001-08-16,31.1574
2001-08-17,31.385
2001-08-20,31.2257
2001-08-21,31.3546
2001-08-22,31.5898
2001-08-23,31.8021
2001-08-24,32.1586
2001-08-27,32.6213
2001-08-28,32.3482
2001-08-29,32.1358
2001-08-30,31.787
2001-08-31,32.2193
2001-09-04,32.2951
2001-09-05,32.2496
2001-09-06,31.878
2001-09-07,31.294
2001-09-10,30.8768
2001-09-17,28.4422
2001-09-18,28.4573
2001-09-19,27.5472
2001-09-20,26.5915
2001-09-21,25.5145
2001-09-24,27.5168
2001-09-25,27.6837
2001-09-26,27.9112
2001-09-27,28.4523
2001-09-28,29.314
2001-10-01,29.131
2001-10-02,29.3979
2001-10-03,29.3751
2001-10-04,29.2378
2001-10-05,29.2988
2001-10-08,28.4981
2001-10-09,28.6658
2001-10-10,29.7716
2001-10-11,30.6943
2001-10-12,30.2215
2001-10-15,29.8936
2001-10-16,29.6496
2001-10-17,28.8184
2001-10-18,28.7497
2001-10-19,28.0939
2001-10-22,29.7869
2001-10-23,29.8936
2001-10-24,30.1224
2001-10-25,30.5266
2001-10-26,31.2663
2001-10-29,30.7477
2001-10-30,30.4503
2001-10-31,30.5113
2001-11-01,31.2892
2001-11-02,31.9069
2001-11-05,31.9831
2001-11-06,32.5322
2001-11-07,32.0899
2001-11-08,32.3339
2001-11-09,32.5246
2001-11-12,32.128
2001-11-13,32.7915
2001-11-14,33.4168
2001-11-15,33.9506
2001-11-16,33.9811
2001-11-19,34.6064
2001-11-20,34.8886
2001-11-21,34.4921
2001-11-23,34.942
2001-11-26,35.125
2001-11-27,34.8123
2001-11-28,34.6141
2001-11-29,34.6827
2001-11-30,34.8886
2001-12-03,34.7742
2001-12-04,35.4987
2001-12-05,36.2994
2001-12-06,36.2079
2001-12-07,35.5444
2001-12-10,34.7513
2001-12-11,35.2623
2001-12-12,35.0259
2001-12-13,34.3624
2001-12-14,34.3167
2001-12-17,35.3462
2001-12-18,36.2689
2001-12-19,36.0172
2001-12-20,36.3299
2001-12-21,35.7503
2001-12-24,35.8418
2001-12-26,35.8266
2001-12-27,35.7885
2001-12-28,35.9567
2001-12-31,35.9031
2002-01-02,35.9567
2002-01-03,35.9874
2002-01-04,36.4009
2002-01-07,36.6001
2002-01-08,36.1252
2002-01-09,35.9414
2002-01-10,35.3211
2002-01-11,34.7161
2002-01-14,34.0268
2002-01-15,34.0804
2002-01-16,33.7664
2002-01-17,34.1953
2002-01-18,33.7128
2002-01-22,33.7051
2002-01-23,34.7007
2002-01-24,35.5432
2002-01-25,35.727
2002-01-28,35.2292
2002-01-29,34.9611
2002-01-30,35.1526
2002-01-31,35.4206
2002-02-01,35.6887
2002-02-04,35.3058
2002-02-05,35.0454
2002-02-06,35.1449
2002-02-07,35.1832
2002-02-08,35.8572
2002-02-11,36.669
2002-02-12,36.378
2002-02-13,36.1099
2002-02-14,35.9338
2002-02-15,36.646
2002-02-19,35.7729
2002-02-20,35.9491
2002-02-21,35.6044
2002-02-22,36.0257
2002-02-25,36.6154
2002-02-26,36.355
2002-02-27,37.3736
2002-02-28,37.1744
2002-03-01,37.8484
2002-03-04,39.2882
2002-03-05,37.9556
2002-03-06,38.6985
2002-03-07,38.4458
2002-03-08,38.5377
2002-03-11,39.0355
2002-03-12,39.0048
2002-03-13,38.9053
2002-03-14,39.135
2002-03-15,39.786
2002-03-18,39.9775
2002-03-19,40.6131
2002-03-20,40.3604
2002-03-21,39.4031
2002-03-22,38.8746
2002-03-25,38.0092
2002-03-26,38.8287
2002-03-27,39.9514
2002-03-28,39.7131
2002-04-01,39.0595
2002-04-02,38.7597
2002-04-03,38.1215
2002-04-04,37.5833
2002-04-05,38.3752
2002-04-08,38.4752
2002-04-09,38.8519
2002-04-10,39.2364
2002-04-11,39.0288
2002-04-12,38.8596
2002-04-15,38.2983
2002-04-16,39.2594
2002-04-17,38.8596
2002-04-18,38.5982
2002-04-19,38.6059
2002-04-22,37.7678
2002-04-23,35.7917
2002-04-24,36.8682
2002-04-25,36.7913
2002-04-26,36.9066
2002-04-29,36.3146
2002-04-30,36.9912
2002-05-01,37.5986
2002-05-02,38.7827
2002-05-03,38.9903
2002-05-06,38.4598
2002-05-07,38.9673
2002-05-08,39.4824
2002-05-09,39.9284
2002-05-10,39.244
2002-05-13,39.2133
2002-05-14,40.1436
2002-05-15,40.1513
2002-05-16,39.7823
2002-05-17,39.5977
2002-05-20,39.0903
2002-05-21,38.998
2002-05-22,39.0441
2002-05-23,39.3594
2002-05-24,38.8673
2002-05-28,38.2906
2002-05-29,38.2214
2002-05-30,37.9831
2002-05-31,38.5213
2002-06-03,37.7217
2002-06-04,37.2526
2002-06-05,37.8524
2002-06-06,37.2373
2002-06-07,37.3833
2002-06-10,37.9908
2002-06-11,37.1219
2002-06-12,37.2834
2002-06-13,36.4761
2002-06-14,35.9917
2002-06-17,36.8913
2002-06-18,36.9143
2002-06-19,36.7913
2002-06-20,37.2142
2002-06-21,37.2834
2002-06-24,37.4449
2002-06-25,37.6986
2002-06-26,37.9369
2002-06-27,38.4542
2002-06-28,38.9098
2002-07-01,39.126
2002-07-02,37.8906
2002-07-03,37.7284
2002-07-05,39.6511
2002-07-08,39.1029
2002-07-09,38.099
2002-07-10,36.601
2002-07-11,36.0991
2002-07-12,36.6474
2002-07-15,35.6513
2002-07-16,34.4081
2002-07-17,34.9486
2002-07-18,34.5084
2002-07-19,32.7324
2002-07-22,31.9912
2002-07-23,31.4584
2002-07-24,33.7672
2002-07-25,34.7478
2002-07-26,34.215
2002-07-29,35.5586
2002-07-30,34.2845
2002-07-31,34.1301
2002-08-01,34.1841
2002-08-02,32.4313
2002-08-05,31.6591
2002-08-06,33.2112
2002-08-07,34.2536
2002-08-08,35.049
2002-08-09,35.2111
2002-08-12,34.825
2002-08-13,34.7401
2002-08-14,35.3269
2002-08-15,35.2188
2002-08-16,34.8791
2002-08-19,36.0605
2002-08-20,35.4119
2002-08-21,35.8983
2002-08-22,36.8327
2002-08-23,36.2149
2002-08-26,36.9717
2002-08-27,37.1956
2002-08-28,35.9524
2002-08-29,35.9524
2002-08-30,36.3153
2002-09-03,34.6011
2002-09-04,35.5509
2002-09-05,34.1301
2002-09-06,35.0412
2002-09-09,35.0567
2002-09-10,35.5663
2002-09-11,35.9678
2002-09-12,35.1648
2002-09-13,35.0335
2002-09-16,34.7092
2002-09-17,34.3772
2002-09-18,34.3154
2002-09-19,33.049
2002-09-20,33.2575
2002-09-23,32.5317
2002-09-24,31.3194
2002-09-25,32.0375
2002-09-26,33.2189
2002-09-27,32.7453
2002-09-30,32.6057
2002-10-01,34.3748
2002-10-02,32.2875
2002-10-03,32.1168
2002-10-04,31.7443
2002-10-07,31.6745
2002-10-08,33.1411
2002-10-09,31.4262
2002-10-10,33.5834
2002-10-11,34.5455
2002-10-14,34.2972
2002-10-15,35.5776
2002-10-16,34.142
2002-10-17,35.2672
2002-10-18,34.6154
2002-10-21,35.7948
2002-10-22,34.5145
2002-10-23,34.1343
2002-10-24,32.3573
2002-10-25,33.9713
2002-10-28,33.3583
2002-10-29,33.2187
2002-10-30,33.4127
2002-10-31,34.3283
2002-11-01,34.5455
2002-11-04,34.0334
2002-11-05,34.0024
2002-11-06,34.8404
2002-11-07,33.9403
2002-11-08,33.0169
2002-11-11,32.0004
2002-11-12,31.884
2002-11-13,31.9383
2002-11-14,32.8229
2002-11-15,33.0635
2002-11-18,32.8462
2002-11-19,32.9859
2002-11-20,33.5911
2002-11-21,34.0334
2002-11-22,32.7841
2002-11-25,32.7841
2002-11-26,32.0858
2002-11-27,33.2885
2002-11-29,34.3128
2002-12-02,34.142
2002-12-03,33.7773
2002-12-04,34.2196
2002-12-05,33.6532
2002-12-06,34.142
2002-12-09,33.8084
2002-12-10,34.1886
2002-12-11,34.5223
2002-12-12,33.8317
2002-12-13,33.3661
2002-12-16,34.6387
2002-12-17,33.9325
2002-12-18,32.9238
2002-12-19,32.9083
2002-12-20,33.9093
2002-12-23,33.7075
2002-12-24,33.467
2002-12-26,33.6144
2002-12-27,32.9626
2002-12-30,33.259
2002-12-31,33.3058
2003-01-02,33.2045
2003-01-03,33.1265
2003-01-06,34.3274
2003-01-07,34.148
2003-01-08,33.1265
2003-01-09,34.109
2003-01-10,33.8673
2003-01-13,34.1558
2003-01-14,34.1792
2003-01-15,33.5398
2003-01-16,33.9921
2003-01-17,33.532
2003-01-21,32.9081
2003-01-22,32.409
2003-01-23,32.8067
2003-01-24,32.0425
2003-01-27,31.2003
2003-01-28,31.5201
2003-01-29,31.598
2003-01-30,31.5824
2003-01-31,32.2921
2003-02-03,32.2141
2003-02-04,32.0425
2003-02-05,32.2375
2003-02-06,32.1205
2003-02-07,31.91
2003-02-10,31.9645
2003-02-11,31.5356
2003-02-12,31.2081
2003-02-13,31.3251
2003-02-14,31.4577
2003-02-18,31.099
2003-02-19,30.4049
2003-02-20,29.9604
2003-02-21,30.2957
2003-02-24,29.8357
2003-02-25,29.8201
2003-02-26,29.7343
2003-02-27,30.0696
2003-02-28,30.2568
2003-03-03,30.2568
2003-03-04,29.6875
2003-03-05,29.8591
2003-03-06,29.6095
2003-03-07,29.9916
2003-03-10,29.6095
2003-03-11,29.2976
2003-03-12,29.3132
2003-03-13,30.709
2003-03-14,30.826
2003-03-17,32.3155
2003-03-18,32.8145
2003-03-19,32.8769
2003-03-20,32.9159
2003-03-21,33.532
2003-03-24,32.3934
2003-03-25,32.6664
2003-03-26,32.721
2003-03-27,32.4558
2003-03-28,32.5577
2003-03-31,32.4244
2003-04-01,33.0044
2003-04-02,33.8822
2003-04-03,33.2004
2003-04-04,33.3963
2003-04-07,33.4276
2003-04-08,32.7144
2003-04-09,32.0796
2003-04-10,32.3225
2003-04-11,32.0169
2003-04-14,32.6674
2003-04-15,33.2239
2003-04-16,32.6047
2003-04-17,33.2317
2003-04-21,33.0122
2003-04-22,33.7098
2003-04-23,33.9528
2003-04-24,33.5844
2003-04-25,32.3931
2003-04-28,33.075
2003-04-29,33.3963
2003-04-30,33.7176
2003-05-01,33.4668
2003-05-02,33.7882
2003-05-05,33.8195
2003-05-06,33.9371
2003-05-07,33.4903
2003-05-08,33.1533
2003-05-09,33.6785
2003-05-12,34.329
2003-05-13,34.4152
2003-05-14,34.2428
2003-05-15,34.5406
2003-05-16,34.3525
2003-05-19,33.4276
2003-05-20,33.3728
2003-05-21,33.2552
2003-05-22,33.4668
2003-05-23,33.1141
2003-05-27,33.7647
2003-05-28,33.6393
2003-05-29,33.075
2003-05-30,34.1722
2003-06-02,34.2506
2003-06-03,33.9371
2003-06-04,34.4074
2003-06-05,34.2192
2003-06-06,34.1252
2003-06-09,33.1847
2003-06-10,33.2082
2003-06-11,33.0358
2003-06-12,33.2239
2003-06-13,33.3414
2003-06-16,33.9371
2003-06-17,34.5171
2003-06-18,33.3258
2003-06-19,33.0906
2003-06-20,33.3414
2003-06-23,32.5655
2003-06-24,32.7536
2003-06-25,32.3069
2003-06-26,32.5812
2003-06-27,32.3998
2003-06-30,32.7466
2003-07-01,32.786
2003-07-02,33.1643
2003-07-03,32.9121
2003-07-07,33.511
2003-07-08,33.5268
2003-07-09,33.117
2003-07-10,32.9436
2003-07-11,32.8254
2003-07-14,32.8648
2003-07-15,32.6835
2003-07-16,32.5495
2003-07-17,33.3849
2003-07-18,34.6775
2003-07-21,35.2449
2003-07-22,35.5523
2003-07-23,35.4656
2003-07-24,35.773
2003-07-25,36.829
2003-07-28,36.2222
2003-07-29,36.498
2003-07-30,36.4271
2003-07-31,36.6635
2003-08-01,36.5374
2003-08-04,36.2695
2003-08-05,35.4262
2003-08-06,35.5365
2003-08-07,35.6232
2003-08-08,36.0488
2003-08-11,36.3246
2003-08-12,36.4429
2003-08-13,36.3168
2003-08-14,36.8921
2003-08-15,36.766
2003-08-18,37.1206
2003-08-19,37.1206
2003-08-20,37.1601
2003-08-21,37.5935
2003-08-22,37.1916
2003-08-25,37.0576
2003-08-26,37.0024
2003-08-27,36.9709
2003-08-28,37.2625
2003-08-29,37.2467
2003-09-02,37.9482
2003-09-03,38.3344
2003-09-04,38.2949
2003-09-05,37.6723
2003-09-08,38.2004
2003-09-09,37.7827
2003-09-10,37.1522
2003-09-11,37.5147
2003-09-12,38.2161
2003-09-15,37.7433
2003-09-16,38.0112
2003-09-17,37.9324
2003-09-18,38.2161
2003-09-19,37.7117
2003-09-22,37.0418
2003-09-23,36.7029
2003-09-24,35.9779
2003-09-25,35.5444
2003-09-26,35.5838
2003-09-29,36.1464
2003-09-30,35.7345
2003-10-01,36.3603
2003-10-02,36.6613
2003-10-03,37.2554
2003-10-06,37.4297
2003-10-07,37.6753
2003-10-08,37.7545
2003-10-09,37.9208
2003-10-10,37.6673
2003-10-13,37.8178
2003-10-14,37.9129
2003-10-15,37.7782
2003-10-16,37.6832
2003-10-17,37.5247
2003-10-20,37.097
2003-10-21,36.7563
2003-10-22,36.3444
2003-10-23,36.8752
2003-10-24,36.8514
2003-10-27,36.5425
2003-10-28,35.2592
2003-10-29,35.98
2003-10-30,35.9721
2003-10-31,36.0038
2003-11-03,35.9483
2003-11-04,35.5047
2003-11-05,35.5443
2003-11-06,36.1226
2003-11-07,37.0019
2003-11-10,36.6296
2003-11-11,36.3603
2003-11-12,36.4157
2003-11-13,36.1622
2003-11-14,36.5029
2003-11-17,36.0434
2003-11-18,35.8216
2003-11-19,35.9959
2003-11-20,35.8295
2003-11-21,36.0038
2003-11-24,36.1939
2003-11-25,37.192
2003-11-26,37.9287
2003-11-28,37.9763
2003-12-01,38.7764
2003-12-02,38.7051
2003-12-03,38.9744
2003-12-04,40.0438
2003-12-05,39.6873
2003-12-08,39.9963
2003-12-09,40.2419
2003-12-10,40.2181
2003-12-11,40.63
2003-12-12,41.0419
2003-12-15,41.1449
2003-12-16,41.2875
2003-12-17,41.0499
2003-12-18,41.541
2003-12-19,41.5331
2003-12-22,41.4539
2003-12-23,41.2717
2003-12-24,41.0736
2003-12-26,41.438
2003-12-29,42.0322
2003-12-30,41.8412
2003-12-31,42.0082
2004-01-02,41.8253
2004-01-05,42.3106
2004-01-06,42.2628
2004-01-07,42.0321
2004-01-08,42.414
2004-01-09,41.3797
2004-01-12,41.8491
2004-01-13,42.9312
2004-01-14,43.5199
2004-01-15,43.6472
2004-01-16,43.7427
2004-01-20,43.2892
2004-01-21,41.6025
2004-01-22,39.6851
2004-01-23,38.3405
2004-01-26,39.6851
2004-01-27,39.5657
2004-01-28,39.3907
2004-01-29,39.5896
2004-01-30,39.701
2004-02-02,39.5657
2004-02-03,39.0565
2004-02-04,38.7462
2004-02-05,39.0884
2004-02-06,39.5816
2004-02-09,39.7567
2004-02-10,40.1306
2004-02-11,40.9421
2004-02-12,40.5602
2004-02-13,40.0272
2004-02-17,40.3534
2004-02-18,39.7805
2004-02-19,39.8442
2004-02-20,39.4862
2004-02-23,39.2554
2004-02-24,39.3032
2004-02-25,39.3111
2004-02-26,39.0168
2004-02-27,38.428
2004-03-01,39.1838
2004-03-02,39.3111
2004-03-03,39.2395
2004-03-04,39.1122
2004-03-05,39.6532
2004-03-08,39.4146
2004-03-09,38.8178
2004-03-10,37.9506
2004-03-11,37.5369
2004-03-12,38.1973
2004-03-15,37.4494
2004-03-16,37.6324
2004-03-17,38.1575
2004-03-18,37.9109
2004-03-19,37.9029
2004-03-22,37.513
2004-03-23,37.4971
2004-03-24,38.1177
2004-03-25,39.6214
2004-03-26,39.2873
2004-03-29,39.7408
2004-03-30,39.9647
2004-03-31,40.0207
2004-04-01,40.0207
2004-04-02,41.1557
2004-04-05,41.5473
2004-04-06,41.5473
2004-04-07,41.1237
2004-04-08,41.0518
2004-04-12,41.5393
2004-04-13,41.1717
2004-04-14,41.4274
2004-04-15,42.0829
2004-04-16,42.1148
2004-04-19,41.899
2004-04-20,41.4434
2004-04-21,41.6433
2004-04-22,42.2347
2004-04-23,42.2108
2004-04-26,41.7072
2004-04-27,41.939
2004-04-28,40.6921
2004-04-29,39.9008
2004-04-30,39.8448
2004-05-03,39.7409
2004-05-04,39.5651
2004-05-05,39.5491
2004-05-06,39.4692
2004-05-07,38.9257
2004-05-10,38.9336
2004-05-11,39.2853
2004-05-12,39.2294
2004-05-13,39.2374
2004-05-14,39.0615
2004-05-17,38.3502
2004-05-18,38.6459
2004-05-19,38.542
2004-05-20,38.4621
2004-05-21,38.8537
2004-05-24,39.1015
2004-05-25,39.7889
2004-05-26,39.8768
2004-05-27,40.3244
2004-05-28,39.9088
2004-06-01,39.8928
2004-06-02,39.5331
2004-06-03,38.6859
2004-06-04,38.8058
2004-06-07,39.5651
2004-06-08,39.7969
2004-06-09,39.669
2004-06-10,39.7409
2004-06-14,39.3972
2004-06-15,39.5411
2004-06-16,39.5571
2004-06-17,39.709
2004-06-18,40.1086
2004-06-21,40.1006
2004-06-22,40.5882
2004-06-23,41.1397
2004-06-24,40.9079
2004-06-25,41.5873
2004-06-28,41.4035
2004-06-29,41.8537
2004-06-30,42.1753
2004-07-01,41.3313
2004-07-02,41.0178
2004-07-06,40.9937
2004-07-07,41.0258
2004-07-08,40.9856
2004-07-09,41.1544
2004-07-12,41.1785
2004-07-13,41.3715
2004-07-14,41.492
2004-07-15,41.1142
2004-07-16,41.066
2004-07-19,41.0097
2004-07-20,41.4759
2004-07-21,40.7123
2004-07-22,40.2542
2004-07-23,39.9085
2004-07-26,39.4343
2004-07-27,39.2334
2004-07-28,40.0291
2004-07-29,41.6689
2004-07-30,41.5965
2004-08-02,41.8377
2004-08-03,41.6447
2004-08-04,42.119
2004-08-05,41.3715
2004-08-06,40.2944
2004-08-09,40.6641
2004-08-10,41.0821
2004-08-11,40.7847
2004-08-12,40.4391
2004-08-13,39.8121
2004-08-16,41.4759
2004-08-17,40.9615
2004-08-18,41.7653
2004-08-19,41.701
2004-08-20,42.2315
2004-08-23,42.2878
2004-08-24,42.2154
2004-08-25,42.2797
2004-08-26,42.4405
2004-08-27,42.0788
2004-08-30,41.8216
2004-08-31,42.0386
2004-09-01,43.2363
2004-09-02,44.0159
2004-09-03,44.1767
2004-09-07,44.2008
2004-09-08,43.2925
2004-09-09,43.1318
2004-09-10,42.8906
2004-09-13,42.2878
2004-09-14,42.4003
2004-09-15,42.2556
2004-09-16,43.1318
2004-09-17,43.172
2004-09-20,43.389
2004-09-21,43.4613
2004-09-22,42.9228
2004-09-23,41.91
2004-09-24,42.3119
2004-09-27,42.5611
2004-09-28,43.7266
2004-09-29,44.1873
2004-09-30,43.9045
2004-10-01,44.0661
2004-10-04,44.1469
2004-10-05,44.2277
2004-10-06,44.7126
2004-10-07,44.0176
2004-10-08,43.7267
2004-10-11,43.9529
2004-10-12,43.1529
2004-10-13,42.765
2004-10-14,42.765
2004-10-15,43.4681
2004-10-18,43.4277
2004-10-19,42.4903
2004-10-20,42.4903
2004-10-21,42.7165
2004-10-22,42.7489
2004-10-25,42.757
2004-10-26,43.4358
2004-10-27,43.4762
2004-10-28,42.9267
2004-10-29,42.9105
2004-11-01,42.6519
2004-11-02,42.264
2004-11-03,42.8458
2004-11-04,43.161
2004-11-05,43.2257
2004-11-08,42.9347
2004-11-09,43.9045
2004-11-10,44.4701
2004-11-11,44.6802
2004-11-12,44.8257
2004-11-15,44.7611
2004-11-16,44.6479
2004-11-17,45.2459
2004-11-18,45.6661
2004-11-19,45.2136
2004-11-22,45.0843
2004-11-23,45.3429
2004-11-24,46.0621
2004-11-26,45.9005
2004-11-29,45.9409
2004-11-30,46.2318
2004-12-01,46.8541
2004-12-02,46.6359
2004-12-03,46.9834
2004-12-06,47.145
2004-12-07,45.8278
2004-12-08,46.0702
2004-12-09,46.8298
2004-12-10,46.6035
2004-12-13,46.749
2004-12-14,46.7167
2004-12-15,46.749
2004-12-16,46.0379
2004-12-17,46.2884
2004-12-20,46.8783
2004-12-21,47.3793
2004-12-22,47.5248
2004-12-23,47.4197
2004-12-27,47.0399
2004-12-28,47.4521
2004-12-29,47.4197
2004-12-30,47.3062
2004-12-31,47.1681
2005-01-03,47.095
2005-01-04,46.2829
2005-01-05,46.2829
2005-01-06,46.5428
2005-01-07,46.8433
2005-01-10,46.8839
2005-01-11,46.1286
2005-01-12,46.5753
2005-01-13,46.1042
2005-01-14,46.8595
2005-01-18,47.095
2005-01-19,46.4291
2005-01-20,46.559
2005-01-21,46.0717
2005-01-24,45.5114
2005-01-25,46.2098
2005-01-26,47.0463
2005-01-27,46.8757
2005-01-28,47.225
2005-01-31,47.8259
2005-02-01,48.2157
2005-02-02,48.297
2005-02-03,47.8259
2005-02-04,47.9884
2005-02-07,48.6462
2005-02-08,48.6137
2005-02-09,48.2645
2005-02-10,48.6624
2005-02-11,49.2715
2005-02-14,49.1334
2005-02-15,49.1497
2005-02-16,49.2065
2005-02-17,48.9061
2005-02-18,49.4583
2005-02-22,48.768
2005-02-23,49.7263
2005-02-24,50.5141
2005-02-25,51.3262
2005-02-28,50.9445
2005-03-01,51.4886
2005-03-02,51.2044
2005-03-03,52.0165
2005-03-04,52.8855
2005-03-07,52.4469
2005-03-08,52.6499
2005-03-09,52.7312
2005-03-10,52.0409
2005-03-11,51.7647
2005-03-14,52.1058
2005-03-15,51.6104
2005-03-16,51.1231
2005-03-17,51.5373
2005-03-18,51.3668
2005-03-21,51.5211
2005-03-22,51.3424
2005-03-23,51.5698
2005-03-24,51.8216
2005-03-28,51.5455
2005-03-29,50.6196
2005-03-30,51.2154
2005-03-31,51.6726
2005-04-01,51.5583
2005-04-04,51.5991
2005-04-05,51.844
2005-04-06,51.7542
2005-04-07,51.8358
2005-04-08,51.1746
2005-04-11,51.1583
2005-04-12,50.9787
2005-04-13,49.8848
2005-04-14,48.1543
2005-04-15,46.2359
2005-04-18,46.791
2005-04-19,47.591
2005-04-20,46.6196
2005-04-21,47.6726
2005-04-22,47.142
2005-04-25,47.5502
2005-04-26,46.6278
2005-04-27,45.8196
2005-04-28,46.9216
2005-04-29,47.9175
2005-05-02,48.5624
2005-05-03,48.4563
2005-05-04,49.142
2005-05-05,48.8155
2005-05-06,49.0114
2005-05-09,48.7665
2005-05-10,48.4155
2005-05-11,48.5869
2005-05-12,47.5175
2005-05-13,47.1992
2005-05-16,48.2441
2005-05-17,48.9053
2005-05-18,49.6889
2005-05-19,49.5746
2005-05-20,49.1094
2005-05-23,49.8195
2005-05-24,49.5583
2005-05-25,49.0685
2005-05-26,49.2155
2005-05-27,49.3134
2005-05-31,49.24
2005-06-01,50.342
2005-06-02,50.4971
2005-06-03,50.3093
2005-06-06,50.1542
2005-06-07,50.5787
2005-06-08,50.2032
2005-06-09,49.9991
2005-06-10,49.9583
2005-06-13,50.1216
2005-06-14,50.0808
2005-06-15,49.991
2005-06-16,50.4399
2005-06-17,50.7012
2005-06-20,50.6032
2005-06-21,50.5624
2005-06-22,50.5624
2005-06-23,48.7338
2005-06-24,48.5461
2005-06-27,49.0114
2005-06-28,49.4032
2005-06-29,49.4279
2005-06-30,49.4443
2005-07-01,48.5744
2005-07-05,48.8288
2005-07-06,48.4103
2005-07-07,47.5978
2005-07-08,48.3036
2005-07-11,49.272
2005-07-12,49.075
2005-07-13,49.3622
2005-07-14,49.3622
2005-07-15,49.1653
2005-07-18,48.8124
2005-07-19,48.9273
2005-07-20,49.0422
2005-07-21,48.5908
2005-07-22,48.796
2005-07-25,48.3364
2005-07-26,47.4009
2005-07-27,48.6729
2005-07-28,49.5264
2005-07-29,49.0176
2005-08-01,48.9601
2005-08-02,49.4607
2005-08-03,50.2896
2005-08-04,49.6659
2005-08-05,49.4525
2005-08-08,49.5428
2005-08-09,50.0187
2005-08-10,49.7808
2005-08-11,50.109
2005-08-12,49.8628
2005-08-15,49.9449
2005-08-16,49.1324
2005-08-17,49.034
2005-08-18,48.8452
2005-08-19,48.8945
2005-08-22,48.8288
2005-08-23,47.803
2005-08-24,47.5158
2005-08-25,47.1465
2005-08-26,46.7361
2005-08-29,46.6951
2005-08-30,46.0714
2005-08-31,45.5052
2005-09-01,44.9717
2005-09-02,45.5462
2005-09-06,46.014
2005-09-07,45.497
2005-09-08,45.0948
2005-09-09,45.5134
2005-09-12,45.8909
2005-09-13,45.7924
2005-09-14,46.2109
2005-09-15,45.9483
2005-09-16,46.2848
2005-09-19,45.9483
2005-09-20,45.8745
2005-09-21,45.1112
2005-09-22,45.2261
2005-09-23,45.8334
2005-09-26,45.2179
2005-09-27,45.2508
2005-09-28,44.8322
2005-09-29,44.9393
2005-09-30,45.4841
2005-10-03,46.0207
2005-10-04,46.3674
2005-10-05,45.0466
2005-10-06,44.7825
2005-10-07,45.3108
2005-10-10,44.8073
2005-10-11,44.6422
2005-10-12,44.7412
2005-10-13,45.0962
2005-10-14,44.6917
2005-10-17,44.5761
2005-10-18,44.0643
2005-10-19,44.4936
2005-10-20,44.5679
2005-10-21,44.8155
2005-10-24,45.9959
2005-10-25,45.6823
2005-10-26,46.8627
2005-10-27,46.3922
2005-10-28,47.3167
2005-10-31,47.3002
2005-11-01,47.424
2005-11-02,47.8781
2005-11-03,47.5891
2005-11-04,47.2177
2005-11-07,46.8792
2005-11-08,46.5655
2005-11-09,46.5408
2005-11-10,47.4736
2005-11-11,47.5644
2005-11-14,47.5066
2005-11-15,47.6799
2005-11-16,47.9689
2005-11-17,48.6788
2005-11-18,49.5373
2005-11-21,49.6776
2005-11-22,49.851
2005-11-23,49.43
2005-11-25,49.6198
2005-11-28,49.3474
2005-11-29,49.6033
2005-11-30,48.8108
2005-12-01,50.4866
2005-12-02,50.6847
2005-12-05,50.2637
2005-12-06,50.0326
2005-12-07,49.7519
2005-12-08,50.2472
2005-12-09,50.0821
2005-12-12,50.2802
2005-12-13,50.6434
2005-12-14,50.5196
2005-12-15,49.4712
2005-12-16,48.9264
2005-12-19,48.9512
2005-12-20,48.8521
2005-12-21,49.562
2005-12-22,49.8344
2005-12-23,49.851
2005-12-27,49.529
2005-12-28,49.7106
2005-12-29,49.5032
2005-12-30,49.0966
2006-01-03,49.4202
2006-01-04,48.9057
2006-01-05,48.4741
2006-01-06,49.5945
2006-01-09,48.9472
2006-01-10,48.3911
2006-01-11,49.3538
2006-01-12,49.0136
2006-01-13,48.7646
2006-01-17,49.6194
2006-01-18,49.2791
2006-01-19,50.3746
2006-01-20,49.4534
2006-01-23,49.636
2006-01-24,50.7729
2006-01-25,51.0966
2006-01-26,50.6568
2006-01-27,51.5447
2006-01-30,51.4867
2006-01-31,51.2626
2006-02-01,51.2543
2006-02-02,50.5074
2006-02-03,50.4659
2006-02-06,52.2004
2006-02-07,51.4535
2006-02-08,51.6941
2006-02-09,51.5613
2006-02-10,51.7688
2006-02-13,51.636
2006-02-14,52.4078
2006-02-15,52.4991
2006-02-16,52.8643
2006-02-17,53.0386
2006-02-21,52.6485
2006-02-22,53.1464
2006-02-23,53.412
2006-02-24,53.5365
2006-02-27,53.5614
2006-02-28,53.1547
2006-03-01,53.3705
2006-03-02,53.4867
2006-03-03,53.0303
2006-03-06,52.9058
2006-03-07,53.578
2006-03-08,52.1257
2006-03-09,52.0427
2006-03-10,53.1132
2006-03-13,52.9971
2006-03-14,53.8767
2006-03-15,54.3083
2006-03-16,54.6237
2006-03-17,54.5075
2006-03-20,54.4494
2006-03-21,55.4535
2006-03-22,56.1507
2006-03-23,55.5365
2006-03-24,55.2959
2006-03-27,54.9805
2006-03-28,54.5573
2006-03-29,55.4618
2006-03-30,55.1867
2006-03-31,56.0959
2006-04-03,55.5036
2006-04-04,55.4536
2006-04-05,56.513
2006-04-06,56.3128
2006-04-07,55.9791
2006-04-10,55.3952
2006-04-11,54.8197
2006-04-12,54.9448
2006-04-13,54.8864
2006-04-17,55.145
2006-04-18,57.7308
2006-04-19,57.3971
2006-04-20,57.1636
2006-04-21,57.7892
2006-04-24,57.7642
2006-04-25,57.6307
2006-04-26,56.8383
2006-04-27,57.2136
2006-04-28,57.222
2006-05-01,56.3545
2006-05-02,56.4796
2006-05-03,56.9634
2006-05-04,56.6464
2006-05-05,57.1969
2006-05-08,57.0385
2006-05-09,56.9884
2006-05-10,56.2627
2006-05-11,55.9541
2006-05-12,54.9781
2006-05-15,55.3952
2006-05-16,54.6862
2006-05-17,53.8103
2006-05-18,53.6602
2006-05-19,53.7102
2006-05-22,53.0846
2006-05-23,53.5101
2006-05-24,53.2932
2006-05-25,53.7436
2006-05-26,54.4193
2006-05-30,53.1514
2006-05-31,54.0522
2006-06-01,55.2951
2006-06-02,55.3535
2006-06-05,54.2357
2006-06-06,53.3766
2006-06-07,52.2672
2006-06-08,51.6249
2006-06-09,51.5081
2006-06-12,51.041
2006-06-13,49.4895
2006-06-14,50.7491
2006-06-15,52.1337
2006-06-16,52.0503
2006-06-19,51.3997
2006-06-20,52.1337
2006-06-21,52.801
2006-06-22,52.6175
2006-06-23,52.9345
2006-06-26,52.9178
2006-06-27,51.9419
2006-06-28,51.6332
2006-06-29,52.9583
2006-06-30,53.7047
2006-07-03,54.208
2006-07-05,53.5705
2006-07-06,53.6963
2006-07-07,52.8324
2006-07-10,53.0757
2006-07-11,54.4428
2006-07-12,53.5873
2006-07-13,52.3627
2006-07-14,51.9937
2006-07-17,51.6498
2006-07-18,51.8679
2006-07-19,53.2015
2006-07-20,51.826
2006-07-21,51.5408
2006-07-24,51.7337
2006-07-25,51.8343
2006-07-26,53.0673
2006-07-27,52.4047
2006-07-28,53.4112
2006-07-31,53.5873
2006-08-01,53.1679
2006-08-02,54.1912
2006-08-03,54.359
2006-08-04,54.4344
2006-08-07,54.2583
2006-08-08,53.9983
2006-08-09,53.7634
2006-08-10,53.6544
2006-08-11,53.5705
2006-08-14,53.6796
2006-08-15,55.0467
2006-08-16,55.8519
2006-08-17,55.6422
2006-08-18,55.4913
2006-08-21,55.2648
2006-08-22,55.3487
2006-08-23,55.3571
2006-08-24,54.9964
2006-08-25,54.6441
2006-08-28,55.0635
2006-08-29,55.7513
2006-08-30,55.6087
2006-08-31,55.659
2006-09-01,56.59
2006-09-05,56.59
2006-09-06,56.1035
2006-09-07,55.0551
2006-09-08,55.6506
2006-09-11,54.5519
2006-09-12,55.3319
2006-09-13,55.0887
2006-09-14,55.3654
2006-09-15,56.0532
2006-09-18,56.1874
2006-09-19,55.5584
2006-09-20,56.4474
2006-09-21,54.3757
2006-09-22,54.7867
2006-09-25,56.0616
2006-09-26,57.3281
2006-09-27,56.7913
2006-09-28,56.7496
2006-09-29,55.9235
2006-10-02,56.699
2006-10-03,56.286
2006-10-04,57.0531
2006-10-05,56.522
2006-10-06,56.5051
2006-10-09,56.7412
2006-10-10,57.0531
2006-10-11,57.0784
2006-10-12,57.6516
2006-10-13,57.7949
2006-10-16,58.4356
2006-10-17,58.1658
2006-10-18,57.9551
2006-10-19,57.7275
2006-10-20,57.9466
2006-10-23,58.1911
2006-10-24,58.2332
2006-10-25,57.9045
2006-10-26,57.9466
2006-10-27,57.8792
2006-10-30,58.8149
2006-10-31,58.7475
2006-11-01,58.8655
2006-11-02,58.7812
2006-11-03,58.5199
2006-11-06,59.2954
2006-11-07,59.2785
2006-11-08,59.582
2006-11-09,58.3175
2006-11-10,58.3344
2006-11-13,58.6716
2006-11-14,58.8318
2006-11-15,58.5789
2006-11-16,59.2195
2006-11-17,58.9413
2006-11-20,58.8908
2006-11-21,58.68
2006-11-22,60.2986
2006-11-24,60.7959
2006-11-27,58.4777
2006-11-28,58.4777
2006-11-29,58.8486
2006-11-30,58.2838
2006-12-01,58.385
2006-12-04,59.3038
2006-12-05,59.8518
2006-12-06,59.6157
2006-12-07,59.5989
2006-12-08,60.2143
2006-12-11,59.9782
2006-12-12,59.9445
2006-12-13,60.5514
2006-12-14,60.8212
2006-12-15,61.0235
2006-12-18,60.7791
2006-12-19,60.7875
2006-12-20,60.8465
2006-12-21,60.0625
2006-12-22,59.4218
2006-12-26,59.8686
2006-12-27,60.5936
2006-12-28,60.3817
2006-12-29,59.5093
2007-01-03,60.8814
2007-01-04,59.5855
2007-01-05,58.7639
2007-01-08,58.6623
2007-01-09,58.5606
2007-01-10,59.0095
2007-01-11,60.009
2007-01-12,60.4071
2007-01-16,60.136
2007-01-17,60.2123
2007-01-18,59.8819
2007-01-19,60.3647
2007-01-22,60.0344
2007-01-23,60.3054
2007-01-24,62.6516
2007-01-25,62.1942
2007-01-26,61.9994
2007-01-29,62.5076
2007-01-30,62.1773
2007-01-31,63.2021
2007-02-01,63.2614
2007-02-02,63.4986
2007-02-05,63.4732
2007-02-06,63.4816
2007-02-07,63.5579
2007-02-08,63.5325
2007-02-09,63.4562
2007-02-12,63.8204
2007-02-13,64.5404
2007-02-14,64.9893
2007-02-15,64.8368
2007-02-16,64.9554
2007-02-20,65.6584
2007-02-21,65.3535
2007-02-22,64.4895
2007-02-23,65.777
2007-02-26,66.4037
2007-02-27,62.9988
2007-02-28,63.3461
2007-03-01,62.6008
2007-03-02,61.8131
2007-03-05,61.6352
2007-03-06,62.5838
2007-03-07,62.2874
2007-03-08,62.9988
2007-03-09,63.3207
2007-03-12,63.3292
2007-03-13,61.8639
2007-03-14,61.6183
2007-03-15,62.0926
2007-03-16,61.8554
2007-03-19,62.8125
2007-03-20,63.1682
2007-03-21,63.9305
2007-03-22,63.8289
2007-03-23,63.9898
2007-03-26,64.4387
2007-03-27,63.668
2007-03-28,62.6177
2007-03-29,62.7877
2007-03-30,62.941
2007-04-02,62.9069
2007-04-03,63.0176
2007-04-04,62.8303
2007-04-05,63.4007
2007-04-09,64.0477
2007-04-10,63.7838
2007-04-11,62.7366
2007-04-12,62.8814
2007-04-13,62.6771
2007-04-16,63.3496
2007-04-17,63.6646
2007-04-18,63.5625
2007-04-19,63.5795
2007-04-20,63.9371
2007-04-23,64.0307
2007-04-24,63.6221
2007-04-25,66.5763
2007-04-26,66.389
2007-04-27,66.4741
2007-04-30,65.1119
2007-05-01,64.7714
2007-05-02,65.3759
2007-05-03,65.5121
2007-05-04,65.6057
2007-05-07,66.1591
2007-05-08,66.389
2007-05-09,67.0956
2007-05-10,66.423
2007-05-11,65.8611
2007-05-14,65.2822
2007-05-15,65.7079
2007-05-16,66.6784
2007-05-17,67.0275
2007-05-18,66.8147
2007-05-21,66.3805
2007-05-22,66.6359
2007-05-23,66.2613
2007-05-24,65.8867
2007-05-25,66.7125
2007-05-29,66.7125
2007-05-30,66.8402
2007-05-31,66.4486
2007-06-01,66.9338
2007-06-04,66.7295
2007-06-05,66.4996
2007-06-06,66.3634
2007-06-07,65.8441
2007-06-08,67.6149
2007-06-11,67.4276
2007-06-12,67.1041
2007-06-13,68.7387
2007-06-14,69.3176
2007-06-15,69.5986
2007-06-18,69.4368
2007-06-19,69.5816
2007-06-20,69.3091
2007-06-21,70.2882
2007-06-22,70.2116
2007-06-25,69.241
2007-06-26,69.6412
2007-06-27,69.4198
2007-06-28,68.4277
2007-06-29,68.5817
2007-07-02,69.0863
2007-07-03,69.9246
2007-07-05,69.3002
2007-07-06,69.2831
2007-07-09,69.9246
2007-07-10,68.7784
2007-07-11,70.4121
2007-07-12,73.423
2007-07-13,74.3296
2007-07-16,74.9027
2007-07-17,75.1251
2007-07-18,75.1764
2007-07-19,75.9804
2007-07-20,75.6297
2007-07-23,75.4587
2007-07-24,74.954
2007-07-25,77.195
2007-07-26,76.5535
2007-07-27,73.8763
2007-07-30,75.1764
2007-07-31,74.0987
2007-08-01,74.8856
2007-08-02,74.6718
2007-08-03,73.0552
2007-08-06,74.0388
2007-08-07,76.0745
2007-08-08,77.426
2007-08-09,76.066
2007-08-10,75.8179
2007-08-13,75.8778
2007-08-14,74.3895
2007-08-15,71.0622
2007-08-16,70.0529
2007-08-17,72.5847
2007-08-20,73.671
2007-08-21,73.5256
2007-08-22,75.8521
2007-08-23,74.6718
2007-08-24,76.0916
2007-08-27,75.8094
2007-08-28,73.9875
2007-08-29,75.5186
2007-08-30,75.6469
2007-08-31,77.0069
2007-09-04,77.6484
2007-09-05,77.5457
2007-09-06,78.5294
2007-09-07,76.066
2007-09-10,75.5528
2007-09-11,75.2791
2007-09-12,75.3646
2007-09-13,75.4929
2007-09-14,75.356
2007-09-17,75.5699
2007-09-18,79.1025
2007-09-19,79.7696
2007-09-20,79.4446
2007-09-21,80.317
2007-09-24,79.188
2007-09-25,81.6257
2007-09-26,83.1739
2007-09-27,84.1273
2007-09-28,84.0415
2007-10-01,84.8572
2007-10-02,82.9251
2007-10-03,81.431
2007-10-04,82.1609
2007-10-05,83.0368
2007-10-08,83.6379
2007-10-09,84.2733
2007-10-10,83.6894
2007-10-11,83.4833
2007-10-12,83.4232
2007-10-15,83.7753
2007-10-16,82.367
2007-10-17,83.0196
2007-10-18,84.4794
2007-10-19,82.47
2007-10-22,81.4911
2007-10-23,83.406
2007-10-24,82.3069
2007-10-25,84.2991
2007-10-26,84.2561
2007-10-29,84.4193
2007-10-30,83.5091
2007-10-31,84.1187
2007-11-01,82.2811
2007-11-02,83.0196
2007-11-05,83.1055
2007-11-06,85.9564
2007-11-07,84.4193
2007-11-08,86.2655
2007-11-09,83.6808
2007-11-12,82.0321
2007-11-13,83.3287
2007-11-14,83.5606
2007-11-15,82.1094
2007-11-16,81.431
2007-11-19,79.2585
2007-11-20,80.6324
2007-11-21,79.413
2007-11-23,80.2288
2007-11-26,79.5418
2007-11-27,80.2202
2007-11-28,83.26
2007-11-29,83.7838
2007-11-30,84.9345
2007-12-03,84.7628
2007-12-04,84.8057
2007-12-05,86.0508
2007-12-06,87.5621
2007-12-07,87.3475
2007-12-10,88.5239
2007-12-11,88.0344
2007-12-12,87.2187
2007-12-13,88.3693
2007-12-14,87.1671
2007-12-17,85.029
2007-12-18,87.5793
2007-12-19,85.3209
2007-12-20,84.1359
2007-12-21,86.7034
2007-12-24,86.6949
2007-12-26,87.7596
2007-12-27,86.6004
2007-12-28,87.3244
2007-12-31,84.9541
2008-01-02,83.2905
2008-01-03,83.9284
2008-01-04,83.1354
2008-01-07,83.2733
2008-01-08,81.1529
2008-01-09,81.7131
2008-01-10,79.3169
2008-01-11,77.9895
2008-01-14,80.8857
2008-01-15,78.498
2008-01-16,76.6276
2008-01-17,73.0419
2008-01-18,73.4556
2008-01-22,72.6971
2008-01-23,74.8261
2008-01-24,76.6966
2008-01-25,76.9724
2008-01-28,78.5498
2008-01-29,78.8687
2008-01-30,76.9121
2008-01-31,77.524
2008-02-01,79.4203
2008-02-04,78.7049
2008-02-05,77.5585
2008-02-06,76.9983
2008-02-07,76.8948
2008-02-08,76.8345
2008-02-11,78.386
2008-02-12,78.929
2008-02-13,79.3083
2008-02-14,78.929
2008-02-15,79.11
2008-02-19,79.903
2008-02-20,81.6183
2008-02-21,79.6272
2008-02-22,80.4892
2008-02-25,82.7389
2008-02-26,82.4544
2008-02-27,82.4458
2008-02-28,80.9805
2008-02-29,78.8428
2008-03-03,79.6875
2008-03-04,78.1274
2008-03-05,79.5927
2008-03-06,78.5412
2008-03-07,75.5243
2008-03-10,73.016
2008-03-11,76.8172
2008-03-12,77.0844
2008-03-13,77.9205
2008-03-14,76.9293
2008-03-17,77.3603
2008-03-18,80.584
2008-03-19,77.6189
2008-03-20,77.5585
2008-03-24,80.9029
2008-03-25,81.1701
2008-03-26,80.7047
2008-03-27,80.0582
2008-03-28,78.812
2008-03-31,79.5741
2008-04-01,82.7526
2008-04-02,83.4108
2008-04-03,83.9478
2008-04-04,84.3288
2008-04-07,84.3548
2008-04-08,84.0257
2008-04-09,83.6446
2008-04-10,83.6533
2008-04-11,82.0597
2008-04-14,82.2763
2008-04-15,82.9431
2008-04-16,86.1389
2008-04-17,86.1043
2008-04-18,88.0789
2008-04-21,88.2175
2008-04-22,87.5246
2008-04-23,84.173
2008-04-24,85.524
2008-04-25,87.6285
2008-04-28,86.4594
2008-04-29,84.3895
2008-04-30,85.3421
2008-05-01,84.8485
2008-05-02,84.9697
2008-05-05,85.2729
2008-05-06,85.957
2008-05-07,83.9651
2008-05-08,85.2122
2008-05-09,84.8745
2008-05-12,86.1476
2008-05-13,87.4727
2008-05-14,88.2954
2008-05-15,88.3041
2008-05-16,88.4686
2008-05-19,87.949
2008-05-20,88.971
2008-05-21,86.7019
2008-05-22,86.4247
2008-05-23,85.4287
2008-05-27,85.2036
2008-05-28,87.5679
2008-05-29,87.6112
2008-05-30,88.1742
2008-06-02,87.1089
2008-06-03,87.8278
2008-06-04,87.8364
2008-06-05,91.777
2008-06-06,89.3607
2008-06-09,89.6638
2008-06-10,88.3301
2008-06-11,86.8318
2008-06-12,86.9617
2008-06-13,88.7631
2008-06-16,88.9796
2008-06-17,90.1575
2008-06-18,89.3607
2008-06-19,89.811
2008-06-20,88.7804
2008-06-23,90.2614
2008-06-24,87.5506
2008-06-25,88.356
2008-06-26,85.5846
2008-06-27,86.5167
2008-06-30,85.96
2008-07-01,86.5776
2008-07-02,83.1326
2008-07-03,84.4897
2008-07-07,83.1239
2008-07-08,83.6807
2008-07-09,82.6193
2008-07-10,84.5158
2008-07-11,84.2201
2008-07-14,83.9243
2008-07-15,83.498
2008-07-16,83.8721
2008-07-17,85.6207
2008-07-18,84.5245
2008-07-21,85.1857
2008-07-22,86.0122
2008-07-23,85.1335
2008-07-24,82.5758
2008-07-25,83.0369
2008-07-28,82.6106
2008-07-29,83.585
2008-07-30,84.4723
2008-07-31,82.7411
2008-08-01,80.9838
2008-08-04,78.8438
2008-08-05,79.9573
2008-08-06,79.4353
2008-08-07,77.3561
2008-08-08,78.1565
2008-08-11,75.8685
2008-08-12,76.7472
2008-08-13,79.5397
2008-08-14,78.5219
2008-08-15,78.8003
2008-08-18,78.9046
2008-08-19,79.1047
2008-08-20,79.7746
2008-08-21,80.0095
2008-08-22,80.8446
2008-08-25,78.9829
2008-08-26,79.6267
2008-08-27,80.1226
2008-08-28,81.5145
2008-08-29,79.9225
2008-09-02,79.4092
2008-09-03,77.6171
2008-09-04,75.3378
2008-09-05,75.9642
2008-09-08,75.9207
2008-09-09,73.6675
2008-09-10,73.8589
2008-09-11,74.929
2008-09-12,75.5466
2008-09-15,74.0155
2008-09-16,74.5636
2008-09-17,68.8915
2008-09-18,66.2903
2008-09-19,72.4931
2008-09-22,69.9963
2008-09-23,63.8632
2008-09-24,64.0459
2008-09-25,61.7666
2008-09-26,62.1755
2008-09-29,58.2542
2008-09-30,59.9786
2008-10-01,58.473
2008-10-02,55.952
2008-10-03,55.5844
2008-10-06,54.569
2008-10-07,52.5382
2008-10-08,52.827
2008-10-09,48.7304
2008-10-10,48.5641
2008-10-13,54.9016
2008-10-14,55.7244
2008-10-15,49.0455
2008-10-16,53.0896
2008-10-17,51.2514
2008-10-20,54.2451
2008-10-21,49.8771
2008-10-22,47.6275
2008-10-23,46.2619
2008-10-24,44.5112
2008-10-27,41.6226
2008-10-28,44.4325
2008-10-29,46.8922
2008-10-30,48.7829
2008-10-31,50.7262
2008-11-03,50.2185
2008-11-04,53.4835
2008-11-05,50.5949
2008-11-06,47.6012
2008-11-07,50.2885
2008-11-10,50.6562
2008-11-11,47.785
2008-11-12,44.8876
2008-11-13,48.4766
2008-11-14,46.1394
2008-11-17,45.2028
2008-11-18,44.8789
2008-11-19,41.0974
2008-11-20,36.4756
2008-11-21,39.0841
2008-11-24,40.8348
2008-11-25,40.9398
2008-11-26,40.8085
2008-11-28,41.8064
2008-12-01,37.9374
2008-12-02,39.8106
2008-12-03,40.7473
2008-12-04,40.0557
2008-12-05,41.6926
2008-12-08,45.5266
2008-12-09,46.332
2008-12-10,46.9097
2008-12-11,43.1282
2008-12-12,42.4279
2008-12-15,42.4804
2008-12-16,44.1173
2008-12-17,43.207
2008-12-18,41.5088
2008-12-19,40.9398
2008-12-22,40.3534
2008-12-23,39.7844
2008-12-24,40.1433
2008-12-26,40.7385
2008-12-29,41.8502
2008-12-30,43.4836
2008-12-31,44.5614
2009-01-02,46.9379
2009-01-05,48.8285
2009-01-06,52.4065
2009-01-07,50.3657
2009-01-08,51.3729
2009-01-09,50.083
2009-01-12,49.2437
2009-01-13,49.6236
2009-01-14,48.0157
2009-01-15,49.5706
2009-01-16,50.6396
2009-01-20,46.611
2009-01-21,47.8567
2009-01-22,45.7894
2009-01-23,46.6994
2009-01-26,47.8744
2009-01-27,48.4663
2009-01-28,49.4911
2009-01-29,47.1234
2009-01-30,44.4201
2009-02-02,44.2787
2009-02-03,45.8601
2009-02-04,46.4344
2009-02-05,47.7684
2009-02-06,48.9345
2009-02-09,49.2437
2009-02-10,46.7524
2009-02-11,46.0986
2009-02-12,48.1748
2009-02-13,47.8567
2009-02-17,46.0015
2009-02-18,46.6906
2009-02-19,46.8054
2009-02-20,45.3212
2009-02-23,42.3263
2009-02-24,43.3688
2009-02-25,41.752
2009-02-26,41.222
2009-02-27,40.9746
2009-03-02,38.9603
2009-03-03,38.7306
2009-03-04,41.169
2009-03-05,39.9586
2009-03-06,40.9923
2009-03-09,40.2413
2009-03-10,42.7062
2009-03-11,43.9695
2009-03-12,45.3654
2009-03-13,46.3813
2009-03-16,47.1588
2009-03-17,48.2101
2009-03-18,49.4734
2009-03-19,50.1802
2009-03-20,48.8108
2009-03-23,49.3763
2009-03-24,49.871
2009-03-25,50.9665
2009-03-26,52.9277
2009-03-27,51.8941
2009-03-30,49.4011
2009-03-31,50.0956
2009-04-01,51.2796
2009-04-02,52.6684
2009-04-03,53.8347
2009-04-06,52.1165
2009-04-07,50.514
2009-04-08,51.7693
2009-04-09,53.3985
2009-04-13,53.0156
2009-04-14,52.2144
2009-04-15,53.2115
2009-04-16,53.8169
2009-04-17,53.9504
2009-04-20,51.4043
2009-04-21,51.6001
2009-04-22,54.2887
2009-04-23,54.2264
2009-04-24,55.6508
2009-04-27,55.5707
2009-04-28,56.0248
2009-04-29,57.4492
2009-04-30,58.5887
2009-05-01,58.5353
2009-05-04,59.8618
2009-05-05,58.9092
2009-05-06,58.2415
2009-05-07,55.8734
2009-05-08,55.5173
2009-05-11,55.7399
2009-05-12,55.7844
2009-05-13,53.4341
2009-05-14,54.8318
2009-05-15,54.8407
2009-05-18,57.1109
2009-05-19,56.8794
2009-05-20,56.4877
2009-05-21,54.6537
2009-05-22,55.6063
2009-05-26,56.7459
2009-05-27,55.4016
2009-05-28,55.7755
2009-05-29,57.5738
2009-06-01,60.6453
2009-06-02,60.7343
2009-06-03,59.3099
2009-06-04,60.6007
2009-06-05,60.7521
2009-06-08,60.031
2009-06-09,60.8589
2009-06-10,60.2357
2009-06-11,60.9569
2009-06-12,60.5562
2009-06-15,58.5086
2009-06-16,57.6094
2009-06-17,57.2622
2009-06-18,58.384
2009-06-19,57.7697
2009-06-22,55.1968
2009-06-23,56.1939
2009-06-24,56.372
2009-06-25,57.6985
2009-06-26,58.0635
2009-06-29,58.7091
2009-06-30,57.9023
2009-07-01,57.7947
2009-07-02,56.208
2009-07-06,56.3425
2009-07-07,54.3882
2009-07-08,55.7508
2009-07-09,56.5128
2009-07-10,56.719
2009-07-13,58.0278
2009-07-14,58.3147
2009-07-15,60.4841
2009-07-16,61.3537
2009-07-17,60.7799
2009-07-20,61.4344
2009-07-21,62.4563
2009-07-22,62.5818
2009-07-23,64.8588
2009-07-24,65.7732
2009-07-27,66.4097
2009-07-28,65.8629
2009-07-29,65.0023
2009-07-30,66.7593
2009-07-31,66.8041
2009-08-03,67.5841
2009-08-04,66.8669
2009-08-05,66.6697
2009-08-06,66.4366
2009-08-07,66.9028
2009-08-10,66.3828
2009-08-11,66.3828
2009-08-12,67.5841
2009-08-13,68.0144
2009-08-14,66.5442
2009-08-17,65.4505
2009-08-18,66.1766
2009-08-19,66.7952
2009-08-20,66.7324
2009-08-21,68.5791
2009-08-24,68.1757
2009-08-25,67.7903
2009-08-26,67.7454
2009-08-27,67.7723
2009-08-28,67.9785
2009-08-31,67.2344
2009-09-01,66.347
2009-09-02,65.9615
2009-09-03,66.5621
2009-09-04,67.3779
2009-09-08,67.7903
2009-09-09,67.853
2009-09-10,66.4725
2009-09-11,66.1408
2009-09-14,67.2972
2009-09-15,69.0991
2009-09-16,70.9906
2009-09-17,71.3044
2009-09-18,71.9588
2009-09-21,71.2147
2009-09-22,71.0265
2009-09-23,69.5742
2009-09-24,69.3591
2009-09-25,68.7764
2009-09-28,70.4617
2009-09-29,70.4168
2009-09-30,69.975
2009-10-01,67.9915
2009-10-02,68.1628
2009-10-05,68.5144
2009-10-06,70.0111
2009-10-07,70.4619
2009-10-08,71.3094
2009-10-09,72.4274
2009-10-12,73.2299
2009-10-13,74.2668
2009-10-14,75.3307
2009-10-15,75.6553
2009-10-16,74.6995
2009-10-19,75.511
2009-10-20,75.1684
2009-10-21,73.834
2009-10-22,75.1323
2009-10-23,73.1397
2009-10-26,72.3373
2009-10-27,72.761
2009-10-28,69.984
2009-10-29,72.1479
2009-10-30,69.5783
2009-11-02,70.6062
2009-11-03,70.8045
2009-11-04,69.9119
2009-11-05,71.6791
2009-11-06,72.2201
2009-11-09,73.9241
2009-11-10,74.0684
2009-11-11,74.6003
2009-11-12,74.4471
2009-11-13,75.2225
2009-11-16,76.4036
2009-11-17,76.1602
2009-11-18,75.529
2009-11-19,74.1225
2009-11-20,74.2307
2009-11-23,74.7446
2009-11-24,74.3749
2009-11-25,75.0962
2009-11-27,74.0323
2009-11-30,74.8077
2009-12-01,75.4028
2009-12-02,75.9438
2009-12-03,74.384
2009-12-04,73.9061
2009-12-07,73.87
2009-12-08,72.6709
2009-12-09,74.0684
2009-12-10,74.0504
2009-12-11,73.6717
2009-12-14,74.2758
2009-12-15,73.7889
2009-12-16,74.5012
2009-12-17,73.2028
2009-12-18,73.2479
2009-12-21,72.4274
2009-12-22,73.0045
2009-12-23,73.311
2009-12-24,73.6536
2009-12-28,74.0233
2009-12-29,74.6184
2009-12-30,74.5463
2009-12-31,73.4947
2010-01-04,75.2987
2010-01-05,74.7185
2010-01-06,74.1837
2010-01-07,73.6941
2010-01-08,74.2109
2010-01-11,75.5344
2010-01-12,74.6097
2010-01-13,75.3259
2010-01-14,74.4466
2010-01-15,75.0086
2010-01-19,74.8726
2010-01-20,73.8573
2010-01-21,72.3796
2010-01-22,70.8294
2010-01-25,72.8148
2010-01-26,72.162
2010-01-27,71.4368
2010-01-28,69.9682
2010-01-29,68.8894
2010-02-01,69.6599
2010-02-02,69.388
2010-02-03,69.0344
2010-02-04,66.8859
2010-02-05,62.1808
2010-02-08,62.0086
2010-02-09,61.5825
2010-02-10,61.8907
2010-02-11,62.0902
2010-02-12,62.072
2010-02-16,63.7945
2010-02-17,63.6676
2010-02-18,63.4319
2010-02-19,63.1327
2010-02-22,63.45
2010-02-23,63.45
2010-02-24,63.305
2010-02-25,62.4528
2010-02-26,62.2896
2010-03-01,62.6341
2010-03-02,64.0574
2010-03-03,64.7011
2010-03-04,65.1815
2010-03-05,66.6683
2010-03-08,67.321
2010-03-09,67.2757
2010-03-10,67.4842
2010-03-11,67.6111
2010-03-12,67.5295
2010-03-15,67.1488
2010-03-16,67.8559
2010-03-17,67.5658
2010-03-18,67.8015
2010-03-19,67.4389
2010-03-22,68.0463
2010-03-23,68.4361
2010-03-24,67.7652
2010-03-25,66.8315
2010-03-26,67.3573
2010-03-29,67.312
2010-03-30,67.5307
2010-03-31,67.4759
2010-04-01,67.3847
2010-04-05,67.6402
2010-04-06,68.06
2010-04-07,67.5215
2010-04-08,67.6493
2010-04-09,68.8357
2010-04-12,68.79
2010-04-13,68.4067
2010-04-14,69.4471
2010-04-15,70.0494
2010-04-16,69.4653
2010-04-19,69.2372
2010-04-20,69.7482
2010-04-21,69.9855
2010-04-22,70.6152
2010-04-23,72.2304
2010-04-26,72.1209
2010-04-27,70.7886
2010-04-28,71.2449
2010-04-29,71.1262
2010-04-30,70.1224
2010-05-03,70.241
2010-05-04,68.2425
2010-05-05,67.6767
2010-05-06,66.0888
2010-05-07,64.7656
2010-05-10,66.2622
2010-05-11,65.377
2010-05-12,66.1892
2010-05-13,65.304
2010-05-14,63.5518
2010-05-17,64.4553
2010-05-18,63.9807
2010-05-19,63.3784
2010-05-20,60.3396
2010-05-21,61.0605
2010-05-24,60.2483
2010-05-25,61.4985
2010-05-26,62.5115
2010-05-27,64.3823
2010-05-28,63.0317
2010-06-01,61.5898
2010-06-02,63.0134
2010-06-03,62.9222
2010-06-04,60.7594
2010-06-07,59.8468
2010-06-08,60.9601
2010-06-09,61.6628
2010-06-10,62.9039
2010-06-11,63.3054
2010-06-14,62.986
2010-06-15,64.0264
2010-06-16,64.364
2010-06-17,64.5374
2010-06-18,65.2675
2010-06-21,64.8751
2010-06-22,64.072
2010-06-23,62.8765
2010-06-24,61.3251
2010-06-25,62.5571
2010-06-28,61.8636
2010-06-29,60.2641
2010-06-30,59.6574
2010-07-01,59.7493
2010-07-02,59.7402
2010-07-06,60.3928
2010-07-07,62.2312
2010-07-08,63.1964
2010-07-09,64.0973
2010-07-12,63.6193
2010-07-13,65.1819
2010-07-14,64.5109
2010-07-15,64.6396
2010-07-16,63.702
2010-07-19,63.6652
2010-07-20,64.9889
2010-07-21,64.3087
2010-07-22,65.7427
2010-07-23,66.239
2010-07-26,66.8733
2010-07-27,66.5148
2010-07-28,66.5608
2010-07-29,66.7446
2010-07-30,66.7814
2010-08-02,68.9232
2010-08-03,69.5207
2010-08-04,70.587
2010-08-05,70.7708
2010-08-06,70.0079
2010-08-09,70.7616
2010-08-10,70.6513
2010-08-11,69.3368
2010-08-12,68.6474
2010-08-13,69.6402
2010-08-16,69.7689
2010-08-17,70.4675
2010-08-18,70.7984
2010-08-19,69.5758
2010-08-20,69.0059
2010-08-23,68.629
2010-08-24,67.8936
2010-08-25,67.6638
2010-08-26,67.6454
2010-08-27,68.4544
2010-08-30,67.8385
2010-08-31,68.0223
2010-09-01,68.6106
2010-09-02,70.9271
2010-09-03,71.6992
2010-09-07,71.1109
2010-09-08,71.4878
2010-09-09,71.6992
2010-09-10,71.6624
2010-09-13,72.3978
2010-09-14,73.7491
2010-09-15,74.8154
2010-09-16,75.0728
2010-09-17,75.4864
2010-09-20,76.2861
2010-09-21,76.2953
2010-09-22,76.424
2010-09-23,76.231
2010-09-24,77.3524
2010-09-27,77.1502
2010-09-28,77.1962
2010-09-29,76.5582
2010-09-30,76.5952
2010-10-01,76.7616
2010-10-04,75.8832
2010-10-05,77.7972
2010-10-06,77.5845
2010-10-07,76.1421
2010-10-08,76.3918
2010-10-11,76.2623
2010-10-12,76.3363
2010-10-13,76.6507
2010-10-14,75.8462
2010-10-15,75.4209
2010-10-18,76.6229
2010-10-19,75.162
2010-10-20,76.8356
2010-10-21,78.4999
2010-10-22,78.3704
2010-10-25,79.2396
2010-10-26,79.1934
2010-10-27,77.8157
2010-10-28,78.7403
2010-10-29,78.6016
2010-11-01,78.5184
2010-11-02,79.7574
2010-11-03,78.9345
2010-11-04,80.2474
2010-11-05,80.1272
2010-11-08,80.6265
2010-11-09,79.1471
2010-11-10,78.7865
2010-11-11,79.0362
2010-11-12,77.6585
2010-11-15,78.1393
2010-11-16,77.039
2010-11-17,77.4366
2010-11-18,79.1379
2010-11-19,79.5077
2010-11-22,78.9992
2010-11-23,78.2965
2010-11-24,79.9515
2010-11-26,79.1656
2010-11-29,79.369
2010-11-30,79.7481
2010-12-01,79.8221
2010-12-02,81.921
2010-12-03,81.0518
2010-12-06,81.0703
2010-12-07,80.9039
2010-12-08,80.4786
2010-12-09,82.0134
2010-12-10,82.1429
2010-12-13,81.9672
2010-12-14,80.9409
2010-12-15,81.4402
2010-12-16,81.8655
2010-12-17,82.6329
2010-12-20,83.1969
2010-12-21,83.761
2010-12-22,83.687
2010-12-23,83.9366
2010-12-27,84.0476
2010-12-28,84.4174
2010-12-29,84.3065
2010-12-30,84.5757
2010-12-31,84.5385
2011-01-03,84.1016
2011-01-04,82.8652
2011-01-05,82.5306
2011-01-06,82.1216
2011-01-07,82.261
2011-01-10,82.2703
2011-01-11,82.0379
2011-01-12,82.4004
2011-01-13,82.5957
2011-01-14,82.4655
2011-01-18,82.8281
2011-01-19,82.1959
2011-01-20,81.1827
2011-01-21,80.2531
2011-01-24,80.3739
2011-01-25,80.6714
2011-01-26,80.8015
2011-01-27,80.2809
2011-01-28,79.7046
2011-01-31,81.1269
2011-02-01,83.3115
2011-02-02,82.6886
2011-02-03,82.2982
2011-02-04,82.2796
2011-02-07,82.9489
2011-02-08,83.2371
2011-02-09,82.2517
2011-02-10,82.2517
2011-02-11,82.7816
2011-02-14,83.6368
2011-02-15,83.8506
2011-02-16,87.8758
2011-02-17,87.346
2011-02-18,88.2198
2011-02-22,85.4217
2011-02-23,84.5293
2011-02-24,84.427
2011-02-25,84.9476
2011-02-28,85.4682
2011-03-01,83.6182
2011-03-02,84.0459
2011-03-03,85.2915
2011-03-04,84.7895
2011-03-07,83.2743
2011-03-08,83.4881
2011-03-09,83.2278
2011-03-10,81.759
2011-03-11,80.8387
2011-03-14,80.7829
2011-03-15,79.6116
2011-03-16,78.1986
2011-03-17,80.1973
2011-03-18,81.8148
2011-03-21,82.0751
2011-03-22,81.6847
2011-03-23,82.3075
2011-03-24,83.5346
2011-03-25,83.5996
2011-03-28,83.5996
2011-03-29,83.8878
2011-03-30,84.3834
2011-03-31,84.4208
2011-04-01,84.5892
2011-04-04,84.8699
2011-04-05,86.2547
2011-04-06,86.5821
2011-04-07,85.4407
2011-04-08,86.0862
2011-04-11,85.2442
2011-04-12,84.0185
2011-04-13,84.2992
2011-04-14,84.7577
2011-04-15,85.9272
2011-04-18,84.7202
2011-04-19,86.0488
2011-04-20,87.6768
2011-04-21,87.8546
2011-04-25,87.9575
2011-04-26,88.9024
2011-04-27,88.6966
2011-04-28,89.4919
2011-04-29,89.3515
2011-05-02,88.6592
2011-05-03,88.2475
2011-05-04,87.078
2011-05-05,86.2734
2011-05-06,86.5728
2011-05-09,87.6394
2011-05-10,88.5937
2011-05-11,87.0125
2011-05-12,86.3856
2011-05-13,84.8232
2011-05-16,85.0196
2011-05-17,83.7565
2011-05-18,85.4874
2011-05-19,86.0207
2011-05-20,85.3565
2011-05-23,84.8699
2011-05-24,85.1506
2011-05-25,86.4418
2011-05-26,86.7225
2011-05-27,87.892
2011-05-31,88.9212
2011-06-01,86.2079
2011-06-02,85.9646
2011-06-03,83.8875
2011-06-06,83.8501
2011-06-07,84.6828
2011-06-08,85.1413
2011-06-09,86.6757
2011-06-10,85.2816
2011-06-13,86.4137
2011-06-14,87.237
2011-06-15,85.0851
2011-06-16,84.6173
2011-06-17,84.2618
2011-06-20,85.2722
2011-06-21,86.4698
2011-06-22,86.9657
2011-06-23,86.9938
2011-06-24,87.0219
2011-06-27,87.0406
2011-06-28,88.6873
2011-06-29,88.6023
2011-06-30,90.0614
2011-07-01,90.7486
2011-07-05,90.6827
2011-07-06,91.0781
2011-07-07,92.0854
2011-07-08,91.3229
2011-07-11,89.7319
2011-07-12,89.2142
2011-07-13,89.3742
2011-07-14,88.4422
2011-07-15,88.687
2011-07-18,87.4538
2011-07-19,88.6588
2011-07-20,88.6023
2011-07-21,89.7978
2011-07-22,86.4089
2011-07-25,86.3995
2011-07-26,85.6087
2011-07-27,84.7332
2011-07-28,83.8013
2011-07-29,83.6412
2011-08-01,83.3306
2011-08-02,80.2429
2011-08-03,81.4008
2011-08-04,77.3152
2011-08-05,77.5317
2011-08-08,72.8154
2011-08-09,75.3854
2011-08-10,73.2014
2011-08-11,76.6845
2011-08-12,77.1552
2011-08-15,77.494
2011-08-16,76.8633
2011-08-17,76.7127
2011-08-18,72.3165
2011-08-19,70.7444
2011-08-22,70.3584
2011-08-23,71.9682
2011-08-24,73.0037
2011-08-25,72.8813
2011-08-26,73.9733
2011-08-29,76.5244
2011-08-30,77.3528
2011-08-31,76.9198
2011-09-01,76.7221
2011-09-02,75.3759
2011-09-06,75.6301
2011-09-07,77.6258
2011-09-08,76.3926
2011-09-09,73.8792
2011-09-12,73.0037
2011-09-13,74.1992
2011-09-14,75.4513
2011-09-15,77.1363
2011-09-16,77.4187
2011-09-19,76.7598
2011-09-20,77.4846
2011-09-21,73.6156
2011-09-22,71.8834
2011-09-23,72.2035
2011-09-26,74.1992
2011-09-27,76.1008
2011-09-28,74.4252
2011-09-29,75.1084
2011-09-30,72.491
2011-10-03,70.1581
2011-10-04,72.6712
2011-10-05,75.0136
2011-10-06,76.1231
2011-10-07,75.8576
2011-10-10,78.7026
2011-10-11,77.4223
2011-10-12,78.6078
2011-10-13,78.6647
2011-10-14,79.7078
2011-10-17,78.2379
2011-10-18,80.8364
2011-10-19,79.0061
2011-10-20,78.7785
2011-10-21,78.6078
2011-10-24,78.8543
2011-10-25,78.1715
2011-10-26,80.163
2011-10-27,84.0323
2011-10-28,84.8194
2011-10-31,81.7278
2011-11-01,78.8733
2011-11-02,80.6372
2011-11-03,81.8985
2011-11-04,81.2536
2011-11-07,81.9649
2011-11-08,83.0744
2011-11-09,79.1673
2011-11-10,80.1061
2011-11-11,82.0218
2011-11-14,81.045
2011-11-15,81.2157
2011-11-16,79.1104
2011-11-17,76.8059
2011-11-18,76.9008
2011-11-21,75.3455
2011-11-22,74.7101
2011-11-23,73.0031
2011-11-25,71.5995
2011-11-28,75.042
2011-11-29,74.8618
2011-11-30,79.5277
2011-12-01,78.3327
2011-12-02,77.8301
2011-12-05,78.9871
2011-12-06,78.5129
2011-12-07,79.2716
2011-12-08,77.8965
2011-12-09,79.044
2011-12-12,76.9577
2011-12-13,76.6637
2011-12-14,76.3792
2011-12-15,77.9629
2011-12-16,78.3517
2011-12-19,77.2232
2011-12-20,80.4191
2011-12-21,79.8975
2011-12-22,80.4001
2011-12-23,81.5855
2011-12-27,81.927
2011-12-28,80.5329
2011-12-29,81.2104
2011-12-30,81.3823
2012-01-03,82.4422
2012-01-04,83.1679
2012-01-05,82.6332
2012-01-06,82.3945
2012-01-09,82.3849
2012-01-10,83.3207
2012-01-11,83.9318
2012-01-12,86.0038
2012-01-13,85.8224
2012-01-17,86.3571
2012-01-18,87.3884
2012-01-19,87.7035
2012-01-20,86.5003
2012-01-23,85.8129
2012-01-24,83.6071
2012-01-25,83.8268
2012-01-26,84.1227
2012-01-27,84.2373
2012-01-30,84.3615
2012-01-31,84.1705
2012-02-01,85.2877
2012-02-02,84.5811
2012-02-03,86.4049
2012-02-06,85.8606
2012-02-07,86.0134
2012-02-08,86.5958
2012-02-09,86.9396
2012-02-10,86.233
2012-02-13,86.3667
2012-02-14,86.5958
2012-02-15,86.5194
2012-02-16,87.713
2012-02-17,87.9422
2012-02-21,87.6462
2012-02-22,86.7391
2012-02-23,87.7417
2012-02-24,87.7512
2012-02-27,87.9135
2012-02-28,87.1592
2012-02-29,86.2139
2012-03-01,87.6366
2012-03-02,87.7608
2012-03-05,86.8823
2012-03-06,84.562
2012-03-07,84.858
2012-03-08,85.9274
2012-03-09,85.3832
2012-03-12,85.2972
2012-03-13,86.6913
2012-03-14,86.9873
2012-03-15,87.4457
2012-03-16,87.5984
2012-03-19,87.8467
2012-03-20,87.0446
2012-03-21,86.825
2012-03-22,85.5073
2012-03-23,86.1566
2012-03-26,87.2069
2012-03-27,87.5507
2012-03-28,86.9396
2012-03-29,88.0257
2012-03-30,88.3141
2012-04-02,89.0642
2012-04-03,88.2757
2012-04-04,87.1314
2012-04-05,87.3621
2012-04-09,85.5255
2012-04-10,83.6023
2012-04-11,83.9869
2012-04-12,86.0063
2012-04-13,84.862
2012-04-16,85.7082
2012-04-17,86.6986
2012-04-18,85.0543
2012-04-19,85.7947
2012-04-20,86.3332
2012-04-23,85.3908
2012-04-24,81.5252
2012-04-25,82.0541
2012-04-26,82.9387
2012-04-27,82.3137
2012-04-30,82.1887
2012-05-01,82.8233
2012-05-02,82.8522
2012-05-03,83.0253
2012-05-04,82.2368
2012-05-07,82.5349
2012-05-08,82.006
2012-05-09,80.2943
2012-05-10,79.8327
2012-05-11,79.9866
2012-05-14,79.6789
2012-05-15,78.8134
2012-05-16,77.9768
2012-05-17,76.4094
2012-05-18,74.842
2012-05-21,76.9575
2012-05-22,76.7075
2012-05-23,76.4094
2012-05-24,77.3326
2012-05-25,76.8614
2012-05-29,77.9095
2012-05-30,76.1017
2012-05-31,76.0825
2012-06-01,73.9477
2012-06-04,74.5824
2012-06-05,74.6881
2012-06-06,75.7171
2012-06-07,76.9287
2012-06-08,76.4575
2012-06-11,76.0921
2012-06-12,76.3517
2012-06-13,75.1497
2012-06-14,75.3709
2012-06-15,76.4575
2012-06-18,76.5633
2012-06-19,78.448
2012-06-20,76.8998
2012-06-21,74.8228
2012-06-22,75.2651
2012-06-25,73.9381
2012-06-26,74.2939
2012-06-27,74.2169
2012-06-28,75.6519
2012-06-29,78.2311
2012-07-02,77.2324
2012-07-03,77.6784
2012-07-05,77.756
2012-07-06,77.4554
2012-07-09,77.2421
2012-07-10,76.3015
2012-07-11,76.2821
2012-07-12,75.3416
2012-07-13,77.3487
2012-07-16,77.0094
2012-07-17,77.8433
2012-07-18,79.065
2012-07-19,79.0262
2012-07-20,77.9596
2012-07-23,77.213
2012-07-24,76.5245
2012-07-25,76.4276
2012-07-26,77.5233
2012-07-27,78.7256
2012-07-30,78.8129
2012-07-31,78.0372
2012-08-01,78.8032
2012-08-02,77.9499
2012-08-03,79.7535
2012-08-06,80.2286
2012-08-07,80.694
2012-08-08,81.334
2012-08-09,81.4407
2012-08-10,81.2079
2012-08-13,81.0625
2012-08-14,80.9267
2012-08-15,81.0237
2012-08-16,82.0515
2012-08-17,81.8382
2012-08-20,81.9546
2012-08-21,81.8673
2012-08-22,82.3715
2012-08-23,80.9461
2012-08-24,80.7522
2012-08-27,80.0153
2012-08-28,79.7632
2012-08-29,79.5304
2012-08-30,79.2686
2012-08-31,80.2189
2012-09-04,79.065
2012-09-05,79.6371
2012-09-06,80.9558
2012-09-07,81.0528
2012-09-10,80.7134
2012-09-11,81.3922
2012-09-12,80.8589
2012-09-13,81.7315
2012-09-14,82.7497
2012-09-17,82.9727
2012-09-18,82.7303
2012-09-19,82.6915
2012-09-20,82.4006
2012-09-21,81.9255
2012-09-24,81.4213
2012-09-25,80.8492
2012-09-26,80.6552
2012-09-27,80.7725
2012-09-28,80.8311
2012-10-01,80.9288
2012-10-02,80.8116
2012-10-03,80.8213
2012-10-04,81.4174
2012-10-05,81.8962
2012-10-08,81.9842
2012-10-09,81.0754
2012-10-10,80.1569
2012-10-11,80.1276
2012-10-12,80.1471
2012-10-15,80.45
2012-10-16,82.6877
2012-10-17,83.0004
2012-10-18,83.4597
2012-10-19,78.1928
2012-10-22,77.069
2012-10-23,75.5056
2012-10-24,75.3688
2012-10-25,75.9355
2012-10-26,76.0821
2012-10-31,75.7792
2012-11-01,76.3655
2012-11-02,76.5218
2012-11-05,76.9029
2012-11-06,77.8605
2012-11-07,77.6944
2012-11-08,77.4501
2012-11-09,77.8508
2012-11-12,78.1244
2012-11-13,78.7497
2012-11-14,78.3589
2012-11-15,78.0853
2012-11-16,78.1635
2012-11-19,78.9354
2012-11-20,79.7171
2012-11-21,80.0103
2012-11-23,81.1438
2012-11-26,81.3979
2012-11-27,80.9386
2012-11-28,80.577
2012-11-29,80.4598
2012-11-30,81.1536
2012-12-03,79.7562
2012-12-04,79.8735
2012-12-05,80.0103
2012-12-06,80.2937
2012-12-07,81.1536
2012-12-10,81.1829
2012-12-11,81.3392
2012-12-12,80.6357
2012-12-13,81.0461
2012-12-14,80.5966
2012-12-17,81.4663
2012-12-18,82.5607
2012-12-19,81.8767
2012-12-20,83.0297
2012-12-21,82.2773
2012-12-24,83.3131
2012-12-26,83.8017
2012-12-27,82.9027
2012-12-28,81.7116
2012-12-31,82.5978
2013-01-02,84.4195
2013-01-03,84.1537
2013-01-04,85.3746
2013-01-07,85.2958
2013-01-08,85.3844
2013-01-09,86.5364
2013-01-10,86.4675
2013-01-11,86.9401
2013-01-14,86.5364
2013-01-15,86.3296
2013-01-16,85.9653
2013-01-17,87.1173
2013-01-18,87.3536
2013-01-22,87.964
2013-01-23,86.9598
2013-01-24,86.8416
2013-01-25,86.8515
2013-01-28,86.7235
2013-01-29,87.5407
2013-01-30,86.6054
2013-01-31,86.1622
2013-02-01,87.3339
2013-02-04,85.7684
2013-02-05,86.0835
2013-02-06,86.1228
2013-02-07,85.9752
2013-02-08,86.9008
2013-02-11,87.0976
2013-02-12,87.4028
2013-02-13,87.3782
2013-02-14,87.2847
2013-02-15,86.8515
2013-02-19,87.2945
2013-02-20,86.2804
2013-02-21,84.3211
2013-02-22,84.7051
2013-02-25,82.9918
2013-02-26,83.1297
2013-02-27,84.1832
2013-02-28,85.0989
2013-03-01,84.9709
2013-03-04,84.9709
2013-03-05,85.4829
2013-03-06,85.3549
2013-03-07,86.5364
2013-03-08,87.6982
2013-03-11,87.4422
2013-03-12,87.5505
2013-03-13,87.6096
2013-03-14,88.4564
2013-03-15,88.7026
2013-03-18,87.4718
2013-03-19,86.8515
2013-03-20,87.462
2013-03-21,85.8176
2013-03-22,85.9949
2013-03-25,86.1918
2013-03-26,86.5561
2013-03-27,85.5932
2013-03-28,86.4568
2013-04-01,84.8388
2013-04-02,84.3028
2013-04-03,83.7072
2013-04-04,84.7296
2013-04-05,84.5112
2013-04-08,84.9976
2013-04-09,85.3847
2013-04-10,85.613
2013-04-11,86.6454
2013-04-12,86.2384
2013-04-15,84.3028
2013-04-16,85.9009
2013-04-17,85.2557
2013-04-18,84.2234
2013-04-19,84.8487
2013-04-22,85.5833
2013-04-23,84.6006
2013-04-24,85.1267
2013-04-25,85.2756
2013-04-26,85.0373
2013-04-29,85.8711
2013-04-30,86.3079
2013-05-01,85.077
2013-05-02,88.4519
2013-05-03,89.0971
2013-05-06,88.6604
2013-05-07,89.3056
2013-05-08,90.4272
2013-05-09,90.1989
2013-05-10,90.4471
2013-05-13,90.1691
2013-05-14,90.8441
2013-05-15,91.7474
2013-05-16,92.065
2013-05-17,93.6532
2013-05-20,94.1297
2013-05-21,94.1892
2013-05-22,94.3381
2013-05-23,93.4944
2013-05-24,93.2065
2013-05-28,93.9907
2013-05-29,94.0006
2013-05-30,94.2587
2013-05-31,93.9709
2013-06-03,94.0503
2013-06-04,94.7252
2013-06-05,93.4646
2013-06-06,93.8021
2013-06-07,94.4175
2013-06-10,94.2786
2013-06-11,94.219
2013-06-12,94.1396
2013-06-13,94.6855
2013-06-14,95.6881
2013-06-17,95.827
2013-06-18,95.837
2013-06-19,95.5193
2013-06-20,93.6532
2013-06-21,93.8815
2013-06-24,92.9286
2013-06-25,93.9411
2013-06-26,95.4796
2013-06-27,92.72
2013-06-28,91.59
2013-07-01,93.5
2013-07-02,90.86
2013-07-03,91.39
2013-07-05,91.8
2013-07-08,92.32
2013-07-09,96.0
2013-07-10,96.51
2013-07-11,97.1
2013-07-12,96.6
2013-07-15,96.6
2013-07-16,95.48
2013-07-17,96.37
2013-07-18,96.74
2013-07-19,97.01
2013-07-22,97.81
2013-07-23,100.67
2013-07-24,100.57
2013-07-25,107.1
2013-07-26,104.08
2013-07-29,104.59
2013-07-30,105.63
2013-07-31,108.72
2013-08-01,107.33
2013-08-02,106.95
2013-08-05,107.87
2013-08-06,106.86
2013-08-07,106.71
2013-08-08,106.61
2013-08-09,106.67
