date,close_price
1998-01-02,18.8061
1998-01-05,18.8061
1998-01-06,18.7148
1998-01-07,18.686
1998-01-08,18.5034
1998-01-09,18.5947
1998-01-12,18.5034
1998-01-13,18.686
1998-01-14,18.6235
1998-01-15,18.3544
1998-01-16,18.3832
1998-01-20,18.6523
1998-01-21,18.412
1998-01-22,18.2631
1998-01-23,18.2631
1998-01-26,18.3544
1998-01-27,18.2919
1998-01-28,18.3544
1998-01-29,18.3255
1998-01-30,18.2054
1998-02-02,18.3544
1998-02-03,18.4457
1998-02-04,18.412
1998-02-05,18.2919
1998-02-06,18.2919
1998-02-09,18.2342
1998-02-10,18.3255
1998-02-11,18.1141
1998-02-12,18.2631
1998-02-13,18.1429
1998-02-17,18.2919
1998-02-18,18.3544
1998-02-19,18.2342
1998-02-20,17.9939
1998-02-23,18.2054
1998-02-24,18.2054
1998-02-25,18.2054
1998-02-26,18.2919
1998-02-27,18.2342
1998-03-02,17.9939
1998-03-03,17.9314
1998-03-04,17.8113
1998-03-05,17.6335
1998-03-06,17.6623
1998-03-09,17.8738
1998-03-10,17.9651
1998-03-11,17.8449
1998-03-12,17.6623
1998-03-13,17.5421
1998-03-16,17.7536
1998-03-17,17.7248
1998-03-18,17.7824
1998-03-19,17.7248
1998-03-20,17.6623
1998-03-23,17.7536
1998-03-24,17.7248
1998-03-25,17.7536
1998-03-26,17.8113
1998-03-27,17.9276
1998-03-30,17.9859
1998-03-31,17.9859
1998-04-01,18.0783
1998-04-02,18.1074
1998-04-03,18.1366
1998-04-06,17.9859
1998-04-07,18.1074
1998-04-08,18.0783
1998-04-09,18.0783
1998-04-13,18.1366
1998-04-14,18.1706
1998-04-15,18.1074
1998-04-16,18.1998
1998-04-17,18.229
1998-04-20,18.229
1998-04-21,18.1998
1998-04-22,18.1366
1998-04-23,18.1706
1998-04-24,18.1074
1998-04-27,17.9859
1998-04-28,17.9859
1998-04-29,17.9276
1998-04-30,17.9568
1998-05-01,18.1998
1998-05-04,18.229
1998-05-05,18.0491
1998-05-06,18.1074
1998-05-07,18.1998
1998-05-08,18.229
1998-05-11,18.1998
1998-05-12,18.1998
1998-05-13,18.1706
1998-05-14,18.1366
1998-05-15,18.0783
1998-05-18,18.1074
1998-05-19,18.0491
1998-05-20,17.8352
1998-05-21,17.7429
1998-05-22,17.6213
1998-05-26,17.6213
1998-05-27,17.529
1998-05-28,17.7137
1998-05-29,17.772
1998-06-01,17.9568
1998-06-02,17.9568
1998-06-03,17.9859
1998-06-04,17.8936
1998-06-05,17.6505
1998-06-08,17.6505
1998-06-09,17.7137
1998-06-10,17.529
1998-06-11,17.4998
1998-06-12,17.2568
1998-06-15,17.4415
1998-06-16,17.4706
1998-06-17,17.4706
1998-06-18,17.6845
1998-06-19,17.6845
1998-06-22,17.6505
1998-06-23,17.6213
1998-06-24,17.6845
1998-06-25,17.9276
1998-06-26,17.9917
1998-06-29,18.2086
1998-06-30,18.4846
1998-07-01,18.3022
1998-07-02,18.5487
1998-07-06,18.7607
1998-07-07,18.9184
1998-07-08,18.8247
1998-07-09,18.3022
1998-07-10,18.2382
1998-07-13,18.0853
1998-07-14,18.0213
1998-07-15,17.9917
1998-07-16,18.0213
1998-07-17,18.0558
1998-07-20,18.0558
1998-07-21,18.0213
1998-07-22,17.9917
1998-07-23,18.0213
1998-07-24,17.898
1998-07-27,17.8093
1998-07-28,17.9325
1998-07-29,17.7452
1998-07-30,17.6516
1998-07-31,17.6516
1998-08-03,17.3755
1998-08-04,16.6066
1998-08-05,16.3305
1998-08-06,16.2369
1998-08-07,16.6066
1998-08-10,16.6066
1998-08-11,16.5129
1998-08-12,16.7594
1998-08-13,16.8235
1998-08-14,16.9763
1998-08-17,17.0058
1998-08-18,17.0699
1998-08-19,17.0058
1998-08-20,17.0699
1998-08-21,17.0699
1998-08-24,16.9467
1998-08-25,16.7002
1998-08-26,16.6066
1998-08-27,16.7002
1998-08-28,16.577
1998-08-31,16.1432
1998-09-01,16.0841
1998-09-02,16.0841
1998-09-03,16.0496
1998-09-04,15.8672
1998-09-08,15.7735
1998-09-09,15.7735
1998-09-10,15.4679
1998-09-11,15.3447
1998-09-14,15.2215
1998-09-15,15.4334
1998-09-16,15.6207
1998-09-17,15.5912
1998-09-18,16.0841
1998-09-21,16.4833
1998-09-22,17.4988
1998-09-23,17.1587
1998-09-24,17.1587
1998-09-25,16.9763
1998-09-28,17.2629
1998-09-29,17.0127
1998-09-30,17.0427
1998-10-01,16.8576
1998-10-02,16.8576
1998-10-05,16.3872
1998-10-06,16.5123
1998-10-07,16.1371
1998-10-08,15.7918
1998-10-09,15.9169
1998-10-12,16.4173
1998-10-13,16.4173
1998-10-14,16.2621
1998-10-15,16.5424
1998-10-16,16.5774
1998-10-19,16.6074
1998-10-20,16.6674
1998-10-21,16.6074
1998-10-22,16.4523
1998-10-23,16.2922
1998-10-26,16.2021
1998-10-27,15.7618
1998-10-28,15.9819
1998-10-29,15.7918
1998-10-30,16.042
1998-11-02,16.3872
1998-11-03,16.7025
1998-11-04,16.5774
1998-11-05,16.6074
1998-11-06,16.4523
1998-11-09,16.5123
1998-11-10,16.5424
1998-11-11,16.3272
1998-11-12,16.3872
1998-11-13,16.3272
1998-11-16,16.3872
1998-11-17,16.5123
1998-11-18,16.6374
1998-11-19,16.5774
1998-11-20,16.5123
1998-11-23,16.6074
1998-11-24,16.9527
1998-11-25,17.0127
1998-11-27,16.9527
1998-11-30,17.0127
1998-12-01,16.7025
1998-12-02,17.0778
1998-12-03,16.9176
1998-12-04,16.9527
1998-12-07,17.0127
1998-12-08,16.7925
1998-12-09,16.8876
1998-12-10,16.7625
1998-12-11,16.8276
1998-12-14,17.0127
1998-12-15,16.8576
1998-12-16,16.8276
1998-12-17,16.9176
1998-12-18,16.8576
1998-12-21,16.8276
1998-12-22,16.7925
1998-12-23,16.7625
1998-12-24,16.7925
1998-12-28,16.7325
1998-12-29,16.8641
1998-12-30,17.0521
1998-12-31,17.2147
1999-01-04,17.2452
1999-01-05,17.2452
1999-01-06,17.2452
1999-01-07,17.2452
1999-01-08,17.1792
1999-01-11,17.2452
1999-01-12,17.1792
1999-01-13,17.0521
1999-01-14,17.0877
1999-01-15,17.1182
1999-01-19,17.1182
1999-01-20,17.2757
1999-01-21,17.2757
1999-01-22,17.1487
1999-01-25,16.9912
1999-01-26,16.7676
1999-01-27,16.7371
1999-01-28,16.6711
1999-01-29,16.3256
1999-02-01,16.6711
1999-02-02,16.7371
1999-02-03,16.6406
1999-02-04,16.6101
1999-02-05,16.544
1999-02-08,16.4526
1999-02-09,16.5135
1999-02-10,16.356
1999-02-11,16.2595
1999-02-12,16.3256
1999-02-16,16.3865
1999-02-17,16.2595
1999-02-18,16.0359
1999-02-19,16.0054
1999-02-22,16.0054
1999-02-23,16.1985
1999-02-24,16.229
1999-02-25,16.0359
1999-02-26,16.0054
1999-03-01,15.9089
1999-03-02,16.0054
1999-03-03,16.0715
1999-03-04,16.0054
1999-03-05,16.2595
1999-03-08,16.1985
1999-03-09,16.0715
1999-03-10,16.0715
1999-03-11,16.0715
1999-03-12,16.0359
1999-03-15,16.163
1999-03-16,16.163
1999-03-17,16.229
1999-03-18,16.229
1999-03-19,16.102
1999-03-22,15.8174
1999-03-23,15.8479
1999-03-24,15.975
1999-03-25,16.0359
1999-03-26,15.8784
1999-03-29,16.102
1999-03-30,16.3659
1999-03-31,16.2368
1999-04-01,16.2678
1999-04-05,16.2368
1999-04-06,16.0406
1999-04-07,16.1387
1999-04-08,16.1697
1999-04-09,16.2678
1999-04-12,16.2988
1999-04-13,16.3969
1999-04-14,16.3969
1999-04-15,16.6241
1999-04-16,17.4298
1999-04-19,17.688
1999-04-20,17.626
1999-04-21,18.0753
1999-04-22,18.2716
1999-04-23,18.3335
1999-04-26,18.2044
1999-04-27,17.8842
1999-04-28,18.0443
1999-04-29,18.0133
1999-04-30,18.0753
1999-05-03,18.0753
1999-05-04,17.9462
1999-05-05,17.7861
1999-05-06,17.8481
1999-05-07,18.1425
1999-05-10,18.5918
1999-05-11,18.5918
1999-05-12,18.5918
1999-05-13,18.6899
1999-05-14,18.4626
1999-05-17,18.3026
1999-05-18,18.3335
1999-05-19,18.3335
1999-05-20,18.4317
1999-05-21,18.4936
1999-05-24,18.5608
1999-05-25,18.5918
1999-05-26,18.4936
1999-05-27,18.3645
1999-05-28,18.2716
1999-06-01,18.0133
1999-06-02,17.9152
1999-06-03,18.0133
1999-06-04,18.1734
1999-06-07,18.1425
1999-06-08,18.0753
1999-06-09,18.0133
1999-06-10,17.9462
1999-06-11,18.1063
1999-06-14,18.0753
1999-06-15,18.0753
1999-06-16,18.4626
1999-06-17,18.5918
1999-06-18,18.4317
1999-06-21,18.4626
1999-06-22,18.3335
1999-06-23,18.0443
1999-06-24,17.8842
1999-06-25,18.0443
1999-06-28,18.2445
1999-06-29,18.1501
1999-06-30,18.3441
1999-07-01,18.5432
1999-07-02,18.5065
1999-07-06,18.3126
1999-07-07,17.9824
1999-07-08,17.7885
1999-07-09,17.951
1999-07-12,17.9195
1999-07-13,17.7204
1999-07-14,17.5579
1999-07-15,17.3273
1999-07-16,17.495
1999-07-19,17.6575
1999-07-20,17.8881
1999-07-21,18.213
1999-07-22,18.1134
1999-07-23,18.0191
1999-07-26,17.8514
1999-07-27,17.951
1999-07-28,17.8199
1999-07-29,17.7885
1999-07-30,17.7204
1999-08-02,17.7885
1999-08-03,17.757
1999-08-04,17.757
1999-08-05,17.7204
1999-08-06,17.7885
1999-08-09,17.8514
1999-08-10,17.8514
1999-08-11,17.8514
1999-08-12,18.0191
1999-08-13,17.9824
1999-08-16,17.9824
1999-08-17,18.1816
1999-08-18,18.213
1999-08-19,18.213
1999-08-20,18.3441
1999-08-23,18.4751
1999-08-24,18.4122
1999-08-25,18.1816
1999-08-26,18.2812
1999-08-27,18.4122
1999-08-30,18.3126
1999-08-31,18.3441
1999-09-01,18.3755
1999-09-02,18.5747
1999-09-03,18.6743
1999-09-07,18.6743
1999-09-08,18.6061
1999-09-09,18.6061
1999-09-10,18.5747
1999-09-13,18.6061
1999-09-14,18.5747
1999-09-15,18.5065
1999-09-16,18.5065
1999-09-17,18.5432
1999-09-20,18.3755
1999-09-21,18.213
1999-09-22,17.8881
1999-09-23,17.757
1999-09-24,17.6575
1999-09-27,17.495
1999-09-28,17.602
1999-09-29,17.602
1999-09-30,17.9694
1999-10-01,17.9694
1999-10-04,18.0386
1999-10-05,18.1345
1999-10-06,18.3368
1999-10-07,17.8044
1999-10-08,17.8044
1999-10-11,17.9694
1999-10-12,17.8044
1999-10-13,17.7351
1999-10-14,17.3358
1999-10-15,16.5372
1999-10-18,16.7076
1999-10-19,16.7395
1999-10-20,16.9365
1999-10-21,16.7715
1999-10-22,16.8726
1999-10-25,16.8407
1999-10-26,16.8726
1999-10-27,16.9046
1999-10-28,16.9738
1999-10-29,17.24
1999-11-01,17.5381
1999-11-02,17.6713
1999-11-03,17.6393
1999-11-04,17.5381
1999-11-05,17.5062
1999-11-08,17.3358
1999-11-09,17.5701
1999-11-10,17.5701
1999-11-11,17.437
1999-11-12,17.2719
1999-11-15,16.8407
1999-11-16,16.8726
1999-11-17,17.1069
1999-11-18,17.0377
1999-11-19,17.1708
1999-11-22,17.1708
1999-11-23,17.0377
1999-11-24,17.0377
1999-11-26,17.0377
1999-11-29,16.9738
1999-11-30,16.9738
1999-12-01,17.24
1999-12-02,17.0696
1999-12-03,17.2027
1999-12-06,17.0057
1999-12-07,17.0057
1999-12-08,17.0057
1999-12-09,17.0057
1999-12-10,17.0696
1999-12-13,16.7715
1999-12-14,16.6383
1999-12-15,16.7395
1999-12-16,16.6383
1999-12-17,17.602
1999-12-20,17.8044
1999-12-21,17.8363
1999-12-22,17.8683
1999-12-23,18.2676
1999-12-27,18.1025
1999-12-28,18.6349
1999-12-29,18.6133
1999-12-30,18.6133
1999-12-31,18.716
2000-01-03,18.3431
2000-01-04,17.9053
2000-01-05,18.0404
2000-01-06,18.6458
2000-01-07,19.1538
2000-01-10,19.424
2000-01-11,19.0511
2000-01-12,18.9484
2000-01-13,18.916
2000-01-14,18.916
2000-01-18,18.6458
2000-01-19,19.2186
2000-01-20,19.0511
2000-01-21,19.0511
2000-01-24,19.0511
2000-01-25,19.0187
2000-01-26,18.9862
2000-01-27,19.0187
2000-01-28,18.7484
2000-01-31,18.716
2000-02-01,18.6458
2000-02-02,18.6133
2000-02-03,18.5809
2000-02-04,18.6133
2000-02-07,18.6133
2000-02-08,18.5809
2000-02-09,18.5431
2000-02-10,18.5106
2000-02-11,18.5106
2000-02-14,18.5431
2000-02-15,18.5106
2000-02-16,18.408
2000-02-17,18.5106
2000-02-18,18.4458
2000-02-22,18.408
2000-02-23,18.3431
2000-02-24,18.3431
2000-02-25,18.3431
2000-02-28,18.2404
2000-02-29,18.1756
2000-03-01,18.5106
2000-03-02,18.408
2000-03-03,18.4782
2000-03-06,18.4458
2000-03-07,18.5809
2000-03-08,18.408
2000-03-09,18.3431
2000-03-10,18.6133
2000-03-13,18.4782
2000-03-14,18.3755
2000-03-15,18.5106
2000-03-16,18.7484
2000-03-17,18.8133
2000-03-20,19.0187
2000-03-21,19.0511
2000-03-22,19.0511
2000-03-23,19.4564
2000-03-24,19.2889
2000-03-27,19.3213
2000-03-28,19.4564
2000-03-29,19.7267
2000-03-30,19.9682
2000-03-31,20.1054
2000-04-03,20.034
2000-04-04,20.034
2000-04-05,20.1713
2000-04-06,20.3085
2000-04-07,20.55
2000-04-10,20.5829
2000-04-11,20.7531
2000-04-12,20.6543
2000-04-13,20.7915
2000-04-14,20.7531
2000-04-17,20.1383
2000-04-18,20.7915
2000-04-19,20.8573
2000-04-20,20.8573
2000-04-24,20.8244
2000-04-25,20.8903
2000-04-26,20.9946
2000-04-27,21.3019
2000-04-28,21.4392
2000-05-01,21.5764
2000-05-02,21.8508
2000-05-03,21.9551
2000-05-04,21.988
2000-05-05,22.0594
2000-05-08,22.0923
2000-05-09,22.2295
2000-05-10,22.0923
2000-05-11,22.0594
2000-05-12,22.3338
2000-05-15,22.4381
2000-05-16,22.3668
2000-05-17,22.2295
2000-05-18,22.2625
2000-05-19,22.1253
2000-05-22,22.1637
2000-05-23,22.1637
2000-05-24,22.0923
2000-05-25,21.8892
2000-05-26,21.8892
2000-05-30,21.8508
2000-05-31,21.8892
2000-06-01,21.785
2000-06-02,21.9222
2000-06-05,21.9222
2000-06-06,21.9551
2000-06-07,22.1966
2000-06-08,22.4381
2000-06-09,22.471
2000-06-12,22.7126
2000-06-13,22.7784
2000-06-14,23.2614
2000-06-15,23.223
2000-06-16,22.8114
2000-06-19,22.9486
2000-06-20,22.9486
2000-06-21,22.8827
2000-06-22,22.8827
2000-06-23,22.8114
2000-06-26,23.0529
2000-06-27,23.1242
2000-06-28,23.2972
2000-06-29,23.5364
2000-06-30,22.9801
2000-07-03,23.3472
2000-07-05,23.8145
2000-07-06,24.0593
2000-07-07,23.9925
2000-07-10,24.0259
2000-07-11,24.0593
2000-07-12,24.1316
2000-07-13,23.9925
2000-07-14,24.1316
2000-07-17,23.9536
2000-07-18,24.165
2000-07-19,24.1984
2000-07-20,25.0328
2000-07-21,25.3443
2000-07-24,25.4834
2000-07-25,25.5223
2000-07-26,26.1787
2000-07-27,26.3901
2000-07-28,26.2844
2000-07-31,26.0786
2000-08-01,26.4235
2000-08-02,26.5292
2000-08-03,26.4235
2000-08-04,26.1453
2000-08-07,26.0397
2000-08-08,25.9729
2000-08-09,26.1453
2000-08-10,26.0397
2000-08-11,26.0063
2000-08-14,25.9729
2000-08-15,25.9395
2000-08-16,26.0397
2000-08-17,25.9729
2000-08-18,25.6948
2000-08-21,25.5891
2000-08-22,25.5557
2000-08-23,25.2442
2000-08-24,24.9271
2000-08-25,25.0328
2000-08-28,24.9994
2000-08-29,24.5099
2000-08-30,25.2052
2000-08-31,24.827
2000-09-01,24.827
2000-09-05,24.8603
2000-09-06,25.2775
2000-09-07,25.3832
2000-09-08,25.6948
2000-09-11,25.9729
2000-09-12,26.1453
2000-09-13,26.1787
2000-09-14,26.1453
2000-09-15,26.251
2000-09-18,26.1453
2000-09-19,26.1787
2000-09-20,26.2177
2000-09-21,26.2177
2000-09-22,26.2844
2000-09-25,26.0397
2000-09-26,26.2844
2000-09-27,27.0223
2000-09-28,26.9548
2000-09-29,26.7746
2000-10-02,26.2117
2000-10-03,26.3186
2000-10-04,25.7557
2000-10-05,25.8964
2000-10-06,25.8626
2000-10-09,25.8288
2000-10-10,25.8626
2000-10-11,25.7557
2000-10-12,25.2997
2000-10-13,25.1927
2000-10-16,25.1589
2000-10-17,25.4066
2000-10-18,25.3672
2000-10-19,25.6881
2000-10-20,25.7894
2000-10-23,25.7219
2000-10-24,25.2997
2000-10-25,25.1927
2000-10-26,25.5474
2000-10-27,25.8288
2000-10-30,25.7219
2000-10-31,25.8288
2000-11-01,25.7894
2000-11-02,25.7894
2000-11-03,25.6881
2000-11-06,25.8288
2000-11-07,25.8626
2000-11-08,25.7557
2000-11-09,25.6881
2000-11-10,25.4742
2000-11-13,25.508
2000-11-14,25.7219
2000-11-15,25.8964
2000-11-16,25.9696
2000-11-17,26.0034
2000-11-20,25.8626
2000-11-21,25.8626
2000-11-22,25.7219
2000-11-24,25.5811
2000-11-27,25.5474
2000-11-28,25.6487
2000-11-29,25.7557
2000-11-30,26.3186
2000-12-01,26.2511
2000-12-04,26.3918
2000-12-05,26.9886
2000-12-06,26.8816
2000-12-07,26.9154
2000-12-08,27.1631
2000-12-11,27.4446
2000-12-12,27.3376
2000-12-13,27.27
2000-12-14,27.4783
2000-12-15,27.4783
2000-12-18,28.2214
2000-12-19,28.2214
2000-12-20,27.94
2000-12-21,27.6191
2000-12-22,26.8816
2000-12-26,27.1631
2000-12-27,28.0174
2000-12-28,28.4104
2000-12-29,28.4104
2001-01-02,28.194
2001-01-03,28.194
2001-01-04,28.0516
2001-01-05,27.3738
2001-01-08,27.1289
2001-01-09,27.3738
2001-01-10,27.1972
2001-01-11,27.2314
2001-01-12,27.0548
2001-01-16,26.6618
2001-01-17,26.8783
2001-01-18,27.0207
2001-01-19,27.0548
2001-01-22,26.8042
2001-01-23,26.8783
2001-01-24,26.5194
2001-01-25,26.9865
2001-01-26,26.7359
2001-01-29,26.9238
2001-01-30,27.4934
2001-01-31,27.5333
2001-02-01,27.4934
2001-02-02,27.3396
2001-02-05,27.3169
2001-02-06,27.0548
2001-02-07,26.4739
2001-02-08,26.3714
2001-02-09,26.2005
2001-02-12,25.9897
2001-02-13,26.1663
2001-02-14,26.3486
2001-02-15,26.434
2001-02-16,26.4283
2001-02-20,26.3714
2001-02-21,26.172
2001-02-22,25.9442
2001-02-23,26.3372
2001-02-26,26.4853
2001-02-27,26.7985
2001-02-28,26.9694
2001-03-01,27.4251
2001-03-02,27.8181
2001-03-05,28.0231
2001-03-06,27.7383
2001-03-07,27.7896
2001-03-08,27.7611
2001-03-09,27.8124
2001-03-12,27.7896
2001-03-13,27.8295
2001-03-14,27.801
2001-03-15,27.6529
2001-03-16,27.7213
2001-03-19,27.7554
2001-03-20,27.9605
2001-03-21,27.3169
2001-03-22,27.015
2001-03-23,26.9694
2001-03-26,27.4194
2001-03-27,27.1915
2001-03-28,26.6431
2001-03-29,26.5796
2001-03-30,26.4872
2001-04-02,26.3775
2001-04-03,25.8926
2001-04-04,25.6617
2001-04-05,25.8984
2001-04-06,25.5116
2001-04-09,25.4942
2001-04-10,25.3557
2001-04-11,24.8188
2001-04-12,24.7668
2001-04-16,24.7322
2001-04-17,24.8246
2001-04-18,25.4596
2001-04-19,25.4019
2001-04-20,25.2171
2001-04-23,25.0843
2001-04-24,25.5231
2001-04-25,25.6732
2001-04-26,26.112
2001-04-27,26.1812
2001-04-30,26.2852
2001-05-01,26.2043
2001-05-02,26.008
2001-05-03,26.0831
2001-05-04,26.0773
2001-05-07,25.9272
2001-05-08,26.0023
2001-05-09,25.806
2001-05-10,25.6328
2001-05-11,25.5577
2001-05-14,25.4885
2001-05-15,25.6097
2001-05-16,25.6328
2001-05-17,26.0369
2001-05-18,26.2678
2001-05-21,26.314
2001-05-22,26.3775
2001-05-23,26.747
2001-05-24,26.9144
2001-05-25,27.0126
2001-05-29,26.7874
2001-05-30,26.5854
2001-05-31,26.6027
2001-06-01,26.6142
2001-06-04,26.7874
2001-06-05,26.8798
2001-06-06,26.9548
2001-06-07,26.9491
2001-06-08,26.8856
2001-06-11,26.8047
2001-06-12,26.747
2001-06-13,26.8452
2001-06-14,26.7643
2001-06-15,26.6546
2001-06-18,26.4872
2001-06-19,26.5276
2001-06-20,26.8452
2001-06-21,27.2781
2001-06-22,27.2551
2001-06-25,26.9895
2001-06-26,27.1396
2001-06-27,27.2387
2001-06-28,27.5021
2001-06-29,27.543
2001-07-02,27.8181
2001-07-03,27.8415
2001-07-05,27.8123
2001-07-06,28.0054
2001-07-09,27.8298
2001-07-10,27.783
2001-07-11,27.6133
2001-07-12,27.5372
2001-07-13,27.8006
2001-07-16,27.5372
2001-07-17,27.5079
2001-07-18,27.6894
2001-07-19,27.625
2001-07-20,27.6016
2001-07-23,27.6133
2001-07-24,27.5899
2001-07-25,27.8883
2001-07-26,27.9469
2001-07-27,27.982
2001-07-30,27.9761
2001-07-31,28.0054
2001-08-01,28.2805
2001-08-02,28.3858
2001-08-03,28.6726
2001-08-06,28.7838
2001-08-07,28.8248
2001-08-08,28.9594
2001-08-09,28.8423
2001-08-10,29.1994
2001-08-13,29.094
2001-08-14,29.2579
2001-08-15,29.2579
2001-08-16,29.2579
2001-08-17,29.2637
2001-08-20,29.4042
2001-08-21,29.9778
2001-08-22,29.9075
2001-08-23,30.3524
2001-08-24,29.8783
2001-08-27,29.7203
2001-08-28,29.9075
2001-08-29,29.7729
2001-08-30,29.6442
2001-08-31,29.5505
2001-09-04,29.1935
2001-09-05,29.0706
2001-09-06,28.6785
2001-09-07,28.7838
2001-09-10,28.6609
2001-09-17,27.783
2001-09-18,28.1634
2001-09-19,27.5079
2001-09-20,26.7178
2001-09-21,26.074
2001-09-24,26.1384
2001-09-25,26.5715
2001-09-26,27.4787
2001-09-27,27.7462
2001-09-28,28.2327
2001-10-01,28.3811
2001-10-02,28.2624
2001-10-03,27.046
2001-10-04,27.5919
2001-10-05,27.8174
2001-10-08,27.6037
2001-10-09,27.5919
2001-10-10,27.669
2001-10-11,27.9301
2001-10-12,27.9182
2001-10-15,28.2031
2001-10-16,28.1971
2001-10-17,28.0132
2001-10-18,27.5503
2001-10-19,27.2062
2001-10-22,26.7552
2001-10-23,26.6425
2001-10-24,26.4051
2001-10-25,26.5475
2001-10-26,26.8086
2001-10-29,26.9807
2001-10-30,26.7374
2001-10-31,26.8561
2001-11-01,27.3664
2001-11-02,26.9154
2001-11-05,27.0044
2001-11-06,27.5919
2001-11-07,27.3664
2001-11-08,27.5325
2001-11-09,27.5563
2001-11-12,27.6453
2001-11-13,28.3099
2001-11-14,28.0962
2001-11-15,28.2565
2001-11-16,28.2446
2001-11-19,28.4819
2001-11-20,28.5116
2001-11-21,28.4819
2001-11-23,28.5709
2001-11-26,28.4819
2001-11-27,28.4938
2001-11-28,28.5472
2001-11-29,28.5472
2001-11-30,28.654
2001-12-03,28.387
2001-12-04,28.7727
2001-12-05,29.0812
2001-12-06,29.3186
2001-12-07,29.3779
2001-12-10,29.2415
2001-12-11,29.2237
2001-12-12,28.7727
2001-12-13,28.654
2001-12-14,28.6362
2001-12-17,28.6006
2001-12-18,28.7786
2001-12-19,28.7074
2001-12-20,28.1437
2001-12-21,28.1675
2001-12-24,28.1022
2001-12-26,28.1793
2001-12-27,28.3838
2001-12-28,28.486
2001-12-31,28.4559
2002-01-02,28.2815
2002-01-03,28.6063
2002-01-04,28.5221
2002-01-07,28.4259
2002-01-08,28.4439
2002-01-09,28.3777
2002-01-10,28.1191
2002-01-11,27.8124
2002-01-14,27.7402
2002-01-15,27.6439
2002-01-16,27.6199
2002-01-17,27.5116
2002-01-18,27.3372
2002-01-22,27.3312
2002-01-23,27.2409
2002-01-24,27.1567
2002-01-25,27.0966
2002-01-28,26.85
2002-01-29,26.7538
2002-01-30,26.8259
2002-01-31,27.0786
2002-02-01,27.3372
2002-02-04,27.6079
2002-02-05,27.6439
2002-02-06,27.7582
2002-02-07,27.5657
2002-02-08,27.6139
2002-02-11,27.8545
2002-02-12,27.3432
2002-02-13,27.5357
2002-02-14,27.8063
2002-02-15,27.6018
2002-02-19,27.4635
2002-02-20,27.6379
2002-02-21,27.4394
2002-02-22,27.7161
2002-02-25,27.9026
2002-02-26,27.9988
2002-02-27,27.9026
2002-02-28,27.7883
2002-03-01,28.2214
2002-03-04,28.5161
2002-03-05,29.1777
2002-03-06,29.4724
2002-03-07,29.4965
2002-03-08,29.4544
2002-03-11,29.3582
2002-03-12,29.31
2002-03-13,29.5025
2002-03-14,29.8875
2002-03-15,30.1341
2002-03-18,30.0859
2002-03-19,30.1341
2002-03-20,30.104
2002-03-21,30.4649
2002-03-22,30.2604
2002-03-25,30.122
2002-03-26,30.2183
2002-03-27,30.5598
2002-03-28,30.4195
2002-04-01,30.4195
2002-04-02,30.7366
2002-04-03,30.6269
2002-04-04,30.6512
2002-04-05,30.6146
2002-04-08,30.8464
2002-04-09,31.1697
2002-04-10,31.6577
2002-04-11,31.6272
2002-04-12,31.8102
2002-04-15,31.6455
2002-04-16,31.1026
2002-04-17,30.4073
2002-04-18,30.2609
2002-04-19,30.4317
2002-04-22,30.2731
2002-04-23,28.925
2002-04-24,29.1202
2002-04-25,29.0958
2002-04-26,28.9128
2002-04-29,28.8091
2002-04-30,29.0775
2002-05-01,28.498
2002-05-02,28.6627
2002-05-03,28.7725
2002-05-06,28.6688
2002-05-07,28.4492
2002-05-08,28.3638
2002-05-09,28.3028
2002-05-10,28.1199
2002-05-13,28.1199
2002-05-14,28.2723
2002-05-15,28.4675
2002-05-16,28.1443
2002-05-17,28.2357
2002-05-20,28.1016
2002-05-21,27.9064
2002-05-22,27.8759
2002-05-23,28.4187
2002-05-24,28.376
2002-05-28,28.6932
2002-05-29,29.1324
2002-05-30,28.9738
2002-05-31,28.8884
2002-06-03,29.0348
2002-06-04,29.1568
2002-06-05,29.0409
2002-06-06,29.1141
2002-06-07,28.8091
2002-06-10,28.6871
2002-06-11,28.4858
2002-06-12,28.4797
2002-06-13,28.254
2002-06-14,28.2052
2002-06-17,28.0528
2002-06-18,27.943
2002-06-19,28.0894
2002-06-20,28.2845
2002-06-21,28.6261
2002-06-24,28.4065
2002-06-25,28.8091
2002-06-26,28.8514
2002-06-27,29.0
2002-06-28,28.7523
2002-07-01,28.5975
2002-07-02,28.5728
2002-07-03,28.2384
2002-07-05,28.2942
2002-07-08,28.0527
2002-07-09,27.8608
2002-07-10,27.5141
2002-07-11,27.2416
2002-07-12,27.254
2002-07-15,27.2416
2002-07-16,27.5203
2002-07-17,27.3655
2002-07-18,26.8083
2002-07-19,26.1086
2002-07-22,25.7372
2002-07-23,25.1057
2002-07-24,25.3223
2002-07-25,25.5329
2002-07-26,26.313
2002-07-29,26.9321
2002-07-30,27.5141
2002-07-31,27.7184
2002-08-01,27.5512
2002-08-02,27.5512
2002-08-05,27.0002
2002-08-06,27.124
2002-08-07,27.6688
2002-08-08,27.7865
2002-08-09,27.4831
2002-08-12,28.0156
2002-08-13,27.836
2002-08-14,27.6379
2002-08-15,27.7493
2002-08-16,27.8546
2002-08-19,27.6193
2002-08-20,27.2416
2002-08-21,27.4336
2002-08-22,27.2912
2002-08-23,27.4274
2002-08-26,27.7741
2002-08-27,27.6936
2002-08-28,27.7865
2002-08-29,27.7989
2002-08-30,28.0156
2002-09-03,27.7927
2002-09-04,27.7369
2002-09-05,27.7369
2002-09-06,27.8236
2002-09-09,27.7555
2002-09-10,27.8546
2002-09-11,27.7865
2002-09-12,27.706
2002-09-13,27.5822
2002-09-16,27.5822
2002-09-17,27.2416
2002-09-18,27.1488
2002-09-19,27.0064
2002-09-20,26.963
2002-09-23,26.9383
2002-09-24,26.8083
2002-09-25,26.1582
2002-09-26,26.4492
2002-09-27,26.31
2002-09-30,26.1904
2002-10-01,26.1274
2002-10-02,25.8379
2002-10-03,25.8064
2002-10-04,25.5735
2002-10-07,25.2714
2002-10-08,24.365
2002-10-09,23.1502
2002-10-10,23.7545
2002-10-11,24.3776
2002-10-14,24.1384
2002-10-15,24.044
2002-10-16,23.8804
2002-10-17,24.0377
2002-10-18,24.0126
2002-10-21,23.8237
2002-10-22,23.4146
2002-10-23,23.2573
2002-10-24,23.5027
2002-10-25,23.8678
2002-10-28,23.7923
2002-10-29,23.6538
2002-10-30,23.6727
2002-10-31,23.8489
2002-11-01,24.0881
2002-11-04,24.3587
2002-11-05,24.2329
2002-11-06,24.5602
2002-11-07,24.4154
2002-11-08,24.4406
2002-11-11,24.2769
2002-11-12,24.5161
2002-11-13,24.1699
2002-11-14,24.3902
2002-11-15,24.2895
2002-11-18,24.2769
2002-11-19,24.2769
2002-11-20,24.2392
2002-11-21,24.4532
2002-11-22,24.9441
2002-11-25,24.8056
2002-11-26,24.8686
2002-11-27,25.0196
2002-11-29,24.9252
2002-12-02,25.0008
2002-12-03,25.0008
2002-12-04,25.0511
2002-12-05,24.9882
2002-12-06,25.0196
2002-12-09,24.6986
2002-12-10,24.5224
2002-12-11,24.3776
2002-12-12,24.4972
2002-12-13,24.4343
2002-12-16,24.6609
2002-12-17,24.579
2002-12-18,24.5728
2002-12-19,24.5161
2002-12-20,23.9811
2002-12-23,24.1322
2002-12-24,24.4846
2002-12-26,24.5539
2002-12-27,24.7526
2002-12-30,24.9577
2002-12-31,25.0858
2003-01-02,25.2525
2003-01-03,25.6114
2003-01-06,25.7844
2003-01-07,25.2461
2003-01-08,25.1948
2003-01-09,25.2332
2003-01-10,25.0987
2003-01-13,25.0025
2003-01-14,24.9641
2003-01-15,24.7654
2003-01-16,24.4577
2003-01-17,24.0732
2003-01-21,23.4835
2003-01-22,23.2143
2003-01-23,23.5861
2003-01-24,23.3938
2003-01-27,23.0156
2003-01-28,23.3425
2003-01-29,23.5989
2003-01-30,23.522
2003-01-31,23.5412
2003-02-03,23.3041
2003-02-04,23.3361
2003-02-05,23.3489
2003-02-06,23.2912
2003-02-07,23.2079
2003-02-10,23.4194
2003-02-11,23.1438
2003-02-12,23.0861
2003-02-13,23.1374
2003-02-14,22.99
2003-02-18,23.381
2003-02-19,23.4579
2003-02-20,23.4899
2003-02-21,23.6758
2003-02-24,23.4002
2003-02-25,23.4451
2003-02-26,23.4258
2003-02-27,23.4899
2003-02-28,23.5092
2003-03-03,23.5156
2003-03-04,23.1438
2003-03-05,23.131
2003-03-06,23.0477
2003-03-07,23.0028
2003-03-10,22.6888
2003-03-11,22.7144
2003-03-12,22.7336
2003-03-13,22.9451
2003-03-14,22.9131
2003-03-17,23.2784
2003-03-18,23.2015
2003-03-19,23.3682
2003-03-20,23.8937
2003-03-21,24.3231
2003-03-24,23.7143
2003-03-25,24.0091
2003-03-26,24.227
2003-03-27,24.2142
2003-03-28,24.0845
2003-03-31,24.1303
2003-04-01,24.5613
2003-04-02,24.7441
2003-04-03,24.6788
2003-04-04,24.816
2003-04-07,25.0119
2003-04-08,24.8813
2003-04-09,24.829
2003-04-10,24.6854
2003-04-11,24.5352
2003-04-14,24.8421
2003-04-15,25.149
2003-04-16,25.2862
2003-04-17,25.5343
2003-04-21,25.6976
2003-04-22,26.0829
2003-04-23,26.2527
2003-04-24,25.9523
2003-04-25,25.8608
2003-04-28,25.8478
2003-04-29,26.1221
2003-04-30,26.0633
2003-05-01,26.2135
2003-05-02,26.2527
2003-05-05,26.3702
2003-05-06,26.5988
2003-05-07,26.4747
2003-05-08,26.6249
2003-05-09,26.7098
2003-05-12,27.3498
2003-05-13,27.6241
2003-05-14,27.4608
2003-05-15,27.598
2003-05-16,27.82
2003-05-19,27.7155
2003-05-20,27.9506
2003-05-21,28.1792
2003-05-22,28.14
2003-05-23,28.0812
2003-05-27,27.9767
2003-05-28,27.5784
2003-05-29,26.9057
2003-05-30,27.2323
2003-06-02,27.7025
2003-06-03,27.9375
2003-06-04,28.2575
2003-06-05,28.3294
2003-06-06,28.9628
2003-06-09,28.3816
2003-06-10,28.6755
2003-06-11,28.891
2003-06-12,28.7408
2003-06-13,28.2771
2003-06-16,28.4861
2003-06-17,28.3947
2003-06-18,28.0878
2003-06-19,27.8461
2003-06-20,27.6894
2003-06-23,27.4543
2003-06-24,27.6763
2003-06-25,27.8527
2003-06-26,28.4861
2003-06-27,28.4657
2003-06-30,28.2931
2003-07-01,28.844
2003-07-02,29.2687
2003-07-03,29.5342
2003-07-07,29.3351
2003-07-08,29.355
2003-07-09,29.0364
2003-07-10,28.6249
2003-07-11,28.7378
2003-07-14,29.0962
2003-07-15,28.9502
2003-07-16,28.8705
2003-07-17,28.2068
2003-07-18,28.4059
2003-07-21,28.6316
2003-07-22,28.7444
2003-07-23,28.8307
2003-07-24,29.1957
2003-07-25,29.5276
2003-07-28,29.6271
2003-07-29,29.6869
2003-07-30,30.397
2003-07-31,31.1868
2003-08-01,31.3262
2003-08-04,31.3527
2003-08-05,31.5054
2003-08-06,31.5983
2003-08-07,31.6381
2003-08-08,31.3793
2003-08-11,31.3594
2003-08-12,31.3594
2003-08-13,30.5496
2003-08-14,30.6426
2003-08-15,30.5364
2003-08-18,30.5297
2003-08-19,30.543
2003-08-20,30.5364
2003-08-21,30.5696
2003-08-22,30.324
2003-08-25,29.866
2003-08-26,30.3638
2003-08-27,30.7222
2003-08-28,30.6426
2003-08-29,30.7089
2003-09-02,31.293
2003-09-03,31.6182
2003-09-04,31.3063
2003-09-05,31.1735
2003-09-08,31.5385
2003-09-09,31.3328
2003-09-10,31.0142
2003-09-11,31.0872
2003-09-12,31.1337
2003-09-15,30.9943
2003-09-16,31.0474
2003-09-17,30.9877
2003-09-18,31.0541
2003-09-19,31.4921
2003-09-22,31.3793
2003-09-23,31.4589
2003-09-24,31.5916
2003-09-25,31.1602
2003-09-26,31.1602
2003-09-29,31.3288
2003-09-30,31.605
2003-10-01,31.5242
2003-10-02,31.6657
2003-10-03,31.9688
2003-10-06,32.3798
2003-10-07,32.1777
2003-10-08,32.2316
2003-10-09,32.3192
2003-10-10,32.3596
2003-10-13,32.3394
2003-10-14,32.4405
2003-10-15,32.0632
2003-10-16,31.9958
2003-10-17,31.3625
2003-10-20,31.1469
2003-10-21,31.0458
2003-10-22,30.8235
2003-10-23,30.8235
2003-10-24,30.4125
2003-10-27,30.7898
2003-10-28,30.4866
2003-10-29,30.4192
2003-10-30,30.9515
2003-10-31,30.7628
2003-11-03,30.9043
2003-11-04,31.4299
2003-11-05,31.3086
2003-11-06,31.6657
2003-11-07,31.5646
2003-11-10,31.3692
2003-11-11,31.0256
2003-11-12,31.4972
2003-11-13,31.632
2003-11-14,31.9688
2003-11-17,31.6589
2003-11-18,31.6657
2003-11-19,31.6252
2003-11-20,31.4231
2003-11-21,31.1267
2003-11-24,31.2951
2003-11-25,31.861
2003-11-26,32.1171
2003-11-28,32.2046
2003-12-01,32.7504
2003-12-02,32.9323
2003-12-03,32.5011
2003-12-04,32.4539
2003-12-05,32.4405
2003-12-08,32.5415
2003-12-09,33.0131
2003-12-10,32.7099
2003-12-11,33.067
2003-12-12,33.2624
2003-12-15,33.2287
2003-12-16,33.35
2003-12-17,33.2355
2003-12-18,33.35
2003-12-19,33.1681
2003-12-22,33.222
2003-12-23,32.9862
2003-12-24,32.9794
2003-12-26,32.9794
2003-12-29,33.0751
2003-12-30,33.1982
2003-12-31,32.7265
2004-01-02,32.419
2004-01-05,32.3779
2004-01-06,32.4395
2004-01-07,32.0704
2004-01-08,32.501
2004-01-09,32.8086
2004-01-12,32.7539
2004-01-13,32.5557
2004-01-14,32.6924
2004-01-15,32.7949
2004-01-16,32.3643
2004-01-20,32.1114
2004-01-21,32.0225
2004-01-22,32.4668
2004-01-23,32.583
2004-01-26,33.123
2004-01-27,33.5057
2004-01-28,33.4306
2004-01-29,33.3554
2004-01-30,33.3554
2004-02-02,33.5604
2004-02-03,33.6219
2004-02-04,33.2528
2004-02-05,33.7245
2004-02-06,34.5925
2004-02-09,34.4353
2004-02-10,34.49
2004-02-11,34.8112
2004-02-12,34.5857
2004-02-13,34.3465
2004-02-17,34.5789
2004-02-18,34.654
2004-02-19,34.5925
2004-02-20,34.4968
2004-02-23,34.572
2004-02-24,34.6609
2004-02-25,34.9343
2004-02-26,34.7907
2004-02-27,34.4422
2004-03-01,34.989
2004-03-02,35.5563
2004-03-03,36.0211
2004-03-04,36.3013
2004-03-05,36.5405
2004-03-08,36.4653
2004-03-09,36.6157
2004-03-10,36.0416
2004-03-11,35.9322
2004-03-12,35.9527
2004-03-15,35.98
2004-03-16,36.0962
2004-03-17,36.7456
2004-03-18,36.9096
2004-03-19,37.2514
2004-03-22,36.9096
2004-03-23,36.9096
2004-03-24,36.5542
2004-03-25,36.9711
2004-03-26,36.2945
2004-03-29,36.4312
2004-03-30,36.9001
2004-03-31,37.1079
2004-04-01,37.3988
2004-04-02,37.4472
2004-04-05,36.3322
2004-04-06,35.2518
2004-04-07,35.7781
2004-04-08,35.5981
2004-04-12,34.4207
2004-04-13,34.1437
2004-04-14,33.8736
2004-04-15,34.8224
2004-04-16,35.3903
2004-04-19,35.9444
2004-04-20,34.7185
2004-04-21,34.6977
2004-04-22,35.0302
2004-04-23,34.8155
2004-04-26,34.9055
2004-04-27,35.0025
2004-04-28,34.7739
2004-04-29,34.2683
2004-04-30,34.3722
2004-05-03,34.7808
2004-05-04,35.0717
2004-05-05,35.2587
2004-05-06,35.3626
2004-05-07,34.6423
2004-05-10,34.5523
2004-05-11,34.6562
2004-05-12,34.6631
2004-05-13,35.0232
2004-05-14,35.3626
2004-05-17,35.9097
2004-05-18,36.4015
2004-05-19,35.702
2004-05-20,36.2629
2004-05-21,36.3322
2004-05-24,36.6023
2004-05-25,36.9832
2004-05-26,37.6758
2004-05-27,37.6412
2004-05-28,37.7104
2004-06-01,37.1564
2004-06-02,37.5165
2004-06-03,37.5858
2004-06-04,37.4195
2004-06-07,37.6135
2004-06-08,37.9944
2004-06-09,37.9667
2004-06-10,37.842
2004-06-14,37.5858
2004-06-15,38.1675
2004-06-16,38.2991
2004-06-17,38.6592
2004-06-18,38.8393
2004-06-21,39.1302
2004-06-22,38.8324
2004-06-23,38.9778
2004-06-24,39.1371
2004-06-25,39.4626
2004-06-28,39.9197
2004-06-29,39.3307
2004-06-30,39.485
2004-07-01,39.8285
2004-07-02,40.151
2004-07-06,40.144
2004-07-07,40.5716
2004-07-08,40.1089
2004-07-09,40.3683
2004-07-12,40.6067
2004-07-13,40.179
2004-07-14,40.6417
2004-07-15,40.5927
2004-07-16,40.5857
2004-07-19,40.9572
2004-07-20,41.0063
2004-07-21,41.0694
2004-07-22,39.9967
2004-07-23,39.9266
2004-07-26,40.0669
2004-07-27,40.0739
2004-07-28,40.7329
2004-07-29,40.5786
2004-07-30,40.6698
2004-08-02,41.6793
2004-08-03,41.7284
2004-08-04,41.9458
2004-08-05,41.6583
2004-08-06,41.0694
2004-08-09,41.6513
2004-08-10,41.6793
2004-08-11,41.6864
2004-08-12,41.434
2004-08-13,41.2587
2004-08-16,41.5461
2004-08-17,42.0649
2004-08-18,42.6609
2004-08-19,42.1491
2004-08-20,42.7941
2004-08-23,42.8221
2004-08-24,43.2778
2004-08-25,42.5347
2004-08-26,42.3033
2004-08-27,42.0649
2004-08-30,42.3454
2004-08-31,42.3804
2004-09-01,41.9528
2004-09-02,42.2052
2004-09-03,42.7871
2004-09-07,43.4531
2004-09-08,43.4951
2004-09-09,42.4225
2004-09-10,42.5627
2004-09-13,42.1
2004-09-14,41.6233
2004-09-15,41.7985
2004-09-16,43.0324
2004-09-17,42.5557
2004-09-20,42.107
2004-09-21,42.1
2004-09-22,41.8897
2004-09-23,41.7144
2004-09-24,41.6373
2004-09-27,41.5111
2004-09-28,41.7845
2004-09-29,42.1747
2004-09-30,42.6429
2004-10-01,43.558
2004-10-04,43.6361
2004-10-05,44.2887
2004-10-06,44.5158
2004-10-07,44.161
2004-10-08,44.4874
2004-10-11,44.1752
2004-10-12,44.6505
2004-10-13,44.8634
2004-10-14,45.1684
2004-10-15,45.5799
2004-10-18,45.8353
2004-10-19,45.7714
2004-10-20,45.7289
2004-10-21,46.3957
2004-10-22,46.5021
2004-10-25,46.1261
2004-10-26,46.566
2004-10-27,46.871
2004-10-28,46.9987
2004-10-29,46.4312
2004-11-01,47.2186
2004-11-02,46.9703
2004-11-03,47.1122
2004-11-04,48.5239
2004-11-05,47.6017
2004-11-08,47.8784
2004-11-09,47.7933
2004-11-10,48.3111
2004-11-11,48.7793
2004-11-12,49.957
2004-11-15,50.4039
2004-11-16,50.8224
2004-11-17,49.7796
2004-11-18,49.7938
2004-11-19,49.0347
2004-11-22,49.1624
2004-11-23,49.8222
2004-11-24,50.7231
2004-11-26,50.4039
2004-11-29,50.0847
2004-11-30,50.3188
2004-12-01,51.8653
2004-12-02,51.1133
2004-12-03,52.4967
2004-12-06,52.1349
2004-12-07,51.0424
2004-12-08,50.7231
2004-12-09,51.9079
2004-12-10,52.1065
2004-12-13,52.0426
2004-12-14,51.9079
2004-12-15,51.9291
2004-12-16,52.0994
2004-12-17,52.3619
2004-12-20,51.8511
2004-12-21,52.1916
2004-12-22,53.1139
2004-12-23,52.7308
2004-12-27,52.8585
2004-12-28,53.2203
2004-12-29,53.6927
2004-12-30,53.8574
2004-12-31,53.8861
2005-01-03,53.2846
2005-01-04,52.7045
2005-01-05,50.277
2005-01-06,50.9859
2005-01-07,50.8856
2005-01-10,50.1839
2005-01-11,49.1742
2005-01-12,49.1312
2005-01-13,48.988
2005-01-14,49.3747
2005-01-18,49.5752
2005-01-19,50.0407
2005-01-20,49.7972
2005-01-21,49.876
2005-01-24,49.2673
2005-01-25,47.5916
2005-01-26,47.9568
2005-01-27,47.2479
2005-01-28,47.7348
2005-01-31,47.8924
2005-02-01,48.5727
2005-02-02,49.2171
2005-02-03,49.2601
2005-02-04,49.6898
2005-02-07,49.2386
2005-02-08,48.9092
2005-02-09,49.9118
2005-02-10,50.0765
2005-02-11,50.0407
2005-02-14,50.1481
2005-02-15,50.5419
2005-02-16,50.9931
2005-02-17,51.1434
2005-02-18,50.9143
2005-02-22,49.4105
2005-02-23,48.5512
2005-02-24,48.2289
2005-02-25,49.3246
2005-02-28,49.6826
2005-03-01,49.9476
2005-03-02,49.6038
2005-03-03,49.7256
2005-03-04,50.3915
2005-03-07,50.8856
2005-03-08,50.5348
2005-03-09,48.7803
2005-03-10,49.0453
2005-03-11,48.5798
2005-03-14,49.4177
2005-03-15,49.167
2005-03-16,48.6658
2005-03-17,49.0524
2005-03-18,48.4294
2005-03-21,48.1645
2005-03-22,47.5701
2005-03-23,47.6417
2005-03-24,47.5988
2005-03-28,47.5844
2005-03-29,47.6775
2005-03-30,48.2279
2005-03-31,48.4088
2005-04-01,48.322
2005-04-04,47.989
2005-04-05,48.1193
2005-04-06,48.1266
2005-04-07,49.1254
2005-04-08,48.7346
2005-04-11,49.0169
2005-04-12,49.8927
2005-04-13,50.0664
2005-04-14,49.4077
2005-04-15,49.5018
2005-04-18,49.3715
2005-04-19,49.871
2005-04-20,49.2991
2005-04-21,49.567
2005-04-22,50.7395
2005-04-25,51.4127
2005-04-26,51.087
2005-04-27,51.6877
2005-04-28,51.362
2005-04-29,52.1872
2005-05-02,52.0641
2005-05-03,51.8976
2005-05-04,52.2813
2005-05-05,52.7735
2005-05-06,52.6504
2005-05-09,53.5552
2005-05-10,53.7217
2005-05-11,53.8592
2005-05-12,53.5624
2005-05-13,53.3815
2005-05-16,53.8881
2005-05-17,54.431
2005-05-18,54.5468
2005-05-19,55.676
2005-05-20,55.524
2005-05-23,55.3213
2005-05-24,54.6771
2005-05-25,53.8013
2005-05-26,53.9243
2005-05-27,54.1053
2005-05-31,54.2283
2005-06-01,55.2561
2005-06-02,54.8942
2005-06-03,54.9377
2005-06-06,55.5167
2005-06-07,56.4866
2005-06-08,57.0078
2005-06-09,56.7834
2005-06-10,57.2539
2005-06-13,57.7316
2005-06-14,58.4916
2005-06-15,58.5568
2005-06-16,58.2528
2005-06-17,58.9114
2005-06-20,58.9693
2005-06-21,58.687
2005-06-22,58.5785
2005-06-23,58.3469
2005-06-24,57.6592
2005-06-27,57.4276
2005-06-28,57.5006
2005-06-29,58.5377
2005-06-30,58.859
2005-07-01,59.0489
2005-07-05,59.2534
2005-07-06,59.6989
2005-07-07,59.8012
2005-07-08,61.0501
2005-07-11,61.8024
2005-07-12,61.8754
2005-07-13,61.1085
2005-07-14,60.5462
2005-07-15,60.8748
2005-07-18,61.1889
2005-07-19,62.0945
2005-07-20,62.6715
2005-07-21,61.7658
2005-07-22,62.8102
2005-07-25,62.9563
2005-07-26,63.6575
2005-07-27,63.5406
2005-07-28,64.1322
2005-07-29,63.9131
2005-08-01,63.2704
2005-08-02,64.0445
2005-08-03,64.1687
2005-08-04,62.6057
2005-08-05,60.0714
2005-08-08,57.4568
2005-08-09,58.5158
2005-08-10,58.1214
2005-08-11,58.8225
2005-08-12,59.0416
2005-08-15,59.845
2005-08-16,60.4804
2005-08-17,59.6916
2005-08-18,59.0855
2005-08-19,58.9759
2005-08-22,59.3338
2005-08-23,59.6332
2005-08-24,60.1956
2005-08-25,60.1664
2005-08-26,59.6697
2005-08-29,59.4433
2005-08-30,60.0057
2005-08-31,61.2765
2005-09-01,61.5906
2005-09-02,61.2473
2005-09-06,62.9563
2005-09-07,62.3574
2005-09-08,62.226
2005-09-09,62.4378
2005-09-12,62.2698
2005-09-13,62.1383
2005-09-14,62.1968
2005-09-15,62.3574
2005-09-16,62.3282
2005-09-19,62.0945
2005-09-20,61.5102
2005-09-21,60.831
2005-09-22,61.2108
2005-09-23,61.2911
2005-09-26,61.5906
2005-09-27,61.4737
2005-09-28,61.0939
2005-09-29,62.1762
2005-09-30,63.0749
2005-10-03,63.8041
2005-10-04,63.2296
2005-10-05,62.0805
2005-10-06,62.1026
2005-10-07,61.3954
2005-10-10,60.2169
2005-10-11,59.4287
2005-10-12,58.7658
2005-10-13,59.0383
2005-10-14,60.4084
2005-10-17,60.6662
2005-10-18,60.0917
2005-10-19,60.5631
2005-10-20,59.9002
2005-10-21,60.6809
2005-10-24,62.1983
2005-10-25,62.1762
2005-10-26,62.0658
2005-10-27,61.6459
2005-10-28,63.0749
2005-10-31,63.5021
2005-11-01,63.4064
2005-11-02,63.7305
2005-11-03,63.7452
2005-11-04,63.3327
2005-11-07,63.4506
2005-11-08,63.3916
2005-11-09,64.084
2005-11-10,65.4467
2005-11-11,65.8592
2005-11-14,66.0213
2005-11-15,65.4541
2005-11-16,65.3363
2005-11-17,66.7284
2005-11-18,66.9789
2005-11-21,66.8094
2005-11-22,67.6123
2005-11-23,67.8039
2005-11-25,67.907
2005-11-28,67.7081
2005-11-29,68.2458
2005-11-30,67.3251
2005-12-01,67.6713
2005-12-02,68.0617
2005-12-05,67.4871
2005-12-06,67.303
2005-12-07,67.0157
2005-12-08,67.3251
2005-12-09,67.7965
2005-12-12,67.5608
2005-12-13,68.0027
2005-12-14,68.1574
2005-12-15,66.8757
2005-12-16,67.5976
2005-12-19,66.5737
2005-12-20,66.2054
2005-12-21,66.5516
2005-12-22,66.7947
2005-12-23,67.0525
2005-12-27,66.8831
2005-12-28,66.8762
2005-12-29,66.3639
2005-12-30,66.1783
2006-01-03,67.8933
2006-01-04,68.6506
2006-01-05,69.638
2006-01-06,70.9223
2006-01-09,71.739
2006-01-10,72.1621
2006-01-11,71.8503
2006-01-12,71.6425
2006-01-13,70.6773
2006-01-17,70.6179
2006-01-18,70.6922
2006-01-19,71.2713
2006-01-20,70.4917
2006-01-23,70.6922
2006-01-24,72.0359
2006-01-25,72.8823
2006-01-26,73.7138
2006-01-27,74.5082
2006-01-30,73.4539
2006-01-31,73.7806
2006-02-01,74.0776
2006-02-02,73.8326
2006-02-03,72.7709
2006-02-06,73.3871
2006-02-07,72.6967
2006-02-08,72.3849
2006-02-09,73.4688
2006-02-10,73.8326
2006-02-13,73.4465
2006-02-14,74.1889
2006-02-15,75.0501
2006-02-16,75.9113
2006-02-17,76.3345
2006-02-21,76.4681
2006-02-22,77.656
2006-02-23,77.2476
2006-02-24,77.3367
2006-02-27,77.2105
2006-02-28,76.3345
2006-03-01,76.379
2006-03-02,75.9336
2006-03-03,75.5327
2006-03-06,77.901
2006-03-07,76.5498
2006-03-08,76.6314
2006-03-09,76.9507
2006-03-10,77.7228
2006-03-13,77.307
2006-03-14,78.2722
2006-03-15,79.6605
2006-03-16,80.8706
2006-03-17,81.8877
2006-03-20,80.5736
2006-03-21,79.4155
2006-03-22,79.2893
2006-03-23,79.9649
2006-03-24,79.95
2006-03-27,78.6879
2006-03-28,80.4623
2006-03-29,82.3905
2006-03-30,80.7454
2006-03-31,81.224
2006-04-03,79.534
2006-04-04,79.8406
2006-04-05,80.7379
2006-04-06,80.723
2006-04-07,79.3396
2006-04-10,77.4477
2006-04-11,77.2757
2006-04-12,77.1261
2006-04-13,75.7727
2006-04-17,75.5259
2006-04-18,77.5823
2006-04-19,79.6387
2006-04-20,80.5061
2006-04-21,80.9174
2006-04-24,80.3939
2006-04-25,80.2818
2006-04-26,80.2519
2006-04-27,80.6332
2006-04-28,80.5211
2006-05-01,78.8834
2006-05-02,77.7318
2006-05-03,77.2906
2006-05-04,79.2723
2006-05-05,80.3416
2006-05-08,81.4034
2006-05-09,81.0968
2006-05-10,81.5006
2006-05-11,79.0554
2006-05-12,77.8814
2006-05-15,80.0051
2006-05-16,79.2648
2006-05-17,78.1057
2006-05-18,76.6849
2006-05-19,76.8794
2006-05-22,76.5728
2006-05-23,76.7223
2006-05-24,76.6625
2006-05-25,78.4946
2006-05-26,79.4218
2006-05-30,78.6292
2006-05-31,79.175
2006-06-01,81.1342
2006-06-02,81.3436
2006-06-05,81.4259
2006-06-06,80.8875
2006-06-07,81.8671
2006-06-08,80.9174
2006-06-09,81.6203
2006-06-12,80.2519
2006-06-13,79.5116
2006-06-14,78.9732
2006-06-15,80.035
2006-06-16,80.4837
2006-06-19,80.0649
2006-06-20,78.6965
2006-06-21,79.2648
2006-06-22,79.1077
2006-06-23,79.1302
2006-06-26,79.8032
2006-06-27,79.6237
2006-06-28,80.6174
2006-06-29,82.5232
2006-06-30,83.382
2006-07-03,84.3839
2006-07-05,84.4441
2006-07-06,85.1221
2006-07-07,85.0317
2006-07-10,86.026
2006-07-11,86.2144
2006-07-12,86.365
2006-07-13,84.9714
2006-07-14,83.8264
2006-07-17,83.3217
2006-07-18,84.8132
2006-07-19,86.35
2006-07-20,85.4686
2006-07-21,83.5552
2006-07-24,85.1221
2006-07-25,85.8754
2006-07-26,86.7417
2006-07-27,86.8999
2006-07-28,88.0599
2006-07-31,87.9695
2006-08-01,87.495
2006-08-02,87.1032
2006-08-03,87.9469
2006-08-04,89.1673
2006-08-07,86.8245
2006-08-08,84.8132
2006-08-09,84.9714
2006-08-10,84.4667
2006-08-11,84.4291
2006-08-14,85.2652
2006-08-15,86.1692
2006-08-16,86.8245
2006-08-17,86.7417
2006-08-18,87.0129
2006-08-21,87.7661
2006-08-22,88.6701
2006-08-23,88.881
2006-08-24,89.5665
2006-08-25,89.898
2006-08-28,90.3951
2006-08-29,90.5383
2006-08-30,90.9978
2006-08-31,91.0128
2006-09-01,90.2821
2006-09-05,91.4497
2006-09-06,91.5703
2006-09-07,91.3895
2006-09-08,92.2106
2006-09-11,91.6004
2006-09-12,93.1673
2006-09-13,93.6192
2006-09-14,92.6475
2006-09-15,92.7153
2006-09-18,91.6682
2006-09-19,93.1597
2006-09-20,92.2106
2006-09-21,90.7944
2006-09-22,91.4874
2006-09-25,90.5232
2006-09-26,89.9206
2006-09-27,91.51
2006-09-28,91.2216
2006-09-29,91.1686
2006-10-02,91.3581
2006-10-03,92.2148
2006-10-04,93.625
2006-10-05,93.7084
2006-10-06,92.5257
2006-10-09,93.0791
2006-10-10,93.064
2006-10-11,92.9199
2006-10-12,94.8305
2006-10-13,96.1269
2006-10-16,96.4681
2006-10-17,95.945
2006-10-18,96.6652
2006-10-19,96.3771
2006-10-20,96.4378
2006-10-23,97.4082
2006-10-24,97.2338
2006-10-25,97.5902
2006-10-26,98.7426
2006-10-27,98.0299
2006-10-30,98.9928
2006-10-31,99.3112
2006-11-01,97.9162
2006-11-02,94.785
2006-11-03,93.3066
2006-11-06,94.7243
2006-11-07,93.5795
2006-11-08,93.7539
2006-11-09,93.7994
2006-11-10,94.0572
2006-11-13,93.4051
2006-11-14,94.7926
2006-11-15,94.8381
2006-11-16,94.8987
2006-11-17,94.224
2006-11-20,97.9465
2006-11-21,99.8419
2006-11-22,100.054
2006-11-24,101.26
2006-11-27,97.2338
2006-11-28,96.923
2006-11-29,99.0534
2006-11-30,100.395
2006-12-01,99.9632
2006-12-04,101.555
2006-12-05,100.1
2006-12-06,99.8116
2006-12-07,98.9473
2006-12-08,98.7426
2006-12-11,100.259
2006-12-12,99.9329
2006-12-13,99.3036
2006-12-14,99.7054
2006-12-15,98.6819
2006-12-18,98.1361
2006-12-19,97.1504
2006-12-20,97.8404
2006-12-21,97.0064
2006-12-22,95.5735
2006-12-26,96.1573
2006-12-27,96.7601
2006-12-28,97.6832
2006-12-29,98.9419
2007-01-03,98.0493
2007-01-04,100.918
2007-01-05,99.4148
2007-01-08,100.513
2007-01-09,98.8046
2007-01-10,99.9946
2007-01-11,103.16
2007-01-12,104.083
2007-01-16,106.349
2007-01-17,106.982
2007-01-18,108.096
2007-01-19,109.385
2007-01-22,108.325
2007-01-23,109.698
2007-01-24,111.796
2007-01-25,111.582
2007-01-26,112.048
2007-01-29,111.064
2007-01-30,112.91
2007-01-31,113.177
2007-02-01,111.994
2007-02-02,110.964
2007-02-05,111.125
2007-02-06,112.94
2007-02-07,113.207
2007-02-08,112.704
2007-02-09,111.224
2007-02-12,109.004
2007-02-13,111.338
2007-02-14,110.263
2007-02-15,111.239
2007-02-16,110.598
2007-02-20,111.918
2007-02-21,111.025
2007-02-22,109.973
2007-02-23,107.57
2007-02-26,106.692
2007-02-27,102.924
2007-02-28,105.06
2007-03-01,102.321
2007-03-02,100.17
2007-03-05,95.8065
2007-03-06,99.2546
2007-03-07,97.3246
2007-03-08,98.7435
2007-03-09,99.8115
2007-03-12,100.162
2007-03-13,96.7296
2007-03-14,98.1256
2007-03-15,99.2928
2007-03-16,97.6603
2007-03-19,99.5979
2007-03-20,100.704
2007-03-21,102.443
2007-03-22,102.771
2007-03-23,102.817
2007-03-26,100.681
2007-03-27,98.4765
2007-03-28,96.7449
2007-03-29,96.7081
2007-03-30,99.8492
2007-04-02,100.08
2007-04-03,100.894
2007-04-04,100.233
2007-04-05,100.087
2007-04-09,99.8723
2007-04-10,100.103
2007-04-11,98.1442
2007-04-12,97.2226
2007-04-13,99.0275
2007-04-16,98.5052
2007-04-17,100.471
2007-04-18,100.479
2007-04-19,100.08
2007-04-20,100.011
2007-04-23,102.092
2007-04-24,100.732
2007-04-25,100.633
2007-04-26,99.0966
2007-04-27,96.7311
2007-04-30,93.8511
2007-05-01,92.2382
2007-05-02,92.292
2007-05-03,93.2213
2007-05-04,91.4779
2007-05-07,92.2229
2007-05-08,91.4241
2007-05-09,92.7451
2007-05-10,91.5624
2007-05-11,95.0645
2007-05-14,95.4024
2007-05-15,93.8895
2007-05-16,92.3842
2007-05-17,90.4718
2007-05-18,89.3275
2007-05-21,90.1262
2007-05-22,91.1784
2007-05-23,90.8021
2007-05-24,89.0587
2007-05-25,91.2091
2007-05-29,97.5222
2007-05-30,101.869
2007-05-31,100.133
2007-06-01,99.2195
2007-06-04,100.84
2007-06-05,99.2195
2007-06-06,97.6143
2007-06-07,94.1429
2007-06-08,95.6712
2007-06-11,94.2197
2007-06-12,92.9218
2007-06-13,98.9967
2007-06-14,98.1135
2007-06-15,99.4499
2007-06-18,97.5375
2007-06-19,98.5129
2007-06-20,94.5807
2007-06-21,93.1368
2007-06-22,93.1829
2007-06-25,91.8312
2007-06-26,90.3259
2007-06-27,93.7429
2007-06-28,92.5284
2007-06-29,91.9095
2007-07-02,94.5242
2007-07-03,94.6325
2007-07-05,96.6129
2007-07-06,95.9786
2007-07-09,95.3829
2007-07-10,92.5516
2007-07-11,92.1958
2007-07-12,93.4954
2007-07-13,94.8878
2007-07-16,94.3154
2007-07-17,93.5805
2007-07-18,92.3273
2007-07-19,92.5129
2007-07-20,90.548
2007-07-23,89.1633
2007-07-24,87.0359
2007-07-25,86.5718
2007-07-26,84.661
2007-07-27,83.052
2007-07-30,83.8875
2007-07-31,83.1448
2007-08-01,88.0571
2007-08-02,88.2737
2007-08-03,84.8699
2007-08-06,86.0999
2007-08-07,90.0684
2007-08-08,92.9075
2007-08-09,93.5186
2007-08-10,89.4263
2007-08-13,86.9277
2007-08-14,83.5935
2007-08-15,82.0463
2007-08-16,87.0592
2007-08-17,87.5775
2007-08-20,89.4959
2007-08-21,90.8188
2007-08-22,89.612
2007-08-23,88.9467
2007-08-24,88.235
2007-08-27,86.889
2007-08-28,85.0865
2007-08-29,86.4016
2007-08-30,86.8348
2007-08-31,88.3897
2007-09-04,89.5656
2007-09-05,87.7244
2007-09-06,87.8946
2007-09-07,86.0767
2007-09-10,85.7982
2007-09-11,87.4924
2007-09-12,88.382
2007-09-13,90.0916
2007-09-14,89.5269
2007-09-17,89.0163
2007-09-18,90.7105
2007-09-19,91.3139
2007-09-20,89.9214
2007-09-21,89.7358
2007-09-24,92.9307
2007-09-25,91.9327
2007-09-26,92.7602
2007-09-27,92.916
2007-09-28,91.8719
2007-10-01,92.955
2007-10-02,95.0665
2007-10-03,95.1366
2007-10-04,95.0587
2007-10-05,96.4223
2007-10-08,94.2951
2007-10-09,96.6171
2007-10-10,96.6171
2007-10-11,95.8691
2007-10-12,93.7965
2007-10-15,91.1083
2007-10-16,88.7942
2007-10-17,88.8332
2007-10-18,88.9345
2007-10-19,84.8906
2007-10-22,86.9787
2007-10-23,90.1188
2007-10-24,89.9396
2007-10-25,89.9707
2007-10-26,91.6693
2007-10-29,91.4122
2007-10-30,92.7913
2007-10-31,95.2535
2007-11-01,89.6045
2007-11-02,87.6255
2007-11-05,84.9763
2007-11-06,85.3347
2007-11-07,82.0388
2007-11-08,81.9843
2007-11-09,82.7868
2007-11-12,81.096
2007-11-13,86.4177
2007-11-14,82.5842
2007-11-15,81.0103
2007-11-16,79.5065
2007-11-19,77.4729
2007-11-20,75.8288
2007-11-21,75.3613
2007-11-23,77.395
2007-11-26,72.9303
2007-11-27,73.7796
2007-11-28,76.756
2007-11-29,76.3587
2007-11-30,77.3794
2007-12-03,76.3509
2007-12-04,73.7874
2007-12-05,77.9404
2007-12-06,80.9012
2007-12-07,80.2
2007-12-10,82.3972
2007-12-11,76.4288
2007-12-12,75.1821
2007-12-13,75.0574
2007-12-14,73.0628
2007-12-17,71.6681
2007-12-18,72.307
2007-12-19,73.8341
2007-12-20,72.7589
2007-12-21,74.5276
2007-12-24,76.1015
2007-12-26,74.699
2007-12-27,73.9272
2007-12-28,73.0311
2007-12-31,73.8172
2008-01-02,71.8126
2008-01-03,68.6916
2008-01-04,66.0974
2008-01-07,68.2829
2008-01-08,66.5927
2008-01-09,68.2593
2008-01-10,68.0392
2008-01-11,69.2105
2008-01-14,67.3474
2008-01-15,65.7122
2008-01-16,67.992
2008-01-17,66.7971
2008-01-18,65.61
2008-01-22,68.0392
2008-01-23,75.1536
2008-01-24,72.7481
2008-01-25,72.3157
2008-01-28,74.8706
2008-01-29,74.8391
2008-01-30,72.2371
2008-01-31,73.6757
2008-02-01,77.9758
2008-02-04,74.5797
2008-02-05,72.5437
2008-02-06,72.072
2008-02-07,72.8109
2008-02-08,71.2072
2008-02-11,69.9888
2008-02-12,73.7386
2008-02-13,75.2558
2008-02-14,73.3219
2008-02-15,72.4572
2008-02-19,74.0923
2008-02-20,75.0671
2008-02-21,73.0389
2008-02-22,75.1693
2008-02-25,78.133
2008-02-26,77.9286
2008-02-27,77.0403
2008-02-28,75.0042
2008-02-29,72.7245
2008-03-03,72.9918
2008-03-04,73.2905
2008-03-05,73.5813
2008-03-06,71.1758
2008-03-07,72.3314
2008-03-10,70.1145
2008-03-11,74.9964
2008-03-12,74.6898
2008-03-13,75.185
2008-03-14,74.3203
2008-03-17,75.2086
2008-03-18,78.2509
2008-03-19,79.1471
2008-03-20,82.2287
2008-03-24,82.6611
2008-03-25,81.9536
2008-03-26,79.4616
2008-03-27,77.3705
2008-03-28,75.5886
2008-03-31,76.6358
2008-04-01,81.1816
2008-04-02,80.2455
2008-04-03,82.6017
2008-04-04,82.5382
2008-04-07,83.5695
2008-04-08,81.2927
2008-04-09,77.4529
2008-04-10,76.9769
2008-04-11,76.5803
2008-04-14,75.8583
2008-04-15,76.8817
2008-04-16,79.0079
2008-04-17,79.8726
2008-04-18,80.0789
2008-04-21,80.3248
2008-04-22,79.7933
2008-04-23,81.4751
2008-04-24,83.3236
2008-04-25,83.0539
2008-04-28,82.9031
2008-04-29,82.1336
2008-04-30,81.1499
2008-05-01,82.4033
2008-05-02,83.3157
2008-05-05,82.562
2008-05-06,82.4271
2008-05-07,79.0951
2008-05-08,79.2459
2008-05-09,78.8571
2008-05-12,80.7294
2008-05-13,81.1102
2008-05-14,82.2685
2008-05-15,83.3553
2008-05-16,82.5779
2008-05-19,83.0777
2008-05-20,82.6175
2008-05-21,80.2296
2008-05-22,78.8809
2008-05-23,78.1907
2008-05-27,79.4601
2008-05-28,80.1106
2008-05-29,81.3799
2008-05-30,80.1899
2008-06-02,78.3653
2008-06-03,79.1507
2008-06-04,79.4125
2008-06-05,83.2205
2008-06-06,78.7223
2008-06-09,76.6199
2008-06-10,77.7465
2008-06-11,75.8187
2008-06-12,76.2312
2008-06-13,77.9924
2008-06-16,78.8809
2008-06-17,75.898
2008-06-18,75.184
2008-06-19,76.4216
2008-06-20,73.645
2008-06-23,71.6775
2008-06-24,71.7806
2008-06-25,72.9865
2008-06-26,70.9836
2008-06-27,70.3988
2008-06-30,71.4402
2008-07-01,71.2399
2008-07-02,70.1745
2008-07-03,69.7659
2008-07-07,69.1731
2008-07-08,74.2119
2008-07-09,67.8353
2008-07-10,69.9342
2008-07-11,70.0063
2008-07-14,67.3307
2008-07-15,67.7712
2008-07-16,73.9796
2008-07-17,74.7406
2008-07-18,74.7486
2008-07-21,74.4362
2008-07-22,76.6152
2008-07-23,80.9089
2008-07-24,73.6832
2008-07-25,77.0638
2008-07-28,76.2627
2008-07-29,81.7901
2008-07-30,82.7755
2008-07-31,79.7474
2008-08-01,79.467
2008-08-04,78.0251
2008-08-05,81.6059
2008-08-06,81.5178
2008-08-07,78.1853
2008-08-08,83.6086
2008-08-11,86.148
2008-08-12,82.6553
2008-08-13,81.3175
2008-08-14,81.5098
2008-08-15,81.4857
2008-08-18,79.1225
2008-08-19,78.3775
2008-08-20,78.5217
2008-08-21,78.9383
2008-08-22,80.8128
2008-08-25,77.993
2008-08-26,78.7701
2008-08-27,79.3308
2008-08-28,81.0611
2008-08-29,80.3081
2008-09-02,79.9236
2008-09-03,81.5178
2008-09-04,78.8582
2008-09-05,79.9877
2008-09-08,83.7047
2008-09-09,79.0825
2008-09-10,80.1399
2008-09-11,79.7233
2008-09-12,80.0998
2008-09-15,73.5871
2008-09-16,77.4563
2008-09-17,71.7446
2008-09-18,78.8982
2008-09-19,83.2962
2008-09-22,75.0531
2008-09-23,75.3094
2008-09-24,74.5324
2008-09-25,77.1839
2008-09-26,79.8515
2008-09-29,74.6365
2008-09-30,78.8902
2008-10-01,78.0927
2008-10-02,72.7572
2008-10-03,70.0975
2008-10-06,68.2139
2008-10-07,65.15
2008-10-08,63.6464
2008-10-09,59.4184
2008-10-10,64.1395
2008-10-13,69.952
2008-10-14,65.247
2008-10-15,55.2955
2008-10-16,61.1322
2008-10-17,59.095
2008-10-20,59.5316
2008-10-21,56.5081
2008-10-22,52.1427
2008-10-23,54.2284
2008-10-24,52.078
2008-10-27,49.3375
2008-10-28,55.9341
2008-10-29,55.6593
2008-10-30,54.1879
2008-10-31,57.0659
2008-11-03,55.3925
2008-11-04,58.6181
2008-11-05,50.9462
2008-11-06,49.5234
2008-11-07,52.0133
2008-11-10,47.4619
2008-11-11,48.3755
2008-11-12,44.2202
2008-11-13,50.2995
2008-11-14,44.5921
2008-11-17,41.795
2008-11-18,42.7651
2008-11-19,36.419
2008-11-20,34.4869
2008-11-21,39.0868
2008-11-24,46.0553
2008-11-25,48.5048
2008-11-26,49.7336
2008-11-28,49.0464
2008-12-01,40.6309
2008-12-02,46.12
2008-12-03,48.909
2008-12-04,48.6341
2008-12-05,54.1637
2008-12-08,54.8023
2008-12-09,49.8872
2008-12-10,53.7595
2008-12-11,46.4514
2008-12-12,50.922
2008-12-15,49.3213
2008-12-16,54.6326
2008-12-17,54.9479
2008-12-18,50.0165
2008-12-19,52.0618
2008-12-22,50.0004
2008-12-23,48.9171
2008-12-24,57.3187
2008-12-26,48.3156
2008-12-29,46.784
2008-12-30,49.3817
2008-12-31,51.514
2009-01-02,50.5663
2009-01-05,49.1617
2009-01-06,51.9456
2009-01-07,50.0333
2009-01-08,48.3663
2009-01-09,46.0817
2009-01-12,43.3825
2009-01-13,45.6332
2009-01-14,43.9579
2009-01-15,45.5063
2009-01-16,46.6909
2009-01-20,42.5702
2009-01-21,48.0025
2009-01-22,44.1694
2009-01-23,46.2509
2009-01-26,45.2779
2009-01-27,46.6994
2009-01-28,49.8386
2009-01-29,46.2933
2009-01-30,44.0763
2009-02-02,44.1356
2009-02-03,44.0255
2009-02-04,42.2232
2009-02-05,39.8032
2009-02-06,42.8917
2009-02-09,43.1455
2009-02-10,39.6001
2009-02-11,41.1994
2009-02-12,40.4548
2009-02-13,37.544
2009-02-17,35.4201
2009-02-18,36.4948
2009-02-19,34.8532
2009-02-20,37.3748
2009-02-23,34.2778
2009-02-24,38.314
2009-02-25,37.6371
2009-02-26,35.4878
2009-02-27,35.9617
2009-03-02,34.1255
2009-03-03,35.3947
2009-03-04,37.0278
2009-03-05,34.1678
2009-03-06,35.5978
2009-03-09,36.4186
2009-03-10,41.4448
2009-03-11,39.4055
2009-03-12,42.164
2009-03-13,41.5125
2009-03-16,38.8048
2009-03-17,41.8171
2009-03-18,42.9002
2009-03-19,41.1232
2009-03-20,37.5948
2009-03-23,43.4671
2009-03-24,40.2348
2009-03-25,40.9032
2009-03-26,42.0625
2009-03-27,40.2855
2009-03-30,37.7884
2009-03-31,40.6514
2009-04-01,39.7891
2009-04-02,42.747
2009-04-03,46.0584
2009-04-06,45.61
2009-04-07,41.0222
2009-04-08,41.807
2009-04-09,47.8521
2009-04-13,47.9901
2009-04-14,43.8421
2009-04-15,47.74
2009-04-16,49.3698
2009-04-17,51.6982
2009-04-20,44.9977
2009-04-21,48.8007
2009-04-22,46.9035
2009-04-23,50.8272
2009-04-24,52.6296
2009-04-27,48.3178
2009-04-28,48.542
2009-04-29,49.9907
2009-04-30,48.8611
2009-05-01,46.6362
2009-05-04,50.5685
2009-05-05,49.3267
2009-05-06,50.534
2009-05-07,47.007
2009-05-08,50.534
2009-05-11,48.4471
2009-05-12,48.1281
2009-05-13,45.7135
2009-05-14,47.7659
2009-05-15,46.481
2009-05-18,50.3271
2009-05-19,48.5506
2009-05-20,47.4123
2009-05-21,48.0677
2009-05-22,46.9035
2009-05-26,51.1463
2009-05-27,50.1201
2009-05-28,51.1549
2009-05-29,52.8193
2009-06-01,55.7254
2009-06-02,54.9062
2009-06-03,54.7164
2009-06-04,56.5878
2009-06-05,55.07
2009-06-08,54.544
2009-06-09,53.9576
2009-06-10,52.0345
2009-06-11,50.9393
2009-06-12,52.7503
2009-06-15,50.0339
2009-06-16,49.4043
2009-06-17,49.1198
2009-06-18,50.1201
2009-06-19,49.7838
2009-06-22,47.4468
2009-06-23,48.1281
2009-06-24,48.5247
2009-06-25,48.1453
2009-06-26,48.5229
2009-06-29,49.04
2009-06-30,48.9436
2009-07-01,49.0663
2009-07-02,46.6476
2009-07-06,48.4879
2009-07-07,46.2445
2009-07-08,45.5697
2009-07-09,44.4743
2009-07-10,44.8861
2009-07-13,46.8404
2009-07-14,47.2785
2009-07-15,48.409
2009-07-16,48.4003
2009-07-17,47.3749
2009-07-20,49.2941
2009-07-21,48.225
2009-07-22,47.2523
2009-07-23,49.5395
2009-07-24,49.5132
2009-07-27,51.6515
2009-07-28,52.2299
2009-07-29,51.5025
2009-07-30,51.7917
2009-07-31,50.9942
2009-08-03,51.4937
2009-08-04,55.9718
2009-08-05,59.1267
2009-08-06,58.5307
2009-08-07,61.9134
2009-08-10,60.1607
2009-08-11,58.7148
2009-08-12,58.4081
2009-08-13,58.2328
2009-08-14,56.9533
2009-08-17,53.9825
2009-08-18,54.447
2009-08-19,54.4645
2009-08-20,56.4801
2009-08-21,56.9533
2009-08-24,56.375
2009-08-25,56.5239
2009-08-26,56.7781
2009-08-27,56.9972
2009-08-28,57.0936
2009-08-31,56.4275
2009-09-01,54.3594
2009-09-02,54.0439
2009-09-03,55.2182
2009-09-04,56.1033
2009-09-08,58.3029
2009-09-09,59.6525
2009-09-10,60.5463
2009-09-11,59.7313
2009-09-14,61.7381
2009-09-15,63.2717
2009-09-16,67.4081
2009-09-17,65.9008
2009-09-18,66.2338
2009-09-21,65.4714
2009-09-22,67.4694
2009-09-23,64.078
2009-09-24,63.5842
2009-09-25,63.877
2009-09-28,66.574
2009-09-29,65.1634
2009-09-30,64.5601
2009-10-01,60.7541
2009-10-02,60.346
2009-10-05,62.6349
2009-10-06,62.4841
2009-10-07,63.0608
2009-10-08,65.0215
2009-10-09,65.2433
2009-10-12,65.536
2009-10-13,64.4093
2009-10-14,66.2724
2009-10-15,65.9619
2009-10-16,63.9214
2009-10-19,65.7667
2009-10-20,64.0544
2009-10-21,63.0697
2009-10-22,65.4029
2009-10-23,64.8352
2009-10-26,64.9948
2009-10-27,64.498
2009-10-28,61.6413
2009-10-29,62.3777
2009-10-30,60.9848
2009-11-02,60.9582
2009-11-03,62.0671
2009-11-04,60.8695
2009-11-05,61.6413
2009-11-06,59.8403
2009-11-09,62.8124
2009-11-10,63.0697
2009-11-11,64.3117
2009-11-12,64.0633
2009-11-13,65.2787
2009-11-16,66.4409
2009-11-17,64.7198
2009-11-18,65.4473
2009-11-19,64.1343
2009-11-20,63.948
2009-11-23,64.4004
2009-11-24,63.1051
2009-11-25,63.0253
2009-11-27,61.3219
2009-11-30,64.1875
2009-12-01,65.261
2009-12-02,66.4143
2009-12-03,65.6602
2009-12-04,68.2685
2009-12-07,67.1951
2009-12-08,67.1596
2009-12-09,67.0975
2009-12-10,67.4257
2009-12-11,68.0645
2009-12-14,69.3686
2009-12-15,69.209
2009-12-16,70.4865
2009-12-17,70.1671
2009-12-18,70.6817
2009-12-21,72.4738
2009-12-22,73.4763
2009-12-23,75.6854
2009-12-24,76.821
2009-12-28,76.4306
2009-12-29,75.4293
2009-12-30,75.0887
2009-12-31,73.6005
2010-01-04,72.7579
2010-01-05,72.1482
2010-01-06,71.4669
2010-01-07,71.7
2010-01-08,71.1711
2010-01-11,72.202
2010-01-12,70.427
2010-01-13,72.0496
2010-01-14,71.6641
2010-01-15,71.2338
2010-01-19,72.4172
2010-01-20,70.9559
2010-01-21,69.3602
2010-01-22,67.5942
2010-01-25,68.5623
2010-01-26,68.9747
2010-01-27,69.4499
2010-01-28,68.9747
2010-01-29,68.7416
2010-02-01,69.916
2010-02-02,71.3235
2010-02-03,69.7009
2010-02-04,66.5722
2010-02-05,67.7107
2010-02-08,66.2136
2010-02-09,65.9446
2010-02-10,65.7116
2010-02-11,66.4825
2010-02-12,67.6031
2010-02-16,69.674
2010-02-17,69.8353
2010-02-18,71.0456
2010-02-19,70.5167
2010-02-22,71.6821
2010-02-23,71.7179
2010-02-24,72.3903
2010-02-25,72.6413
2010-02-26,73.0537
2010-03-01,72.9282
2010-03-02,72.7399
2010-03-03,71.9331
2010-03-04,72.3275
2010-03-05,74.488
2010-03-08,75.5817
2010-03-09,75.7072
2010-03-10,76.2541
2010-03-11,76.6575
2010-03-12,77.1864
2010-03-15,77.1595
2010-03-16,78.8987
2010-03-17,80.2793
2010-03-18,79.3649
2010-03-19,78.7284
2010-03-22,78.8897
2010-03-23,78.576
2010-03-24,79.0601
2010-03-25,79.329
2010-03-26,78.7822
2010-03-29,78.5956
2010-03-30,78.7586
2010-03-31,78.2605
2010-04-01,77.5631
2010-04-05,80.5609
2010-04-06,83.749
2010-04-07,82.3995
2010-04-08,82.5897
2010-04-09,84.1293
2010-04-12,82.8251
2010-04-13,84.5912
2010-04-14,84.9716
2010-04-15,83.7308
2010-04-16,82.4176
2010-04-19,83.2961
2010-04-20,85.1437
2010-04-21,86.8826
2010-04-22,89.8261
2010-04-23,91.873
2010-04-26,91.0669
2010-04-27,89.4276
2010-04-28,89.6088
2010-04-29,96.5826
2010-04-30,94.2278
2010-05-03,98.2671
2010-05-04,97.8415
2010-05-05,94.9523
2010-05-06,90.7771
2010-05-07,88.7212
2010-05-10,93.6028
2010-05-11,94.0647
2010-05-12,95.1063
2010-05-13,93.0956
2010-05-14,90.8858
2010-05-17,91.5016
2010-05-18,89.0382
2010-05-19,88.5853
2010-05-20,83.0969
2010-05-21,85.4516
2010-05-24,83.9391
2010-05-25,86.2034
2010-05-26,85.7868
2010-05-27,90.288
2010-05-28,88.9204
2010-06-01,86.8917
2010-06-02,88.1868
2010-06-03,88.4585
2010-06-04,83.1693
2010-06-07,83.9663
2010-06-08,85.9679
2010-06-09,88.0147
2010-06-10,93.2768
2010-06-11,93.3674
2010-06-14,93.7387
2010-06-15,94.6353
2010-06-16,93.9198
2010-06-17,95.6316
2010-06-18,94.1915
2010-06-21,93.2858
2010-06-22,90.0616
2010-06-23,89.8714
2010-06-24,86.9641
2010-06-25,91.4201
2010-06-28,89.4052
2010-06-29,86.216
2010-06-30,85.3114
2010-07-01,84.9916
2010-07-02,83.4107
2010-07-06,82.0583
2010-07-07,86.4262
2010-07-08,89.2681
2010-07-09,90.3738
2010-07-12,90.721
2010-07-13,91.7627
2010-07-14,91.1505
2010-07-15,91.781
2010-07-16,88.1259
2010-07-19,90.7302
2010-07-20,92.1191
2010-07-21,90.2824
2010-07-22,93.7639
2010-07-23,95.3539
2010-07-26,97.675
2010-07-27,97.3369
2010-07-28,97.7937
2010-07-29,95.5001
2010-07-30,95.9662
2010-08-02,97.6932
2010-08-03,96.1398
2010-08-04,93.7548
2010-08-05,93.5812
2010-08-06,92.5669
2010-08-09,94.8239
2010-08-10,95.9753
2010-08-11,93.5446
2010-08-12,92.8045
2010-08-13,93.4532
2010-08-16,93.4258
2010-08-17,96.3043
2010-08-18,96.5053
2010-08-19,95.0798
2010-08-20,95.5001
2010-08-23,94.9427
2010-08-24,94.3031
2010-08-25,96.1032
2010-08-26,94.7143
2010-08-27,94.9062
2010-08-30,94.102
2010-08-31,96.1398
2010-09-01,99.0822
2010-09-02,98.8263
2010-09-03,100.69
2010-09-07,99.1188
2010-09-08,99.0091
2010-09-09,97.1815
2010-09-10,97.8577
2010-09-13,99.5665
2010-09-14,100.215
2010-09-15,101.997
2010-09-16,100.992
2010-09-17,100.334
2010-09-20,102.454
2010-09-21,99.9137
2010-09-22,98.2232
2010-09-23,94.6686
2010-09-24,97.5836
2010-09-27,95.8657
2010-09-28,96.7794
2010-09-29,95.7505
2010-09-30,95.7228
2010-10-01,96.9854
2010-10-04,97.6213
2010-10-05,98.1465
2010-10-06,96.2113
2010-10-07,96.2942
2010-10-08,97.483
2010-10-11,98.4875
2010-10-12,100.976
2010-10-13,102.008
2010-10-14,101.215
2010-10-15,101.289
2010-10-18,103.528
2010-10-19,100.819
2010-10-20,103.667
2010-10-21,101.925
2010-10-22,101.51
2010-10-25,101.114
2010-10-26,100.561
2010-10-27,99.9436
2010-10-28,97.5383
2010-10-29,97.9991
2010-11-01,98.4967
2010-11-02,99.8422
2010-11-03,101.39
2010-11-04,104.284
2010-11-05,104.413
2010-11-08,101.934
2010-11-09,97.6397
2010-11-10,100.764
2010-11-11,100.156
2010-11-12,100.358
2010-11-15,99.5658
2010-11-16,96.3864
2010-11-17,98.1097
2010-11-18,99.0958
2010-11-19,100.497
2010-11-22,100.828
2010-11-23,99.9897
2010-11-24,101.833
2010-11-26,101.28
2010-11-29,101.427
2010-11-30,101.731
2010-12-01,102.893
2010-12-02,104.395
2010-12-03,105.537
2010-12-06,105.436
2010-12-07,105.685
2010-12-08,102.985
2010-12-09,101.658
2010-12-10,104.275
2010-12-13,103.298
2010-12-14,101.87
2010-12-15,100.275
2010-12-16,99.3722
2010-12-17,100.386
2010-12-20,101.833
2010-12-21,102.506
2010-12-22,102.312
2010-12-23,102.036
2010-12-27,103.787
2010-12-28,104.923
2010-12-29,104.848
2010-12-30,104.941
2010-12-31,104.7
2011-01-03,105.759
2011-01-04,103.706
2011-01-05,103.957
2011-01-06,102.768
2011-01-07,101.746
2011-01-10,101.523
2011-01-11,101.384
2011-01-12,103.279
2011-01-13,103.483
2011-01-14,104.477
2011-01-18,105.257
2011-01-19,104.495
2011-01-20,104.347
2011-01-21,104.746
2011-01-24,105.053
2011-01-25,106.53
2011-01-26,107.329
2011-01-27,107.812
2011-01-28,105.545
2011-01-31,107.775
2011-02-01,107.412
2011-02-02,106.4
2011-02-03,107.394
2011-02-04,105.703
2011-02-07,106.623
2011-02-08,106.632
2011-02-09,106.79
2011-02-10,107.134
2011-02-11,107.737
2011-02-14,107.756
2011-02-15,107.84
2011-02-16,107.598
2011-02-17,107.459
2011-02-18,107.765
2011-02-22,106.892
2011-02-23,106.725
2011-02-24,106.632
2011-02-25,109.632
2011-02-28,112.596
2011-03-01,108.657
2011-03-02,107.366
2011-03-03,108.964
2011-03-04,106.753
2011-03-07,105.712
2011-03-08,106.957
2011-03-09,108.165
2011-03-10,107.022
2011-03-11,109.214
2011-03-14,107.756
2011-03-15,107.793
2011-03-16,107.115
2011-03-17,108.611
2011-03-18,109.038
2011-03-21,109.67
2011-03-22,108.787
2011-03-23,107.7
2011-03-24,108.601
2011-03-25,108.973
2011-03-28,109.27
2011-03-29,109.614
2011-03-30,110.627
2011-03-31,112.443
2011-04-01,113.135
2011-04-04,112.012
2011-04-05,112.293
2011-04-06,112.471
2011-04-07,111.628
2011-04-08,110.458
2011-04-11,110.852
2011-04-12,110.861
2011-04-13,111.413
2011-04-14,111.797
2011-04-15,113.379
2011-04-18,111.722
2011-04-19,112.125
2011-04-20,114.399
2011-04-21,115.082
2011-04-25,116.73
2011-04-26,117.778
2011-04-27,118.499
2011-04-28,120.361
2011-04-29,118.499
2011-05-02,118.901
2011-05-03,118.986
2011-05-04,118.901
2011-05-05,119.575
2011-05-06,118.012
2011-05-09,118.611
2011-05-10,120.595
2011-05-11,120.053
2011-05-12,119.388
2011-05-13,118.798
2011-05-16,118.883
2011-05-17,119.407
2011-05-18,119.744
2011-05-19,120.811
2011-05-20,119.088
2011-05-23,117.057
2011-05-24,118.639
2011-05-25,119.388
2011-05-26,121.11
2011-05-27,121.672
2011-05-31,124.433
2011-06-01,121.457
2011-06-02,120.614
2011-06-03,122.767
2011-06-06,121.606
2011-06-07,123.862
2011-06-08,124.171
2011-06-09,124.255
2011-06-10,121.653
2011-06-13,122.561
2011-06-14,124.171
2011-06-15,121.943
2011-06-16,120.492
2011-06-17,120.932
2011-06-20,123.282
2011-06-21,123.319
2011-06-22,123.02
2011-06-23,119.332
2011-06-24,119.322
2011-06-27,119.472
2011-06-28,120.088
2011-06-29,120.494
2011-06-30,121.087
2011-07-01,124.924
2011-07-05,126.687
2011-07-06,127.752
2011-07-07,129.646
2011-07-08,129.448
2011-07-11,126.724
2011-07-12,127.167
2011-07-13,124.717
2011-07-14,123.482
2011-07-15,125.037
2011-07-18,124.707
2011-07-19,127.591
2011-07-20,129.741
2011-07-21,130.985
2011-07-22,131.475
2011-07-25,130.118
2011-07-26,129.675
2011-07-27,126.847
2011-07-28,125.263
2011-07-29,126.753
2011-08-01,125.273
2011-08-02,121.86
2011-08-03,120.908
2011-08-04,116.638
2011-08-05,114.536
2011-08-08,109.908
2011-08-09,118.307
2011-08-10,118.326
2011-08-11,123.595
2011-08-12,121.766
2011-08-15,124.83
2011-08-16,125.235
2011-08-17,125.763
2011-08-18,120.71
2011-08-19,118.156
2011-08-22,119.259
2011-08-23,121.408
2011-08-24,123.538
2011-08-25,121.201
2011-08-26,122.916
2011-08-29,126.064
2011-08-30,127.167
2011-08-31,128.421
2011-09-01,126.79
2011-09-02,126.649
2011-09-06,125.744
2011-09-07,128.619
2011-09-08,128.798
2011-09-09,124.801
2011-09-12,125.914
2011-09-13,125.603
2011-09-14,122.926
2011-09-15,122.586
2011-09-16,122.567
2011-09-19,119.089
2011-09-20,118.919
2011-09-21,111.963
2011-09-22,108.918
2011-09-23,110.511
2011-09-26,111.803
2011-09-27,113.236
2011-09-28,111.253
2011-09-29,112.202
2011-09-30,108.375
2011-10-03,105.194
2011-10-04,111.006
2011-10-05,109.942
2011-10-06,112.877
2011-10-07,110.066
2011-10-10,115.004
2011-10-11,112.516
2011-10-12,114.149
2011-10-13,113.209
2011-10-14,115.688
2011-10-17,111.044
2011-10-18,114.339
2011-10-19,114.672
2011-10-20,114.491
2011-10-21,118.128
2011-10-24,120.749
2011-10-25,120.455
2011-10-26,121.5
2011-10-27,128.66
2011-10-28,126.048
2011-10-31,126.941
2011-11-01,118.955
2011-11-02,122.516
2011-11-03,122.506
2011-11-04,123.541
2011-11-07,123.693
2011-11-08,124.738
2011-11-09,118.565
2011-11-10,118.86
2011-11-11,122.867
2011-11-14,120.294
2011-11-15,121.49
2011-11-16,119.401
2011-11-17,115.773
2011-11-18,116.96
2011-11-21,114.643
2011-11-22,113.389
2011-11-23,111.186
2011-11-25,112.155
2011-11-28,113.437
2011-11-29,112.839
2011-11-30,118.603
2011-12-01,117.653
2011-12-02,117.853
2011-12-05,116.827
2011-12-06,116.4
2011-12-07,118.489
2011-12-08,115.602
2011-12-09,119.401
2011-12-12,116.865
2011-12-13,116.609
2011-12-14,118.945
2011-12-15,121.917
2011-12-16,122.516
2011-12-19,120.702
2011-12-20,122.924
2011-12-21,122.155
2011-12-22,125.175
2011-12-23,125.298
2011-12-27,125.792
2011-12-28,124.303
2011-12-29,125.469
2011-12-30,124.943
2012-01-03,124.312
2012-01-04,121.731
2012-01-05,124.226
2012-01-06,122.658
2012-01-09,121.435
2012-01-10,122.63
2012-01-11,121.941
2012-01-12,118.805
2012-01-13,120.995
2012-01-17,123.27
2012-01-18,122.371
2012-01-19,121.377
2012-01-20,122.037
2012-01-23,124.102
2012-01-24,125.393
2012-01-25,127.974
2012-01-26,129.016
2012-01-27,129.695
2012-01-30,128.691
2012-01-31,129.877
2012-02-01,131.129
2012-02-02,131.923
2012-02-03,133.606
2012-02-06,132.047
2012-02-07,130.919
2012-02-08,129.877
2012-02-09,128.481
2012-02-10,128.634
2012-02-13,129.246
2012-02-14,126.894
2012-02-15,126.416
2012-02-16,127.066
2012-02-17,128.146
2012-02-21,125.096
2012-02-22,124.14
2012-02-23,124.437
2012-02-24,127.171
2012-02-27,126.846
2012-02-28,125.249
2012-02-29,123.997
2012-03-01,125.402
2012-03-02,126.416
2012-03-05,128.959
2012-03-06,127.573
2012-03-07,128.653
2012-03-08,128.108
2012-03-09,131.655
2012-03-12,132.573
2012-03-13,134.007
2012-03-14,132.669
2012-03-15,131.235
2012-03-16,132.267
2012-03-19,133.233
2012-03-20,132.372
2012-03-21,131.177
2012-03-22,129.59
2012-03-23,131.139
2012-03-26,132.774
2012-03-27,133.07
2012-03-28,132.878
2012-03-29,133.523
2012-03-30,135.959
2012-04-02,136.055
2012-04-03,136.373
2012-04-04,134.88
2012-04-05,134.505
2012-04-09,133.619
2012-04-10,131.539
2012-04-11,132.242
2012-04-12,134.341
2012-04-13,135.053
2012-04-16,136.969
2012-04-17,137.027
2012-04-18,136.873
2012-04-19,137.201
2012-04-20,139.415
2012-04-23,137.682
2012-04-24,139.184
2012-04-25,140.282
2012-04-26,140.205
2012-04-27,140.628
2012-04-30,139.906
2012-05-01,141.947
2012-05-02,141.533
2012-05-03,140.06
2012-05-04,140.156
2012-05-07,142.332
2012-05-08,141.928
2012-05-09,141.129
2012-05-10,141.36
2012-05-11,141.398
2012-05-14,138.327
2012-05-15,138.529
2012-05-16,136.594
2012-05-17,133.041
2012-05-18,131.857
2012-05-21,134.871
2012-05-22,135.804
2012-05-23,135.65
2012-05-24,135.853
2012-05-25,134.572
2012-05-29,136.604
2012-05-30,133.388
2012-05-31,134.514
2012-06-01,131.905
2012-06-04,130.432
2012-06-05,133.33
2012-06-06,135.689
2012-06-07,134.967
2012-06-08,136.247
2012-06-11,133.311
2012-06-12,134.004
2012-06-13,133.6
2012-06-14,135.073
2012-06-15,135.448
2012-06-18,136.344
2012-06-19,136.604
2012-06-20,135.814
2012-06-21,133.128
2012-06-22,132.396
2012-06-25,131.905
2012-06-26,132.367
2012-06-27,132.494
2012-06-28,133.813
2012-06-29,137.226
2012-07-02,139.136
2012-07-03,139.553
2012-07-05,139.194
2012-07-06,140.241
2012-07-09,140.261
2012-07-10,138.506
2012-07-11,139.049
2012-07-12,142.064
2012-07-13,144.401
2012-07-16,145.08
2012-07-17,146.37
2012-07-18,146.011
2012-07-19,144.721
2012-07-20,143.635
2012-07-23,142.549
2012-07-24,141.337
2012-07-25,140.804
2012-07-26,140.203
2012-07-27,141.037
2012-07-30,141.638
2012-07-31,142.782
2012-08-01,140.096
2012-08-02,140.455
2012-08-03,140.348
2012-08-06,139.136
2012-08-07,137.41
2012-08-08,135.577
2012-08-09,135.063
2012-08-10,136.101
2012-08-13,134.889
2012-08-14,134.356
2012-08-15,135.548
2012-08-16,136.334
2012-08-17,137.332
2012-08-20,137.303
2012-08-21,137.235
2012-08-22,139.088
2012-08-23,139.378
2012-08-24,139.815
2012-08-27,139.34
2012-08-28,139.184
2012-08-29,138.545
2012-08-30,137.362
2012-08-31,137.313
2012-09-04,138.176
2012-09-05,138.176
2012-09-06,139.126
2012-09-07,139.892
2012-09-10,136.964
2012-09-11,136.654
2012-09-12,136.13
2012-09-13,137.168
2012-09-14,136.906
2012-09-17,136.993
2012-09-18,136.082
2012-09-19,137.507
2012-09-20,134.433
2012-09-21,134.695
2012-09-24,133.58
2012-09-25,131.301
2012-09-26,132.219
2012-09-27,133.381
2012-09-28,132.717
2012-10-01,132.199
2012-10-02,133.313
2012-10-03,133.469
2012-10-04,132.912
2012-10-05,132.824
2012-10-08,131.643
2012-10-09,130.412
2012-10-10,131.526
2012-10-11,130.285
2012-10-12,129.328
2012-10-15,130.041
2012-10-16,130.188
2012-10-17,130.324
2012-10-18,132.981
2012-10-19,133.821
2012-10-22,131.877
2012-10-23,131.018
2012-10-24,130.871
2012-10-25,130.637
2012-10-26,129.924
2012-10-31,132.551
2012-11-01,133.596
2012-11-02,134.582
2012-11-05,133.889
2012-11-06,133.508
2012-11-07,132.248
2012-11-08,129.895
2012-11-09,128.849
2012-11-12,128.097
2012-11-13,127.306
2012-11-14,124.474
2012-11-15,124.816
2012-11-16,125.998
2012-11-19,126.906
2012-11-20,126.056
2012-11-21,124.425
2012-11-23,125.539
2012-11-26,125.92
2012-11-27,129.416
2012-11-28,129.113
2012-11-29,129.836
2012-11-30,128.947
2012-12-03,129.777
2012-12-04,130.666
2012-12-05,129.621
2012-12-06,131.799
2012-12-07,130.48
2012-12-10,129.846
2012-12-11,129.934
2012-12-12,130.852
2012-12-13,129.367
2012-12-14,129.475
2012-12-17,130.08
2012-12-18,130.256
2012-12-19,130.324
2012-12-20,132.483
2012-12-21,132.883
2012-12-24,133.332
2012-12-26,131.819
2012-12-27,133.598
2012-12-28,131.956
2012-12-31,133.175
2013-01-02,133.648
2013-01-03,134.326
2013-01-04,134.179
2013-01-07,134.326
2013-01-08,133.785
2013-01-09,134.355
2013-01-10,134.749
2013-01-11,133.992
2013-01-14,134.523
2013-01-15,136.166
2013-01-16,135.664
2013-01-17,136.314
2013-01-18,136.224
2013-01-22,136.834
2013-01-23,136.687
2013-01-24,136.008
2013-01-25,136.106
2013-01-28,135.447
2013-01-29,135.684
2013-01-30,133.578
2013-01-31,127.647
2013-02-01,124.041
2013-02-04,123.8
2013-02-05,124.321
2013-02-06,126.27
2013-02-07,124.941
2013-02-08,126.752
2013-02-11,127.833
2013-02-12,128.714
2013-02-13,128.074
2013-02-14,127.931
2013-02-15,127.705
2013-02-19,128.168
2013-02-20,127.598
2013-02-21,125.709
2013-02-22,126.614
2013-02-25,124.371
2013-02-26,124.42
2013-02-27,123.879
2013-02-28,122.816
2013-03-01,123.977
2013-03-04,124.479
2013-03-05,124.577
2013-03-06,124.144
2013-03-07,122.718
2013-03-08,122.01
2013-03-11,121.971
2013-03-12,123.652
2013-03-13,124.695
2013-03-14,126.968
2013-03-15,126.319
2013-03-18,124.863
2013-03-19,124.214
2013-03-20,124.489
2013-03-21,123.436
2013-03-22,124.646
2013-03-25,124.519
2013-03-26,126.017
2013-03-27,125.59
2013-03-28,125.55
2013-04-01,127.058
2013-04-02,127.118
2013-04-03,126.979
2013-04-04,131.096
2013-04-05,132.406
2013-04-08,131.91
2013-04-09,132.495
2013-04-10,132.257
2013-04-11,133.656
2013-04-12,134.271
2013-04-15,131.582
2013-04-16,132.872
2013-04-17,130.253
2013-04-18,130.898
2013-04-19,132.029
2013-04-22,131.047
2013-04-23,130.759
2013-04-24,130.967
2013-04-25,129.965
2013-04-26,129.231
2013-04-29,129.935
2013-04-30,131.543
2013-05-01,131.205
2013-05-02,129.667
2013-05-03,128.675
2013-05-06,129.717
2013-05-07,131.92
2013-05-08,131.701
2013-05-09,131.344
2013-05-10,132.178
2013-05-13,133.616
2013-05-14,135.392
2013-05-15,136.037
2013-05-16,137.039
2013-05-17,137.594
2013-05-20,139.46
2013-05-21,140.442
2013-05-22,137.356
2013-05-23,137.793
2013-05-24,137.416
2013-05-28,135.362
2013-05-29,135.799
2013-05-30,132.297
2013-05-31,131.691
2013-06-03,134.033
2013-06-04,135.015
2013-06-05,133.239
2013-06-06,133.328
2013-06-07,133.586
2013-06-10,132.416
2013-06-11,130.025
2013-06-12,128.259
2013-06-13,133.537
2013-06-14,133.636
2013-06-17,133.12
2013-06-18,133.745
2013-06-19,129.796
2013-06-20,127.187
2013-06-21,130.65
2013-06-24,132.386
2013-06-25,134.41
2013-06-26,135.08
2013-06-27,136.46
2013-06-28,135.27
2013-07-01,135.39
2013-07-02,136.87
2013-07-03,135.73
2013-07-05,134.88
2013-07-08,134.45
2013-07-09,137.25
2013-07-10,137.48
2013-07-11,140.48
2013-07-12,140.4
2013-07-15,139.63
2013-07-16,140.29
2013-07-17,140.57
2013-07-18,140.99
2013-07-19,140.48
2013-07-22,140.77
2013-07-23,140.41
2013-07-24,138.22
2013-07-25,137.97
2013-07-26,139.0
2013-07-29,137.56
2013-07-30,137.36
2013-07-31,135.52
2013-08-01,134.94
2013-08-02,133.95
2013-08-05,133.16
2013-08-06,133.16
2013-08-07,132.29
2013-08-08,132.04
2013-08-09,133.04
