date,close_price
1998-01-02,21.4146
1998-01-05,21.4604
1998-01-06,21.021
1998-01-07,20.8399
1998-01-08,20.3884
1998-01-09,19.8596
1998-01-12,19.7244
1998-01-13,19.9948
1998-01-14,20.1155
1998-01-15,19.6495
1998-01-16,19.92
1998-01-20,19.9055
1998-01-21,19.7244
1998-01-22,19.3308
1998-01-23,19.1208
1998-01-26,19.1497
1998-01-27,20.2218
1998-01-28,20.0262
1998-01-29,20.2363
1998-01-30,20.2073
1998-02-02,20.9461
1998-02-03,20.992
1998-02-04,21.1128
1998-02-05,20.9461
1998-02-06,20.9317
1998-02-09,20.5236
1998-02-10,20.9606
1998-02-11,21.0669
1998-02-12,21.4291
1998-02-13,21.3228
1998-02-17,21.5039
1998-02-18,21.4001
1998-02-19,20.8713
1998-02-20,21.219
1998-02-23,21.4291
1998-02-24,21.1128
1998-02-25,21.4435
1998-02-26,21.5208
1998-02-27,21.7309
1998-03-02,22.0931
1998-03-03,22.3949
1998-03-04,22.1848
1998-03-05,22.1075
1998-03-06,22.5301
1998-03-09,22.2741
1998-03-10,22.2597
1998-03-11,22.6677
1998-03-12,22.4408
1998-03-13,22.2886
1998-03-16,22.6677
1998-03-17,23.1506
1998-03-18,23.4814
1998-03-19,23.4814
1998-03-20,23.5418
1998-03-23,22.9985
1998-03-24,23.1651
1998-03-25,22.8923
1998-03-26,22.547
1998-03-27,22.349
1998-03-30,21.9723
1998-03-31,22.1993
1998-04-01,22.349
1998-04-02,22.7884
1998-04-03,23.904
1998-04-06,25.2923
1998-04-07,24.9983
1998-04-08,25.1362
1998-04-09,25.9227
1998-04-13,25.6492
1998-04-14,25.2403
1998-04-15,25.0298
1998-04-16,24.7733
1998-04-17,25.7412
1998-04-20,25.1048
1998-04-21,24.9548
1998-04-22,25.6952
1998-04-23,24.9233
1998-04-24,24.6523
1998-04-27,24.6208
1998-04-28,24.5918
1998-04-29,24.5604
1998-04-30,24.7418
1998-05-01,25.4992
1998-05-04,25.2403
1998-05-05,24.8023
1998-05-06,24.0619
1998-05-07,24.1079
1998-05-08,24.6354
1998-05-11,24.4999
1998-05-12,24.9838
1998-05-13,25.5428
1998-05-14,25.4218
1998-05-15,25.1798
1998-05-18,25.0758
1998-05-19,24.8023
1998-05-20,25.7097
1998-05-21,25.4823
1998-05-22,25.1048
1998-05-26,24.6959
1998-05-27,24.4999
1998-05-28,25.0298
1998-05-29,24.8773
1998-06-01,25.1048
1998-06-02,25.0588
1998-06-03,24.8628
1998-06-04,25.1362
1998-06-05,25.2718
1998-06-08,26.4671
1998-06-09,25.9832
1998-06-10,26.0267
1998-06-11,25.2113
1998-06-12,24.7878
1998-06-15,24.4999
1998-06-16,24.5918
1998-06-17,25.3782
1998-06-18,25.4678
1998-06-19,25.7702
1998-06-22,25.5428
1998-06-23,25.6202
1998-06-24,26.2397
1998-06-25,26.4816
1998-06-26,26.7986
1998-06-29,27.0406
1998-06-30,27.3376
1998-07-01,27.0346
1998-07-02,27.0661
1998-07-06,27.4589
1998-07-07,27.6722
1998-07-08,27.762
1998-07-09,27.7013
1998-07-10,28.3536
1998-07-13,28.2469
1998-07-14,28.5645
1998-07-15,27.808
1998-07-16,27.9583
1998-07-17,28.065
1998-07-20,27.7935
1998-07-21,27.2916
1998-07-22,27.0491
1998-07-23,26.3823
1998-07-24,26.0041
1998-07-27,27.3231
1998-07-28,27.1097
1998-07-29,27.3522
1998-07-30,27.6116
1998-07-31,26.8067
1998-08-03,26.6418
1998-08-04,25.8223
1998-08-05,26.2926
1998-08-06,24.5202
1998-08-07,24.5033
1998-08-10,24.4596
1998-08-11,23.7468
1998-08-12,23.8826
1998-08-13,23.1552
1998-08-14,22.7163
1998-08-17,23.3079
1998-08-18,24.2923
1998-08-19,24.4596
1998-08-20,23.5334
1998-08-21,23.0339
1998-08-24,23.594
1998-08-25,23.4582
1998-08-26,23.5504
1998-08-27,21.9574
1998-08-28,21.3076
1998-08-31,18.9266
1998-09-01,19.8965
1998-09-02,20.3062
1998-09-03,18.609
1998-09-04,17.9131
1998-09-08,19.2758
1998-09-09,18.5944
1998-09-10,16.7299
1998-09-11,19.0333
1998-09-14,19.7001
1998-09-15,20.5948
1998-09-16,21.0942
1998-09-17,20.3523
1998-09-18,20.5026
1998-09-21,20.6093
1998-09-22,19.7001
1998-09-23,20.2456
1998-09-24,19.2467
1998-09-25,19.397
1998-09-28,20.1705
1998-09-29,19.6395
1998-09-30,18.9581
1998-10-01,17.6998
1998-10-02,17.9737
1998-10-05,17.5494
1998-10-06,17.2755
1998-10-07,17.6952
1998-10-08,17.6198
1998-10-09,18.6073
1998-10-12,19.4124
1998-10-13,19.033
1998-10-14,19.7019
1998-10-15,21.5578
1998-10-16,21.6186
1998-10-19,21.7694
1998-10-20,21.8302
1998-10-21,21.1929
1998-10-22,21.6478
1998-10-23,21.3437
1998-10-26,21.3583
1998-10-27,21.1321
1998-10-28,21.1613
1998-10-29,20.8281
1998-10-30,21.4191
1998-11-02,22.3775
1998-11-03,21.9664
1998-11-04,22.7131
1998-11-05,23.0172
1998-11-06,23.6544
1998-11-09,23.1072
1998-11-10,22.6523
1998-11-11,22.5137
1998-11-12,22.4237
1998-11-13,23.0001
1998-11-16,23.5644
1998-11-17,24.1409
1998-11-18,24.8414
1998-11-19,24.7344
1998-11-20,25.3887
1998-11-23,26.5124
1998-11-24,25.4179
1998-11-25,25.1746
1998-11-27,25.1601
1998-11-30,24.4449
1998-12-01,24.1725
1998-12-02,24.5058
1998-12-03,23.5474
1998-12-04,23.9123
1998-12-07,24.3841
1998-12-08,23.5936
1998-12-09,23.472
1998-12-10,23.6398
1998-12-11,22.7739
1998-12-14,22.2558
1998-12-15,23.0464
1998-12-16,22.7277
1998-12-17,23.9731
1998-12-18,24.4595
1998-12-21,24.642
1998-12-22,24.7636
1998-12-23,25.1601
1998-12-24,25.1455
1998-12-28,24.8098
1998-12-29,25.5395
1998-12-30,25.5249
1998-12-31,24.9022
1999-01-04,24.7028
1999-01-05,24.1409
1999-01-06,25.2926
1999-01-07,25.5218
1999-01-08,26.3287
1999-01-11,25.8265
1999-01-12,25.0025
1999-01-13,24.0591
1999-01-14,23.3887
1999-01-15,25.4462
1999-01-19,24.593
1999-01-20,24.8514
1999-01-21,24.9879
1999-01-22,23.9835
1999-01-25,24.6222
1999-01-26,24.805
1999-01-27,24.2565
1999-01-28,24.5003
1999-01-29,25.0635
1999-02-01,24.5613
1999-02-02,24.3029
1999-02-03,24.4101
1999-02-04,24.3321
1999-02-05,23.9518
1999-02-08,23.6471
1999-02-09,23.4033
1999-02-10,23.6178
1999-02-11,24.6076
1999-02-12,24.4101
1999-02-16,24.8977
1999-02-17,25.1244
1999-02-18,25.0342
1999-02-19,25.1244
1999-02-22,26.4213
1999-02-23,27.2283
1999-02-24,26.2531
1999-02-25,26.2994
1999-02-26,26.3896
1999-03-01,27.1819
1999-03-02,26.7407
1999-03-03,26.3141
1999-03-04,27.4574
1999-03-05,28.9031
1999-03-08,28.4009
1999-03-09,28.7982
1999-03-10,28.7056
1999-03-11,30.1074
1999-03-12,30.885
1999-03-15,30.6412
1999-03-16,30.122
1999-03-17,29.3906
1999-03-18,31.0532
1999-03-19,30.0464
1999-03-22,29.9391
1999-03-23,29.5442
1999-03-24,28.6154
1999-03-25,29.8636
1999-03-26,29.4979
1999-03-29,30.0927
1999-03-30,29.6886
1999-03-31,28.7581
1999-04-01,29.6446
1999-04-05,30.6045
1999-04-06,30.116
1999-04-07,30.8804
1999-04-08,31.1857
1999-04-09,31.3225
1999-04-12,33.0639
1999-04-13,33.9333
1999-04-14,33.3081
1999-04-15,32.529
1999-04-16,31.7206
1999-04-19,30.7876
1999-04-20,31.1711
1999-04-21,32.9417
1999-04-22,33.5816
1999-04-23,33.0639
1999-04-26,32.8025
1999-04-27,33.8405
1999-04-28,32.5143
1999-04-29,33.0785
1999-04-30,31.9648
1999-05-03,32.4533
1999-05-04,31.0929
1999-05-05,31.7035
1999-05-06,31.9941
1999-05-07,32.8953
1999-05-10,32.0405
1999-05-11,31.2468
1999-05-12,30.773
1999-05-13,30.4384
1999-05-14,29.5518
1999-05-17,29.5665
1999-05-18,30.3163
1999-05-19,30.4384
1999-05-20,30.1477
1999-05-21,29.4004
1999-05-24,28.5603
1999-05-25,28.2086
1999-05-26,29.3687
1999-05-27,28.4528
1999-05-28,29.6129
1999-06-01,28.8802
1999-06-02,28.9559
1999-06-03,29.5836
1999-06-04,30.4823
1999-06-07,31.2004
1999-06-08,31.491
1999-06-09,30.4677
1999-06-10,30.072
1999-06-11,29.4444
1999-06-14,28.8509
1999-06-15,29.1098
1999-06-16,30.2552
1999-06-17,30.834
1999-06-18,30.4677
1999-06-21,30.8804
1999-06-22,30.4823
1999-06-23,29.9939
1999-06-24,29.2929
1999-06-25,29.9035
1999-06-28,30.6045
1999-06-29,31.11
1999-06-30,32.3886
1999-07-01,32.555
1999-07-02,33.5189
1999-07-06,33.8101
1999-07-07,33.1519
1999-07-08,32.7091
1999-07-09,32.6626
1999-07-12,32.9538
1999-07-13,32.6479
1999-07-14,32.2198
1999-07-15,32.8314
1999-07-16,33.2278
1999-07-19,34.0547
1999-07-20,32.7091
1999-07-21,32.7238
1999-07-22,33.5189
1999-07-23,33.1373
1999-07-26,33.3819
1999-07-27,34.8034
1999-07-28,34.5588
1999-07-29,33.9618
1999-07-30,32.2809
1999-08-02,31.8063
1999-08-03,31.0111
1999-08-04,30.1548
1999-08-05,31.1481
1999-08-06,30.1083
1999-08-09,30.5071
1999-08-10,30.5683
1999-08-11,31.0723
1999-08-12,31.7769
1999-08-13,32.9538
1999-08-16,33.1984
1999-08-17,34.2676
1999-08-18,33.4724
1999-08-19,33.8394
1999-08-20,34.9869
1999-08-23,35.8139
1999-08-24,36.2102
1999-08-25,35.9974
1999-08-26,35.9974
1999-08-27,35.3686
1999-08-30,34.1918
1999-08-31,33.6731
1999-09-01,33.9789
1999-09-02,33.2131
1999-09-03,34.7276
1999-09-07,34.4682
1999-09-08,33.9789
1999-09-09,34.0083
1999-09-10,34.2382
1999-09-13,34.2994
1999-09-14,34.0841
1999-09-15,33.4284
1999-09-16,33.3966
1999-09-17,34.2236
1999-09-20,34.0841
1999-09-21,33.6731
1999-09-22,33.4113
1999-09-23,33.1226
1999-09-24,33.3966
1999-09-27,33.0002
1999-09-28,33.2278
1999-09-29,32.7091
1999-09-30,32.9538
1999-10-01,32.2344
1999-10-04,33.7171
1999-10-05,34.3606
1999-10-06,35.8394
1999-10-07,35.6703
1999-10-08,36.7118
1999-10-11,36.4226
1999-10-12,35.5796
1999-10-13,34.7979
1999-10-14,34.7513
1999-10-15,32.9453
1999-10-18,33.7564
1999-10-19,34.2171
1999-10-20,35.5037
1999-10-21,35.5943
1999-10-22,36.4055
1999-10-25,35.0577
1999-10-26,35.4718
1999-10-27,37.219
1999-10-28,39.2089
1999-10-29,37.5548
1999-11-01,36.5746
1999-11-02,36.131
1999-11-03,36.0232
1999-11-04,35.8541
1999-11-05,36.7118
1999-11-08,36.0085
1999-11-09,35.8394
1999-11-10,35.7781
1999-11-11,35.7781
1999-11-12,37.8611
1999-11-15,38.5816
1999-11-16,39.1329
1999-11-17,37.9224
1999-11-18,37.9689
1999-11-19,37.9983
1999-11-22,38.0914
1999-11-23,38.0914
1999-11-24,37.5866
1999-11-26,37.4028
1999-11-29,36.207
1999-11-30,37.1112
1999-12-01,37.4028
1999-12-02,37.6479
1999-12-03,38.459
1999-12-06,38.856
1999-12-07,39.0864
1999-12-08,38.8732
1999-12-09,39.0717
1999-12-10,41.2919
1999-12-13,40.7724
1999-12-14,39.3314
1999-12-15,38.7506
1999-12-16,37.616
1999-12-17,37.9983
1999-12-20,38.1061
1999-12-21,38.8119
1999-12-22,38.1674
1999-12-23,39.0398
1999-12-27,39.0398
1999-12-28,39.8215
1999-12-29,40.5273
1999-12-30,40.5567
1999-12-31,40.7405
2000-01-03,38.5203
2000-01-04,37.0794
2000-01-05,36.1995
2000-01-06,36.8131
2000-01-07,37.3653
2000-01-10,37.888
2000-01-11,38.2856
2000-01-12,38.0549
2000-01-13,38.3003
2000-01-14,39.1446
2000-01-18,37.1959
2000-01-19,36.5677
2000-01-20,37.3653
2000-01-21,37.2278
2000-01-24,37.1199
2000-01-25,38.8844
2000-01-26,39.2992
2000-01-27,39.9888
2000-01-28,38.9139
2000-01-31,40.433
2000-02-01,41.4147
2000-02-02,40.3103
2000-02-03,39.9741
2000-02-04,39.6354
2000-02-07,39.8956
2000-02-08,39.9888
2000-02-09,38.347
2000-02-10,37.8561
2000-02-11,37.6426
2000-02-14,37.7948
2000-02-15,39.0366
2000-02-16,37.5027
2000-02-17,36.3222
2000-02-18,33.8828
2000-02-22,34.084
2000-02-23,33.792
2000-02-24,31.9047
2000-02-25,30.6776
2000-02-28,32.6409
2000-02-29,32.8864
2000-03-01,33.3158
2000-03-02,32.7784
2000-03-03,32.7784
2000-03-06,31.782
2000-03-07,30.9696
2000-03-08,29.9413
2000-03-09,30.1401
2000-03-10,31.1831
2000-03-13,30.9991
2000-03-14,31.5684
2000-03-15,32.6409
2000-03-16,35.127
2000-03-17,35.2326
2000-03-20,34.9577
2000-03-21,35.6621
2000-03-22,36.0768
2000-03-23,38.1776
2000-03-24,38.1629
2000-03-27,36.8744
2000-03-28,37.4414
2000-03-29,37.1959
2000-03-30,36.521
2000-03-31,36.5529
2000-04-03,38.1334
2000-04-04,36.0007
2000-04-05,35.5246
2000-04-06,34.6043
2000-04-07,34.1748
2000-04-10,35.2178
2000-04-11,35.5565
2000-04-12,36.8892
2000-04-13,35.8461
2000-04-14,32.825
2000-04-17,32.8864
2000-04-18,34.3442
2000-04-19,34.2362
2000-04-20,35.1409
2000-04-24,36.8765
2000-04-25,38.7818
2000-04-26,38.1672
2000-04-27,38.059
2000-04-28,36.9085
2000-05-01,37.2158
2000-05-02,36.4168
2000-05-03,34.986
2000-05-04,35.5858
2000-05-05,35.8636
2000-05-08,37.3067
2000-05-09,36.4463
2000-05-10,35.2171
2000-05-11,36.1833
2000-05-12,36.8765
2000-05-15,38.4475
2000-05-16,37.71
2000-05-17,37.6141
2000-05-18,38.2631
2000-05-19,37.1568
2000-05-22,36.6479
2000-05-23,37.3854
2000-05-24,36.8765
2000-05-25,36.0505
2000-05-26,36.1833
2000-05-30,37.3854
2000-05-31,39.6423
2000-06-01,39.7824
2000-06-02,41.582
2000-06-05,41.1616
2000-06-06,39.9668
2000-06-07,41.6262
2000-06-08,40.9772
2000-06-09,39.7824
2000-06-12,39.598
2000-06-13,40.1512
2000-06-14,41.9508
2000-06-15,40.9772
2000-06-16,38.2631
2000-06-19,39.5538
2000-06-20,39.8709
2000-06-21,38.8162
2000-06-22,39.4579
2000-06-23,39.5538
2000-06-26,41.3976
2000-06-27,40.0111
2000-06-28,39.2293
2000-06-29,38.7204
2000-06-30,38.3516
2000-07-03,38.6319
2000-07-05,38.5506
2000-07-06,38.2699
2000-07-07,39.7029
2000-07-10,40.5376
2000-07-11,39.8876
2000-07-12,40.7223
2000-07-13,40.5819
2000-07-14,42.1036
2000-07-17,41.3649
2000-07-18,40.7666
2000-07-19,40.5376
2000-07-20,42.1036
2000-07-21,43.8099
2000-07-24,41.9632
2000-07-25,41.3206
2000-07-26,41.6899
2000-07-27,42.8422
2000-07-28,41.2763
2000-07-31,41.8746
2000-08-01,41.9189
2000-08-02,42.3843
2000-08-03,42.7536
2000-08-04,44.2309
2000-08-07,43.4922
2000-08-08,43.4922
2000-08-09,44.1349
2000-08-10,43.3076
2000-08-11,44.2309
2000-08-14,44.3195
2000-08-15,43.7212
2000-08-16,42.3843
2000-08-17,43.2115
2000-08-18,43.2115
2000-08-21,43.6252
2000-08-22,42.7979
2000-08-23,42.3325
2000-08-24,41.7785
2000-08-25,41.8303
2000-08-28,44.2309
2000-08-29,43.8099
2000-08-30,43.5809
2000-08-31,43.8616
2000-09-01,43.2559
2000-09-05,44.2309
2000-09-06,44.1349
2000-09-07,43.9059
2000-09-08,44.7332
2000-09-11,45.6565
2000-09-12,45.6122
2000-09-13,45.2872
2000-09-14,44.8735
2000-09-15,43.7655
2000-09-18,42.9382
2000-09-19,43.2559
2000-09-20,42.7979
2000-09-21,43.0712
2000-09-22,43.3519
2000-09-25,44.3639
2000-09-26,44.0462
2000-09-27,43.2559
2000-09-28,45.0139
2000-09-29,44.8735
2000-10-02,46.1662
2000-10-03,45.4275
2000-10-04,45.1169
2000-10-05,45.0725
2000-10-06,42.898
2000-10-09,41.8848
2000-10-10,41.0046
2000-10-11,40.265
2000-10-12,38.231
2000-10-13,39.799
2000-10-16,41.2783
2000-10-17,39.7103
2000-10-18,40.0357
2000-10-19,41.4632
2000-10-20,41.4632
2000-10-23,40.1688
2000-10-24,42.3433
2000-10-25,42.4838
2000-10-26,40.265
2000-10-27,41.2783
2000-10-30,43.1791
2000-10-31,44.3773
2000-11-01,43.1791
2000-11-02,42.6244
2000-11-03,44.148
2000-11-06,44.7027
2000-11-07,45.1613
2000-11-08,43.0829
2000-11-09,42.9942
2000-11-10,42.3877
2000-11-13,41.4188
2000-11-14,42.3877
2000-11-15,42.6244
2000-11-16,42.7575
2000-11-17,41.4632
2000-11-20,38.9263
2000-11-21,39.4292
2000-11-22,38.231
2000-11-24,38.0017
2000-11-27,39.2443
2000-11-28,40.6792
2000-11-29,42.114
2000-11-30,40.5386
2000-12-01,40.265
2000-12-04,38.4603
2000-12-05,40.1245
2000-12-06,39.8952
2000-12-07,39.5254
2000-12-08,40.6792
2000-12-11,41.7442
2000-12-12,41.5593
2000-12-13,41.7442
2000-12-14,40.9602
2000-12-15,40.4943
2000-12-18,42.114
2000-12-19,40.7235
2000-12-20,38.0905
2000-12-21,38.8301
2000-12-22,39.2961
2000-12-26,39.3848
2000-12-27,39.6141
2000-12-28,39.9395
2000-12-29,40.6348
2001-01-02,38.4159
2001-01-03,41.4826
2001-01-04,40.1418
2001-01-05,38.1936
2001-01-08,36.3936
2001-01-09,34.675
2001-01-10,34.5861
2001-01-11,35.4676
2001-01-12,35.5121
2001-01-16,35.838
2001-01-17,36.5269
2001-01-18,36.8084
2001-01-19,36.0677
2001-01-22,33.2898
2001-01-23,34.4898
2001-01-24,34.401
2001-01-25,34.3047
2001-01-26,34.5417
2001-01-29,35.3269
2001-01-30,35.4454
2001-01-31,34.9195
2001-02-01,35.2084
2001-02-02,35.6528
2001-02-05,35.8899
2001-02-06,34.7787
2001-02-07,34.3787
2001-02-08,34.8232
2001-02-09,34.875
2001-02-12,35.5491
2001-02-13,34.675
2001-02-14,34.5861
2001-02-15,34.6676
2001-02-16,35.0306
2001-02-20,34.038
2001-02-21,32.5713
2001-02-22,32.9639
2001-02-23,33.1639
2001-02-26,33.475
2001-02-27,33.6454
2001-02-28,32.5416
2001-03-01,31.8527
2001-03-02,32.3416
2001-03-05,32.0898
2001-03-06,31.8675
2001-03-07,32.6379
2001-03-08,32.9194
2001-03-09,31.6453
2001-03-12,29.8379
2001-03-13,30.8527
2001-03-14,28.586
2001-03-15,29.5119
2001-03-16,28.3712
2001-03-19,28.7193
2001-03-20,27.5934
2001-03-21,25.8748
2001-03-22,25.7859
2001-03-23,27.2526
2001-03-26,28.0378
2001-03-27,29.3934
2001-03-28,28.8897
2001-03-29,28.8897
2001-03-30,30.5342
2001-04-02,29.4082
2001-04-03,28.1193
2001-04-04,26.9538
2001-04-05,28.4013
2001-04-06,27.2433
2001-04-09,27.5031
2001-04-10,28.2603
2001-04-11,28.5424
2001-04-12,29.0991
2001-04-16,28.624
2001-04-17,28.9507
2001-04-18,31.623
2001-04-19,31.8977
2001-04-20,30.8065
2001-04-23,30.027
2001-04-24,30.2646
2001-04-25,30.5021
2001-04-26,31.1776
2001-04-27,32.4841
2001-04-30,31.5265
2001-05-01,31.3484
2001-05-02,32.1352
2001-05-03,31.5859
2001-05-04,32.5287
2001-05-07,32.1278
2001-05-08,30.6357
2001-05-09,30.8955
2001-05-10,31.7938
2001-05-11,31.3335
2001-05-14,31.5042
2001-05-15,31.0217
2001-05-16,32.8627
2001-05-17,32.9369
2001-05-18,32.5138
2001-05-21,33.3972
2001-05-22,34.184
2001-05-23,33.1819
2001-05-24,33.0631
2001-05-25,32.2466
2001-05-29,31.4746
2001-05-30,31.4374
2001-05-31,31.2147
2001-06-01,31.43
2001-06-04,31.7418
2001-06-05,31.6156
2001-06-06,31.1182
2001-06-07,30.5392
2001-06-08,30.4279
2001-06-11,30.7248
2001-06-12,31.1034
2001-06-13,30.7694
2001-06-14,29.5297
2001-06-15,28.921
2001-06-18,28.5498
2001-06-19,28.676
2001-06-20,29.2921
2001-06-21,29.9899
2001-06-22,30.079
2001-06-25,29.6336
2001-06-26,28.9952
2001-06-27,28.3048
2001-06-28,29.2995
2001-06-29,28.9432
2001-07-02,29.2847
2001-07-03,29.7086
2001-07-05,29.3813
2001-07-06,28.5259
2001-07-09,28.4218
2001-07-10,27.492
2001-07-11,27.7895
2001-07-12,28.6821
2001-07-13,29.1582
2001-07-16,28.511
2001-07-17,28.8383
2001-07-18,27.8565
2001-07-19,28.2507
2001-07-20,28.2284
2001-07-23,28.3771
2001-07-24,28.1242
2001-07-25,28.273
2001-07-26,28.8606
2001-07-27,29.3144
2001-07-30,29.5524
2001-07-31,29.9913
2001-08-01,30.8392
2001-08-02,30.7648
2001-08-03,30.0136
2001-08-06,29.6491
2001-08-07,29.8871
2001-08-08,29.5896
2001-08-09,29.6119
2001-08-10,29.6268
2001-08-13,29.7235
2001-08-14,29.2995
2001-08-15,28.7788
2001-08-16,28.3995
2001-08-17,27.8937
2001-08-20,28.3623
2001-08-21,27.2316
2001-08-22,27.6928
2001-08-23,28.0275
2001-08-24,28.4367
2001-08-27,28.3251
2001-08-28,27.5366
2001-08-29,27.5217
2001-08-30,26.7407
2001-08-31,27.1126
2001-09-04,27.0159
2001-09-05,27.2316
2001-09-06,26.1828
2001-09-07,25.7217
2001-09-10,26.0564
2001-09-17,22.4934
2001-09-18,20.4479
2001-09-19,19.4809
2001-09-20,19.4958
2001-09-21,19.0198
2001-09-24,20.4553
2001-09-25,20.0314
2001-09-26,20.2694
2001-09-27,20.433
2001-09-28,21.6083
2001-10-01,21.8166
2001-10-02,21.5562
2001-10-03,22.317
2001-10-04,21.4965
2001-10-05,20.7432
2001-10-08,20.4672
2001-10-09,21.3995
2001-10-10,22.0186
2001-10-11,22.3767
2001-10-12,22.3767
2001-10-15,23.0703
2001-10-16,23.3239
2001-10-17,22.3916
2001-10-18,22.4214
2001-10-19,21.8172
2001-10-22,22.6377
2001-10-23,22.5706
2001-10-24,22.3692
2001-10-25,22.8689
2001-10-26,22.9212
2001-10-29,22.3394
2001-10-30,22.0336
2001-10-31,21.959
2001-11-01,22.138
2001-11-02,22.3394
2001-11-05,22.6303
2001-11-06,22.8018
2001-11-07,23.6298
2001-11-08,24.122
2001-11-09,24.3458
2001-11-12,23.8983
2001-11-13,23.9729
2001-11-14,24.9201
2001-11-15,25.6511
2001-11-16,24.7262
2001-11-19,25.4945
2001-11-20,25.1066
2001-11-21,25.0096
2001-11-23,25.6362
2001-11-26,26.1807
2001-11-27,25.8077
2001-11-28,25.0693
2001-11-29,24.7859
2001-11-30,24.577
2001-12-03,23.9729
2001-12-04,24.8679
2001-12-05,25.8674
2001-12-06,26.218
2001-12-07,25.9047
2001-12-10,25.3677
2001-12-11,25.5243
2001-12-12,24.9276
2001-12-13,24.2861
2001-12-14,24.0624
2001-12-17,24.7038
2001-12-18,24.95
2001-12-19,25.8376
2001-12-20,25.2334
2001-12-21,25.4572
2001-12-24,25.2185
2001-12-26,25.8898
2001-12-27,26.0912
2001-12-28,26.8595
2001-12-31,26.5611
2002-01-02,26.7628
2002-01-03,27.2188
2002-01-04,28.1981
2002-01-07,28.0711
2002-01-08,27.6823
2002-01-09,27.7646
2002-01-10,28.2206
2002-01-11,27.944
2002-01-14,27.0992
2002-01-15,28.2056
2002-01-16,27.4132
2002-01-17,27.8019
2002-01-18,27.6898
2002-01-22,27.8318
2002-01-23,27.3459
2002-01-24,27.4057
2002-01-25,27.63
2002-01-28,27.1217
2002-01-29,25.7611
2002-01-30,26.3591
2002-01-31,26.6806
2002-02-01,26.1648
2002-02-04,25.006
2002-02-05,25.0808
2002-02-06,24.6024
2002-02-07,24.6696
2002-02-08,25.3723
2002-02-11,25.0958
2002-02-12,24.6696
2002-02-13,25.4247
2002-02-14,25.8134
2002-02-15,25.1929
2002-02-19,24.8565
2002-02-20,25.3424
2002-02-21,24.9761
2002-02-22,25.1257
2002-02-25,26.1648
2002-02-26,26.3367
2002-02-27,26.7479
2002-02-28,27.2487
2002-03-01,27.8916
2002-03-04,29.3868
2002-03-05,29.155
2002-03-06,29.8204
2002-03-07,29.5662
2002-03-08,30.2539
2002-03-11,31.0464
2002-03-12,30.71
2002-03-13,30.2315
2002-03-14,30.3362
2002-03-15,31.5099
2002-03-18,31.3379
2002-03-19,31.8164
2002-03-20,31.2333
2002-03-21,30.7025
2002-03-22,30.6576
2002-03-25,30.2091
2002-03-26,30.3138
2002-03-27,30.7847
2002-03-28,30.6352
2002-04-01,30.0521
2002-04-02,29.7979
2002-04-03,29.5582
2002-04-04,29.9178
2002-04-05,30.4571
2002-04-08,30.4871
2002-04-09,30.8242
2002-04-10,31.0489
2002-04-11,30.0826
2002-04-12,30.3522
2002-04-15,30.0751
2002-04-16,30.914
2002-04-17,30.8991
2002-04-18,31.7605
2002-04-19,32.5096
2002-04-22,31.8579
2002-04-23,32.0976
2002-04-24,31.8729
2002-04-25,31.8878
2002-04-26,31.6481
2002-04-29,30.7942
2002-04-30,30.7268
2002-05-01,31.2361
2002-05-02,31.6107
2002-05-03,31.3185
2002-05-06,30.8017
2002-05-07,30.4646
2002-05-08,32.0751
2002-05-09,31.4833
2002-05-10,31.2137
2002-05-13,32.2998
2002-05-14,33.2212
2002-05-15,33.5957
2002-05-16,33.2961
2002-05-17,33.1687
2002-05-20,32.4122
2002-05-21,31.6931
2002-05-22,31.6931
2002-05-23,32.1875
2002-05-24,31.8279
2002-05-28,31.2511
2002-05-29,31.6931
2002-05-30,31.6257
2002-05-31,31.8878
2002-06-03,30.7492
2002-06-04,30.0301
2002-06-05,30.6818
2002-06-06,30.2174
2002-06-07,29.341
2002-06-10,29.6481
2002-06-11,28.929
2002-06-12,27.8578
2002-06-13,26.8541
2002-06-14,26.929
2002-06-17,28.5994
2002-06-18,28.8466
2002-06-19,28.502
2002-06-20,28.0226
2002-06-21,27.8653
2002-06-24,27.8728
2002-06-25,27.2286
2002-06-26,26.7792
2002-06-27,27.7005
2002-06-28,27.2661
2002-07-01,27.8054
2002-07-02,27.6178
2002-07-03,27.1824
2002-07-05,27.4001
2002-07-08,27.7754
2002-07-09,27.1373
2002-07-10,26.199
2002-07-11,26.3266
2002-07-12,26.1464
2002-07-15,25.3582
2002-07-16,25.4032
2002-07-17,25.5909
2002-07-18,25.1255
2002-07-19,23.6842
2002-07-22,21.7549
2002-07-23,21.4696
2002-07-24,22.8509
2002-07-25,22.6557
2002-07-26,22.6557
2002-07-29,25.1255
2002-07-30,25.4858
2002-07-31,26.3866
2002-08-01,25.7486
2002-08-02,24.7727
2002-08-05,22.7458
2002-08-06,23.9919
2002-08-07,24.8327
2002-08-08,26.2665
2002-08-09,27.0247
2002-08-12,26.6569
2002-08-13,26.0638
2002-08-14,27.2574
2002-08-15,28.1207
2002-08-16,27.5502
2002-08-19,28.2934
2002-08-20,27.385
2002-08-21,27.7754
2002-08-22,28.6912
2002-08-23,27.9856
2002-08-26,28.5411
2002-08-27,27.8129
2002-08-28,27.2274
2002-08-29,27.0472
2002-08-30,27.0848
2002-09-03,24.9378
2002-09-04,25.8987
2002-09-05,25.5834
2002-09-06,26.0113
2002-09-09,26.2215
2002-09-10,26.259
2002-09-11,26.1164
2002-09-12,25.3357
2002-09-13,25.5909
2002-09-16,26.1464
2002-09-17,24.9378
2002-09-18,24.3898
2002-09-19,23.6541
2002-09-20,23.8043
2002-09-23,23.504
2002-09-24,23.2788
2002-09-25,23.8268
2002-09-26,24.615
2002-09-27,23.6091
2002-09-30,23.3389
2002-10-01,24.5024
2002-10-02,23.4788
2002-10-03,22.5457
2002-10-04,21.4696
2002-10-07,20.0548
2002-10-08,21.1836
2002-10-09,20.6042
2002-10-10,21.9512
2002-10-11,23.2154
2002-10-14,23.381
2002-10-15,25.4354
2002-10-16,24.2238
2002-10-17,25.6536
2002-10-18,25.4504
2002-10-21,25.917
2002-10-22,25.6536
2002-10-23,25.3677
2002-10-24,24.5098
2002-10-25,24.9312
2002-10-28,25.8192
2002-10-29,26.2105
2002-10-30,27.0458
2002-10-31,27.3694
2002-11-01,27.2791
2002-11-04,28.2122
2002-11-05,27.5274
2002-11-06,27.7381
2002-11-07,26.7147
2002-11-08,26.7222
2002-11-11,26.4137
2002-11-12,26.4062
2002-11-13,26.5115
2002-11-14,27.7758
2002-11-15,28.3326
2002-11-18,27.708
2002-11-19,28.0617
2002-11-20,28.9572
2002-11-21,29.6721
2002-11-22,29.6947
2002-11-25,29.5818
2002-11-26,28.5208
2002-11-27,29.5442
2002-11-29,29.2808
2002-12-02,28.9948
2002-12-03,28.596
2002-12-04,28.4154
2002-12-05,28.0918
2002-12-06,28.2649
2002-12-09,27.6177
2002-12-10,27.8059
2002-12-11,27.6554
2002-12-12,27.6027
2002-12-13,27.091
2002-12-16,27.7156
2002-12-17,27.6779
2002-12-18,27.1286
2002-12-19,26.8953
2002-12-20,27.8661
2002-12-23,27.7983
2002-12-24,27.4371
2002-12-26,27.3468
2002-12-27,26.8426
2002-12-30,26.8501
2002-12-31,26.6239
2003-01-02,27.6346
2003-01-03,27.7552
2003-01-06,28.7206
2003-01-07,28.3284
2003-01-08,28.1248
2003-01-09,28.7357
2003-01-10,28.8262
2003-01-13,29.0223
2003-01-14,28.9921
2003-01-15,28.4567
2003-01-16,28.1173
2003-01-17,27.7854
2003-01-21,27.0312
2003-01-22,26.4203
2003-01-23,26.6088
2003-01-24,25.3719
2003-01-27,25.3342
2003-01-28,26.4354
2003-01-29,26.5409
2003-01-30,26.1638
2003-01-31,26.7446
2003-02-03,26.8653
2003-02-04,26.2166
2003-02-05,26.1261
2003-02-06,25.4549
2003-02-07,25.3568
2003-02-10,25.3116
2003-02-11,24.9873
2003-02-12,24.4819
2003-02-13,24.5423
2003-02-14,25.0551
2003-02-18,25.8169
2003-02-19,25.8244
2003-02-20,25.4473
2003-02-21,25.4398
2003-02-24,24.9118
2003-02-25,24.9722
2003-02-26,24.6629
2003-02-27,24.9495
2003-02-28,25.2814
2003-03-03,25.0099
2003-03-04,24.7308
2003-03-05,24.9646
2003-03-06,24.5649
2003-03-07,24.9043
2003-03-10,24.0596
2003-03-11,23.8031
2003-03-12,23.773
2003-03-13,24.942
2003-03-14,25.3267
2003-03-17,26.9256
2003-03-18,27.2122
2003-03-19,27.4158
2003-03-20,27.6874
2003-03-21,28.5924
2003-03-24,27.4158
2003-03-25,26.556
2003-03-26,26.5334
2003-03-27,25.9602
2003-03-28,25.7867
2003-03-31,25.025
2003-04-01,25.3417
2003-04-02,26.2716
2003-04-03,26.2414
2003-04-04,26.8084
2003-04-07,27.0428
2003-04-08,26.6496
2003-04-09,26.0146
2003-04-10,26.3699
2003-04-11,26.1355
2003-04-14,26.9369
2003-04-15,27.7836
2003-04-16,27.4888
2003-04-17,28.0407
2003-04-21,27.64
2003-04-22,28.6531
2003-04-23,28.5094
2003-04-24,27.9727
2003-04-25,27.6702
2003-04-28,28.3431
2003-04-29,28.5623
2003-04-30,28.6153
2003-05-01,28.5623
2003-05-02,29.0689
2003-05-05,28.9933
2003-05-06,29.583
2003-05-07,29.5301
2003-05-08,28.9404
2003-05-09,30.0517
2003-05-12,30.5885
2003-05-13,30.5129
2003-05-14,30.5507
2003-05-15,30.9892
2003-05-16,30.7699
2003-05-19,30.029
2003-05-20,30.0441
2003-05-21,30.2331
2003-05-22,30.2331
2003-05-23,30.2256
2003-05-27,30.8153
2003-05-28,31.5108
2003-05-29,30.9892
2003-05-30,31.4957
2003-06-02,32.0552
2003-06-03,32.0325
2003-06-04,32.849
2003-06-05,32.8716
2003-06-06,32.6524
2003-06-09,32.3273
2003-06-10,32.5163
2003-06-11,33.038
2003-06-12,33.0153
2003-06-13,32.7734
2003-06-16,33.7184
2003-06-17,33.3026
2003-06-18,33.1967
2003-06-19,32.5466
2003-06-20,32.4861
2003-06-23,31.8661
2003-06-24,32.161
2003-06-25,32.1156
2003-06-26,32.2064
2003-06-27,32.0778
2003-06-30,31.7225
2003-07-01,31.7379
2003-07-02,32.0562
2003-07-03,32.0335
2003-07-07,33.0414
2003-07-08,33.5113
2003-07-09,33.2081
2003-07-10,32.7686
2003-07-11,33.3218
2003-07-14,34.4282
2003-07-15,34.216
2003-07-16,34.4813
2003-07-17,33.9508
2003-07-18,34.4585
2003-07-21,33.7235
2003-07-22,33.9053
2003-07-23,33.8674
2003-07-24,33.6325
2003-07-25,34.5495
2003-07-28,34.1251
2003-07-29,33.9508
2003-07-30,33.6477
2003-07-31,33.4431
2003-08-01,32.8974
2003-08-04,33.0414
2003-08-05,32.1699
2003-08-06,32.9505
2003-08-07,33.4431
2003-08-08,33.5946
2003-08-11,33.4127
2003-08-12,34.1024
2003-08-13,33.8902
2003-08-14,34.4964
2003-08-15,34.451
2003-08-18,34.5798
2003-08-19,34.7086
2003-08-20,34.5268
2003-08-21,34.8223
2003-08-22,34.4055
2003-08-25,34.2085
2003-08-26,34.1175
2003-08-27,33.731
2003-08-28,34.0796
2003-08-29,34.1327
2003-09-02,34.5798
2003-09-03,34.6329
2003-09-04,34.4889
2003-09-05,34.2464
2003-09-08,34.6329
2003-09-09,34.5268
2003-09-10,34.0948
2003-09-11,34.451
2003-09-12,34.0114
2003-09-15,33.9129
2003-09-16,34.3297
2003-09-17,34.3828
2003-09-18,35.6862
2003-09-19,35.709
2003-09-22,35.3679
2003-09-23,35.6332
2003-09-24,34.7693
2003-09-25,34.5646
2003-09-26,34.0038
2003-09-29,34.5646
2003-09-30,34.1706
2003-10-01,34.9833
2003-10-02,35.0744
2003-10-03,35.4086
2003-10-06,35.3479
2003-10-07,35.5681
2003-10-08,35.3175
2003-10-09,35.7732
2003-10-10,36.1226
2003-10-13,36.5935
2003-10-14,37.2011
2003-10-15,36.5403
2003-10-16,36.753
2003-10-17,36.3276
2003-10-20,36.3808
2003-10-21,36.7606
2003-10-22,35.7656
2003-10-23,36.1909
2003-10-24,36.0846
2003-10-27,35.5529
2003-10-28,36.0998
2003-10-29,35.9631
2003-10-30,35.3479
2003-10-31,35.6441
2003-11-03,35.8415
2003-11-04,35.8188
2003-11-05,35.9327
2003-11-06,36.0011
2003-11-07,35.3479
2003-11-10,34.9757
2003-11-11,34.5124
2003-11-12,34.9985
2003-11-13,34.763
2003-11-14,34.444
2003-11-17,33.3655
2003-11-18,33.806
2003-11-19,34.1175
2003-11-20,33.7453
2003-11-21,34.0947
2003-11-24,34.3073
2003-11-25,34.444
2003-11-26,34.7858
2003-11-28,34.7175
2003-12-01,34.9529
2003-12-02,34.7554
2003-12-03,34.9301
2003-12-04,34.9833
2003-12-05,34.558
2003-12-08,34.8998
2003-12-09,34.7023
2003-12-10,34.3225
2003-12-11,34.4213
2003-12-12,34.3377
2003-12-15,34.4061
2003-12-16,34.4061
2003-12-17,34.201
2003-12-18,35.5377
2003-12-19,35.8415
2003-12-22,36.0162
2003-12-23,36.1833
2003-12-24,36.3656
2003-12-26,36.3276
2003-12-29,36.8289
2003-12-30,36.7452
2003-12-31,36.6615
2004-01-02,36.3342
2004-01-05,36.6843
2004-01-06,36.7224
2004-01-07,36.8289
2004-01-08,36.6843
2004-01-09,36.4788
2004-01-12,36.3494
2004-01-13,36.3342
2004-01-14,37.0725
2004-01-15,37.8031
2004-01-16,37.9249
2004-01-20,38.2141
2004-01-21,38.3587
2004-01-22,38.0847
2004-01-23,37.9782
2004-01-26,38.7164
2004-01-27,38.4729
2004-01-28,37.7346
2004-01-29,38.8001
2004-01-30,39.4242
2004-02-02,39.9341
2004-02-03,39.9341
2004-02-04,39.7971
2004-02-05,39.6373
2004-02-06,40.3527
2004-02-09,40.406
2004-02-10,40.2234
2004-02-11,40.8703
2004-02-12,40.5658
2004-02-13,40.8018
2004-02-17,40.8855
2004-02-18,40.6648
2004-02-19,40.6191
2004-02-20,40.4821
2004-02-23,40.3603
2004-02-24,40.4821
2004-02-25,40.7866
2004-02-26,40.6496
2004-02-27,40.68
2004-03-01,40.7942
2004-03-02,40.6572
2004-03-03,40.6724
2004-03-04,40.6343
2004-03-05,40.1929
2004-03-08,40.4517
2004-03-09,40.4669
2004-03-10,39.721
2004-03-11,39.2263
2004-03-12,39.7058
2004-03-15,38.7849
2004-03-16,38.5718
2004-03-17,38.9143
2004-03-18,39.2339
2004-03-19,38.8838
2004-03-22,38.2293
2004-03-23,38.1989
2004-03-24,38.0999
2004-03-25,38.039
2004-03-26,38.0695
2004-03-29,38.6707
2004-03-30,39.4318
2004-03-31,39.5155
2004-04-01,39.8129
2004-04-02,40.0188
2004-04-05,40.0722
2004-04-06,39.9959
2004-04-07,39.9349
2004-04-08,39.7291
2004-04-12,39.8816
2004-04-13,39.2181
2004-04-14,37.9904
2004-04-15,37.9065
2004-04-16,38.5395
2004-04-19,38.2726
2004-04-20,37.8227
2004-04-21,38.0057
2004-04-22,38.7987
2004-04-23,38.3641
2004-04-26,38.3183
2004-04-27,38.2497
2004-04-28,37.4185
2004-04-29,37.388
2004-04-30,37.388
2004-05-03,37.6854
2004-05-04,37.5863
2004-05-05,37.7769
2004-05-06,37.4643
2004-05-07,36.9381
2004-05-10,36.7322
2004-05-11,36.7246
2004-05-12,36.8008
2004-05-13,36.9152
2004-05-14,37.2889
2004-05-17,37.1974
2004-05-18,37.3651
2004-05-19,37.2508
2004-05-20,37.632
2004-05-21,37.8684
2004-05-24,38.1048
2004-05-25,38.509
2004-05-26,38.3641
2004-05-27,38.8902
2004-05-28,38.6615
2004-06-01,38.6005
2004-06-02,38.8521
2004-06-03,38.6844
2004-06-04,38.8597
2004-06-07,39.2334
2004-06-08,39.3935
2004-06-09,39.0428
2004-06-10,39.0504
2004-06-14,38.9055
2004-06-15,39.0504
2004-06-16,39.302
2004-06-17,39.2715
2004-06-18,39.5842
2004-06-21,39.2868
2004-06-22,39.2944
2004-06-23,39.1266
2004-06-24,38.8597
2004-06-25,39.119
2004-06-28,38.8369
2004-06-29,39.1038
2004-06-30,39.2336
2004-07-01,39.2031
2004-07-02,39.1496
2004-07-06,38.8516
2004-07-07,38.9586
2004-07-08,38.4085
2004-07-09,38.2022
2004-07-12,37.9806
2004-07-13,37.8278
2004-07-14,37.6674
2004-07-15,37.3541
2004-07-16,37.2089
2004-07-19,37.0103
2004-07-20,37.5145
2004-07-21,36.9721
2004-07-22,36.9186
2004-07-23,36.7352
2004-07-26,37.3617
2004-07-27,37.8202
2004-07-28,38.0952
2004-07-29,38.1945
2004-07-30,38.3856
2004-08-02,38.3932
2004-08-03,38.1563
2004-08-04,38.3703
2004-08-05,37.8507
2004-08-06,37.7056
2004-08-09,37.7132
2004-08-10,38.271
2004-08-11,38.3092
2004-08-12,37.7972
2004-08-13,37.6979
2004-08-16,37.7438
2004-08-17,37.973
2004-08-18,38.2251
2004-08-19,38.0417
2004-08-20,38.1563
2004-08-23,37.9959
2004-08-24,38.0188
2004-08-25,38.1563
2004-08-26,38.3015
2004-08-27,38.2098
2004-08-30,37.9424
2004-08-31,38.2022
2004-09-01,38.2786
2004-09-02,38.5689
2004-09-03,38.439
2004-09-07,38.9662
2004-09-08,38.9051
2004-09-09,38.9051
2004-09-10,39.2107
2004-09-13,39.333
2004-09-14,39.2184
2004-09-15,38.8898
2004-09-16,38.9127
2004-09-17,39.2566
2004-09-20,39.0808
2004-09-21,39.3177
2004-09-22,38.8669
2004-09-23,38.8669
2004-09-24,39.1267
2004-09-27,38.6453
2004-09-28,38.8516
2004-09-29,39.2107
2004-09-30,39.3406
2004-10-01,39.4858
2004-10-04,40.204
2004-10-05,40.3415
2004-10-06,40.7857
2004-10-07,40.6172
2004-10-08,40.0352
2004-10-11,40.2267
2004-10-12,40.3798
2004-10-13,39.9663
2004-10-14,39.6141
2004-10-15,40.2497
2004-10-18,40.3569
2004-10-19,39.9663
2004-10-20,39.928
2004-10-21,39.9969
2004-10-22,39.5911
2004-10-25,39.1469
2004-10-26,39.6141
2004-10-27,40.265
2004-10-28,40.3416
2004-10-29,40.6172
2004-11-01,40.533
2004-11-02,41.3447
2004-11-03,41.5898
2004-11-04,42.0569
2004-11-05,42.1565
2004-11-08,41.9191
2004-11-09,41.8578
2004-11-10,41.9267
2004-11-11,42.4398
2004-11-12,42.57
2004-11-15,42.884
2004-11-16,42.7231
2004-11-17,42.9452
2004-11-18,42.9146
2004-11-19,42.6312
2004-11-22,42.9912
2004-11-23,43.0141
2004-11-24,43.0984
2004-11-26,42.9682
2004-11-29,42.7538
2004-11-30,42.6925
2004-12-01,43.1826
2004-12-02,42.9912
2004-12-03,43.0524
2004-12-06,43.0831
2004-12-07,42.4781
2004-12-08,42.6236
2004-12-09,42.3326
2004-12-10,42.279
2004-12-13,42.1718
2004-12-14,42.9376
2004-12-15,42.9835
2004-12-16,42.8763
2004-12-17,42.861
2004-12-20,42.7538
2004-12-21,43.2439
2004-12-22,43.5885
2004-12-23,43.2439
2004-12-27,43.152
2004-12-28,43.1443
2004-12-29,43.0371
2004-12-30,43.106
2004-12-31,43.2132
2005-01-03,42.7691
2005-01-04,42.1871
2005-01-05,41.7727
2005-01-06,41.5732
2005-01-07,41.2585
2005-01-10,41.3506
2005-01-11,40.9669
2005-01-12,40.8825
2005-01-13,40.6138
2005-01-14,40.468
2005-01-18,40.775
2005-01-19,40.7059
2005-01-20,40.2148
2005-01-21,39.8617
2005-01-24,40.399
2005-01-25,41.0129
2005-01-26,40.8211
2005-01-27,40.5218
2005-01-28,40.4911
2005-01-31,40.9439
2005-02-01,43.5839
2005-02-02,42.8088
2005-02-03,42.4941
2005-02-04,42.8855
2005-02-07,42.5939
2005-02-08,42.3099
2005-02-09,42.0643
2005-02-10,42.2946
2005-02-11,42.3176
2005-02-14,41.8571
2005-02-15,41.8264
2005-02-16,41.9262
2005-02-17,41.8801
2005-02-18,41.5732
2005-02-22,41.2815
2005-02-23,41.4274
2005-02-24,41.7113
2005-02-25,41.8955
2005-02-28,41.5885
2005-03-01,41.9492
2005-03-02,42.049
2005-03-03,42.0413
2005-03-04,42.1795
2005-03-07,42.1641
2005-03-08,41.7957
2005-03-09,41.2125
2005-03-10,41.4274
2005-03-11,41.128
2005-03-14,41.3122
2005-03-15,41.0513
2005-03-16,40.4143
2005-03-17,40.1917
2005-03-18,40.2915
2005-03-21,40.1457
2005-03-22,39.3015
2005-03-23,38.6799
2005-03-24,38.5878
2005-03-28,39.2554
2005-03-29,39.0713
2005-03-30,39.6251
2005-03-31,39.5097
2005-04-01,39.1713
2005-04-04,39.3943
2005-04-05,39.3867
2005-04-06,39.6328
2005-04-07,39.7867
2005-04-08,39.6405
2005-04-11,39.4636
2005-04-12,40.1251
2005-04-13,40.0713
2005-04-14,39.3559
2005-04-15,39.0174
2005-04-18,39.1559
2005-04-19,38.902
2005-04-20,38.5174
2005-04-21,38.7251
2005-04-22,38.3251
2005-04-25,39.2328
2005-04-26,39.6328
2005-04-27,40.0867
2005-04-28,39.7713
2005-04-29,40.5021
2005-05-02,40.8483
2005-05-03,40.7944
2005-05-04,41.179
2005-05-05,40.9252
2005-05-06,40.7867
2005-05-09,40.6175
2005-05-10,40.3636
2005-05-11,40.2944
2005-05-12,40.1175
2005-05-13,39.7482
2005-05-16,40.3867
2005-05-17,40.4713
2005-05-18,41.156
2005-05-19,40.956
2005-05-20,40.856
2005-05-23,40.8483
2005-05-24,40.6867
2005-05-25,40.5175
2005-05-26,40.6713
2005-05-27,40.9637
2005-05-31,41.456
2005-06-01,41.6637
2005-06-02,41.7329
2005-06-03,41.6714
2005-06-06,41.656
2005-06-07,42.1329
2005-06-08,41.9714
2005-06-09,42.0714
2005-06-10,42.0714
2005-06-13,42.3176
2005-06-14,42.3176
2005-06-15,42.3022
2005-06-16,42.256
2005-06-17,42.1637
2005-06-20,42.056
2005-06-21,42.1099
2005-06-22,42.1714
2005-06-23,41.256
2005-06-24,41.3098
2005-06-27,41.0637
2005-06-28,41.5483
2005-06-29,41.2939
2005-06-30,41.0009
2005-07-01,41.2785
2005-07-05,41.6023
2005-07-06,41.078
2005-07-07,41.2245
2005-07-08,41.5637
2005-07-11,41.6254
2005-07-12,41.5637
2005-07-13,41.556
2005-07-14,41.6871
2005-07-15,41.4558
2005-07-18,40.8698
2005-07-19,41.132
2005-07-20,41.5637
2005-07-21,41.8875
2005-07-22,42.0957
2005-07-25,42.1188
2005-07-26,41.8259
2005-07-27,42.3887
2005-07-28,42.7973
2005-07-29,42.3887
2005-08-01,42.2884
2005-08-02,42.7125
2005-08-03,42.7356
2005-08-04,43.098
2005-08-05,43.0517
2005-08-08,42.9438
2005-08-09,42.8744
2005-08-10,43.576
2005-08-11,43.7996
2005-08-12,43.7148
2005-08-15,43.6145
2005-08-16,43.1828
2005-08-17,43.1828
2005-08-18,43.2368
2005-08-19,43.3061
2005-08-22,43.3832
2005-08-23,43.1982
2005-08-24,42.7587
2005-08-25,42.9361
2005-08-26,42.4195
2005-08-29,43.1134
2005-08-30,42.5891
2005-08-31,42.5968
2005-09-01,42.6354
2005-09-02,42.6971
2005-09-06,43.8998
2005-09-07,44.2005
2005-09-08,44.2005
2005-09-09,44.9098
2005-09-12,45.1642
2005-09-13,44.5474
2005-09-14,43.9461
2005-09-15,44.3701
2005-09-16,45.8658
2005-09-19,45.5035
2005-09-20,45.1488
2005-09-21,43.9152
2005-09-22,43.9461
2005-09-23,43.8458
2005-09-26,43.9384
2005-09-27,43.6916
2005-09-28,43.6531
2005-09-29,44.3547
2005-09-30,44.2776
2005-10-03,44.5133
2005-10-04,43.7504
2005-10-05,44.0228
2005-10-06,44.0052
2005-10-07,43.8206
2005-10-10,43.0822
2005-10-11,43.2316
2005-10-12,42.4053
2005-10-13,42.4053
2005-10-14,42.0889
2005-10-17,42.2823
2005-10-18,42.1065
2005-10-19,43.0119
2005-10-20,41.6581
2005-10-21,41.4735
2005-10-24,43.5657
2005-10-25,43.7415
2005-10-26,44.0931
2005-10-27,42.9328
2005-10-28,43.5305
2005-10-31,43.7679
2005-11-01,43.2229
2005-11-02,43.8646
2005-11-03,43.7151
2005-11-04,43.3811
2005-11-07,43.8118
2005-11-08,43.2053
2005-11-09,43.4075
2005-11-10,43.8558
2005-11-11,44.3305
2005-11-14,44.7172
2005-11-15,44.7172
2005-11-16,44.0052
2005-11-17,43.4778
2005-11-18,43.8646
2005-11-21,44.7084
2005-11-22,45.4732
2005-11-23,46.0622
2005-11-25,46.2556
2005-11-28,46.449
2005-11-29,45.8073
2005-11-30,45.1919
2005-12-01,45.7457
2005-12-02,45.3502
2005-12-05,45.2007
2005-12-06,45.2535
2005-12-07,44.9546
2005-12-08,44.5326
2005-12-09,44.893
2005-12-12,44.893
2005-12-13,44.6381
2005-12-14,45.2622
2005-12-15,45.2271
2005-12-16,45.6578
2005-12-19,45.0776
2005-12-20,45.526
2005-12-21,46.0534
2005-12-22,45.9655
2005-12-23,46.0094
2005-12-27,45.0776
2005-12-28,45.1831
2005-12-29,44.9282
2005-12-30,45.2183
2006-01-03,46.194
2006-01-04,45.7799
2006-01-05,46.238
2006-01-06,46.4142
2006-01-09,47.5332
2006-01-10,47.4539
2006-01-11,47.2072
2006-01-12,47.1984
2006-01-13,47.0927
2006-01-17,46.6874
2006-01-18,46.5023
2006-01-19,46.3261
2006-01-20,45.2424
2006-01-23,45.2777
2006-01-24,46.5552
2006-01-25,46.6169
2006-01-26,46.9869
2006-01-27,46.9517
2006-01-30,46.4142
2006-01-31,46.2645
2006-02-01,46.3349
2006-02-02,46.2997
2006-02-03,46.1323
2006-02-06,46.0266
2006-02-07,45.9032
2006-02-08,46.4407
2006-02-09,46.7402
2006-02-10,46.7138
2006-02-13,46.7314
2006-02-14,47.1631
2006-02-15,47.7711
2006-02-16,47.9649
2006-02-17,47.9825
2006-02-21,47.4715
2006-02-22,48.3349
2006-02-23,48.0794
2006-02-24,48.3261
2006-02-27,48.238
2006-02-28,47.5067
2006-03-01,47.6742
2006-03-02,47.4186
2006-03-03,47.3658
2006-03-06,47.3393
2006-03-07,47.2072
2006-03-08,47.4186
2006-03-09,46.8548
2006-03-10,47.7887
2006-03-13,47.4186
2006-03-14,47.5244
2006-03-15,47.5949
2006-03-16,47.6565
2006-03-17,48.1499
2006-03-20,47.6918
2006-03-21,47.1808
2006-03-22,47.1631
2006-03-23,46.7667
2006-03-24,46.8195
2006-03-27,46.9957
2006-03-28,46.3261
2006-03-29,46.2821
2006-03-30,45.9208
2006-03-31,46.2997
2006-04-03,46.194
2006-04-04,46.8548
2006-04-05,46.7134
2006-04-06,46.1394
2006-04-07,45.6537
2006-04-10,45.7773
2006-04-11,45.2652
2006-04-12,45.2122
2006-04-13,45.1857
2006-04-17,45.0002
2006-04-18,46.1482
2006-04-19,45.848
2006-04-20,46.3513
2006-04-21,46.1659
2006-04-24,45.7597
2006-04-25,45.2917
2006-04-26,45.8127
2006-04-27,47.3668
2006-04-28,47.5258
2006-05-01,46.6162
2006-05-02,46.4131
2006-05-03,46.2807
2006-05-04,46.5809
2006-05-05,47.4463
2006-05-08,47.3403
2006-05-09,47.3315
2006-05-10,47.4021
2006-05-11,46.5014
2006-05-12,46.7134
2006-05-15,46.9076
2006-05-16,46.7752
2006-05-17,45.8921
2006-05-18,45.8391
2006-05-19,46.0422
2006-05-22,45.8215
2006-05-23,46.1217
2006-05-24,47.2079
2006-05-25,47.7907
2006-05-26,48.0379
2006-05-30,47.5169
2006-05-31,47.9673
2006-06-01,48.3823
2006-06-02,48.3117
2006-06-05,47.3403
2006-06-06,47.0313
2006-06-07,47.2609
2006-06-08,47.1902
2006-06-09,47.1637
2006-06-12,46.6427
2006-06-13,46.1041
2006-06-14,46.4926
2006-06-15,47.2697
2006-06-16,46.7575
2006-06-19,46.1306
2006-06-20,46.5103
2006-06-21,46.9076
2006-06-22,46.5897
2006-06-23,46.4661
2006-06-26,46.7928
2006-06-27,46.21
2006-06-28,46.0776
2006-06-29,47.5788
2006-06-30,47.1107
2006-07-03,47.3933
2006-07-05,46.5078
2006-07-06,46.4989
2006-07-07,46.0827
2006-07-10,46.1359
2006-07-11,46.4901
2006-07-12,46.2421
2006-07-13,45.4009
2006-07-14,45.4097
2006-07-17,45.4009
2006-07-18,45.1529
2006-07-19,46.1624
2006-07-20,45.8791
2006-07-21,44.8076
2006-07-24,44.9138
2006-07-25,45.0113
2006-07-26,45.8259
2006-07-27,45.392
2006-07-28,46.1713
2006-07-31,46.1182
2006-08-01,46.1182
2006-08-02,45.8259
2006-08-03,46.127
2006-08-04,46.251
2006-08-07,46.127
2006-08-08,46.3041
2006-08-09,46.0916
2006-08-10,45.9853
2006-08-11,45.8791
2006-08-14,45.9056
2006-08-15,46.7646
2006-08-16,46.9417
2006-08-17,47.3845
2006-08-18,47.1719
2006-08-21,47.2251
2006-08-22,47.0125
2006-08-23,46.9417
2006-08-24,47.048
2006-08-25,46.8531
2006-08-28,46.9151
2006-08-29,46.5609
2006-08-30,46.4901
2006-08-31,46.5609
2006-09-01,46.5521
2006-09-05,46.6583
2006-09-06,46.2953
2006-09-07,46.3218
2006-09-08,46.6052
2006-09-11,46.4724
2006-09-12,46.5786
2006-09-13,47.3136
2006-09-14,47.349
2006-09-15,47.5881
2006-09-18,47.3667
2006-09-19,47.2959
2006-09-20,48.0929
2006-09-21,48.0486
2006-09-22,47.9158
2006-09-25,48.6773
2006-09-26,49.5717
2006-09-27,49.5894
2006-09-28,49.5894
2006-09-29,49.6603
2006-10-02,48.8899
2006-10-03,49.5363
2006-10-04,50.2554
2006-10-05,50.2731
2006-10-06,50.211
2006-10-09,50.1577
2006-10-10,51.1699
2006-10-11,51.0012
2006-10-12,51.4363
2006-10-13,51.4896
2006-10-16,51.2321
2006-10-17,51.5428
2006-10-18,51.3741
2006-10-19,51.5073
2006-10-20,51.4984
2006-10-23,50.2554
2006-10-24,50.3797
2006-10-25,50.4507
2006-10-26,51.3031
2006-10-27,50.8325
2006-10-30,50.8858
2006-10-31,51.3297
2006-11-01,51.2143
2006-11-02,50.9834
2006-11-03,50.6816
2006-11-06,51.6494
2006-11-07,51.898
2006-11-08,52.4396
2006-11-09,52.2887
2006-11-10,52.2443
2006-11-13,52.3508
2006-11-14,52.7149
2006-11-15,52.8214
2006-11-16,52.8924
2006-11-17,53.1233
2006-11-20,52.9013
2006-11-21,52.7859
2006-11-22,53.1855
2006-11-24,53.1855
2006-11-27,52.262
2006-11-28,52.2887
2006-11-29,52.1999
2006-11-30,52.1732
2006-12-01,51.9513
2006-12-04,53.1677
2006-12-05,53.1588
2006-12-06,53.0079
2006-12-07,52.5284
2006-12-08,53.1055
2006-12-11,52.6705
2006-12-12,52.4929
2006-12-13,53.3009
2006-12-14,54.9346
2006-12-15,54.7038
2006-12-18,54.8725
2006-12-19,54.5972
2006-12-20,54.4374
2006-12-21,54.0645
2006-12-22,54.0911
2006-12-26,54.3486
2006-12-27,54.7038
2006-12-28,54.3131
2006-12-29,53.8336
2007-01-03,53.6644
2007-01-04,53.3083
2007-01-05,52.6408
2007-01-08,53.0947
2007-01-09,52.8099
2007-01-10,52.7654
2007-01-11,52.89
2007-01-12,52.5162
2007-01-16,52.6497
2007-01-17,52.712
2007-01-18,52.4716
2007-01-19,51.7062
2007-01-22,51.6706
2007-01-23,51.181
2007-01-24,52.4271
2007-01-25,51.3946
2007-01-26,51.4302
2007-01-29,51.3501
2007-01-30,51.626
2007-01-31,51.7863
2007-02-01,51.724
2007-02-02,51.7952
2007-02-05,51.8219
2007-02-06,51.626
2007-02-07,52.1779
2007-02-08,52.0533
2007-02-09,51.2077
2007-02-12,50.7359
2007-02-13,51.2344
2007-02-14,52.2046
2007-02-15,52.4093
2007-02-16,52.534
2007-02-20,52.2402
2007-02-21,52.1423
2007-02-22,51.7863
2007-02-23,51.6528
2007-02-26,50.8873
2007-02-27,49.4898
2007-02-28,50.549
2007-03-01,50.3443
2007-03-02,49.294
2007-03-05,48.9023
2007-03-06,50.2375
2007-03-07,49.7479
2007-03-08,50.5312
2007-03-09,50.6647
2007-03-12,50.4511
2007-03-13,48.7065
2007-03-14,49.5699
2007-03-15,49.9616
2007-03-16,49.4275
2007-03-19,49.8458
2007-03-20,50.0951
2007-03-21,51.1187
2007-03-22,51.1187
2007-03-23,51.1009
2007-03-26,50.8784
2007-03-27,50.2464
2007-03-28,49.65
2007-03-29,50.3176
2007-03-30,50.2108
2007-04-02,49.6856
2007-04-03,49.8908
2007-04-04,50.2389
2007-04-05,49.9176
2007-04-09,50.2835
2007-04-10,50.3817
2007-04-11,50.0336
2007-04-12,50.4441
2007-04-13,51.2028
2007-04-16,52.2381
2007-04-17,51.9614
2007-04-18,52.131
2007-04-19,52.6486
2007-04-20,54.5229
2007-04-23,54.5764
2007-04-24,54.3265
2007-04-25,55.6117
2007-04-26,55.4868
2007-04-27,55.4689
2007-04-30,54.1659
2007-05-01,54.7014
2007-05-02,55.9866
2007-05-03,56.5488
2007-05-04,56.5488
2007-05-07,56.4328
2007-05-08,56.4507
2007-05-09,56.4417
2007-05-10,55.9687
2007-05-11,56.1561
2007-05-14,55.6831
2007-05-15,56.2543
2007-05-16,57.0933
2007-05-17,56.7273
2007-05-18,57.12
2007-05-21,57.361
2007-05-22,57.3164
2007-05-23,57.0129
2007-05-24,57.0754
2007-05-25,56.8166
2007-05-29,57.361
2007-05-30,57.9947
2007-05-31,58.0215
2007-06-01,58.0572
2007-06-04,58.0304
2007-06-05,57.7894
2007-06-06,56.9326
2007-06-07,55.9598
2007-06-08,56.29
2007-06-11,56.2989
2007-06-12,55.4421
2007-06-13,56.3882
2007-06-14,56.3971
2007-06-15,56.9237
2007-06-18,56.3346
2007-06-19,56.3614
2007-06-20,55.4154
2007-06-21,55.8973
2007-06-22,55.2815
2007-06-25,55.1208
2007-06-26,54.746
2007-06-27,54.9156
2007-06-28,54.6657
2007-06-29,54.6032
2007-07-02,55.1744
2007-07-03,55.8455
2007-07-05,54.924
2007-07-06,55.0134
2007-07-09,55.8276
2007-07-10,53.9219
2007-07-11,53.8861
2007-07-12,56.6686
2007-07-13,56.1944
2007-07-16,55.3892
2007-07-17,57.9748
2007-07-18,58.3058
2007-07-19,58.6279
2007-07-20,57.6527
2007-07-23,57.7153
2007-07-24,54.7092
2007-07-25,55.2192
2007-07-26,53.8593
2007-07-27,52.4547
2007-07-30,53.8683
2007-07-31,52.2847
2007-08-01,53.3136
2007-08-02,54.6287
2007-08-03,51.4705
2007-08-06,53.8235
2007-08-07,54.1009
2007-08-08,56.257
2007-08-09,54.5214
2007-08-10,54.3961
2007-08-13,53.1167
2007-08-14,51.2558
2007-08-15,50.7995
2007-08-16,52.3384
2007-08-17,52.6157
2007-08-20,52.392
2007-08-21,52.9557
2007-08-22,53.7609
2007-08-23,53.7519
2007-08-24,54.4677
2007-08-27,53.6625
2007-08-28,51.3632
2007-08-29,52.0163
2007-08-30,51.6674
2007-08-31,52.401
2007-09-04,54.423
2007-09-05,53.0541
2007-09-06,53.1525
2007-09-07,51.7031
2007-09-10,52.5173
2007-09-11,53.0899
2007-09-12,53.2778
2007-09-13,54.1367
2007-09-14,52.6962
2007-09-17,52.061
2007-09-18,54.3872
2007-09-19,54.6019
2007-09-20,53.7341
2007-09-21,53.0362
2007-09-24,52.1594
2007-09-25,52.571
2007-09-26,52.7946
2007-09-27,53.2241
2007-09-28,53.0452
2007-10-01,54.1903
2007-10-02,54.2709
2007-10-03,53.6879
2007-10-04,53.5803
2007-10-05,54.8091
2007-10-08,54.3965
2007-10-09,55.9571
2007-10-10,55.5624
2007-10-11,56.0109
2007-10-12,56.7643
2007-10-15,55.3651
2007-10-16,54.1364
2007-10-17,53.8045
2007-10-18,52.5848
2007-10-19,51.356
2007-10-22,51.0062
2007-10-23,52.6296
2007-10-24,52.818
2007-10-25,53.661
2007-10-26,54.4772
2007-10-29,54.3068
2007-10-30,54.0915
2007-10-31,54.7014
2007-11-01,52.3874
2007-11-02,52.4951
2007-11-05,52.235
2007-11-06,52.4413
2007-11-07,49.634
2007-11-08,50.2259
2007-11-09,50.8358
2007-11-12,50.2977
2007-11-13,53.1498
2007-11-14,52.9884
2007-11-15,52.3157
2007-11-16,52.5937
2007-11-19,51.4726
2007-11-20,51.1766
2007-11-21,48.7012
2007-11-23,49.8941
2007-11-26,48.1631
2007-11-27,49.912
2007-11-28,51.5264
2007-11-29,51.0511
2007-11-30,52.8807
2007-12-03,52.5758
2007-12-04,51.1587
2007-12-05,51.8673
2007-12-06,53.3112
2007-12-07,51.0331
2007-12-10,51.661
2007-12-11,48.9524
2007-12-12,48.5577
2007-12-13,48.2887
2007-12-14,46.8447
2007-12-17,46.7101
2007-12-18,46.4321
2007-12-19,46.5218
2007-12-20,45.7504
2007-12-21,46.4769
2007-12-24,47.3559
2007-12-26,47.4187
2007-12-27,45.8132
2007-12-28,45.5531
2007-12-31,46.7012
2008-01-02,45.9003
2008-01-03,45.3693
2008-01-04,44.2443
2008-01-07,44.4963
2008-01-08,43.1373
2008-01-09,44.1543
2008-01-10,44.0463
2008-01-11,39.5283
2008-01-14,40.0863
2008-01-15,38.5832
2008-01-16,39.8253
2008-01-17,38.4302
2008-01-18,39.2673
2008-01-22,39.0423
2008-01-23,41.7873
2008-01-24,42.4803
2008-01-25,40.9683
2008-01-28,42.6063
2008-01-29,42.9573
2008-01-30,42.4353
2008-01-31,44.6043
2008-02-01,44.6313
2008-02-04,42.8583
2008-02-05,41.1663
2008-02-06,41.1753
2008-02-07,41.8593
2008-02-08,40.3923
2008-02-11,40.2213
2008-02-12,40.5723
2008-02-13,42.1833
2008-02-14,41.1483
2008-02-15,40.5813
2008-02-19,40.0953
2008-02-20,40.7163
2008-02-21,40.0233
2008-02-22,40.5453
2008-02-25,40.6263
2008-02-26,41.2473
2008-02-27,41.4723
2008-02-28,39.9603
2008-02-29,38.0432
2008-03-03,37.8812
2008-03-04,38.3853
2008-03-05,38.0342
2008-03-06,37.1702
2008-03-07,37.3772
2008-03-10,36.0902
2008-03-11,39.4563
2008-03-12,38.4122
2008-03-13,38.2772
2008-03-14,36.9722
2008-03-17,37.4942
2008-03-18,39.2493
2008-03-19,37.8722
2008-03-20,41.3103
2008-03-24,42.6153
2008-03-25,42.7503
2008-03-26,40.8783
2008-03-27,40.4013
2008-03-28,38.8623
2008-03-31,39.3213
2008-04-01,42.3993
2008-04-02,42.0573
2008-04-03,41.9673
2008-04-04,41.5173
2008-04-07,41.8683
2008-04-08,41.8953
2008-04-09,40.739
2008-04-10,40.6848
2008-04-11,39.3025
2008-04-14,38.6339
2008-04-15,38.923
2008-04-16,39.5193
2008-04-17,40.3505
2008-04-18,41.0733
2008-04-21,41.3715
2008-04-22,39.7542
2008-04-23,40.1337
2008-04-24,40.8746
2008-04-25,43.0972
2008-04-28,43.2869
2008-04-29,43.3953
2008-04-30,43.3411
2008-05-01,46.4582
2008-05-02,45.5638
2008-05-05,45.5547
2008-05-06,46.0968
2008-05-07,43.9736
2008-05-08,44.1904
2008-05-09,44.2717
2008-05-12,45.1391
2008-05-13,44.335
2008-05-14,44.7325
2008-05-15,45.0217
2008-05-16,43.9646
2008-05-19,43.8652
2008-05-20,42.7629
2008-05-21,41.0914
2008-05-22,41.8504
2008-05-23,41.0733
2008-05-27,41.5161
2008-05-28,41.6516
2008-05-29,42.266
2008-05-30,41.8413
2008-06-02,40.9559
2008-06-03,40.1247
2008-06-04,41.1456
2008-06-05,42.8352
2008-06-06,40.2692
2008-06-09,39.8175
2008-06-10,40.0885
2008-06-11,38.399
2008-06-12,39.3386
2008-06-13,40.3596
2008-06-16,40.3234
2008-06-17,38.661
2008-06-18,38.408
2008-06-19,38.4532
2008-06-20,37.2334
2008-06-23,36.9172
2008-06-24,38.0737
2008-06-25,36.9534
2008-06-26,35.2186
2008-06-27,34.3242
2008-06-30,34.026
2008-07-01,36.1492
2008-07-02,35.8601
2008-07-03,36.357
2008-07-07,35.7246
2008-07-08,37.6581
2008-07-09,35.3719
2008-07-10,35.4717
2008-07-11,35.6532
2008-07-14,34.0016
2008-07-15,33.6296
2008-07-16,35.9254
2008-07-17,37.8401
2008-07-18,38.3392
2008-07-21,37.1867
2008-07-22,34.9272
2008-07-23,35.6895
2008-07-24,33.1577
2008-07-25,33.2122
2008-07-28,32.1142
2008-07-29,33.9653
2008-07-30,34.0289
2008-07-31,33.684
2008-08-01,33.7113
2008-08-04,33.4118
2008-08-05,35.018
2008-08-06,34.4826
2008-08-07,33.0579
2008-08-08,34.3192
2008-08-11,35.4989
2008-08-12,34.4916
2008-08-13,33.5661
2008-08-14,34.6096
2008-08-15,35.39
2008-08-18,34.4826
2008-08-19,33.3755
2008-08-20,34.0198
2008-08-21,33.6205
2008-08-22,35.1722
2008-08-25,34.3011
2008-08-26,34.5189
2008-08-27,35.272
2008-08-28,36.615
2008-08-29,36.0706
2008-09-02,36.8691
2008-09-03,37.1504
2008-09-04,35.2357
2008-09-05,35.7167
2008-09-08,36.6876
2008-09-09,34.7276
2008-09-10,34.6096
2008-09-11,35.2085
2008-09-12,35.3083
2008-09-15,32.2412
2008-09-16,32.704
2008-09-17,29.9817
2008-09-18,33.5207
2008-09-19,36.3065
2008-09-22,33.7566
2008-09-23,34.7276
2008-09-24,33.92
2008-09-25,34.2557
2008-09-26,35.5715
2008-09-29,31.2612
2008-09-30,32.0779
2008-10-01,32.5335
2008-10-02,29.3595
2008-10-03,28.0917
2008-10-06,28.1829
2008-10-07,26.2676
2008-10-08,24.8721
2008-10-09,22.3275
2008-10-10,21.4154
2008-10-13,25.3738
2008-10-14,25.5927
2008-10-15,22.0903
2008-10-16,21.616
2008-10-17,21.3059
2008-10-20,22.1998
2008-10-21,24.0604
2008-10-22,22.6649
2008-10-23,22.3913
2008-10-24,22.0994
2008-10-27,21.0779
2008-10-28,23.1848
2008-10-29,23.1757
2008-10-30,23.878
2008-10-31,25.0089
2008-11-03,25.8207
2008-11-04,27.353
2008-11-05,25.2734
2008-11-06,22.7744
2008-11-07,23.2578
2008-11-10,21.8988
2008-11-11,20.3939
2008-11-12,18.2688
2008-11-13,19.4271
2008-11-14,18.1867
2008-11-17,17.5665
2008-11-18,17.5756
2008-11-19,17.0375
2008-11-20,15.6967
2008-11-21,17.1925
2008-11-24,19.1626
2008-11-25,19.6369
2008-11-26,20.3574
2008-11-28,21.2603
2008-12-01,17.7489
2008-12-02,18.971
2008-12-03,20.0655
2008-12-04,18.9802
2008-12-05,19.947
2008-12-08,22.3548
2008-12-09,21.1691
2008-12-10,19.7098
2008-12-11,18.3326
2008-12-12,18.5606
2008-12-15,17.6394
2008-12-16,18.2505
2008-12-17,17.9951
2008-12-18,17.2108
2008-12-19,17.685
2008-12-22,16.8186
2008-12-23,16.3899
2008-12-24,16.3716
2008-12-26,16.3169
2008-12-29,16.098
2008-12-30,16.4172
2008-12-31,17.0192
2009-01-02,17.6577
2009-01-05,18.1228
2009-01-06,19.2355
2009-01-07,18.3526
2009-01-08,18.4538
2009-01-09,17.6718
2009-01-12,17.3407
2009-01-13,17.4878
2009-01-14,16.3931
2009-01-15,15.9608
2009-01-16,15.6572
2009-01-20,14.3509
2009-01-21,15.556
2009-01-22,14.7373
2009-01-23,14.7557
2009-01-26,13.9737
2009-01-27,15.326
2009-01-28,16.4667
2009-01-29,15.326
2009-01-30,15.3904
2009-02-02,15.6296
2009-02-03,14.8108
2009-02-04,15.0408
2009-02-05,15.7032
2009-02-06,16.5311
2009-02-09,16.3563
2009-02-10,14.6269
2009-02-11,15.0592
2009-02-12,14.958
2009-02-13,14.5073
2009-02-17,12.879
2009-02-18,12.9802
2009-02-19,11.8211
2009-02-20,11.9499
2009-02-23,11.1311
2009-02-24,12.5478
2009-02-25,11.9959
2009-02-26,11.5359
2009-02-27,11.1219
2009-03-02,10.1928
2009-03-03,10.9379
2009-03-04,10.7632
2009-03-05,9.47526
2009-03-06,9.48446
2009-03-09,9.76044
2009-03-10,11.1863
2009-03-11,10.9471
2009-03-12,12.1155
2009-03-13,12.0235
2009-03-16,11.6187
2009-03-17,11.8579
2009-03-18,13.017
2009-03-19,11.9499
2009-03-20,11.2691
2009-03-23,13.4953
2009-03-24,12.6214
2009-03-25,12.9802
2009-03-26,13.9185
2009-03-27,13.247
2009-03-30,11.8027
2009-03-31,12.5938
2009-04-01,13.4522
2009-04-02,13.9649
2009-04-03,14.2726
2009-04-06,14.1048
2009-04-07,13.9743
2009-04-08,14.6548
2009-04-09,17.5914
2009-04-13,19.1202
2009-04-14,17.1532
2009-04-15,19.2507
2009-04-16,19.3626
2009-04-17,20.2762
2009-04-20,17.6193
2009-04-21,18.188
2009-04-22,18.0575
2009-04-23,19.8381
2009-04-24,23.4551
2009-04-27,22.5509
2009-04-28,22.5136
2009-04-29,23.2501
2009-04-30,23.5484
2009-05-01,22.7
2009-05-04,25.5154
2009-05-05,24.6671
2009-05-06,25.3662
2009-05-07,24.0518
2009-05-08,26.457
2009-05-11,24.2569
2009-05-12,23.6136
2009-05-13,22.5788
2009-05-14,23.0636
2009-05-15,22.5695
2009-05-18,24.3594
2009-05-19,23.1568
2009-05-20,22.3365
2009-05-21,22.4576
2009-05-22,21.7864
2009-05-26,22.8305
2009-05-27,21.8983
2009-05-28,22.5882
2009-05-29,23.4551
2009-06-01,24.4713
2009-06-02,23.045
2009-06-03,22.8212
2009-06-04,23.4831
2009-06-05,23.3712
2009-06-08,23.8467
2009-06-09,25.0866
2009-06-10,24.9281
2009-06-11,23.8467
2009-06-12,23.5018
2009-06-15,23.539
2009-06-16,23.017
2009-06-17,22.2805
2009-06-18,22.4483
2009-06-19,23.0077
2009-06-22,21.7025
2009-06-23,21.7958
2009-06-24,21.3856
2009-06-25,22.8305
2009-06-26,22.1034
2009-06-29,22.3644
2009-06-30,21.8102
2009-07-01,21.5941
2009-07-02,21.1151
2009-07-06,22.1014
2009-07-07,21.2278
2009-07-08,21.3875
2009-07-09,21.3593
2009-07-10,21.7726
2009-07-13,23.0406
2009-07-14,22.8997
2009-07-15,25.6425
2009-07-16,26.5911
2009-07-17,26.3563
2009-07-20,27.1829
2009-07-21,27.5586
2009-07-22,27.0326
2009-07-23,27.6995
2009-07-24,27.7089
2009-07-27,26.7038
2009-07-28,25.9712
2009-07-29,26.0463
2009-07-30,26.4408
2009-07-31,26.6287
2009-08-03,26.8823
2009-08-04,26.9011
2009-08-05,28.5448
2009-08-06,29.4278
2009-08-07,30.7146
2009-08-10,30.3295
2009-08-11,29.5593
2009-08-12,29.8598
2009-08-13,30.0195
2009-08-14,29.7471
2009-08-17,28.5542
2009-08-18,29.7002
2009-08-19,29.7847
2009-08-20,30.5173
2009-08-21,30.8367
2009-08-24,30.6864
2009-08-25,30.8555
2009-08-26,31.1185
2009-08-27,31.8981
2009-08-28,32.1893
2009-08-31,31.7572
2009-09-01,30.0665
2009-09-02,30.0007
2009-09-03,30.5173
2009-09-04,30.8649
2009-09-08,31.4848
2009-09-09,31.992
2009-09-10,32.3208
2009-09-11,32.1047
2009-09-14,31.8136
2009-09-15,32.5744
2009-09-16,33.6452
2009-09-17,32.828
2009-09-18,32.6683
2009-09-21,31.7008
2009-09-22,31.8887
2009-09-23,31.4942
2009-09-24,31.7384
2009-09-25,31.0339
2009-09-28,32.3959
2009-09-29,31.9638
2009-09-30,32.049
2009-10-01,30.6326
2009-10-02,30.7082
2009-10-05,31.3314
2009-10-06,31.6524
2009-10-07,32.1246
2009-10-08,32.9933
2009-10-09,32.965
2009-10-12,33.1066
2009-10-13,32.8989
2009-10-14,33.135
2009-10-15,33.5977
2009-10-16,32.9556
2009-10-19,33.7488
2009-10-20,33.4466
2009-10-21,33.1916
2009-10-22,34.372
2009-10-23,32.7006
2009-10-26,32.8989
2009-10-27,34.0037
2009-10-28,32.7572
2009-10-29,34.4192
2009-10-30,32.8989
2009-11-02,33.6543
2009-11-03,33.9754
2009-11-04,33.9093
2009-11-05,35.7129
2009-11-06,35.118
2009-11-09,36.8554
2009-11-10,37.4692
2009-11-11,37.7903
2009-11-12,37.3087
2009-11-13,38.0641
2009-11-16,39.1501
2009-11-17,39.084
2009-11-18,39.2067
2009-11-19,38.8479
2009-11-20,38.6874
2009-11-23,39.3106
2009-11-24,39.1028
2009-11-25,39.3956
2009-11-27,38.5646
2009-11-30,39.5183
2009-12-01,38.999
2009-12-02,38.744
2009-12-03,36.7138
2009-12-04,37.101
2009-12-07,37.2426
2009-12-08,36.9782
2009-12-09,37.6109
2009-12-10,37.9508
2009-12-11,38.4324
2009-12-14,38.9706
2009-12-15,38.6779
2009-12-16,38.9801
2009-12-17,38.2341
2009-12-18,38.2624
2009-12-21,38.6874
2009-12-22,39.1028
2009-12-23,38.8857
2009-12-24,39.3295
2009-12-28,38.7535
2009-12-29,38.6213
2009-12-30,38.4985
2009-12-31,38.3002
2010-01-04,38.6401
2010-01-05,38.5079
2010-01-06,39.1973
2010-01-07,39.8328
2010-01-08,39.7854
2010-01-11,39.3206
2010-01-12,39.8328
2010-01-13,39.9655
2010-01-14,40.4967
2010-01-15,40.2311
2010-01-19,40.7337
2010-01-20,40.7812
2010-01-21,40.0225
2010-01-22,36.6272
2010-01-25,35.8685
2010-01-26,36.0866
2010-01-27,36.6556
2010-01-28,35.5176
2010-01-29,35.6978
2010-02-01,36.2383
2010-02-02,37.054
2010-02-03,36.3142
2010-02-04,35.6598
2010-02-05,35.8969
2010-02-08,34.9295
2010-02-09,35.565
2010-02-10,35.8116
2010-02-11,36.3142
2010-02-12,36.4754
2010-02-16,37.5566
2010-02-17,37.035
2010-02-18,37.1298
2010-02-19,36.9971
2010-02-22,36.8832
2010-02-23,35.9443
2010-02-24,36.4565
2010-02-25,36.0771
2010-02-26,36.2668
2010-03-01,36.153
2010-03-02,36.409
2010-03-03,36.2952
2010-03-04,36.8927
2010-03-05,38.0972
2010-03-08,37.6609
2010-03-09,37.6325
2010-03-10,37.6799
2010-03-11,38.0213
2010-03-12,38.6378
2010-03-15,38.5999
2010-03-16,38.8275
2010-03-17,38.8559
2010-03-18,38.8749
2010-03-19,38.2395
2010-03-22,38.9508
2010-03-23,39.1025
2010-03-24,38.8749
2010-03-25,39.2542
2010-03-26,39.0456
2010-03-29,39.3112
2010-03-30,39.3015
2010-03-31,39.292
2010-04-01,39.7206
2010-04-05,40.6255
2010-04-06,41.0732
2010-04-07,40.3397
2010-04-08,41.6257
2010-04-09,41.8066
2010-04-12,42.4258
2010-04-13,42.8735
2010-04-14,44.2166
2010-04-15,44.4356
2010-04-16,42.9592
2010-04-19,43.5974
2010-04-20,43.9594
2010-04-21,43.7879
2010-04-22,44.5404
2010-04-23,45.7406
2010-04-26,44.9405
2010-04-27,43.5688
2010-04-28,43.807
2010-04-29,45.331
2010-04-30,43.9022
2010-05-03,44.9405
2010-05-04,43.6546
2010-05-05,42.2829
2010-05-06,40.4921
2010-05-07,38.7109
2010-05-10,41.0446
2010-05-11,41.3209
2010-05-12,41.9686
2010-05-13,40.8255
2010-05-14,38.7395
2010-05-17,39.3015
2010-05-18,37.9394
2010-05-19,38.2537
2010-05-20,36.844
2010-05-21,38.1203
2010-05-24,37.1678
2010-05-25,37.1297
2010-05-26,36.3867
2010-05-27,38.4537
2010-05-28,37.9679
2010-06-01,37.3297
2010-06-02,39.0443
2010-06-03,38.5871
2010-06-04,36.4534
2010-06-07,35.9009
2010-06-08,36.6534
2010-06-09,36.3486
2010-06-10,38.1585
2010-06-11,38.2442
2010-06-14,37.9965
2010-06-15,39.5872
2010-06-16,40.3778
2010-06-17,40.0635
2010-06-18,40.0349
2010-06-21,40.5874
2010-06-22,39.9492
2010-06-23,40.1683
2010-06-24,39.0253
2010-06-25,40.4541
2010-06-28,40.1207
2010-06-29,38.168
2010-06-30,37.9574
2010-07-01,37.7756
2010-07-02,37.7373
2010-07-06,37.5077
2010-07-07,39.3544
2010-07-08,40.3208
2010-07-09,40.7513
2010-07-12,41.0097
2010-07-13,42.2822
2010-07-14,41.7369
2010-07-15,41.5742
2010-07-16,39.5649
2010-07-19,39.8136
2010-07-20,40.2633
2010-07-21,39.3544
2010-07-22,41.402
2010-07-23,42.8372
2010-07-26,43.5357
2010-07-27,42.6076
2010-07-28,42.6171
2010-07-29,42.6171
2010-07-30,42.7415
2010-08-02,43.0573
2010-08-03,42.6554
2010-08-04,42.244
2010-08-05,41.3254
2010-08-06,41.5933
2010-08-09,41.8708
2010-08-10,42.1866
2010-08-11,41.0862
2010-08-12,40.3399
2010-08-13,39.9572
2010-08-16,39.7658
2010-08-17,39.938
2010-08-18,39.938
2010-08-19,39.1534
2010-08-20,39.0099
2010-08-23,38.4549
2010-08-24,37.8426
2010-08-25,38.0531
2010-08-26,38.0435
2010-08-27,39.1343
2010-08-30,38.1679
2010-08-31,38.1392
2010-09-01,39.3544
2010-09-02,39.1247
2010-09-03,39.938
2010-09-07,38.3306
2010-09-08,38.2827
2010-09-09,38.9142
2010-09-10,38.4454
2010-09-13,39.4405
2010-09-14,38.6559
2010-09-15,39.0577
2010-09-16,39.1726
2010-09-17,39.3926
2010-09-20,41.2393
2010-09-21,40.9714
2010-09-22,40.9618
2010-09-23,40.5791
2010-09-24,41.2297
2010-09-27,41.5742
2010-09-28,41.8517
2010-09-29,41.1341
2010-09-30,40.2155
2010-10-01,39.9572
2010-10-04,37.3354
2010-10-05,36.6561
2010-10-06,36.5313
2010-10-07,36.3101
2010-10-08,36.512
2010-10-11,36.4736
2010-10-12,37.0215
2010-10-13,37.7714
2010-10-14,37.9348
2010-10-15,37.5503
2010-10-18,38.0213
2010-10-19,37.781
2010-10-20,38.204
2010-10-21,38.6943
2010-10-22,37.4734
2010-10-25,37.7618
2010-10-26,38.5309
2010-10-27,39.1173
2010-10-28,39.6172
2010-10-29,39.8383
2010-11-01,39.9921
2010-11-02,40.7612
2010-11-03,40.4343
2010-11-04,42.0782
2010-11-05,42.3666
2010-11-08,42.184
2010-11-09,41.6456
2010-11-10,41.8667
2010-11-11,41.6841
2010-11-12,41.0784
2010-11-15,41.0496
2010-11-16,40.3574
2010-11-17,39.8287
2010-11-18,40.5978
2010-11-19,41.1073
2010-11-22,40.5689
2010-11-23,40.2997
2010-11-24,41.3092
2010-11-26,40.617
2010-11-29,41.636
2010-11-30,41.5976
2010-12-01,42.5589
2010-12-02,43.2799
2010-12-03,43.1742
2010-12-06,43.2415
2010-12-07,43.0684
2010-12-08,43.8471
2010-12-09,44.0298
2010-12-10,44.4624
2010-12-13,44.597
2010-12-14,44.4143
2010-12-15,44.3278
2010-12-16,42.8377
2010-12-17,42.3378
2010-12-20,40.8477
2010-12-21,41.511
2010-12-22,41.1938
2010-12-23,41.088
2010-12-27,41.3765
2010-12-28,41.165
2010-12-29,41.2034
2010-12-30,40.8573
2010-12-31,41.2515
2011-01-03,41.7225
2011-01-04,42.2513
2011-01-05,43.4483
2011-01-06,43.178
2011-01-07,42.8305
2011-01-10,42.9656
2011-01-11,43.4772
2011-01-12,43.4386
2011-01-13,43.4676
2011-01-14,44.6259
2011-01-18,44.79
2011-01-19,43.6317
2011-01-20,43.6606
2011-01-21,44.4136
2011-01-24,44.124
2011-01-25,43.2552
2011-01-26,42.9753
2011-01-27,43.0332
2011-01-28,42.3285
2011-01-31,41.8941
2011-02-01,42.0968
2011-02-02,42.2223
2011-02-03,42.0582
2011-02-04,42.2899
2011-02-07,43.2842
2011-02-08,44.2302
2011-02-09,44.0757
2011-02-10,44.9155
2011-02-11,45.0989
2011-02-14,44.9155
2011-02-15,44.568
2011-02-16,45.2244
2011-02-17,44.1529
2011-02-18,43.9406
2011-02-22,42.7822
2011-02-23,41.9617
2011-02-24,42.0389
2011-02-25,42.0196
2011-02-28,42.01
2011-03-01,41.6818
2011-03-02,41.5466
2011-03-03,42.7629
2011-03-04,42.1548
2011-03-07,42.203
2011-03-08,43.6896
2011-03-09,43.4965
2011-03-10,42.5119
2011-03-11,42.7436
2011-03-14,42.4347
2011-03-15,42.1355
2011-03-16,40.8902
2011-03-17,41.9327
2011-03-18,42.6374
2011-03-21,42.7629
2011-03-22,43.178
2011-03-23,43.4579
2011-03-24,44.0081
2011-03-25,43.9985
2011-03-28,44.1529
2011-03-29,44.0468
2011-03-30,44.2591
2011-03-31,43.6317
2011-04-01,43.7572
2011-04-04,43.8344
2011-04-05,43.8151
2011-04-06,44.881
2011-04-07,44.726
2011-04-08,44.8423
2011-04-11,44.9489
2011-04-12,44.629
2011-04-13,44.7066
2011-04-14,44.5031
2011-04-15,44.8132
2011-04-18,44.6484
2011-04-19,45.2105
2011-04-20,45.5303
2011-04-21,45.637
2011-04-25,45.5982
2011-04-26,45.6273
2011-04-27,46.1603
2011-04-28,47.0519
2011-04-29,47.5656
2011-05-02,48.1277
2011-05-03,48.3506
2011-05-04,48.1373
2011-05-05,48.0307
2011-05-06,48.6607
2011-05-09,48.651
2011-05-10,48.5928
2011-05-11,48.3312
2011-05-12,48.021
2011-05-13,47.9532
2011-05-16,48.5153
2011-05-17,49.2034
2011-05-18,49.4554
2011-05-19,50.2016
2011-05-20,49.6686
2011-05-23,49.562
2011-05-24,49.0193
2011-05-25,48.8448
2011-05-26,49.1065
2011-05-27,49.5135
2011-05-31,49.9884
2011-06-01,48.3603
2011-06-02,48.525
2011-06-03,47.7497
2011-06-06,47.2845
2011-06-07,47.3911
2011-06-08,46.6546
2011-06-09,46.8581
2011-06-10,46.2475
2011-06-13,46.7515
2011-06-14,46.6352
2011-06-15,45.8308
2011-06-16,46.9162
2011-06-17,47.0228
2011-06-20,47.3911
2011-06-21,48.021
2011-06-22,48.2633
2011-06-23,47.6819
2011-06-24,46.8775
2011-06-27,48.021
2011-06-28,48.273
2011-06-29,49.5472
2011-06-30,50.3059
2011-07-01,50.9284
2011-07-05,50.9381
2011-07-06,51.298
2011-07-07,52.1442
2011-07-08,51.5995
2011-07-11,50.87
2011-07-12,50.9964
2011-07-13,50.5296
2011-07-14,49.9752
2011-07-15,50.3642
2011-07-18,49.946
2011-07-19,50.3739
2011-07-20,50.656
2011-07-21,51.1229
2011-07-22,50.763
2011-07-25,50.3837
2011-07-26,50.121
2011-07-27,49.1678
2011-07-28,49.1289
2011-07-29,48.7496
2011-08-01,48.6621
2011-08-02,47.2031
2011-08-03,47.5435
2011-08-04,45.5787
2011-08-05,45.9873
2011-08-08,42.0091
2011-08-09,44.645
2011-08-10,41.6103
2011-08-11,43.9155
2011-08-12,43.6334
2011-08-15,44.5574
2011-08-16,43.6723
2011-08-17,44.5672
2011-08-18,43.0401
2011-08-19,43.2054
2011-08-22,43.3027
2011-08-23,45.141
2011-08-24,46.7167
2011-08-25,46.7654
2011-08-26,47.1544
2011-08-29,47.2128
2011-08-30,47.3101
2011-08-31,48.2341
2011-09-01,48.1466
2011-09-02,47.1836
2011-09-06,46.8237
2011-09-07,48.5842
2011-09-08,48.2049
2011-09-09,46.0067
2011-09-12,46.1332
2011-09-13,46.6292
2011-09-14,47.6894
2011-09-15,47.9812
2011-09-16,48.6815
2011-09-19,47.349
2011-09-20,47.9618
2011-09-21,46.9988
2011-09-22,45.4134
2011-09-23,45.1994
2011-09-26,46.2985
2011-09-27,45.7635
2011-09-28,45.2578
2011-09-29,45.3647
2011-09-30,43.7404
2011-10-03,42.3203
2011-10-04,42.2328
2011-10-05,42.4281
2011-10-06,43.4537
2011-10-07,42.3597
2011-10-10,44.3815
2011-10-11,44.6257
2011-10-12,45.9638
2011-10-13,45.3192
2011-10-14,45.0066
2011-10-17,43.9908
2011-10-18,45.5536
2011-10-19,45.0164
2011-10-20,45.1336
2011-10-21,47.3312
2011-10-24,48.7279
2011-10-25,48.1418
2011-10-26,49.2748
2011-10-27,50.8278
2011-10-28,50.8864
2011-10-31,49.4897
2011-11-01,47.8098
2011-11-02,49.2455
2011-11-03,50.5348
2011-11-04,49.8999
2011-11-07,50.0269
2011-11-08,50.1246
2011-11-09,48.0442
2011-11-10,47.9367
2011-11-11,49.2358
2011-11-14,48.2981
2011-11-15,48.8451
2011-11-16,46.9698
2011-11-17,45.4461
2011-11-18,45.7977
2011-11-21,45.0457
2011-11-22,44.9285
2011-11-23,44.069
2011-11-25,44.0006
2011-11-28,44.9382
2011-11-29,44.489
2011-11-30,46.9014
2011-12-01,46.6572
2011-12-02,47.1944
2011-12-05,47.6047
2011-12-06,47.4777
2011-12-07,48.0735
2011-12-08,46.5791
2011-12-09,47.6633
2011-12-12,46.794
2011-12-13,46.2763
2011-12-14,46.0126
2011-12-15,45.3192
2011-12-16,45.8368
2011-12-19,44.9871
2011-12-20,46.8135
2011-12-21,46.3545
2011-12-22,46.5107
2011-12-23,46.8233
2011-12-27,46.5693
2011-12-28,45.8368
2011-12-29,46.4424
2011-12-30,46.0908
2012-01-03,47.2628
2012-01-04,47.3314
2012-01-05,47.8706
2012-01-06,47.2922
2012-01-09,47.4785
2012-01-10,47.7432
2012-01-11,47.9491
2012-01-12,48.6745
2012-01-13,48.7726
2012-01-17,49.3117
2012-01-18,49.5372
2012-01-19,49.9196
2012-01-20,48.998
2012-01-23,48.4981
2012-01-24,48.253
2012-01-25,49.1843
2012-01-26,48.9784
2012-01-27,48.9196
2012-01-30,48.1745
2012-01-31,49.1843
2012-02-01,49.6157
2012-02-02,50.1647
2012-02-03,51.243
2012-02-06,50.8117
2012-02-07,51.096
2012-02-08,50.6156
2012-02-09,51.3117
2012-02-10,50.7725
2012-02-13,51.0176
2012-02-14,50.8999
2012-02-15,50.4588
2012-02-16,51.8116
2012-02-17,51.8215
2012-02-21,51.792
2012-02-22,51.7528
2012-02-23,51.645
2012-02-24,52.292
2012-02-27,53.2332
2012-02-28,52.7234
2012-02-29,51.9195
2012-03-01,52.5665
2012-03-02,51.8803
2012-03-05,51.8901
2012-03-06,50.7137
2012-03-07,51.243
2012-03-08,51.9391
2012-03-09,52.145
2012-03-12,51.7038
2012-03-13,53.1645
2012-03-14,55.037
2012-03-15,55.5468
2012-03-16,55.4782
2012-03-19,56.135
2012-03-20,55.7723
2012-03-21,55.9487
2012-03-22,56.1938
2012-03-23,56.2232
2012-03-26,57.4683
2012-03-27,57.0958
2012-03-28,57.8898
2012-03-29,56.7918
2012-03-30,56.7232
2012-04-02,56.8016
2012-04-03,57.4605
2012-04-04,56.4866
2012-04-05,57.2244
2012-04-09,56.2309
2012-04-10,55.2963
2012-04-11,56.0439
2012-04-12,57.0474
2012-04-13,56.3194
2012-04-16,56.8211
2012-04-17,57.2736
2012-04-18,57.1064
2012-04-19,56.5948
2012-04-20,56.5358
2012-04-23,56.4178
2012-04-24,56.7031
2012-04-25,57.9426
2012-04-26,58.582
2012-04-27,59.2018
2012-04-30,59.2411
2012-05-01,60.038
2012-05-02,60.1363
2012-05-03,59.8806
2012-05-04,59.1329
2012-05-07,59.1329
2012-05-08,58.9362
2012-05-09,58.5427
2012-05-10,58.3557
2012-05-11,58.6509
2012-05-14,57.431
2012-05-15,57.008
2012-05-16,56.4768
2012-05-17,54.7454
2012-05-18,54.4306
2012-05-21,55.434
2012-05-22,55.375
2012-05-23,55.0799
2012-05-24,55.434
2012-05-25,54.8438
2012-05-29,55.6209
2012-05-30,54.5487
2012-05-31,54.9618
2012-06-01,52.5418
2012-06-04,52.7091
2012-06-05,53.1124
2012-06-06,54.3913
2012-06-07,54.3617
2012-06-08,54.893
2012-06-11,54.165
2012-06-12,55.5816
2012-06-13,54.165
2012-06-14,54.0961
2012-06-15,55.3357
2012-06-18,54.952
2012-06-19,56.0439
2012-06-20,56.467
2012-06-21,55.3061
2012-06-22,56.0144
2012-06-25,55.1389
2012-06-26,55.2176
2012-06-27,55.9259
2012-06-28,55.7488
2012-06-29,57.254
2012-07-02,58.0803
2012-07-03,58.485
2012-07-05,58.4751
2012-07-06,57.9223
2012-07-09,57.7052
2012-07-10,57.6657
2012-07-11,57.3498
2012-07-12,56.1851
2012-07-13,57.1228
2012-07-16,57.873
2012-07-17,57.8828
2012-07-18,57.567
2012-07-19,55.5237
2012-07-20,55.0598
2012-07-23,55.0795
2012-07-24,55.0005
2012-07-25,55.2868
2012-07-26,57.0734
2012-07-27,57.7644
2012-07-30,57.5472
2012-07-31,56.9846
2012-08-01,56.0271
2012-08-02,55.7902
2012-08-03,56.8563
2012-08-06,56.3923
2012-08-07,56.8958
2012-08-08,57.1425
2012-08-09,55.6816
2012-08-10,55.119
2012-08-13,55.3756
2012-08-14,55.3362
2012-08-15,55.9383
2012-08-16,56.5601
2012-08-17,56.8563
2012-08-20,56.0863
2012-08-21,55.8692
2012-08-22,56.1456
2012-08-23,55.6619
2012-08-24,56.7181
2012-08-27,56.6687
2012-08-28,56.8661
2012-08-29,56.6786
2012-08-30,56.4417
2012-08-31,57.6854
2012-09-04,57.8532
2012-09-05,56.4516
2012-09-06,56.6687
2012-09-07,56.9254
2012-09-10,56.7773
2012-09-11,56.4911
2012-09-12,56.5404
2012-09-13,58.2974
2012-09-14,58.406
2012-09-17,58.406
2012-09-18,57.9322
2012-09-19,57.9223
2012-09-20,57.5078
2012-09-21,57.1623
2012-09-24,56.9155
2012-09-25,56.3825
2012-09-26,55.4053
2012-09-27,55.8396
2012-09-28,56.1456
2012-10-01,57.0142
2012-10-02,56.4022
2012-10-03,56.8577
2012-10-04,57.8384
2012-10-05,57.9176
2012-10-08,58.2643
2012-10-09,57.6403
2012-10-10,57.3629
2012-10-11,57.987
2012-10-12,57.3431
2012-10-15,57.0559
2012-10-16,58.1554
2012-10-17,58.7695
2012-10-18,57.0856
2012-10-19,56.3328
2012-10-22,56.1743
2012-10-23,54.8667
2012-10-24,54.6587
2012-10-25,54.8965
2012-10-26,55.1738
2012-10-31,55.4611
2012-11-01,56.303
2012-11-02,56.2139
2012-11-05,55.8375
2012-11-06,56.6101
2012-11-07,55.0648
2012-11-08,55.0946
2012-11-09,55.263
2012-11-12,54.9955
2012-11-13,54.2427
2012-11-14,53.1035
2012-11-15,53.2521
2012-11-16,53.8564
2012-11-19,54.6884
2012-11-20,55.3224
2012-11-21,55.4115
2012-11-23,55.9762
2012-11-26,55.1045
2012-11-27,53.8663
2012-11-28,55.0351
2012-11-29,55.3917
2012-11-30,55.4809
2012-12-03,55.4611
2012-12-04,55.3521
2012-12-05,55.7979
2012-12-06,55.57
2012-12-07,56.0356
2012-12-10,56.2238
2012-12-11,56.4912
2012-12-12,57.1153
2012-12-13,57.1846
2012-12-14,56.0356
2012-12-17,56.7488
2012-12-18,57.3233
2012-12-19,56.2436
2012-12-20,56.828
2012-12-21,57.1153
2012-12-24,56.9865
2012-12-26,56.5804
2012-12-27,56.1644
2012-12-28,56.1545
2012-12-31,56.8478
2013-01-02,58.3187
2013-01-03,58.597
2013-01-04,59.2432
2013-01-07,59.5413
2013-01-08,59.8495
2013-01-09,59.8892
2013-01-10,60.3863
2013-01-11,60.8335
2013-01-14,60.8335
2013-01-15,60.426
2013-01-16,60.2669
2013-01-17,60.3863
2013-01-18,59.4022
2013-01-22,59.0145
2013-01-23,58.5871
2013-01-24,58.9548
2013-01-25,59.0542
2013-01-28,58.756
2013-01-29,59.1437
2013-01-30,58.8058
2013-01-31,58.4678
2013-02-01,59.5413
2013-02-04,59.0542
2013-02-05,60.2719
2013-02-06,60.1477
2013-02-07,61.8276
2013-02-08,61.3902
2013-02-11,61.6088
2013-02-12,61.8176
2013-02-13,61.7182
2013-02-14,61.9766
2013-02-15,61.2411
2013-02-19,61.907
2013-02-20,61.5692
2013-02-21,61.1417
2013-02-22,62.1854
2013-02-25,61.6884
2013-02-26,61.579
2013-02-27,62.096
2013-02-28,61.8126
2013-03-01,61.9666
2013-03-04,62.5532
2013-03-05,63.6963
2013-03-06,64.3126
2013-03-07,64.1933
2013-03-08,64.2628
2013-03-11,65.1078
2013-03-12,64.8792
2013-03-13,64.8792
2013-03-14,64.9289
2013-03-15,65.7539
2013-03-18,65.3165
2013-03-19,64.74
2013-03-20,65.6545
2013-03-21,65.0183
2013-03-22,65.7937
2013-03-25,65.7639
2013-03-26,66.7778
2013-03-27,66.6982
2013-03-28,67.066
2013-04-01,66.8076
2013-04-02,67.225
2013-04-03,66.0386
2013-04-04,66.587
2013-04-05,65.1214
2013-04-08,65.3607
2013-04-09,65.0217
2013-04-10,65.1812
2013-04-11,65.5701
2013-04-12,65.4504
2013-04-15,64.0647
2013-04-16,64.4435
2013-04-17,63.935
2013-04-18,64.8323
2013-04-19,67.0356
2013-04-22,66.4075
2013-04-23,67.2948
2013-04-24,67.1752
2013-04-25,67.873
2013-04-26,67.5939
2013-04-29,67.4144
2013-04-30,68.222
2013-05-01,68.1422
2013-05-02,69.1292
2013-05-03,69.9467
2013-05-06,69.8271
2013-05-07,69.9667
2013-05-08,70.0464
2013-05-09,69.9467
2013-05-10,69.7972
2013-05-13,69.5978
2013-05-14,71.2627
2013-05-15,72.5587
2013-05-16,71.9905
2013-05-17,73.0173
2013-05-20,74.1738
2013-05-21,74.8916
2013-05-22,74.2336
2013-05-23,74.5028
2013-05-24,75.101
2013-05-28,75.9783
2013-05-29,75.6094
2013-05-30,75.8986
2013-05-31,75.6294
2013-06-03,76.1977
2013-06-04,75.749
2013-06-05,74.5228
2013-06-06,75.9783
2013-06-07,77.8825
2013-06-10,77.9423
2013-06-11,76.2774
2013-06-12,74.4929
2013-06-13,74.9614
2013-06-14,72.7282
2013-06-17,73.6255
2013-06-18,74.7122
2013-06-19,74.124
2013-06-20,72.7781
2013-06-21,73.0772
2013-06-24,71.7711
2013-06-25,73.0971
2013-06-26,73.7352
2013-06-27,74.8518
2013-06-28,74.6524
2013-07-01,75.41
2013-07-02,74.58
2013-07-03,74.58
2013-07-05,76.31
2013-07-08,77.04
2013-07-09,77.67
2013-07-10,76.31
2013-07-11,77.09
2013-07-12,78.3
2013-07-15,77.86
2013-07-16,78.24
2013-07-17,76.74
2013-07-18,73.92
2013-07-19,74.11
2013-07-22,74.69
2013-07-23,74.45
2013-07-24,75.38
2013-07-25,75.73
2013-07-26,75.32
2013-07-29,75.01
2013-07-30,75.2
2013-07-31,73.72
2013-08-01,75.63
2013-08-02,75.61
2013-08-05,75.94
2013-08-06,75.81
2013-08-07,75.22
2013-08-08,76.23
2013-08-09,75.54
