date,close_price
1998-01-02,12.8285
1998-01-05,12.6694
1998-01-06,12.3553
1998-01-07,12.3301
1998-01-08,12.2756
1998-01-09,12.0955
1998-01-12,11.9908
1998-01-13,12.305
1998-01-14,12.3301
1998-01-15,12.2506
1998-01-16,12.5647
1998-01-20,12.8788
1998-01-21,12.8536
1998-01-22,12.5589
1998-01-23,12.6137
1998-01-26,12.6137
1998-01-27,12.6642
1998-01-28,12.799
1998-01-29,13.0096
1998-01-30,13.035
1998-02-02,13.5068
1998-02-03,13.4816
1998-02-04,13.4015
1998-02-05,13.5068
1998-02-06,13.4816
1998-02-09,13.4562
1998-02-10,13.7722
1998-02-11,14.6653
1998-02-12,14.4041
1998-02-13,14.7201
1998-02-17,14.9561
1998-02-18,15.824
1998-02-19,14.9813
1998-02-20,14.7707
1998-02-23,14.8254
1998-02-24,14.7454
1998-02-25,14.7201
1998-02-26,14.7201
1998-02-27,14.6148
1998-03-02,14.4295
1998-03-03,14.56
1998-03-04,14.6401
1998-03-05,14.4041
1998-03-06,14.7201
1998-03-09,14.5348
1998-03-10,15.1919
1998-03-11,15.2215
1998-03-12,15.2215
1998-03-13,15.0866
1998-03-16,15.1414
1998-03-17,15.2215
1998-03-18,15.2467
1998-03-19,15.352
1998-03-20,15.4827
1998-03-23,15.272
1998-03-24,15.5375
1998-03-25,15.5628
1998-03-26,15.6133
1998-03-27,15.588
1998-03-30,15.4827
1998-03-31,15.4027
1998-04-01,15.7986
1998-04-02,15.588
1998-04-03,15.6133
1998-04-06,15.904
1998-04-07,15.6428
1998-04-08,15.7186
1998-04-09,15.824
1998-04-13,15.508
1998-04-14,15.272
1998-04-15,15.1162
1998-04-16,15.0614
1998-04-17,15.2467
1998-04-20,15.0108
1998-04-21,14.56
1998-04-22,15.0614
1998-04-23,15.2434
1998-04-24,15.2434
1998-04-27,15.0316
1998-04-28,14.9808
1998-04-29,15.0316
1998-04-30,15.1925
1998-05-01,14.9512
1998-05-04,15.1375
1998-05-05,14.9257
1998-05-06,14.769
1998-05-07,14.3964
1998-05-08,14.5573
1998-05-11,14.5828
1998-05-12,14.4769
1998-05-13,14.3964
1998-05-14,14.5277
1998-05-15,14.4219
1998-05-18,14.0789
1998-05-19,14.1847
1998-05-20,14.2652
1998-05-21,14.7945
1998-05-22,15.3746
1998-05-26,14.9512
1998-05-27,14.6886
1998-05-28,14.5828
1998-05-29,14.714
1998-06-01,15.0062
1998-06-02,14.6886
1998-06-03,14.3964
1998-06-04,14.4769
1998-06-05,14.4769
1998-06-08,14.3964
1998-06-09,14.4219
1998-06-10,14.2906
1998-06-11,14.1847
1998-06-12,13.973
1998-06-15,13.973
1998-06-16,14.1847
1998-06-17,14.6081
1998-06-18,15.2983
1998-06-19,15.4804
1998-06-22,15.2983
1998-06-23,15.4296
1998-06-24,16.0902
1998-06-25,16.1156
1998-06-26,16.0097
1998-06-29,16.1961
1998-06-30,16.1156
1998-07-01,16.1156
1998-07-02,16.0902
1998-07-06,17.335
1998-07-07,16.8312
1998-07-08,17.2038
1998-07-09,16.8565
1998-07-10,17.0174
1998-07-13,16.937
1998-07-14,16.937
1998-07-15,17.0429
1998-07-16,17.4175
1998-07-17,17.1792
1998-07-20,17.4686
1998-07-21,17.3367
1998-07-22,17.5239
1998-07-23,17.3112
1998-07-24,17.3112
1998-07-27,17.2856
1998-07-28,17.2303
1998-07-29,17.2559
1998-07-30,17.392
1998-07-31,17.2303
1998-08-03,17.2559
1998-08-04,17.3622
1998-08-05,17.3367
1998-08-06,17.443
1998-08-07,17.3112
1998-08-10,17.1239
1998-08-11,16.4858
1998-08-12,16.5667
1998-08-13,16.5411
1998-08-14,16.7241
1998-08-17,16.5667
1998-08-18,16.6985
1998-08-19,16.5411
1998-08-20,16.5667
1998-08-21,16.1667
1998-08-24,16.405
1998-08-25,16.7538
1998-08-26,16.5114
1998-08-27,15.5541
1998-08-28,15.2648
1998-08-31,13.9587
1998-09-01,15.3711
1998-09-02,15.4478
1998-09-03,15.6902
1998-09-04,15.6094
1998-09-08,16.222
1998-09-09,15.8732
1998-09-10,15.7966
1998-09-11,15.954
1998-09-14,16.0349
1998-09-15,16.3794
1998-09-16,16.5411
1998-09-17,16.2731
1998-09-18,16.5411
1998-09-21,16.405
1998-09-22,16.5114
1998-09-23,16.6475
1998-09-24,16.4603
1998-09-25,15.9796
1998-09-28,16.0349
1998-09-29,16.222
1998-09-30,15.6902
1998-10-01,14.6266
1998-10-02,15.0223
1998-10-05,15.3967
1998-10-06,16.1157
1998-10-07,16.1412
1998-10-08,15.954
1998-10-09,16.4603
1998-10-12,16.8857
1998-10-13,16.8602
1998-10-14,17.1495
1998-10-15,17.2048
1998-10-16,17.5494
1998-10-19,17.5494
1998-10-20,17.5239
1998-10-21,17.9493
1998-10-22,17.7613
1998-10-23,17.8981
1998-10-26,17.8425
1998-10-27,17.9493
1998-10-28,17.8681
1998-10-29,18.4023
1998-10-30,18.2442
1998-11-02,18.7528
1998-11-03,18.7784
1998-11-04,18.9365
1998-11-05,18.8041
1998-11-06,18.8297
1998-11-09,18.8041
1998-11-10,18.8297
1998-11-11,19.2314
1998-11-12,19.2058
1998-11-13,19.0989
1998-11-16,19.1246
1998-11-17,18.8852
1998-11-18,19.3639
1998-11-19,19.6075
1998-11-20,19.6331
1998-11-23,20.1417
1998-11-24,19.9536
1998-11-25,20.0862
1998-11-27,20.1118
1998-11-30,19.5776
1998-12-01,20.0049
1998-12-02,20.0349
1998-12-03,19.9793
1998-12-04,20.2486
1998-12-07,20.2486
1998-12-08,19.8981
1998-12-09,20.0605
1998-12-10,19.7657
1998-12-11,19.8981
1998-12-14,19.8981
1998-12-15,19.4194
1998-12-16,19.3639
1998-12-17,19.8468
1998-12-18,19.9536
1998-12-21,19.9281
1998-12-22,20.3554
1998-12-23,21.0477
1998-12-24,21.0477
1998-12-28,20.2999
1998-12-29,20.8597
1998-12-30,21.1802
1998-12-31,21.3426
1999-01-04,20.7015
1999-01-05,20.381
1999-01-06,21.3426
1999-01-07,20.7015
1999-01-08,20.9152
1999-01-11,20.9152
1999-01-12,20.4623
1999-01-13,20.0049
1999-01-14,19.8981
1999-01-15,20.1118
1999-01-19,20.0349
1999-01-20,19.8468
1999-01-21,19.6323
1999-01-22,19.6323
1999-01-25,19.6066
1999-01-26,20.2759
1999-01-27,20.8123
1999-01-28,21.5376
1999-01-29,21.7522
1999-02-01,21.8037
1999-02-02,21.4303
1999-02-03,21.8337
1999-02-04,21.4045
1999-02-05,21.8037
1999-02-08,21.4818
1999-02-09,21.7264
1999-02-10,22.2328
1999-02-11,22.0482
1999-02-12,22.0482
1999-02-16,22.9323
1999-02-17,22.958
1999-02-18,23.4944
1999-02-19,23.9235
1999-02-22,23.8977
1999-02-23,24.0308
1999-02-24,24.271
1999-02-25,24.2453
1999-02-26,24.1638
1999-03-01,24.0308
1999-03-02,24.3783
1999-03-03,23.7647
1999-03-04,24.5157
1999-03-05,25.2667
1999-03-08,24.8375
1999-03-09,24.8632
1999-03-10,24.6487
1999-03-11,25.3182
1999-03-12,25.1036
1999-03-15,25.1036
1999-03-16,24.9448
1999-03-17,24.6487
1999-03-18,24.4599
1999-03-19,24.1381
1999-03-22,24.0866
1999-03-23,23.2798
1999-03-24,23.3356
1999-03-25,23.2283
1999-03-26,23.2541
1999-03-29,22.958
1999-03-30,21.9924
1999-03-31,21.7522
1999-04-01,22.1813
1999-04-05,22.1255
1999-04-06,22.8507
1999-04-07,22.6361
1999-04-08,22.5288
1999-04-09,22.5288
1999-04-12,22.6919
1999-04-13,22.825
1999-04-14,22.825
1999-04-15,22.1813
1999-04-16,21.6449
1999-04-19,21.3488
1999-04-20,21.5118
1999-04-21,22.7692
1999-04-22,23.0396
1999-04-23,23.1983
1999-04-26,23.0138
1999-04-27,23.1725
1999-04-28,22.6619
1999-04-29,21.9642
1999-04-30,21.1287
1999-05-03,21.667
1999-05-04,21.5593
1999-05-05,21.6972
1999-05-06,21.5336
1999-05-07,21.667
1999-05-10,21.077
1999-05-11,20.9435
1999-05-12,21.4
1999-05-13,20.9693
1999-05-14,20.754
1999-05-17,20.9133
1999-05-18,21.1029
1999-05-19,20.698
1999-05-20,20.6205
1999-05-21,20.6463
1999-05-24,20.2156
1999-05-25,19.1907
1999-05-26,18.76
1999-05-27,19.2208
1999-05-28,19.7032
1999-06-01,19.2984
1999-06-02,19.5697
1999-06-03,19.4061
1999-06-04,19.8668
1999-06-07,19.9185
1999-06-08,19.7032
1999-06-09,19.5438
1999-06-10,19.4362
1999-06-11,19.0572
1999-06-14,19.0314
1999-06-15,18.7342
1999-06-16,18.6007
1999-06-17,18.437
1999-06-18,18.3294
1999-06-21,18.3595
1999-06-22,18.2777
1999-06-23,18.437
1999-06-24,18.493
1999-06-25,18.9754
1999-06-28,19.2467
1999-06-29,20.6722
1999-06-30,20.5386
1999-07-01,20.5645
1999-07-02,20.6205
1999-07-06,20.375
1999-07-07,20.2415
1999-07-08,20.2415
1999-07-09,20.2415
1999-07-12,20.9435
1999-07-13,20.6722
1999-07-14,20.8875
1999-07-15,22.5026
1999-07-16,22.9074
1999-07-19,21.99
1999-07-20,21.5593
1999-07-21,21.7489
1999-07-22,21.0527
1999-07-23,21.4288
1999-07-26,21.9174
1999-07-27,22.1855
1999-07-28,22.2416
1999-07-29,21.0267
1999-07-30,21.1348
1999-08-02,21.4288
1999-08-03,20.9446
1999-08-04,20.5943
1999-08-05,20.9186
1999-08-06,20.6203
1999-08-09,20.5381
1999-08-10,19.7555
1999-08-11,19.8074
1999-08-12,20.2398
1999-08-13,20.6722
1999-08-16,20.5122
1999-08-17,20.8365
1999-08-18,20.296
1999-08-19,20.6462
1999-08-20,21.0786
1999-08-23,21.2429
1999-08-24,20.7284
1999-08-25,20.9446
1999-08-26,20.6462
1999-08-27,20.2398
1999-08-30,20.0538
1999-08-31,20.1619
1999-09-01,20.6203
1999-09-02,20.27
1999-09-03,20.6203
1999-09-07,21.6753
1999-09-08,20.9964
1999-09-09,21.0786
1999-09-10,22.1076
1999-09-13,22.3757
1999-09-14,21.4591
1999-09-15,21.5109
1999-09-16,21.2689
1999-09-17,21.0786
1999-09-20,20.7284
1999-09-21,20.5122
1999-09-22,20.3781
1999-09-23,19.8074
1999-09-24,19.8896
1999-09-27,19.8376
1999-09-28,20.1057
1999-09-29,20.1317
1999-09-30,20.3781
1999-10-01,20.9705
1999-10-04,20.456
1999-10-05,20.8883
1999-10-06,21.9174
1999-10-07,22.7
1999-10-08,22.5919
1999-10-11,22.9162
1999-10-12,22.4578
1999-10-13,23.1886
1999-10-14,21.4028
1999-10-15,22.0255
1999-10-18,21.619
1999-10-19,23.3486
1999-10-20,23.9712
1999-10-21,23.433
1999-10-22,24.4094
1999-10-25,23.5979
1999-10-26,23.2985
1999-10-27,23.407
1999-10-28,23.0251
1999-10-29,23.3245
1999-11-01,23.2725
1999-11-02,23.867
1999-11-03,24.3833
1999-11-04,25.1948
1999-11-05,24.6003
1999-11-08,24.3009
1999-11-09,23.841
1999-11-10,23.65
1999-11-11,23.7846
1999-11-12,24.4094
1999-11-15,24.7349
1999-11-16,24.8173
1999-11-17,24.2748
1999-11-18,24.2489
1999-11-19,24.4918
1999-11-22,24.2489
1999-11-23,24.0839
1999-11-24,24.6828
1999-11-26,24.7349
1999-11-29,23.624
1999-11-30,23.5979
1999-12-01,22.9991
1999-12-02,23.0555
1999-12-03,22.73
1999-12-06,22.1572
1999-12-07,22.2657
1999-12-08,21.3978
1999-12-09,21.2113
1999-12-10,20.8033
1999-12-13,20.6948
1999-12-14,21.1028
1999-12-15,21.5627
1999-12-16,21.4803
1999-12-17,21.2893
1999-12-20,21.2372
1999-12-21,21.6973
1999-12-22,21.8622
1999-12-23,22.5391
1999-12-27,21.9707
1999-12-28,21.8058
1999-12-29,21.8622
1999-12-30,22.5391
1999-12-31,22.9991
2000-01-03,22.0487
2000-01-04,21.8318
2000-01-05,22.6476
2000-01-06,23.0251
2000-01-07,23.7585
2000-01-10,23.3506
2000-01-11,23.2985
2000-01-12,22.9167
2000-01-13,23.164
2000-01-14,22.6997
2000-01-18,21.6452
2000-01-19,21.3457
2000-01-20,20.9406
2000-01-21,20.7531
2000-01-24,19.9341
2000-01-25,20.3959
2000-01-26,19.2543
2000-01-27,19.6073
2000-01-28,19.8251
2000-01-31,19.5244
2000-02-01,19.69
2000-02-02,19.7162
2000-02-03,20.043
2000-02-04,19.7989
2000-02-07,19.3371
2000-02-08,18.762
2000-02-09,18.6269
2000-02-10,17.8905
2000-02-11,17.5637
2000-02-14,18.0561
2000-02-15,18.165
2000-02-16,17.5942
2000-02-17,17.8382
2000-02-18,17.4025
2000-02-22,17.1019
2000-02-23,16.5833
2000-02-24,16.5833
2000-02-25,16.64
2000-02-28,17.1019
2000-02-29,17.2369
2000-03-01,17.3198
2000-03-02,17.3764
2000-03-03,17.7031
2000-03-06,16.8318
2000-03-07,15.359
2000-03-08,15.4418
2000-03-09,16.2304
2000-03-10,16.0388
2000-03-13,15.7424
2000-03-14,15.9603
2000-03-15,16.7489
2000-03-16,17.4287
2000-03-17,17.7031
2000-03-20,17.9733
2000-03-21,17.8905
2000-03-22,17.6466
2000-03-23,17.5942
2000-03-24,17.3459
2000-03-27,17.2936
2000-03-28,16.993
2000-03-29,16.5572
2000-03-30,16.4744
2000-03-31,16.8578
2000-04-03,17.1019
2000-04-04,17.6727
2000-04-05,17.9995
2000-04-06,17.8121
2000-04-07,17.8121
2000-04-10,18.0561
2000-04-11,18.3567
2000-04-12,18.6531
2000-04-13,18.7358
2000-04-14,17.8121
2000-04-17,17.0757
2000-04-18,18.0299
2000-04-19,18.0299
2000-04-20,17.8121
2000-04-24,18.5746
2000-04-25,19.2282
2000-04-26,18.7925
2000-04-27,19.042
2000-04-28,19.042
2000-05-01,18.9588
2000-05-02,18.578
2000-05-03,18.3329
2000-05-04,18.6612
2000-05-05,18.7969
2000-05-08,18.7399
2000-05-09,19.0989
2000-05-10,19.808
2000-05-11,20.0269
2000-05-12,19.3441
2000-05-15,19.3966
2000-05-16,19.2871
2000-05-17,19.3703
2000-05-18,19.7249
2000-05-19,19.3177
2000-05-22,19.6461
2000-05-23,19.7555
2000-05-24,20.5216
2000-05-25,19.865
2000-05-26,19.7249
2000-05-30,20.3027
2000-05-31,20.0006
2000-06-01,20.1101
2000-06-02,19.0157
2000-06-05,19.3966
2000-06-06,19.0989
2000-06-07,18.4685
2000-06-08,18.7705
2000-06-09,19.2871
2000-06-12,19.1252
2000-06-13,19.6724
2000-06-14,20.8499
2000-06-15,20.9025
2000-06-16,20.4384
2000-06-19,20.4909
2000-06-20,21.095
2000-06-21,21.095
2000-06-22,21.4496
2000-06-23,21.095
2000-06-26,21.3664
2000-06-27,22.6009
2000-06-28,22.6796
2000-06-29,21.0119
2000-06-30,21.1476
2000-07-03,21.3401
2000-07-05,21.4496
2000-07-06,21.3664
2000-07-07,21.9706
2000-07-10,22.1893
2000-07-11,22.1325
2000-07-12,22.544
2000-07-13,22.2157
2000-07-14,21.7779
2000-07-17,21.8348
2000-07-18,21.4496
2000-07-19,21.5328
2000-07-20,21.1021
2000-07-21,21.1592
2000-07-24,21.3482
2000-07-25,21.2383
2000-07-26,21.955
2000-07-27,22.2275
2000-07-28,22.2011
2000-07-31,22.0077
2000-08-01,22.4474
2000-08-02,22.3682
2000-08-03,22.1748
2000-08-04,22.311
2000-08-07,22.1176
2000-08-08,22.0077
2000-08-09,21.2955
2000-08-10,22.8869
2000-08-11,22.6979
2000-08-14,22.8342
2000-08-15,22.311
2000-08-16,22.5308
2000-08-17,22.3946
2000-08-18,21.7615
2000-08-21,22.2275
2000-08-22,21.9813
2000-08-23,21.9285
2000-08-24,21.9813
2000-08-25,21.4318
2000-08-28,21.5153
2000-08-29,21.2692
2000-08-30,21.5417
2000-08-31,21.489
2000-09-01,21.2692
2000-09-05,20.6624
2000-09-06,19.9502
2000-09-07,19.7568
2000-09-08,18.4643
2000-09-11,19.4798
2000-09-12,19.6469
2000-09-13,19.5897
2000-09-14,19.3436
2000-09-15,19.0973
2000-09-18,19.2337
2000-09-19,18.6841
2000-09-20,18.5742
2000-09-21,18.9874
2000-09-22,19.2072
2000-09-25,18.7105
2000-09-26,18.5214
2000-09-27,17.7785
2000-09-28,18.4907
2000-09-29,18.5742
2000-10-02,18.0818
2000-10-03,18.0818
2000-10-04,17.8884
2000-10-05,18.328
2000-10-06,18.3808
2000-10-09,18.2445
2000-10-10,18.4115
2000-10-11,18.5214
2000-10-12,18.3544
2000-10-13,18.3016
2000-10-16,18.4907
2000-10-17,18.328
2000-10-18,18.6006
2000-10-19,18.1149
2000-10-20,18.2253
2000-10-23,18.1413
2000-10-24,18.3932
2000-10-25,18.3932
2000-10-26,18.5036
2000-10-27,18.3623
2000-10-30,18.5566
2000-10-31,18.5302
2000-11-01,18.835
2000-11-02,18.9985
2000-11-03,19.1929
2000-11-06,19.4978
2000-11-07,19.3563
2000-11-08,19.8822
2000-11-09,20.0766
2000-11-10,20.1031
2000-11-13,19.8822
2000-11-14,19.8292
2000-11-15,19.8292
2000-11-16,20.4079
2000-11-17,20.7128
2000-11-20,20.8232
2000-11-21,21.0706
2000-11-22,20.9028
2000-11-24,20.8763
2000-11-27,20.9602
2000-11-28,20.9602
2000-11-29,21.3181
2000-11-30,21.7599
2000-12-01,21.402
2000-12-04,21.5965
2000-12-05,21.8439
2000-12-06,21.2341
2000-12-07,21.3446
2000-12-08,21.5655
2000-12-11,21.6229
2000-12-12,21.676
2000-12-13,21.9808
2000-12-14,21.8173
2000-12-15,21.402
2000-12-18,21.539
2000-12-19,21.4286
2000-12-20,20.9867
2000-12-21,20.2975
2000-12-22,19.6613
2000-12-26,19.9927
2000-12-27,20.2135
2000-12-28,20.7658
2000-12-29,20.6289
2001-01-02,20.3814
2001-01-03,20.24
2001-01-04,19.4403
2001-01-05,18.9455
2001-01-08,18.9985
2001-01-09,19.1929
2001-01-10,18.9455
2001-01-11,19.025
2001-01-12,18.9146
2001-01-16,19.2769
2001-01-17,19.1355
2001-01-18,19.5352
2001-01-19,19.2021
2001-01-22,19.5929
2001-01-23,19.8149
2001-01-24,20.0058
2001-01-25,20.5341
2001-01-26,20.9515
2001-01-29,20.6851
2001-01-30,20.8893
2001-01-31,20.5119
2001-02-01,20.3122
2001-02-02,20.3077
2001-02-05,20.4942
2001-02-06,20.4275
2001-02-07,20.5563
2001-02-08,20.3077
2001-02-09,20.1611
2001-02-12,20.1079
2001-02-13,19.7394
2001-02-14,19.5795
2001-02-15,20.2545
2001-02-16,19.8904
2001-02-20,20.17
2001-02-21,19.9303
2001-02-22,19.7128
2001-02-23,19.7572
2001-02-26,19.948
2001-02-27,20.0679
2001-02-28,19.7039
2001-03-01,19.6551
2001-03-02,19.7527
2001-03-05,20.0236
2001-03-06,19.8015
2001-03-07,19.3664
2001-03-08,19.7217
2001-03-09,19.7572
2001-03-12,19.2688
2001-03-13,19.4153
2001-03-14,19.2821
2001-03-15,19.2732
2001-03-16,19.1267
2001-03-19,19.2288
2001-03-20,19.8104
2001-03-21,18.8958
2001-03-22,18.7582
2001-03-23,18.7404
2001-03-26,18.8692
2001-03-27,19.1134
2001-03-28,19.5663
2001-03-29,20.1168
2001-03-30,20.1568
2001-04-02,19.6151
2001-04-03,18.8958
2001-04-04,19.8904
2001-04-05,20.0458
2001-04-06,19.8593
2001-04-09,19.7572
2001-04-10,19.6417
2001-04-11,19.4641
2001-04-12,19.402
2001-04-16,19.4242
2001-04-17,19.2643
2001-04-18,19.1356
2001-04-19,19.0068
2001-04-20,18.6916
2001-04-23,18.6738
2001-04-24,18.6428
2001-04-25,18.9181
2001-04-26,18.994
2001-04-27,19.3108
2001-04-30,19.6365
2001-05-01,19.6766
2001-05-02,19.6856
2001-05-03,19.5205
2001-05-04,19.6187
2001-05-07,19.7169
2001-05-08,19.5607
2001-05-09,19.5652
2001-05-10,19.6053
2001-05-11,19.6588
2001-05-14,19.6723
2001-05-15,19.7346
2001-05-16,19.9801
2001-05-17,20.1853
2001-05-18,19.9667
2001-05-21,20.1452
2001-05-22,20.2612
2001-05-23,20.1674
2001-05-24,20.346
2001-05-25,20.2656
2001-05-29,20.52
2001-05-30,25.0309
2001-05-31,25.1825
2001-06-01,25.1112
2001-06-04,25.1959
2001-06-05,25.3299
2001-06-06,25.4637
2001-06-07,25.3476
2001-06-08,25.129
2001-06-11,25.0309
2001-06-12,25.0755
2001-06-13,25.0621
2001-06-14,24.9684
2001-06-15,24.9684
2001-06-18,24.9372
2001-06-19,24.9372
2001-06-20,24.9416
2001-06-21,25.0666
2001-06-22,24.8346
2001-06-25,24.8033
2001-06-26,24.9193
2001-06-27,25.4547
2001-06-28,25.4458
2001-06-29,25.428
2001-07-02,25.6422
2001-07-03,25.6466
2001-07-05,25.6422
2001-07-06,25.5663
2001-07-09,25.7002
2001-07-10,25.5573
2001-07-11,25.2228
2001-07-12,25.4726
2001-07-13,25.5663
2001-07-16,25.312
2001-07-17,25.7983
2001-07-18,25.9901
2001-07-19,26.0171
2001-07-20,26.0843
2001-07-23,26.0619
2001-07-24,25.8604
2001-07-25,26.0082
2001-07-26,26.2499
2001-07-27,26.3753
2001-07-30,26.3843
2001-07-31,26.4694
2001-08-01,26.5455
2001-08-02,26.3574
2001-08-03,26.5321
2001-08-06,26.3798
2001-08-07,26.5455
2001-08-08,26.4425
2001-08-09,26.5948
2001-08-10,26.7784
2001-08-13,26.747
2001-08-14,26.2903
2001-08-15,26.3396
2001-08-16,26.3082
2001-08-17,26.2411
2001-08-20,26.3351
2001-08-21,26.1783
2001-08-22,26.2634
2001-08-23,26.035
2001-08-24,26.6709
2001-08-27,26.7963
2001-08-28,26.2589
2001-08-29,26.2276
2001-08-30,25.9141
2001-08-31,25.9231
2001-09-04,25.2738
2001-09-05,24.8304
2001-09-06,24.2618
2001-09-07,23.2631
2001-09-10,23.711
2001-09-17,22.3675
2001-09-18,22.3183
2001-09-19,21.6332
2001-09-20,20.4644
2001-09-21,20.1733
2001-09-24,21.548
2001-09-25,21.9646
2001-09-26,21.9198
2001-09-27,22.3362
2001-09-28,22.7929
2001-10-01,22.6675
2001-10-02,22.9944
2001-10-03,23.3348
2001-10-04,23.7647
2001-10-05,23.8184
2001-10-08,23.3393
2001-10-09,23.3348
2001-10-10,23.4915
2001-10-11,24.0154
2001-10-12,24.0334
2001-10-15,24.3468
2001-10-16,24.4275
2001-10-17,24.2707
2001-10-18,24.7652
2001-10-19,24.6124
2001-10-22,24.8596
2001-10-23,24.6798
2001-10-24,24.9091
2001-10-25,25.1698
2001-10-26,25.3631
2001-10-29,24.7832
2001-10-30,24.3202
2001-10-31,24.6124
2001-11-01,25.1024
2001-11-02,25.8531
2001-11-05,26.0824
2001-11-06,26.2757
2001-11-07,26.6084
2001-11-08,27.0894
2001-11-09,27.2826
2001-11-12,27.2826
2001-11-13,27.8535
2001-11-14,28.3885
2001-11-15,27.0309
2001-11-16,26.0285
2001-11-19,26.9499
2001-11-20,26.7881
2001-11-21,26.5005
2001-11-23,26.8375
2001-11-26,27.4894
2001-11-27,28.5279
2001-11-28,28.0063
2001-11-29,28.0738
2001-11-30,28.3525
2001-12-03,28.0963
2001-12-04,28.4964
2001-12-05,28.9999
2001-12-06,28.8381
2001-12-07,28.5054
2001-12-10,27.6467
2001-12-11,27.3456
2001-12-12,26.977
2001-12-13,26.442
2001-12-14,26.5634
2001-12-17,26.9365
2001-12-18,27.1298
2001-12-19,27.6557
2001-12-20,27.8401
2001-12-21,28.3031
2001-12-24,28.42
2001-12-26,28.8516
2001-12-27,28.7751
2001-12-28,29.0493
2001-12-31,28.82
2002-01-02,28.1413
2002-01-03,26.7522
2002-01-04,26.6757
2002-01-07,26.914
2002-01-08,27.1973
2002-01-09,26.9725
2002-01-10,27.377
2002-01-11,25.399
2002-01-14,25.9924
2002-01-15,23.8481
2002-01-16,23.3569
2002-01-17,22.5445
2002-01-18,23.2892
2002-01-22,23.6051
2002-01-23,22.6798
2002-01-24,22.4632
2002-01-25,22.6437
2002-01-28,21.8494
2002-01-29,20.87
2002-01-30,21.4838
2002-01-31,22.251
2002-02-01,22.7476
2002-02-04,22.567
2002-02-05,22.5128
2002-02-06,22.5896
2002-02-07,23.5555
2002-02-08,24.0835
2002-02-11,23.9888
2002-02-12,24.1016
2002-02-13,24.0835
2002-02-14,23.8804
2002-02-15,23.894
2002-02-19,23.6999
2002-02-20,23.7857
2002-02-21,23.2892
2002-02-22,23.235
2002-02-25,23.5825
2002-02-26,24.1467
2002-02-27,24.3272
2002-02-28,24.5529
2002-03-01,24.7335
2002-03-04,24.7109
2002-03-05,24.9817
2002-03-06,25.0088
2002-03-07,24.896
2002-03-08,24.8733
2002-03-11,24.8869
2002-03-12,25.1938
2002-03-13,25.3112
2002-03-14,25.4195
2002-03-15,25.7715
2002-03-18,25.8618
2002-03-19,25.7264
2002-03-20,25.6813
2002-03-21,25.8843
2002-03-22,25.9791
2002-03-25,25.4104
2002-03-26,25.7173
2002-03-27,26.2499
2002-03-28,26.602
2002-04-01,26.5839
2002-04-02,26.6517
2002-04-03,26.3628
2002-04-04,26.4441
2002-04-05,26.1372
2002-04-08,26.0423
2002-04-09,25.8573
2002-04-10,25.8302
2002-04-11,25.6361
2002-04-12,25.7219
2002-04-15,25.749
2002-04-16,25.6452
2002-04-17,26.3582
2002-04-18,26.2048
2002-04-19,25.7173
2002-04-22,25.7715
2002-04-23,25.7805
2002-04-24,25.8483
2002-04-25,25.6852
2002-04-26,24.983
2002-04-29,24.6432
2002-04-30,24.8879
2002-05-01,25.0283
2002-05-02,25.0963
2002-05-03,24.7565
2002-05-06,24.9468
2002-05-07,24.4621
2002-05-08,24.6886
2002-05-09,24.8472
2002-05-10,24.5663
2002-05-13,24.4168
2002-05-14,24.0997
2002-05-15,24.0408
2002-05-16,24.009
2002-05-17,24.5754
2002-05-20,24.4712
2002-05-21,24.4349
2002-05-22,24.4168
2002-05-23,24.7701
2002-05-24,24.7792
2002-05-28,24.915
2002-05-29,24.8924
2002-05-30,25.2321
2002-05-31,25.137
2002-06-03,24.7792
2002-06-04,24.5527
2002-06-05,24.9694
2002-06-06,24.9377
2002-06-07,25.1643
2002-06-10,25.359
2002-06-11,24.7792
2002-06-12,24.0816
2002-06-13,24.7792
2002-06-14,24.5346
2002-06-17,24.9332
2002-06-18,25.3228
2002-06-19,25.4043
2002-06-20,25.2321
2002-06-21,25.2821
2002-06-24,25.1688
2002-06-25,24.7339
2002-06-26,24.453
2002-06-27,24.9694
2002-06-28,25.6399
2002-07-01,25.2367
2002-07-02,24.5934
2002-07-03,24.3352
2002-07-05,24.8652
2002-07-08,24.6886
2002-07-09,24.0997
2002-07-10,23.3386
2002-07-11,22.7045
2002-07-12,22.863
2002-07-15,22.0657
2002-07-16,22.7543
2002-07-17,22.8766
2002-07-18,22.5538
2002-07-19,22.0669
2002-07-22,21.7939
2002-07-23,21.1023
2002-07-24,22.7085
2002-07-25,22.7085
2002-07-26,23.1816
2002-07-29,24.0643
2002-07-30,24.1325
2002-07-31,24.451
2002-08-01,24.1189
2002-08-02,24.3418
2002-08-05,24.128
2002-08-06,24.4283
2002-08-07,24.9561
2002-08-08,25.6795
2002-08-09,25.6613
2002-08-12,25.9616
2002-08-13,25.1472
2002-08-14,25.3656
2002-08-15,25.1608
2002-08-16,24.7286
2002-08-19,24.9879
2002-08-20,24.5239
2002-08-21,24.5557
2002-08-22,24.451
2002-08-23,24.7969
2002-08-26,24.7149
2002-08-27,24.4465
2002-08-28,24.4784
2002-08-29,24.856
2002-08-30,24.8515
2002-09-03,24.6239
2002-09-04,24.7513
2002-09-05,24.8605
2002-09-06,24.856
2002-09-09,25.0471
2002-09-10,25.1654
2002-09-11,25.4611
2002-09-12,25.0562
2002-09-13,25.0699
2002-09-16,25.311
2002-09-17,24.7695
2002-09-18,24.5102
2002-09-19,24.6285
2002-09-20,24.7058
2002-09-23,24.3873
2002-09-24,24.5011
2002-09-25,24.5602
2002-09-26,24.6831
2002-09-27,24.7103
2002-09-30,24.8195
2002-10-01,24.8241
2002-10-02,24.5284
2002-10-03,24.5239
2002-10-04,24.3373
2002-10-07,24.0779
2002-10-08,23.4546
2002-10-09,23.0133
2002-10-10,23.8686
2002-10-11,24.3646
2002-10-14,24.6557
2002-10-15,24.0825
2002-10-16,24.2008
2002-10-17,24.5799
2002-10-18,25.1966
2002-10-21,25.521
2002-10-22,25.2652
2002-10-23,25.2971
2002-10-24,25.055
2002-10-25,25.6261
2002-10-28,25.4937
2002-10-29,25.7038
2002-10-30,25.8546
2002-10-31,25.5119
2002-11-01,26.0327
2002-11-04,26.4988
2002-11-05,26.581
2002-11-06,26.8368
2002-11-07,26.0739
2002-11-08,26.0875
2002-11-11,25.9688
2002-11-12,26.1333
2002-11-13,26.1333
2002-11-14,25.6764
2002-11-15,26.252
2002-11-18,26.5079
2002-11-19,26.348
2002-11-20,26.581
2002-11-21,26.8826
2002-11-22,27.0058
2002-11-25,26.0053
2002-11-26,25.8454
2002-11-27,25.6078
2002-11-29,25.3565
2002-12-02,25.3657
2002-12-03,25.5393
2002-12-04,25.7814
2002-12-05,25.9916
2002-12-06,26.0785
2002-12-09,25.8774
2002-12-10,25.7495
2002-12-11,26.2063
2002-12-12,26.1515
2002-12-13,25.9551
2002-12-16,26.3662
2002-12-17,26.4211
2002-12-18,26.3616
2002-12-19,26.2246
2002-12-20,26.8186
2002-12-23,27.1841
2002-12-24,26.5536
2002-12-26,26.2886
2002-12-27,25.8728
2002-12-30,26.2703
2002-12-31,26.4942
2003-01-02,27.1247
2003-01-03,27.0927
2003-01-06,26.8962
2003-01-07,26.4531
2003-01-08,26.0601
2003-01-09,26.4942
2003-01-10,26.7638
2003-01-13,26.4531
2003-01-14,26.9008
2003-01-15,26.2817
2003-01-16,25.9057
2003-01-17,26.0478
2003-01-21,25.7956
2003-01-22,25.6489
2003-01-23,25.8873
2003-01-24,25.0847
2003-01-27,25.1398
2003-01-28,25.4516
2003-01-29,25.9377
2003-01-30,25.6717
2003-01-31,25.9653
2003-02-03,25.5846
2003-02-04,25.4104
2003-02-05,25.5892
2003-02-06,25.6717
2003-02-07,25.6351
2003-02-10,25.7772
2003-02-11,25.6625
2003-02-12,25.5525
2003-02-13,25.2682
2003-02-14,25.4333
2003-02-18,25.9928
2003-02-19,25.6855
2003-02-20,26.0295
2003-02-21,26.5431
2003-02-24,26.2771
2003-02-25,26.7174
2003-02-26,26.5201
2003-02-27,26.8779
2003-02-28,27.1255
2003-03-03,26.676
2003-03-04,26.8733
2003-03-05,27.2768
2003-03-06,27.1667
2003-03-07,27.1025
2003-03-10,27.286
2003-03-11,26.8962
2003-03-12,26.6119
2003-03-13,27.0062
2003-03-14,26.7815
2003-03-17,27.4007
2003-03-18,27.9693
2003-03-19,28.1482
2003-03-20,28.5792
2003-03-21,29.1204
2003-03-24,28.5563
2003-03-25,28.3499
2003-03-26,28.57
2003-03-27,28.9553
2003-03-28,28.9369
2003-03-31,28.9369
2003-04-01,29.1204
2003-04-02,29.3084
2003-04-03,29.1708
2003-04-04,28.8131
2003-04-07,28.4784
2003-04-08,28.515
2003-04-09,28.4325
2003-04-10,29.0195
2003-04-11,28.5609
2003-04-14,28.6847
2003-04-15,28.4325
2003-04-16,27.6208
2003-04-17,28.0656
2003-04-21,28.2352
2003-04-22,28.593
2003-04-23,28.859
2003-04-24,28.5507
2003-04-25,28.7624
2003-04-28,29.1261
2003-04-29,29.3653
2003-04-30,29.1721
2003-05-01,29.195
2003-05-02,28.9373
2003-05-05,28.8453
2003-05-06,28.8453
2003-05-07,28.8176
2003-05-08,28.3897
2003-05-09,29.1675
2003-05-12,30.074
2003-05-13,29.8255
2003-05-14,29.9728
2003-05-15,30.2627
2003-05-16,30.8931
2003-05-19,30.3685
2003-05-20,30.1385
2003-05-21,30.9024
2003-05-22,31.7722
2003-05-23,31.5006
2003-05-27,31.2936
2003-05-28,30.93
2003-05-29,31.0451
2003-05-30,32.2783
2003-06-02,32.5729
2003-06-03,32.1219
2003-06-04,32.826
2003-06-05,33.0975
2003-06-06,32.9364
2003-06-09,32.5038
2003-06-10,32.5452
2003-06-11,33.369
2003-06-12,33.5071
2003-06-13,33.369
2003-06-16,33.3829
2003-06-17,32.9732
2003-06-18,32.8306
2003-06-19,32.7478
2003-06-20,32.6741
2003-06-23,31.5651
2003-06-24,32.2829
2003-06-25,32.375
2003-06-26,32.9917
2003-06-27,32.7892
2003-06-30,32.8122
2003-07-01,32.803
2003-07-02,33.4335
2003-07-03,33.1206
2003-07-07,32.9732
2003-07-08,33.1481
2003-07-09,32.7386
2003-07-10,31.9425
2003-07-11,32.0529
2003-07-14,32.3336
2003-07-15,32.0759
2003-07-16,31.4868
2003-07-17,31.8655
2003-07-18,32.2303
2003-07-21,31.6762
2003-07-22,31.8979
2003-07-23,32.2673
2003-07-24,32.3457
2003-07-25,32.7475
2003-07-28,32.1657
2003-07-29,32.2488
2003-07-30,31.7732
2003-07-31,31.6439
2003-08-01,31.3946
2003-08-04,31.3438
2003-08-05,31.1082
2003-08-06,31.4823
2003-08-07,31.7224
2003-08-08,31.7686
2003-08-11,31.8332
2003-08-12,31.8609
2003-08-13,31.7178
2003-08-14,31.8609
2003-08-15,31.8055
2003-08-18,32.2119
2003-08-19,32.1703
2003-08-20,31.9764
2003-08-21,31.9533
2003-08-22,31.2144
2003-08-25,31.0713
2003-08-26,31.2144
2003-08-27,31.0991
2003-08-28,31.0483
2003-08-29,30.9236
2003-09-02,31.4223
2003-09-03,31.4869
2003-09-04,31.607
2003-09-05,31.3714
2003-09-08,31.6716
2003-09-09,31.4869
2003-09-10,31.5977
2003-09-11,31.6855
2003-09-12,31.981
2003-09-15,32.1149
2003-09-16,32.6643
2003-09-17,32.6459
2003-09-18,33.26
2003-09-19,33.2832
2003-09-22,32.9876
2003-09-23,33.3755
2003-09-24,33.0153
2003-09-25,32.8445
2003-09-26,32.5859
2003-09-29,32.9646
2003-09-30,32.7798
2003-10-01,32.826
2003-10-02,33.0337
2003-10-03,33.1907
2003-10-06,33.0615
2003-10-07,33.5002
2003-10-08,33.1308
2003-10-09,33.5093
2003-10-10,33.5325
2003-10-13,33.6018
2003-10-14,33.8372
2003-10-15,33.8372
2003-10-16,35.5882
2003-10-17,36.2412
2003-10-20,36.7045
2003-10-21,36.5238
2003-10-22,36.5238
2003-10-23,36.5099
2003-10-24,36.7508
2003-10-27,36.3617
2003-10-28,36.6627
2003-10-29,36.9777
2003-10-30,36.7137
2003-10-31,37.0287
2003-11-03,36.8295
2003-11-04,36.3756
2003-11-05,36.3524
2003-11-06,36.2135
2003-11-07,35.8244
2003-11-10,35.4631
2003-11-11,35.5835
2003-11-12,35.8013
2003-11-13,36.0421
2003-11-14,35.5927
2003-11-17,35.5743
2003-11-18,35.2083
2003-11-19,35.0044
2003-11-20,34.6432
2003-11-21,34.4533
2003-11-24,35.0044
2003-11-25,35.074
2003-11-26,35.1064
2003-11-28,35.0184
2003-12-01,35.602
2003-12-02,35.8522
2003-12-03,35.8522
2003-12-04,35.7827
2003-12-05,35.7827
2003-12-08,36.4589
2003-12-09,36.5516
2003-12-10,36.1116
2003-12-11,36.3107
2003-12-12,36.4868
2003-12-15,36.1765
2003-12-16,35.8244
2003-12-17,36.7462
2003-12-18,36.987
2003-12-19,37.5243
2003-12-22,37.0333
2003-12-23,37.2233
2003-12-24,37.3344
2003-12-26,37.3298
2003-12-29,37.4966
2003-12-30,37.4966
2003-12-31,37.6031
2004-01-02,37.7559
2004-01-05,37.5985
2004-01-06,37.2325
2004-01-07,37.7976
2004-01-08,38.2886
2004-01-09,38.7935
2004-01-12,39.002
2004-01-13,39.4142
2004-01-14,39.5304
2004-01-15,39.8601
2004-01-16,40.4174
2004-01-20,41.3
2004-01-21,41.0398
2004-01-22,41.1699
2004-01-23,41.0955
2004-01-26,41.7411
2004-01-27,41.4393
2004-01-28,40.9562
2004-01-29,43.0556
2004-01-30,43.7104
2004-02-02,43.469
2004-02-03,43.7244
2004-02-04,43.6966
2004-02-05,43.1949
2004-02-06,43.1021
2004-02-09,43.116
2004-02-10,43.1345
2004-02-11,43.4597
2004-02-12,43.7988
2004-02-13,44.0356
2004-02-17,44.1006
2004-02-18,43.7615
2004-02-19,43.4968
2004-02-20,43.1856
2004-02-23,42.842
2004-02-24,42.7026
2004-02-25,42.7072
2004-02-26,42.972
2004-02-27,43.8359
2004-03-01,45.1131
2004-03-02,44.3329
2004-03-03,43.9798
2004-03-04,43.7058
2004-03-05,43.966
2004-03-08,43.6687
2004-03-09,43.9798
2004-03-10,44.9924
2004-03-11,43.8684
2004-03-12,43.6594
2004-03-15,43.7197
2004-03-16,43.7988
2004-03-17,44.4908
2004-03-18,43.9334
2004-03-19,43.8266
2004-03-22,43.4225
2004-03-23,43.6687
2004-03-24,43.2367
2004-03-25,43.5525
2004-03-26,43.4179
2004-03-29,43.7941
2004-03-30,44.7695
2004-03-31,45.3083
2004-04-01,45.5173
2004-04-02,45.6101
2004-04-05,45.847
2004-04-06,45.991
2004-04-07,45.7401
2004-04-08,45.5684
2004-04-12,45.4105
2004-04-13,45.2339
2004-04-14,44.8624
2004-04-15,45.7774
2004-04-16,45.9817
2004-04-19,45.8563
2004-04-20,46.4601
2004-04-21,50.5102
2004-04-22,51.3184
2004-04-23,51.1233
2004-04-26,51.5645
2004-04-27,51.1094
2004-04-28,49.4605
2004-04-29,49.5908
2004-04-30,49.4791
2004-05-03,49.8283
2004-05-04,49.9679
2004-05-05,50.7452
2004-05-06,50.0842
2004-05-07,49.6281
2004-05-10,49.144
2004-05-11,49.5955
2004-05-12,49.926
2004-05-13,49.4838
2004-05-14,50.3077
2004-05-17,50.4566
2004-05-18,50.1726
2004-05-19,50.0609
2004-05-20,51.1735
2004-05-21,50.9686
2004-05-24,51.2014
2004-05-25,51.0291
2004-05-26,51.5644
2004-05-27,52.1649
2004-05-28,52.1649
2004-06-01,53.2308
2004-06-02,53.2308
2004-06-03,53.538
2004-06-04,52.784
2004-06-07,53.2401
2004-06-08,53.1377
2004-06-09,52.7467
2004-06-10,53.2494
2004-06-14,53.3053
2004-06-15,53.3053
2004-06-16,53.1656
2004-06-17,53.687
2004-06-18,53.4821
2004-06-21,53.1097
2004-06-22,53.5287
2004-06-23,52.8491
2004-06-24,51.6296
2004-06-25,50.9128
2004-06-28,52.2906
2004-06-29,52.4767
2004-06-30,52.6164
2004-07-01,52.2533
2004-07-02,51.9926
2004-07-06,51.9741
2004-07-07,52.514
2004-07-08,51.5924
2004-07-09,50.9221
2004-07-12,51.3968
2004-07-13,50.9872
2004-07-14,51.1455
2004-07-15,51.5365
2004-07-16,50.3729
2004-07-19,48.9578
2004-07-20,49.3674
2004-07-21,50.6055
2004-07-22,51.2585
2004-07-23,51.0999
2004-07-26,50.3908
2004-07-27,51.3425
2004-07-28,51.072
2004-07-29,50.3722
2004-07-30,51.5011
2004-08-02,51.3239
2004-08-03,50.7361
2004-08-04,50.3348
2004-08-05,48.7675
2004-08-06,48.2543
2004-08-09,48.6555
2004-08-10,49.0753
2004-08-11,49.3086
2004-08-12,48.5622
2004-08-13,48.0677
2004-08-16,48.3569
2004-08-17,49.0567
2004-08-18,49.999
2004-08-19,50.1296
2004-08-20,51.1839
2004-08-23,50.5215
2004-08-24,50.6521
2004-08-25,50.9507
2004-08-26,51.2679
2004-08-27,51.5664
2004-08-30,51.2026
2004-08-31,52.0049
2004-09-01,52.4341
2004-09-02,52.8167
2004-09-03,52.994
2004-09-07,52.9472
2004-09-08,53.3391
2004-09-09,53.0406
2004-09-10,52.9193
2004-09-13,52.9006
2004-09-14,53.1618
2004-09-15,52.714
2004-09-16,53.1805
2004-09-17,53.0685
2004-09-20,53.0592
2004-09-21,53.1152
2004-09-22,52.4714
2004-09-23,52.3408
2004-09-24,52.4528
2004-09-27,51.9023
2004-09-28,52.4528
2004-09-29,53.1526
2004-09-30,52.9006
2004-10-01,52.4807
2004-10-04,52.6208
2004-10-05,51.9676
2004-10-06,51.072
2004-10-07,50.5028
2004-10-08,49.3646
2004-10-11,48.8141
2004-10-12,50.1483
2004-10-13,49.7845
2004-10-14,49.7751
2004-10-15,49.5139
2004-10-18,49.3553
2004-10-19,48.8235
2004-10-20,52.658
2004-10-21,52.34
2004-10-22,51.6014
2004-10-25,51.2087
2004-10-26,52.3961
2004-10-27,53.2937
2004-10-28,52.5084
2004-10-29,52.8169
2004-11-01,53.0038
2004-11-02,53.3404
2004-11-03,54.2286
2004-11-04,54.6401
2004-11-05,54.7897
2004-11-08,54.6681
2004-11-09,54.584
2004-11-10,54.7897
2004-11-11,55.8743
2004-11-12,55.7714
2004-11-15,55.6499
2004-11-16,55.9865
2004-11-17,55.5938
2004-11-18,55.6311
2004-11-19,55.5844
2004-11-22,56.3885
2004-11-23,56.1641
2004-11-24,56.4258
2004-11-26,56.108
2004-11-29,55.9958
2004-11-30,55.9865
2004-12-01,56.2295
2004-12-02,56.7998
2004-12-03,55.6311
2004-12-06,54.8458
2004-12-07,55.36
2004-12-08,55.8088
2004-12-09,56.2295
2004-12-10,56.6503
2004-12-13,56.295
2004-12-14,56.4913
2004-12-15,56.1267
2004-12-16,59.4271
2004-12-17,59.7357
2004-12-20,59.3804
2004-12-21,59.7263
2004-12-22,60.4275
2004-12-23,60.0817
2004-12-27,59.5206
2004-12-28,59.9974
2004-12-29,60.0255
2004-12-30,59.9321
2004-12-31,59.745
2005-01-03,60.5679
2005-01-04,60.3902
2005-01-05,59.5581
2005-01-06,59.4926
2005-01-07,59.5394
2005-01-10,58.567
2005-01-11,58.6231
2005-01-12,60.4556
2005-01-13,60.4183
2005-01-14,61.2877
2005-01-18,62.1012
2005-01-19,62.2134
2005-01-20,61.8105
2005-01-21,62.1478
2005-01-24,61.0987
2005-01-25,60.5555
2005-01-26,61.5951
2005-01-27,63.0189
2005-01-28,62.1665
2005-01-31,63.4778
2005-02-01,65.0701
2005-02-02,65.2201
2005-02-03,66.1099
2005-02-04,65.5386
2005-02-07,64.7705
2005-02-08,65.0983
2005-02-09,64.2834
2005-02-10,64.0586
2005-02-11,64.7798
2005-02-14,64.1148
2005-02-15,64.0773
2005-02-16,63.9275
2005-02-17,63.9461
2005-02-18,63.4684
2005-02-22,63.253
2005-02-23,63.6184
2005-02-24,63.7776
2005-02-25,63.4122
2005-02-28,62.2882
2005-03-01,63.2999
2005-03-02,63.4966
2005-03-03,62.4194
2005-03-04,62.2227
2005-03-07,62.382
2005-03-08,62.2227
2005-03-09,61.6607
2005-03-10,61.3516
2005-03-11,60.7897
2005-03-14,61.6982
2005-03-15,59.7031
2005-03-16,63.0189
2005-03-17,63.7776
2005-03-18,63.506
2005-03-21,63.6184
2005-03-22,62.5412
2005-03-23,61.9417
2005-03-24,62.2976
2005-03-28,63.8807
2005-03-29,63.9461
2005-03-30,63.7589
2005-03-31,63.7776
2005-04-01,63.7869
2005-04-04,64.274
2005-04-05,64.4052
2005-04-06,63.7682
2005-04-07,65.651
2005-04-08,65.5572
2005-04-11,65.3325
2005-04-12,65.2856
2005-04-13,65.2481
2005-04-14,65.0327
2005-04-15,64.4894
2005-04-18,64.5082
2005-04-19,64.6768
2005-04-20,64.3115
2005-04-21,64.1523
2005-04-22,65.9694
2005-04-25,66.3628
2005-04-26,65.1077
2005-04-27,66.3722
2005-04-28,65.6498
2005-04-29,66.7195
2005-05-02,67.2824
2005-05-03,67.273
2005-05-04,67.6389
2005-05-05,67.6389
2005-05-06,67.714
2005-05-09,68.2394
2005-05-10,67.3105
2005-05-11,67.1792
2005-05-12,66.2128
2005-05-13,65.6498
2005-05-16,66.5037
2005-05-17,66.4661
2005-05-18,66.6162
2005-05-19,66.6538
2005-05-20,66.0064
2005-05-23,66.4567
2005-05-24,66.1565
2005-05-25,65.2839
2005-05-26,65.2089
2005-05-27,64.2425
2005-05-31,64.1018
2005-06-01,63.1354
2005-06-02,63.5107
2005-06-03,63.7452
2005-06-06,64.0173
2005-06-07,64.5709
2005-06-08,64.6553
2005-06-09,64.8336
2005-06-10,64.3363
2005-06-13,64.2425
2005-06-14,65.0118
2005-06-15,65.2558
2005-06-16,65.7061
2005-06-17,65.6498
2005-06-20,65.6029
2005-06-21,64.7304
2005-06-22,63.6983
2005-06-23,61.8123
2005-06-24,61.6528
2005-06-27,61.9719
2005-06-28,62.6756
2005-06-29,62.8633
2005-06-30,62.3379
2005-07-01,62.3566
2005-07-05,63.1166
2005-07-06,63.0697
2005-07-07,62.9008
2005-07-08,63.5294
2005-07-11,63.7734
2005-07-12,62.9665
2005-07-13,62.8351
2005-07-14,62.882
2005-07-15,62.8914
2005-07-18,62.6006
2005-07-19,63.004
2005-07-20,62.3754
2005-07-21,62.8829
2005-07-22,62.3283
2005-07-25,62.7044
2005-07-26,62.6385
2005-07-27,63.4565
2005-07-28,63.3248
2005-07-29,62.7419
2005-08-01,61.8676
2005-08-02,61.9993
2005-08-03,60.6268
2005-08-04,59.79
2005-08-05,59.743
2005-08-08,59.4422
2005-08-09,59.4704
2005-08-10,59.5551
2005-08-11,61.454
2005-08-12,61.6138
2005-08-15,61.7736
2005-08-16,61.5668
2005-08-17,61.6702
2005-08-18,61.5763
2005-08-19,61.36
2005-08-22,60.937
2005-08-23,59.837
2005-08-24,60.4857
2005-08-25,60.4106
2005-08-26,59.7713
2005-08-29,59.4892
2005-08-30,59.3858
2005-08-31,60.3729
2005-09-01,61.2848
2005-09-02,61.36
2005-09-06,62.2342
2005-09-07,62.6855
2005-09-08,62.9958
2005-09-09,63.165
2005-09-12,62.1027
2005-09-13,61.8959
2005-09-14,61.9899
2005-09-15,62.2531
2005-09-16,63.4565
2005-09-19,63.0146
2005-09-20,62.3189
2005-09-21,62.6197
2005-09-22,62.6291
2005-09-23,62.601
2005-09-26,62.2342
2005-09-27,61.9617
2005-09-28,62.0087
2005-09-29,62.2061
2005-09-30,62.0933
2005-10-03,62.7984
2005-10-04,63.3342
2005-10-05,62.1967
2005-10-06,61.7078
2005-10-07,61.7172
2005-10-10,61.0968
2005-10-11,59.649
2005-10-12,60.0909
2005-10-13,59.8183
2005-10-14,60.8712
2005-10-17,60.5421
2005-10-18,60.0251
2005-10-19,60.0532
2005-10-20,59.6011
2005-10-21,59.9025
2005-10-24,60.0532
2005-10-25,59.2808
2005-10-26,58.1504
2005-10-27,57.8018
2005-10-28,58.2164
2005-10-31,58.5649
2005-11-01,58.2446
2005-11-02,59.3656
2005-11-03,59.3561
2005-11-04,59.309
2005-11-07,59.3374
2005-11-08,59.2432
2005-11-09,59.2903
2005-11-10,60.2982
2005-11-11,59.6671
2005-11-14,58.6685
2005-11-15,59.554
2005-11-16,59.309
2005-11-17,60.091
2005-11-18,60.562
2005-11-21,61.0141
2005-11-22,60.675
2005-11-23,60.9764
2005-11-25,61.1177
2005-11-28,60.9576
2005-11-29,61.4098
2005-11-30,61.0047
2005-12-01,61.5323
2005-12-02,63.4257
2005-12-05,63.5198
2005-12-06,63.0583
2005-12-07,63.1808
2005-12-08,65.2343
2005-12-09,65.385
2005-12-12,65.2343
2005-12-13,64.6032
2005-12-14,63.4727
2005-12-15,62.9641
2005-12-16,63.0583
2005-12-19,63.2844
2005-12-20,63.0772
2005-12-21,64.038
2005-12-22,63.8213
2005-12-23,63.6234
2005-12-27,63.0772
2005-12-28,62.6626
2005-12-29,62.5684
2005-12-30,62.1728
2006-01-03,61.617
2006-01-04,63.0394
2006-01-05,62.6815
2006-01-06,63.6894
2006-01-09,63.8308
2006-01-10,63.9344
2006-01-11,63.1619
2006-01-12,62.9358
2006-01-13,62.8416
2006-01-17,61.6264
2006-01-18,61.3627
2006-01-19,61.391
2006-01-20,60.3623
2006-01-23,60.5793
2006-01-24,61.2306
2006-01-25,60.702
2006-01-26,59.9847
2006-01-27,59.9281
2006-01-30,60.7964
2006-01-31,59.9281
2006-02-01,59.0219
2006-02-02,59.0219
2006-02-03,58.4273
2006-02-06,57.5778
2006-02-07,56.917
2006-02-08,57.9269
2006-02-09,58.8143
2006-02-10,59.4749
2006-02-13,59.8525
2006-02-14,60.5415
2006-02-15,61.2118
2006-02-16,61.1646
2006-02-17,61.1929
2006-02-21,60.7681
2006-02-22,60.2962
2006-02-23,62.9957
2006-02-24,62.4199
2006-02-27,63.0146
2006-02-28,61.8158
2006-03-01,62.2972
2006-03-02,66.0539
2006-03-03,65.7235
2006-03-06,64.7136
2006-03-07,64.6759
2006-03-08,64.6192
2006-03-09,64.3644
2006-03-10,65.1289
2006-03-13,65.6008
2006-03-14,65.2139
2006-03-15,65.1006
2006-03-16,64.9684
2006-03-17,65.5725
2006-03-20,64.8835
2006-03-21,64.4021
2006-03-22,65.1289
2006-03-23,65.2705
2006-03-24,64.8174
2006-03-27,64.4493
2006-03-28,64.2606
2006-03-29,64.487
2006-03-30,64.3927
2006-03-31,64.0906
2006-04-03,63.3638
2006-04-04,63.26
2006-04-05,65.1383
2006-04-06,64.2794
2006-04-07,64.2794
2006-04-10,64.3455
2006-04-11,64.7041
2006-04-12,65.3649
2006-04-13,65.8463
2006-04-17,65.3932
2006-04-18,65.4121
2006-04-19,70.0844
2006-04-20,69.669
2006-04-21,69.1405
2006-04-24,69.7823
2006-04-25,69.4991
2006-04-26,69.754
2006-04-27,70.7277
2006-04-28,70.5197
2006-05-01,69.9714
2006-05-02,70.047
2006-05-03,69.5459
2006-05-04,69.9524
2006-05-05,70.7089
2006-05-08,70.8034
2006-05-09,71.2289
2006-05-10,71.2857
2006-05-11,71.6449
2006-05-12,71.7206
2006-05-15,71.3329
2006-05-16,70.6143
2006-05-17,69.8011
2006-05-18,69.5931
2006-05-19,68.8082
2006-05-22,68.7042
2006-05-23,68.5246
2006-05-24,68.865
2006-05-25,69.4702
2006-05-26,69.6687
2006-05-30,68.7705
2006-05-31,69.9146
2006-06-01,70.2929
2006-06-02,69.9051
2006-06-05,68.222
2006-06-06,68.1275
2006-06-07,68.2032
2006-06-08,69.1676
2006-06-09,69.7255
2006-06-12,69.0352
2006-06-13,67.1914
2006-06-14,67.2575
2006-06-15,67.9384
2006-06-16,67.6169
2006-06-19,67.1441
2006-06-20,66.52
2006-06-21,66.747
2006-06-22,67.4845
2006-06-23,68.1369
2006-06-26,68.9029
2006-06-27,68.1747
2006-06-28,68.0802
2006-06-29,69.3567
2006-06-30,69.3756
2006-07-03,69.0352
2006-07-05,69.0541
2006-07-06,69.8484
2006-07-07,70.1037
2006-07-10,70.151
2006-07-11,70.1982
2006-07-12,69.6877
2006-07-13,68.5057
2006-07-14,69.0447
2006-07-17,70.0186
2006-07-18,70.7372
2006-07-19,71.0492
2006-07-20,65.1853
2006-07-21,65.1096
2006-07-24,66.218
2006-07-25,67.1464
2006-07-26,66.919
2006-07-27,67.2506
2006-07-28,67.7906
2006-07-31,67.1653
2006-08-01,67.1748
2006-08-02,67.2979
2006-08-03,67.8379
2006-08-04,67.3263
2006-08-07,67.5252
2006-08-08,67.4874
2006-08-09,67.2316
2006-08-10,67.6011
2006-08-11,67.1748
2006-08-14,68.2263
2006-08-15,68.9368
2006-08-16,69.4958
2006-08-17,69.3914
2006-08-18,69.4389
2006-08-21,69.3914
2006-08-22,69.1642
2006-08-23,68.7852
2006-08-24,69.2304
2006-08-25,69.202
2006-08-28,69.6473
2006-08-29,70.4714
2006-08-30,70.7557
2006-08-31,71.1819
2006-09-01,71.7124
2006-09-05,71.3051
2006-09-06,70.803
2006-09-07,70.5756
2006-09-08,71.4567
2006-09-11,71.0019
2006-09-12,71.4851
2006-09-13,71.5324
2006-09-14,71.6746
2006-09-15,72.224
2006-09-18,71.9114
2006-09-19,71.8356
2006-09-20,71.7883
2006-09-21,72.0819
2006-09-22,71.2198
2006-09-25,71.2861
2006-09-26,71.2483
2006-09-27,71.9587
2006-09-28,71.2388
2006-09-29,71.0209
2006-10-02,70.9262
2006-10-03,71.0872
2006-10-04,71.6082
2006-10-05,71.8545
2006-10-06,71.8356
2006-10-09,71.8925
2006-10-10,72.2903
2006-10-11,72.3945
2006-10-12,72.7451
2006-10-13,72.2903
2006-10-16,72.1577
2006-10-17,71.7503
2006-10-18,72.5745
2006-10-19,78.3924
2006-10-20,78.829
2006-10-23,80.2621
2006-10-24,78.9809
2006-10-25,78.6677
2006-10-26,78.4399
2006-10-27,77.5952
2006-10-30,77.4149
2006-10-31,77.7376
2006-11-01,77.1777
2006-11-02,77.2156
2006-11-03,77.0733
2006-11-06,77.804
2006-11-07,78.4115
2006-11-08,77.2535
2006-11-09,76.6556
2006-11-10,76.8834
2006-11-13,75.83
2006-11-14,77.4623
2006-11-15,77.8894
2006-11-16,79.6832
2006-11-17,78.4873
2006-11-20,78.5538
2006-11-21,78.4209
2006-11-22,78.8195
2006-11-24,78.1457
2006-11-27,77.3579
2006-11-28,78.2406
2006-11-29,78.81
2006-11-30,78.1647
2006-12-01,78.2786
2006-12-04,79.2561
2006-12-05,79.7591
2006-12-06,79.7876
2006-12-07,80.765
2006-12-08,80.4234
2006-12-11,80.5658
2006-12-12,79.9109
2006-12-13,80.1198
2006-12-14,80.0533
2006-12-15,79.4838
2006-12-18,80.4044
2006-12-19,81.0119
2006-12-20,78.886
2006-12-21,79.1232
2006-12-22,79.2941
2006-12-26,79.37
2006-12-27,79.5408
2006-12-28,79.1897
2006-12-29,78.6961
2007-01-03,78.6202
2007-01-04,78.6677
2007-01-05,78.1932
2007-01-08,78.2786
2007-01-09,78.2501
2007-01-10,78.1647
2007-01-11,78.7436
2007-01-12,78.3734
2007-01-16,77.301
2007-01-17,78.6961
2007-01-18,79.6563
2007-01-19,79.3521
2007-01-22,79.1905
2007-01-23,78.9528
2007-01-24,79.6658
2007-01-25,78.3349
2007-01-26,77.1085
2007-01-29,77.0135
2007-01-30,77.9355
2007-01-31,78.4965
2007-02-01,77.6313
2007-02-02,77.4697
2007-02-05,77.6884
2007-02-06,78.0402
2007-02-07,78.1637
2007-02-08,77.5934
2007-02-09,77.4888
2007-02-12,77.156
2007-02-13,76.9754
2007-02-14,76.6807
2007-02-15,77.6693
2007-02-16,77.9071
2007-02-20,78.6961
2007-02-21,78.6581
2007-02-22,78.6201
2007-02-23,78.3824
2007-02-26,77.717
2007-02-27,76.1863
2007-02-28,75.8156
2007-03-01,74.9125
2007-03-02,74.6367
2007-03-05,74.2755
2007-03-06,74.9315
2007-03-07,74.6653
2007-03-08,74.7699
2007-03-09,75.0931
2007-03-12,74.5702
2007-03-13,73.496
2007-03-14,75.2737
2007-03-15,75.5209
2007-03-16,75.3783
2007-03-19,76.1959
2007-03-20,76.0722
2007-03-21,76.6332
2007-03-22,76.2909
2007-03-23,76.3479
2007-03-26,76.0533
2007-03-27,75.8917
2007-03-28,75.3593
2007-03-29,75.654
2007-03-30,75.5114
2007-04-02,76.5571
2007-04-03,76.9754
2007-04-04,77.3937
2007-04-05,77.9071
2007-04-09,77.6599
2007-04-10,77.812
2007-04-11,77.5554
2007-04-12,77.6789
2007-04-13,77.3556
2007-04-16,77.9832
2007-04-17,78.0496
2007-04-18,77.5554
2007-04-19,78.1162
2007-04-20,78.9908
2007-04-23,78.2398
2007-04-24,78.1542
2007-04-25,80.3122
2007-04-26,80.0836
2007-04-27,80.0075
2007-04-30,79.2266
2007-05-01,78.7885
2007-05-02,79.3504
2007-05-03,79.0075
2007-05-04,78.5124
2007-05-07,78.798
2007-05-08,78.5029
2007-05-09,78.7219
2007-05-10,77.9696
2007-05-11,78.3982
2007-05-14,77.9982
2007-05-15,78.7124
2007-05-16,79.1314
2007-05-17,78.3315
2007-05-18,78.979
2007-05-21,78.9504
2007-05-22,79.7503
2007-05-23,80.074
2007-05-24,80.0264
2007-05-25,80.1503
2007-05-29,80.0551
2007-05-30,80.5883
2007-05-31,80.2835
2007-06-01,80.4264
2007-06-04,80.9215
2007-06-05,80.5979
2007-06-06,79.8741
2007-06-07,79.617
2007-06-08,80.5788
2007-06-11,80.474
2007-06-12,80.2741
2007-06-13,80.7978
2007-06-14,80.674
2007-06-15,80.7216
2007-06-18,80.655
2007-06-19,81.0168
2007-06-20,80.5026
2007-06-21,80.1312
2007-06-22,78.2172
2007-06-25,77.8078
2007-06-26,77.5697
2007-06-27,77.722
2007-06-28,78.56
2007-06-29,78.7791
2007-07-02,79.0457
2007-07-03,79.9693
2007-07-05,79.5979
2007-07-06,79.5027
2007-07-09,79.5503
2007-07-10,79.2647
2007-07-11,79.5218
2007-07-12,79.617
2007-07-13,80.3598
2007-07-16,79.5123
2007-07-17,78.7885
2007-07-18,78.4553
2007-07-19,77.8639
2007-07-20,77.3869
2007-07-23,78.7129
2007-07-24,78.4743
2007-07-25,74.916
2007-07-26,76.1944
2007-07-27,75.393
2007-07-30,76.1562
2007-07-31,74.792
2007-08-01,76.1752
2007-08-02,76.347
2007-08-03,74.8683
2007-08-06,75.9654
2007-08-07,75.9081
2007-08-08,77.2724
2007-08-09,76.8431
2007-08-10,77.6349
2007-08-13,77.0721
2007-08-14,77.2724
2007-08-15,75.5933
2007-08-16,74.3818
2007-08-17,76.8144
2007-08-20,77.3773
2007-08-21,78.8178
2007-08-22,78.5984
2007-08-23,78.7224
2007-08-24,78.8464
2007-08-27,78.9896
2007-08-28,78.4649
2007-08-29,79.4189
2007-08-30,79.1803
2007-08-31,79.4761
2007-09-04,80.2679
2007-09-05,80.3156
2007-09-06,80.659
2007-09-07,79.5238
2007-09-10,80.3918
2007-09-11,81.26
2007-09-12,81.0024
2007-09-13,81.1646
2007-09-14,81.1742
2007-09-17,80.6304
2007-09-18,81.5175
2007-09-19,82.338
2007-09-20,82.5765
2007-09-21,82.5097
2007-09-24,82.09
2007-09-25,83.4733
2007-09-26,83.7499
2007-09-27,84.1792
2007-09-28,84.1314
2007-10-01,84.8278
2007-10-02,84.3318
2007-10-03,83.9025
2007-10-04,83.3588
2007-10-05,83.5878
2007-10-08,84.4081
2007-10-09,83.9502
2007-10-10,84.017
2007-10-11,83.9311
2007-10-12,83.0248
2007-10-15,82.7292
2007-10-16,82.1567
2007-10-17,82.4238
2007-10-18,82.1849
2007-10-19,82.1275
2007-10-22,81.7644
2007-10-23,82.3951
2007-10-24,75.5432
2007-10-25,77.5118
2007-10-26,78.2763
2007-10-29,78.1616
2007-10-30,79.0408
2007-10-31,79.834
2007-11-01,77.2729
2007-11-02,77.3398
2007-11-05,77.8463
2007-11-06,79.7671
2007-11-07,77.3589
2007-11-08,80.1589
2007-11-09,79.748
2007-11-12,81.2674
2007-11-13,81.9937
2007-11-14,81.1719
2007-11-15,80.5221
2007-11-16,81.1337
2007-11-19,79.662
2007-11-20,79.2224
2007-11-21,78.9357
2007-11-23,79.3944
2007-11-26,77.875
2007-11-27,80.1876
2007-11-28,81.2388
2007-11-29,80.608
2007-11-30,80.6367
2007-12-03,79.4326
2007-12-04,78.8401
2007-12-05,78.7733
2007-12-06,79.1172
2007-12-07,81.2483
2007-12-10,81.7262
2007-12-11,80.5603
2007-12-12,79.6524
2007-12-13,79.92
2007-12-14,79.8913
2007-12-17,79.4613
2007-12-18,81.1623
2007-12-19,86.877
2007-12-20,88.6163
2007-12-21,89.4955
2007-12-24,89.7249
2007-12-26,90.5944
2007-12-27,90.0402
2007-12-28,90.8238
2007-12-31,90.4225
2008-01-02,88.2914
2008-01-03,88.1576
2008-01-04,86.8101
2008-01-07,91.0723
2008-01-08,90.2982
2008-01-09,91.2157
2008-01-10,93.0027
2008-01-11,92.1426
2008-01-14,91.3494
2008-01-15,92.0566
2008-01-16,95.0431
2008-01-17,93.5021
2008-01-18,92.4588
2008-01-22,90.8317
2008-01-23,88.3049
2008-01-24,87.9699
2008-01-25,87.8455
2008-01-28,89.6927
2008-01-29,88.7644
2008-01-30,90.0852
2008-01-31,92.0855
2008-02-01,92.6407
2008-02-04,93.5213
2008-02-05,90.9274
2008-02-06,90.5733
2008-02-07,91.4443
2008-02-08,91.473
2008-02-11,92.143
2008-02-12,92.9853
2008-02-13,92.7748
2008-02-14,93.3777
2008-02-15,92.2388
2008-02-19,92.9279
2008-02-20,93.1193
2008-02-21,91.7602
2008-02-22,91.9994
2008-02-25,94.8039
2008-02-26,93.9137
2008-02-27,91.3964
2008-02-28,92.277
2008-02-29,90.7361
2008-03-03,91.607
2008-03-04,90.5924
2008-03-05,90.7265
2008-03-06,89.798
2008-03-07,88.7452
2008-03-10,87.8933
2008-03-11,90.7361
2008-03-12,90.7743
2008-03-13,92.0855
2008-03-14,91.7793
2008-03-17,91.808
2008-03-18,93.1384
2008-03-19,94.1052
2008-03-20,95.2633
2008-03-24,95.091
2008-03-25,94.5263
2008-03-26,93.2916
2008-03-27,94.6028
2008-03-28,93.3107
2008-03-31,92.277
2008-04-01,93.5692
2008-04-02,94.354
2008-04-03,94.2104
2008-04-04,94.287
2008-04-07,94.421
2008-04-08,93.4925
2008-04-09,92.4684
2008-04-10,91.8367
2008-04-11,91.2911
2008-04-14,90.8988
2008-04-15,89.2908
2008-04-16,91.7122
2008-04-17,91.7506
2008-04-18,93.2724
2008-04-21,91.7218
2008-04-22,90.6308
2008-04-23,92.8034
2008-04-24,89.6017
2008-04-25,88.9691
2008-04-28,89.3429
2008-04-29,89.4292
2008-04-30,90.3399
2008-05-01,90.7137
2008-05-02,89.4484
2008-05-05,88.4898
2008-05-06,88.4706
2008-05-07,87.6366
2008-05-08,88.3939
2008-05-09,87.3586
2008-05-12,88.4513
2008-05-13,87.6366
2008-05-14,87.6557
2008-05-15,87.6845
2008-05-16,87.3778
2008-05-19,86.7546
2008-05-20,86.9847
2008-05-21,88.2501
2008-05-22,87.5599
2008-05-23,86.8025
2008-05-27,87.8475
2008-05-28,87.3011
2008-05-29,88.8444
2008-05-30,87.3682
2008-06-02,87.4544
2008-06-03,86.841
2008-06-04,87.3107
2008-06-05,87.349
2008-06-06,85.9878
2008-06-09,85.2592
2008-06-10,85.125
2008-06-11,84.3773
2008-06-12,84.8757
2008-06-13,87.0039
2008-06-16,87.464
2008-06-17,87.1669
2008-06-18,85.8344
2008-06-19,86.0453
2008-06-20,84.5307
2008-06-23,84.3581
2008-06-24,83.5529
2008-06-25,83.9076
2008-06-26,83.6008
2008-06-27,84.6074
2008-06-30,84.3294
2008-07-01,84.1472
2008-07-02,83.8692
2008-07-03,83.5241
2008-07-07,83.4283
2008-07-08,85.681
2008-07-09,84.502
2008-07-10,85.0962
2008-07-11,84.5594
2008-07-14,84.7129
2008-07-15,85.5372
2008-07-16,86.6492
2008-07-17,86.3225
2008-07-18,87.5613
2008-07-21,86.2841
2008-07-22,88.3296
2008-07-23,87.8398
2008-07-24,90.8744
2008-07-25,91.5467
2008-07-28,90.5095
2008-07-29,89.0786
2008-07-30,89.1746
2008-07-31,88.9921
2008-08-01,88.3968
2008-08-04,89.1459
2008-08-05,89.9909
2008-08-06,90.4615
2008-08-07,88.6945
2008-08-08,89.5684
2008-08-11,89.0978
2008-08-12,90.1926
2008-08-13,89.117
2008-08-14,88.6561
2008-08-15,90.1062
2008-08-18,90.5287
2008-08-19,90.74
2008-08-20,89.8853
2008-08-21,91.8539
2008-08-22,91.8443
2008-08-25,90.1637
2008-08-26,90.2982
2008-08-27,90.4999
2008-08-28,91.0376
2008-08-29,89.7508
2008-09-02,90.6824
2008-09-03,91.1529
2008-09-04,90.3175
2008-09-05,90.3942
2008-09-08,91.9212
2008-09-09,92.4397
2008-09-10,91.4505
2008-09-11,92.3821
2008-09-12,92.4301
2008-09-15,92.891
2008-09-16,92.6797
2008-09-17,92.0843
2008-09-18,94.5909
2008-09-19,91.1529
2008-09-22,92.2476
2008-09-23,92.094
2008-09-24,91.8636
2008-09-25,93.0351
2008-09-26,94.7925
2008-09-29,91.2969
2008-09-30,91.2297
2008-10-01,90.7495
2008-10-02,90.2694
2008-10-03,90.1253
2008-10-06,86.697
2008-10-07,86.5434
2008-10-08,85.6599
2008-10-09,78.7552
2008-10-10,77.1899
2008-10-13,79.2066
2008-10-14,78.6304
2008-10-15,73.2623
2008-10-16,75.8612
2008-10-17,75.842
2008-10-20,78.3729
2008-10-21,76.3616
2008-10-22,75.3031
2008-10-23,79.7683
2008-10-24,78.3825
2008-10-27,77.478
2008-10-28,81.183
2008-10-29,81.0579
2008-10-30,82.6457
2008-10-31,84.58
2008-11-03,84.3106
2008-11-04,84.5319
2008-11-05,83.3771
2008-11-06,81.2599
2008-11-07,83.7428
2008-11-10,83.8294
2008-11-11,81.9721
2008-11-12,79.0754
2008-11-13,80.8269
2008-11-14,79.8357
2008-11-17,78.9118
2008-11-18,77.4106
2008-11-19,76.1884
2008-11-20,74.4658
2008-11-21,77.6031
2008-11-24,79.2006
2008-11-25,76.9775
2008-11-26,79.8549
2008-11-28,78.9407
2008-12-01,76.3327
2008-12-02,77.9398
2008-12-03,80.7307
2008-12-04,78.9696
2008-12-05,81.0482
2008-12-08,79.9416
2008-12-09,79.6432
2008-12-10,78.5558
2008-12-11,78.5558
2008-12-12,77.7281
2008-12-15,77.1026
2008-12-16,79.3642
2008-12-17,78.4307
2008-12-18,78.1612
2008-12-19,76.9102
2008-12-22,76.9775
2008-12-23,76.939
2008-12-24,77.9303
2008-12-26,77.8244
2008-12-29,78.2767
2008-12-30,79.4797
2008-12-31,81.2311
2009-01-02,81.6449
2009-01-05,80.0955
2009-01-06,79.4892
2009-01-07,80.2688
2009-01-08,80.1436
2009-01-09,80.1821
2009-01-12,80.0474
2009-01-13,81.462
2009-01-14,80.4997
2009-01-15,82.1935
2009-01-16,82.8767
2009-01-20,80.7788
2009-01-21,83.8101
2009-01-22,85.2078
2009-01-23,82.7493
2009-01-26,83.1735
2009-01-27,82.5662
2009-01-28,82.9036
2009-01-29,82.7493
2009-01-30,82.2866
2009-02-02,82.9519
2009-02-03,83.9834
2009-02-04,83.1543
2009-02-05,84.157
2009-02-06,83.4821
2009-02-09,82.9904
2009-02-10,81.9973
2009-02-11,82.4023
2009-02-12,83.6074
2009-02-13,84.0412
2009-02-17,83.9063
2009-02-18,83.5977
2009-02-19,83.0483
2009-02-20,82.5854
2009-02-23,81.39
2009-02-24,82.2576
2009-02-25,80.8211
2009-02-26,78.4591
2009-02-27,77.5239
2009-03-02,74.5159
2009-03-03,74.9883
2009-03-04,74.1688
2009-03-05,71.3922
2009-03-06,69.7724
2009-03-09,68.7409
2009-03-10,69.6182
2009-03-11,68.6926
2009-03-12,69.6472
2009-03-13,72.202
2009-03-16,71.7778
2009-03-17,73.0793
2009-03-18,73.9664
2009-03-19,74.0724
2009-03-20,73.6192
2009-03-23,75.8077
2009-03-24,74.8823
2009-03-25,75.5764
2009-03-26,76.6562
2009-03-27,76.9743
2009-03-30,76.5501
2009-03-31,76.8683
2009-04-01,75.962
2009-04-02,77.2443
2009-04-03,75.1908
2009-04-06,74.6797
2009-04-07,74.5641
2009-04-08,75.0847
2009-04-09,74.1688
2009-04-13,72.9829
2009-04-14,74.2652
2009-04-15,74.6315
2009-04-16,76.2127
2009-04-17,77.1672
2009-04-20,76.2319
2009-04-21,74.9401
2009-04-22,74.728
2009-04-23,69.2016
2009-04-24,68.8151
2009-04-27,68.2934
2009-04-28,68.6316
2009-04-29,68.8924
2009-04-30,69.2305
2009-05-01,69.704
2009-05-04,69.2113
2009-05-05,69.1822
2009-05-06,68.0423
2009-05-07,69.9938
2009-05-08,70.9309
2009-05-11,71.4815
2009-05-12,72.5056
2009-05-13,70.6507
2009-05-14,69.2209
2009-05-15,68.4191
2009-05-18,69.1919
2009-05-19,69.1147
2009-05-20,68.9311
2009-05-21,68.0809
2009-05-22,69.0856
2009-05-26,69.2789
2009-05-27,69.0277
2009-05-28,68.989
2009-05-29,68.6896
2009-06-01,70.5251
2009-06-02,73.0756
2009-06-03,74.1963
2009-06-04,72.0709
2009-06-05,71.7231
2009-06-08,70.8536
2009-06-09,71.5686
2009-06-10,70.8633
2009-06-11,71.3656
2009-06-12,71.4623
2009-06-15,68.6026
2009-06-16,68.9504
2009-06-17,71.0661
2009-06-18,71.6072
2009-06-19,71.8004
2009-06-22,70.5734
2009-06-23,70.3705
2009-06-24,70.9985
2009-06-25,72.2641
2009-06-26,71.356
2009-06-29,72.1579
2009-06-30,71.9549
2009-07-01,72.2448
2009-07-02,71.1144
2009-07-06,72.2641
2009-07-07,72.3801
2009-07-08,72.2738
2009-07-09,71.7811
2009-07-10,70.3512
2009-07-13,70.3029
2009-07-14,70.7859
2009-07-15,71.1048
2009-07-16,71.802
2009-07-17,71.2598
2009-07-20,71.4243
2009-07-21,72.2571
2009-07-22,70.398
2009-07-23,69.2263
2009-07-24,69.2263
2009-07-27,68.7421
2009-07-28,69.7395
2009-07-29,71.5212
2009-07-30,71.6083
2009-07-31,71.2598
2009-08-03,72.1409
2009-08-04,72.5476
2009-08-05,71.8988
2009-08-06,70.979
2009-08-07,71.0564
2009-08-10,71.6083
2009-08-11,71.647
2009-08-12,71.6083
2009-08-13,70.8143
2009-08-14,71.1823
2009-08-17,70.9498
2009-08-18,70.9401
2009-08-19,71.7052
2009-08-20,72.7219
2009-08-21,73.1674
2009-08-24,73.8936
2009-08-25,75.2299
2009-08-26,75.7819
2009-08-27,76.5275
2009-08-28,77.7573
2009-08-31,78.0671
2009-09-01,77.9412
2009-09-02,78.0961
2009-09-03,77.9606
2009-09-04,77.8638
2009-09-08,76.5565
2009-09-09,78.2512
2009-09-10,78.0574
2009-09-11,77.9025
2009-09-14,78.7546
2009-09-15,79.907
2009-09-16,78.803
2009-09-17,77.9606
2009-09-18,77.6411
2009-09-21,77.5443
2009-09-22,76.9826
2009-09-23,76.1498
2009-09-24,75.7044
2009-09-25,75.6173
2009-09-28,76.1983
2009-09-29,75.9852
2009-09-30,76.1401
2009-10-01,75.1428
2009-10-02,74.9395
2009-10-05,74.5327
2009-10-06,74.7554
2009-10-07,74.6392
2009-10-08,75.5398
2009-10-09,75.4332
2009-10-12,75.0363
2009-10-13,75.2299
2009-10-14,75.0556
2009-10-15,74.9976
2009-10-16,73.7677
2009-10-19,74.4456
2009-10-20,73.2545
2009-10-21,72.9156
2009-10-22,74.5365
2009-10-23,74.4782
2009-10-26,73.6436
2009-10-27,73.7019
2009-10-28,73.3331
2009-10-29,73.4689
2009-10-30,72.8769
2009-11-02,73.5951
2009-11-03,73.4106
2009-11-04,74.7597
2009-11-05,75.7302
2009-11-06,76.099
2009-11-09,77.4674
2009-11-10,78.3312
2009-11-11,78.5157
2009-11-12,77.7974
2009-11-13,78.4865
2009-11-16,79.2921
2009-11-17,79.4765
2009-11-18,79.525
2009-11-19,79.4958
2009-11-20,78.3604
2009-11-23,78.5642
2009-11-24,79.5929
2009-11-25,79.5638
2009-11-27,79.4473
2009-11-30,79.7773
2009-12-01,80.5246
2009-12-02,81.0293
2009-12-03,80.3402
2009-12-04,80.6022
2009-12-07,80.4276
2009-12-08,79.4279
2009-12-09,79.3697
2009-12-10,80.6411
2009-12-11,80.5344
2009-12-14,81.1167
2009-12-15,82.5433
2009-12-16,82.5239
2009-12-17,81.7087
2009-12-18,76.099
2009-12-21,76.264
2009-12-22,76.9143
2009-12-23,76.5163
2009-12-24,76.7493
2009-12-28,76.5454
2009-12-29,76.7299
2009-12-30,76.9239
2009-12-31,75.5652
2010-01-04,76.3319
2010-01-05,76.9822
2010-01-06,76.6716
2010-01-07,77.7877
2010-01-08,78.0692
2010-01-11,78.8747
2010-01-12,78.0497
2010-01-13,80.3208
2010-01-14,81.0099
2010-01-15,80.1364
2010-01-19,81.3107
2010-01-20,79.9132
2010-01-21,78.5613
2010-01-22,77.258
2010-01-25,77.9778
2010-01-26,77.9485
2010-01-27,78.3959
2010-01-28,78.2889
2010-01-29,80.6619
2010-02-01,80.0103
2010-02-02,81.2065
2010-02-03,80.5939
2010-02-04,78.746
2010-02-05,77.6373
2010-02-08,78.5807
2010-02-09,79.0475
2010-02-10,78.7946
2010-02-11,79.3199
2010-02-12,79.6699
2010-02-16,80.6716
2010-02-17,81.3621
2010-02-18,81.1384
2010-02-19,81.1093
2010-02-22,81.44
2010-02-23,80.9925
2010-02-24,80.7397
2010-02-25,80.8272
2010-02-26,81.5469
2010-03-01,82.0818
2010-03-02,82.0916
2010-03-03,81.6733
2010-03-04,81.5956
2010-03-05,82.2374
2010-03-08,81.4011
2010-03-09,80.8467
2010-03-10,80.9634
2010-03-11,80.4479
2010-03-12,79.7672
2010-03-15,80.8564
2010-03-16,81.012
2010-03-17,81.5177
2010-03-18,81.8679
2010-03-19,81.4497
2010-03-22,82.3638
2010-03-23,82.6459
2010-03-24,82.2277
2010-03-25,83.2002
2010-03-26,83.4336
2010-03-29,84.0463
2010-03-30,84.1338
2010-03-31,84.2117
2010-04-01,82.1012
2010-04-05,81.8581
2010-04-06,82.1791
2010-04-07,81.8679
2010-04-08,81.7414
2010-04-09,82.8307
2010-04-12,82.7042
2010-04-13,82.996
2010-04-14,83.8129
2010-04-15,83.8421
2010-04-16,83.4919
2010-04-19,83.5406
2010-04-20,84.9216
2010-04-21,84.6493
2010-04-22,83.1224
2010-04-23,83.6282
2010-04-26,82.5
2010-04-27,82.3735
2010-04-28,84.2312
2010-04-29,85.2639
2010-04-30,84.2896
2010-05-03,84.4357
2010-05-04,83.3151
2010-05-05,83.3832
2010-05-06,82.1165
2010-05-07,80.8204
2010-05-10,82.5842
2010-05-11,81.8534
2010-05-12,82.0482
2010-05-13,81.6001
2010-05-14,80.6061
2010-05-17,81.2102
2010-05-18,80.9276
2010-05-19,80.8108
2010-05-20,78.1993
2010-05-21,77.4879
2010-05-24,78.2869
2010-05-25,77.9167
2010-05-26,78.0823
2010-05-27,79.3978
2010-05-28,78.9983
2010-06-01,77.8582
2010-06-02,79.2321
2010-06-03,79.1834
2010-06-04,76.8448
2010-06-07,76.3575
2010-06-08,75.7046
2010-06-09,75.7924
2010-06-10,77.8289
2010-06-11,77.9556
2010-06-14,77.712
2010-06-15,78.6377
2010-06-16,79.0957
2010-06-17,79.1152
2010-06-18,78.2577
2010-06-21,78.969
2010-06-22,78.55
2010-06-23,77.4586
2010-06-24,76.7083
2010-06-25,76.5232
2010-06-28,77.2248
2010-06-29,76.0457
2010-06-30,75.5974
2010-07-01,74.3502
2010-07-02,74.6327
2010-07-06,75.1102
2010-07-07,75.8216
2010-07-08,76.8058
2010-07-09,77.1468
2010-07-12,76.6304
2010-07-13,77.6438
2010-07-14,77.2053
2010-07-15,76.8643
2010-07-16,75.4513
2010-07-19,75.2467
2010-07-20,75.8898
2010-07-21,74.1065
2010-07-22,75.5421
2010-07-23,76.9779
2010-07-26,76.7045
2010-07-27,77.0659
2010-07-28,76.6361
2010-07-29,75.9426
2010-07-30,76.6947
2010-08-02,78.3258
2010-08-03,78.6286
2010-08-04,79.3514
2010-08-05,78.9607
2010-08-06,78.7946
2010-08-09,78.9021
2010-08-10,79.0389
2010-08-11,77.5737
2010-08-12,77.8082
2010-08-13,78.1403
2010-08-16,77.6519
2010-08-17,78.8142
2010-08-18,78.9509
2010-08-19,77.3296
2010-08-20,76.9975
2010-08-23,76.6067
2010-08-24,74.8193
2010-08-25,75.3077
2010-08-26,74.8291
2010-08-27,76.1477
2010-08-30,75.4542
2010-08-31,75.0146
2010-09-01,76.1183
2010-09-02,76.7337
2010-09-03,76.4212
2010-09-07,75.9426
2010-09-08,75.5714
2010-09-09,75.6887
2010-09-10,75.5519
2010-09-13,74.9756
2010-09-14,75.6593
2010-09-15,78.0133
2010-09-16,78.6482
2010-09-17,78.316
2010-09-20,78.9901
2010-09-21,78.6872
2010-09-22,78.1696
2010-09-23,76.9096
2010-09-24,77.9254
2010-09-27,78.1403
2010-09-28,79.6542
2010-09-29,79.6152
2010-09-30,79.4881
2010-10-01,79.8301
2010-10-04,79.5859
2010-10-05,81.217
2010-10-06,81.0217
2010-10-07,80.4357
2010-10-08,81.0412
2010-10-11,81.598
2010-10-12,81.6664
2010-10-13,81.6859
2010-10-14,81.6468
2010-10-15,82.438
2010-10-18,83.112
2010-10-19,81.8129
2010-10-20,82.7701
2010-10-21,83.3673
2010-10-22,81.2138
2010-10-25,81.6934
2010-10-26,81.9871
2010-10-27,81.7815
2010-10-28,81.4683
2010-10-29,81.4193
2010-11-01,81.762
2010-11-02,82.2318
2010-11-03,82.7016
2010-11-04,83.6511
2010-11-05,83.2009
2010-11-08,82.8974
2010-11-09,84.0818
2010-11-10,84.4342
2010-11-11,84.0818
2010-11-12,83.6903
2010-11-15,83.3575
2010-11-16,82.5939
2010-11-17,82.4275
2010-11-18,82.9268
2010-11-19,82.8876
2010-11-22,83.4357
2010-11-23,83.0148
2010-11-24,83.4357
2010-11-26,83.1617
2010-11-29,83.2498
2010-11-30,83.1225
2010-12-01,84.1601
2010-12-02,84.5517
2010-12-03,84.5124
2010-12-06,84.2287
2010-12-07,84.1503
2010-12-08,84.0035
2010-12-09,83.8958
2010-12-10,84.6691
2010-12-13,84.1699
2010-12-14,87.5762
2010-12-15,89.4458
2010-12-16,92.7543
2010-12-17,93.5569
2010-12-20,92.0397
2010-12-21,91.5307
2010-12-22,91.3154
2010-12-23,91.3447
2010-12-27,91.1783
2010-12-28,91.1588
2010-12-29,90.777
2010-12-30,90.5715
2010-12-31,89.808
2011-01-03,90.1995
2011-01-04,90.0429
2011-01-05,89.994
2011-01-06,89.9254
2011-01-07,88.9662
2011-01-10,89.1619
2011-01-11,89.0542
2011-01-12,89.7786
2011-01-13,89.6807
2011-01-14,89.3087
2011-01-18,91.012
2011-01-19,91.0315
2011-01-20,91.2767
2011-01-21,91.1982
2011-01-24,90.5313
2011-01-25,91.2276
2011-01-26,91.7964
2011-01-27,92.1593
2011-01-28,91.208
2011-01-31,92.5221
2011-02-01,91.8945
2011-02-02,91.3747
2011-02-03,91.4041
2011-02-04,91.4826
2011-02-07,92.4731
2011-02-08,92.0122
2011-02-09,92.532
2011-02-10,94.1698
2011-02-11,95.8468
2011-02-14,96.2097
2011-02-15,95.9547
2011-02-16,95.8665
2011-02-17,96.2195
2011-02-18,96.6902
2011-02-22,95.0818
2011-02-23,94.1894
2011-02-24,94.464
2011-02-25,95.3958
2011-02-28,95.837
2011-03-01,94.5131
2011-03-02,94.2384
2011-03-03,95.9057
2011-03-04,95.229
2011-03-07,94.2286
2011-03-08,95.0328
2011-03-09,95.229
2011-03-10,93.8364
2011-03-11,93.954
2011-03-14,93.6696
2011-03-15,93.3264
2011-03-16,92.6889
2011-03-17,93.0714
2011-03-18,93.4637
2011-03-21,93.8658
2011-03-22,94.0031
2011-03-23,94.4248
2011-03-24,95.1702
2011-03-25,95.5722
2011-03-28,95.0721
2011-03-29,95.4545
2011-03-30,96.6804
2011-03-31,97.3964
2011-04-01,98.8675
2011-04-04,98.5536
2011-04-05,98.2006
2011-04-06,98.9852
2011-04-07,98.7302
2011-04-08,97.9947
2011-04-11,98.485
2011-04-12,98.5831
2011-04-13,98.6321
2011-04-14,99.3088
2011-04-15,100.114
2011-04-18,99.6619
2011-04-19,100.191
2011-04-20,101.035
2011-04-21,102.27
2011-04-25,100.976
2011-04-26,101.221
2011-04-27,102.202
2011-04-28,104.157
2011-04-29,104.806
2011-05-02,105.699
2011-05-03,106.063
2011-05-04,104.374
2011-05-05,104.55
2011-05-06,104.796
2011-05-09,105.493
2011-05-10,107.419
2011-05-11,106.898
2011-05-12,107.644
2011-05-13,107.634
2011-05-16,107.399
2011-05-17,108.686
2011-05-18,110.935
2011-05-19,110.121
2011-05-20,109.737
2011-05-23,108.381
2011-05-24,108.47
2011-05-25,108.559
2011-05-26,108.647
2011-05-27,108.971
2011-05-31,109.786
2011-06-01,108.529
2011-06-02,108.117
2011-06-03,106.358
2011-06-06,106.013
2011-06-07,106.446
2011-06-08,106.623
2011-06-09,108.588
2011-06-10,106.997
2011-06-13,107.046
2011-06-14,108.578
2011-06-15,106.81
2011-06-16,106.76
2011-06-17,106.79
2011-06-20,107.183
2011-06-21,107.733
2011-06-22,107.242
2011-06-23,106.938
2011-06-24,105.67
2011-06-27,106.377
2011-06-28,108.253
2011-06-29,107.222
2011-06-30,107.979
2011-07-01,109.728
2011-07-05,109.894
2011-07-06,111.241
2011-07-07,111.3
2011-07-08,110.827
2011-07-11,109.314
2011-07-12,110.326
2011-07-13,110.405
2011-07-14,110.533
2011-07-15,109.934
2011-07-18,109.442
2011-07-19,110.916
2011-07-20,110.346
2011-07-21,110.848
2011-07-22,97.7992
2011-07-25,98.7833
2011-07-26,98.7144
2011-07-27,97.5828
2011-07-28,96.2444
2011-07-29,97.1498
2011-08-01,95.093
2011-08-02,92.6229
2011-08-03,92.8394
2011-08-04,89.9265
2011-08-05,89.0605
2011-08-08,84.6419
2011-08-09,88.9621
2011-08-10,85.439
2011-08-11,89.6411
2011-08-12,90.3202
2011-08-15,91.009
2011-08-16,89.2868
2011-08-17,89.149
2011-08-18,86.3051
2011-08-19,85.9902
2011-08-22,85.4685
2011-08-23,88.2831
2011-08-24,88.6964
2011-08-25,88.0174
2011-08-26,89.9265
2011-08-29,91.9636
2011-08-30,92.7706
2011-08-31,93.548
2011-09-01,93.3118
2011-09-02,90.3299
2011-09-06,90.3989
2011-09-07,92.7016
2011-09-08,92.0816
2011-09-09,88.3126
2011-09-12,87.9386
2011-09-13,88.4503
2011-09-14,88.8932
2011-09-15,89.8576
2011-09-16,90.0642
2011-09-19,88.8244
2011-09-20,90.4186
2011-09-21,87.3383
2011-09-22,85.3012
2011-09-23,84.4057
2011-09-26,86.118
2011-09-27,87.9091
2011-09-28,86.9349
2011-09-29,87.3777
2011-09-30,86.187
2011-10-03,83.3036
2011-10-04,84.4845
2011-10-05,84.268
2011-10-06,83.6874
2011-10-07,82.5655
2011-10-10,84.8978
2011-10-11,84.2975
2011-10-12,85.3603
2011-10-13,85.5866
2011-10-14,85.0946
2011-10-17,82.8705
2011-10-18,84.2778
2011-10-19,85.2816
2011-10-20,84.3542
2011-10-21,86.0407
2011-10-24,87.451
2011-10-25,86.3662
2011-10-26,82.2732
2011-10-27,85.2023
2011-10-28,86.6325
2011-10-31,84.8276
2011-11-01,82.7959
2011-11-02,84.3345
2011-11-03,86.3168
2011-11-04,86.021
2011-11-07,86.8198
2011-11-08,88.0625
2011-11-09,85.873
2011-11-10,86.2872
2011-11-11,87.6286
2011-11-14,86.741
2011-11-15,86.8099
2011-11-16,85.7645
2011-11-17,84.7093
2011-11-18,84.0583
2011-11-21,83.1805
2011-11-22,82.7269
2011-11-23,81.3559
2011-11-25,80.9812
2011-11-28,83.4468
2011-11-29,82.6085
2011-11-30,85.9519
2011-12-01,85.9815
2011-12-02,84.6501
2011-12-05,85.232
2011-12-06,84.8178
2011-12-07,84.9459
2011-12-08,82.8946
2011-12-09,84.5515
2011-12-12,83.4272
2011-12-13,83.2496
2011-12-14,83.4961
2011-12-15,85.3601
2011-12-16,85.0544
2011-12-19,84.1175
2011-12-20,86.5733
2011-12-21,82.8452
2011-12-22,83.0129
2011-12-23,83.9104
2011-12-27,84.4133
2011-12-28,83.2989
2011-12-29,84.6796
2011-12-30,84.4232
2012-01-03,85.0938
2012-01-04,84.8769
2012-01-05,84.7684
2012-01-06,84.5909
2012-01-09,84.295
2012-01-10,84.5711
2012-01-11,84.6205
2012-01-12,84.8473
2012-01-13,84.2753
2012-01-17,84.7487
2012-01-18,85.0544
2012-01-19,88.326
2012-01-20,88.9586
2012-01-23,89.008
2012-01-24,90.7477
2012-01-25,92.4181
2012-01-26,92.1611
2012-01-27,92.3094
2012-01-30,91.0343
2012-01-31,91.6175
2012-02-01,92.7048
2012-02-02,91.6373
2012-02-03,92.4181
2012-02-06,92.1512
2012-02-07,91.9635
2012-02-08,91.6373
2012-02-09,91.3407
2012-02-10,94.5235
2012-02-13,94.2467
2012-02-14,94.4839
2012-02-15,94.0095
2012-02-16,94.306
2012-02-17,94.395
2012-02-21,92.9519
2012-02-22,92.9223
2012-02-23,92.6653
2012-02-24,92.9717
2012-02-27,92.9223
2012-02-28,93.1199
2012-02-29,92.5466
2012-03-01,92.3489
2012-03-02,92.2501
2012-03-05,92.0623
2012-03-06,90.9256
2012-03-07,91.2617
2012-03-08,92.9123
2012-03-09,93.0112
2012-03-12,93.2187
2012-03-13,94.6322
2012-03-14,93.9007
2012-03-15,95.0672
2012-03-16,96.0555
2012-03-19,95.3735
2012-03-20,94.6124
2012-03-21,94.7805
2012-03-22,95.166
2012-03-23,95.502
2012-03-26,97.8644
2012-03-27,97.637
2012-03-28,97.805
2012-03-29,97.8149
2012-03-30,97.5679
2012-04-02,97.904
2012-04-03,97.4986
2012-04-04,96.5399
2012-04-05,96.9254
2012-04-09,95.5811
2012-04-10,94.2566
2012-04-11,94.7904
2012-04-12,95.423
2012-04-13,94.8892
2012-04-16,94.7706
2012-04-17,96.8661
2012-04-18,96.8859
2012-04-19,97.1824
2012-04-20,96.8562
2012-04-23,96.6486
2012-04-24,96.8661
2012-04-25,96.3323
2012-04-26,97.7584
2012-04-27,97.8079
2012-04-30,97.9961
2012-05-01,98.6794
2012-05-02,98.8874
2012-05-03,98.7983
2012-05-04,98.4516
2012-05-07,98.9468
2012-05-08,99.7787
2012-05-09,99.5311
2012-05-10,100.621
2012-05-11,100.234
2012-05-14,99.6599
2012-05-15,99.6995
2012-05-16,98.2041
2012-05-17,97.184
2012-05-18,95.7776
2012-05-21,98.0951
2012-05-22,97.6989
2012-05-23,98.0653
2012-05-24,99.0557
2012-05-25,98.8577
2012-05-29,99.3627
2012-05-30,97.283
2012-05-31,96.3323
2012-06-01,94.6883
2012-06-04,94.5595
2012-06-05,95.4706
2012-06-06,96.6492
2012-06-07,97.5603
2012-06-08,98.5506
2012-06-11,97.5108
2012-06-12,97.5108
2012-06-13,98.4417
2012-06-14,97.8971
2012-06-15,101.452
2012-06-18,102.225
2012-06-19,103.572
2012-06-20,103.721
2012-06-21,102.75
2012-06-22,103.552
2012-06-25,102.681
2012-06-26,102.76
2012-06-27,102.868
2012-06-28,103.84
2012-06-29,106.325
2012-07-02,106.731
2012-07-03,106.81
2012-07-05,106.671
2012-07-06,105.761
2012-07-09,106.027
2012-07-10,104.711
2012-07-11,105.473
2012-07-12,104.592
2012-07-13,106.691
2012-07-16,105.532
2012-07-17,106.176
2012-07-18,105.602
2012-07-19,106.644
2012-07-20,104.878
2012-07-23,103.271
2012-07-24,101.921
2012-07-25,102.417
2012-07-26,97.7138
2012-07-27,98.6862
2012-07-30,97.4062
2012-07-31,96.4834
2012-08-01,96.6422
2012-08-02,95.6202
2012-08-03,96.6819
2012-08-06,97.0887
2012-08-07,97.1284
2012-08-08,97.1284
2012-08-09,97.0391
2012-08-10,97.7833
2012-08-13,97.6245
2012-08-14,97.2574
2012-08-15,97.9024
2012-08-16,97.555
2012-08-17,97.5154
2012-08-20,97.2475
2012-08-21,97.6245
2012-08-22,96.6819
2012-08-23,96.5231
2012-08-24,97.1184
2012-08-27,96.9398
2012-08-28,96.9002
2012-08-29,97.2375
2012-08-30,97.0589
2012-08-31,97.436
2012-09-04,97.3764
2012-09-05,98.7457
2012-09-06,99.9558
2012-09-07,100.046
2012-09-10,98.6663
2012-09-11,98.9243
2012-09-12,100.154
2012-09-13,101.028
2012-09-14,101.305
2012-09-17,102.456
2012-09-18,102.863
2012-09-19,103.012
2012-09-20,103.558
2012-09-21,103.816
2012-09-24,104.679
2012-09-25,104.094
2012-09-26,103.459
2012-09-27,103.767
2012-09-28,103.905
2012-10-01,104.173
2012-10-02,104.53
2012-10-03,104.669
2012-10-04,105.126
2012-10-05,104.769
2012-10-08,104.58
2012-10-09,101.435
2012-10-10,101.305
2012-10-11,101.266
2012-10-12,100.214
2012-10-15,100.423
2012-10-16,101.445
2012-10-17,101.782
2012-10-18,100.47
2012-10-19,99.1772
2012-10-22,97.9245
2012-10-23,98.0538
2012-10-24,95.6579
2012-10-25,96.2742
2012-10-26,95.9064
2012-10-31,95.7573
2012-11-01,96.6619
2012-11-02,95.5783
2012-11-05,96.3736
2012-11-06,96.9999
2012-11-07,95.6081
2012-11-08,94.3952
2012-11-09,94.1665
2012-11-12,94.1765
2012-11-13,94.1765
2012-11-14,94.783
2012-11-15,94.6339
2012-11-16,95.2701
2012-11-19,96.5923
2012-11-20,96.5625
2012-11-21,96.9105
2012-11-23,97.9642
2012-11-26,97.6561
2012-11-27,97.2683
2012-11-28,97.0595
2012-11-29,98.1631
2012-11-30,98.5409
2012-12-03,97.686
2012-12-04,97.6362
2012-12-05,96.831
2012-12-06,96.8508
2012-12-07,96.8508
2012-12-10,97.2385
2012-12-11,97.487
2012-12-12,96.3636
2012-12-13,95.8368
2012-12-14,95.5584
2012-12-17,96.2543
2012-12-18,96.9999
2012-12-19,97.3479
2012-12-20,97.9544
2012-12-21,97.6064
2012-12-24,96.0058
2012-12-26,96.1848
2012-12-27,96.6321
2012-12-28,95.5186
2012-12-31,97.0099
2013-01-02,101.166
2013-01-03,100.708
2013-01-04,100.351
2013-01-07,101.265
2013-01-08,102.467
2013-01-09,102.289
2013-01-10,102.1
2013-01-11,102.597
2013-01-14,102.02
2013-01-15,101.443
2013-01-16,101.036
2013-01-17,101.255
2013-01-18,101.265
2013-01-22,101.215
2013-01-23,101.564
2013-01-24,103.108
2013-01-25,102.998
2013-01-28,102.978
2013-01-29,102.45
2013-01-30,101.813
2013-01-31,101.873
2013-02-01,98.9044
2013-02-04,98.1873
2013-02-05,99.4622
2013-02-06,101.186
2013-02-07,100.677
2013-02-08,100.777
2013-02-11,100.528
2013-02-12,100.917
2013-02-13,101.036
2013-02-14,100.598
2013-02-15,100.309
2013-02-19,99.9099
2013-02-20,99.2529
2013-02-21,98.5655
2013-02-22,97.7886
2013-02-25,97.719
2013-02-26,97.4998
2013-02-27,98.3863
2013-02-28,98.5159
2013-03-01,98.4163
2013-03-04,98.4162
2013-03-05,99.3226
2013-03-06,98.9043
2013-03-07,99.2628
2013-03-08,100.319
2013-03-11,100.538
2013-03-12,100.787
2013-03-13,100.857
2013-03-14,101.524
2013-03-15,101.374
2013-03-18,100.866
2013-03-19,100.598
2013-03-20,100.378
2013-03-21,99.7111
2013-03-22,100.199
2013-03-25,99.9698
2013-03-26,100.329
2013-03-27,99.6414
2013-03-28,100.388
2013-04-01,99.88
2013-04-02,100.159
2013-04-03,100.309
2013-04-04,100.857
2013-04-05,99.741
2013-04-08,99.841
2013-04-09,101.494
2013-04-10,102.4
2013-04-11,102.58
2013-04-12,102.59
2013-04-15,101.454
2013-04-16,101.783
2013-04-17,100.538
2013-04-18,99.2828
2013-04-19,99.0337
2013-04-22,97.8782
2013-04-23,98.6253
2013-04-24,98.6751
2013-04-25,98.8349
2013-04-26,98.4357
2013-04-29,98.795
2013-04-30,99.2242
2013-05-01,99.324
2013-05-02,100.841
2013-05-03,101.48
2013-05-06,100.941
2013-05-07,101.769
2013-05-08,102.788
2013-05-09,103.257
2013-05-10,104.414
2013-05-13,104.794
2013-05-14,106.56
2013-05-15,106.78
2013-05-16,106.521
2013-05-17,107.169
2013-05-20,106.74
2013-05-21,106.511
2013-05-22,104.973
2013-05-23,104.953
2013-05-24,104.894
2013-05-28,105.772
2013-05-29,103.935
2013-05-30,104.235
2013-05-31,102.987
2013-06-03,103.586
2013-06-04,104.055
2013-06-05,103.935
2013-06-06,104.794
2013-06-07,105.303
2013-06-10,105.433
2013-06-11,104.574
2013-06-12,104.963
2013-06-13,109.136
2013-06-14,110.852
2013-06-17,110.463
2013-06-18,111.531
2013-06-19,110.413
2013-06-20,108.956
2013-06-21,109.954
2013-06-24,108.986
2013-06-25,108.577
2013-06-26,108.167
2013-06-27,108.367
2013-06-28,108.686
2013-07-01,107.968
2013-07-02,107.389
2013-07-03,107.099
2013-07-05,108.098
2013-07-08,108.796
2013-07-09,108.247
2013-07-10,109.186
2013-07-11,110.303
2013-07-12,110.962
2013-07-15,111.781
2013-07-16,111.791
2013-07-17,112.14
2013-07-18,113.29
2013-07-19,114.21
2013-07-22,113.59
2013-07-23,113.43
2013-07-24,112.5
2013-07-25,113.24
2013-07-26,114.45
2013-07-29,113.74
2013-07-30,114.29
2013-07-31,114.64
2013-08-01,115.66
2013-08-02,115.75
2013-08-05,115.89
2013-08-06,116.37
2013-08-07,116.2
2013-08-08,116.86
2013-08-09,117.37
