date,close_price
1998-01-02,11.8122
1998-01-05,12.2575
1998-01-06,12.2033
1998-01-07,12.5259
1998-01-08,12.4345
1998-01-09,11.7209
1998-01-12,12.2575
1998-01-13,12.4888
1998-01-14,12.4174
1998-01-15,12.2404
1998-01-16,12.3831
1998-01-20,12.6486
1998-01-21,12.2404
1998-01-22,12.4174
1998-01-23,12.1862
1998-01-26,12.3118
1998-01-27,12.4888
1998-01-28,12.2918
1998-01-29,12.1862
1998-01-30,11.9721
1998-02-02,11.8836
1998-02-03,11.7209
1998-02-04,11.758
1998-02-05,11.9892
1998-02-06,12.0434
1998-02-09,12.2747
1998-02-10,12.5259
1998-02-11,12.2033
1998-02-12,12.6144
1998-02-13,12.74
1998-02-17,12.7742
1998-02-18,12.72
1998-02-19,12.543
1998-02-20,12.6144
1998-02-23,12.74
1998-02-24,12.5259
1998-02-25,12.6315
1998-02-26,13.1139
1998-02-27,13.6677
1998-03-02,13.9332
1998-03-03,13.7904
1998-03-04,13.8447
1998-03-05,13.6135
1998-03-06,14.0959
1998-03-09,13.9332
1998-03-10,14.0045
1998-03-11,13.9332
1998-03-12,13.8275
1998-03-13,13.8104
1998-03-16,14.0759
1998-03-17,14.2729
1998-03-18,14.5954
1998-03-19,14.9694
1998-03-20,15.0579
1998-03-23,15.4318
1998-03-24,15.5945
1998-03-25,15.4689
1998-03-26,15.4689
1998-03-27,15.2548
1998-03-30,15.3091
1998-03-31,15.3433
1998-04-01,15.1835
1998-04-02,15.8429
1998-04-03,15.8971
1998-04-06,15.5032
1998-04-07,15.5945
1998-04-08,15.86
1998-04-09,15.88
1998-04-13,15.7173
1998-04-14,15.6117
1998-04-15,15.4689
1998-04-16,15.2006
1998-04-17,15.5745
1998-04-20,15.6459
1998-04-21,15.5945
1998-04-22,15.9314
1998-04-23,15.6659
1998-04-24,15.6459
1998-04-27,15.4147
1998-04-28,15.9856
1998-04-29,16.8248
1998-04-30,16.5565
1998-05-01,16.5736
1998-05-04,16.3082
1998-05-05,16.057
1998-05-06,16.2368
1998-05-07,16.4852
1998-05-08,16.3253
1998-05-11,16.4509
1998-05-12,16.4138
1998-05-13,16.7877
1998-05-14,16.6279
1998-05-15,16.6992
1998-05-18,16.4138
1998-05-19,16.2368
1998-05-20,16.5023
1998-05-21,16.5223
1998-05-22,16.3596
1998-05-26,15.9314
1998-05-27,15.4689
1998-05-28,15.7173
1998-05-29,15.7173
1998-06-01,15.6288
1998-06-02,15.5945
1998-06-03,15.5232
1998-06-04,16.0227
1998-06-05,16.2539
1998-06-08,16.1455
1998-06-09,16.2711
1998-06-10,15.9856
1998-06-11,15.9685
1998-06-12,15.8429
1998-06-15,15.7001
1998-06-16,15.88
1998-06-17,15.9513
1998-06-18,15.7001
1998-06-19,15.9513
1998-06-22,15.8971
1998-06-23,15.6659
1998-06-24,16.1283
1998-06-25,16.8791
1998-06-26,17.2702
1998-06-29,17.2873
1998-06-30,16.7364
1998-07-01,17.1274
1998-07-02,17.1446
1998-07-06,17.3073
1998-07-07,17.5014
1998-07-08,17.7155
1998-07-09,17.7355
1998-07-10,18.0723
1998-07-13,18.235
1998-07-14,18.215
1998-07-15,17.7526
1998-07-16,17.8411
1998-07-17,17.9838
1998-07-20,18.5918
1998-07-21,18.7346
1998-07-22,19.3055
1998-07-23,18.6632
1998-07-24,18.9658
1998-07-27,19.4482
1998-07-28,19.2512
1998-07-29,19.7337
1998-07-30,19.9278
1998-07-31,19.3569
1998-08-03,19.1256
1998-08-04,18.5918
1998-08-05,17.8582
1998-08-06,18.2693
1998-08-07,18.0552
1998-08-10,18.1094
1998-08-11,17.0732
1998-08-12,17.4129
1998-08-13,17.6812
1998-08-14,17.253
1998-08-17,17.4843
1998-08-18,17.6983
1998-08-19,17.627
1998-08-20,17.4671
1998-08-21,16.9676
1998-08-24,16.8962
1998-08-25,16.3967
1998-08-26,16.0227
1998-08-27,15.5032
1998-08-28,15.4689
1998-08-31,14.2186
1998-09-01,16.9133
1998-09-02,16.6992
1998-09-03,16.4309
1998-09-04,16.2882
1998-09-08,17.4129
1998-09-09,17.0218
1998-09-10,17.0561
1998-09-11,17.1817
1998-09-14,17.45
1998-09-15,17.8239
1998-09-16,18.0552
1998-09-17,18.2693
1998-09-18,18.6432
1998-09-21,18.8059
1998-09-22,18.6432
1998-09-23,18.823
1998-09-24,18.4291
1998-09-25,18.3406
1998-09-28,18.1265
1998-09-29,16.2168
1998-09-30,16.5223
1998-10-01,16.2368
1998-10-02,16.1654
1998-10-05,15.88
1998-10-06,16.1112
1998-10-07,16.0941
1998-10-08,15.0036
1998-10-09,16.3424
1998-10-12,16.1997
1998-10-13,16.4852
1998-10-14,17.1274
1998-10-15,17.3415
1998-10-16,17.4129
1998-10-19,17.1103
1998-10-20,17.627
1998-10-21,17.7697
1998-10-22,18.2693
1998-10-23,17.9667
1998-10-26,17.8782
1998-10-27,17.0389
1998-10-28,16.8077
1998-10-29,16.7364
1998-10-30,17.0389
1998-11-02,17.0732
1998-11-03,18.1094
1998-11-04,17.8411
1998-11-05,17.5927
1998-11-06,17.4843
1998-11-09,17.3415
1998-11-10,17.3786
1998-11-11,17.5214
1998-11-12,18.0009
1998-11-13,18.4491
1998-11-16,18.4662
1998-11-17,18.6632
1998-11-18,18.823
1998-11-19,19.3226
1998-11-20,19.3226
1998-11-23,19.4282
1998-11-24,19.5909
1998-11-25,19.6252
1998-11-27,19.4825
1998-11-30,19.02
1998-12-01,18.7517
1998-12-02,18.6974
1998-12-03,18.4662
1998-12-04,18.5376
1998-12-07,18.7146
1998-12-08,19.3055
1998-12-09,19.6081
1998-12-10,19.9477
1998-12-11,19.6623
1998-12-14,18.9829
1998-12-15,18.8573
1998-12-16,19.0543
1998-12-17,19.1799
1998-12-18,19.4653
1998-12-21,19.7337
1998-12-22,20.2132
1998-12-23,20.7499
1998-12-24,20.6785
1998-12-28,20.3388
1998-12-29,20.8926
1998-12-30,20.6414
1998-12-31,21.1238
1999-01-04,20.6072
1999-01-05,21.3208
1999-01-06,21.8375
1999-01-07,21.7319
1999-01-08,21.3208
1999-01-11,21.141
1999-01-12,20.8555
1999-01-13,21.6405
1999-01-14,21.9631
1999-01-15,22.5882
1999-01-19,22.7652
1999-01-20,23.3533
1999-01-21,23.122
1999-01-22,23.5873
1999-01-25,23.6758
1999-01-26,23.496
1999-01-27,23.7301
1999-01-28,24.2296
1999-01-29,24.1582
1999-02-01,24.2639
1999-02-02,24.2639
1999-02-03,24.3723
1999-02-04,23.9784
1999-02-05,23.9613
1999-02-08,23.5502
1999-02-09,23.2648
1999-02-10,23.4446
1999-02-11,23.5331
1999-02-12,23.7301
1999-02-16,23.8185
1999-02-17,23.7643
1999-02-18,23.6758
1999-02-19,24.4608
1999-02-22,24.7805
1999-02-23,25.0489
1999-02-24,24.5864
1999-02-25,24.7634
1999-02-26,25.1745
1999-03-01,25.2801
1999-03-02,25.4057
1999-03-03,25.086
1999-03-04,25.1916
1999-03-05,25.3172
1999-03-08,25.3886
1999-03-09,25.5655
1999-03-10,25.6569
1999-03-11,26.0137
1999-03-12,25.9766
1999-03-15,26.0651
1999-03-16,25.851
1999-03-17,25.2458
1999-03-18,25.0146
1999-03-19,24.281
1999-03-22,24.5151
1999-03-23,23.6216
1999-03-24,23.4789
1999-03-25,23.8728
1999-03-26,24.3524
1999-03-29,23.9441
1999-03-30,23.6216
1999-03-31,23.9441
1999-04-01,24.3723
1999-04-05,25.3372
1999-04-06,25.4399
1999-04-07,25.9766
1999-04-08,26.5818
1999-04-09,26.439
1999-04-12,27.7236
1999-04-13,27.3354
1999-04-14,26.439
1999-04-15,24.6235
1999-04-16,23.1563
1999-04-19,24.0869
1999-04-20,23.4075
1999-04-21,23.0136
1999-04-22,24.7663
1999-04-23,26.479
1999-04-26,26.7645
1999-04-27,26.4048
1999-04-28,25.5142
1999-04-29,24.3381
1999-04-30,23.299
1999-05-03,23.4075
1999-05-04,22.4826
1999-05-05,23.8014
1999-05-06,24.0869
1999-05-07,24.0127
1999-05-10,23.9441
1999-05-11,24.1954
1999-05-12,24.0526
1999-05-13,23.299
1999-05-14,22.4426
1999-05-17,21.5863
1999-05-18,23.2305
1999-05-19,23.4817
1999-05-20,23.9784
1999-05-21,23.7272
1999-05-24,23.1563
1999-05-25,22.8366
1999-05-26,23.122
1999-05-27,22.0544
1999-05-28,22.0145
1999-06-01,21.6947
1999-06-02,21.4435
1999-06-03,21.9117
1999-06-04,23.1963
1999-06-07,22.9108
1999-06-08,22.8366
1999-06-09,22.4084
1999-06-10,21.5863
1999-06-11,21.5863
1999-06-14,22.8023
1999-06-15,23.339
1999-06-16,24.1554
1999-06-17,23.3732
1999-06-18,22.5169
1999-06-21,22.5854
1999-06-22,22.5511
1999-06-23,22.945
1999-06-24,23.0878
1999-06-25,23.516
1999-06-28,24.7263
1999-06-29,24.5151
1999-06-30,25.2287
1999-07-01,24.2981
1999-07-02,24.8348
1999-07-06,24.3723
1999-07-07,24.7263
1999-07-08,25.1545
1999-07-09,26.0851
1999-07-12,26.0109
1999-07-13,25.6911
1999-07-14,26.1536
1999-07-15,26.1936
1999-07-16,25.6569
1999-07-19,25.1945
1999-07-20,25.263
1999-07-21,25.3372
1999-07-22,25.1202
1999-07-23,25.1202
1999-07-26,25.2972
1999-07-27,25.4799
1999-07-28,25.1202
1999-07-29,24.8005
1999-07-30,23.9784
1999-08-02,23.5845
1999-08-03,24.3381
1999-08-04,23.9441
1999-08-05,23.5502
1999-08-06,22.9108
1999-08-09,23.7272
1999-08-10,23.1963
1999-08-11,22.7681
1999-08-12,22.945
1999-08-13,23.9784
1999-08-16,23.1563
1999-08-17,24.3381
1999-08-18,23.7272
1999-08-19,23.339
1999-08-20,23.122
1999-08-23,23.2648
1999-08-24,22.6938
1999-08-25,24.6578
1999-08-26,25.3372
1999-08-27,24.8348
1999-08-30,24.4808
1999-08-31,23.9784
1999-09-01,24.0526
1999-09-02,24.0127
1999-09-03,25.7654
1999-09-07,26.7645
1999-09-08,26.4048
1999-09-09,26.2621
1999-09-10,26.9415
1999-09-13,26.8672
1999-09-14,25.9766
1999-09-15,24.9432
1999-09-16,25.263
1999-09-17,26.2621
1999-09-20,25.7654
1999-09-21,25.1545
1999-09-22,25.2972
1999-09-23,25.5142
1999-09-24,24.6578
1999-09-27,24.2639
1999-09-28,24.1954
1999-09-29,23.9784
1999-09-30,24.1211
1999-10-01,24.869
1999-10-04,25.0517
1999-10-05,25.0118
1999-10-06,25.7996
1999-10-07,25.3372
1999-10-08,25.1545
1999-10-11,24.7663
1999-10-12,24.1554
1999-10-13,23.6244
1999-10-14,23.339
1999-10-15,22.8708
1999-10-18,22.8366
1999-10-19,22.8366
1999-10-20,23.2648
1999-10-21,23.2648
1999-10-22,24.0526
1999-10-25,24.2639
1999-10-26,23.8014
1999-10-27,23.7272
1999-10-28,25.6911
1999-10-29,25.5484
1999-11-01,25.5827
1999-11-02,24.9775
1999-11-03,24.8005
1999-11-04,25.4057
1999-11-05,25.9766
1999-11-08,25.8681
1999-11-09,25.3372
1999-11-10,26.2278
1999-11-11,27.6208
1999-11-12,27.8321
1999-11-15,28.6542
1999-11-16,30.0073
1999-11-17,30.0815
1999-11-18,30.2242
1999-11-19,29.9387
1999-11-22,29.5448
1999-11-23,29.5448
1999-11-24,29.4763
1999-11-26,28.6884
1999-11-29,28.58
1999-11-30,28.4372
1999-12-01,28.1918
1999-12-02,28.58
1999-12-03,30.0073
1999-12-06,29.9045
1999-12-07,29.796
1999-12-08,31.6172
1999-12-09,31.7942
1999-12-10,31.366
1999-12-13,31.937
1999-12-14,31.5088
1999-12-15,31.2233
1999-12-16,31.2233
1999-12-17,32.4336
1999-12-20,32.5764
1999-12-21,32.1139
1999-12-22,32.4736
1999-12-23,33.33
1999-12-27,33.113
1999-12-28,33.2215
1999-12-29,33.0445
1999-12-30,33.5412
1999-12-31,34.5061
2000-01-03,32.4736
2000-01-04,30.6866
2000-01-05,29.2936
2000-01-06,29.1909
2000-01-07,30.8636
2000-01-10,33.7182
2000-01-11,33.507
2000-01-12,32.3651
2000-01-13,33.3985
2000-01-14,33.113
2000-01-18,31.5088
2000-01-19,32.7591
2000-01-20,32.6848
2000-01-21,32.6848
2000-01-24,32.5079
2000-01-25,32.8276
2000-01-26,34.0037
2000-01-27,34.0037
2000-01-28,32.7933
2000-01-31,31.72
2000-02-01,31.8627
2000-02-02,31.76
2000-02-03,33.4727
2000-02-04,35.1855
2000-02-07,34.2206
2000-02-08,35.8591
2000-02-09,34.9
2000-02-10,34.7173
2000-02-11,35.0427
2000-02-14,34.7573
2000-02-15,33.6497
2000-02-16,32.0454
2000-02-17,31.937
2000-02-18,31.366
2000-02-22,31.4745
2000-02-23,31.76
2000-02-24,30.6181
2000-02-25,28.9396
2000-02-28,28.6199
2000-02-29,31.7942
2000-03-01,32.2224
2000-03-02,31.8285
2000-03-03,32.3309
2000-03-06,31.5088
2000-03-07,30.9721
2000-03-08,30.9721
2000-03-09,31.1491
2000-03-10,30.7951
2000-03-13,29.9045
2000-03-14,30.0472
2000-03-15,29.6533
2000-03-16,31.0064
2000-03-17,32.1139
2000-03-20,31.9027
2000-03-21,32.9703
2000-03-22,34.1464
2000-03-23,33.6839
2000-03-24,33.2558
2000-03-27,32.5079
2000-03-28,31.9712
2000-03-29,31.366
2000-03-30,30.8294
2000-03-31,30.2242
2000-04-03,30.19
2000-04-04,29.7218
2000-04-05,29.8303
2000-04-06,32.0454
2000-04-07,31.6857
2000-04-10,31.72
2000-04-11,31.543
2000-04-12,30.8294
2000-04-13,29.6875
2000-04-14,28.1518
2000-04-17,27.2612
2000-04-18,29.1909
2000-04-19,29.7218
2000-04-20,29.2594
2000-04-24,28.6199
2000-04-25,29.619
2000-04-26,31.1891
2000-04-27,30.9036
2000-04-28,31.1148
2000-05-01,31.8285
2000-05-02,31.6857
2000-05-03,30.9036
2000-05-04,31.8627
2000-05-05,31.2233
2000-05-08,31.1891
2000-05-09,31.1891
2000-05-10,29.7618
2000-05-11,29.6533
2000-05-12,31.76
2000-05-15,32.2567
2000-05-16,34.1464
2000-05-17,34.2206
2000-05-18,34.1864
2000-05-19,33.4327
2000-05-22,32.3651
2000-05-23,31.2233
2000-05-24,30.6181
2000-05-25,30.9378
2000-05-26,31.2233
2000-05-30,33.4727
2000-05-31,35.4309
2000-06-01,35.7906
2000-06-02,37.5719
2000-06-05,37.4691
2000-06-06,36.2531
2000-06-07,35.9333
2000-06-08,36.47
2000-06-09,38.04
2000-06-12,37.8573
2000-06-13,37.1094
2000-06-14,37.6118
2000-06-15,39.7528
2000-06-16,38.9992
2000-06-19,38.2855
2000-06-20,38.4282
2000-06-21,38.217
2000-06-22,37.8973
2000-06-23,36.3958
2000-06-26,37.2864
2000-06-27,37.5376
2000-06-28,37.8573
2000-06-29,38.571
2000-06-30,38.8964
2000-07-03,38.1085
2000-07-05,38.3597
2000-07-06,38.1428
2000-07-07,37.8973
2000-07-10,38.6795
2000-07-11,39.6443
2000-07-12,39.4673
2000-07-13,40.4264
2000-07-14,40.8546
2000-07-17,39.4673
2000-07-18,38.0001
2000-07-19,38.8964
2000-07-20,39.5016
2000-07-21,38.8964
2000-07-24,37.8973
2000-07-25,39.3931
2000-07-26,38.1828
2000-07-27,38.9992
2000-07-28,37.8573
2000-07-31,37.8973
2000-08-01,39.964
2000-08-02,39.4673
2000-08-03,40.8204
2000-08-04,42.5331
2000-08-07,41.2828
2000-08-08,40.9631
2000-08-09,40.1067
2000-08-10,39.8955
2000-08-11,40.8946
2000-08-14,40.5692
2000-08-15,39.6786
2000-08-16,38.0001
2000-08-17,38.9992
2000-08-18,39.1076
2000-08-21,38.9307
2000-08-22,38.3255
2000-08-23,37.9658
2000-08-24,38.5025
2000-08-25,39.0734
2000-08-28,38.3255
2000-08-29,39.7528
2000-08-30,39.7528
2000-08-31,38.394
2000-09-01,39.0734
2000-09-05,37.2179
2000-09-06,36.8982
2000-09-07,35.9333
2000-09-08,37.0752
2000-09-11,36.47
2000-09-12,36.2188
2000-09-13,37.2179
2000-09-14,37.1837
2000-09-15,36.3273
2000-09-18,36.47
2000-09-19,36.1446
2000-09-20,34.0779
2000-09-21,33.6154
2000-09-22,32.7191
2000-09-25,32.8618
2000-09-26,32.3309
2000-09-27,32.0797
2000-09-28,32.6506
2000-09-29,33.3642
2000-10-02,32.9018
2000-10-03,33.113
2000-10-04,32.7591
2000-10-05,32.2909
2000-10-06,30.19
2000-10-09,30.0073
2000-10-10,29.8303
2000-10-11,28.4772
2000-10-12,26.8672
2000-10-13,28.226
2000-10-16,28.049
2000-10-17,25.5142
2000-10-18,29.1909
2000-10-19,29.2251
2000-10-20,30.8636
2000-10-23,31.9712
2000-10-24,32.1882
2000-10-25,30.7951
2000-10-26,30.8294
2000-10-27,31.9712
2000-10-30,31.72
2000-10-31,32.4736
2000-11-01,32.7591
2000-11-02,33.3642
2000-11-03,32.8276
2000-11-06,33.0788
2000-11-07,33.8267
2000-11-08,32.6506
2000-11-09,30.2242
2000-11-10,30.0815
2000-11-13,29.2936
2000-11-14,29.796
2000-11-15,31.366
2000-11-16,31.6857
2000-11-17,30.8294
2000-11-20,30.2927
2000-11-21,30.7951
2000-11-22,30.5097
2000-11-24,30.6524
2000-11-27,31.8627
2000-11-28,30.2585
2000-11-29,29.5791
2000-11-30,29.3336
2000-12-01,30.2242
2000-12-04,29.1166
2000-12-05,30.8294
2000-12-06,31.4003
2000-12-07,30.0073
2000-12-08,30.9721
2000-12-11,31.76
2000-12-12,31.937
2000-12-13,32.1482
2000-12-14,30.9721
2000-12-15,29.7218
2000-12-18,29.1166
2000-12-19,29.4021
2000-12-20,26.7987
2000-12-21,26.656
2000-12-22,27.4781
2000-12-26,26.833
2000-12-27,26.1193
2000-12-28,27.0499
2000-12-29,26.7245
2001-01-02,25.7254
2001-01-03,30.2242
2001-01-04,32.1139
2001-01-05,30.7609
2001-01-08,29.0824
2001-01-09,29.0824
2001-01-10,29.2936
2001-01-11,31.2918
2001-01-12,32.2224
2001-01-16,32.3994
2001-01-17,32.9361
2001-01-18,33.5755
2001-01-19,32.9361
2001-01-22,31.4003
2001-01-23,32.7933
2001-01-24,32.8276
2001-01-25,32.1482
2001-01-26,30.5439
2001-01-29,31.6515
2001-01-30,32.5707
2001-01-31,31.5944
2001-02-01,32.3537
2001-02-02,31.1377
2001-02-05,30.6353
2001-02-06,29.796
2001-02-07,30.0586
2001-02-08,30.4297
2001-02-09,30.3156
2001-02-12,30.5439
2001-02-13,30.4811
2001-02-14,30.6695
2001-02-15,30.8408
2001-02-16,29.8303
2001-02-20,29.6875
2001-02-21,30.5439
2001-02-22,29.6476
2001-02-23,29.071
2001-02-26,29.2023
2001-02-27,29.5791
2001-02-28,28.5172
2001-03-01,28.1404
2001-03-02,27.4553
2001-03-05,27.461
2001-03-06,28.2203
2001-03-07,28.3288
2001-03-08,28.2603
2001-03-09,28.1575
2001-03-12,25.577
2001-03-13,25.988
2001-03-14,25.8339
2001-03-15,27.2326
2001-03-16,26.2107
2001-03-19,26.6332
2001-03-20,25.263
2001-03-21,23.6929
2001-03-22,22.1401
2001-03-23,23.8642
2001-03-26,24.5607
2001-03-27,26.0337
2001-03-28,25.0631
2001-03-29,24.6635
2001-03-30,25.086
2001-04-02,23.8528
2001-04-03,23.0021
2001-04-04,22.6368
2001-04-05,24.3495
2001-04-06,25.4628
2001-04-09,25.4285
2001-04-10,26.4105
2001-04-11,26.5418
2001-04-12,26.5932
2001-04-16,26.9757
2001-04-17,26.9415
2001-04-18,29.6761
2001-04-19,30.3441
2001-04-20,30.8922
2001-04-23,30.1272
2001-04-24,29.1281
2001-04-25,29.9559
2001-04-26,30.2242
2001-04-27,29.2936
2001-04-30,29.7161
2001-05-01,31.1662
2001-05-02,30.8294
2001-05-03,30.0244
2001-05-04,30.2185
2001-05-07,30.3098
2001-05-08,29.5734
2001-05-09,29.7161
2001-05-10,30.778
2001-05-11,31.0577
2001-05-14,30.5896
2001-05-15,29.9102
2001-05-16,31.5773
2001-05-17,32.8276
2001-05-18,32.5364
2001-05-21,33.8438
2001-05-22,33.1245
2001-05-23,32.5478
2001-05-24,33.5013
2001-05-25,33.113
2001-05-29,32.2395
2001-05-30,31.8171
2001-05-31,32.9589
2001-06-01,32.4394
2001-06-04,32.5421
2001-06-05,32.4279
2001-06-06,32.2681
2001-06-07,32.6677
2001-06-08,32.348
2001-06-11,32.1425
2001-06-12,32.1254
2001-06-13,32.0683
2001-06-14,30.7951
2001-06-15,30.601
2001-06-18,29.305
2001-06-19,29.0595
2001-06-20,30.7494
2001-06-21,30.5725
2001-06-22,30.2927
2001-06-25,30.4868
2001-06-26,29.2708
2001-06-27,29.7161
2001-06-28,29.6533
2001-06-29,30.2585
2001-07-02,30.0586
2001-07-03,30.2585
2001-07-05,29.659
2001-07-06,29.0595
2001-07-09,28.403
2001-07-10,28.1461
2001-07-11,28.0319
2001-07-12,28.2374
2001-07-13,27.9291
2001-07-16,27.6893
2001-07-17,27.9919
2001-07-18,27.2041
2001-07-19,27.1184
2001-07-20,26.7245
2001-07-23,25.6341
2001-07-24,25.6341
2001-07-25,26.4904
2001-07-26,28.5343
2001-07-27,29.2137
2001-07-30,28.9682
2001-07-31,28.4201
2001-08-01,28.6884
2001-08-02,29.6362
2001-08-03,28.9454
2001-08-06,28.677
2001-08-07,28.7113
2001-08-08,28.403
2001-08-09,28.0376
2001-08-10,28.3002
2001-08-13,28.3288
2001-08-14,27.2155
2001-08-15,26.6332
2001-08-16,26.3991
2001-08-17,25.9766
2001-08-20,26.1193
2001-08-21,26.0508
2001-08-22,25.7768
2001-08-23,25.988
2001-08-24,26.9243
2001-08-27,26.6217
2001-08-28,25.7482
2001-08-29,25.086
2001-08-30,23.8699
2001-08-31,24.2068
2001-09-04,24.3152
2001-09-05,23.5559
2001-09-06,22.8366
2001-09-07,21.6148
2001-09-10,21.4378
2001-09-17,18.4691
2001-09-18,17.9153
2001-09-19,17.6983
2001-09-20,16.7849
2001-09-21,17.5842
2001-09-24,18.8402
2001-09-25,18.2122
2001-09-26,18.412
2001-09-27,18.7774
2001-09-28,19.6509
2001-10-01,19.0971
2001-10-02,19.982
2001-10-03,20.6386
2001-10-04,20.473
2001-10-05,19.6395
2001-10-08,19.6851
2001-10-09,18.8687
2001-10-10,19.1428
2001-10-11,20.8498
2001-10-12,20.8212
2001-10-15,20.4102
2001-10-16,20.924
2001-10-17,20.0391
2001-10-18,19.4682
2001-10-19,19.6965
2001-10-22,20.6614
2001-10-23,21.1181
2001-10-24,20.6671
2001-10-25,20.827
2001-10-26,21.1638
2001-10-29,20.336
2001-10-30,20.0505
2001-10-31,20.8098
2001-11-01,22.1001
2001-11-02,21.9231
2001-11-05,22.4369
2001-11-06,22.4369
2001-11-07,22.2999
2001-11-08,22.6082
2001-11-09,22.7395
2001-11-12,22.5454
2001-11-13,23.9213
2001-11-14,24.4637
2001-11-15,24.9889
2001-11-16,25.0631
2001-11-19,25.7768
2001-11-20,24.5779
2001-11-21,24.2467
2001-11-23,24.6178
2001-11-26,25.4228
2001-11-27,25.3029
2001-11-28,24.378
2001-11-29,24.5436
2001-11-30,24.9033
2001-12-03,24.378
2001-12-04,24.6121
2001-12-05,26.4904
2001-12-06,27.3639
2001-12-07,25.9481
2001-12-10,23.5502
2001-12-11,24.2011
2001-12-12,24.3495
2001-12-13,23.9327
2001-12-14,23.5388
2001-12-17,23.8471
2001-12-18,24.3095
2001-12-19,24.635
2001-12-20,24.104
2001-12-21,23.967
2001-12-24,24.1611
2001-12-26,24.6235
2001-12-27,24.9547
2001-12-28,25.5598
2001-12-31,25.1945
2002-01-02,25.046
2002-01-03,24.9261
2002-01-04,25.7996
2002-01-07,26.6788
2002-01-08,25.674
2002-01-09,25.7882
2002-01-10,25.6854
2002-01-11,25.1374
2002-01-14,25.1088
2002-01-15,25.5884
2002-01-16,24.4123
2002-01-17,23.9784
2002-01-18,23.1506
2002-01-22,22.043
2002-01-23,21.9802
2002-01-24,22.6596
2002-01-25,22.4997
2002-01-28,22.6539
2002-01-29,22.3798
2002-01-30,22.4255
2002-01-31,22.808
2002-02-01,21.866
2002-02-04,20.964
2002-02-05,21.3865
2002-02-06,21.4093
2002-02-07,22.4255
2002-02-08,23.6644
2002-02-11,24.1725
2002-02-12,24.6578
2002-02-13,24.7263
2002-02-14,25.183
2002-02-15,24.8291
2002-02-19,24.1554
2002-02-20,24.7149
2002-02-21,24.8348
2002-02-22,25.1773
2002-02-25,26.3077
2002-02-26,26.6845
2002-02-27,26.5475
2002-02-28,26.6332
2002-03-01,27.2497
2002-03-04,28.1746
2002-03-05,27.9348
2002-03-06,28.9568
2002-03-07,28.4487
2002-03-08,28.5743
2002-03-11,28.6599
2002-03-12,28.4658
2002-03-13,27.7864
2002-03-14,27.7807
2002-03-15,28.2603
2002-03-18,29.1338
2002-03-19,29.1223
2002-03-20,29.3678
2002-03-21,28.9396
2002-03-22,28.717
2002-03-25,28.2488
2002-03-26,27.2326
2002-03-27,27.8035
2002-03-28,27.638
2002-04-01,27.4096
2002-04-02,27.3753
2002-04-03,27.0385
2002-04-04,27.6551
2002-04-05,28.3402
2002-04-08,28.5172
2002-04-09,28.4658
2002-04-10,28.5343
2002-04-11,27.7464
2002-04-12,27.9348
2002-04-15,27.7065
2002-04-16,28.0262
2002-04-17,27.9976
2002-04-18,28.3174
2002-04-19,28.9111
2002-04-22,28.8198
2002-04-23,28.54
2002-04-24,28.6371
2002-04-25,28.3744
2002-04-26,27.4724
2002-04-29,26.5475
2002-04-30,26.8501
2002-05-01,27.735
2002-05-02,27.6665
2002-05-03,27.0042
2002-05-06,26.4333
2002-05-07,26.3534
2002-05-08,27.5866
2002-05-09,27.3183
2002-05-10,26.7359
2002-05-13,27.3753
2002-05-14,27.8321
2002-05-15,28.4886
2002-05-16,28.5743
2002-05-17,28.54
2002-05-20,28.3516
2002-05-21,28.0319
2002-05-22,27.5409
2002-05-23,27.6437
2002-05-24,27.5752
2002-05-28,27.6893
2002-05-29,27.5238
2002-05-30,27.2269
2002-05-31,27.9463
2002-06-03,26.833
2002-06-04,28.2888
2002-06-05,28.1689
2002-06-06,27.9405
2002-06-07,28.3174
2002-06-10,28.3402
2002-06-11,27.8549
2002-06-12,26.6046
2002-06-13,26.068
2002-06-14,25.5142
2002-06-17,26.6845
2002-06-18,26.8901
2002-06-19,26.7645
2002-06-20,25.6169
2002-06-21,24.9775
2002-06-24,25.9709
2002-06-25,25.3943
2002-06-26,24.378
2002-06-27,23.8357
2002-06-28,25.4057
2002-07-01,23.5788
2002-07-02,23.9499
2002-07-03,24.635
2002-07-05,25.6341
2002-07-08,24.3267
2002-07-09,23.2191
2002-07-10,20.5415
2002-07-11,21.3122
2002-07-12,22.3056
2002-07-15,22.2885
2002-07-16,21.1866
2002-07-17,21.729
2002-07-18,21.1524
2002-07-19,19.668
2002-07-22,19.6851
2002-07-23,18.2693
2002-07-24,19.6395
2002-07-25,20.0791
2002-07-26,19.628
2002-07-29,21.3579
2002-07-30,21.1866
2002-07-31,22.22
2002-08-01,21.7233
2002-08-02,19.9078
2002-08-05,18.7431
2002-08-06,20.2846
2002-08-07,20.3246
2002-08-08,21.2095
2002-08-09,21.0096
2002-08-12,20.65
2002-08-13,20.336
2002-08-14,22.2257
2002-08-15,23.7672
2002-08-16,23.9784
2002-08-19,24.555
2002-08-20,24.0926
2002-08-21,24.2296
2002-08-22,24.1554
2002-08-23,23.202
2002-08-26,23.476
2002-08-27,23.122
2002-08-28,22.7053
2002-08-29,22.9508
2002-08-30,23.1848
2002-09-03,22.1972
2002-09-04,22.7053
2002-09-05,22.3798
2002-09-06,23.79
2002-09-09,23.2762
2002-09-10,24.4294
2002-09-11,24.7663
2002-09-12,23.8756
2002-09-13,24.2011
2002-09-16,23.6359
2002-09-17,23.7786
2002-09-18,23.5103
2002-09-19,22.5226
2002-09-20,23.0078
2002-09-23,22.6025
2002-09-24,23.122
2002-09-25,24.0355
2002-09-26,24.8919
2002-09-27,24.2582
2002-09-30,22.9736
2002-10-01,23.6701
2002-10-02,23.2305
2002-10-03,23.3732
2002-10-04,22.5511
2002-10-07,22.0601
2002-10-08,22.2542
2002-10-09,21.3008
2002-10-10,22.2942
2002-10-11,23.3333
2002-10-14,23.6987
2002-10-15,25.2344
2002-10-16,24.3438
2002-10-17,25.3486
2002-10-18,25.2002
2002-10-21,26.4961
2002-10-22,26.3762
2002-10-23,27.0042
2002-10-24,25.2573
2002-10-25,26.1079
2002-10-28,25.7539
2002-10-29,25.1545
2002-10-30,25.6797
2002-10-31,25.4628
2002-11-01,25.3886
2002-11-04,25.4228
2002-11-05,26.1707
2002-11-06,26.0965
2002-11-07,25.1145
2002-11-08,25.2116
2002-11-11,24.4979
2002-11-12,25.3829
2002-11-13,25.3429
2002-11-14,25.6341
2002-11-15,25.7768
2002-11-18,25.6055
2002-11-19,25.1317
2002-11-20,25.5541
2002-11-21,26.205
2002-11-22,26.1993
2002-11-25,26.2849
2002-11-26,25.3943
2002-11-27,26.4048
2002-11-29,26.8387
2002-12-02,26.5018
2002-12-03,25.6283
2002-12-04,25.497
2002-12-05,25.6398
2002-12-06,25.7825
2002-12-09,24.2353
2002-12-10,24.6635
2002-12-11,25.0403
2002-12-12,24.5151
2002-12-13,23.5959
2002-12-16,24.5094
2002-12-17,24.5436
2002-12-18,23.7729
2002-12-19,23.8014
2002-12-20,23.7615
2002-12-23,24.064
2002-12-24,23.8014
2002-12-26,23.8357
2002-12-27,23.0364
2002-12-30,22.808
2002-12-31,23.2362
2003-01-02,24.6121
2003-01-03,24.5436
2003-01-06,24.7491
2003-01-07,24.3095
2003-01-08,23.83
2003-01-09,24.2467
2003-01-10,24.7377
2003-01-13,24.6806
2003-01-14,24.4637
2003-01-15,23.6587
2003-01-16,23.6473
2003-01-17,23.5559
2003-01-21,22.3056
2003-01-22,21.6947
2003-01-23,22.7624
2003-01-24,22.1344
2003-01-27,21.4378
2003-01-28,21.5749
2003-01-29,22.4655
2003-01-30,21.5577
2003-01-31,21.9802
2003-02-03,21.9345
2003-02-04,21.0953
2003-02-05,21.1809
2003-02-06,21.3807
2003-02-07,21.1923
2003-02-10,21.2723
2003-02-11,21.4207
2003-02-12,20.8955
2003-02-13,20.6043
2003-02-14,21.3122
2003-02-18,22.0373
2003-02-19,21.6091
2003-02-20,21.592
2003-02-21,22.0373
2003-02-24,21.0667
2003-02-25,20.9297
2003-02-26,20.6614
2003-02-27,21.0496
2003-02-28,21.2038
2003-03-03,21.1695
2003-03-04,20.1247
2003-03-05,20.5529
2003-03-06,20.3588
2003-03-07,20.7014
2003-03-10,19.7879
2003-03-11,19.4682
2003-03-12,19.1999
2003-03-13,20.61
2003-03-14,21.1238
2003-03-17,22.2714
2003-03-18,21.9174
2003-03-19,22.1172
2003-03-20,23.2419
2003-03-21,23.7044
2003-03-24,22.4141
2003-03-25,22.7624
2003-03-26,21.9802
2003-03-27,21.8203
2003-03-28,21.5235
2003-03-31,20.8498
2003-04-01,21.6262
2003-04-02,22.574
2003-04-03,22.4712
2003-04-04,22.4712
2003-04-07,22.9565
2003-04-08,22.8937
2003-04-09,23.0592
2003-04-10,23.0935
2003-04-11,23.202
2003-04-14,23.8014
2003-04-15,23.5274
2003-04-16,22.7509
2003-04-17,23.2077
2003-04-21,23.3104
2003-04-22,24.8005
2003-04-23,25.1887
2003-04-24,24.4922
2003-04-25,23.9213
2003-04-28,24.6292
2003-04-29,25.0003
2003-04-30,24.7434
2003-05-01,24.4123
2003-05-02,25.2687
2003-05-05,24.6635
2003-05-06,24.9604
2003-05-07,25.0631
2003-05-08,24.8062
2003-05-09,25.3886
2003-05-12,25.9081
2003-05-13,25.5427
2003-05-14,25.5998
2003-05-15,25.7939
2003-05-16,26.0908
2003-05-19,25.1088
2003-05-20,24.7206
2003-05-21,25.1716
2003-05-22,26.0166
2003-05-23,25.6283
2003-05-27,26.3591
2003-05-28,26.1878
2003-05-29,25.9709
2003-05-30,26.0451
2003-06-02,26.4048
2003-06-03,26.3477
2003-06-04,26.9243
2003-06-05,26.9985
2003-06-06,26.5875
2003-06-09,26.068
2003-06-10,26.3534
2003-06-11,26.3762
2003-06-12,26.5704
2003-06-13,26.1764
2003-06-16,26.833
2003-06-17,26.6674
2003-06-18,26.5932
2003-06-19,25.6341
2003-06-20,25.6969
2003-06-23,25.4399
2003-06-24,25.5713
2003-06-25,25.2059
2003-06-26,25.1887
2003-06-27,24.772
2003-06-30,24.9832
2003-07-01,24.7891
2003-07-02,24.7377
2003-07-03,24.555
2003-07-07,25.2858
2003-07-08,25.1374
2003-07-09,25.0232
2003-07-10,24.692
2003-07-11,25.3543
2003-07-14,25.674
2003-07-15,25.7597
2003-07-16,25.223
2003-07-17,25.0346
2003-07-18,25.086
2003-07-21,24.4637
2003-07-22,24.2981
2003-07-23,24.458
2003-07-24,25.4057
2003-07-25,25.811
2003-07-28,25.4114
2003-07-29,25.1202
2003-07-30,24.4922
2003-07-31,24.8804
2003-08-01,24.5779
2003-08-04,24.4637
2003-08-05,23.967
2003-08-06,24.2981
2003-08-07,23.927
2003-08-08,23.7557
2003-08-11,23.9841
2003-08-12,24.3038
2003-08-13,24.2352
2003-08-14,24.5668
2003-08-15,24.5782
2003-08-18,24.8584
2003-08-19,25.2871
2003-08-20,25.27
2003-08-21,25.5044
2003-08-22,25.4873
2003-08-25,25.2357
2003-08-26,25.3558
2003-08-27,25.087
2003-08-28,25.0413
2003-08-29,25.6874
2003-09-02,26.1161
2003-09-03,26.1733
2003-09-04,26.5506
2003-09-05,26.5678
2003-09-08,26.4649
2003-09-09,25.6816
2003-09-10,25.3272
2003-09-11,25.2014
2003-09-12,25.0299
2003-09-15,24.8126
2003-09-16,25.2528
2003-09-17,24.8241
2003-09-18,24.9384
2003-09-19,24.0122
2003-09-22,23.1832
2003-09-23,22.9831
2003-09-24,22.1598
2003-09-25,22.3256
2003-09-26,21.954
2003-09-29,21.8225
2003-09-30,21.8969
2003-10-01,22.6973
2003-10-02,22.966
2003-10-03,23.0003
2003-10-06,23.1661
2003-10-07,23.1261
2003-10-08,22.8745
2003-10-09,23.2118
2003-10-10,23.8464
2003-10-13,23.7664
2003-10-14,23.7835
2003-10-15,23.0117
2003-10-16,22.8688
2003-10-17,22.4457
2003-10-20,22.2399
2003-10-21,22.0398
2003-10-22,22.1427
2003-10-23,22.1484
2003-10-24,22.0398
2003-10-27,22.217
2003-10-28,22.703
2003-10-29,22.6287
2003-10-30,22.6458
2003-10-31,22.7945
2003-11-03,22.7659
2003-11-04,22.3085
2003-11-05,22.1713
2003-11-06,22.5715
2003-11-07,22.9774
2003-11-10,22.7087
2003-11-11,22.2856
2003-11-12,22.1198
2003-11-13,21.7825
2003-11-14,21.611
2003-11-17,21.6682
2003-11-18,21.1479
2003-11-19,21.5252
2003-11-20,21.6739
2003-11-21,21.5767
2003-11-24,21.9254
2003-11-25,22.4
2003-11-26,22.9374
2003-11-28,22.48
2003-12-01,22.5886
2003-12-02,22.6229
2003-12-03,22.6401
2003-12-04,22.6172
2003-12-05,22.0675
2003-12-08,22.6401
2003-12-09,23.1497
2003-12-10,23.5161
2003-12-11,23.8024
2003-12-12,23.9971
2003-12-15,23.9971
2003-12-16,23.8482
2003-12-17,23.6936
2003-12-18,24.0429
2003-12-19,24.4552
2003-12-22,24.5754
2003-12-23,24.7357
2003-12-24,24.7529
2003-12-26,24.9648
2003-12-29,24.8674
2003-12-30,25.022
2003-12-31,25.337
2004-01-02,25.3885
2004-01-05,25.4916
2004-01-06,25.0564
2004-01-07,25.022
2004-01-08,25.2854
2004-01-09,24.8617
2004-01-12,24.7816
2004-01-13,24.2032
2004-01-14,24.02
2004-01-15,23.7337
2004-01-16,23.4703
2004-01-20,23.8711
2004-01-21,24.0887
2004-01-22,24.4609
2004-01-23,24.5296
2004-01-26,24.1975
2004-01-27,23.6879
2004-01-28,23.1726
2004-01-29,23.2413
2004-01-30,23.0752
2004-02-02,23.3844
2004-02-03,23.0924
2004-02-04,22.6229
2004-02-05,22.8863
2004-02-06,23.1268
2004-02-09,22.892
2004-02-10,23.5505
2004-02-11,23.5448
2004-02-12,22.8977
2004-02-13,22.4855
2004-02-17,22.8634
2004-02-18,22.8977
2004-02-19,22.6172
2004-02-20,22.474
2004-02-23,22.1419
2004-02-24,22.3423
2004-02-25,22.308
2004-02-26,22.4227
2004-02-27,22.09
2004-03-01,22.2506
2004-03-02,22.5546
2004-03-03,22.9445
2004-03-04,23.1739
2004-03-05,22.9502
2004-03-08,22.5431
2004-03-09,22.3194
2004-03-10,21.6829
2004-03-11,21.4879
2004-03-12,21.7517
2004-03-15,21.2757
2004-03-16,21.2585
2004-03-17,21.8434
2004-03-18,21.9925
2004-03-19,22.199
2004-03-22,21.6198
2004-03-23,21.6255
2004-03-24,21.9352
2004-03-25,22.3481
2004-03-26,22.1072
2004-03-29,22.1933
2004-03-30,22.5259
2004-03-31,22.4571
2004-04-01,22.3768
2004-04-02,22.9273
2004-04-05,23.1051
2004-04-06,23.1739
2004-04-07,23.1223
2004-04-08,23.2829
2004-04-12,23.4893
2004-04-13,23.0879
2004-04-14,23.3173
2004-04-15,23.0936
2004-04-16,23.1911
2004-04-19,23.4205
2004-04-20,22.9216
2004-04-21,23.5065
2004-04-22,23.3918
2004-04-23,23.237
2004-04-26,23.0592
2004-04-27,23.2886
2004-04-28,23.2714
2004-04-29,22.6865
2004-04-30,22.2506
2004-05-03,22.2736
2004-05-04,22.2793
2004-05-05,22.0155
2004-05-06,22.1761
2004-05-07,21.6599
2004-05-10,21.1553
2004-05-11,22.3137
2004-05-12,22.5029
2004-05-13,22.0786
2004-05-14,21.7632
2004-05-17,21.6083
2004-05-18,21.5854
2004-05-19,21.5682
2004-05-20,21.4248
2004-05-21,21.0635
2004-05-24,21.3904
2004-05-25,21.8033
2004-05-26,21.5338
2004-05-27,21.5281
2004-05-28,21.1949
2004-06-01,20.9365
2004-06-02,21.1432
2004-06-03,21.3443
2004-06-04,21.1949
2004-06-07,21.7291
2004-06-08,21.7349
2004-06-09,21.5166
2004-06-10,21.7923
2004-06-14,21.2179
2004-06-15,21.3385
2004-06-16,21.2007
2004-06-17,21.0686
2004-06-18,21.2926
2004-06-21,21.2007
2004-06-22,20.8905
2004-06-23,20.5746
2004-06-24,20.5688
2004-06-25,20.4367
2004-06-28,20.5344
2004-06-29,20.161
2004-06-30,20.5057
2004-07-01,20.3908
2004-07-02,20.3448
2004-07-06,20.1093
2004-07-07,20.0576
2004-07-08,19.6958
2004-07-09,19.6671
2004-07-12,19.7475
2004-07-13,19.8968
2004-07-14,19.8566
2004-07-15,19.8738
2004-07-16,19.5292
2004-07-19,19.3511
2004-07-20,19.4086
2004-07-21,19.2937
2004-07-22,19.7819
2004-07-23,19.9026
2004-07-26,19.6785
2004-07-27,19.5809
2004-07-28,19.2707
2004-07-29,19.2765
2004-07-30,19.2707
2004-08-02,19.3224
2004-08-03,19.5292
2004-08-04,19.5349
2004-08-05,19.443
2004-08-06,19.0237
2004-08-09,18.8974
2004-08-10,19.0582
2004-08-11,18.8399
2004-08-12,18.4034
2004-08-13,18.7653
2004-08-16,19.3971
2004-08-17,19.3282
2004-08-18,19.713
2004-08-19,19.9026
2004-08-20,20.4367
2004-08-23,20.2759
2004-08-24,20.0749
2004-08-25,20.0117
2004-08-26,19.7417
2004-08-27,19.7763
2004-08-30,19.4425
2004-08-31,19.2009
2004-09-01,19.3275
2004-09-02,19.5634
2004-09-03,19.385
2004-09-07,19.6324
2004-09-08,19.9604
2004-09-09,19.805
2004-09-10,20.2653
2004-09-13,20.087
2004-09-14,20.133
2004-09-15,19.6899
2004-09-16,19.7245
2004-09-17,19.8108
2004-09-20,19.6036
2004-09-21,19.339
2004-09-22,19.0513
2004-09-23,19.3044
2004-09-24,19.4425
2004-09-27,19.0743
2004-09-28,18.7923
2004-09-29,18.9304
2004-09-30,19.339
2004-10-01,19.9259
2004-10-04,20.4265
2004-10-05,20.3632
2004-10-06,20.6163
2004-10-07,20.2423
2004-10-08,19.9259
2004-10-11,19.8338
2004-10-12,19.7878
2004-10-13,19.7245
2004-10-14,19.385
2004-10-15,19.6036
2004-10-18,19.8338
2004-10-19,19.782
2004-10-20,19.5001
2004-10-21,19.8396
2004-10-22,19.4483
2004-10-25,19.2757
2004-10-26,19.8453
2004-10-27,20.1215
2004-10-28,20.7026
2004-10-29,21.0018
2004-11-01,20.812
2004-11-02,21.0766
2004-11-03,21.0134
2004-11-04,21.2838
2004-11-05,20.9616
2004-11-08,20.881
2004-11-09,20.7487
2004-11-10,20.5185
2004-11-11,20.5703
2004-11-12,20.7602
2004-11-15,20.6911
2004-11-16,20.53
2004-11-17,20.6221
2004-11-18,20.4265
2004-11-19,20.0064
2004-11-22,19.9144
2004-11-23,20.2366
2004-11-24,20.2308
2004-11-26,20.3462
2004-11-29,20.0752
2004-11-30,20.0175
2004-12-01,20.4845
2004-12-02,20.8074
2004-12-03,20.8997
2004-12-06,20.8305
2004-12-07,20.5941
2004-12-08,20.3577
2004-12-09,20.1617
2004-12-10,20.0464
2004-12-13,19.7812
2004-12-14,19.6024
2004-12-15,20.179
2004-12-16,20.2309
2004-12-17,20.45
2004-12-20,20.4961
2004-12-21,20.7325
2004-12-22,21.1764
2004-12-23,21.113
2004-12-27,21.0899
2004-12-28,21.0899
2004-12-29,20.9573
2004-12-30,21.0726
2004-12-31,20.9919
2005-01-03,21.113
2005-01-04,21.1937
2005-01-05,21.5973
2005-01-06,21.8048
2005-01-07,21.7126
2005-01-10,21.9893
2005-01-11,22.0354
2005-01-12,22.1104
2005-01-13,21.7068
2005-01-14,21.8913
2005-01-18,22.3814
2005-01-19,22.0239
2005-01-20,22.07
2005-01-21,21.6376
2005-01-24,21.7587
2005-01-25,21.6665
2005-01-26,21.5396
2005-01-27,21.4993
2005-01-28,21.3609
2005-01-31,21.5223
2005-02-01,21.4531
2005-02-02,21.5454
2005-02-03,21.4301
2005-02-04,21.7875
2005-02-07,21.678
2005-02-08,21.6261
2005-02-09,21.5511
2005-02-10,21.3148
2005-02-11,21.5511
2005-02-14,21.0899
2005-02-15,21.2225
2005-02-16,21.3321
2005-02-17,21.1879
2005-02-18,20.8651
2005-02-22,20.5653
2005-02-23,20.6748
2005-02-24,20.1723
2005-02-25,20.334
2005-02-28,20.1723
2005-03-01,20.2358
2005-03-02,20.3571
2005-03-03,20.3571
2005-03-04,20.2936
2005-03-07,20.2936
2005-03-08,20.0683
2005-03-09,19.7968
2005-03-10,19.6408
2005-03-11,19.6524
2005-03-14,19.7448
2005-03-15,19.56
2005-03-16,20.8019
2005-03-17,21.189
2005-03-18,21.1543
2005-03-21,20.9233
2005-03-22,20.4958
2005-03-23,20.3283
2005-03-24,20.1896
2005-03-28,20.1665
2005-03-29,19.8026
2005-03-30,20.1203
2005-03-31,20.1376
2005-04-01,20.1723
2005-04-04,20.2763
2005-04-05,20.4496
2005-04-06,20.2589
2005-04-07,20.3571
2005-04-08,20.282
2005-04-11,20.0625
2005-04-12,20.1145
2005-04-13,19.947
2005-04-14,20.0279
2005-04-15,19.7506
2005-04-18,19.6351
2005-04-19,19.9585
2005-04-20,19.8603
2005-04-21,20.5709
2005-04-22,20.2878
2005-04-25,20.4207
2005-04-26,20.103
2005-04-27,20.3745
2005-04-28,20.0914
2005-04-29,19.9585
2005-05-02,20.2012
2005-05-03,20.3052
2005-05-04,20.8539
2005-05-05,20.5478
2005-05-06,20.4727
2005-05-09,20.4727
2005-05-10,20.2012
2005-05-11,20.0105
2005-05-12,19.9817
2005-05-13,19.9066
2005-05-16,19.7621
2005-05-17,19.8661
2005-05-18,19.8777
2005-05-19,19.9239
2005-05-20,20.2069
2005-05-23,20.4669
2005-05-24,20.4438
2005-05-25,20.2936
2005-05-26,20.3514
2005-05-27,20.1896
2005-05-31,19.8026
2005-06-01,19.7679
2005-06-02,19.7968
2005-06-03,19.6928
2005-06-06,19.6175
2005-06-07,19.6349
2005-06-08,19.3513
2005-06-09,19.1602
2005-06-10,19.5076
2005-06-13,19.7449
2005-06-14,19.8028
2005-06-15,19.5654
2005-06-16,19.5076
2005-06-17,19.3686
2005-06-20,19.2934
2005-06-21,19.1776
2005-06-22,19.2123
2005-06-23,18.8477
2005-06-24,18.9229
2005-06-27,18.6335
2005-06-28,18.894
2005-06-29,18.8824
2005-06-30,18.5235
2005-07-01,18.6393
2005-07-05,18.7782
2005-07-06,18.7956
2005-07-07,18.7435
2005-07-08,19.1255
2005-07-11,18.9345
2005-07-12,19.1545
2005-07-13,18.9866
2005-07-14,18.9634
2005-07-15,19.0213
2005-07-18,18.6972
2005-07-19,18.8361
2005-07-20,18.7956
2005-07-21,18.865
2005-07-22,19.056
2005-07-25,18.8129
2005-07-26,19.276
2005-07-27,19.5886
2005-07-28,19.6581
2005-07-29,19.3802
2005-08-01,19.2123
2005-08-02,19.5018
2005-08-03,19.4439
2005-08-04,19.606
2005-08-05,19.6754
2005-08-08,19.8896
2005-08-09,20.0459
2005-08-10,20.098
2005-08-11,20.289
2005-08-12,20.6016
2005-08-15,20.4742
2005-08-16,20.1211
2005-08-17,20.2948
2005-08-18,20.1559
2005-08-19,20.0401
2005-08-22,20.0633
2005-08-23,19.9475
2005-08-24,19.6812
2005-08-25,19.6638
2005-08-26,19.5423
2005-08-29,19.7975
2005-08-30,19.7105
2005-08-31,19.7279
2005-09-01,19.7801
2005-09-02,19.6293
2005-09-06,19.9715
2005-09-07,19.9889
2005-09-08,19.9309
2005-09-09,20.0237
2005-09-12,20.0817
2005-09-13,19.9309
2005-09-14,19.8961
2005-09-15,19.9251
2005-09-16,19.9251
2005-09-19,19.7569
2005-09-20,19.4669
2005-09-21,19.0898
2005-09-22,19.2116
2005-09-23,19.3335
2005-09-26,19.2755
2005-09-27,19.0434
2005-09-28,19.0956
2005-09-29,19.2116
2005-09-30,19.1594
2005-10-03,19.1362
2005-10-04,18.9216
2005-10-05,18.4402
2005-10-06,18.388
2005-10-07,18.504
2005-10-10,18.4518
2005-10-11,18.2023
2005-10-12,17.8717
2005-10-13,17.9181
2005-10-14,18.0979
2005-10-17,18.0109
2005-10-18,17.9413
2005-10-19,17.9065
2005-10-20,17.5933
2005-10-21,17.4483
2005-10-24,18.0515
2005-10-25,17.9935
2005-10-26,18.0515
2005-10-27,17.9297
2005-10-28,17.8485
2005-10-31,17.9587
2005-11-01,18.2951
2005-11-02,18.4112
2005-11-03,18.2023
2005-11-04,18.3532
2005-11-07,18.7012
2005-11-08,18.7592
2005-11-09,18.7418
2005-11-10,18.9854
2005-11-11,19.1188
2005-11-14,19.0956
2005-11-15,18.9738
2005-11-16,18.9506
2005-11-17,19.5075
2005-11-18,19.5829
2005-11-21,19.5075
2005-11-22,19.7569
2005-11-23,19.7743
2005-11-25,19.8961
2005-11-28,19.9077
2005-11-29,19.7392
2005-11-30,19.4137
2005-12-01,19.6346
2005-12-02,20.0182
2005-12-05,20.0531
2005-12-06,20.21
2005-12-07,20.3495
2005-12-08,20.0414
2005-12-09,19.9891
2005-12-12,20.1286
2005-12-13,20.2391
2005-12-14,20.1112
2005-12-15,19.745
2005-12-16,19.8206
2005-12-19,19.6113
2005-12-20,19.3672
2005-12-21,19.3962
2005-12-22,19.3265
2005-12-23,19.3672
2005-12-27,19.0766
2005-12-28,18.9022
2005-12-29,18.8092
2005-12-30,19.0301
2006-01-03,21.0113
2006-01-04,20.8588
2006-01-05,21.1718
2006-01-06,21.8379
2006-01-09,21.6694
2006-01-10,21.3082
2006-01-11,20.9952
2006-01-12,20.8588
2006-01-13,20.4735
2006-01-17,20.1204
2006-01-18,20.5859
2006-01-19,20.5297
2006-01-20,20.0321
2006-01-23,20.7384
2006-01-24,21.6132
2006-01-25,21.2199
2006-01-26,21.5329
2006-01-27,21.5008
2006-01-30,21.878
2006-01-31,20.9551
2006-02-01,20.9551
2006-02-02,20.602
2006-02-03,20.618
2006-02-06,20.7384
2006-02-07,20.5137
2006-02-08,20.8508
2006-02-09,20.5618
2006-02-10,20.4655
2006-02-13,20.4816
2006-02-14,20.5378
2006-02-15,20.5618
2006-02-16,20.1766
2006-02-17,20.7223
2006-02-21,20.2569
2006-02-22,20.2488
2006-02-23,20.2408
2006-02-24,19.829
2006-02-27,20.039
2006-02-28,19.7401
2006-03-01,19.8936
2006-03-02,19.409
2006-03-03,19.3847
2006-03-06,19.3524
2006-03-07,19.6674
2006-03-08,19.4736
2006-03-09,19.3767
2006-03-10,19.3605
2006-03-13,19.4251
2006-03-14,19.3767
2006-03-15,19.6755
2006-03-16,19.5786
2006-03-17,19.8855
2006-03-20,19.7078
2006-03-21,19.9986
2006-03-22,20.2571
2006-03-23,20.1197
2006-03-24,20.2247
2006-03-27,20.0309
2006-03-28,19.732
2006-03-29,19.7563
2006-03-30,19.5544
2006-03-31,19.3767
2006-04-03,19.934
2006-04-04,20.0147
2006-04-05,20.144
2006-04-06,20.5882
2006-04-07,20.2894
2006-04-10,20.0955
2006-04-11,19.8694
2006-04-12,19.829
2006-04-13,20.0794
2006-04-17,19.9663
2006-04-18,20.0309
2006-04-19,19.837
2006-04-20,19.8047
2006-04-21,20.0471
2006-04-24,20.0632
2006-04-25,20.4428
2006-04-26,20.3136
2006-04-27,20.5963
2006-04-28,20.6044
2006-05-01,20.7578
2006-05-02,20.6367
2006-05-03,20.7982
2006-05-04,21.0405
2006-05-05,21.3151
2006-05-08,21.4848
2006-05-09,21.5494
2006-05-10,21.2424
2006-05-11,20.9355
2006-05-12,20.7255
2006-05-15,20.7255
2006-05-16,21.2505
2006-05-17,20.8386
2006-05-18,20.4832
2006-05-19,20.3782
2006-05-22,20.4024
2006-05-23,20.0551
2006-05-24,20.5397
2006-05-25,21.2344
2006-05-26,21.1617
2006-05-30,20.6528
2006-05-31,20.9194
2006-06-01,21.6676
2006-06-02,21.5131
2006-06-05,21.6025
2006-06-06,21.3748
2006-06-07,21.7327
2006-06-08,21.6107
2006-06-09,20.9518
2006-06-12,20.9518
2006-06-13,21.0006
2006-06-14,21.0006
2006-06-15,21.3748
2006-06-16,21.1389
2006-06-19,21.1389
2006-06-20,20.9844
2006-06-21,21.1633
2006-06-22,21.0982
2006-06-23,21.4968
2006-06-26,21.5456
2006-06-27,21.5781
2006-06-28,21.6839
2006-06-29,21.9197
2006-06-30,22.0173
2006-07-03,22.0499
2006-07-05,21.7652
2006-07-06,21.8628
2006-07-07,22.2776
2006-07-10,22.2857
2006-07-11,22.3183
2006-07-12,22.3996
2006-07-13,21.9197
2006-07-14,21.5863
2006-07-17,21.6595
2006-07-18,21.5781
2006-07-19,21.5944
2006-07-20,21.4642
2006-07-21,21.3504
2006-07-24,21.57
2006-07-25,21.8628
2006-07-26,21.7001
2006-07-27,21.8059
2006-07-28,22.1475
2006-07-31,22.2857
2006-08-01,21.8547
2006-08-02,22.1312
2006-08-03,21.4398
2006-08-04,21.3504
2006-08-07,21.2609
2006-08-08,21.3504
2006-08-09,21.3585
2006-08-10,21.5374
2006-08-11,21.4398
2006-08-14,22.1719
2006-08-15,22.4809
2006-08-16,22.3915
2006-08-17,22.2939
2006-08-18,22.3671
2006-08-21,22.5623
2006-08-22,22.912
2006-08-23,23.0421
2006-08-24,23.0177
2006-08-25,23.1641
2006-08-28,23.5383
2006-08-29,23.6939
2006-08-30,23.5956
2006-08-31,23.4236
2006-09-01,23.6202
2006-09-05,23.4236
2006-09-06,23.2025
2006-09-07,23.0469
2006-09-08,23.2926
2006-09-11,23.9642
2006-09-12,24.0461
2006-09-13,23.5547
2006-09-14,23.3745
2006-09-15,23.3909
2006-09-18,23.4891
2006-09-19,23.4728
2006-09-20,23.4154
2006-09-21,23.1452
2006-09-22,23.1124
2006-09-25,23.4564
2006-09-26,23.5547
2006-09-27,23.309
2006-09-28,23.1206
2006-09-29,23.0715
2006-10-02,23.2271
2006-10-03,23.2598
2006-10-04,23.2762
2006-10-05,23.44
2006-10-06,23.3417
2006-10-09,23.3663
2006-10-10,23.2271
2006-10-11,23.4236
2006-10-12,23.2107
2006-10-13,23.0469
2006-10-16,23.0305
2006-10-17,23.0469
2006-10-18,23.0796
2006-10-19,23.0715
2006-10-20,22.8585
2006-10-23,23.0387
2006-10-24,23.1861
2006-10-25,23.4072
2006-10-26,23.8168
2006-10-27,23.7267
2006-10-30,23.7349
2006-10-31,23.7267
2006-11-01,23.7185
2006-11-02,23.5547
2006-11-03,23.3417
2006-11-06,23.8659
2006-11-07,24.0625
2006-11-08,24.2344
2006-11-09,24.3901
2006-11-10,24.4392
2006-11-13,24.5784
2006-11-14,24.2017
2006-11-15,24.3082
2006-11-16,24.3409
2006-11-17,24.431
2006-11-20,24.4064
2006-11-21,24.2754
2006-11-22,25.0125
2006-11-24,24.9961
2006-11-27,24.603
2006-11-28,24.7928
2006-11-29,24.7516
2006-11-30,24.5619
2006-12-01,24.5207
2006-12-04,24.9
2006-12-05,25.5184
2006-12-06,25.337
2006-12-07,25.5101
2006-12-08,25.4936
2006-12-11,25.8234
2006-12-12,25.7904
2006-12-13,25.8894
2006-12-14,26.0378
2006-12-15,26.3841
2006-12-18,26.3593
2006-12-19,26.1615
2006-12-20,26.1615
2006-12-21,26.1202
2006-12-22,25.741
2006-12-26,25.9224
2006-12-27,26.0048
2006-12-28,25.9636
2006-12-29,25.7492
2007-01-03,26.0378
2007-01-04,25.7987
2007-01-05,25.4606
2007-01-08,25.5678
2007-01-09,25.4771
2007-01-10,25.6915
2007-01-11,25.7657
2007-01-12,26.0625
2007-01-16,25.9553
2007-01-17,25.9059
2007-01-18,25.9471
2007-01-19,25.9718
2007-01-22,25.8564
2007-01-23,26.0625
2007-01-24,25.8482
2007-01-25,25.3452
2007-01-26,25.238
2007-01-29,25.4029
2007-01-30,25.5761
2007-01-31,25.7245
2007-02-01,25.9553
2007-02-02,25.8482
2007-02-05,26.0295
2007-02-06,26.0543
2007-02-07,26.2109
2007-02-08,26.4418
2007-02-09,26.1038
2007-02-12,25.8069
2007-02-13,26.2687
2007-02-14,26.3758
2007-02-15,26.2934
2007-02-16,26.2109
2007-02-20,26.3181
2007-02-21,26.145
2007-02-22,25.9966
2007-02-23,25.8399
2007-02-26,25.9059
2007-02-27,24.9494
2007-02-28,25.0154
2007-03-01,24.6856
2007-03-02,24.3476
2007-03-05,24.5718
2007-03-06,25.66
2007-03-07,25.3941
2007-03-08,25.3111
2007-03-09,25.4523
2007-03-12,25.9507
2007-03-13,25.3775
2007-03-14,25.3526
2007-03-15,24.9456
2007-03-16,25.0702
2007-03-19,25.4523
2007-03-20,25.3277
2007-03-21,25.4606
2007-03-22,25.5437
2007-03-23,25.3028
2007-03-26,25.3858
2007-03-27,25.4025
2007-03-28,25.2446
2007-03-29,25.3526
2007-03-30,25.4274
2007-04-02,25.5603
2007-04-03,25.8427
2007-04-04,25.9424
2007-04-05,25.7513
2007-04-09,25.8926
2007-04-10,26.0836
2007-04-11,25.7264
2007-04-12,26.1002
2007-04-13,26.1252
2007-04-16,26.3245
2007-04-17,26.2415
2007-04-18,26.3079
2007-04-19,26.2248
2007-04-20,26.3494
2007-04-23,26.3328
2007-04-24,26.2248
2007-04-25,26.5571
2007-04-26,26.6236
2007-04-27,26.607
2007-04-30,26.4159
2007-05-01,26.5405
2007-05-02,26.4408
2007-05-03,26.6153
2007-05-04,26.5654
2007-05-07,26.4824
2007-05-08,26.4824
2007-05-09,26.4657
2007-05-10,26.1501
2007-05-11,26.4076
2007-05-14,26.4491
2007-05-15,26.3744
2007-05-16,26.582
2007-05-17,26.607
2007-05-18,27.0057
2007-05-21,27.2798
2007-05-22,27.2466
2007-05-23,27.5955
2007-05-24,27.4543
2007-05-25,27.9444
2007-05-29,27.6619
2007-05-30,27.8613
2007-05-31,27.8193
2007-06-01,27.9782
2007-06-04,28.1371
2007-06-05,28.0451
2007-06-06,27.6187
2007-06-07,27.2675
2007-06-08,27.6019
2007-06-11,27.6605
2007-06-12,27.4598
2007-06-13,27.7106
2007-06-14,27.6688
2007-06-15,27.7943
2007-06-18,27.9113
2007-06-19,27.9782
2007-06-20,27.7524
2007-06-21,27.418
2007-06-22,27.1922
2007-06-25,27.2842
2007-06-26,27.3929
2007-06-27,27.6354
2007-06-28,27.7943
2007-06-29,27.8862
2007-07-02,28.6053
2007-07-03,28.6221
2007-07-05,28.5635
2007-07-06,28.9733
2007-07-09,28.6722
2007-07-10,28.5552
2007-07-11,28.5384
2007-07-12,28.898
2007-07-13,28.898
2007-07-16,29.1739
2007-07-17,28.7893
2007-07-18,29.1405
2007-07-19,29.1823
2007-07-20,29.0234
2007-07-23,29.2492
2007-07-24,28.7224
2007-07-25,28.4799
2007-07-26,27.418
2007-07-27,27.3845
2007-07-30,27.4849
2007-07-31,26.4982
2007-08-01,26.7741
2007-08-02,27.1838
2007-08-03,26.3477
2007-08-06,26.7992
2007-08-07,26.8159
2007-08-08,26.6738
2007-08-09,25.7289
2007-08-10,25.6537
2007-08-13,25.9798
2007-08-14,24.9596
2007-08-15,24.784
2007-08-16,24.5416
2007-08-17,25.2941
2007-08-20,25.5031
2007-08-21,25.7791
2007-08-22,26.2557
2007-08-23,26.1219
2007-08-24,26.5818
2007-08-27,26.0885
2007-08-28,25.177
2007-08-29,26.0885
2007-08-30,25.7289
2007-08-31,26.3226
2007-09-04,26.4062
2007-09-05,25.7456
2007-09-06,26.2139
2007-09-07,25.8543
2007-09-10,25.662
2007-09-11,25.9212
2007-09-12,25.5248
2007-09-13,26.0137
2007-09-14,25.8704
2007-09-17,25.9715
2007-09-18,27.0842
2007-09-19,27.5479
2007-09-20,26.4857
2007-09-21,26.7049
2007-09-24,26.0053
2007-09-25,26.0137
2007-09-26,26.2329
2007-09-27,26.1317
2007-09-28,26.5532
2007-10-01,26.157
2007-10-02,26.0053
2007-10-03,25.3225
2007-10-04,26.0305
2007-10-05,25.6175
2007-10-08,26.0053
2007-10-09,25.9125
2007-10-10,25.7186
2007-10-11,25.4068
2007-10-12,25.1792
2007-10-15,24.6902
2007-10-16,24.7577
2007-10-17,25.0443
2007-10-18,24.7998
2007-10-19,24.2098
2007-10-22,24.5216
2007-10-23,24.8083
2007-10-24,24.6228
2007-10-25,24.2519
2007-10-26,24.4289
2007-10-29,24.3531
2007-10-30,23.9569
2007-10-31,24.176
2007-11-01,23.8136
2007-11-02,23.3162
2007-11-05,23.2909
2007-11-06,23.5691
2007-11-07,22.7683
2007-11-08,22.979
2007-11-09,22.5323
2007-11-12,22.7767
2007-11-13,23.527
2007-11-14,22.9959
2007-11-15,22.9875
2007-11-16,22.9622
2007-11-19,22.4143
2007-11-20,22.1361
2007-11-21,21.8495
2007-11-23,22.2372
2007-11-26,22.0181
2007-11-27,22.448
2007-11-28,23.0608
2007-11-29,23.197
2007-11-30,23.3501
2007-12-03,23.0098
2007-12-04,22.7204
2007-12-05,23.1459
2007-12-06,23.0778
2007-12-07,23.1289
2007-12-10,23.0353
2007-12-11,22.5843
2007-12-12,22.3715
2007-12-13,22.5673
2007-12-14,22.2439
2007-12-17,22.2269
2007-12-18,22.1588
2007-12-19,21.9886
2007-12-20,22.1163
2007-12-21,22.4992
2007-12-24,22.78
2007-12-26,22.8821
2007-12-27,22.8906
2007-12-28,23.1289
2007-12-31,23.1629
2008-01-02,22.4737
2008-01-03,22.0567
2008-01-04,21.2738
2008-01-07,21.0611
2008-01-08,20.6952
2008-01-09,20.4229
2008-01-10,20.976
2008-01-11,20.5165
2008-01-14,20.6526
2008-01-15,20.0144
2008-01-16,20.0229
2008-01-17,19.8272
2008-01-18,19.657
2008-01-22,19.4868
2008-01-23,19.606
2008-01-24,20.3718
2008-01-25,20.2952
2008-01-28,21.0441
2008-01-29,21.3079
2008-01-30,21.1547
2008-01-31,21.4525
2008-02-01,21.7078
2008-02-04,21.7504
2008-02-05,20.6867
2008-02-06,20.542
2008-02-07,20.7718
2008-02-08,20.8994
2008-02-11,20.8398
2008-02-12,20.976
2008-02-13,21.6227
2008-02-14,21.3674
2008-02-15,21.5717
2008-02-19,21.3844
2008-02-20,21.461
2008-02-21,20.8568
2008-02-22,21.0441
2008-02-25,21.1717
2008-02-26,21.1121
2008-02-27,20.4229
2008-02-28,20.3973
2008-02-29,19.6063
2008-03-03,19.6751
2008-03-04,19.4945
2008-03-05,19.4687
2008-03-06,18.9785
2008-03-07,18.9098
2008-03-10,18.6002
2008-03-11,19.2623
2008-03-12,18.9785
2008-03-13,18.8754
2008-03-14,18.5572
2008-03-17,18.8066
2008-03-18,19.3569
2008-03-19,19.1849
2008-03-20,19.9073
2008-03-24,19.9933
2008-03-25,19.8471
2008-03-26,19.7267
2008-03-27,19.3139
2008-03-28,18.8582
2008-03-31,19.0129
2008-04-01,19.6149
2008-04-02,19.5891
2008-04-03,19.4343
2008-04-04,19.1935
2008-04-07,19.3311
2008-04-08,19.2193
2008-04-09,18.9098
2008-04-10,18.9871
2008-04-11,18.411
2008-04-14,18.024
2008-04-15,17.9552
2008-04-16,18.2992
2008-04-17,18.6518
2008-04-18,19.1075
2008-04-21,19.0043
2008-04-22,18.9957
2008-04-23,18.3938
2008-04-24,18.9012
2008-04-25,19.1591
2008-04-28,19.4257
2008-04-29,19.9417
2008-04-30,19.8643
2008-05-01,20.6726
2008-05-02,20.922
2008-05-05,20.6468
2008-05-06,21.2144
2008-05-07,21.0768
2008-05-08,21.1714
2008-05-09,20.9564
2008-05-12,21.2831
2008-05-13,21.2402
2008-05-14,21.2745
2008-05-15,20.836
2008-05-16,20.1222
2008-05-19,20.0191
2008-05-20,19.8815
2008-05-21,19.7095
2008-05-22,19.7697
2008-05-23,19.5117
2008-05-27,19.4859
2008-05-28,19.0387
2008-05-29,18.841
2008-05-30,18.7363
2008-06-02,18.9017
2008-06-03,18.7711
2008-06-04,19.041
2008-06-05,19.4067
2008-06-06,18.6318
2008-06-09,18.2922
2008-06-10,18.3793
2008-06-11,17.9614
2008-06-12,17.9266
2008-06-13,18.0049
2008-06-16,18.1529
2008-06-17,17.9875
2008-06-18,17.5609
2008-06-19,17.7786
2008-06-20,17.4129
2008-06-23,17.2823
2008-06-24,17.0908
2008-06-25,17.6044
2008-06-26,17.4216
2008-06-27,17.1865
2008-06-30,16.9427
2008-07-01,16.6903
2008-07-02,16.3159
2008-07-03,16.2549
2008-07-07,15.4626
2008-07-08,15.4888
2008-07-09,15.3756
2008-07-10,15.2102
2008-07-11,14.9664
2008-07-14,14.7139
2008-07-15,14.888
2008-07-16,14.7139
2008-07-17,15.036
2008-07-18,14.7748
2008-07-21,14.5746
2008-07-22,15.0883
2008-07-23,15.7325
2008-07-24,15.1318
2008-07-25,14.8358
2008-07-28,14.4527
2008-07-29,14.9228
2008-07-30,14.7226
2008-07-31,14.1393
2008-08-01,13.9303
2008-08-04,13.9477
2008-08-05,14.3656
2008-08-06,14.5224
2008-08-07,13.9738
2008-08-08,14.5572
2008-08-11,15.3843
2008-08-12,15.0709
2008-08-13,15.0012
2008-08-14,15.7151
2008-08-15,15.6803
2008-08-18,15.3146
2008-08-19,14.6007
2008-08-20,14.3134
2008-08-21,14.3308
2008-08-22,14.5833
2008-08-25,14.3918
2008-08-26,14.2437
2008-08-27,14.296
2008-08-28,14.5833
2008-08-29,14.3268
2008-09-02,14.5126
2008-09-03,14.725
2008-09-04,14.3268
2008-09-05,14.6719
2008-09-08,15.0967
2008-09-09,14.6896
2008-09-10,14.9286
2008-09-11,15.0524
2008-09-12,14.8843
2008-09-15,14.3357
2008-09-16,14.1498
2008-09-17,13.2826
2008-09-18,13.9551
2008-09-19,13.8755
2008-09-22,13.61
2008-09-23,13.1499
2008-09-24,12.9817
2008-09-25,13.4596
2008-09-26,13.6454
2008-09-29,12.5481
2008-09-30,12.8844
2008-10-01,12.734
2008-10-02,12.0349
2008-10-03,11.3358
2008-10-06,11.4685
2008-10-07,10.5394
2008-10-08,10.1058
2008-10-09,9.0881
2008-10-10,7.38021
2008-10-13,7.73418
2008-10-14,8.40672
2008-10-15,7.61914
2008-10-16,7.79612
2008-10-17,8.34477
2008-10-20,8.30937
2008-10-21,8.0085
2008-10-22,7.09704
2008-10-23,7.4687
2008-10-24,6.9289
2008-10-27,6.9112
2008-10-28,7.76957
2008-10-29,7.79612
2008-10-30,8.30052
2008-10-31,8.61025
2008-11-03,8.46866
2008-11-04,8.68104
2008-11-05,8.03505
2008-11-06,7.15898
2008-11-07,7.23862
2008-11-10,7.07934
2008-11-11,6.80501
2008-11-12,5.37145
2008-11-13,5.69002
2008-11-14,5.8493
2008-11-17,5.40685
2008-11-18,5.3449
2008-11-19,4.76086
2008-11-20,3.97328
2008-11-21,4.3361
2008-11-24,5.26526
2008-11-25,5.23871
2008-11-26,5.80506
2008-11-28,5.89355
2008-12-01,5.15907
2008-12-02,5.9385
2008-12-03,6.83855
2008-12-04,6.87566
2008-12-05,6.85711
2008-12-08,7.28394
2008-12-09,6.86638
2008-12-10,7.35817
2008-12-11,7.21898
2008-12-12,7.59014
2008-12-15,7.04268
2008-12-16,7.40456
2008-12-17,7.2097
2008-12-18,6.86638
2008-12-19,7.2097
2008-12-22,6.93134
2008-12-23,6.9035
2008-12-24,6.96845
2008-12-26,7.12619
2008-12-29,6.99629
2008-12-30,7.39528
2008-12-31,7.64581
2009-01-02,8.24894
2009-01-05,8.07264
2009-01-06,8.29533
2009-01-07,7.88706
2009-01-08,8.06336
2009-01-09,7.80355
2009-01-12,7.24682
2009-01-13,7.04268
2009-01-14,6.69936
2009-01-15,6.5973
2009-01-16,6.69936
2009-01-20,6.022
2009-01-21,6.62513
2009-01-22,5.97561
2009-01-23,6.022
2009-01-26,5.66013
2009-01-27,5.69724
2009-01-28,6.04056
2009-01-29,5.5859
2009-01-30,5.30753
2009-02-02,5.37248
2009-02-03,5.41888
2009-02-04,5.34465
2009-02-05,5.55806
2009-02-06,5.91994
2009-02-09,5.75292
2009-02-10,5.27041
2009-02-11,5.43743
2009-02-12,5.44671
2009-02-13,5.39104
2009-02-17,4.84358
2009-02-18,4.73224
2009-02-19,4.62089
2009-02-20,4.53738
2009-02-23,4.55594
2009-02-24,4.80647
2009-02-25,4.60233
2009-02-26,4.24046
2009-02-27,3.97137
2009-03-02,3.68372
2009-03-03,3.36824
2009-03-04,3.57238
2009-03-05,3.17338
2009-03-06,3.11771
2009-03-09,2.91991
2009-03-10,3.36261
2009-03-11,3.53215
2009-03-12,3.76763
2009-03-13,3.6546
2009-03-16,3.6075
2009-03-17,3.89007
2009-03-18,4.15381
2009-03-19,4.08787
2009-03-20,3.77704
2009-03-23,4.16323
2009-03-24,4.21974
2009-03-25,4.14439
2009-03-26,4.42696
2009-03-27,4.34219
2009-03-30,3.57924
2009-03-31,3.6075
2009-04-01,3.66402
2009-04-02,4.37986
2009-04-03,4.58708
2009-04-06,4.63418
2009-04-07,4.54941
2009-04-08,4.72837
2009-04-09,5.05804
2009-04-13,5.13339
2009-04-14,4.88849
2009-04-15,5.02036
2009-04-16,5.27467
2009-04-17,6.30135
2009-04-20,5.42538
2009-04-21,5.80214
2009-04-22,5.54783
2009-04-23,5.46306
2009-04-24,5.83982
2009-04-27,5.64202
2009-04-28,5.51957
2009-04-29,5.97169
2009-04-30,6.63102
2009-05-01,6.76289
2009-05-04,6.74405
2009-05-05,6.93243
2009-05-06,7.49757
2009-05-07,7.52583
2009-05-08,7.99678
2009-05-11,7.20558
2009-05-12,6.65928
2009-05-13,6.13181
2009-05-14,6.41438
2009-05-15,6.30135
2009-05-18,6.91359
2009-05-19,6.79114
2009-05-20,6.8665
2009-05-21,6.51799
2009-05-22,6.59334
2009-05-26,6.76289
2009-05-27,6.58392
2009-05-28,6.58392
2009-05-29,6.91359
2009-06-01,8.23226
2009-06-02,8.15691
2009-06-03,8.29819
2009-06-04,8.38297
2009-06-05,8.26994
2009-06-08,8.18468
2009-06-09,8.23205
2009-06-10,7.88154
2009-06-11,7.7205
2009-06-12,7.7205
2009-06-15,7.40789
2009-06-16,7.0195
2009-06-17,6.95319
2009-06-18,7.00056
2009-06-19,6.94372
2009-06-22,6.49849
2009-06-23,6.43217
2009-06-24,6.669
2009-06-25,6.83951
2009-06-26,6.68795
2009-06-29,6.83951
2009-06-30,6.55532
2009-07-01,6.57427
2009-07-02,6.24271
2009-07-06,5.78801
2009-07-07,5.49435
2009-07-08,5.49435
2009-07-09,5.62697
2009-07-10,5.65539
2009-07-13,5.66486
2009-07-14,5.89221
2009-07-15,6.23324
2009-07-16,6.37534
2009-07-17,6.39428
2009-07-20,7.0195
2009-07-21,6.84899
2009-07-22,6.9153
2009-07-23,7.38895
2009-07-24,7.39842
2009-07-27,7.62577
2009-07-28,7.56894
2009-07-29,7.31316
2009-07-30,7.57841
2009-07-31,7.74892
2009-08-03,8.43098
2009-08-04,8.4594
2009-08-05,8.39309
2009-08-06,8.09942
2009-08-07,10.2309
2009-08-10,10.5529
2009-08-11,10.0414
2009-08-12,10.1361
2009-08-13,9.73825
2009-08-14,9.66247
2009-08-17,9.39723
2009-08-18,9.34986
2009-08-19,9.81404
2009-08-20,9.98455
2009-08-21,10.1551
2009-08-24,10.4393
2009-08-25,10.534
2009-08-26,10.2972
2009-08-27,10.4014
2009-08-28,10.2119
2009-08-31,9.80457
2009-09-01,9.36881
2009-09-02,9.50143
2009-09-03,9.71931
2009-09-04,10.0414
2009-09-08,10.2984
2009-09-09,10.4887
2009-09-10,11.3834
2009-09-11,11.2502
2009-09-14,11.2978
2009-09-15,11.8403
2009-09-16,12.1258
2009-09-17,11.8212
2009-09-18,12.0211
2009-09-21,11.7737
2009-09-22,12.0402
2009-09-23,11.5262
2009-09-24,11.0313
2009-09-25,11.0979
2009-09-28,11.688
2009-09-29,11.7927
2009-09-30,11.4691
2009-10-01,11.0122
2009-10-02,10.9551
2009-10-05,11.2502
2009-10-06,11.5643
2009-10-07,11.5452
2009-10-08,11.945
2009-10-09,11.7546
2009-10-12,11.5643
2009-10-13,11.5833
2009-10-14,11.9164
2009-10-15,12.5732
2009-10-16,12.4589
2009-10-19,13.0681
2009-10-20,13.1537
2009-10-21,12.6017
2009-10-22,12.9253
2009-10-23,12.4209
2009-10-26,12.1544
2009-10-27,11.8308
2009-10-28,11.2026
2009-10-29,12.0116
2009-10-30,11.1931
2009-11-02,11.5262
2009-11-03,11.3929
2009-11-04,11.3263
2009-11-05,12.1639
2009-11-06,12.1544
2009-11-09,12.6493
2009-11-10,12.4018
2009-11-11,12.5922
2009-11-12,12.1734
2009-11-13,12.3733
2009-11-16,13.0776
2009-11-17,13.1823
2009-11-18,13.0681
2009-11-19,12.6779
2009-11-20,12.2305
2009-11-23,12.202
2009-11-24,12.497
2009-11-25,12.8872
2009-11-27,12.5351
2009-11-30,12.1924
2009-12-01,12.5065
2009-12-02,12.3923
2009-12-03,12.1544
2009-12-04,12.8111
2009-12-07,13.2204
2009-12-08,13.3156
2009-12-09,12.9431
2009-12-10,13.2201
2009-12-11,13.4302
2009-12-14,13.4111
2009-12-15,13.4207
2009-12-16,13.6308
2009-12-17,13.1341
2009-12-18,13.2583
2009-12-21,13.2965
2009-12-22,13.2201
2009-12-23,13.3156
2009-12-24,13.2583
2009-12-28,13.2297
2009-12-29,13.7168
2009-12-30,13.6499
2009-12-31,13.4493
2010-01-04,13.6117
2010-01-05,13.5544
2010-01-06,13.1055
2010-01-07,13.3729
2010-01-08,13.4971
2010-01-11,13.4589
2010-01-12,12.9526
2010-01-13,13.3825
2010-01-14,13.1723
2010-01-15,12.6947
2010-01-19,12.8189
2010-01-20,12.9431
2010-01-21,12.5992
2010-01-22,12.6661
2010-01-25,12.7329
2010-01-26,12.7043
2010-01-27,12.6852
2010-01-28,12.5706
2010-01-29,12.3604
2010-02-01,12.6947
2010-02-02,12.5801
2010-02-03,13.1437
2010-02-04,12.4655
2010-02-05,12.3604
2010-02-08,12.1503
2010-02-09,12.4464
2010-02-10,12.1121
2010-02-11,12.1694
2010-02-12,12.3222
2010-02-16,12.6756
2010-02-17,12.8953
2010-02-18,13.115
2010-02-19,13.2105
2010-02-22,12.7329
2010-02-23,12.4368
2010-02-24,12.5992
2010-02-25,12.5515
2010-02-26,12.4177
2010-03-01,12.8285
2010-03-02,12.9049
2010-03-03,13.2488
2010-03-04,13.6022
2010-03-05,13.9938
2010-03-08,14.0416
2010-03-09,13.8499
2010-03-10,14.1182
2010-03-11,14.1757
2010-03-12,13.9936
2010-03-15,13.8594
2010-03-16,14.1566
2010-03-17,13.8978
2010-03-18,13.8019
2010-03-19,13.4281
2010-03-22,13.4952
2010-03-23,13.6773
2010-03-24,13.6582
2010-03-25,13.2939
2010-03-26,13.3419
2010-03-29,13.5336
2010-03-30,13.5336
2010-03-31,13.3706
2010-04-01,13.5911
2010-04-05,14.0128
2010-04-06,13.984
2010-04-07,13.8594
2010-04-08,14.3866
2010-04-09,14.5495
2010-04-12,14.5687
2010-04-13,14.8562
2010-04-14,14.9521
2010-04-15,15.2588
2010-04-16,14.8658
2010-04-19,14.8371
2010-04-20,15.2684
2010-04-21,15.4313
2010-04-22,15.7572
2010-04-23,15.786
2010-04-26,15.6326
2010-04-27,15.2013
2010-04-28,15.4026
2010-04-29,15.7668
2010-04-30,15.5463
2010-05-03,16.0064
2010-05-04,15.5176
2010-05-05,14.9425
2010-05-06,14.3003
2010-05-07,13.6677
2010-05-10,14.7029
2010-05-11,14.4441
2010-05-12,14.7604
2010-05-13,14.4153
2010-05-14,14.0703
2010-05-17,14.6262
2010-05-18,14.2907
2010-05-19,14.3003
2010-05-20,13.2844
2010-05-21,13.7253
2010-05-24,13.3706
2010-05-25,13.3227
2010-05-26,13.5431
2010-05-27,14.1757
2010-05-28,13.9745
2010-06-01,13.5144
2010-06-02,13.9936
2010-06-03,14.147
2010-06-04,13.361
2010-06-07,12.8339
2010-06-08,12.7953
2010-06-09,13.1705
2010-06-10,13.844
2010-06-11,13.8728
2010-06-14,14.0749
2010-06-15,14.7964
2010-06-16,14.5944
2010-06-17,14.5463
2010-06-18,14.3635
2010-06-21,14.2192
2010-06-22,13.8151
2010-06-23,13.9113
2010-06-24,13.2379
2010-06-25,13.5169
2010-06-28,13.7862
2010-06-29,12.7665
2010-06-30,12.449
2010-07-01,12.372
2010-07-02,12.3335
2010-07-06,12.449
2010-07-07,12.8434
2010-07-08,13.3918
2010-07-09,13.5072
2010-07-12,13.5554
2010-07-13,14.0364
2010-07-14,13.7574
2010-07-15,13.8343
2010-07-16,13.0166
2010-07-19,13.3341
2010-07-20,13.3437
2010-07-21,13.1898
2010-07-22,13.6419
2010-07-23,14.0749
2010-07-26,14.4404
2010-07-27,14.3154
2010-07-28,14.0845
2010-07-29,14.123
2010-07-30,14.2288
2010-08-02,14.7002
2010-08-03,14.4212
2010-08-04,15.0562
2010-08-05,14.9215
2010-08-06,14.7772
2010-08-09,14.9503
2010-08-10,14.806
2010-08-11,13.9209
2010-08-12,13.6516
2010-08-13,13.4495
2010-08-16,13.5938
2010-08-17,13.6131
2010-08-18,13.6612
2010-08-19,13.2283
2010-08-20,13.0936
2010-08-23,12.9012
2010-08-24,12.7568
2010-08-25,13.0647
2010-08-26,12.9204
2010-08-27,13.4207
2010-08-30,13.1513
2010-08-31,13.2956
2010-09-01,14.0364
2010-09-02,14.3635
2010-09-03,14.6617
2010-09-07,14.1711
2010-09-08,14.3641
2010-09-09,14.5282
2010-09-10,14.9529
2010-09-13,15.1943
2010-09-14,15.2039
2010-09-15,15.0398
2010-09-16,14.7116
2010-09-17,14.6054
2010-09-20,15.1557
2010-09-21,15.0881
2010-09-22,14.7406
2010-09-23,14.8564
2010-09-24,15.5997
2010-09-27,15.3584
2010-09-28,15.4839
2010-09-29,15.2522
2010-09-30,15.3487
2010-10-01,15.8024
2010-10-04,15.7928
2010-10-05,16.0824
2010-10-06,16.5168
2010-10-07,16.4009
2010-10-08,16.623
2010-10-11,16.9029
2010-10-12,17.2697
2010-10-13,17.2215
2010-10-14,16.9222
2010-10-15,16.9319
2010-10-18,16.8836
2010-10-19,16.5361
2010-10-20,16.9029
2010-10-21,16.6712
2010-10-22,16.5554
2010-10-25,16.6519
2010-10-26,16.4782
2010-10-27,16.2658
2010-10-28,16.2754
2010-10-29,16.3527
2010-11-01,16.4589
2010-11-02,16.7581
2010-11-03,16.6616
2010-11-04,17.0574
2010-11-05,16.4202
2010-11-08,16.2465
2010-11-09,15.7928
2010-11-10,16.2272
2010-11-11,16.4009
2010-11-12,16.0534
2010-11-15,16.1403
2010-11-16,15.6287
2010-11-17,15.648
2010-11-18,15.9665
2010-11-19,15.9086
2010-11-22,15.9086
2010-11-23,15.6673
2010-11-24,15.8604
2010-11-26,15.8507
2010-11-29,15.8411
2010-11-30,16.2465
2010-12-01,16.5554
2010-12-02,16.6905
2010-12-03,16.9029
2010-12-06,17.0188
2010-12-07,17.318
2010-12-08,17.3858
2010-12-09,17.3858
2010-12-10,17.4826
2010-12-13,17.2406
2010-12-14,17.289
2010-12-15,17.2212
2010-12-16,17.4148
2010-12-17,18.1602
2010-12-20,18.3441
2010-12-21,18.6636
2010-12-22,18.9637
2010-12-23,18.7604
2010-12-27,18.6829
2010-12-28,18.4506
2010-12-29,18.5668
2010-12-30,18.4409
2010-12-31,18.4409
2011-01-03,18.6539
2011-01-04,18.8088
2011-01-05,18.5958
2011-01-06,18.8572
2011-01-07,18.6539
2011-01-10,19.1476
2011-01-11,19.0121
2011-01-12,19.1573
2011-01-13,19.225
2011-01-14,19.2928
2011-01-18,19.8252
2011-01-19,19.5638
2011-01-20,19.8446
2011-01-21,20.0382
2011-01-24,20.1253
2011-01-25,19.9414
2011-01-26,19.9317
2011-01-27,19.6219
2011-01-28,18.6732
2011-01-31,19.196
2011-02-01,19.2928
2011-02-02,19.3218
2011-02-03,19.5929
2011-02-04,19.5735
2011-02-07,20.1446
2011-02-08,20.4157
2011-02-09,20.8513
2011-02-10,20.9191
2011-02-11,21.2482
2011-02-14,21.0352
2011-02-15,20.9578
2011-02-16,21.3934
2011-02-17,21.587
2011-02-18,22.1775
2011-02-22,21.2772
2011-02-23,21.0546
2011-02-24,21.345
2011-02-25,22.7777
2011-02-28,23.1165
2011-03-01,22.4389
2011-03-02,23.1262
2011-03-03,23.5618
2011-03-04,23.1649
2011-03-07,22.8454
2011-03-08,22.9519
2011-03-09,23.3012
2011-03-10,23.0102
2011-03-11,23.0878
2011-03-14,22.8937
2011-03-15,22.4572
2011-03-16,22.1565
2011-03-17,22.5542
2011-03-18,22.5542
2011-03-21,23.7765
2011-03-22,23.9511
2011-03-23,24.1354
2011-03-24,24.3295
2011-03-25,23.9608
2011-03-28,23.6989
2011-03-29,24.5429
2011-03-30,25.3383
2011-03-31,24.2907
2011-04-01,24.0578
2011-04-04,24.3004
2011-04-05,24.2907
2011-04-06,23.7668
2011-04-07,23.8056
2011-04-08,23.5243
2011-04-11,23.7183
2011-04-12,23.6213
2011-04-13,23.728
2011-04-14,23.5146
2011-04-15,23.5922
2011-04-18,23.3303
2011-04-19,23.2915
2011-04-20,23.8735
2011-04-21,24.0481
2011-04-25,23.9317
2011-04-26,23.9414
2011-04-27,24.116
2011-04-28,24.5041
2011-04-29,24.4556
2011-05-02,24.8727
2011-05-03,24.4944
2011-05-04,26.386
2011-05-05,25.9107
2011-05-06,25.7943
2011-05-09,25.8137
2011-05-10,26.7061
2011-05-11,26.1047
2011-05-12,25.6585
2011-05-13,25.1734
2011-05-16,24.7466
2011-05-17,25.2995
2011-05-18,26.2502
2011-05-19,26.5412
2011-05-20,26.2211
2011-05-23,25.9107
2011-05-24,25.542
2011-05-25,25.542
2011-05-26,26.5509
2011-05-27,27.1621
2011-05-31,27.0942
2011-06-01,26.1532
2011-06-02,26.5218
2011-06-03,26.3957
2011-06-06,25.6682
2011-06-07,25.7458
2011-06-08,25.6776
2011-06-09,26.0378
2011-06-10,25.512
2011-06-13,25.142
2011-06-14,25.5023
2011-06-15,25.0154
2011-06-16,24.7038
2011-06-17,25.2199
2011-06-20,25.697
2011-06-21,26.1839
2011-06-22,25.9697
2011-06-23,25.9989
2011-06-24,26.0671
2011-06-27,26.6416
2011-06-28,27.4011
2011-06-29,27.625
2011-06-30,27.7614
2011-07-01,27.7906
2011-07-05,27.81
2011-07-06,27.7711
2011-07-07,28.219
2011-07-08,27.9366
2011-07-11,27.2161
2011-07-12,26.9824
2011-07-13,27.255
2011-07-14,26.661
2011-07-15,26.9629
2011-07-18,26.6318
2011-07-19,27.2161
2011-07-20,28.0048
2011-07-21,28.4819
2011-07-22,28.774
2011-07-25,28.3748
2011-07-26,28.0437
2011-07-27,27.3719
2011-07-28,27.2161
2011-07-29,26.7097
2011-08-01,26.5637
2011-08-02,25.6191
2011-08-03,25.9892
2011-08-04,23.5743
2011-08-05,23.175
2011-08-08,20.6628
2011-08-09,23.7301
2011-08-10,22.4642
2011-08-11,24.0417
2011-08-12,24.2948
2011-08-15,24.3338
2011-08-16,24.1585
2011-08-17,24.2267
2011-08-18,21.8702
2011-08-19,21.471
2011-08-22,21.5197
2011-08-23,22.6882
2011-08-24,22.5811
2011-08-25,22.0552
2011-08-26,22.5713
2011-08-29,23.8469
2011-08-30,24.3922
2011-08-31,24.3338
2011-09-01,24.1488
2011-09-02,22.7661
2011-09-06,22.3863
2011-09-07,23.1102
2011-09-08,22.5625
2011-09-09,21.6823
2011-09-12,21.7214
2011-09-13,22.4745
2011-09-14,22.9146
2011-09-15,23.3449
2011-09-16,23.6481
2011-09-19,23.9708
2011-09-20,23.2569
2011-09-21,22.2496
2011-09-22,20.6847
2011-09-23,20.9684
2011-09-26,21.5356
2011-09-27,21.7019
2011-09-28,20.7825
2011-09-29,20.4696
2011-09-30,19.9708
2011-10-03,18.582
2011-10-04,19.1786
2011-10-05,20.3816
2011-10-06,21.1835
2011-10-07,21.0271
2011-10-10,22.3669
2011-10-11,22.543
2011-10-12,22.9635
2011-10-13,22.9831
2011-10-14,23.0711
2011-10-17,22.2985
2011-10-18,23.2765
2011-10-19,22.807
2011-10-20,23.5405
2011-10-21,24.3523
2011-10-24,24.9977
2011-10-25,24.0393
2011-10-26,24.6261
2011-10-27,25.3987
2011-10-28,25.2325
2011-10-31,25.2814
2011-11-01,24.0491
2011-11-02,24.4305
2011-11-03,23.9513
2011-11-04,24.5968
2011-11-07,24.6652
2011-11-08,25.2911
2011-11-09,24.0197
2011-11-10,24.5283
2011-11-11,25.6726
2011-11-14,25.4965
2011-11-15,24.9293
2011-11-16,24.4892
2011-11-17,24.1273
2011-11-18,24.2349
2011-11-21,23.5992
2011-11-22,23.7361
2011-11-23,22.9733
2011-11-25,23.2276
2011-11-28,23.8241
2011-11-29,24.098
2011-11-30,25.4476
2011-12-01,24.8315
2011-12-02,25.0466
2011-12-05,25.0955
2011-12-06,25.6823
2011-12-07,25.9868
2011-12-08,25.1425
2011-12-09,26.1929
2011-12-12,25.7904
2011-12-13,25.0738
2011-12-14,24.5927
2011-12-15,24.2589
2011-12-16,24.3964
2011-12-19,24.1607
2011-12-20,25.3683
2011-12-21,25.6432
2011-12-22,25.9279
2011-12-23,26.3991
2011-12-27,26.566
2011-12-28,26.4089
2011-12-29,26.7427
2011-12-30,26.6544
2012-01-03,26.7624
2012-01-04,27.3514
2012-01-05,27.4692
2012-01-06,27.263
2012-01-09,27.3318
2012-01-10,28.0681
2012-01-11,27.6165
2012-01-12,27.5772
2012-01-13,27.214
2012-01-17,27.5772
2012-01-18,27.7932
2012-01-19,28.2841
2012-01-20,27.5183
2012-01-23,28.3331
2012-01-24,28.1172
2012-01-25,28.2448
2012-01-26,28.1859
2012-01-27,28.3528
2012-01-30,28.1172
2012-01-31,27.9797
2012-02-01,28.4019
2012-02-02,28.5688
2012-02-03,28.9516
2012-02-06,29.0793
2012-02-07,29.3542
2012-02-08,29.1971
2012-02-09,29.2462
2012-02-10,29.3247
2012-02-13,29.6487
2012-02-14,29.2167
2012-02-15,29.0007
2012-02-16,28.7553
2012-02-17,29.0596
2012-02-21,29.0007
2012-02-22,28.8927
2012-02-23,28.8731
2012-02-24,29.2265
2012-02-27,29.3345
2012-02-28,29.4523
2012-02-29,29.3542
2012-03-01,29.8058
2012-03-02,29.737
2012-03-05,29.3051
2012-03-06,28.5786
2012-03-07,29.2462
2012-03-08,30.0736
2012-03-09,30.3297
2012-03-12,30.1327
2012-03-13,30.8321
2012-03-14,30.9405
2012-03-15,31.0193
2012-03-16,31.1178
2012-03-19,31.3345
2012-03-20,31.2064
2012-03-21,31.0981
2012-03-22,30.9602
2012-03-23,31.3936
2012-03-26,31.9452
2012-03-27,31.9157
2012-03-28,31.7581
2012-03-29,32.3491
2012-03-30,33.3932
2012-04-02,33.2258
2012-04-03,33.3637
2012-04-04,32.4969
2012-04-05,32.8318
2012-04-09,32.0536
2012-04-10,30.8617
2012-04-11,31.167
2012-04-12,31.6793
2012-04-13,32.0043
2012-04-16,31.8467
2012-04-17,32.3392
2012-04-18,32.4771
2012-04-19,32.8121
2012-04-20,32.7924
2012-04-23,32.1915
2012-04-24,32.0536
2012-04-25,32.7628
2012-04-26,33.6297
2012-04-27,33.8267
2012-04-30,32.8909
2012-05-01,32.9106
2012-05-02,33.6789
2012-05-03,33.5312
2012-05-04,32.7333
2012-05-07,32.4673
2012-05-08,32.4279
2012-05-09,32.4969
2012-05-10,32.487
2012-05-11,32.3294
2012-05-14,31.2655
2012-05-15,31.5413
2012-05-16,31.3246
2012-05-17,29.6205
2012-05-18,30.0835
2012-05-21,31.0587
2012-05-22,30.6942
2012-05-23,30.9897
2012-05-24,31.167
2012-05-25,31.0685
2012-05-29,31.8664
2012-05-30,31.0882
2012-05-31,31.4527
2012-06-01,29.9062
2012-06-04,30.1918
2012-06-05,31.0193
2012-06-06,31.433
2012-06-07,31.4033
2012-06-08,31.8282
2012-06-11,31.1859
2012-06-12,32.0653
2012-06-13,30.9685
2012-06-14,31.3341
2012-06-15,31.2452
2012-06-18,31.2551
2012-06-19,31.5614
2012-06-20,31.6207
2012-06-21,31.3736
2012-06-22,30.9981
2012-06-25,30.7412
2012-06-26,31.2254
2012-06-27,31.5812
2012-06-28,31.3736
2012-06-29,32.3321
2012-07-02,32.5989
2012-07-03,32.431
2012-07-05,32.2037
2012-07-06,32.2037
2012-07-09,31.8084
2012-07-10,31.2155
2012-07-11,30.5634
2012-07-12,30.2373
2012-07-13,30.929
2012-07-16,31.1365
2012-07-17,31.6108
2012-07-18,31.1958
2012-07-19,31.4033
2012-07-20,31.097
2012-07-23,30.5238
2012-07-24,30.5634
2012-07-25,30.7116
2012-07-26,32.263
2012-07-27,33.1622
2012-07-30,33.1424
2012-07-31,33.1128
2012-08-01,32.7571
2012-08-02,32.6681
2012-08-03,34.6049
2012-08-06,35.01
2012-08-07,35.2175
2012-08-08,35.1978
2012-08-09,35.1187
2012-08-10,35.2966
2012-08-13,35.178
2012-08-14,35.4942
2012-08-15,35.593
2012-08-16,35.6029
2012-08-17,35.4942
2012-08-20,35.6326
2012-08-21,35.8302
2012-08-22,35.6326
2012-08-23,35.4745
2012-08-24,36.0871
2012-08-27,35.9982
2012-08-28,35.8401
2012-08-29,35.761
2012-08-30,35.4942
2012-08-31,35.9092
2012-09-04,35.514
2012-09-05,35.1484
2012-09-06,36.358
2012-09-07,36.6456
2012-09-10,36.4869
2012-09-11,36.4374
2012-09-12,35.8623
2012-09-13,36.6059
2012-09-14,36.7249
2012-09-17,36.6456
2012-09-18,36.2787
2012-09-19,36.6753
2012-09-20,36.2985
2012-09-21,37.6073
2012-09-24,36.9133
2012-09-25,36.0011
2012-09-26,35.2476
2012-09-27,35.6541
2012-09-28,36.0308
2012-10-01,35.2079
2012-10-02,34.6725
2012-10-03,34.5535
2012-10-04,35.6937
2012-10-05,36.13
2012-10-08,35.9218
2012-10-09,34.5833
2012-10-10,34.2957
2012-10-11,33.5719
2012-10-12,33.5224
2012-10-15,33.7802
2012-10-16,33.8099
2012-10-17,34.1173
2012-10-18,33.7603
2012-10-19,33.4232
2012-10-22,33.6215
2012-10-23,33.0663
2012-10-24,32.7986
2012-10-25,33.0266
2012-10-26,32.5606
2012-10-31,32.1343
2012-11-01,33.1456
2012-11-02,32.9671
2012-11-05,33.7802
2012-11-06,34.1073
2012-11-07,33.7702
2012-11-08,34.028
2012-11-09,34.5337
2012-11-12,34.2263
2012-11-13,34.0776
2012-11-14,33.0564
2012-11-15,33.1159
2012-11-16,33.3736
2012-11-19,34.1073
2012-11-20,34.4445
2012-11-21,34.5238
2012-11-23,34.5139
2012-11-26,35.2178
2012-11-27,34.4544
2012-11-28,35.0096
2012-11-29,35.2178
2012-11-30,35.7433
2012-12-03,35.3368
2012-12-04,35.5748
2012-12-05,35.1088
2012-12-06,35.3467
2012-12-07,35.7148
2012-12-10,35.6949
2012-12-11,35.6551
2012-12-12,35.9038
2012-12-13,35.297
2012-12-14,34.6404
2012-12-17,35.5556
2012-12-18,36.1923
2012-12-19,36.2421
2012-12-20,37.3165
2012-12-21,37.0578
2012-12-24,37.2767
2012-12-26,37.1474
2012-12-27,37.0976
2012-12-28,36.7196
2012-12-31,37.8239
2013-01-02,39.0475
2013-01-03,38.7989
2013-01-04,38.4407
2013-01-07,38.0427
2013-01-08,37.3264
2013-01-09,37.7741
2013-01-10,38.3114
2013-01-11,38.3412
2013-01-14,38.0029
2013-01-15,37.9134
2013-01-16,37.7543
2013-01-17,40.7785
2013-01-18,40.2414
2013-01-22,41.6341
2013-01-23,42.0221
2013-01-24,41.7237
2013-01-25,41.9127
2013-01-28,42.1713
2013-01-29,41.9226
2013-01-30,41.7983
2013-01-31,41.5346
2013-02-01,42.1763
2013-02-04,41.6441
2013-02-05,42.1216
2013-02-06,41.7435
2013-02-07,42.2012
2013-02-08,42.5643
2013-02-11,42.0818
2013-02-12,42.9672
2013-02-13,42.4897
2013-02-14,42.7085
2013-02-15,44.4097
2013-02-19,44.6385
2013-02-20,43.6039
2013-02-21,43.196
2013-02-22,43.1562
2013-02-25,42.2211
2013-02-26,42.2609
2013-02-27,43.5541
2013-02-28,43.196
2013-03-01,43.2756
2013-03-04,43.5641
2013-03-05,44.5888
2013-03-06,44.5192
2013-03-07,44.8681
2013-03-08,45.8756
2013-03-11,45.7659
2013-03-12,45.8058
2013-03-13,45.8158
2013-03-14,46.8232
2013-03-15,46.6437
2013-03-18,46.4342
2013-03-19,45.6462
2013-03-20,46.125
2013-03-21,45.7858
2013-03-22,45.8257
2013-03-25,45.327
2013-03-26,45.5764
2013-03-27,46.0053
2013-03-28,46.6038
2013-04-01,45.6362
2013-04-02,45.3769
2013-04-03,44.7384
2013-04-04,44.7983
2013-04-05,45.0576
2013-04-08,46.0651
2013-04-09,45.7759
2013-04-10,46.4741
2013-04-11,46.1649
2013-04-12,46.4442
2013-04-15,44.938
2013-04-16,46.0951
2013-04-17,45.4267
2013-04-18,44.5888
2013-04-19,45.9754
2013-04-22,46.8532
2013-04-23,46.6237
2013-04-24,45.8856
2013-04-25,45.8457
2013-04-26,46.1848
2013-04-29,46.105
2013-04-30,45.6961
2013-05-01,46.2347
2013-05-02,47.3021
2013-05-03,47.2223
2013-05-06,47.0527
2013-05-07,47.4916
2013-05-08,46.8033
2013-05-09,46.7833
2013-05-10,47.5814
2013-05-13,48.8781
2013-05-14,49.9056
2013-05-15,50.2647
2013-05-16,49.4766
2013-05-17,51.352
2013-05-20,50.8731
2013-05-21,50.923
2013-05-22,51.1026
2013-05-23,50.953
2013-05-24,50.534
2013-05-28,51.2023
2013-05-29,50.3744
2013-05-30,50.2048
2013-05-31,49.4567
2013-06-03,49.3968
2013-06-04,48.9879
2013-06-05,48.1898
2013-06-06,48.82
2013-06-07,48.06
2013-06-10,47.75
2013-06-11,47.08
2013-06-12,45.95
2013-06-13,47.41
2013-06-14,47.75
2013-06-17,47.77
2013-06-18,48.74
2013-06-19,48.45
2013-06-20,46.97
2013-06-21,46.92
2013-06-24,46.72
2013-06-25,47.97
2013-06-26,48.47
2013-06-27,48.79
2013-06-28,48.92
2013-07-01,48.69
2013-07-02,49.08
2013-07-03,49.76
2013-07-05,50.0
2013-07-08,50.8
2013-07-09,51.32
2013-07-10,51.16
2013-07-11,51.45
2013-07-12,52.87
2013-07-15,53.12
2013-07-16,52.63
2013-07-17,52.64
2013-07-18,53.58
2013-07-19,52.49
2013-07-22,52.52
2013-07-23,52.47
2013-07-24,52.46
2013-07-25,52.48
2013-07-26,53.49
2013-07-29,52.39
2013-07-30,52.33
2013-07-31,52.81
2013-08-01,54.85
2013-08-02,54.46
2013-08-05,53.82
2013-08-06,54.0
2013-08-07,53.63
2013-08-08,54.08
2013-08-09,53.54
