date,close_price
1998-01-02,0.719166
1998-01-05,0.75
1998-01-06,0.75
1998-01-07,0.8025
1998-01-08,0.760833
1998-01-09,0.729166
1998-01-12,0.74
1998-01-13,0.719166
1998-01-14,0.729166
1998-01-15,0.6875
1998-01-16,0.719166
1998-01-20,0.75
1998-01-21,0.729166
1998-01-22,0.724166
1998-01-23,0.698333
1998-01-26,0.666666
1998-01-27,0.671666
1998-01-28,0.698333
1998-01-29,0.719166
1998-01-30,0.713333
1998-02-02,0.698333
1998-02-03,0.698333
1998-02-04,0.6825
1998-02-05,0.6775
1998-02-06,0.656666
1998-02-09,0.666666
1998-02-10,0.6825
1998-02-11,0.661666
1998-02-12,0.645833
1998-02-13,0.640833
1998-02-17,0.635833
1998-02-18,0.588333
1998-02-19,0.640833
1998-02-20,0.719166
1998-02-23,0.760833
1998-02-24,0.719166
1998-02-25,0.729166
1998-02-26,0.75
1998-02-27,0.74
1998-03-02,0.698333
1998-03-03,0.75
1998-03-04,0.770833
1998-03-05,0.760833
1998-03-06,0.75
1998-03-09,0.75
1998-03-10,0.74
1998-03-11,0.74
1998-03-12,0.760833
1998-03-13,0.719166
1998-03-16,0.75
1998-03-17,0.75
1998-03-18,0.745
1998-03-19,0.770833
1998-03-20,0.854166
1998-03-23,0.854166
1998-03-24,0.865
1998-03-25,0.9375
1998-03-26,0.9375
1998-03-27,0.916666
1998-03-30,0.916666
1998-03-31,0.900833
1998-04-01,0.865
1998-04-02,0.849166
1998-04-03,0.833333
1998-04-06,0.844166
1998-04-07,0.895833
1998-04-08,0.890833
1998-04-09,0.885833
1998-04-13,0.87
1998-04-14,0.87
1998-04-15,0.865
1998-04-16,0.865
1998-04-17,0.875
1998-04-20,0.854166
1998-04-21,0.885833
1998-04-22,0.844166
1998-04-23,0.823333
1998-04-24,0.8125
1998-04-27,0.75
1998-04-28,0.770833
1998-04-29,0.791666
1998-04-30,0.838333
1998-05-01,0.823333
1998-05-04,0.916666
1998-05-05,0.875
1998-05-06,0.844166
1998-05-07,0.844166
1998-05-08,0.906666
1998-05-11,0.895833
1998-05-12,0.895833
1998-05-13,0.906666
1998-05-14,0.875
1998-05-15,0.865
1998-05-18,0.844166
1998-05-19,0.833333
1998-05-20,0.823333
1998-05-21,0.828333
1998-05-22,0.8125
1998-05-26,0.844166
1998-05-27,0.786666
1998-05-28,0.770833
1998-05-29,0.828333
1998-06-01,0.828333
1998-06-02,0.823333
1998-06-03,0.823333
1998-06-04,0.8125
1998-06-05,0.833333
1998-06-08,0.8175
1998-06-09,0.8025
1998-06-10,0.833333
1998-06-11,0.8125
1998-06-12,0.8075
1998-06-15,0.796666
1998-06-16,0.791666
1998-06-17,0.781666
1998-06-18,0.823333
1998-06-19,0.854166
1998-06-22,0.875
1998-06-23,0.890833
1998-06-24,0.916666
1998-06-25,0.900833
1998-06-26,0.875
1998-06-29,0.844166
1998-06-30,0.885833
1998-07-01,0.906666
1998-07-02,0.865
1998-07-06,0.854166
1998-07-07,0.885833
1998-07-08,0.895833
1998-07-09,1.03167
1998-07-10,1.09417
1998-07-13,1.0575
1998-07-14,1.10417
1998-07-15,1.1775
1998-07-16,1.04667
1998-07-17,1.0
1998-07-20,0.9275
1998-07-21,0.9375
1998-07-22,0.87
1998-07-23,0.875
1998-07-24,0.87
1998-07-27,0.854166
1998-07-28,0.838333
1998-07-29,0.775833
1998-07-30,0.8175
1998-07-31,0.823333
1998-08-03,0.796666
1998-08-04,0.75
1998-08-05,0.729166
1998-08-06,0.765833
1998-08-07,0.849166
1998-08-10,0.8125
1998-08-11,0.770833
1998-08-12,0.8125
1998-08-13,0.8025
1998-08-14,0.770833
1998-08-17,0.75
1998-08-18,0.760833
1998-08-19,0.781666
1998-08-20,0.781666
1998-08-21,0.794166
1998-08-24,0.823333
1998-08-25,0.828333
1998-08-26,0.8025
1998-08-27,0.724166
1998-08-28,0.6925
1998-08-31,0.5
1998-09-01,0.448333
1998-09-02,0.536666
1998-09-03,0.62
1998-09-04,0.666666
1998-09-08,0.6775
1998-09-09,0.640833
1998-09-10,0.583333
1998-09-11,0.635833
1998-09-14,0.640833
1998-09-15,0.703333
1998-09-16,0.770833
1998-09-17,0.729166
1998-09-18,0.708333
1998-09-21,0.719166
1998-09-22,0.713333
1998-09-23,0.6875
1998-09-24,0.74
1998-09-25,0.75
1998-09-28,0.770833
1998-09-29,0.833333
1998-09-30,0.8175
1998-10-01,0.8125
1998-10-02,0.823333
1998-10-05,0.781666
1998-10-06,0.786666
1998-10-07,0.708333
1998-10-08,0.671666
1998-10-09,0.698333
1998-10-12,0.781666
1998-10-13,0.760833
1998-10-14,0.729166
1998-10-15,0.760833
1998-10-16,0.729166
1998-10-19,0.698333
1998-10-20,0.74
1998-10-21,0.724166
1998-10-22,0.6925
1998-10-23,0.698333
1998-10-26,0.6825
1998-10-27,0.6775
1998-10-28,0.656666
1998-10-29,0.671666
1998-10-30,0.671666
1998-11-02,0.713333
1998-11-03,0.6875
1998-11-04,0.666666
1998-11-05,0.656666
1998-11-06,0.640833
1998-11-09,0.645833
1998-11-10,0.708333
1998-11-11,0.781666
1998-11-12,0.719166
1998-11-13,0.755
1998-11-16,0.745
1998-11-17,0.745
1998-11-18,0.724166
1998-11-19,0.724166
1998-11-20,0.75
1998-11-23,0.729166
1998-11-24,0.734166
1998-11-25,0.724166
1998-11-27,0.6925
1998-11-30,0.6875
1998-12-01,0.6775
1998-12-02,0.8025
1998-12-03,0.781666
1998-12-04,0.921666
1998-12-07,0.958333
1998-12-08,0.849166
1998-12-09,0.885833
1998-12-10,0.974166
1998-12-11,0.99
1998-12-14,0.948333
1998-12-15,1.08833
1998-12-16,1.09417
1998-12-17,1.13583
1998-12-18,1.245
1998-12-21,1.29167
1998-12-22,1.3075
1998-12-23,1.38
1998-12-24,1.38583
1998-12-28,1.24
1998-12-29,1.28167
1998-12-30,1.22917
1998-12-31,1.27083
1999-01-04,1.37
1999-01-05,1.3075
1999-01-06,1.33333
1999-01-07,1.40083
1999-01-08,1.49
1999-01-11,1.365
1999-01-12,1.365
1999-01-13,1.4375
1999-01-14,1.4275
1999-01-15,1.46917
1999-01-19,1.48417
1999-01-20,1.40667
1999-01-21,1.38583
1999-01-22,1.375
1999-01-25,1.37
1999-01-26,1.29167
1999-01-27,1.26583
1999-01-28,1.255
1999-01-29,1.26083
1999-02-01,1.25
1999-02-02,1.25
1999-02-03,1.25
1999-02-04,1.22917
1999-02-05,1.22917
1999-02-08,1.13
1999-02-09,1.005
1999-02-10,1.04167
1999-02-11,1.13583
1999-02-12,1.13
1999-02-16,1.13
1999-02-17,1.14583
1999-02-18,1.1875
1999-02-19,1.14583
1999-02-22,1.19833
1999-02-23,1.14583
1999-02-24,1.13583
1999-02-25,1.115
1999-02-26,1.07833
1999-03-01,1.0675
1999-03-02,0.9425
1999-03-03,1.03667
1999-03-04,1.02083
1999-03-05,1.07333
1999-03-08,1.15667
1999-03-09,1.09417
1999-03-10,1.09417
1999-03-11,1.08833
1999-03-12,1.08333
1999-03-15,1.09917
1999-03-16,1.115
1999-03-17,1.04667
1999-03-18,1.08833
1999-03-19,1.125
1999-03-22,1.15667
1999-03-23,1.13583
1999-03-24,1.0525
1999-03-25,1.09417
1999-03-26,1.1775
1999-03-29,1.15667
1999-03-30,1.21917
1999-03-31,1.33333
1999-04-01,1.29667
1999-04-05,1.41167
1999-04-06,1.39083
1999-04-07,1.38583
1999-04-08,1.35917
1999-04-09,1.33833
1999-04-12,1.375
1999-04-13,1.44833
1999-04-14,1.5
1999-04-15,1.47917
1999-04-16,1.53167
1999-04-19,1.5
1999-04-20,1.5
1999-04-21,1.5625
1999-04-22,1.5625
1999-04-23,1.59917
1999-04-26,1.62
1999-04-27,1.615
1999-04-28,1.58333
1999-04-29,1.57833
1999-04-30,1.57833
1999-05-03,1.57333
1999-05-04,1.4425
1999-05-05,1.4375
1999-05-06,1.35917
1999-05-07,1.38
1999-05-10,1.365
1999-05-11,1.48417
1999-05-12,1.5
1999-05-13,1.54667
1999-05-14,1.62
1999-05-17,1.58833
1999-05-18,1.49
1999-05-19,1.45833
1999-05-20,1.48417
1999-05-21,1.4375
1999-05-24,1.365
1999-05-25,1.3075
1999-05-26,1.32333
1999-05-27,1.3025
1999-05-28,1.35417
1999-06-01,1.3025
1999-06-02,1.33833
1999-06-03,1.365
1999-06-04,1.35417
1999-06-07,1.40667
1999-06-08,1.41667
1999-06-09,1.44833
1999-06-10,1.42167
1999-06-11,1.4275
1999-06-14,1.4275
1999-06-15,1.365
1999-06-16,1.33833
1999-06-17,1.34917
1999-06-18,1.33333
1999-06-21,1.33333
1999-06-22,1.3025
1999-06-23,1.33333
1999-06-24,1.33833
1999-06-25,1.32333
1999-06-28,1.375
1999-06-29,1.44833
1999-06-30,1.47417
1999-07-01,1.47917
1999-07-02,1.45833
1999-07-06,1.47917
1999-07-07,1.44833
1999-07-08,1.46917
1999-07-09,1.39583
1999-07-12,1.41667
1999-07-13,1.42167
1999-07-14,1.41667
1999-07-15,1.37
1999-07-16,1.35917
1999-07-19,1.35917
1999-07-20,1.35417
1999-07-21,1.3025
1999-07-22,1.32833
1999-07-23,1.32833
1999-07-26,1.26083
1999-07-27,1.33333
1999-07-28,1.34917
1999-07-29,1.33333
1999-07-30,1.3125
1999-08-02,1.32833
1999-08-03,1.28167
1999-08-04,1.25
1999-08-05,1.26083
1999-08-06,1.28167
1999-08-09,1.3075
1999-08-10,1.3125
1999-08-11,1.21917
1999-08-12,1.29667
1999-08-13,1.29167
1999-08-16,1.32333
1999-08-17,1.33333
1999-08-18,1.34417
1999-08-19,1.35417
1999-08-20,1.33333
1999-08-23,1.375
1999-08-24,1.39083
1999-08-25,1.39583
1999-08-26,1.54167
1999-08-27,1.46917
1999-08-30,1.49
1999-08-31,1.4275
1999-09-01,1.44833
1999-09-02,1.51083
1999-09-03,1.60417
1999-09-07,1.88583
1999-09-08,1.995
1999-09-09,1.84417
1999-09-10,2.14583
1999-09-13,2.1925
1999-09-14,2.365
1999-09-15,2.3075
1999-09-16,2.0675
1999-09-17,2.125
1999-09-20,2.23417
1999-09-21,2.245
1999-09-22,2.3025
1999-09-23,2.125
1999-09-24,2.07333
1999-09-27,2.25
1999-09-28,2.29167
1999-09-29,2.28667
1999-09-30,2.255
1999-10-01,2.22417
1999-10-04,2.32333
1999-10-05,2.4275
1999-10-06,2.26083
1999-10-07,2.1925
1999-10-08,2.22917
1999-10-11,2.16667
1999-10-12,2.1775
1999-10-13,2.16167
1999-10-14,2.33333
1999-10-15,2.40083
1999-10-18,2.20833
1999-10-19,2.20833
1999-10-20,2.21333
1999-10-21,2.16167
1999-10-22,2.25
1999-10-25,2.41167
1999-10-26,2.33333
1999-10-27,2.46333
1999-10-28,2.37
1999-10-29,2.53167
1999-11-01,2.78417
1999-11-02,2.60417
1999-11-03,2.91667
1999-11-04,3.0
1999-11-05,2.97917
1999-11-08,3.09417
1999-11-09,3.20333
1999-11-10,3.495
1999-11-11,3.5
1999-11-12,3.33333
1999-11-15,3.41667
1999-11-16,3.4275
1999-11-17,3.99
1999-11-18,4.0675
1999-11-19,4.5
1999-11-22,5.21333
1999-11-23,5.20833
1999-11-24,4.95833
1999-11-26,4.755
1999-11-29,4.8175
1999-11-30,4.97916
1999-12-01,5.29666
1999-12-02,5.20833
1999-12-03,5.26083
1999-12-06,5.21916
1999-12-07,4.94833
1999-12-08,4.74
1999-12-09,4.57333
1999-12-10,4.58333
1999-12-13,4.53666
1999-12-14,4.78166
1999-12-15,4.9275
1999-12-16,5.125
1999-12-17,5.255
1999-12-20,5.21916
1999-12-21,5.1875
1999-12-22,5.29166
1999-12-23,5.72916
1999-12-27,5.70833
1999-12-28,5.83333
1999-12-29,5.9375
1999-12-30,5.78666
1999-12-31,5.83333
2000-01-03,5.63583
2000-01-04,5.19833
2000-01-05,5.24
2000-01-06,5.125
2000-01-07,5.12
2000-01-10,5.08333
2000-01-11,4.89083
2000-01-12,4.72916
2000-01-13,4.97916
2000-01-14,5.29666
2000-01-18,5.29166
2000-01-19,5.25
2000-01-20,5.60416
2000-01-21,5.4275
2000-01-24,5.6875
2000-01-25,5.5625
2000-01-26,6.745
2000-01-27,6.27083
2000-01-28,6.0675
2000-01-31,5.85416
2000-02-01,5.95833
2000-02-02,6.22916
2000-02-03,6.44833
2000-02-04,7.49
2000-02-07,7.96916
2000-02-08,8.39416
2000-02-09,8.97916
2000-02-10,8.625
2000-02-11,9.865
2000-02-14,9.65666
2000-02-15,9.4375
2000-02-16,11.2692
2000-02-17,11.8767
2000-02-18,11.3125
2000-02-22,11.25
2000-02-23,11.75
2000-02-24,11.6667
2000-02-25,11.9792
2000-02-28,13.3333
2000-02-29,13.8542
2000-03-01,13.865
2000-03-02,14.1667
2000-03-03,15.0
2000-03-06,15.2967
2000-03-07,14.8542
2000-03-08,14.1667
2000-03-09,14.7708
2000-03-10,14.0417
2000-03-13,13.5417
2000-03-14,11.0
2000-03-15,10.3958
2000-03-16,10.0317
2000-03-17,10.5883
2000-03-20,9.25
2000-03-21,9.82333
2000-03-22,10.9167
2000-03-23,10.3958
2000-03-24,10.2608
2000-03-27,10.5883
2000-03-28,8.85416
2000-03-29,7.91666
2000-03-30,7.20833
2000-03-31,8.04166
2000-04-03,7.95833
2000-04-04,6.49
2000-04-05,7.14583
2000-04-06,8.26083
2000-04-07,8.51583
2000-04-10,8.28666
2000-04-11,8.33333
2000-04-12,8.3175
2000-04-13,8.83333
2000-04-14,7.505
2000-04-17,6.97
2000-04-18,8.39
2000-04-19,9.3125
2000-04-20,9.11
2000-04-24,7.75
2000-04-25,9.375
2000-04-26,10.345
2000-04-27,11.735
2000-04-28,11.765
2000-05-01,11.8275
2000-05-02,11.875
2000-05-03,11.9375
2000-05-04,12.015
2000-05-05,12.5625
2000-05-08,12.3125
2000-05-09,12.0625
2000-05-10,11.5625
2000-05-11,11.515
2000-05-12,11.72
2000-05-15,11.595
2000-05-16,11.5625
2000-05-17,11.265
2000-05-18,10.375
2000-05-19,9.7025
2000-05-22,9.75
2000-05-23,9.2025
2000-05-24,8.89
2000-05-25,9.4525
2000-05-26,9.4375
2000-05-30,9.89
2000-05-31,9.085
2000-06-01,9.3125
2000-06-02,9.39
2000-06-05,11.235
2000-06-06,11.125
2000-06-07,11.765
2000-06-08,10.8125
2000-06-09,11.9375
2000-06-12,12.5325
2000-06-13,12.72
2000-06-14,13.095
2000-06-15,13.375
2000-06-16,14.1875
2000-06-19,14.89
2000-06-20,14.86
2000-06-21,16.5
2000-06-22,15.0475
2000-06-23,15.625
2000-06-26,14.47
2000-06-27,13.515
2000-06-28,14.265
2000-06-29,13.5325
2000-06-30,14.7225
2000-07-03,14.375
2000-07-05,13.3125
2000-07-06,12.75
2000-07-07,13.5
2000-07-10,13.625
2000-07-11,13.4375
2000-07-12,13.5775
2000-07-13,12.7825
2000-07-14,12.7825
2000-07-17,12.1725
2000-07-18,11.8275
2000-07-19,11.765
2000-07-20,12.255
2000-07-21,12.125
2000-07-24,11.515
2000-07-25,11.22
2000-07-26,11.64
2000-07-27,12.7825
2000-07-28,12.39
2000-07-31,12.9875
2000-08-01,13.25
2000-08-02,13.5
2000-08-03,13.4075
2000-08-04,13.5775
2000-08-07,14.3125
2000-08-08,14.5
2000-08-09,13.5775
2000-08-10,13.875
2000-08-11,15.095
2000-08-14,15.095
2000-08-15,14.61
2000-08-16,14.9225
2000-08-17,15.0225
2000-08-18,14.47
2000-08-21,14.1875
2000-08-22,14.595
2000-08-23,14.625
2000-08-24,15.8125
2000-08-25,16.86
2000-08-28,17.1575
2000-08-29,17.3125
2000-08-30,17.375
2000-08-31,18.5625
2000-09-01,18.6875
2000-09-05,17.8275
2000-09-06,16.11
2000-09-07,16.845
2000-09-08,16.015
2000-09-11,16.1575
2000-09-12,15.5
2000-09-13,16.625
2000-09-14,17.1875
2000-09-15,17.485
2000-09-18,16.9375
2000-09-19,16.345
2000-09-20,15.9375
2000-09-21,15.735
2000-09-22,17.22
2000-09-25,15.89
2000-09-26,14.88
2000-09-27,13.75
2000-09-28,14.22
2000-09-29,14.8875
2000-10-02,14.7
2000-10-03,13.845
2000-10-04,13.735
2000-10-05,13.25
2000-10-06,11.9525
2000-10-09,11.7975
2000-10-10,12.2975
2000-10-11,12.875
2000-10-12,13.0625
2000-10-13,14.0325
2000-10-16,14.5
2000-10-17,16.125
2000-10-18,17.3125
2000-10-19,17.5625
2000-10-20,18.345
2000-10-23,16.9375
2000-10-24,16.5325
2000-10-25,16.0775
2000-10-26,16.25
2000-10-27,15.61
2000-10-30,15.985
2000-10-31,16.1875
2000-11-01,16.4075
2000-11-02,17.235
2000-11-03,18.235
2000-11-06,17.265
2000-11-07,17.4525
2000-11-08,16.86
2000-11-09,16.375
2000-11-10,15.5625
2000-11-13,12.64
2000-11-14,13.0325
2000-11-15,14.345
2000-11-16,13.64
2000-11-17,13.0325
2000-11-20,12.6575
2000-11-21,13.61
2000-11-22,14.1875
2000-11-24,15.25
2000-11-27,16.0325
2000-11-28,14.9375
2000-11-29,14.4075
2000-11-30,14.3275
2000-12-01,15.485
2000-12-04,15.4375
2000-12-05,17.345
2000-12-06,15.875
2000-12-07,15.0775
2000-12-08,16.0
2000-12-11,15.485
2000-12-12,13.4375
2000-12-13,13.25
2000-12-14,11.0
2000-12-15,11.1875
2000-12-18,11.345
2000-12-19,10.5
2000-12-20,9.0775
2000-12-21,8.5
2000-12-22,9.0325
2000-12-26,8.015
2000-12-27,7.64
2000-12-28,7.985
2000-12-29,8.1575
2001-01-02,8.0
2001-01-03,7.5325
2001-01-04,6.375
2001-01-05,6.1875
2001-01-08,5.97
2001-01-09,5.14
2001-01-10,6.235
2001-01-11,6.375
2001-01-12,6.75
2001-01-16,6.5475
2001-01-17,6.25
2001-01-18,6.7025
2001-01-19,6.515
2001-01-22,6.875
2001-01-23,7.875
2001-01-24,8.095
2001-01-25,6.97
2001-01-26,7.1875
2001-01-29,7.4225
2001-01-30,7.515
2001-01-31,6.9075
2001-02-01,6.97
2001-02-02,6.6575
2001-02-05,6.485
2001-02-06,6.9075
2001-02-07,6.625
2001-02-08,6.6575
2001-02-09,6.6575
2001-02-12,6.845
2001-02-13,6.6725
2001-02-14,6.9375
2001-02-15,6.7825
2001-02-16,6.61
2001-02-20,6.735
2001-02-21,6.5325
2001-02-22,5.9575
2001-02-23,6.2975
2001-02-26,6.6725
2001-02-27,6.4375
2001-02-28,6.5325
2001-03-01,6.3125
2001-03-02,6.64
2001-03-05,6.375
2001-03-06,6.5775
2001-03-07,6.72
2001-03-08,6.1725
2001-03-09,6.1575
2001-03-12,5.4075
2001-03-13,5.485
2001-03-14,5.4375
2001-03-15,5.39
2001-03-16,4.6575
2001-03-19,5.14
2001-03-20,4.97
2001-03-21,4.86
2001-03-22,4.765
2001-03-23,5.25
2001-03-26,6.0775
2001-03-27,5.9525
2001-03-28,6.22
2001-03-29,6.39
2001-03-30,6.235
2001-04-02,5.5475
2001-04-03,4.6875
2001-04-04,4.345
2001-04-05,4.5325
2001-04-06,4.64
2001-04-09,4.7625
2001-04-10,4.79
2001-04-11,4.515
2001-04-12,4.8825
2001-04-16,4.7675
2001-04-17,4.7525
2001-04-18,4.9325
2001-04-19,5.1225
2001-04-20,4.805
2001-04-23,4.5325
2001-04-24,4.0125
2001-04-25,4.2125
2001-04-26,3.8375
2001-04-27,3.9825
2001-04-30,4.42
2001-05-01,4.28
2001-05-02,4.175
2001-05-03,4.0125
2001-05-04,4.1925
2001-05-07,4.55
2001-05-08,4.9225
2001-05-09,4.9975
2001-05-10,4.77
2001-05-11,4.8075
2001-05-14,4.65
2001-05-15,4.6625
2001-05-16,4.875
2001-05-17,5.62
2001-05-18,5.7475
2001-05-21,5.965
2001-05-22,6.155
2001-05-23,6.1375
2001-05-24,6.7025
2001-05-25,6.9875
2001-05-29,7.27
2001-05-30,7.0
2001-05-31,7.025
2001-06-01,7.695
2001-06-04,8.25
2001-06-05,8.6375
2001-06-06,8.305
2001-06-07,8.4525
2001-06-08,8.1825
2001-06-11,7.9375
2001-06-12,7.985
2001-06-13,7.8825
2001-06-14,7.975
2001-06-15,7.74
2001-06-18,7.7725
2001-06-19,7.7125
2001-06-20,7.75
2001-06-21,6.77
2001-06-22,6.72
2001-06-25,6.485
2001-06-26,6.8
2001-06-27,6.6725
2001-06-28,7.025
2001-06-29,7.1525
2001-07-02,7.085
2001-07-03,7.15
2001-07-05,7.0125
2001-07-06,6.6675
2001-07-09,7.12
2001-07-10,6.945
2001-07-11,6.4375
2001-07-12,6.8975
2001-07-13,6.715
2001-07-16,6.5575
2001-07-17,6.635
2001-07-18,6.8175
2001-07-19,6.9525
2001-07-20,7.0575
2001-07-23,7.16
2001-07-24,6.675
2001-07-25,6.2875
2001-07-26,6.8
2001-07-27,6.95
2001-07-30,6.6875
2001-07-31,6.5925
2001-08-01,6.8875
2001-08-02,6.925
2001-08-03,6.815
2001-08-06,6.8925
2001-08-07,6.6575
2001-08-08,6.4525
2001-08-09,6.5
2001-08-10,6.45
2001-08-13,6.2625
2001-08-14,6.275
2001-08-15,6.055
2001-08-16,5.985
2001-08-17,5.8775
2001-08-20,5.505
2001-08-21,5.265
2001-08-22,6.2775
2001-08-23,6.4825
2001-08-24,6.9675
2001-08-27,6.775
2001-08-28,7.0225
2001-08-29,7.1175
2001-08-30,6.93
2001-08-31,6.9625
2001-09-04,6.94
2001-09-05,6.945
2001-09-06,6.8325
2001-09-07,6.8625
2001-09-10,6.9375
2001-09-17,6.35
2001-09-18,6.0075
2001-09-19,5.7
2001-09-20,5.7025
2001-09-21,5.4225
2001-09-24,5.3875
2001-09-25,5.8975
2001-09-26,5.95
2001-09-27,6.63
2001-09-28,6.6075
2001-10-01,6.0875
2001-10-02,6.2625
2001-10-03,6.8
2001-10-04,6.375
2001-10-05,6.0
2001-10-08,6.075
2001-10-09,6.21
2001-10-10,6.5575
2001-10-11,6.795
2001-10-12,6.9025
2001-10-15,7.6825
2001-10-16,8.0875
2001-10-17,7.445
2001-10-18,7.555
2001-10-19,7.59
2001-10-22,7.545
2001-10-23,7.205
2001-10-24,7.325
2001-10-25,8.03
2001-10-26,8.375
2001-10-29,8.1875
2001-10-30,8.035
2001-10-31,8.275
2001-11-01,8.6975
2001-11-02,8.67
2001-11-05,9.1825
2001-11-06,9.15
2001-11-07,9.0575
2001-11-08,8.9475
2001-11-09,8.7475
2001-11-12,8.865
2001-11-13,9.5025
2001-11-14,9.2425
2001-11-15,9.2225
2001-11-16,9.1175
2001-11-19,9.5125
2001-11-20,9.2525
2001-11-21,9.2625
2001-11-23,9.5775
2001-11-26,9.3625
2001-11-27,9.3575
2001-11-28,8.7775
2001-11-29,8.9075
2001-11-30,8.65
2001-12-03,8.52
2001-12-04,8.3925
2001-12-05,8.555
2001-12-06,8.9325
2001-12-07,7.9275
2001-12-10,7.945
2001-12-11,7.8075
2001-12-12,7.555
2001-12-13,7.6775
2001-12-14,7.7
2001-12-17,7.7375
2001-12-18,7.7025
2001-12-19,7.825
2001-12-20,7.6925
2001-12-21,7.73
2001-12-24,7.85
2001-12-26,8.095
2001-12-27,8.265
2001-12-28,8.235
2001-12-31,7.975
2002-01-02,7.86
2002-01-03,7.455
2002-01-04,7.655
2002-01-07,7.5025
2002-01-08,7.45
2002-01-09,7.255
2002-01-10,7.255
2002-01-11,7.195
2002-01-14,6.9625
2002-01-15,7.2575
2002-01-16,6.98
2002-01-17,6.795
2002-01-18,6.5225
2002-01-22,6.53
2002-01-23,6.8825
2002-01-24,6.825
2002-01-25,6.7575
2002-01-28,6.57
2002-01-29,6.4325
2002-01-30,6.825
2002-01-31,6.8525
2002-02-01,7.0025
2002-02-04,6.4475
2002-02-05,6.7
2002-02-06,6.5475
2002-02-07,6.4
2002-02-08,7.0275
2002-02-11,7.09
2002-02-12,7.15
2002-02-13,7.245
2002-02-14,6.9125
2002-02-15,6.815
2002-02-19,6.425
2002-02-20,6.8025
2002-02-21,6.7875
2002-02-22,6.51
2002-02-25,6.5
2002-02-26,6.6375
2002-02-27,6.7225
2002-02-28,6.49
2002-03-01,6.4425
2002-03-04,6.5125
2002-03-05,6.3875
2002-03-06,6.8975
2002-03-07,5.785
2002-03-08,5.6375
2002-03-11,5.795
2002-03-12,5.6825
2002-03-13,5.7325
2002-03-14,5.74
2002-03-15,5.8075
2002-03-18,5.9725
2002-03-19,6.0625
2002-03-20,6.005
2002-03-21,6.275
2002-03-22,6.4375
2002-03-25,6.15
2002-03-26,6.155
2002-03-27,6.0925
2002-03-28,6.18
2002-04-01,6.1375
2002-04-02,6.2
2002-04-03,6.075
2002-04-04,6.0175
2002-04-05,5.8125
2002-04-08,5.8975
2002-04-09,5.7775
2002-04-10,5.99
2002-04-11,5.965
2002-04-12,5.9325
2002-04-15,5.9
2002-04-16,6.0125
2002-04-17,5.92
2002-04-18,6.025
2002-04-19,5.6925
2002-04-22,5.4075
2002-04-23,5.4425
2002-04-24,5.25
2002-04-25,4.945
2002-04-26,4.8875
2002-04-29,4.7325
2002-04-30,4.95
2002-05-01,4.875
2002-05-02,4.9025
2002-05-03,4.7475
2002-05-06,4.51
2002-05-07,4.5575
2002-05-08,5.0
2002-05-09,4.7525
2002-05-10,4.605
2002-05-13,4.745
2002-05-14,5.03
2002-05-15,5.1125
2002-05-16,4.965
2002-05-17,5.25
2002-05-20,4.9625
2002-05-21,4.995
2002-05-22,4.705
2002-05-23,5.1275
2002-05-24,4.755
2002-05-28,4.7475
2002-05-29,4.58
2002-05-30,4.58
2002-05-31,4.51
2002-06-03,4.255
2002-06-04,4.1975
2002-06-05,4.465
2002-06-06,4.425
2002-06-07,4.4825
2002-06-10,4.4975
2002-06-11,4.1875
2002-06-12,4.105
2002-06-13,4.08
2002-06-14,4.3
2002-06-17,4.52
2002-06-18,4.41
2002-06-19,4.1625
2002-06-20,4.025
2002-06-21,4.0125
2002-06-24,3.9
2002-06-25,3.6975
2002-06-26,3.625
2002-06-27,3.7675
2002-06-28,3.8225
2002-07-01,3.365
2002-07-02,3.245
2002-07-03,3.275
2002-07-05,3.375
2002-07-08,3.325
2002-07-09,3.2
2002-07-10,2.875
2002-07-11,3.05
2002-07-12,3.045
2002-07-15,3.195
2002-07-16,3.5225
2002-07-17,3.825
2002-07-18,3.8625
2002-07-19,3.665
2002-07-22,3.69
2002-07-23,3.49
2002-07-24,3.6975
2002-07-25,3.69
2002-07-26,3.7375
2002-07-29,3.95
2002-07-30,4.3375
2002-07-31,4.3525
2002-08-01,4.3025
2002-08-02,4.3575
2002-08-05,4.0025
2002-08-06,4.2525
2002-08-07,4.2625
2002-08-08,4.6
2002-08-09,4.8025
2002-08-12,4.84
2002-08-13,4.57
2002-08-14,4.7625
2002-08-15,4.91
2002-08-16,4.8
2002-08-19,4.75
2002-08-20,4.7675
2002-08-21,4.9
2002-08-22,5.2625
2002-08-23,5.1275
2002-08-26,4.935
2002-08-27,4.6475
2002-08-28,4.4525
2002-08-29,4.645
2002-08-30,4.3775
2002-09-03,4.06
2002-09-04,4.3275
2002-09-05,4.03
2002-09-06,4.2675
2002-09-09,4.3375
2002-09-10,4.3825
2002-09-11,4.505
2002-09-12,4.285
2002-09-13,4.385
2002-09-16,4.365
2002-09-17,4.2325
2002-09-18,4.375
2002-09-19,4.2275
2002-09-20,4.25
2002-09-23,4.0425
2002-09-24,4.1075
2002-09-25,4.3375
2002-09-26,4.21
2002-09-27,4.0725
2002-09-30,4.2125
2002-10-01,4.2875
2002-10-02,4.0925
2002-10-03,4.0925
2002-10-04,3.9725
2002-10-07,3.8625
2002-10-08,3.9125
2002-10-09,3.8875
2002-10-10,4.0775
2002-10-11,3.9425
2002-10-14,4.18
2002-10-15,4.175
2002-10-16,4.23
2002-10-17,4.3425
2002-10-18,4.3175
2002-10-21,4.4375
2002-10-22,4.6275
2002-10-23,4.95
2002-10-24,4.8125
2002-10-25,5.1225
2002-10-28,5.49
2002-10-29,5.4625
2002-10-30,5.495
2002-10-31,5.53
2002-11-01,5.8225
2002-11-04,5.95
2002-11-05,5.79
2002-11-06,5.9625
2002-11-07,5.765
2002-11-08,5.6025
2002-11-11,5.3875
2002-11-12,5.6375
2002-11-13,5.575
2002-11-14,5.95
2002-11-15,5.97
2002-11-18,5.9375
2002-11-19,5.7425
2002-11-20,5.9125
2002-11-21,6.2
2002-11-22,6.23
2002-11-25,6.2275
2002-11-26,5.985
2002-11-27,6.1225
2002-11-29,6.0
2002-12-02,5.9875
2002-12-03,5.89
2002-12-04,5.6025
2002-12-05,5.4525
2002-12-06,5.575
2002-12-09,5.29
2002-12-10,5.2675
2002-12-11,5.5275
2002-12-12,5.4975
2002-12-13,5.3925
2002-12-16,5.5575
2002-12-17,5.645
2002-12-18,5.605
2002-12-19,5.43
2002-12-20,5.69
2002-12-23,5.7525
2002-12-24,5.7075
2002-12-26,5.695
2002-12-27,5.4625
2002-12-30,5.4
2002-12-31,5.375
2003-01-02,5.4525
2003-01-03,5.565
2003-01-06,5.5525
2003-01-07,5.6575
2003-01-08,5.5575
2003-01-09,5.785
2003-01-10,5.9175
2003-01-13,6.0
2003-01-14,6.0575
2003-01-15,5.8725
2003-01-16,6.2075
2003-01-17,6.1225
2003-01-21,5.9625
2003-01-22,5.9925
2003-01-23,6.1725
2003-01-24,5.8275
2003-01-27,5.3
2003-01-28,5.4225
2003-01-29,5.4525
2003-01-30,5.6175
2003-01-31,5.5975
2003-02-03,5.53
2003-02-04,5.505
2003-02-05,5.4225
2003-02-06,5.405
2003-02-07,5.63
2003-02-10,5.56
2003-02-11,5.595
2003-02-12,5.3875
2003-02-13,5.2325
2003-02-14,5.33
2003-02-18,5.485
2003-02-19,5.4125
2003-02-20,5.395
2003-02-21,5.5125
2003-02-24,5.3625
2003-02-25,5.405
2003-02-26,5.3125
2003-02-27,5.315
2003-02-28,5.4975
2003-03-03,5.625
2003-03-04,5.675
2003-03-05,5.75
2003-03-06,5.995
2003-03-07,5.9775
2003-03-10,5.95
2003-03-11,5.9575
2003-03-12,6.0
2003-03-13,6.2
2003-03-14,6.125
2003-03-17,6.295
2003-03-18,6.5325
2003-03-19,6.5175
2003-03-20,6.66
2003-03-21,6.6475
2003-03-24,6.585
2003-03-25,6.56
2003-03-26,6.5125
2003-03-27,6.7975
2003-03-28,6.775
2003-03-31,6.52
2003-04-01,6.6875
2003-04-02,7.0425
2003-04-03,7.1175
2003-04-04,6.9625
2003-04-07,6.7075
2003-04-08,6.575
2003-04-09,6.5275
2003-04-10,6.5975
2003-04-11,6.3
2003-04-14,6.375
2003-04-15,6.475
2003-04-16,6.355
2003-04-17,6.35
2003-04-21,6.41
2003-04-22,6.52
2003-04-23,6.73
2003-04-24,7.065
2003-04-25,7.0075
2003-04-28,6.91
2003-04-29,6.6925
2003-04-30,6.6325
2003-05-01,6.4425
2003-05-02,6.8875
2003-05-05,6.94
2003-05-06,7.14
2003-05-07,6.89
2003-05-08,6.6475
2003-05-09,6.8675
2003-05-12,7.025
2003-05-13,7.2075
2003-05-14,7.4425
2003-05-15,7.75
2003-05-16,7.8175
2003-05-19,7.4825
2003-05-20,7.39
2003-05-21,7.3375
2003-05-22,7.56
2003-05-23,7.74
2003-05-27,8.4125
2003-05-28,8.0775
2003-05-29,7.5675
2003-05-30,7.8725
2003-06-02,7.805
2003-06-03,7.9725
2003-06-04,8.0175
2003-06-05,8.5275
2003-06-06,8.6575
2003-06-09,8.3
2003-06-10,8.41
2003-06-11,8.6725
2003-06-12,8.625
2003-06-13,8.45
2003-06-16,8.6775
2003-06-17,8.7875
2003-06-18,8.37
2003-06-19,7.8
2003-06-20,8.07
2003-06-23,7.785
2003-06-24,7.7525
2003-06-25,7.6475
2003-06-26,7.895
2003-06-27,7.815
2003-06-30,7.535
2003-07-01,7.595
2003-07-02,7.725
2003-07-03,7.7825
2003-07-07,7.9875
2003-07-08,8.15
2003-07-09,8.1325
2003-07-10,7.9625
2003-07-11,8.0125
2003-07-14,8.2875
2003-07-15,8.2525
2003-07-16,8.25
2003-07-17,7.95
2003-07-18,8.05
2003-07-21,7.89
2003-07-22,8.0875
2003-07-23,8.5475
2003-07-24,8.35
2003-07-25,8.5625
2003-07-28,9.2875
2003-07-29,8.8475
2003-07-30,9.115
2003-07-31,9.2
2003-08-01,8.9925
2003-08-04,8.745
2003-08-05,8.5175
2003-08-06,8.235
2003-08-07,8.365
2003-08-08,8.3725
2003-08-11,8.6175
2003-08-12,8.87
2003-08-13,8.8925
2003-08-14,8.88
2003-08-15,9.01
2003-08-18,9.37
2003-08-19,9.3875
2003-08-20,9.77
2003-08-21,9.985
2003-08-22,9.7
2003-08-25,9.675
2003-08-26,9.5775
2003-08-27,9.52
2003-08-28,9.6
2003-08-29,9.595
2003-09-02,9.8375
2003-09-03,10.015
2003-09-04,10.49
2003-09-05,11.1925
2003-09-08,11.605
2003-09-09,11.9
2003-09-10,11.3025
2003-09-11,11.1325
2003-09-12,11.37
2003-09-15,11.26
2003-09-16,11.435
2003-09-17,11.7025
2003-09-18,11.6225
2003-09-19,11.475
2003-09-22,11.3775
2003-09-23,11.2425
2003-09-24,10.8625
2003-09-25,11.075
2003-09-26,10.6425
2003-09-29,11.18
2003-09-30,10.895
2003-10-01,10.85
2003-10-02,11.0425
2003-10-03,11.145
2003-10-06,11.37
2003-10-07,11.59
2003-10-08,11.3725
2003-10-09,11.36
2003-10-10,11.175
2003-10-13,11.3275
2003-10-14,11.33
2003-10-15,10.9925
2003-10-16,10.8475
2003-10-17,10.4975
2003-10-20,9.9425
2003-10-21,10.5
2003-10-22,10.0225
2003-10-23,10.315
2003-10-24,10.115
2003-10-27,10.1225
2003-10-28,10.36
2003-10-29,10.1525
2003-10-30,10.1725
2003-10-31,10.3975
2003-11-03,10.2475
2003-11-04,10.1375
2003-11-05,10.2
2003-11-06,10.25
2003-11-07,10.0125
2003-11-10,9.515
2003-11-11,9.25
2003-11-12,9.9125
2003-11-13,10.2625
2003-11-14,10.345
2003-11-17,10.1675
2003-11-18,10.1775
2003-11-19,10.5
2003-11-20,10.505
2003-11-21,10.66
2003-11-24,11.3525
2003-11-25,11.255
2003-11-26,11.3325
2003-11-28,11.345
2003-12-01,11.88
2003-12-02,11.7125
2003-12-03,11.6875
2003-12-04,11.45
2003-12-05,11.4525
2003-12-08,11.3425
2003-12-09,11.045
2003-12-10,10.92
2003-12-11,11.2425
2003-12-12,11.395
2003-12-15,11.205
2003-12-16,11.0375
2003-12-17,10.995
2003-12-18,11.02
2003-12-19,10.8975
2003-12-22,10.84
2003-12-23,10.9775
2003-12-24,11.0675
2003-12-26,11.055
2003-12-29,11.195
2003-12-30,11.2775
2003-12-31,11.235
2004-01-02,11.2575
2004-01-05,11.0025
2004-01-06,10.8475
2004-01-07,10.885
2004-01-08,11.225
2004-01-09,11.6225
2004-01-12,10.545
2004-01-13,9.9
2004-01-14,10.0975
2004-01-15,10.1725
2004-01-16,10.525
2004-01-20,10.45
2004-01-21,11.08
2004-01-22,10.93
2004-01-23,10.9325
2004-01-26,11.07
2004-01-27,10.7125
2004-01-28,10.3475
2004-01-29,10.2725
2004-01-30,10.105
2004-02-02,10.445
2004-02-03,10.25
2004-02-04,10.205
2004-02-05,10.2875
2004-02-06,10.54
2004-02-09,10.6025
2004-02-10,10.4
2004-02-11,10.455
2004-02-12,10.22
2004-02-13,10.06
2004-02-17,10.115
2004-02-18,10.0
2004-02-19,9.775
2004-02-20,9.89
2004-02-23,9.99
2004-02-24,9.925
2004-02-25,10.2375
2004-02-26,10.33
2004-02-27,10.2475
2004-03-01,10.4775
2004-03-02,10.78
2004-03-03,10.8
2004-03-04,11.0025
2004-03-05,11.125
2004-03-08,11.16
2004-03-09,10.9775
2004-03-10,10.93
2004-03-11,10.8125
2004-03-12,11.1125
2004-03-15,10.9825
2004-03-16,11.1275
2004-03-17,11.82
2004-03-18,11.9675
2004-03-19,11.835
2004-03-22,11.5375
2004-03-23,11.3125
2004-03-24,11.46
2004-03-25,11.755
2004-03-26,11.615
2004-03-29,11.7325
2004-03-30,11.835
2004-03-31,11.9125
2004-04-01,12.425
2004-04-02,12.7325
2004-04-05,13.15
2004-04-06,13.1
2004-04-07,12.98
2004-04-08,12.7625
2004-04-12,13.11
2004-04-13,12.7875
2004-04-14,12.7675
2004-04-15,12.9775
2004-04-16,13.12
2004-04-19,13.545
2004-04-20,13.3125
2004-04-21,13.5325
2004-04-22,14.005
2004-04-23,14.285
2004-04-26,14.815
2004-04-27,14.5
2004-04-28,12.9825
2004-04-29,12.785
2004-04-30,12.9
2004-05-03,12.8625
2004-05-04,12.99
2004-05-05,13.5625
2004-05-06,13.6375
2004-05-07,13.2225
2004-05-10,13.0275
2004-05-11,13.015
2004-05-12,13.485
2004-05-13,13.8575
2004-05-14,14.2775
2004-05-17,13.875
2004-05-18,13.5625
2004-05-19,13.5
2004-05-20,13.41
2004-05-21,13.58
2004-05-24,13.6775
2004-05-25,13.885
2004-05-26,14.075
2004-05-27,14.1675
2004-05-28,14.2175
2004-06-01,14.4725
2004-06-02,14.4225
2004-06-03,14.1875
2004-06-04,14.6475
2004-06-07,14.2825
2004-06-08,14.185
2004-06-09,13.69
2004-06-10,13.435
2004-06-14,13.5375
2004-06-15,13.7025
2004-06-16,13.9125
2004-06-17,13.8825
2004-06-18,13.885
2004-06-21,13.84
2004-06-22,13.9
2004-06-23,14.5
2004-06-24,14.5725
2004-06-25,14.6475
2004-06-28,14.465
2004-06-29,14.4625
2004-06-30,14.33
2004-07-01,14.1775
2004-07-02,14.26
2004-07-06,14.1775
2004-07-07,14.065
2004-07-08,13.85
2004-07-09,14.055
2004-07-12,14.025
2004-07-13,13.8975
2004-07-14,13.6375
2004-07-15,13.9125
2004-07-16,13.56
2004-07-19,12.8225
2004-07-20,13.0975
2004-07-21,12.2225
2004-07-22,12.7525
2004-07-23,12.59
2004-07-26,12.3075
2004-07-27,12.775
2004-07-28,12.86
2004-07-29,13.1325
2004-07-30,13.3175
2004-08-02,13.12
2004-08-03,13.0925
2004-08-04,13.0575
2004-08-05,12.77
2004-08-06,12.4775
2004-08-09,12.435
2004-08-10,12.6575
2004-08-11,13.1225
2004-08-12,12.9275
2004-08-13,12.525
2004-08-16,12.8625
2004-08-17,13.0975
2004-08-18,13.4725
2004-08-19,13.6
2004-08-20,13.7
2004-08-23,13.4125
2004-08-24,13.4075
2004-08-25,13.8925
2004-08-26,14.0275
2004-08-27,14.2375
2004-08-30,13.885
2004-08-31,14.1775
2004-09-01,14.3125
2004-09-02,14.395
2004-09-03,14.225
2004-09-07,14.1
2004-09-08,14.09
2004-09-09,14.3
2004-09-10,14.415
2004-09-13,14.5475
2004-09-14,14.5725
2004-09-15,14.5025
2004-09-16,14.465
2004-09-17,14.85
2004-09-20,14.75
2004-09-21,14.94
2004-09-22,14.7
2004-09-23,14.59
2004-09-24,14.555
2004-09-27,14.4525
2004-09-28,14.445
2004-09-29,14.6275
2004-09-30,14.625
2004-10-01,14.74
2004-10-04,15.375
2004-10-05,15.52
2004-10-06,15.755
2004-10-07,15.33
2004-10-08,15.255
2004-10-11,15.6275
2004-10-12,15.625
2004-10-13,15.435
2004-10-14,15.2225
2004-10-15,15.5475
2004-10-18,15.6475
2004-10-19,15.5375
2004-10-20,15.58
2004-10-21,14.53
2004-10-22,14.07
2004-10-25,14.42
2004-10-26,14.765
2004-10-27,15.055
2004-10-28,14.725
2004-10-29,14.775
2004-11-01,14.755
2004-11-02,14.885
2004-11-03,15.715
2004-11-04,15.34
2004-11-05,15.155
2004-11-08,14.99
2004-11-09,15.385
2004-11-10,16.05
2004-11-11,15.485
2004-11-12,15.165
2004-11-15,14.77
2004-11-16,14.67
2004-11-17,13.935
2004-11-18,13.65
2004-11-19,13.41
2004-11-22,13.3
2004-11-23,13.445
2004-11-24,13.6
2004-11-26,13.695
2004-11-29,13.655
2004-11-30,13.73
2004-12-01,14.01
2004-12-02,14.255
2004-12-03,14.3
2004-12-06,14.24
2004-12-07,13.905
2004-12-08,14.255
2004-12-09,14.33
2004-12-10,14.41
2004-12-13,14.525
2004-12-14,14.495
2004-12-15,14.12
2004-12-16,13.865
2004-12-17,13.555
2004-12-20,13.02
2004-12-21,13.055
2004-12-22,13.14
2004-12-23,13.27
2004-12-27,13.28
2004-12-28,13.445
2004-12-29,13.38
2004-12-30,13.365
2004-12-31,13.275
2005-01-03,13.17
2005-01-04,12.64
2005-01-05,12.755
2005-01-06,13.375
2005-01-07,13.615
2005-01-10,14.205
2005-01-11,14.1
2005-01-12,14.86
2005-01-13,14.62
2005-01-14,14.91
2005-01-18,14.85
2005-01-19,14.7
2005-01-20,14.55
2005-01-21,14.425
2005-01-24,13.935
2005-01-25,14.18
2005-01-26,14.43
2005-01-27,14.205
2005-01-28,13.68
2005-01-31,13.675
2005-02-01,13.8
2005-02-02,13.905
2005-02-03,13.59
2005-02-04,13.945
2005-02-07,14.21
2005-02-08,13.96
2005-02-09,13.52
2005-02-10,13.625
2005-02-11,14.045
2005-02-14,14.055
2005-02-15,14.255
2005-02-16,14.315
2005-02-17,13.82
2005-02-18,13.735
2005-02-22,13.74
2005-02-23,13.83
2005-02-24,14.105
2005-02-25,14.035
2005-02-28,13.68
2005-03-01,14.07
2005-03-02,14.305
2005-03-03,14.265
2005-03-04,14.325
2005-03-07,16.905
2005-03-08,16.55
2005-03-09,16.5
2005-03-10,16.495
2005-03-11,16.35
2005-03-14,16.955
2005-03-15,16.89
2005-03-16,16.605
2005-03-17,16.67
2005-03-18,16.5
2005-03-21,16.435
2005-03-22,16.455
2005-03-23,16.605
2005-03-24,16.445
2005-03-28,16.125
2005-03-29,16.095
2005-03-30,16.835
2005-03-31,16.955
2005-04-01,16.875
2005-04-04,16.85
2005-04-05,17.15
2005-04-06,17.575
2005-04-07,18.575
2005-04-08,18.27
2005-04-11,18.43
2005-04-12,18.93
2005-04-13,18.51
2005-04-14,18.275
2005-04-15,18.455
2005-04-18,18.485
2005-04-19,19.39
2005-04-20,19.23
2005-04-21,19.73
2005-04-22,20.04
2005-04-25,19.935
2005-04-26,19.915
2005-04-27,19.71
2005-04-28,19.07
2005-04-29,18.9
2005-05-02,19.11
2005-05-03,19.75
2005-05-04,19.32
2005-05-05,19.08
2005-05-06,18.625
2005-05-09,19.04
2005-05-10,18.765
2005-05-11,19.075
2005-05-12,19.45
2005-05-13,18.535
2005-05-16,19.34
2005-05-17,19.5
2005-05-18,19.66
2005-05-19,19.6
2005-05-20,19.69
2005-05-23,19.55
2005-05-24,20.2
2005-05-25,20.04
2005-05-26,20.445
2005-05-27,20.585
2005-05-31,21.075
2005-06-01,20.74
2005-06-02,20.615
2005-06-03,20.01
2005-06-06,19.995
2005-06-07,19.88
2005-06-08,19.73
2005-06-09,19.97
2005-06-10,19.995
2005-06-13,19.95
2005-06-14,19.96
2005-06-15,19.89
2005-06-16,20.62
2005-06-17,21.045
2005-06-20,21.15
2005-06-21,20.58
2005-06-22,19.785
2005-06-23,19.95
2005-06-24,20.355
2005-06-27,20.185
2005-06-28,20.37
2005-06-29,20.295
2005-06-30,20.375
2005-07-01,20.755
2005-07-05,20.58
2005-07-06,20.115
2005-07-07,20.35
2005-07-08,21.2
2005-07-11,21.335
2005-07-12,21.33
2005-07-13,21.185
2005-07-14,21.56
2005-07-15,23.635
2005-07-18,22.92
2005-07-19,22.875
2005-07-20,23.965
2005-07-21,24.355
2005-07-22,24.05
2005-07-25,23.465
2005-07-26,23.76
2005-07-27,23.505
2005-07-28,24.1
2005-07-29,23.895
2005-08-01,23.955
2005-08-02,24.34
2005-08-03,24.23
2005-08-04,23.955
2005-08-05,23.75
2005-08-08,23.0
2005-08-09,23.48
2005-08-10,23.455
2005-08-11,23.64
2005-08-12,23.445
2005-08-15,23.755
2005-08-16,23.35
2005-08-17,23.29
2005-08-18,22.97
2005-08-19,23.015
2005-08-22,23.54
2005-08-23,23.735
2005-08-24,23.81
2005-08-25,24.24
2005-08-26,24.435
2005-08-29,24.4
2005-08-30,24.195
2005-08-31,25.035
2005-09-01,25.495
2005-09-02,25.635
2005-09-06,26.575
2005-09-07,26.3
2005-09-08,25.55
2005-09-09,25.315
2005-09-12,27.745
2005-09-13,26.395
2005-09-14,27.365
2005-09-15,28.485
2005-09-16,27.795
2005-09-19,27.865
2005-09-20,27.605
2005-09-21,26.99
2005-09-22,27.12
2005-09-23,26.565
2005-09-26,26.815
2005-09-27,27.075
2005-09-28,26.485
2005-09-29,26.75
2005-09-30,27.06
2005-10-03,27.325
2005-10-04,26.685
2005-10-05,25.79
2005-10-06,24.58
2005-10-07,24.76
2005-10-10,24.14
2005-10-11,23.8
2005-10-12,22.945
2005-10-13,23.83
2005-10-14,25.87
2005-10-17,25.64
2005-10-18,25.5
2005-10-19,26.23
2005-10-20,25.425
2005-10-21,25.835
2005-10-24,26.65
2005-10-25,26.75
2005-10-26,26.88
2005-10-27,26.5
2005-10-28,26.92
2005-10-31,28.02
2005-11-01,28.285
2005-11-02,28.86
2005-11-03,29.45
2005-11-04,29.795
2005-11-07,29.705
2005-11-08,29.73
2005-11-09,29.5
2005-11-10,29.075
2005-11-11,29.47
2005-11-14,29.925
2005-11-15,29.955
2005-11-16,30.205
2005-11-17,30.61
2005-11-18,30.835
2005-11-21,30.925
2005-11-22,31.49
2005-11-23,31.34
2005-11-25,31.215
2005-11-28,30.425
2005-11-29,30.045
2005-11-30,30.38
2005-12-01,30.475
2005-12-02,29.995
2005-12-05,30.33
2005-12-06,30.655
2005-12-07,30.395
2005-12-08,30.34
2005-12-09,30.625
2005-12-12,30.41
2005-12-13,30.37
2005-12-14,29.645
2005-12-15,29.82
2005-12-16,29.115
2005-12-19,28.455
2005-12-20,28.5
2005-12-21,29.4
2005-12-22,29.745
2005-12-23,29.31
2005-12-27,28.755
2005-12-28,30.475
2005-12-29,32.42
2005-12-30,32.375
2006-01-03,32.475
2006-01-04,32.675
2006-01-05,32.94
2006-01-06,34.37
2006-01-09,35.915
2006-01-10,34.855
2006-01-11,35.005
2006-01-12,33.49
2006-01-13,33.3
2006-01-17,33.925
2006-01-18,33.93
2006-01-19,34.28
2006-01-20,33.675
2006-01-23,33.7
2006-01-24,33.625
2006-01-25,33.395
2006-01-26,34.345
2006-01-27,35.315
2006-01-30,34.965
2006-01-31,35.545
2006-02-01,35.85
2006-02-02,35.295
2006-02-03,34.88
2006-02-06,34.995
2006-02-07,34.435
2006-02-08,34.625
2006-02-09,34.33
2006-02-10,34.805
2006-02-13,34.5
2006-02-14,34.72
2006-02-15,34.775
2006-02-16,35.17
2006-02-17,35.18
2006-02-21,35.0
2006-02-22,35.96
2006-02-23,35.89
2006-02-24,36.91
2006-02-27,38.49
2006-02-28,38.05
2006-03-01,38.35
2006-03-02,39.31
2006-03-03,40.16
2006-03-06,40.28
2006-03-07,39.64
2006-03-08,39.96
2006-03-09,39.16
2006-03-10,39.0
2006-03-13,39.13
2006-03-14,39.1
2006-03-15,40.93
2006-03-16,41.34
2006-03-17,42.01
2006-03-20,42.55
2006-03-21,40.96
2006-03-22,41.49
2006-03-23,41.32
2006-03-24,41.85
2006-03-27,41.53
2006-03-28,41.31
2006-03-29,43.3
2006-03-30,43.5
2006-03-31,44.11
2006-04-03,42.89
2006-04-04,42.38
2006-04-05,42.09
2006-04-06,39.01
2006-04-07,37.82
2006-04-10,38.47
2006-04-11,36.52
2006-04-12,37.55
2006-04-13,37.93
2006-04-17,37.65
2006-04-18,37.34
2006-04-19,38.35
2006-04-20,38.4
2006-04-21,37.83
2006-04-24,39.87
2006-04-25,39.05
2006-04-26,37.63
2006-04-27,42.36
2006-04-28,42.26
2006-05-01,41.7
2006-05-02,40.75
2006-05-03,39.9
2006-05-04,40.21
2006-05-05,42.64
2006-05-08,42.88
2006-05-09,42.7
2006-05-10,43.0
2006-05-11,42.26
2006-05-12,40.63
2006-05-15,40.57
2006-05-16,41.79
2006-05-17,38.82
2006-05-18,38.6
2006-05-19,39.22
2006-05-22,38.21
2006-05-23,39.28
2006-05-24,39.25
2006-05-25,40.4
2006-05-26,41.46
2006-05-30,40.3
2006-05-31,41.39
2006-06-01,42.86
2006-06-02,43.93
2006-06-05,41.57
2006-06-06,41.81
2006-06-07,42.4
2006-06-08,42.67
2006-06-09,43.36
2006-06-12,42.3
2006-06-13,41.11
2006-06-14,42.03
2006-06-15,44.16
2006-06-16,43.52
2006-06-19,42.47
2006-06-20,42.4
2006-06-21,44.31
2006-06-22,45.69
2006-06-23,45.95
2006-06-26,45.67
2006-06-27,45.86
2006-06-28,45.15
2006-06-29,47.09
2006-06-30,47.33
2006-07-03,47.64
2006-07-05,47.35
2006-07-06,47.33
2006-07-07,48.28
2006-07-10,47.86
2006-07-11,48.13
2006-07-12,48.33
2006-07-13,46.86
2006-07-14,45.1
2006-07-17,45.13
2006-07-18,45.09
2006-07-19,46.64
2006-07-20,46.1
2006-07-21,46.06
2006-07-24,47.62
2006-07-25,48.49
2006-07-26,48.99
2006-07-27,46.04
2006-07-28,46.91
2006-07-31,47.84
2006-08-01,46.66
2006-08-02,46.5
2006-08-03,46.92
2006-08-04,45.85
2006-08-07,45.08
2006-08-08,43.25
2006-08-09,42.73
2006-08-10,41.45
2006-08-11,43.04
2006-08-14,43.35
2006-08-15,43.97
2006-08-16,44.9
2006-08-17,44.6
2006-08-18,43.43
2006-08-21,43.0
2006-08-22,41.98
2006-08-23,41.19
2006-08-24,41.92
2006-08-25,42.6
2006-08-28,42.96
2006-08-29,42.87
2006-08-30,42.76
2006-08-31,40.9
2006-09-01,42.74
2006-09-05,42.46
2006-09-06,40.8
2006-09-07,41.13
2006-09-08,41.21
2006-09-11,41.0
2006-09-12,40.89
2006-09-13,41.35
2006-09-14,40.63
2006-09-15,41.11
2006-09-18,42.12
2006-09-19,42.22
2006-09-20,41.25
2006-09-21,41.3
2006-09-22,42.05
2006-09-25,41.74
2006-09-26,42.09
2006-09-27,43.82
2006-09-28,43.36
2006-09-29,43.29
2006-10-02,42.61
2006-10-03,42.39
2006-10-04,44.54
2006-10-05,45.58
2006-10-06,45.81
2006-10-09,46.5
2006-10-10,46.12
2006-10-11,46.01
2006-10-12,46.25
2006-10-13,46.03
2006-10-16,45.66
2006-10-17,45.44
2006-10-18,46.57
2006-10-19,46.43
2006-10-20,45.56
2006-10-23,45.45
2006-10-24,45.16
2006-10-25,44.19
2006-10-26,49.87
2006-10-27,50.37
2006-10-30,49.92
2006-10-31,53.39
2006-11-01,52.95
2006-11-02,51.03
2006-11-03,51.41
2006-11-06,52.67
2006-11-07,53.21
2006-11-08,54.81
2006-11-09,53.4
2006-11-10,54.97
2006-11-13,54.96
2006-11-14,55.72
2006-11-15,55.48
2006-11-16,55.72
2006-11-17,56.28
2006-11-20,55.41
2006-11-21,56.03
2006-11-22,55.26
2006-11-24,55.15
2006-11-27,54.3
2006-11-28,54.24
2006-11-29,55.99
2006-11-30,55.65
2006-12-01,56.2
2006-12-04,57.95
2006-12-05,58.91
2006-12-06,57.5
2006-12-07,55.39
2006-12-08,55.82
2006-12-11,57.4
2006-12-12,57.57
2006-12-13,56.32
2006-12-14,57.22
2006-12-15,58.42
2006-12-18,58.8
2006-12-19,59.57
2006-12-20,59.15
2006-12-21,59.01
2006-12-22,57.79
2006-12-26,57.77
2006-12-27,58.02
2006-12-28,57.65
2006-12-29,57.52
2007-01-03,57.15
2007-01-04,57.96
2007-01-05,57.53
2007-01-08,57.36
2007-01-09,54.88
2007-01-10,55.25
2007-01-11,55.98
2007-01-12,55.78
2007-01-16,55.66
2007-01-17,55.34
2007-01-18,55.02
2007-01-19,55.0
2007-01-22,54.19
2007-01-23,53.97
2007-01-24,55.15
2007-01-25,53.93
2007-01-26,53.96
2007-01-29,53.59
2007-01-30,54.23
2007-01-31,53.67
2007-02-01,56.14
2007-02-02,55.37
2007-02-05,54.96
2007-02-06,54.66
2007-02-07,54.98
2007-02-08,55.4
2007-02-09,55.44
2007-02-12,54.32
2007-02-13,53.2
2007-02-14,53.96
2007-02-15,54.34
2007-02-16,53.49
2007-02-20,53.44
2007-02-21,54.07
2007-02-22,54.8
2007-02-23,56.26
2007-02-26,57.15
2007-02-27,53.46
2007-02-28,53.31
2007-03-01,52.35
2007-03-02,51.27
2007-03-05,50.51
2007-03-06,51.22
2007-03-07,50.6
2007-03-08,51.3
2007-03-09,51.14
2007-03-12,51.8
2007-03-13,50.21
2007-03-14,52.09
2007-03-15,51.2
2007-03-16,52.03
2007-03-19,53.24
2007-03-20,52.9
2007-03-21,54.49
2007-03-22,54.48
2007-03-23,55.0
2007-03-26,53.92
2007-03-27,53.04
2007-03-28,52.91
2007-03-29,52.69
2007-03-30,52.45
2007-04-02,53.74
2007-04-03,55.61
2007-04-04,55.45
2007-04-05,58.03
2007-04-09,58.95
2007-04-10,58.02
2007-04-11,57.55
2007-04-12,57.99
2007-04-13,57.97
2007-04-16,57.78
2007-04-17,57.1
2007-04-18,57.49
2007-04-19,60.0
2007-04-20,60.26
2007-04-23,61.9
2007-04-24,62.1
2007-04-25,61.82
2007-04-26,62.01
2007-04-27,61.93
2007-04-30,61.16
2007-05-01,61.31
2007-05-02,62.82
2007-05-03,61.44
2007-05-04,63.12
2007-05-07,62.83
2007-05-08,63.71
2007-05-09,64.4
2007-05-10,62.96
2007-05-11,64.11
2007-05-14,64.6
2007-05-15,64.03
2007-05-16,64.78
2007-05-17,64.07
2007-05-18,64.53
2007-05-21,64.96
2007-05-22,65.97
2007-05-23,65.36
2007-05-24,63.73
2007-05-25,62.5
2007-05-29,61.59
2007-05-30,61.35
2007-05-31,61.22
2007-06-01,61.83
2007-06-04,61.69
2007-06-05,61.38
2007-06-06,60.65
2007-06-07,57.28
2007-06-08,58.54
2007-06-11,59.86
2007-06-12,57.99
2007-06-13,58.95
2007-06-14,59.54
2007-06-15,60.03
2007-06-18,58.84
2007-06-19,58.84
2007-06-20,57.48
2007-06-21,57.87
2007-06-22,56.62
2007-06-25,56.19
2007-06-26,57.19
2007-06-27,58.68
2007-06-28,57.9
2007-06-29,57.31
2007-07-02,57.84
2007-07-03,57.93
2007-07-05,57.82
2007-07-06,58.07
2007-07-09,59.08
2007-07-10,58.5
2007-07-11,59.17
2007-07-12,59.63
2007-07-13,59.14
2007-07-16,58.35
2007-07-17,58.55
2007-07-18,59.28
2007-07-19,59.42
2007-07-20,58.45
2007-07-23,57.42
2007-07-24,56.75
2007-07-25,58.6
2007-07-26,60.31
2007-07-27,61.24
2007-07-30,61.8
2007-07-31,60.53
2007-08-01,60.07
2007-08-02,60.37
2007-08-03,59.54
2007-08-06,60.96
2007-08-07,61.01
2007-08-08,61.35
2007-08-09,59.99
2007-08-10,59.61
2007-08-13,60.46
2007-08-14,60.23
2007-08-15,60.11
2007-08-16,59.03
2007-08-17,59.26
2007-08-20,58.79
2007-08-21,59.72
2007-08-22,59.86
2007-08-23,60.27
2007-08-24,59.83
2007-08-27,59.54
2007-08-28,59.92
2007-08-29,61.75
2007-08-30,63.87
2007-08-31,64.22
2007-09-04,65.84
2007-09-05,65.11
2007-09-06,66.64
2007-09-07,65.14
2007-09-10,66.08
2007-09-11,68.86
2007-09-12,69.27
2007-09-13,69.06
2007-09-14,69.0
2007-09-17,67.78
2007-09-18,69.2
2007-09-19,69.24
2007-09-20,69.37
2007-09-21,70.55
2007-09-24,72.19
2007-09-25,69.75
2007-09-26,71.49
2007-09-27,71.22
2007-09-28,71.21
2007-10-01,72.69
2007-10-02,72.01
2007-10-03,71.58
2007-10-04,72.44
2007-10-05,72.65
2007-10-08,72.0
2007-10-09,73.54
2007-10-10,75.11
2007-10-11,72.28
2007-10-12,74.03
2007-10-15,72.57
2007-10-16,72.49
2007-10-17,72.13
2007-10-18,71.64
2007-10-19,70.12
2007-10-22,69.7
2007-10-23,71.18
2007-10-24,70.09
2007-10-25,64.2
2007-10-26,66.68
2007-10-29,66.19
2007-10-30,65.12
2007-10-31,65.87
2007-11-01,64.51
2007-11-02,64.87
2007-11-05,64.12
2007-11-06,65.42
2007-11-07,63.48
2007-11-08,64.2
2007-11-09,63.03
2007-11-12,62.43
2007-11-13,63.11
2007-11-14,63.64
2007-11-15,64.6
2007-11-16,64.99
2007-11-19,64.01
2007-11-20,64.47
2007-11-21,62.58
2007-11-23,62.35
2007-11-26,60.38
2007-11-27,62.24
2007-11-28,63.78
2007-11-29,62.5
2007-11-30,61.54
2007-12-03,60.28
2007-12-04,58.85
2007-12-05,59.95
2007-12-06,60.04
2007-12-07,57.28
2007-12-10,49.3
2007-12-11,50.24
2007-12-12,49.99
2007-12-13,49.58
2007-12-14,50.4
2007-12-17,49.98
2007-12-18,49.84
2007-12-19,47.26
2007-12-20,49.44
2007-12-21,47.94
2007-12-24,48.55
2007-12-26,48.4
2007-12-27,47.18
2007-12-28,46.95
2007-12-31,46.37
2008-01-02,46.35
2008-01-03,49.77
2008-01-04,49.67
2008-01-07,50.57
2008-01-08,49.7
2008-01-09,51.6
2008-01-10,52.85
2008-01-11,54.08
2008-01-14,53.98
2008-01-15,53.43
2008-01-16,54.67
2008-01-17,55.69
2008-01-18,54.68
2008-01-22,52.37
2008-01-23,53.78
2008-01-24,52.07
2008-01-25,51.52
2008-01-28,53.9
2008-01-29,54.25
2008-01-30,53.9
2008-01-31,56.3
2008-02-01,59.52
2008-02-04,57.34
2008-02-05,55.7
2008-02-06,57.51
2008-02-07,58.08
2008-02-08,58.2
2008-02-11,57.91
2008-02-12,56.88
2008-02-13,57.32
2008-02-14,56.19
2008-02-15,55.65
2008-02-19,56.18
2008-02-20,54.8
2008-02-21,54.45
2008-02-22,54.26
2008-02-25,56.43
2008-02-26,56.59
2008-02-27,57.03
2008-02-28,57.47
2008-02-29,56.48
2008-03-03,56.34
2008-03-04,57.25
2008-03-05,57.25
2008-03-06,54.89
2008-03-07,56.71
2008-03-10,55.44
2008-03-11,57.02
2008-03-12,56.45
2008-03-13,57.78
2008-03-14,56.51
2008-03-17,54.26
2008-03-18,57.6
2008-03-19,57.87
2008-03-20,57.78
2008-03-24,60.2
2008-03-25,61.31
2008-03-26,61.7
2008-03-27,61.0
2008-03-28,59.4
2008-03-31,61.24
2008-04-01,63.09
2008-04-02,64.02
2008-04-03,63.3
2008-04-04,64.22
2008-04-07,63.15
2008-04-08,62.35
2008-04-09,61.94
2008-04-10,63.86
2008-04-11,62.67
2008-04-14,63.1
2008-04-15,63.09
2008-04-16,64.73
2008-04-17,64.69
2008-04-18,64.45
2008-04-21,64.04
2008-04-22,62.99
2008-04-23,63.49
2008-04-24,63.68
2008-04-25,63.15
2008-04-28,64.04
2008-04-29,62.98
2008-04-30,62.11
2008-05-01,63.54
2008-05-02,64.22
2008-05-05,65.4
2008-05-06,65.62
2008-05-07,63.25
2008-05-08,62.75
2008-05-09,62.61
2008-05-12,61.69
2008-05-13,60.35
2008-05-14,61.05
2008-05-15,59.3
2008-05-16,61.16
2008-05-19,59.81
2008-05-20,58.96
2008-05-21,56.88
2008-05-22,58.12
2008-05-23,58.94
2008-05-27,59.17
2008-05-28,58.55
2008-05-29,60.52
2008-05-30,60.85
2008-06-02,61.16
2008-06-03,61.42
2008-06-04,62.8
2008-06-05,63.33
2008-06-06,61.48
2008-06-09,61.5
2008-06-10,60.82
2008-06-11,59.51
2008-06-12,58.85
2008-06-13,60.25
2008-06-16,61.64
2008-06-17,60.62
2008-06-18,60.07
2008-06-19,60.75
2008-06-20,59.48
2008-06-23,59.73
2008-06-24,59.93
2008-06-25,61.91
2008-06-26,61.86
2008-06-27,63.3
2008-06-30,63.92
2008-07-01,69.13
2008-07-02,67.78
2008-07-03,67.85
2008-07-07,69.15
2008-07-08,71.77
2008-07-09,70.53
2008-07-10,72.62
2008-07-11,71.75
2008-07-14,71.18
2008-07-15,72.7
2008-07-16,71.98
2008-07-17,71.34
2008-07-18,70.91
2008-07-21,71.59
2008-07-22,72.1
2008-07-23,70.23
2008-07-24,73.44
2008-07-25,74.51
2008-07-28,73.55
2008-07-29,73.68
2008-07-30,74.15
2008-07-31,75.45
2008-08-01,73.93
2008-08-04,73.13
2008-08-05,76.02
2008-08-06,76.6
2008-08-07,73.91
2008-08-08,75.07
2008-08-11,75.81
2008-08-12,75.53
2008-08-13,75.59
2008-08-14,77.09
2008-08-15,75.95
2008-08-18,75.3
2008-08-19,72.85
2008-08-20,72.23
2008-08-21,71.87
2008-08-22,73.08
2008-08-25,71.45
2008-08-26,71.73
2008-08-27,70.76
2008-08-28,69.93
2008-08-29,69.44
2008-09-02,68.58
2008-09-03,69.72
2008-09-04,67.62
2008-09-05,66.34
2008-09-08,65.84
2008-09-09,66.97
2008-09-10,68.03
2008-09-11,70.66
2008-09-12,71.13
2008-09-15,69.51
2008-09-16,70.02
2008-09-17,65.2
2008-09-18,63.64
2008-09-19,67.74
2008-09-22,64.11
2008-09-23,63.45
2008-09-24,64.09
2008-09-25,64.83
2008-09-26,66.38
2008-09-29,62.71
2008-09-30,63.29
2008-10-01,63.3
2008-10-02,60.5
2008-10-03,60.31
2008-10-06,55.85
2008-10-07,56.2
2008-10-08,57.85
2008-10-09,56.93
2008-10-10,54.7
2008-10-13,61.48
2008-10-14,57.86
2008-10-15,52.92
2008-10-16,56.23
2008-10-17,54.93
2008-10-20,56.82
2008-10-21,54.65
2008-10-22,53.07
2008-10-23,58.16
2008-10-24,57.58
2008-10-27,55.18
2008-10-28,60.84
2008-10-29,62.34
2008-10-30,64.0
2008-10-31,64.1
2008-11-03,65.09
2008-11-04,64.27
2008-11-05,63.28
2008-11-06,60.66
2008-11-07,60.45
2008-11-10,60.35
2008-11-11,57.36
2008-11-12,56.04
2008-11-13,60.63
2008-11-14,58.63
2008-11-17,58.49
2008-11-18,57.15
2008-11-19,55.96
2008-11-20,51.18
2008-11-21,47.45
2008-11-24,50.37
2008-11-25,50.64
2008-11-26,52.7
2008-11-28,52.1
2008-12-01,48.0
2008-12-02,50.87
2008-12-03,52.61
2008-12-04,52.86
2008-12-05,53.92
2008-12-08,52.73
2008-12-09,50.17
2008-12-10,49.51
2008-12-11,47.2
2008-12-12,49.49
2008-12-15,48.03
2008-12-16,52.26
2008-12-17,53.17
2008-12-18,54.0
2008-12-19,54.77
2008-12-22,52.89
2008-12-23,53.46
2008-12-24,53.72
2008-12-26,53.96
2008-12-29,52.38
2008-12-30,54.66
2008-12-31,55.52
2009-01-02,56.24
2009-01-05,54.24
2009-01-06,50.28
2009-01-07,51.57
2009-01-08,50.96
2009-01-09,50.51
2009-01-12,49.7
2009-01-13,50.29
2009-01-14,48.72
2009-01-15,50.15
2009-01-16,50.23
2009-01-20,48.47
2009-01-21,49.74
2009-01-22,49.34
2009-01-23,49.81
2009-01-26,50.29
2009-01-27,51.29
2009-01-28,52.18
2009-01-29,52.17
2009-01-30,52.82
2009-02-02,53.48
2009-02-03,53.11
2009-02-04,53.55
2009-02-05,54.93
2009-02-06,55.22
2009-02-09,54.18
2009-02-10,52.65
2009-02-11,52.51
2009-02-12,53.14
2009-02-13,52.42
2009-02-17,52.0
2009-02-18,52.98
2009-02-19,53.48
2009-02-20,54.09
2009-02-23,52.88
2009-02-24,52.86
2009-02-25,51.43
2009-02-26,48.95
2009-02-27,44.68
2009-03-02,42.18
2009-03-03,42.51
2009-03-04,42.32
2009-03-05,40.03
2009-03-06,41.19
2009-03-09,40.01
2009-03-10,42.22
2009-03-11,42.21
2009-03-12,47.1
2009-03-13,48.11
2009-03-16,46.51
2009-03-17,48.27
2009-03-18,47.01
2009-03-19,45.72
2009-03-20,45.61
2009-03-23,47.91
2009-03-24,46.23
2009-03-25,45.94
2009-03-26,46.32
2009-03-27,45.99
2009-03-30,45.29
2009-03-31,44.42
2009-04-01,38.45
2009-04-02,40.56
2009-04-03,41.92
2009-04-06,42.33
2009-04-07,40.46
2009-04-08,40.65
2009-04-09,40.67
2009-04-13,41.06
2009-04-14,39.06
2009-04-15,38.65
2009-04-16,38.32
2009-04-17,38.28
2009-04-20,38.0
2009-04-21,38.24
2009-04-22,39.7
2009-04-23,39.21
2009-04-24,39.81
2009-04-27,40.87
2009-04-28,41.7
2009-04-29,42.43
2009-04-30,42.32
2009-05-01,39.63
2009-05-04,39.15
2009-05-05,39.33
2009-05-06,39.02
2009-05-07,41.78
2009-05-08,41.47
2009-05-11,41.44
2009-05-12,41.71
2009-05-13,40.58
2009-05-14,40.68
2009-05-15,39.79
2009-05-18,39.6
2009-05-19,39.48
2009-05-20,40.26
2009-05-21,39.71
2009-05-22,39.44
2009-05-26,40.39
2009-05-27,40.9
2009-05-28,41.88
2009-05-29,42.07
2009-06-01,42.61
2009-06-02,44.28
2009-06-03,45.24
2009-06-04,45.05
2009-06-05,44.35
2009-06-08,44.05
2009-06-09,44.29
2009-06-10,43.19
2009-06-11,43.35
2009-06-12,43.19
2009-06-15,42.16
2009-06-16,43.1
2009-06-17,44.9
2009-06-18,46.29
2009-06-19,46.95
2009-06-22,46.46
2009-06-23,46.83
2009-06-24,46.95
2009-06-25,47.9
2009-06-26,47.94
2009-06-29,48.37
2009-06-30,47.84
2009-07-01,48.06
2009-07-02,46.72
2009-07-06,47.23
2009-07-07,46.3
2009-07-08,46.18
2009-07-09,46.39
2009-07-10,46.03
2009-07-13,47.0
2009-07-14,45.97
2009-07-15,46.37
2009-07-16,46.96
2009-07-17,46.78
2009-07-20,47.09
2009-07-21,47.35
2009-07-22,47.22
2009-07-23,56.02
2009-07-24,54.77
2009-07-27,55.03
2009-07-28,57.05
2009-07-29,57.24
2009-07-30,57.63
2009-07-31,56.95
2009-08-03,57.28
2009-08-04,57.7
2009-08-05,56.55
2009-08-06,54.75
2009-08-07,54.98
2009-08-10,53.15
2009-08-11,53.43
2009-08-12,53.95
2009-08-13,52.66
2009-08-14,52.69
2009-08-17,52.17
2009-08-18,51.86
2009-08-19,52.99
2009-08-20,52.6
2009-08-21,53.09
2009-08-24,52.95
2009-08-25,53.31
2009-08-26,54.06
2009-08-27,53.62
2009-08-28,52.7
2009-08-31,52.17
2009-09-01,51.12
2009-09-02,51.03
2009-09-03,50.91
2009-09-04,51.77
2009-09-08,51.6
2009-09-09,51.7
2009-09-10,51.5
2009-09-11,52.05
2009-09-14,52.02
2009-09-15,52.35
2009-09-16,53.66
2009-09-17,53.04
2009-09-18,52.59
2009-09-21,55.23
2009-09-22,54.39
2009-09-23,53.62
2009-09-24,53.95
2009-09-25,54.57
2009-09-28,55.63
2009-09-29,55.1
2009-09-30,55.82
2009-10-01,55.05
2009-10-02,54.03
2009-10-05,53.37
2009-10-06,53.98
2009-10-07,53.69
2009-10-08,54.6
2009-10-09,54.8
2009-10-12,55.15
2009-10-13,54.64
2009-10-14,55.21
2009-10-15,56.41
2009-10-16,56.41
2009-10-19,56.55
2009-10-20,55.7
2009-10-21,54.53
2009-10-22,55.71
2009-10-23,54.3
2009-10-26,52.56
2009-10-27,51.66
2009-10-28,50.46
2009-10-29,51.18
2009-10-30,50.97
2009-11-02,50.21
2009-11-03,50.6
2009-11-04,50.79
2009-11-05,51.75
2009-11-06,53.1
2009-11-09,54.11
2009-11-10,53.61
2009-11-11,53.88
2009-11-12,53.77
2009-11-13,53.48
2009-11-16,53.99
2009-11-17,55.25
2009-11-18,55.3
2009-11-19,54.55
2009-11-20,54.97
2009-11-23,55.57
2009-11-24,55.23
2009-11-25,55.77
2009-11-27,54.97
2009-11-30,55.41
2009-12-01,56.21
2009-12-02,57.24
2009-12-03,56.38
2009-12-04,55.93
2009-12-07,55.69
2009-12-08,54.29
2009-12-09,53.73
2009-12-10,53.38
2009-12-11,52.69
2009-12-14,53.9
2009-12-15,52.85
2009-12-16,51.75
2009-12-17,50.65
2009-12-18,55.91
2009-12-21,56.1
2009-12-22,56.29
2009-12-23,56.83
2009-12-24,56.28
2009-12-28,56.71
2009-12-29,56.14
2009-12-30,56.42
2009-12-31,55.74
2010-01-04,55.67
2010-01-05,55.11
2010-01-06,56.38
2010-01-07,55.82
2010-01-08,57.19
2010-01-11,57.35
2010-01-12,56.98
2010-01-13,57.68
2010-01-14,58.2
2010-01-15,57.5
2010-01-19,58.74
2010-01-20,57.98
2010-01-21,57.78
2010-01-22,58.63
2010-01-25,58.32
2010-01-26,57.91
2010-01-27,58.01
2010-01-28,56.85
2010-01-29,56.83
2010-02-01,56.88
2010-02-02,57.67
2010-02-03,58.32
2010-02-04,55.91
2010-02-05,55.13
2010-02-08,54.82
2010-02-09,55.48
2010-02-10,56.72
2010-02-11,57.13
2010-02-12,56.84
2010-02-16,57.88
2010-02-17,59.06
2010-02-18,59.91
2010-02-19,60.03
2010-02-22,59.54
2010-02-23,59.11
2010-02-24,59.43
2010-02-25,59.18
2010-02-26,59.48
2010-03-01,61.22
2010-03-02,61.44
2010-03-03,61.21
2010-03-04,60.98
2010-03-05,61.82
2010-03-08,61.53
2010-03-09,61.66
2010-03-10,61.85
2010-03-11,61.3
2010-03-12,61.31
2010-03-15,61.84
2010-03-16,62.87
2010-03-17,64.67
2010-03-18,65.0
2010-03-19,64.27
2010-03-22,64.34
2010-03-23,64.34
2010-03-24,63.4
2010-03-25,62.74
2010-03-26,62.15
2010-03-29,62.5
2010-03-30,62.4
2010-03-31,61.92
2010-04-01,62.06
2010-04-05,62.01
2010-04-06,63.4
2010-04-07,63.23
2010-04-08,63.12
2010-04-09,61.79
2010-04-12,60.39
2010-04-13,61.49
2010-04-14,60.32
2010-04-15,60.65
2010-04-16,60.91
2010-04-19,60.72
2010-04-20,61.06
2010-04-21,59.28
2010-04-22,58.73
2010-04-23,59.79
2010-04-26,59.01
2010-04-27,58.39
2010-04-28,59.65
2010-04-29,61.49
2010-04-30,61.99
2010-05-03,61.81
2010-05-04,59.84
2010-05-05,60.28
2010-05-06,58.34
2010-05-07,57.65
2010-05-10,58.74
2010-05-11,59.02
2010-05-12,59.85
2010-05-13,59.15
2010-05-14,59.5
2010-05-17,59.7
2010-05-18,58.0
2010-05-19,58.17
2010-05-20,55.87
2010-05-21,56.01
2010-05-24,55.4
2010-05-25,53.3
2010-05-26,51.66
2010-05-27,53.38
2010-05-28,52.64
2010-06-01,51.8
2010-06-02,53.52
2010-06-03,53.64
2010-06-04,51.55
2010-06-07,53.81
2010-06-08,52.55
2010-06-09,51.43
2010-06-10,52.37
2010-06-11,53.41
2010-06-14,52.93
2010-06-15,54.84
2010-06-16,55.36
2010-06-17,55.42
2010-06-18,55.33
2010-06-21,54.81
2010-06-22,54.59
2010-06-23,55.4
2010-06-24,54.76
2010-06-25,55.95
2010-06-28,55.94
2010-06-29,53.32
2010-06-30,50.82
2010-07-01,49.58
2010-07-02,50.84
2010-07-06,49.02
2010-07-07,49.49
2010-07-08,50.09
2010-07-09,51.23
2010-07-12,51.1
2010-07-13,52.31
2010-07-14,52.06
2010-07-15,53.24
2010-07-16,52.03
2010-07-19,52.56
2010-07-20,51.99
2010-07-21,51.05
2010-07-22,52.28
2010-07-23,52.71
2010-07-26,54.45
2010-07-27,54.2
2010-07-28,52.85
2010-07-29,53.69
2010-07-30,55.22
2010-08-02,56.26
2010-08-03,56.17
2010-08-04,56.64
2010-08-05,55.92
2010-08-06,56.67
2010-08-09,57.1
2010-08-10,57.78
2010-08-11,55.57
2010-08-12,56.11
2010-08-13,55.75
2010-08-16,55.48
2010-08-17,55.25
2010-08-18,55.14
2010-08-19,54.0
2010-08-20,53.65
2010-08-23,53.5
2010-08-24,50.84
2010-08-25,51.86
2010-08-26,50.65
2010-08-27,51.9
2010-08-30,50.91
2010-08-31,51.46
2010-09-01,52.73
2010-09-02,52.96
2010-09-03,53.23
2010-09-07,52.87
2010-09-08,53.93
2010-09-09,53.9
2010-09-10,55.4
2010-09-13,54.62
2010-09-14,54.37
2010-09-15,54.93
2010-09-16,54.85
2010-09-17,55.24
2010-09-20,56.03
2010-09-21,56.74
2010-09-22,56.9
2010-09-23,56.99
2010-09-24,58.36
2010-09-27,57.64
2010-09-28,58.29
2010-09-29,57.39
2010-09-30,57.63
2010-10-01,58.17
2010-10-04,57.4
2010-10-05,58.61
2010-10-06,57.7
2010-10-07,57.52
2010-10-08,57.87
2010-10-11,57.64
2010-10-12,57.94
2010-10-13,58.28
2010-10-14,57.99
2010-10-15,58.25
2010-10-18,59.67
2010-10-19,58.72
2010-10-20,58.07
2010-10-21,58.63
2010-10-22,58.74
2010-10-25,59.48
2010-10-26,59.19
2010-10-27,59.37
2010-10-28,61.29
2010-10-29,62.02
2010-11-01,61.92
2010-11-02,62.87
2010-11-03,62.42
2010-11-04,62.27
2010-11-05,61.23
2010-11-08,60.9
2010-11-09,60.65
2010-11-10,61.4
2010-11-11,61.3
2010-11-12,60.27
2010-11-15,60.57
2010-11-16,59.78
2010-11-17,59.98
2010-11-18,60.78
2010-11-19,60.59
2010-11-22,61.57
2010-11-23,60.59
2010-11-24,61.56
2010-11-26,62.49
2010-11-29,59.92
2010-11-30,59.37
2010-12-01,60.37
2010-12-02,60.5
2010-12-03,60.58
2010-12-06,55.64
2010-12-07,56.3
2010-12-08,56.83
2010-12-09,57.03
2010-12-10,57.52
2010-12-13,56.76
2010-12-14,57.81
2010-12-15,57.89
2010-12-16,58.76
2010-12-17,59.22
2010-12-20,59.28
2010-12-21,59.07
2010-12-22,59.4
2010-12-23,59.63
2010-12-27,59.55
2010-12-28,59.46
2010-12-29,59.73
2010-12-30,59.49
2010-12-31,59.09
2011-01-03,59.91
2011-01-04,58.62
2011-01-05,59.45
2011-01-06,59.0
2011-01-07,59.13
2011-01-10,56.55
2011-01-11,57.87
2011-01-12,57.86
2011-01-13,57.21
2011-01-14,57.43
2011-01-18,56.8
2011-01-19,56.22
2011-01-20,56.59
2011-01-21,56.03
2011-01-24,56.61
2011-01-25,56.01
2011-01-26,56.25
2011-01-27,54.79
2011-01-28,51.16
2011-01-31,51.43
2011-02-01,52.19
2011-02-02,53.17
2011-02-03,49.5
2011-02-04,51.07
2011-02-07,50.95
2011-02-08,50.8
2011-02-09,50.71
2011-02-10,51.66
2011-02-11,52.0
2011-02-14,53.43
2011-02-15,53.1
2011-02-16,53.89
2011-02-17,53.69
2011-02-18,53.45
2011-02-22,52.84
2011-02-23,52.7
2011-02-24,52.95
2011-02-25,53.54
2011-02-28,53.11
2011-03-01,52.99
2011-03-02,53.75
2011-03-03,54.0
2011-03-04,54.27
2011-03-07,53.75
2011-03-08,54.09
2011-03-09,53.64
2011-03-10,51.9
2011-03-11,53.24
2011-03-14,53.97
2011-03-15,53.89
2011-03-16,52.84
2011-03-17,53.19
2011-03-18,53.0
2011-03-21,53.29
2011-03-22,52.85
2011-03-23,53.23
2011-03-24,54.84
2011-03-25,55.27
2011-03-28,54.98
2011-03-29,55.49
2011-03-30,56.75
2011-03-31,57.49
2011-04-01,57.36
2011-04-04,56.7
2011-04-05,55.86
2011-04-06,55.82
2011-04-07,56.22
2011-04-08,56.0
2011-04-11,55.35
2011-04-12,55.37
2011-04-13,55.93
2011-04-14,56.34
2011-04-15,57.0
2011-04-18,57.27
2011-04-19,56.41
2011-04-20,56.67
2011-04-21,56.38
2011-04-25,56.31
2011-04-26,57.68
2011-04-27,59.0
2011-04-28,58.92
2011-04-29,58.83
2011-05-02,59.76
2011-05-03,60.09
2011-05-04,60.95
2011-05-05,58.74
2011-05-06,59.33
2011-05-09,59.93
2011-05-10,60.05
2011-05-11,59.76
2011-05-12,60.13
2011-05-13,59.96
2011-05-16,59.54
2011-05-17,60.41
2011-05-18,60.84
2011-05-19,60.87
2011-05-20,60.51
2011-05-23,59.25
2011-05-24,59.4
2011-05-25,58.77
2011-05-26,59.46
2011-05-27,59.9
2011-05-31,60.81
2011-06-01,59.99
2011-06-02,59.85
2011-06-03,58.89
2011-06-06,58.44
2011-06-07,59.29
2011-06-08,59.38
2011-06-09,59.66
2011-06-10,58.34
2011-06-13,58.24
2011-06-14,58.03
2011-06-15,58.0
2011-06-16,57.87
2011-06-17,57.88
2011-06-20,59.51
2011-06-21,59.97
2011-06-22,59.86
2011-06-23,59.84
2011-06-24,58.75
2011-06-27,59.34
2011-06-28,60.47
2011-06-29,60.13
2011-06-30,60.35
2011-07-01,60.84
2011-07-05,60.31
2011-07-06,60.53
2011-07-07,61.63
2011-07-08,61.99
2011-07-11,60.97
2011-07-12,61.11
2011-07-13,61.12
2011-07-14,60.6
2011-07-15,60.66
2011-07-18,59.09
2011-07-19,60.52
2011-07-20,60.4
2011-07-21,61.49
2011-07-22,61.15
2011-07-25,60.85
2011-07-26,60.0
2011-07-27,59.6
2011-07-28,59.95
2011-07-29,59.38
2011-08-01,58.45
2011-08-02,57.28
2011-08-03,58.35
2011-08-04,55.54
2011-08-05,55.58
2011-08-08,52.58
2011-08-09,54.49
2011-08-10,51.78
2011-08-11,53.61
2011-08-12,54.43
2011-08-15,55.81
2011-08-16,56.21
2011-08-17,56.23
2011-08-18,54.56
2011-08-19,54.7
2011-08-22,55.31
2011-08-23,57.11
2011-08-24,57.74
2011-08-25,56.38
2011-08-26,57.23
2011-08-29,58.3
2011-08-30,59.6
2011-08-31,59.35
2011-09-01,59.5
2011-09-02,58.41
2011-09-06,59.31
2011-09-07,60.19
2011-09-08,60.84
2011-09-09,59.85
2011-09-12,60.27
2011-09-13,60.45
2011-09-14,60.27
2011-09-15,60.3
2011-09-16,60.98
2011-09-19,61.19
2011-09-20,65.52
2011-09-21,63.87
2011-09-22,63.57
2011-09-23,62.69
2011-09-26,63.09
2011-09-27,63.98
2011-09-28,62.4
2011-09-29,62.95
2011-09-30,61.97
2011-10-03,60.83
2011-10-04,61.37
2011-10-05,63.9
2011-10-06,63.36
2011-10-07,62.95
2011-10-10,65.4
2011-10-11,66.25
2011-10-12,65.49
2011-10-13,66.38
2011-10-14,66.32
2011-10-17,64.71
2011-10-18,65.91
2011-10-19,65.28
2011-10-20,66.01
2011-10-21,66.97
2011-10-24,67.84
2011-10-25,65.81
2011-10-26,66.41
2011-10-27,65.16
2011-10-28,66.13
2011-10-31,64.92
2011-11-01,63.53
2011-11-02,63.75
2011-11-03,64.14
2011-11-04,63.64
2011-11-07,64.31
2011-11-08,65.18
2011-11-09,64.3
2011-11-10,64.34
2011-11-11,64.59
2011-11-14,65.0
2011-11-15,65.4
2011-11-16,64.85
2011-11-17,64.5
2011-11-18,63.04
2011-11-21,61.38
2011-11-22,61.73
2011-11-23,60.52
2011-11-25,60.43
2011-11-28,62.0
2011-11-29,61.21
2011-11-30,63.07
2011-12-01,62.79
2011-12-02,61.24
2011-12-05,61.27
2011-12-06,62.23
2011-12-07,62.68
2011-12-08,61.22
2011-12-09,63.66
2011-12-12,63.7
2011-12-13,63.95
2011-12-14,63.05
2011-12-15,63.06
2011-12-16,63.74
2011-12-19,64.57
2011-12-20,66.38
2011-12-21,66.53
2011-12-22,67.1
2011-12-23,67.32
2011-12-27,68.03
2011-12-28,66.75
2011-12-29,67.57
2011-12-30,67.64
2012-01-03,68.66
2012-01-04,67.86
2012-01-05,68.53
2012-01-06,67.2
2012-01-09,68.24
2012-01-10,70.25
2012-01-11,72.05
2012-01-12,73.21
2012-01-13,72.59
2012-01-17,73.15
2012-01-18,72.71
2012-01-19,72.25
2012-01-20,73.82
2012-01-23,73.47
2012-01-24,74.03
2012-01-25,73.91
2012-01-26,72.59
2012-01-27,73.39
2012-01-30,72.7
2012-01-31,72.72
2012-02-01,73.9
2012-02-02,74.2
2012-02-03,73.21
2012-02-06,73.53
2012-02-07,73.41
2012-02-08,72.82
2012-02-09,72.02
2012-02-10,71.7
2012-02-13,73.11
2012-02-14,74.01
2012-02-15,74.54
2012-02-16,75.5
2012-02-17,74.7
2012-02-21,74.04
2012-02-22,74.59
2012-02-23,74.88
2012-02-24,74.9
2012-02-27,74.09
2012-02-28,73.74
2012-02-29,73.44
2012-03-01,73.88
2012-03-02,73.76
2012-03-05,73.1
2012-03-06,72.26
2012-03-07,72.53
2012-03-08,74.25
2012-03-09,75.15
2012-03-12,74.39
2012-03-13,76.11
2012-03-14,76.01
2012-03-15,76.23
2012-03-16,75.58
2012-03-19,75.49
2012-03-20,75.49
2012-03-21,75.58
2012-03-22,76.11
2012-03-23,76.89
2012-03-26,78.5
2012-03-27,78.02
2012-03-28,77.91
2012-03-29,77.53
2012-03-30,77.56
2012-04-02,78.1
2012-04-03,80.31
2012-04-04,79.33
2012-04-05,79.65
2012-04-09,79.18
2012-04-10,79.12
2012-04-11,78.53
2012-04-12,78.63
2012-04-13,78.27
2012-04-16,78.15
2012-04-17,79.19
2012-04-18,78.92
2012-04-19,78.66
2012-04-20,79.09
2012-04-23,77.45
2012-04-24,77.29
2012-04-25,77.81
2012-04-26,72.81
2012-04-27,73.35
2012-04-30,72.87
2012-05-01,72.58
2012-05-02,71.88
2012-05-03,71.42
2012-05-04,69.86
2012-05-07,70.19
2012-05-08,70.73
2012-05-09,70.44
2012-05-10,70.56
2012-05-11,70.77
2012-05-14,71.11
2012-05-15,71.27
2012-05-16,70.77
2012-05-17,69.16
2012-05-18,68.07
2012-05-21,69.43
2012-05-22,69.55
2012-05-23,69.09
2012-05-24,69.86
2012-05-25,68.8
2012-05-29,68.73
2012-05-30,69.02
2012-05-31,68.31
2012-06-01,65.43
2012-06-04,64.9
2012-06-05,64.47
2012-06-06,65.24
2012-06-07,65.13
2012-06-08,64.98
2012-06-11,63.69
2012-06-12,63.09
2012-06-13,63.58
2012-06-14,65.92
2012-06-15,66.18
2012-06-18,65.9
2012-06-19,67.6
2012-06-20,67.08
2012-06-21,59.36
2012-06-22,61.54
2012-06-25,61.26
2012-06-26,63.27
2012-06-27,63.59
2012-06-28,62.06
2012-06-29,64.04
2012-07-02,64.84
2012-07-03,65.22
2012-07-05,65.22
2012-07-06,64.75
2012-07-09,64.91
2012-07-10,64.14
2012-07-11,63.38
2012-07-12,62.93
2012-07-13,65.3
2012-07-16,66.05
2012-07-17,66.77
2012-07-18,67.29
2012-07-19,67.99
2012-07-20,66.32
2012-07-23,65.8
2012-07-24,63.96
2012-07-25,65.29
2012-07-26,67.56
2012-07-27,70.47
2012-07-30,69.47
2012-07-31,68.52
2012-08-01,68.17
2012-08-02,68.22
2012-08-03,69.39
2012-08-06,71.03
2012-08-07,71.45
2012-08-08,71.72
2012-08-09,71.2
2012-08-10,71.95
2012-08-13,71.74
2012-08-14,71.09
2012-08-15,70.92
2012-08-16,70.22
2012-08-17,69.06
2012-08-20,70.74
2012-08-21,71.26
2012-08-22,71.64
2012-08-23,71.45
2012-08-24,72.04
2012-08-27,71.63
2012-08-28,71.98
2012-08-29,71.65
2012-08-30,70.86
2012-08-31,72.21
2012-09-04,72.11
2012-09-05,70.97
2012-09-06,74.41
2012-09-07,75.4
2012-09-10,73.58
2012-09-11,73.64
2012-09-12,73.92
2012-09-13,75.12
2012-09-14,76.18
2012-09-17,76.71
2012-09-18,76.86
2012-09-19,77.09
2012-09-20,76.97
2012-09-21,77.21
2012-09-24,76.93
2012-09-25,76.17
2012-09-26,76.04
2012-09-27,76.75
2012-09-28,76.48
2012-10-01,76.67
2012-10-02,78.37
2012-10-03,78.92
2012-10-04,79.55
2012-10-05,80.24
2012-10-08,80.29
2012-10-09,79.86
2012-10-10,77.33
2012-10-11,77.81
2012-10-12,78.46
2012-10-15,78.01
2012-10-16,78.28
2012-10-17,78.76
2012-10-18,78.42
2012-10-19,75.22
2012-10-22,74.96
2012-10-23,74.16
2012-10-24,74.09
2012-10-25,74.33
2012-10-26,75.09
2012-10-31,73.41
2012-11-01,74.83
2012-11-02,73.0
2012-11-05,73.35
2012-11-06,74.01
2012-11-07,72.66
2012-11-08,71.38
2012-11-09,71.6
2012-11-12,75.68
2012-11-13,74.44
2012-11-14,74.6
2012-11-15,73.69
2012-11-16,74.45
2012-11-19,75.09
2012-11-20,77.05
2012-11-21,77.76
2012-11-23,78.51
2012-11-26,78.78
2012-11-27,78.08
2012-11-28,78.99
2012-11-29,79.35
2012-11-30,78.79
2012-12-03,78.65
2012-12-04,79.5
2012-12-05,79.19
2012-12-06,79.1
2012-12-07,78.69
2012-12-10,80.46
2012-12-11,82.12
2012-12-12,81.17
2012-12-13,79.84
2012-12-14,79.29
2012-12-17,80.3
2012-12-18,80.07
2012-12-19,79.75
2012-12-20,80.03
2012-12-21,79.7
2012-12-24,79.27
2012-12-26,78.74
2012-12-27,78.72
2012-12-28,77.79
2012-12-31,78.58
2013-01-02,80.99
2013-01-03,81.62
2013-01-04,82.1
2013-01-07,85.86
2013-01-08,91.47
2013-01-09,92.41
2013-01-10,95.36
2013-01-11,96.26
2013-01-14,97.53
2013-01-15,99.44
2013-01-16,98.83
2013-01-17,98.32
2013-01-18,100.06
2013-01-22,99.21
2013-01-23,98.14
2013-01-24,97.63
2013-01-25,99.65
2013-01-28,98.89
2013-01-29,99.25
2013-01-30,98.37
2013-01-31,99.0
2013-02-01,101.438
2013-02-04,98.65
2013-02-05,99.75
2013-02-06,97.87
2013-02-07,97.83
2013-02-08,100.02
2013-02-11,99.94
2013-02-12,98.93
2013-02-13,99.06
2013-02-14,99.55
2013-02-15,98.66
2013-02-19,100.47
2013-02-20,100.58
2013-02-21,99.44
2013-02-22,101.65
2013-02-25,99.17
2013-02-26,99.48
2013-02-27,101.05
2013-02-28,103.37
2013-03-01,105.53
2013-03-04,105.52
2013-03-05,108.29
2013-03-06,110.03
2013-03-07,110.27
2013-03-08,111.31
2013-03-11,111.92
2013-03-12,113.59
2013-03-13,113.1
2013-03-14,114.27
2013-03-15,112.43
2013-03-18,111.88
2013-03-19,111.09
2013-03-20,112.3
2013-03-21,111.99
2013-03-22,112.99
2013-03-25,111.8
2013-03-26,112.5
2013-03-27,113.18
2013-03-28,115.97
2013-04-01,116.94
2013-04-02,117.62
2013-04-03,115.51
2013-04-04,115.85
2013-04-05,116.55
2013-04-08,116.55
2013-04-09,116.5
2013-04-10,120.7
2013-04-11,122.99
2013-04-12,123.0
2013-04-15,120.52
2013-04-16,122.5
2013-04-17,121.58
2013-04-18,119.17
2013-04-19,122.49
2013-04-22,126.7
2013-04-23,126.0
2013-04-24,118.03
2013-04-25,117.76
2013-04-26,120.38
2013-04-29,118.35
2013-04-30,118.0
2013-05-01,116.51
2013-05-02,119.22
2013-05-03,121.51
2013-05-06,121.25
2013-05-07,121.61
2013-05-08,122.63
2013-05-09,122.34
2013-05-10,127.25
2013-05-13,129.65
2013-05-14,130.28
2013-05-15,129.77
2013-05-16,123.6
2013-05-17,124.84
2013-05-20,123.04
2013-05-21,123.55
2013-05-22,123.2
2013-05-23,123.72
2013-05-24,122.42
2013-05-28,124.63
2013-05-29,123.18
2013-05-30,124.59
2013-05-31,123.86
2013-06-03,120.94
2013-06-04,117.78
2013-06-05,112.22
2013-06-06,115.53
2013-06-07,120.43
2013-06-10,117.8
2013-06-11,118.83
2013-06-12,118.22
2013-06-13,120.32
2013-06-14,119.28
2013-06-17,117.66
2013-06-18,120.14
2013-06-19,117.16
2013-06-20,113.6
2013-06-21,114.05
2013-06-24,113.25
2013-06-25,114.61
2013-06-26,118.27
2013-06-27,118.31
2013-06-28,117.37
2013-07-01,118.75
2013-07-02,120.31
2013-07-03,120.93
2013-07-05,122.32
2013-07-08,121.79
2013-07-09,124.75
2013-07-10,125.02
2013-07-11,134.8
2013-07-12,134.39
2013-07-15,134.79
2013-07-16,135.01
2013-07-17,136.66
2013-07-18,133.03
2013-07-19,135.8
2013-07-22,137.95
2013-07-23,135.22
2013-07-24,136.08
2013-07-25,140.49
2013-07-26,143.66
2013-07-29,142.58
2013-07-30,145.58
2013-07-31,147.37
2013-08-01,148.67
2013-08-02,147.2
2013-08-05,146.69
2013-08-06,141.57
2013-08-07,142.63
2013-08-08,142.05
2013-08-09,142.04
