date,close_price
1998-01-02,24.1806
1998-01-05,24.0914
1998-01-06,23.9129
1998-01-07,23.6684
1998-01-08,23.3115
1998-01-09,22.4853
1998-01-12,23.3776
1998-01-13,24.0914
1998-01-14,23.5792
1998-01-15,23.6452
1998-01-16,23.6452
1998-01-20,23.8237
1998-01-21,23.7577
1998-01-22,23.1099
1998-01-23,22.753
1998-01-26,22.5299
1998-01-27,22.5299
1998-01-28,22.8422
1998-01-29,23.0439
1998-01-30,22.8422
1998-02-02,23.333
1998-02-03,23.0653
1998-02-04,23.1884
1998-02-05,22.7762
1998-02-06,22.753
1998-02-09,23.3883
1998-02-10,23.6899
1998-02-11,23.6006
1998-02-12,23.9575
1998-02-13,23.9022
1998-02-17,23.6452
1998-02-18,23.8683
1998-02-19,23.49
1998-02-20,24.2252
1998-02-23,24.1146
1998-02-24,23.5114
1998-02-25,23.556
1998-02-26,24.136
1998-02-27,24.0022
1998-03-02,24.0914
1998-03-03,24.1806
1998-03-04,23.7345
1998-03-05,23.7238
1998-03-06,23.7345
1998-03-09,23.333
1998-03-10,23.2437
1998-03-11,23.9081
1998-03-12,23.7291
1998-03-13,23.6395
1998-03-16,23.3261
1998-03-17,23.2598
1998-03-18,23.036
1998-03-19,22.6545
1998-03-20,23.0127
1998-03-23,22.5202
1998-03-24,22.3411
1998-03-25,23.1023
1998-03-26,23.1023
1998-03-27,22.2068
1998-03-30,22.2964
1998-03-31,22.2068
1998-04-01,22.3859
1998-04-02,22.4754
1998-04-03,22.4307
1998-04-06,22.6438
1998-04-07,22.565
1998-04-08,22.633
1998-04-09,22.6098
1998-04-13,22.4987
1998-04-14,22.9232
1998-04-15,23.2813
1998-04-16,23.1918
1998-04-17,23.1918
1998-04-20,23.7738
1998-04-21,24.1768
1998-04-22,23.9529
1998-04-23,23.8186
1998-04-24,22.8444
1998-04-27,22.6993
1998-04-28,23.1918
1998-04-29,22.5757
1998-04-30,22.7888
1998-05-01,22.9679
1998-05-04,23.0575
1998-05-05,23.0575
1998-05-06,22.9232
1998-05-07,22.9232
1998-05-08,23.0127
1998-05-11,23.0575
1998-05-12,23.1023
1998-05-13,23.0575
1998-05-14,22.9679
1998-05-15,23.1023
1998-05-18,22.2319
1998-05-19,22.2319
1998-05-20,23.3709
1998-05-21,23.6395
1998-05-22,22.1298
1998-05-26,22.2964
1998-05-27,22.9679
1998-05-28,22.8336
1998-05-29,22.565
1998-06-01,22.5005
1998-06-02,21.3884
1998-06-03,20.6201
1998-06-04,21.0875
1998-06-05,21.4905
1998-06-08,21.5603
1998-06-09,21.6248
1998-06-10,22.6993
1998-06-11,21.4582
1998-06-12,21.2218
1998-06-15,19.8787
1998-06-16,20.1473
1998-06-17,21.3073
1998-06-18,20.3633
1998-06-19,21.1725
1998-06-22,21.1725
1998-06-23,20.7032
1998-06-24,20.8704
1998-06-25,21.0376
1998-06-26,21.6472
1998-06-29,21.2426
1998-06-30,20.838
1998-07-01,20.2986
1998-07-02,19.5542
1998-07-06,20.3472
1998-07-07,20.3633
1998-07-08,20.0936
1998-07-09,20.4982
1998-07-10,20.2609
1998-07-13,20.0936
1998-07-14,20.3633
1998-07-15,20.0289
1998-07-16,20.4982
1998-07-17,20.2986
1998-07-20,20.0289
1998-07-21,19.9588
1998-07-22,20.0289
1998-07-23,19.3169
1998-07-24,20.0936
1998-07-27,20.1638
1998-07-28,19.894
1998-07-29,19.3169
1998-07-30,19.9588
1998-07-31,19.2845
1998-08-03,18.9824
1998-08-04,18.9501
1998-08-05,19.1173
1998-08-06,19.4193
1998-08-07,18.8799
1998-08-10,18.5077
1998-08-11,18.4106
1998-08-12,18.7127
1998-08-13,18.4106
1998-08-14,18.4268
1998-08-17,18.6102
1998-08-18,18.6803
1998-08-19,18.7451
1998-08-20,18.6803
1998-08-21,18.3405
1998-08-24,19.0148
1998-08-25,19.1496
1998-08-26,18.8799
1998-08-27,17.8334
1998-08-28,17.8011
1998-08-31,18.1409
1998-09-01,18.8799
1998-09-02,18.238
1998-09-03,17.9359
1998-09-04,17.7687
1998-09-08,19.6567
1998-09-09,18.4754
1998-09-10,17.5314
1998-09-11,18.7451
1998-09-14,19.2845
1998-09-15,20.1638
1998-09-16,20.1761
1998-09-17,19.667
1998-09-18,20.0732
1998-09-21,19.9053
1998-09-22,20.3115
1998-09-23,21.1944
1998-09-24,20.4469
1998-09-25,20.4469
1998-09-28,20.7881
1998-09-29,20.1111
1998-09-30,16.5904
1998-10-01,18.2479
1998-10-02,19.3961
1998-10-05,18.8545
1998-10-06,18.757
1998-10-07,18.2154
1998-10-08,17.1321
1998-10-09,17.8416
1998-10-12,17.977
1998-10-13,18.4158
1998-10-14,19.8728
1998-10-15,19.9757
1998-10-16,20.6148
1998-10-19,19.9378
1998-10-20,20.0082
1998-10-21,19.8728
1998-10-22,19.9757
1998-10-23,19.9378
1998-10-26,20.279
1998-10-27,19.8728
1998-10-28,19.9053
1998-10-29,20.2465
1998-10-30,20.2465
1998-11-02,20.1761
1998-11-03,20.1111
1998-11-04,21.124
1998-11-05,21.3948
1998-11-06,20.9886
1998-11-09,20.3115
1998-11-10,20.6527
1998-11-11,20.344
1998-11-12,20.1111
1998-11-13,19.9053
1998-11-16,21.059
1998-11-17,21.124
1998-11-18,20.4794
1998-11-19,19.8728
1998-11-20,19.8024
1998-11-23,20.8531
1998-11-24,21.6656
1998-11-25,21.3948
1998-11-27,21.2919
1998-11-30,21.124
1998-12-01,20.6852
1998-12-02,20.3819
1998-12-03,20.1761
1998-12-04,21.3298
1998-12-07,20.6148
1998-12-08,20.2086
1998-12-09,20.3115
1998-12-10,19.5695
1998-12-11,19.0603
1998-12-14,18.7895
1998-12-15,18.5837
1998-12-16,19.858
1998-12-17,20.6088
1998-12-18,19.3847
1998-12-21,19.45
1998-12-22,19.586
1998-12-23,19.858
1998-12-24,19.722
1998-12-28,19.4826
1998-12-29,19.4989
1998-12-30,19.5207
1998-12-31,19.9287
1999-01-04,20.402
1999-01-05,20.13
1999-01-06,20.5381
1999-01-07,19.994
1999-01-08,19.994
1999-01-11,19.858
1999-01-12,19.4173
1999-01-13,19.1126
1999-01-14,19.2106
1999-01-15,19.858
1999-01-19,19.7927
1999-01-20,18.8406
1999-01-21,18.5686
1999-01-22,18.7046
1999-01-25,19.0419
1999-01-26,18.3618
1999-01-27,18.2585
1999-01-28,17.9864
1999-01-29,17.8885
1999-02-01,17.6165
1999-02-02,17.5131
1999-02-03,17.5131
1999-02-04,17.2737
1999-02-05,16.833
1999-02-08,18.2258
1999-02-09,18.1605
1999-02-10,18.1932
1999-02-11,18.9766
1999-02-12,18.1932
1999-02-16,18.4979
1999-02-17,18.6339
1999-02-18,18.3618
1999-02-19,18.4979
1999-02-22,19.5533
1999-02-23,19.3847
1999-02-24,18.6339
1999-02-25,18.9385
1999-02-26,18.9766
1999-03-01,19.5207
1999-03-02,19.8253
1999-03-03,19.9287
1999-03-04,20.3694
1999-03-05,20.4728
1999-03-08,20.13
1999-03-09,19.9287
1999-03-10,20.402
1999-03-11,20.4728
1999-03-12,20.6088
1999-03-15,20.723
1999-03-16,20.2334
1999-03-17,20.0861
1999-03-18,21.0098
1999-03-19,20.7693
1999-03-22,20.8021
1999-03-23,20.3266
1999-03-24,20.5289
1999-03-25,21.4525
1999-03-26,20.4469
1999-03-29,21.3487
1999-03-30,21.1793
1999-03-31,19.9495
1999-04-01,20.5289
1999-04-05,21.2831
1999-04-06,20.2228
1999-04-07,20.2392
1999-04-08,20.5671
1999-04-09,20.2938
1999-04-12,21.0426
1999-04-13,20.1189
1999-04-14,19.9167
1999-04-15,20.4305
1999-04-16,20.2228
1999-04-19,21.3159
1999-04-20,21.2831
1999-04-21,21.8625
1999-04-22,21.7586
1999-04-23,21.6602
1999-04-26,21.2503
1999-04-27,21.7586
1999-04-28,21.7969
1999-04-29,21.7586
1999-04-30,22.0702
1999-05-03,22.1357
1999-05-04,21.4525
1999-05-05,21.7969
1999-05-06,21.622
1999-05-07,21.7258
1999-05-10,21.7258
1999-05-11,22.1357
1999-05-12,21.8297
1999-05-13,22.6167
1999-05-14,21.9663
1999-05-17,22.0702
1999-05-18,21.7258
1999-05-19,22.4801
1999-05-20,22.6823
1999-05-21,21.9991
1999-05-24,21.9991
1999-05-25,21.8297
1999-05-26,22.6823
1999-05-27,22.103
1999-05-28,22.5457
1999-06-01,21.9335
1999-06-02,21.693
1999-06-03,22.1357
1999-06-04,21.9335
1999-06-07,21.7258
1999-06-08,21.5564
1999-06-09,21.387
1999-06-10,21.1465
1999-06-11,21.1793
1999-06-14,21.2121
1999-06-15,20.8732
1999-06-16,21.3069
1999-06-17,21.0708
1999-06-18,21.0708
1999-06-21,20.9336
1999-06-22,20.7963
1999-06-23,20.4505
1999-06-24,20.4505
1999-06-25,20.5218
1999-06-28,20.8622
1999-06-29,20.7579
1999-06-30,20.5877
1999-07-01,20.4175
1999-07-02,20.7579
1999-07-06,20.6591
1999-07-07,20.692
1999-07-08,20.4175
1999-07-09,20.5548
1999-07-12,20.5877
1999-07-13,20.3846
1999-07-14,20.3132
1999-07-15,20.3846
1999-07-16,20.725
1999-07-19,20.3132
1999-07-20,20.3462
1999-07-21,20.7963
1999-07-22,20.143
1999-07-23,20.6591
1999-07-26,21.1697
1999-07-27,21.6199
1999-07-28,21.3453
1999-07-29,20.7963
1999-07-30,20.6207
1999-08-02,20.8952
1999-08-03,20.5218
1999-08-04,20.4505
1999-08-05,20.8293
1999-08-06,20.3132
1999-08-09,21.274
1999-08-10,21.1038
1999-08-11,21.8944
1999-08-12,21.7571
1999-08-13,22.2347
1999-08-16,23.2284
1999-08-17,22.5092
1999-08-18,22.0645
1999-08-19,22.1689
1999-08-20,22.2347
1999-08-23,22.5806
1999-08-24,22.921
1999-08-25,23.0253
1999-08-26,22.4434
1999-08-27,21.9602
1999-08-30,21.1038
1999-08-31,21.7571
1999-09-01,21.8944
1999-09-02,21.1367
1999-09-03,21.6199
1999-09-07,21.6857
1999-09-08,20.9336
1999-09-09,21.3783
1999-09-10,21.823
1999-09-13,22.1304
1999-09-14,21.79
1999-09-15,21.5364
1999-09-16,21.3655
1999-09-17,21.2607
1999-09-20,21.4372
1999-09-21,20.8472
1999-09-22,21.1946
1999-09-23,20.985
1999-09-24,20.985
1999-09-27,21.0236
1999-09-28,20.952
1999-09-29,20.6101
1999-09-30,20.6763
1999-10-01,20.1249
1999-10-04,19.9209
1999-10-05,19.7114
1999-10-06,20.2628
1999-10-07,19.9871
1999-10-08,20.2628
1999-10-11,20.0036
1999-10-12,19.3695
1999-10-13,18.956
1999-10-14,19.1269
1999-10-15,18.0573
1999-10-18,18.129
1999-10-19,18.1951
1999-10-20,17.9525
1999-10-21,17.6768
1999-10-22,18.2282
1999-10-25,18.6087
1999-10-26,18.5039
1999-10-27,19.1269
1999-10-28,19.3695
1999-10-29,19.5735
1999-11-01,19.2648
1999-11-02,18.9891
1999-11-03,19.0553
1999-11-04,19.3695
1999-11-05,19.8161
1999-11-08,20.158
1999-11-09,19.954
1999-11-10,19.5405
1999-11-11,19.2317
1999-11-12,19.6783
1999-11-15,19.4357
1999-11-16,19.6066
1999-11-17,19.16
1999-11-18,19.0222
1999-11-19,19.0553
1999-11-22,19.0222
1999-11-23,18.956
1999-11-24,19.0222
1999-11-26,18.9726
1999-11-29,18.5425
1999-11-30,18.333
1999-12-01,17.9911
1999-12-02,17.539
1999-12-03,17.7816
1999-12-06,17.7485
1999-12-07,17.8533
1999-12-08,17.7816
1999-12-09,17.3681
1999-12-10,17.539
1999-12-13,17.6107
1999-12-14,17.7154
1999-12-15,17.5325
1999-12-16,17.0447
1999-12-17,17.4937
1999-12-20,17.1168
1999-12-21,18.2254
1999-12-22,18.0868
1999-12-23,18.0148
1999-12-27,16.9062
1999-12-28,17.078
1999-12-29,17.1833
1999-12-30,17.2554
1999-12-31,17.1833
2000-01-03,16.9062
2000-01-04,16.7676
2000-01-05,17.0447
2000-01-06,17.2166
2000-01-07,17.5325
2000-01-10,17.0447
2000-01-11,16.9062
2000-01-12,17.0115
2000-01-13,17.3219
2000-01-14,16.9782
2000-01-18,16.3519
2000-01-19,16.5625
2000-01-20,16.0747
2000-01-21,16.6623
2000-01-24,16.4239
2000-01-25,16.3186
2000-01-26,16.8397
2000-01-27,16.2133
2000-01-28,15.2765
2000-01-31,16.1468
2000-02-01,16.108
2000-02-02,15.7976
2000-02-03,16.3519
2000-02-04,16.7011
2000-02-07,15.9694
2000-02-08,15.9694
2000-02-09,16.2576
2000-02-10,16.0415
2000-02-11,16.0747
2000-02-14,15.9029
2000-02-15,16.7343
2000-02-16,16.8729
2000-02-17,17.0447
2000-02-18,16.9782
2000-02-22,17.0115
2000-02-23,17.1168
2000-02-24,16.7676
2000-02-25,16.5958
2000-02-28,16.5958
2000-02-29,16.5625
2000-03-01,16.7676
2000-03-02,17.8762
2000-03-03,17.5658
2000-03-06,16.3519
2000-03-07,15.5925
2000-03-08,14.7943
2000-03-09,15.5537
2000-03-10,14.9994
2000-03-13,15.1768
2000-03-14,15.0714
2000-03-15,15.9694
2000-03-16,17.7709
2000-03-17,17.2277
2000-03-20,17.6323
2000-03-21,18.048
2000-03-22,17.8083
2000-03-23,18.0146
2000-03-24,18.9568
2000-03-27,17.9142
2000-03-28,18.6112
2000-03-29,18.6781
2000-03-30,19.6203
2000-03-31,21.0142
2000-04-03,21.7446
2000-04-04,21.7446
2000-04-05,22.3022
2000-04-06,22.3022
2000-04-07,22.252
2000-04-10,22.6144
2000-04-11,22.475
2000-04-12,22.2687
2000-04-13,22.7203
2000-04-14,21.7112
2000-04-17,22.2687
2000-04-18,22.3746
2000-04-19,22.0568
2000-04-20,22.3746
2000-04-24,22.7203
2000-04-25,23.4507
2000-04-26,22.8932
2000-04-27,22.0568
2000-04-28,22.4862
2000-05-01,23.211
2000-05-02,23.802
2000-05-03,22.0568
2000-05-04,22.0959
2000-05-05,22.3356
2000-05-08,21.8505
2000-05-09,21.8171
2000-05-10,21.477
2000-05-11,21.5272
2000-05-12,21.884
2000-05-15,22.3746
2000-05-16,23.1385
2000-05-17,22.1628
2000-05-18,22.4416
2000-05-19,21.5718
2000-05-22,22.3746
2000-05-23,21.9175
2000-05-24,22.514
2000-05-25,21.7781
2000-05-26,22.2687
2000-05-30,22.8263
2000-05-31,22.3746
2000-06-01,22.4304
2000-06-02,22.5809
2000-06-05,21.9175
2000-06-06,20.9417
2000-06-07,22.0959
2000-06-08,21.0142
2000-06-09,21.1201
2000-06-12,20.2448
2000-06-13,20.7689
2000-06-14,19.6538
2000-06-15,20.1054
2000-06-16,19.8657
2000-06-19,19.375
2000-06-20,18.4327
2000-06-21,18.8932
2000-06-22,18.9605
2000-06-23,19.2072
2000-06-26,19.4876
2000-06-27,19.0334
2000-06-28,19.6278
2000-06-29,18.6464
2000-06-30,17.7379
2000-07-03,17.9791
2000-07-05,18.4389
2000-07-06,18.4389
2000-07-07,18.5791
2000-07-10,18.6464
2000-07-11,19.2409
2000-07-12,19.7344
2000-07-13,19.9811
2000-07-14,20.2223
2000-07-17,19.9419
2000-07-18,19.6278
2000-07-19,19.3811
2000-07-20,20.1886
2000-07-21,19.2072
2000-07-24,19.5213
2000-07-25,20.5027
2000-07-26,20.6429
2000-07-27,21.2766
2000-07-28,20.8896
2000-07-31,21.1364
2000-08-01,22.0448
2000-08-02,21.9439
2000-08-03,22.3981
2000-08-04,22.3981
2000-08-07,22.2579
2000-08-08,22.2579
2000-08-09,21.7645
2000-08-10,21.7308
2000-08-11,22.3701
2000-08-14,22.3981
2000-08-15,21.8037
2000-08-16,21.9439
2000-08-17,22.3252
2000-08-18,22.2243
2000-08-21,22.3981
2000-08-22,22.2243
2000-08-23,22.0112
2000-08-24,21.4168
2000-08-25,21.1027
2000-08-28,21.3719
2000-08-29,20.9962
2000-08-30,21.7308
2000-08-31,21.8374
2000-09-01,21.3831
2000-09-05,22.1178
2000-09-06,22.185
2000-09-07,21.8374
2000-09-08,22.1178
2000-09-11,22.4318
2000-09-12,22.5047
2000-09-13,22.3252
2000-09-14,22.1514
2000-09-15,21.4841
2000-09-18,20.6821
2000-09-19,21.6243
2000-09-20,21.3085
2000-09-21,21.4156
2000-09-22,21.3818
2000-09-25,20.9478
2000-09-26,20.7111
2000-09-27,19.7982
2000-09-28,20.2208
2000-09-29,20.0349
2000-10-02,20.2546
2000-10-03,19.5502
2000-10-04,19.3022
2000-10-05,19.4093
2000-10-06,19.6967
2000-10-09,19.1782
2000-10-10,18.9528
2000-10-11,18.7048
2000-10-12,18.7386
2000-10-13,18.9866
2000-10-16,19.0542
2000-10-17,19.0937
2000-10-18,19.0937
2000-10-19,19.9729
2000-10-20,19.7982
2000-10-23,19.4093
2000-10-24,20.3223
2000-10-25,20.2546
2000-10-26,20.0405
2000-10-27,20.7111
2000-10-30,21.3536
2000-10-31,20.852
2000-11-01,21.0267
2000-11-02,21.4889
2000-11-03,21.2409
2000-11-06,21.1338
2000-11-07,20.5026
2000-11-08,20.3223
2000-11-09,20.3617
2000-11-10,20.5026
2000-11-13,20.0067
2000-11-14,20.3843
2000-11-15,20.5026
2000-11-16,20.7111
2000-11-17,20.6773
2000-11-20,20.2208
2000-11-21,20.2885
2000-11-22,19.8658
2000-11-24,19.7982
2000-11-27,19.4262
2000-11-28,19.8658
2000-11-29,20.4181
2000-11-30,20.6041
2000-12-01,21.1338
2000-12-04,21.3085
2000-12-05,21.7706
2000-12-06,22.2948
2000-12-07,22.1933
2000-12-08,22.4357
2000-12-11,22.5765
2000-12-12,22.4357
2000-12-13,22.013
2000-12-14,21.2409
2000-12-15,21.0267
2000-12-18,21.5227
2000-12-19,21.8383
2000-12-20,22.0535
2000-12-21,22.0252
2000-12-22,22.0875
2000-12-26,22.0195
2000-12-27,22.229
2000-12-28,22.4443
2000-12-29,22.4443
2001-01-02,22.4443
2001-01-03,23.2201
2001-01-04,22.5858
2001-01-05,22.5858
2001-01-08,22.7614
2001-01-09,22.5858
2001-01-10,22.5462
2001-01-11,21.9459
2001-01-12,21.4135
2001-01-16,21.5211
2001-01-17,21.2379
2001-01-18,21.0284
2001-01-19,20.462
2001-01-22,21.0284
2001-01-23,20.9548
2001-01-24,20.9038
2001-01-25,20.9548
2001-01-26,20.9208
2001-01-29,20.7792
2001-01-30,20.496
2001-01-31,20.1052
2001-02-01,20.1789
2001-02-02,20.2808
2001-02-05,20.3884
2001-02-06,20.6376
2001-02-07,20.9548
2001-02-08,20.8755
2001-02-09,20.8132
2001-02-12,21.204
2001-02-13,21.068
2001-02-14,20.8868
2001-02-15,20.9661
2001-02-16,21.17
2001-02-20,20.6716
2001-02-21,20.1789
2001-02-22,20.4224
2001-02-23,20.2468
2001-02-26,20.2129
2001-02-27,20.7452
2001-02-28,20.7056
2001-03-01,21.0284
2001-03-02,21.0624
2001-03-05,21.051
2001-03-06,21.3795
2001-03-07,21.2379
2001-03-08,21.5211
2001-03-09,21.3116
2001-03-12,20.9887
2001-03-13,20.7452
2001-03-14,20.3205
2001-03-15,20.7056
2001-03-16,20.6036
2001-03-19,20.2129
2001-03-20,20.3884
2001-03-21,20.3203
2001-03-22,20.1152
2001-03-23,20.4
2001-03-26,20.9355
2001-03-27,20.5823
2001-03-28,20.6507
2001-03-29,20.9355
2001-03-30,21.5793
2001-04-02,21.5052
2001-04-03,21.3286
2001-04-04,21.2204
2001-04-05,21.6134
2001-04-06,20.7931
2001-04-09,20.7988
2001-04-10,21.0609
2001-04-11,20.7475
2001-04-12,20.6621
2001-04-16,21.0722
2001-04-17,21.3628
2001-04-18,22.0008
2001-04-19,21.8014
2001-04-20,21.3799
2001-04-23,21.5907
2001-04-24,21.6077
2001-04-25,21.3514
2001-04-26,21.2545
2001-04-27,22.1148
2001-04-30,21.9382
2001-05-01,22.1774
2001-05-02,22.0464
2001-05-03,22.0065
2001-05-04,22.6389
2001-05-07,22.297
2001-05-08,22.2629
2001-05-09,22.354
2001-05-10,22.3825
2001-05-11,22.5249
2001-05-14,22.4452
2001-05-15,22.4907
2001-05-16,22.8952
2001-05-17,23.0091
2001-05-18,22.8667
2001-05-21,23.2142
2001-05-22,23.2142
2001-05-23,22.9636
2001-05-24,23.0832
2001-05-25,23.2997
2001-05-29,23.4763
2001-05-30,23.6984
2001-05-31,23.9263
2001-06-01,23.7269
2001-06-04,23.613
2001-06-05,23.6984
2001-06-06,23.6984
2001-06-07,23.5332
2001-06-08,23.6472
2001-06-11,23.7554
2001-06-12,24.0004
2001-06-13,24.3308
2001-06-14,23.8124
2001-06-15,23.5788
2001-06-18,23.3566
2001-06-19,23.3566
2001-06-20,23.454
2001-06-21,23.3452
2001-06-22,22.9845
2001-06-25,22.8757
2001-06-26,23.3109
2001-06-27,23.1276
2001-06-28,23.2192
2001-06-29,22.9215
2001-07-02,23.1219
2001-07-03,23.2421
2001-07-05,23.099
2001-07-06,22.2859
2001-07-09,22.5779
2001-07-10,22.2
2001-07-11,22.2458
2001-07-12,22.4462
2001-07-13,22.4577
2001-07-16,22.681
2001-07-17,22.6581
2001-07-18,22.7325
2001-07-19,22.7612
2001-07-20,22.137
2001-07-23,21.9767
2001-07-24,21.9881
2001-07-25,22.4176
2001-07-26,22.5607
2001-07-27,22.1256
2001-07-30,22.1828
2001-07-31,22.5665
2001-08-01,22.5722
2001-08-02,22.0168
2001-08-03,22.3145
2001-08-06,22.137
2001-08-07,22.6524
2001-08-08,22.5607
2001-08-09,22.6466
2001-08-10,22.9043
2001-08-13,22.8012
2001-08-14,23.2021
2001-08-15,23.0818
2001-08-16,23.3567
2001-08-17,23.6086
2001-08-20,23.8777
2001-08-21,23.8262
2001-08-22,23.8033
2001-08-23,23.8319
2001-08-24,24.0037
2001-08-27,23.8491
2001-08-28,23.4311
2001-08-29,23.2479
2001-08-30,23.2479
2001-08-31,22.9558
2001-09-04,22.9616
2001-09-05,23.0875
2001-09-06,22.4176
2001-09-07,22.0683
2001-09-10,22.847
2001-09-17,22.3317
2001-09-18,22.3088
2001-09-19,22.2796
2001-09-20,22.0493
2001-09-21,21.6809
2001-09-24,21.8996
2001-09-25,21.8017
2001-09-26,21.6809
2001-09-27,22.9647
2001-09-28,24.0124
2001-10-01,23.3619
2001-10-02,23.3734
2001-10-03,24.07
2001-10-04,24.4097
2001-10-05,23.6037
2001-10-08,22.8438
2001-10-09,22.4811
2001-10-10,22.5099
2001-10-11,22.602
2001-10-12,22.4523
2001-10-15,22.5674
2001-10-16,22.7171
2001-10-17,22.3084
2001-10-18,22.0551
2001-10-19,21.7672
2001-10-22,22.7632
2001-10-23,22.032
2001-10-24,22.2508
2001-10-25,22.4177
2001-10-26,22.3947
2001-10-29,22.1011
2001-10-30,21.6521
2001-10-31,21.37
2001-11-01,22.3659
2001-11-02,22.7574
2001-11-05,23.2871
2001-11-06,23.4195
2001-11-07,23.6728
2001-11-08,22.5271
2001-11-09,22.2393
2001-11-12,22.4293
2001-11-13,22.3774
2001-11-14,22.222
2001-11-15,22.1357
2001-11-16,22.2047
2001-11-19,23.051
2001-11-20,23.051
2001-11-21,23.2065
2001-11-23,23.4252
2001-11-26,23.3101
2001-11-27,22.9819
2001-11-28,22.7574
2001-11-29,22.5329
2001-11-30,22.2335
2001-12-03,22.3141
2001-12-04,22.3487
2001-12-05,22.3314
2001-12-06,22.1357
2001-12-07,21.9802
2001-12-10,21.7096
2001-12-11,21.4621
2001-12-12,21.6924
2001-12-13,21.3009
2001-12-14,21.3642
2001-12-17,21.18
2001-12-18,21.6751
2001-12-19,21.5882
2001-12-20,21.6056
2001-12-21,21.565
2001-12-24,21.6461
2001-12-26,21.7156
2001-12-27,21.9703
2001-12-28,22.0745
2001-12-31,22.0919
2002-01-02,21.9703
2002-01-03,21.8487
2002-01-04,21.9182
2002-01-07,21.5245
2002-01-08,21.2698
2002-01-09,21.264
2002-01-10,21.455
2002-01-11,21.4608
2002-01-14,21.2987
2002-01-15,21.6924
2002-01-16,21.5477
2002-01-17,21.6635
2002-01-18,21.565
2002-01-22,21.455
2002-01-23,21.5766
2002-01-24,21.9819
2002-01-25,22.2366
2002-01-28,22.0455
2002-01-29,21.6866
2002-01-30,21.8545
2002-01-31,22.225
2002-02-01,22.3871
2002-02-04,22.0861
2002-02-05,21.9529
2002-02-06,21.9355
2002-02-07,22.2308
2002-02-08,22.4045
2002-02-11,22.3987
2002-02-12,22.3176
2002-02-13,22.8097
2002-02-14,22.966
2002-02-15,22.6939
2002-02-19,22.3755
2002-02-20,22.9776
2002-02-21,22.2655
2002-02-22,22.4045
2002-02-25,22.7518
2002-02-26,22.9081
2002-02-27,23.1629
2002-02-28,23.2497
2002-03-01,23.4292
2002-03-04,23.7592
2002-03-05,24.0776
2002-03-06,24.3265
2002-03-07,23.985
2002-03-08,24.0428
2002-03-11,24.1528
2002-03-12,24.2802
2002-03-13,24.1876
2002-03-14,24.3786
2002-03-15,24.6912
2002-03-18,24.5465
2002-03-19,24.7144
2002-03-20,24.6347
2002-03-21,24.7278
2002-03-22,24.7103
2002-03-25,24.2157
2002-03-26,24.5823
2002-03-27,24.8442
2002-03-28,25.4087
2002-04-01,25.269
2002-04-02,25.6124
2002-04-03,25.3098
2002-04-04,25.6939
2002-04-05,25.7753
2002-04-08,25.9208
2002-04-09,26.1129
2002-04-10,26.689
2002-04-11,26.3748
2002-04-12,26.6483
2002-04-15,26.4097
2002-04-16,26.6425
2002-04-17,26.9334
2002-04-18,26.8578
2002-04-19,26.7356
2002-04-22,26.5843
2002-04-23,26.6366
2002-04-24,26.6366
2002-04-25,26.8345
2002-04-26,26.9044
2002-04-29,26.7065
2002-04-30,27.3001
2002-05-01,27.3466
2002-05-02,27.3525
2002-05-03,27.143
2002-05-06,27.1837
2002-05-07,26.8287
2002-05-08,27.2419
2002-05-09,27.108
2002-05-10,26.7065
2002-05-13,26.6948
2002-05-14,26.5494
2002-05-15,26.3689
2002-05-16,26.2293
2002-05-17,26.2234
2002-05-20,25.9557
2002-05-21,25.7928
2002-05-22,26.078
2002-05-23,26.1885
2002-05-24,26.142
2002-05-28,26.1711
2002-05-29,26.2525
2002-05-30,26.3864
2002-05-31,26.398
2002-06-03,25.9208
2002-06-04,26.0139
2002-06-05,26.2234
2002-06-06,26.1071
2002-06-07,26.2176
2002-06-10,26.3282
2002-06-11,25.8161
2002-06-12,25.9208
2002-06-13,25.3563
2002-06-14,25.688
2002-06-17,26.5726
2002-06-18,26.6716
2002-06-19,26.4213
2002-06-20,26.6308
2002-06-21,26.6483
2002-06-24,26.7434
2002-06-25,26.7259
2002-06-26,26.4627
2002-06-27,26.644
2002-06-28,27.2171
2002-07-01,27.1703
2002-07-02,26.2931
2002-07-03,25.7785
2002-07-05,25.7492
2002-07-08,25.6849
2002-07-09,24.9422
2002-07-10,24.2287
2002-07-11,23.7726
2002-07-12,23.562
2002-07-15,23.3047
2002-07-16,23.0357
2002-07-17,22.7784
2002-07-18,21.7959
2002-07-19,21.6731
2002-07-22,21.2988
2002-07-23,20.6731
2002-07-24,21.3631
2002-07-25,20.8134
2002-07-26,22.024
2002-07-29,23.3924
2002-07-30,23.2228
2002-07-31,23.3456
2002-08-01,23.2462
2002-08-02,22.4801
2002-08-05,21.6672
2002-08-06,22.0591
2002-08-07,22.3573
2002-08-08,23.2462
2002-08-09,23.1527
2002-08-12,23.0825
2002-08-13,22.5678
2002-08-14,23.1644
2002-08-15,23.4217
2002-08-16,23.3281
2002-08-19,23.7082
2002-08-20,23.3807
2002-08-21,23.4041
2002-08-22,24.0533
2002-08-23,23.7492
2002-08-26,23.8193
2002-08-27,23.4275
2002-08-28,23.141
2002-08-29,22.9772
2002-08-30,23.141
2002-09-03,22.4567
2002-09-04,22.9363
2002-09-05,22.6146
2002-09-06,22.5795
2002-09-09,22.6322
2002-09-10,22.2462
2002-09-11,21.9421
2002-09-12,21.4918
2002-09-13,21.5912
2002-09-16,21.5093
2002-09-17,21.4158
2002-09-18,21.6088
2002-09-19,21.369
2002-09-20,21.1994
2002-09-23,21.3834
2002-09-24,20.8068
2002-09-25,21.2481
2002-09-26,21.9836
2002-09-27,21.1951
2002-09-30,20.9656
2002-10-01,21.9542
2002-10-02,21.0127
2002-10-03,20.7362
2002-10-04,20.1889
2002-10-07,19.8241
2002-10-08,20.3007
2002-10-09,19.2416
2002-10-10,19.7064
2002-10-11,19.9006
2002-10-14,19.9712
2002-10-15,20.9186
2002-10-16,20.8362
2002-10-17,21.5541
2002-10-18,21.5776
2002-10-21,22.0013
2002-10-22,21.6129
2002-10-23,21.4776
2002-10-24,21.9954
2002-10-25,23.1664
2002-10-28,22.6897
2002-10-29,22.3602
2002-10-30,22.2719
2002-10-31,22.2837
2002-11-01,22.3602
2002-11-04,22.6427
2002-11-05,22.7603
2002-11-06,23.0134
2002-11-07,22.4191
2002-11-08,22.1837
2002-11-11,21.8954
2002-11-12,22.1778
2002-11-13,22.166
2002-11-14,22.5956
2002-11-15,21.7659
2002-11-18,21.5305
2002-11-19,21.8306
2002-11-20,22.0307
2002-11-21,22.3014
2002-11-22,22.5309
2002-11-25,22.4779
2002-11-26,22.2013
2002-11-27,22.5956
2002-11-29,22.6544
2002-12-02,22.5956
2002-12-03,22.4956
2002-12-04,22.3131
2002-12-05,22.2366
2002-12-06,22.3661
2002-12-09,21.9777
2002-12-10,22.4485
2002-12-11,22.7603
2002-12-12,22.5779
2002-12-13,22.4838
2002-12-16,22.931
2002-12-17,22.6132
2002-12-18,22.3661
2002-12-19,22.2013
2002-12-20,22.5191
2002-12-23,22.5271
2002-12-24,22.5567
2002-12-26,22.5922
2002-12-27,22.172
2002-12-30,22.4502
2002-12-31,22.2904
2003-01-02,22.8823
2003-01-03,22.758
2003-01-06,23.2611
2003-01-07,22.8882
2003-01-08,22.6041
2003-01-09,23.1604
2003-01-10,23.0835
2003-01-13,23.1131
2003-01-14,23.2551
2003-01-15,22.6988
2003-01-16,22.4324
2003-01-17,22.1069
2003-01-21,21.7873
2003-01-22,21.7577
2003-01-23,21.9056
2003-01-24,21.3256
2003-01-27,21.2664
2003-01-28,21.3966
2003-01-29,21.3552
2003-01-30,20.9468
2003-01-31,21.1184
2003-02-03,21.1835
2003-02-04,20.4259
2003-02-05,20.3194
2003-02-06,20.5917
2003-02-07,20.4437
2003-02-10,20.7574
2003-02-11,20.6153
2003-02-12,20.5206
2003-02-13,20.6272
2003-02-14,21.0297
2003-02-18,21.2131
2003-02-19,21.0001
2003-02-20,20.9172
2003-02-21,21.2191
2003-02-24,20.8817
2003-02-25,20.929
2003-02-26,20.6331
2003-02-27,21.006
2003-02-28,21.0533
2003-03-03,20.9113
2003-03-04,20.6923
2003-03-05,21.0119
2003-03-06,20.7278
2003-03-07,20.9231
2003-03-10,20.4851
2003-03-11,20.3727
2003-03-12,19.8873
2003-03-13,20.4733
2003-03-14,20.7337
2003-03-17,21.2901
2003-03-18,21.1362
2003-03-19,21.4617
2003-03-20,21.3552
2003-03-21,21.8761
2003-03-24,21.1847
2003-03-25,21.441
2003-03-26,21.2681
2003-03-27,21.3277
2003-03-28,21.1907
2003-03-31,20.9106
2003-04-01,21.3575
2003-04-02,21.7866
2003-04-03,21.5125
2003-04-04,21.6912
2003-04-07,21.6912
2003-04-08,21.6317
2003-04-09,21.5244
2003-04-10,21.4588
2003-04-11,21.4588
2003-04-14,21.7926
2003-04-15,22.025
2003-04-16,21.7687
2003-04-17,21.9832
2003-04-21,21.9177
2003-04-22,22.6447
2003-04-23,22.6864
2003-04-24,22.2693
2003-04-25,21.9594
2003-04-28,22.168
2003-04-29,21.9713
2003-04-30,21.8879
2003-05-01,22.1799
2003-05-02,22.4481
2003-05-05,22.4063
2003-05-06,22.5494
2003-05-07,22.3229
2003-05-08,21.9534
2003-05-09,22.0369
2003-05-12,22.3646
2003-05-13,22.168
2003-05-14,22.025
2003-05-15,22.0309
2003-05-16,22.019
2003-05-19,21.7032
2003-05-20,21.4946
2003-05-21,21.3635
2003-05-22,21.4648
2003-05-23,21.435
2003-05-27,21.6674
2003-05-28,21.7449
2003-05-29,21.6019
2003-05-30,22.1203
2003-06-02,22.4242
2003-06-03,22.0488
2003-06-04,22.4004
2003-06-05,22.305
2003-06-06,22.0905
2003-06-09,22.0011
2003-06-10,22.2157
2003-06-11,22.7222
2003-06-12,22.8473
2003-06-13,22.7758
2003-06-16,23.2883
2003-06-17,23.1155
2003-06-18,23.0082
2003-06-19,22.3229
2003-06-20,22.3527
2003-06-23,22.2687
2003-06-24,22.4667
2003-06-25,22.3827
2003-06-26,22.5866
2003-06-27,22.3767
2003-06-30,22.2987
2003-07-01,22.5206
2003-07-02,22.7126
2003-07-03,22.4967
2003-07-07,23.0666
2003-07-08,22.9826
2003-07-09,22.7726
2003-07-10,22.3467
2003-07-11,22.4487
2003-07-14,23.2105
2003-07-15,23.6125
2003-07-16,23.6005
2003-07-17,23.2405
2003-07-18,23.6185
2003-07-21,23.4145
2003-07-22,23.4925
2003-07-23,23.1326
2003-07-24,23.0306
2003-07-25,23.3845
2003-07-28,23.4925
2003-07-29,23.4985
2003-07-30,23.4985
2003-07-31,23.4565
2003-08-01,23.3365
2003-08-04,23.1326
2003-08-05,22.8686
2003-08-06,23.3365
2003-08-07,23.4205
2003-08-08,23.5345
2003-08-11,23.3425
2003-08-12,23.4325
2003-08-13,23.3365
2003-08-14,23.5645
2003-08-15,23.4505
2003-08-18,23.8225
2003-08-19,23.8345
2003-08-20,23.8704
2003-08-21,23.9424
2003-08-22,23.6845
2003-08-25,23.6665
2003-08-26,23.8824
2003-08-27,23.8105
2003-08-28,23.9664
2003-08-29,24.1404
2003-09-02,24.5004
2003-09-03,24.7643
2003-09-04,24.7703
2003-09-05,24.4644
2003-09-08,24.6743
2003-09-09,24.5723
2003-09-10,24.3504
2003-09-11,24.5244
2003-09-12,24.3984
2003-09-15,24.1224
2003-09-16,24.5184
2003-09-17,24.3264
2003-09-18,24.8663
2003-09-19,24.7763
2003-09-22,24.4685
2003-09-23,24.8065
2003-09-24,24.6676
2003-09-25,24.39
2003-09-26,24.1908
2003-09-29,24.4141
2003-09-30,24.221
2003-10-01,24.553
2003-10-02,24.4866
2003-10-03,24.8306
2003-10-06,24.7702
2003-10-07,24.8608
2003-10-08,24.8246
2003-10-09,24.5047
2003-10-10,24.4262
2003-10-13,24.7039
2003-10-14,24.8185
2003-10-15,24.8547
2003-10-16,24.8789
2003-10-17,24.5409
2003-10-20,24.6435
2003-10-21,24.4926
2003-10-22,24.3417
2003-10-23,24.3417
2003-10-24,24.3115
2003-10-27,24.4443
2003-10-28,24.3296
2003-10-29,24.6133
2003-10-30,24.6616
2003-10-31,24.6797
2003-11-03,24.9755
2003-11-04,24.7099
2003-11-05,24.4443
2003-11-06,24.6133
2003-11-07,24.39
2003-11-10,24.4021
2003-11-11,24.4564
2003-11-12,24.4685
2003-11-13,24.553
2003-11-14,24.4745
2003-11-17,24.384
2003-11-18,24.1244
2003-11-19,24.1908
2003-11-20,23.9434
2003-11-21,24.0641
2003-11-24,24.3659
2003-11-25,24.3598
2003-11-26,24.6314
2003-11-28,24.4624
2003-12-01,24.9573
2003-12-02,24.9634
2003-12-03,24.9211
2003-12-04,24.8125
2003-12-05,24.8608
2003-12-08,25.0419
2003-12-09,24.8789
2003-12-10,24.728
2003-12-11,25.0479
2003-12-12,24.8547
2003-12-15,24.6194
2003-12-16,24.7642
2003-12-17,24.7039
2003-12-18,24.9996
2003-12-19,25.0354
2003-12-22,24.9747
2003-12-23,25.0172
2003-12-24,25.1204
2003-12-26,25.0779
2003-12-29,25.3208
2003-12-30,25.2175
2003-12-31,25.2843
2004-01-02,25.3997
2004-01-05,25.6001
2004-01-06,25.4179
2004-01-07,25.3147
2004-01-08,25.3329
2004-01-09,25.2297
2004-01-12,25.3693
2004-01-13,25.1143
2004-01-14,25.7094
2004-01-15,25.6912
2004-01-16,25.9219
2004-01-20,25.9887
2004-01-21,26.268
2004-01-22,26.1223
2004-01-23,25.8733
2004-01-26,26.4138
2004-01-27,26.3773
2004-01-28,25.9583
2004-01-29,26.2012
2004-01-30,26.2437
2004-02-02,26.2316
2004-02-03,26.3895
2004-02-04,26.5838
2004-02-05,26.5473
2004-02-06,26.6263
2004-02-09,26.602
2004-02-10,26.6931
2004-02-11,26.5898
2004-02-12,26.5352
2004-02-13,26.3713
2004-02-17,26.7174
2004-02-18,26.5473
2004-02-19,26.353
2004-02-20,26.432
2004-02-23,26.5291
2004-02-24,26.7659
2004-02-25,26.8267
2004-02-26,26.9481
2004-02-27,27.1849
2004-03-01,27.2639
2004-03-02,27.1728
2004-03-03,27.4582
2004-03-04,27.5978
2004-03-05,27.6707
2004-03-08,27.3064
2004-03-09,27.021
2004-03-10,26.772
2004-03-11,26.2437
2004-03-12,26.4805
2004-03-15,26.0555
2004-03-16,26.1952
2004-03-17,26.4441
2004-03-18,26.4684
2004-03-19,26.3409
2004-03-22,26.1121
2004-03-23,25.9594
2004-03-24,25.8127
2004-03-25,25.9716
2004-03-26,25.8127
2004-03-29,26.0694
2004-03-30,26.0938
2004-03-31,26.3871
2004-04-01,26.9677
2004-04-02,27.1266
2004-04-05,27.4932
2004-04-06,27.4321
2004-04-07,27.1082
2004-04-08,27.0899
2004-04-12,27.1632
2004-04-13,26.931
2004-04-14,26.7416
2004-04-15,26.5094
2004-04-16,26.6621
2004-04-19,26.4788
2004-04-20,26.0694
2004-04-21,26.1427
2004-04-22,26.7905
2004-04-23,26.4116
2004-04-26,26.326
2004-04-27,26.5949
2004-04-28,26.3975
2004-04-29,26.2564
2004-04-30,26.2115
2004-05-03,26.436
2004-05-04,26.3719
2004-05-05,26.2435
2004-05-06,26.1537
2004-05-07,25.8906
2004-05-10,25.8265
2004-05-11,26.1601
2004-05-12,26.3462
2004-05-13,26.5002
2004-05-14,26.635
2004-05-17,26.25
2004-05-18,26.5451
2004-05-19,26.481
2004-05-20,26.6157
2004-05-21,26.8403
2004-05-24,26.6991
2004-05-25,26.9301
2004-05-26,27.0777
2004-05-27,27.4049
2004-05-28,27.3921
2004-06-01,27.3408
2004-06-02,27.745
2004-06-03,27.5974
2004-06-04,27.6616
2004-06-07,27.9632
2004-06-08,28.0209
2004-06-09,27.5397
2004-06-10,27.8284
2004-06-14,27.5269
2004-06-15,27.5718
2004-06-16,27.4948
2004-06-17,27.6359
2004-06-18,27.3857
2004-06-21,27.2702
2004-06-22,27.3985
2004-06-23,27.3183
2004-06-24,27.2601
2004-06-25,27.3699
2004-06-28,27.4991
2004-06-29,27.6412
2004-06-30,28.0416
2004-07-01,28.0287
2004-07-02,28.0868
2004-07-06,28.0932
2004-07-07,27.9641
2004-07-08,27.7897
2004-07-09,27.9899
2004-07-12,28.1707
2004-07-13,28.0932
2004-07-14,27.8349
2004-07-15,27.2924
2004-07-16,27.2343
2004-07-19,27.4603
2004-07-20,27.3441
2004-07-21,26.9953
2004-07-22,26.6724
2004-07-23,26.1558
2004-07-26,26.0718
2004-07-27,26.0266
2004-07-28,25.8329
2004-07-29,25.8264
2004-07-30,25.7554
2004-08-02,25.7554
2004-08-03,25.9168
2004-08-04,26.0395
2004-08-05,25.6714
2004-08-06,25.4777
2004-08-09,25.652
2004-08-10,25.8587
2004-08-11,26.0202
2004-08-12,25.7812
2004-08-13,25.6843
2004-08-16,25.9943
2004-08-17,25.9039
2004-08-18,25.8845
2004-08-19,25.8199
2004-08-20,25.8199
2004-08-23,25.8329
2004-08-24,25.8264
2004-08-25,26.0266
2004-08-26,25.9879
2004-08-27,25.9943
2004-08-30,25.8329
2004-08-31,26.046
2004-09-01,26.0977
2004-09-02,26.5562
2004-09-03,26.5239
2004-09-07,26.5562
2004-09-08,26.4981
2004-09-09,26.2979
2004-09-10,26.1622
2004-09-13,26.1622
2004-09-14,26.0395
2004-09-15,26.1106
2004-09-16,26.2462
2004-09-17,26.4464
2004-09-20,26.3689
2004-09-21,26.4787
2004-09-22,26.3453
2004-09-23,26.4948
2004-09-24,26.7224
2004-09-27,26.5533
2004-09-28,26.5533
2004-09-29,26.3648
2004-09-30,26.7874
2004-10-01,27.0474
2004-10-04,27.0149
2004-10-05,26.6833
2004-10-06,26.8069
2004-10-07,26.5078
2004-10-08,26.4038
2004-10-11,26.4038
2004-10-12,26.3258
2004-10-13,26.1567
2004-10-14,25.591
2004-10-15,25.6756
2004-10-18,25.7666
2004-10-19,25.266
2004-10-20,25.4155
2004-10-21,25.292
2004-10-22,25.474
2004-10-25,25.7991
2004-10-26,26.8524
2004-10-27,27.08
2004-10-28,27.2165
2004-10-29,27.145
2004-11-01,27.3075
2004-11-02,27.4571
2004-11-03,27.5091
2004-11-04,27.6651
2004-11-05,27.7236
2004-11-08,27.8407
2004-11-09,27.8927
2004-11-10,28.1137
2004-11-11,28.1463
2004-11-12,28.2438
2004-11-15,28.4648
2004-11-16,28.4518
2004-11-17,28.5754
2004-11-18,28.5949
2004-11-19,28.4974
2004-11-22,28.7054
2004-11-23,28.7054
2004-11-24,28.8354
2004-11-26,29.076
2004-11-29,29.063
2004-11-30,29.167
2004-12-01,29.5181
2004-12-02,29.5831
2004-12-03,28.8094
2004-12-06,28.985
2004-12-07,28.6794
2004-12-08,28.6794
2004-12-09,28.7249
2004-12-10,28.8029
2004-12-13,28.894
2004-12-14,28.9005
2004-12-15,29.076
2004-12-16,28.7769
2004-12-17,28.6209
2004-12-20,28.6775
2004-12-21,28.7822
2004-12-22,28.828
2004-12-23,28.7691
2004-12-27,28.684
2004-12-28,28.8214
2004-12-29,28.9523
2004-12-30,28.9523
2004-12-31,28.9654
2005-01-03,28.9784
2005-01-04,28.6906
2005-01-05,29.1813
2005-01-06,29.371
2005-01-07,29.2336
2005-01-10,29.2794
2005-01-11,29.1224
2005-01-12,28.9261
2005-01-13,28.6906
2005-01-14,28.913
2005-01-18,29.299
2005-01-19,29.1616
2005-01-20,28.9196
2005-01-21,28.6382
2005-01-24,28.6251
2005-01-25,28.684
2005-01-26,28.913
2005-01-27,28.4943
2005-01-28,28.1802
2005-01-31,28.828
2005-02-01,28.9981
2005-02-02,29.286
2005-02-03,29.286
2005-02-04,29.6131
2005-02-07,29.6524
2005-02-08,29.6196
2005-02-09,29.1944
2005-02-10,29.214
2005-02-11,29.5477
2005-02-14,29.7898
2005-02-15,29.9337
2005-02-16,29.6916
2005-02-17,29.443
2005-02-18,29.3776
2005-02-22,28.8803
2005-02-23,29.0635
2005-02-24,29.1747
2005-02-25,29.5019
2005-02-28,29.286
2005-03-01,29.7767
2005-03-02,29.7832
2005-03-03,29.672
2005-03-04,29.757
2005-03-07,29.9599
2005-03-08,29.9337
2005-03-09,29.6655
2005-03-10,29.8945
2005-03-11,29.7178
2005-03-14,30.0384
2005-03-15,29.3056
2005-03-16,29.1028
2005-03-17,28.985
2005-03-18,28.8868
2005-03-21,28.8345
2005-03-22,28.2451
2005-03-23,28.5548
2005-03-24,28.5482
2005-03-28,28.8184
2005-03-29,28.9501
2005-03-30,28.9501
2005-03-31,28.6866
2005-04-01,28.5021
2005-04-04,28.9587
2005-04-05,29.021
2005-04-06,29.1939
2005-04-07,29.2147
2005-04-08,29.0971
2005-04-11,29.0901
2005-04-12,29.7612
2005-04-13,29.3807
2005-04-14,28.9864
2005-04-15,28.5644
2005-04-18,28.5367
2005-04-19,28.7027
2005-04-20,28.5367
2005-04-21,28.3707
2005-04-22,28.1078
2005-04-25,27.9694
2005-04-26,27.326
2005-04-27,27.5128
2005-04-28,27.2707
2005-04-29,27.838
2005-05-02,27.6166
2005-05-03,27.4298
2005-05-04,27.9279
2005-05-05,27.838
2005-05-06,27.6304
2005-05-09,27.6166
2005-05-10,27.2223
2005-05-11,27.333
2005-05-12,27.0147
2005-05-13,26.7173
2005-05-16,27.0078
2005-05-17,27.4298
2005-05-18,27.5751
2005-05-19,27.5543
2005-05-20,27.5613
2005-05-23,27.7273
2005-05-24,27.4852
2005-05-25,27.3883
2005-05-26,27.4575
2005-05-27,27.4644
2005-05-31,27.326
2005-06-01,27.5267
2005-06-02,27.4298
2005-06-03,27.2845
2005-06-06,27.5613
2005-06-07,27.2845
2005-06-08,27.3191
2005-06-09,27.4713
2005-06-10,27.3399
2005-06-13,27.4782
2005-06-14,27.4091
2005-06-15,27.5059
2005-06-16,27.7757
2005-06-17,28.2946
2005-06-20,27.9763
2005-06-21,27.9556
2005-06-22,27.7292
2005-06-23,27.4574
2005-06-24,27.2134
2005-06-27,27.792
2005-06-28,27.9244
2005-06-29,27.8826
2005-06-30,27.5968
2005-07-01,27.9035
2005-07-05,28.0847
2005-07-06,27.6944
2005-07-07,27.8687
2005-07-08,27.9732
2005-07-11,28.1754
2005-07-12,28.0638
2005-07-13,27.9453
2005-07-14,27.8199
2005-07-15,27.9523
2005-07-18,27.9314
2005-07-19,28.3287
2005-07-20,28.5587
2005-07-21,28.3357
2005-07-22,28.4402
2005-07-25,28.5448
2005-07-26,28.5518
2005-07-27,28.6075
2005-07-28,28.8097
2005-07-29,28.6912
2005-08-01,28.6145
2005-08-02,29.1025
2005-08-03,29.2488
2005-08-04,29.3186
2005-08-05,29.1722
2005-08-08,29.3604
2005-08-09,29.3813
2005-08-10,29.2488
2005-08-11,29.4022
2005-08-12,29.1443
2005-08-15,28.9909
2005-08-16,28.8097
2005-08-17,28.7958
2005-08-18,28.7888
2005-08-19,29.0049
2005-08-22,29.0606
2005-08-23,28.8515
2005-08-24,28.5727
2005-08-25,28.6912
2005-08-26,28.5518
2005-08-29,28.496
2005-08-30,28.2242
2005-08-31,28.5518
2005-09-01,28.6354
2005-09-02,28.6703
2005-09-06,28.9561
2005-09-07,29.0606
2005-09-08,28.6772
2005-09-09,28.9352
2005-09-12,29.451
2005-09-13,29.2907
2005-09-14,29.0118
2005-09-15,29.0885
2005-09-16,29.2767
2005-09-19,28.9561
2005-09-20,28.6912
2005-09-21,28.442
2005-09-22,28.6105
2005-09-23,28.7861
2005-09-26,28.6035
2005-09-27,28.8844
2005-09-28,28.9898
2005-09-29,29.3901
2005-09-30,29.4252
2005-10-03,29.4884
2005-10-04,29.3269
2005-10-05,28.8142
2005-10-06,28.9055
2005-10-07,28.7861
2005-10-10,28.6035
2005-10-11,28.3015
2005-10-12,28.4139
2005-10-13,28.3928
2005-10-14,28.3928
2005-10-17,28.7931
2005-10-18,28.6527
2005-10-19,28.9266
2005-10-20,28.5825
2005-10-21,28.737
2005-10-24,29.1583
2005-10-25,28.9336
2005-10-26,29.0319
2005-10-27,29.0389
2005-10-28,29.5516
2005-10-31,29.8465
2005-11-01,29.9308
2005-11-02,30.7384
2005-11-03,30.5558
2005-11-04,30.4856
2005-11-07,30.591
2005-11-08,30.5839
2005-11-09,30.7103
2005-11-10,31.3354
2005-11-11,31.4126
2005-11-14,31.4688
2005-11-15,31.0896
2005-11-16,30.7595
2005-11-17,30.914
2005-11-18,31.2019
2005-11-21,31.0193
2005-11-22,31.1809
2005-11-23,31.3283
2005-11-25,31.1809
2005-11-28,31.2441
2005-11-29,31.2792
2005-11-30,31.2089
2005-12-01,31.6022
2005-12-02,31.6163
2005-12-05,31.7708
2005-12-06,31.8129
2005-12-07,31.6865
2005-12-08,31.848
2005-12-09,31.9814
2005-12-12,31.7848
2005-12-13,31.9323
2005-12-14,32.1079
2005-12-15,31.848
2005-12-16,31.7286
2005-12-19,31.5601
2005-12-20,31.4267
2005-12-21,31.6353
2005-12-22,31.7413
2005-12-23,31.8898
2005-12-27,31.4656
2005-12-28,31.7979
2005-12-29,31.7484
2005-12-30,31.5646
2006-01-03,31.7272
2006-01-04,32.1161
2006-01-05,31.8615
2006-01-06,32.1585
2006-01-09,32.0666
2006-01-10,32.0737
2006-01-11,32.1373
2006-01-12,31.904
2006-01-13,32.2434
2006-01-17,32.1161
2006-01-18,32.0454
2006-01-19,32.0595
2006-01-20,31.4726
2006-01-23,31.4797
2006-01-24,31.5009
2006-01-25,31.4019
2006-01-26,31.8686
2006-01-27,31.805
2006-01-30,32.1444
2006-01-31,32.2221
2006-02-01,31.9959
2006-02-02,31.3736
2006-02-03,31.0908
2006-02-06,31.2746
2006-02-07,31.6635
2006-02-08,32.0029
2006-02-09,30.7514
2006-02-10,31.0484
2006-02-13,30.7514
2006-02-14,31.0201
2006-02-15,31.1403
2006-02-16,31.2534
2006-02-17,31.2676
2006-02-21,31.112
2006-02-22,31.607
2006-02-23,31.4726
2006-02-24,31.4938
2006-02-27,31.4726
2006-02-28,31.3666
2006-03-01,31.31
2006-03-02,31.1332
2006-03-03,30.9847
2006-03-06,30.8787
2006-03-07,30.9635
2006-03-08,31.0342
2006-03-09,30.9494
2006-03-10,31.1898
2006-03-13,31.2464
2006-03-14,31.5009
2006-03-15,31.4514
2006-03-16,32.0454
2006-03-17,32.0454
2006-03-20,31.9959
2006-03-21,31.8898
2006-03-22,31.6013
2006-03-23,31.3377
2006-03-24,31.3306
2006-03-27,31.1098
2006-03-28,30.7108
2006-03-29,30.8106
2006-03-30,30.4615
2006-03-31,29.9343
2006-04-03,30.2335
2006-04-04,30.3261
2006-04-05,30.2549
2006-04-06,30.148
2006-04-07,29.7847
2006-04-10,29.9058
2006-04-11,29.6494
2006-04-12,29.6066
2006-04-13,29.6707
2006-04-17,29.5069
2006-04-18,30.0341
2006-04-19,30.1267
2006-04-20,30.1765
2006-04-21,30.091
2006-04-24,29.7705
2006-04-25,29.742
2006-04-26,29.9486
2006-04-27,30.148
2006-04-28,30.3902
2006-05-01,29.9486
2006-05-02,30.3831
2006-05-03,31.3876
2006-05-04,31.2166
2006-05-05,31.644
2006-05-08,31.6155
2006-05-09,31.6868
2006-05-10,31.7153
2006-05-11,31.6084
2006-05-12,31.4161
2006-05-15,32.2068
2006-05-16,31.8934
2006-05-17,31.8008
2006-05-18,31.5728
2006-05-19,31.8862
2006-05-22,31.9432
2006-05-23,31.8435
2006-05-24,31.8435
2006-05-25,32.0216
2006-05-26,32.0216
2006-05-30,31.8293
2006-05-31,32.5844
2006-06-01,32.9833
2006-06-02,33.1258
2006-06-05,32.5274
2006-06-06,32.7411
2006-06-07,33.0403
2006-06-08,33.482
2006-06-09,33.2683
2006-06-12,33.1828
2006-06-13,33.3039
2006-06-14,33.1472
2006-06-15,33.3894
2006-06-16,33.2255
2006-06-19,33.0332
2006-06-20,33.0332
2006-06-21,33.13
2006-06-22,32.8358
2006-06-23,32.5918
2006-06-26,32.9147
2006-06-27,32.7928
2006-06-28,33.2448
2006-06-29,33.3955
2006-06-30,33.7902
2006-07-03,34.1992
2006-07-05,34.0915
2006-07-06,34.3714
2006-07-07,34.1274
2006-07-10,34.3283
2006-07-11,34.3857
2006-07-12,34.149
2006-07-13,33.7615
2006-07-14,33.1946
2006-07-17,33.3094
2006-07-18,33.3309
2006-07-19,33.7615
2006-07-20,33.7758
2006-07-21,33.417
2006-07-24,33.8548
2006-07-25,34.0844
2006-07-26,34.1059
2006-07-27,33.5031
2006-07-28,33.7328
2006-07-31,33.8691
2006-08-01,33.7615
2006-08-02,33.9265
2006-08-03,33.3525
2006-08-04,33.4601
2006-08-07,33.3596
2006-08-08,33.3668
2006-08-09,33.3094
2006-08-10,33.4099
2006-08-11,33.2807
2006-08-14,33.3381
2006-08-15,33.0511
2006-08-16,33.4099
2006-08-17,33.2663
2006-08-18,33.374
2006-08-21,33.1946
2006-08-22,33.1515
2006-08-23,33.0367
2006-08-24,33.2879
2006-08-25,32.9506
2006-08-28,33.0439
2006-08-29,33.2592
2006-08-30,33.3883
2006-08-31,33.5031
2006-09-01,33.6108
2006-09-05,33.4529
2006-09-06,33.1228
2006-09-07,33.0511
2006-09-08,33.1228
2006-09-11,33.6897
2006-09-12,33.9839
2006-09-13,34.1561
2006-09-14,34.3355
2006-09-15,34.8091
2006-09-18,34.723
2006-09-19,34.5723
2006-09-20,34.8143
2006-09-21,34.4458
2006-09-22,34.4024
2006-09-25,34.7781
2006-09-26,34.8865
2006-09-27,34.9443
2006-09-28,34.9732
2006-09-29,34.7637
2006-10-02,34.7781
2006-10-03,34.9949
2006-10-04,35.0455
2006-10-05,35.1467
2006-10-06,35.1178
2006-10-09,35.1105
2006-10-10,35.1033
2006-10-11,35.1178
2006-10-12,35.06
2006-10-13,35.2623
2006-10-16,35.2767
2006-10-17,35.3418
2006-10-18,35.4285
2006-10-19,35.2406
2006-10-20,35.2262
2006-10-23,35.3996
2006-10-24,33.8821
2006-10-25,33.4703
2006-10-26,33.9833
2006-10-27,33.2752
2006-10-30,33.2824
2006-10-31,32.95
2006-11-01,32.8488
2006-11-02,32.8777
2006-11-03,32.8127
2006-11-06,32.885
2006-11-07,32.8488
2006-11-08,32.8777
2006-11-09,32.661
2006-11-10,32.7043
2006-11-13,32.8705
2006-11-14,32.8994
2006-11-15,32.7332
2006-11-16,33.0223
2006-11-17,32.8055
2006-11-20,32.7549
2006-11-21,32.6754
2006-11-22,32.6682
2006-11-24,33.1451
2006-11-27,32.0468
2006-11-28,32.0468
2006-11-29,32.213
2006-11-30,31.9817
2006-12-01,31.9673
2006-12-04,32.4514
2006-12-05,32.7983
2006-12-06,33.015
2006-12-07,32.95
2006-12-08,33.0584
2006-12-11,33.2679
2006-12-12,33.4052
2006-12-13,33.4125
2006-12-14,33.5353
2006-12-15,33.781
2006-12-18,33.2318
2006-12-19,33.3546
2006-12-20,33.3364
2006-12-21,33.169
2006-12-22,33.038
2006-12-26,33.1035
2006-12-27,33.3364
2006-12-28,33.2782
2006-12-29,32.9579
2007-01-03,33.3437
2007-01-04,33.1763
2007-01-05,32.9506
2007-01-08,33.038
2007-01-09,32.7832
2007-01-10,32.7687
2007-01-11,32.8196
2007-01-12,33.0089
2007-01-16,33.0744
2007-01-17,32.7832
2007-01-18,32.9434
2007-01-19,33.0598
2007-01-22,32.8342
2007-01-23,33.0234
2007-01-24,33.4092
2007-01-25,32.987
2007-01-26,32.7396
2007-01-29,32.8051
2007-01-30,32.7468
2007-01-31,32.5649
2007-02-01,33.0234
2007-02-02,33.3946
2007-02-05,33.2782
2007-02-06,33.3073
2007-02-07,32.7396
2007-02-08,31.9753
2007-02-09,31.9098
2007-02-12,31.706
2007-02-13,31.8734
2007-02-14,32.0408
2007-02-15,32.2446
2007-02-16,32.1864
2007-02-20,32.1864
2007-02-21,32.0626
2007-02-22,32.1645
2007-02-23,32.0481
2007-02-26,31.9898
2007-02-27,31.3275
2007-02-28,31.4294
2007-03-01,31.5386
2007-03-02,31.1892
2007-03-05,30.9417
2007-03-06,31.0218
2007-03-07,30.9708
2007-03-08,31.2765
2007-03-09,31.3493
2007-03-12,31.3275
2007-03-13,30.7889
2007-03-14,30.7452
2007-03-15,30.9417
2007-03-16,31.0363
2007-03-19,31.2329
2007-03-20,31.1164
2007-03-21,31.8466
2007-03-22,31.4723
2007-03-23,31.6338
2007-03-26,31.5677
2007-03-27,31.3622
2007-03-28,31.0026
2007-03-29,31.0686
2007-03-30,31.0906
2007-04-02,31.2521
2007-04-03,31.5457
2007-04-04,31.4209
2007-04-05,31.5384
2007-04-09,31.2962
2007-04-10,31.3475
2007-04-11,31.3769
2007-04-12,31.3402
2007-04-13,32.3017
2007-04-16,33.3806
2007-04-17,33.3953
2007-04-18,33.5714
2007-04-19,33.5347
2007-04-20,33.7623
2007-04-23,33.6962
2007-04-24,33.5201
2007-04-25,34.0118
2007-04-26,33.6522
2007-04-27,33.6962
2007-04-30,33.2118
2007-05-01,33.3072
2007-05-02,33.5568
2007-05-03,33.7256
2007-05-04,33.7182
2007-05-07,34.3494
2007-05-08,34.944
2007-05-09,34.7017
2007-05-10,34.2907
2007-05-11,34.4669
2007-05-14,34.1586
2007-05-15,33.9091
2007-05-16,34.3274
2007-05-17,34.3788
2007-05-18,34.3054
2007-05-21,34.1293
2007-05-22,34.0485
2007-05-23,34.1146
2007-05-24,33.6375
2007-05-25,33.6522
2007-05-29,33.6302
2007-05-30,33.7329
2007-05-31,33.3586
2007-06-01,33.5861
2007-06-04,33.6962
2007-06-05,33.3953
2007-06-06,33.2925
2007-06-07,32.4999
2007-06-08,32.9329
2007-06-11,33.0356
2007-06-12,32.999
2007-06-13,33.1971
2007-06-14,33.1604
2007-06-15,33.1678
2007-06-18,33.1457
2007-06-19,33.2412
2007-06-20,32.9785
2007-06-21,32.7714
2007-06-22,32.3127
2007-06-25,32.0538
2007-06-26,32.2832
2007-06-27,32.4977
2007-06-28,32.4311
2007-06-29,32.0538
2007-07-02,32.5569
2007-07-03,32.6087
2007-07-05,32.4607
2007-07-06,32.6604
2007-07-09,32.7788
2007-07-10,31.8097
2007-07-11,31.9207
2007-07-12,32.3423
2007-07-13,32.3275
2007-07-16,32.4755
2007-07-17,32.3349
2007-07-18,31.9059
2007-07-19,31.7875
2007-07-20,31.0773
2007-07-23,31.0773
2007-07-24,30.0047
2007-07-25,31.0626
2007-07-26,30.4264
2007-07-27,29.694
2007-07-30,29.7088
2007-07-31,28.9986
2007-08-01,29.6348
2007-08-02,29.6718
2007-08-03,28.355
2007-08-06,29.4351
2007-08-07,29.4129
2007-08-08,29.6792
2007-08-09,27.1936
2007-08-10,30.0417
2007-08-13,30.7445
2007-08-14,29.2945
2007-08-15,29.3611
2007-08-16,30.4929
2007-08-17,31.5064
2007-08-20,31.2327
2007-08-21,31.3733
2007-08-22,31.8319
2007-08-23,31.6544
2007-08-24,31.8097
2007-08-27,31.5212
2007-08-28,30.7519
2007-08-29,31.4842
2007-08-30,31.0108
2007-08-31,31.1957
2007-09-04,31.5434
2007-09-05,31.3141
2007-09-06,31.6174
2007-09-07,31.3806
2007-09-10,31.07
2007-09-11,32.0242
2007-09-12,31.6174
2007-09-13,32.002
2007-09-14,31.7875
2007-09-17,31.5582
2007-09-18,33.0969
2007-09-19,33.1302
2007-09-20,32.4963
2007-09-21,32.3099
2007-09-24,31.7507
2007-09-25,31.9371
2007-09-26,31.9669
2007-09-27,32.3472
2007-09-28,32.2503
2007-10-01,33.063
2007-10-02,33.4508
2007-10-03,32.8617
2007-10-04,32.735
2007-10-05,33.078
2007-10-08,33.0332
2007-10-09,33.1824
2007-10-10,33.2569
2007-10-11,33.3315
2007-10-12,33.3315
2007-10-15,33.0332
2007-10-16,32.5933
2007-10-17,32.3174
2007-10-18,31.9296
2007-10-19,30.8484
2007-10-22,31.5344
2007-10-23,31.43
2007-10-24,29.7821
2007-10-25,29.4242
2007-10-26,29.454
2007-10-29,29.618
2007-10-30,29.7075
2007-10-31,29.633
2007-11-01,29.2005
2007-11-02,28.932
2007-11-05,28.8947
2007-11-06,29.2676
2007-11-07,28.6412
2007-11-08,29.4764
2007-11-09,29.9611
2007-11-12,30.2892
2007-11-13,31.2212
2007-11-14,30.9901
2007-11-15,30.5725
2007-11-16,30.237
2007-11-19,29.976
2007-11-20,30.4532
2007-11-21,29.9387
2007-11-23,30.2519
2007-11-26,29.1184
2007-11-27,29.5211
2007-11-28,29.976
2007-11-29,29.8045
2007-11-30,29.8418
2007-12-03,29.6255
2007-12-04,29.1408
2007-12-05,29.4838
2007-12-06,29.9387
2007-12-07,29.9834
2007-12-10,30.2892
2007-12-11,29.4615
2007-12-12,29.7075
2007-12-13,29.715
2007-12-14,29.3198
2007-12-17,28.7754
2007-12-18,29.29
2007-12-19,29.4665
2007-12-20,29.4213
2007-12-21,29.918
2007-12-24,30.1663
2007-12-26,30.3996
2007-12-27,29.7449
2007-12-28,29.7299
2007-12-31,29.76
2008-01-02,28.8495
2008-01-03,28.6689
2008-01-04,28.4431
2008-01-07,28.6614
2008-01-08,27.5853
2008-01-09,28.082
2008-01-10,28.6839
2008-01-11,28.3604
2008-01-14,28.4657
2008-01-15,27.8487
2008-01-16,27.9992
2008-01-17,26.9081
2008-01-18,26.4115
2008-01-22,26.5168
2008-01-23,27.9014
2008-01-24,27.7584
2008-01-25,26.735
2008-01-28,28.255
2008-01-29,28.9473
2008-01-30,28.857
2008-01-31,28.9322
2008-02-01,29.1956
2008-02-04,29.1429
2008-02-05,28.4883
2008-02-06,28.4055
2008-02-07,28.5861
2008-02-08,28.4281
2008-02-11,28.2174
2008-02-12,28.255
2008-02-13,28.4958
2008-02-14,28.2099
2008-02-15,28.6689
2008-02-19,28.6313
2008-02-20,28.8871
2008-02-21,28.5635
2008-02-22,28.6764
2008-02-25,29.0602
2008-02-26,29.301
2008-02-27,29.6471
2008-02-28,28.7366
2008-02-29,27.9766
2008-03-03,27.7659
2008-03-04,27.9465
2008-03-05,27.8111
2008-03-06,27.6455
2008-03-07,27.9465
2008-03-10,27.6455
2008-03-11,29.0903
2008-03-12,28.6764
2008-03-13,28.541
2008-03-14,27.8562
2008-03-17,28.097
2008-03-18,28.926
2008-03-19,28.8348
2008-03-20,30.2415
2008-03-24,29.6256
2008-03-25,29.4963
2008-03-26,28.964
2008-03-27,28.6979
2008-03-28,28.7587
2008-03-31,28.9488
2008-04-01,30.2035
2008-04-02,30.3708
2008-04-03,30.1123
2008-04-04,29.5039
2008-04-07,29.8005
2008-04-08,29.3594
2008-04-09,28.7359
2008-04-10,28.7435
2008-04-11,28.5002
2008-04-14,27.5193
2008-04-15,28.1276
2008-04-16,28.5762
2008-04-17,28.5154
2008-04-18,28.7587
2008-04-21,28.4317
2008-04-22,27.9451
2008-04-23,28.3785
2008-04-24,29.0933
2008-04-25,28.7359
2008-04-28,28.8348
2008-04-29,28.5914
2008-04-30,27.3368
2008-05-01,27.6637
2008-05-02,27.9451
2008-05-05,27.6105
2008-05-06,27.5953
2008-05-07,26.8957
2008-05-08,26.6144
2008-05-09,26.622
2008-05-12,26.9946
2008-05-13,26.9946
2008-05-14,27.3824
2008-05-15,27.4356
2008-05-16,27.025
2008-05-19,27.1162
2008-05-20,27.0326
2008-05-21,26.8805
2008-05-22,27.1543
2008-05-23,26.6828
2008-05-27,27.0098
2008-05-28,26.66
2008-05-29,27.1086
2008-05-30,26.5992
2008-06-02,26.4319
2008-06-03,26.1733
2008-06-04,26.1961
2008-06-05,26.6296
2008-06-06,25.3521
2008-06-09,25.2836
2008-06-10,25.3293
2008-06-11,24.4092
2008-06-12,24.5308
2008-06-13,23.9681
2008-06-16,23.9529
2008-06-17,22.6526
2008-06-18,21.682
2008-06-19,22.0287
2008-06-20,22.1674
2008-06-23,20.688
2008-06-24,20.6341
2008-06-25,20.7343
2008-06-26,20.349
2008-06-27,20.0562
2008-06-30,19.5708
2008-07-01,19.3705
2008-07-02,19.4629
2008-07-03,19.5015
2008-07-07,18.7926
2008-07-08,19.5631
2008-07-09,18.4844
2008-07-10,18.2687
2008-07-11,17.9296
2008-07-14,17.2439
2008-07-15,16.8124
2008-07-16,17.7216
2008-07-17,18.8542
2008-07-18,19.3011
2008-07-21,19.4938
2008-07-22,20.742
2008-07-23,21.3121
2008-07-24,20.8344
2008-07-25,20.7034
2008-07-28,20.0947
2008-07-29,21.2582
2008-07-30,21.2351
2008-07-31,21.4508
2008-08-01,21.4123
2008-08-04,21.4354
2008-08-05,22.1443
2008-08-06,22.1289
2008-08-07,21.1195
2008-08-08,21.6743
2008-08-11,21.9285
2008-08-12,21.4277
2008-08-13,21.2043
2008-08-14,21.7513
2008-08-15,22.152
2008-08-18,21.4354
2008-08-19,21.1735
2008-08-20,21.2659
2008-08-21,21.081
2008-08-22,21.682
2008-08-25,21.3121
2008-08-26,21.7205
2008-08-27,22.2445
2008-08-28,22.6991
2008-08-29,22.8377
2008-09-02,23.2692
2008-09-03,23.7701
2008-09-04,23.1151
2008-09-05,23.5081
2008-09-08,24.5097
2008-09-09,23.0458
2008-09-10,22.6759
2008-09-11,22.8146
2008-09-12,22.7376
2008-09-15,22.0287
2008-09-16,22.5604
2008-09-17,21.0679
2008-09-18,23.6135
2008-09-19,26.0576
2008-09-22,23.754
2008-09-23,23.1606
2008-09-24,23.1215
2008-09-25,24.2538
2008-09-26,24.941
2008-09-29,22.45
2008-09-30,23.0122
2008-10-01,23.0435
2008-10-02,20.8726
2008-10-03,19.8653
2008-10-06,19.0298
2008-10-07,17.7101
2008-10-08,17.3743
2008-10-09,14.8834
2008-10-10,15.1411
2008-10-13,17.8272
2008-10-14,18.9048
2008-10-15,17.3353
2008-10-16,17.5149
2008-10-17,17.632
2008-10-20,17.8351
2008-10-21,18.1084
2008-10-22,17.0464
2008-10-23,17.8429
2008-10-24,17.3587
2008-10-27,16.7575
2008-10-28,18.7409
2008-10-29,18.7409
2008-10-30,19.2094
2008-10-31,20.2011
2008-11-03,20.5134
2008-11-04,21.4583
2008-11-05,20.6071
2008-11-06,19.2719
2008-11-07,19.9824
2008-11-10,18.897
2008-11-11,18.858
2008-11-12,18.0771
2008-11-13,20.8024
2008-11-14,20.4119
2008-11-17,19.7638
2008-11-18,20.5681
2008-11-19,19.756
2008-11-20,18.4988
2008-11-21,19.3812
2008-11-24,21.5988
2008-11-25,21.552
2008-11-26,22.0596
2008-11-28,22.8326
2008-12-01,19.756
2008-12-02,21.5129
2008-12-03,22.0908
2008-12-04,20.9741
2008-12-05,22.6218
2008-12-08,23.0356
2008-12-09,22.6764
2008-12-10,23.2074
2008-12-11,22.4422
2008-12-12,23.6916
2008-12-15,23.0356
2008-12-16,24.7145
2008-12-17,23.5992
2008-12-18,23.3225
2008-12-19,23.9154
2008-12-22,22.9746
2008-12-23,22.4924
2008-12-24,22.5161
2008-12-26,22.7612
2008-12-29,22.5714
2008-12-30,22.8165
2008-12-31,23.0379
2009-01-02,22.8718
2009-01-05,22.6663
2009-01-06,22.8402
2009-01-07,22.4054
2009-01-08,22.9509
2009-01-09,22.2157
2009-01-12,21.3065
2009-01-13,21.5357
2009-01-14,20.2787
2009-01-15,20.1364
2009-01-16,20.2155
2009-01-20,18.9268
2009-01-21,19.7648
2009-01-22,18.5157
2009-01-23,18.5947
2009-01-26,18.4366
2009-01-27,18.6343
2009-01-28,19.2509
2009-01-29,17.9939
2009-01-30,17.2665
2009-02-02,17.227
2009-02-03,17.3693
2009-02-04,17.3614
2009-02-05,16.9661
2009-02-06,17.6381
2009-02-09,17.6697
2009-02-10,17.4879
2009-02-11,18.4208
2009-02-12,18.5789
2009-02-13,18.0176
2009-02-17,16.8475
2009-02-18,17.2112
2009-02-19,16.6973
2009-02-20,16.7685
2009-02-23,16.0807
2009-02-24,16.895
2009-02-25,16.3099
2009-02-26,16.2388
2009-02-27,16.2704
2009-03-02,15.9937
2009-03-03,15.4956
2009-03-04,15.7723
2009-03-05,14.7208
2009-03-06,14.7129
2009-03-09,14.2781
2009-03-10,15.2031
2009-03-11,15.3533
2009-03-12,16.0965
2009-03-13,16.6104
2009-03-16,16.3257
2009-03-17,17.1717
2009-03-18,17.9353
2009-03-19,17.2349
2009-03-20,16.9129
2009-03-23,18.5793
2009-03-24,17.895
2009-03-25,18.4746
2009-03-26,18.6678
2009-03-27,18.2895
2009-03-30,17.7582
2009-03-31,18.3297
2009-04-01,19.0864
2009-04-02,19.3601
2009-04-03,19.7868
2009-04-06,19.7063
2009-04-07,19.1911
2009-04-08,19.4648
2009-04-09,20.632
2009-04-13,21.437
2009-04-14,20.4066
2009-04-15,21.5014
2009-04-16,21.4209
2009-04-17,20.4549
2009-04-20,19.4084
2009-04-21,20.6561
2009-04-22,19.658
2009-04-23,20.0524
2009-04-24,19.7626
2009-04-27,19.5855
2009-04-28,19.5211
2009-04-29,20.3583
2009-04-30,19.2796
2009-05-01,18.5149
2009-05-04,18.5551
2009-05-05,18.2814
2009-05-06,19.014
2009-05-07,18.4827
2009-05-08,19.7465
2009-05-11,18.3861
2009-05-12,18.4666
2009-05-13,17.8226
2009-05-14,18.2975
2009-05-15,17.7823
2009-05-18,18.692
2009-05-19,18.1848
2009-05-20,17.9836
2009-05-21,17.8709
2009-05-22,17.7984
2009-05-26,18.217
2009-05-27,17.5408
2009-05-28,17.8306
2009-05-29,18.1285
2009-06-01,18.3941
2009-06-02,19.0703
2009-06-03,18.8369
2009-06-04,19.3843
2009-06-05,19.4004
2009-06-08,19.4084
2009-06-09,19.3601
2009-06-10,19.2313
2009-06-11,19.3038
2009-06-12,19.1911
2009-06-15,18.8449
2009-06-16,18.6678
2009-06-17,18.3407
2009-06-18,18.5945
2009-06-19,18.57
2009-06-22,17.8249
2009-06-23,17.9313
2009-06-24,17.9231
2009-06-25,18.0623
2009-06-26,18.1033
2009-06-29,18.2916
2009-06-30,18.2834
2009-07-01,18.4881
2009-07-02,17.9395
2009-07-06,18.3571
2009-07-07,17.7676
2009-07-08,17.6939
2009-07-09,17.7757
2009-07-10,17.5874
2009-07-13,18.6355
2009-07-14,18.1115
2009-07-15,18.6764
2009-07-16,18.8402
2009-07-17,18.922
2009-07-20,19.0121
2009-07-21,19.2004
2009-07-22,19.3642
2009-07-23,19.7818
2009-07-24,19.9128
2009-07-27,20.2321
2009-07-28,20.2812
2009-07-29,20.1666
2009-07-30,19.9865
2009-07-31,19.7408
2009-08-03,19.9946
2009-08-04,20.4532
2009-08-05,20.3058
2009-08-06,19.88
2009-08-07,20.1584
2009-08-10,20.1338
2009-08-11,20.1093
2009-08-12,20.314
2009-08-13,20.5678
2009-08-14,20.4122
2009-08-17,20.0356
2009-08-18,20.0028
2009-08-19,20.1338
2009-08-20,20.1338
2009-08-21,20.3795
2009-08-24,20.183
2009-08-25,20.535
2009-08-26,20.666
2009-08-27,20.8134
2009-08-28,20.8871
2009-08-31,21.0673
2009-09-01,20.3713
2009-09-02,20.1011
2009-09-03,20.3877
2009-09-04,20.3877
2009-09-08,20.4941
2009-09-09,20.8052
2009-09-10,20.8298
2009-09-11,20.8789
2009-09-14,21.2228
2009-09-15,21.1246
2009-09-16,21.6695
2009-09-17,21.2454
2009-09-18,21.5364
2009-09-21,21.3535
2009-09-22,21.262
2009-09-23,21.1373
2009-09-24,21.104
2009-09-25,20.9959
2009-09-28,21.6944
2009-09-29,21.7526
2009-09-30,21.5946
2009-10-01,21.3119
2009-10-02,21.2038
2009-10-05,21.3119
2009-10-06,21.5281
2009-10-07,21.5198
2009-10-08,21.4616
2009-10-09,21.5863
2009-10-12,21.4865
2009-10-13,21.4117
2009-10-14,21.7693
2009-10-15,21.7693
2009-10-16,21.4034
2009-10-19,21.7942
2009-10-20,21.5032
2009-10-21,21.2953
2009-10-22,21.7277
2009-10-23,21.445
2009-10-26,21.0874
2009-10-27,20.9544
2009-10-28,20.9544
2009-10-29,21.3369
2009-10-30,21.1123
2009-11-02,21.3119
2009-11-03,21.2953
2009-11-04,21.2371
2009-11-05,21.5115
2009-11-06,21.4283
2009-11-09,21.9356
2009-11-10,21.8358
2009-11-11,22.0353
2009-11-12,21.711
2009-11-13,21.6944
2009-11-16,21.5946
2009-11-17,21.5447
2009-11-18,21.445
2009-11-19,21.2204
2009-11-20,21.1706
2009-11-23,21.3951
2009-11-24,21.3951
2009-11-25,21.3202
2009-11-27,21.3119
2009-11-30,21.2288
2009-12-01,21.2703
2009-12-02,21.2288
2009-12-03,20.9959
2009-12-04,21.2038
2009-12-07,21.0957
2009-12-08,21.129
2009-12-09,21.2371
2009-12-10,21.4034
2009-12-11,21.4949
2009-12-14,21.7194
2009-12-15,21.6362
2009-12-16,21.6695
2009-12-17,21.5281
2009-12-18,21.5032
2009-12-21,21.6427
2009-12-22,21.8792
2009-12-23,21.913
2009-12-24,22.1241
2009-12-28,22.0734
2009-12-29,22.2085
2009-12-30,22.3098
2009-12-31,22.1747
2010-01-04,22.3521
2010-01-05,22.369
2010-01-06,22.4196
2010-01-07,22.5041
2010-01-08,22.4281
2010-01-11,22.6054
2010-01-12,22.5716
2010-01-13,22.7996
2010-01-14,22.8081
2010-01-15,22.6983
2010-01-19,23.0952
2010-01-20,22.8334
2010-01-21,22.6392
2010-01-22,22.2001
2010-01-25,22.369
2010-01-26,22.1325
2010-01-27,22.3267
2010-01-28,22.1241
2010-01-29,22.3098
2010-02-01,22.2001
2010-02-02,22.4787
2010-02-03,22.5041
2010-02-04,22.217
2010-02-05,22.2338
2010-02-08,21.6596
2010-02-09,21.7272
2010-02-10,21.8539
2010-02-11,21.837
2010-02-12,21.913
2010-02-16,22.2001
2010-02-17,22.3605
2010-02-18,22.4872
2010-02-19,22.521
2010-02-22,22.6476
2010-02-23,22.4365
2010-02-24,22.7152
2010-02-25,22.749
2010-02-26,22.7321
2010-03-01,23.1205
2010-03-02,23.4076
2010-03-03,23.3569
2010-03-04,23.4836
2010-03-05,23.7285
2010-03-08,23.9143
2010-03-09,23.9987
2010-03-10,23.9312
2010-03-11,24.0494
2010-03-12,24.0578
2010-03-15,24.2183
2010-03-16,24.2605
2010-03-17,24.556
2010-03-18,24.7165
2010-03-19,24.8094
2010-03-22,24.5482
2010-03-23,24.7793
2010-03-24,24.6423
2010-03-25,24.7023
2010-03-26,24.8306
2010-03-29,25.0789
2010-03-30,24.9762
2010-03-31,24.7536
2010-04-01,24.8649
2010-04-05,25.0703
2010-04-06,25.096
2010-04-07,25.0275
2010-04-08,25.1131
2010-04-09,25.0789
2010-04-12,24.9933
2010-04-13,25.1987
2010-04-14,25.5325
2010-04-15,25.5411
2010-04-16,25.019
2010-04-19,25.3014
2010-04-20,25.4726
2010-04-21,25.464
2010-04-22,25.5411
2010-04-23,25.8406
2010-04-26,25.6951
2010-04-27,24.7365
2010-04-28,24.9334
2010-04-29,24.959
2010-04-30,24.3428
2010-05-03,24.5653
2010-05-04,23.9662
2010-05-05,23.8977
2010-05-06,23.0931
2010-05-07,22.7764
2010-05-10,23.658
2010-05-11,23.5296
2010-05-12,23.8206
2010-05-13,23.7522
2010-05-14,23.4612
2010-05-17,23.8292
2010-05-18,23.5981
2010-05-19,23.658
2010-05-20,22.8021
2010-05-21,23.1017
2010-05-24,22.6908
2010-05-25,22.5624
2010-05-26,22.4169
2010-05-27,23.29
2010-05-28,23.2472
2010-06-01,22.862
2010-06-02,23.4526
2010-06-03,23.5039
2010-06-04,22.5967
2010-06-07,22.4683
2010-06-08,22.8877
2010-06-09,22.8106
2010-06-10,23.7265
2010-06-11,23.872
2010-06-14,23.9148
2010-06-15,24.3171
2010-06-16,24.086
2010-06-17,24.2144
2010-06-18,24.2315
2010-06-21,24.0191
2010-06-22,23.8715
2010-06-23,23.7066
2010-06-24,23.3333
2010-06-25,23.7413
2010-06-28,23.5069
2010-06-29,22.717
2010-06-30,22.4826
2010-07-01,22.1788
2010-07-02,22.1614
2010-07-06,22.118
2010-07-07,22.8472
2010-07-08,23.2639
2010-07-09,23.4809
2010-07-12,23.4635
2010-07-13,23.9583
2010-07-14,23.8715
2010-07-15,23.8802
2010-07-16,23.1163
2010-07-19,23.2291
2010-07-20,23.4896
2010-07-21,22.9861
2010-07-22,23.6458
2010-07-23,23.9062
2010-07-26,24.2361
2010-07-27,24.3142
2010-07-28,24.0798
2010-07-29,24.0885
2010-07-30,23.9323
2010-08-02,24.4791
2010-08-03,24.1753
2010-08-04,24.375
2010-08-05,24.3055
2010-08-06,23.8715
2010-08-09,24.1493
2010-08-10,23.8541
2010-08-11,23.2205
2010-08-12,23.1423
2010-08-13,23.1597
2010-08-16,23.125
2010-08-17,23.5677
2010-08-18,23.7587
2010-08-19,23.2725
2010-08-20,23.3854
2010-08-23,23.2812
2010-08-24,23.2465
2010-08-25,23.3854
2010-08-26,23.1597
2010-08-27,23.6198
2010-08-30,23.0816
2010-08-31,23.151
2010-09-01,23.9409
2010-09-02,24.0451
2010-09-03,24.5486
2010-09-07,24.158
2010-09-08,24.2534
2010-09-09,24.5139
2010-09-10,24.5225
2010-09-13,25.0087
2010-09-14,25.0521
2010-09-15,25.2778
2010-09-16,25.2691
2010-09-17,25.3646
2010-09-20,25.5847
2010-09-21,25.3119
2010-09-22,24.863
2010-09-23,24.5726
2010-09-24,25.2943
2010-09-27,25.1446
2010-09-28,25.4791
2010-09-29,25.2591
2010-09-30,25.3911
2010-10-01,25.4087
2010-10-04,25.4263
2010-10-05,25.9455
2010-10-06,25.9455
2010-10-07,25.9103
2010-10-08,26.0072
2010-10-11,25.9896
2010-10-12,26.148
2010-10-13,26.2888
2010-10-14,26.324
2010-10-15,26.2888
2010-10-18,26.4912
2010-10-19,26.1832
2010-10-20,26.6232
2010-10-21,26.632
2010-10-22,26.8257
2010-10-25,26.9313
2010-10-26,26.6232
2010-10-27,26.6936
2010-10-28,26.0248
2010-10-29,25.9279
2010-11-01,25.9631
2010-11-02,26.2712
2010-11-03,26.2976
2010-11-04,27.1513
2010-11-05,27.0457
2010-11-08,26.6848
2010-11-09,26.3768
2010-11-10,26.6496
2010-11-11,26.4032
2010-11-12,26.2096
2010-11-15,26.5264
2010-11-16,26.0336
2010-11-17,26.104
2010-11-18,26.5088
2010-11-19,26.4736
2010-11-22,26.4384
2010-11-23,26.192
2010-11-24,26.632
2010-11-26,26.4032
2010-11-29,26.5352
2010-11-30,26.5528
2010-12-01,27.1249
2010-12-02,27.3449
2010-12-03,26.9665
2010-12-06,26.9841
2010-12-07,27.1601
2010-12-08,27.4417
2010-12-09,27.6089
2010-12-10,27.7674
2010-12-13,28.1898
2010-12-14,28.1634
2010-12-15,28.1282
2010-12-16,28.2866
2010-12-17,28.0138
2010-12-20,28.0675
2010-12-21,28.4508
2010-12-22,28.7182
2010-12-23,28.4686
2010-12-27,28.5934
2010-12-28,28.5488
2010-12-29,28.5043
2010-12-30,28.3082
2010-12-31,28.2814
2011-01-03,28.7716
2011-01-04,28.5488
2011-01-05,28.6469
2011-01-06,28.6112
2011-01-07,28.3616
2011-01-10,28.4062
2011-01-11,28.2547
2011-01-12,28.5488
2011-01-13,28.3884
2011-01-14,28.629
2011-01-18,28.7271
2011-01-19,28.2903
2011-01-20,28.2903
2011-01-21,28.326
2011-01-24,28.7716
2011-01-25,28.941
2011-01-26,28.9232
2011-01-27,29.1995
2011-01-28,28.6558
2011-01-31,28.5577
2011-02-01,29.2886
2011-02-02,29.0569
2011-02-03,29.458
2011-02-04,29.5471
2011-02-07,29.5471
2011-02-08,29.663
2011-02-09,29.6006
2011-02-10,29.7254
2011-02-11,29.9036
2011-02-14,29.6986
2011-02-15,29.7075
2011-02-16,30.0551
2011-02-17,30.2245
2011-02-18,30.4919
2011-02-22,30.2156
2011-02-23,29.9571
2011-02-24,29.7788
2011-02-25,30.0641
2011-02-28,30.3225
2011-03-01,29.7699
2011-03-02,29.4669
2011-03-03,29.8947
2011-03-04,29.6184
2011-03-07,29.4223
2011-03-08,29.9304
2011-03-09,29.8412
2011-03-10,29.4045
2011-03-11,29.4847
2011-03-14,29.253
2011-03-15,28.8875
2011-03-16,28.4864
2011-03-17,28.8519
2011-03-18,29.0658
2011-03-21,29.6434
2011-03-22,29.4269
2011-03-23,29.1832
2011-03-24,29.2734
2011-03-25,29.2915
2011-03-28,29.2374
2011-03-29,29.3637
2011-03-30,29.7427
2011-03-31,29.5983
2011-04-01,29.7607
2011-04-04,30.0675
2011-04-05,29.9683
2011-04-06,30.257
2011-04-07,29.9593
2011-04-08,29.7066
2011-04-11,29.7878
2011-04-12,29.3186
2011-04-13,29.1381
2011-04-14,28.9305
2011-04-15,29.0298
2011-04-18,28.5515
2011-04-19,28.4793
2011-04-20,28.723
2011-04-21,28.9847
2011-04-25,29.0208
2011-04-26,29.2374
2011-04-27,29.4178
2011-04-28,28.4703
2011-04-29,28.5876
2011-05-02,28.3711
2011-05-03,28.2628
2011-05-04,28.1725
2011-05-05,27.7755
2011-05-06,27.9469
2011-05-09,28.2177
2011-05-10,28.4252
2011-05-11,27.983
2011-05-12,28.2357
2011-05-13,27.8928
2011-05-16,27.9018
2011-05-17,27.8928
2011-05-18,28.0823
2011-05-19,27.965
2011-05-20,27.6852
2011-05-23,27.2701
2011-05-24,26.9904
2011-05-25,26.9633
2011-05-26,27.1619
2011-05-27,27.1438
2011-05-31,27.4506
2011-06-01,26.8911
2011-06-02,26.7919
2011-06-03,26.5753
2011-06-06,26.3407
2011-06-07,26.2414
2011-06-08,26.2234
2011-06-09,26.5482
2011-06-10,26.3587
2011-06-13,26.0339
2011-06-14,26.3497
2011-06-15,25.8985
2011-06-16,26.07
2011-06-17,26.0519
2011-06-20,26.1067
2011-06-21,26.1067
2011-06-22,25.9054
2011-06-23,25.7773
2011-06-24,25.759
2011-06-27,25.9511
2011-06-28,26.0518
2011-06-29,26.5093
2011-06-30,26.6923
2011-07-01,26.976
2011-07-05,26.7106
2011-07-06,26.6191
2011-07-07,26.8753
2011-07-08,26.5734
2011-07-11,26.0701
2011-07-12,26.0426
2011-07-13,25.9786
2011-07-14,25.6949
2011-07-15,25.4387
2011-07-18,25.1093
2011-07-19,25.4661
2011-07-20,25.5393
2011-07-21,26.1341
2011-07-22,25.9877
2011-07-25,25.9328
2011-07-26,25.8779
2011-07-27,25.4021
2011-07-28,25.3472
2011-07-29,25.0361
2011-08-01,24.8073
2011-08-02,24.3223
2011-08-03,24.7158
2011-08-04,23.9288
2011-08-05,23.7367
2011-08-08,22.0438
2011-08-09,23.2791
2011-08-10,21.9798
2011-08-11,23.4713
2011-08-12,23.3341
2011-08-15,24.2125
2011-08-16,24.0661
2011-08-17,24.1393
2011-08-18,23.5171
2011-08-19,23.3981
2011-08-22,23.2517
2011-08-23,24.1302
2011-08-24,24.7249
2011-08-25,24.2491
2011-08-26,24.2857
2011-08-29,25.2831
2011-08-30,25.2099
2011-08-31,25.5027
2011-09-01,25.1184
2011-09-02,24.606
2011-09-06,24.2949
2011-09-07,25.4387
2011-09-08,25.1184
2011-09-09,24.6243
2011-09-12,24.7707
2011-09-13,24.8805
2011-09-14,25.0269
2011-09-15,25.3197
2011-09-16,25.4661
2011-09-19,24.9861
2011-09-20,25.3761
2011-09-21,24.0762
2011-09-22,23.6862
2011-09-23,23.6398
2011-09-26,24.4012
2011-09-27,24.6426
2011-09-28,24.0483
2011-09-29,24.8283
2011-09-30,24.4754
2011-10-03,23.3148
2011-10-04,24.1505
2011-10-05,24.8376
2011-10-06,25.0975
2011-10-07,24.429
2011-10-10,25.0697
2011-10-11,24.5961
2011-10-12,24.6333
2011-10-13,24.5961
2011-10-14,24.7633
2011-10-17,23.8626
2011-10-18,25.0233
2011-10-19,25.1904
2011-10-20,25.5061
2011-10-21,26.4903
2011-10-24,27.1124
2011-10-25,26.2953
2011-10-26,26.8988
2011-10-27,28.1245
2011-10-28,27.2795
2011-10-31,26.9081
2011-11-01,25.7382
2011-11-02,26.4996
2011-11-03,27.196
2011-11-04,27.066
2011-11-07,27.1402
2011-11-08,27.3817
2011-11-09,26.3046
2011-11-10,26.6853
2011-11-11,27.1588
2011-11-14,26.8896
2011-11-15,27.0474
2011-11-16,26.4717
2011-11-17,26.351
2011-11-18,26.6667
2011-11-21,25.9796
2011-11-22,26.0075
2011-11-23,25.3668
2011-11-25,25.5154
2011-11-28,26.2117
2011-11-29,26.1003
2011-11-30,27.5395
2011-12-01,26.9267
2011-12-02,26.8803
2011-12-05,27.2331
2011-12-06,27.5209
2011-12-07,27.7066
2011-12-08,27.0474
2011-12-09,27.5766
2011-12-12,27.3817
2011-12-13,27.3352
2011-12-14,27.5024
2011-12-15,27.7159
2011-12-16,27.8366
2011-12-19,27.4065
2011-12-20,28.1971
2011-12-21,28.31
2011-12-22,28.5641
2011-12-23,28.743
2011-12-27,28.7712
2011-12-28,28.5924
2011-12-29,28.9029
2011-12-30,28.6771
2012-01-03,28.7994
2012-01-04,28.6771
2012-01-05,29.0724
2012-01-06,28.8747
2012-01-09,29.1194
2012-01-10,29.4865
2012-01-11,29.5806
2012-01-12,29.6088
2012-01-13,29.3924
2012-01-17,29.4865
2012-01-18,29.9665
2012-01-19,30.117
2012-01-20,30.6347
2012-01-23,30.5876
2012-01-24,30.5123
2012-01-25,30.8135
2012-01-26,31.1053
2012-01-27,31.0206
2012-01-30,30.7476
2012-01-31,30.7759
2012-02-01,31.2558
2012-02-02,31.0864
2012-02-03,31.4347
2012-02-06,31.1523
2012-02-07,31.4817
2012-02-08,31.4911
2012-02-09,32.2723
2012-02-10,32.4229
2012-02-13,32.5829
2012-02-14,32.7523
2012-02-15,32.677
2012-02-16,33.3452
2012-02-17,33.6276
2012-02-21,33.8723
2012-02-22,33.477
2012-02-23,33.7311
2012-02-24,33.6558
2012-02-27,33.5805
2012-02-28,33.3358
2012-02-29,33.1099
2012-03-01,32.9593
2012-03-02,32.4605
2012-03-05,33.204
2012-03-06,32.4699
2012-03-07,32.677
2012-03-08,32.9029
2012-03-09,32.9782
2012-03-12,33.0629
2012-03-13,33.7687
2012-03-14,33.4205
2012-03-15,33.8817
2012-03-16,33.4393
2012-03-19,33.423
2012-03-20,33.4897
2012-03-21,33.3945
2012-03-22,33.1089
2012-03-23,33.1374
2012-03-26,33.5944
2012-03-27,33.5658
2012-03-28,33.4421
2012-03-29,33.0994
2012-03-30,32.8519
2012-04-02,33.0898
2012-04-03,33.2612
2012-04-04,32.8043
2012-04-05,32.6043
2012-04-09,32.0237
2012-04-10,31.5096
2012-04-11,31.8809
2012-04-12,32.3759
2012-04-13,32.2331
2012-04-16,32.6234
2012-04-17,32.9566
2012-04-18,32.7281
2012-04-19,32.7281
2012-04-20,32.947
2012-04-23,32.5853
2012-04-24,33.0327
2012-04-25,33.68
2012-04-26,34.0037
2012-04-27,34.1084
2012-04-30,33.899
2012-05-01,34.2322
2012-05-02,34.1941
2012-05-03,34.632
2012-05-04,34.4321
2012-05-07,34.2893
2012-05-08,34.3179
2012-05-09,34.0418
2012-05-10,34.4035
2012-05-11,34.375
2012-05-14,33.8514
2012-05-15,33.8038
2012-05-16,33.5658
2012-05-17,33.0137
2012-05-18,32.5663
2012-05-21,33.0232
2012-05-22,33.3373
2012-05-23,33.6705
2012-05-24,33.8895
2012-05-25,33.9371
2012-05-29,34.2703
2012-05-30,33.8609
2012-05-31,34.375
2012-06-01,33.4992
2012-06-04,33.3373
2012-06-05,33.5753
2012-06-06,34.4131
2012-06-07,34.5939
2012-06-08,34.9271
2012-06-11,34.4416
2012-06-12,34.8795
2012-06-13,34.4702
2012-06-14,34.6606
2012-06-15,34.889
2012-06-18,35.4792
2012-06-19,36.0664
2012-06-20,35.8931
2012-06-21,35.2001
2012-06-22,35.537
2012-06-25,35.2001
2012-06-26,35.6621
2012-06-27,35.614
2012-06-28,35.6428
2012-06-29,36.5958
2012-07-02,36.8749
2012-07-03,36.8749
2012-07-05,36.6728
2012-07-06,36.769
2012-07-09,36.6246
2012-07-10,36.538
2012-07-11,36.6246
2012-07-12,36.307
2012-07-13,36.7016
2012-07-16,36.2589
2012-07-17,36.2877
2012-07-18,36.2877
2012-07-19,36.2589
2012-07-20,35.9027
2012-07-23,35.7872
2012-07-24,35.7006
2012-07-25,35.7102
2012-07-26,36.1337
2012-07-27,36.6535
2012-07-30,36.8653
2012-07-31,36.461
2012-08-01,36.0567
2012-08-02,36.0856
2012-08-03,36.7979
2012-08-06,36.4899
2012-08-07,36.6535
2012-08-08,36.769
2012-08-09,36.7498
2012-08-10,36.8556
2012-08-13,36.8653
2012-08-14,36.9711
2012-08-15,37.1829
2012-08-16,37.7604
2012-08-17,38.0299
2012-08-20,38.0877
2012-08-21,37.6449
2012-08-22,37.6353
2012-08-23,37.385
2012-08-24,37.6064
2012-08-27,37.3369
2012-08-28,37.3947
2012-08-29,37.1059
2012-08-30,37.0963
2012-08-31,37.2792
2012-09-04,37.3177
2012-09-05,37.2695
2012-09-06,37.6449
2012-09-07,37.2503
2012-09-10,37.1829
2012-09-11,37.6642
2012-09-12,37.7412
2012-09-13,38.3091
2012-09-14,38.338
2012-09-17,38.4327
2012-09-18,38.4229
2012-09-19,38.2382
2012-09-20,37.9464
2012-09-21,37.7325
2012-09-24,37.713
2012-09-25,37.2754
2012-09-26,36.7308
2012-09-27,36.9448
2012-09-28,36.8475
2012-10-01,36.8183
2012-10-02,36.7892
2012-10-03,36.9156
2012-10-04,37.4504
2012-10-05,37.606
2012-10-08,37.6449
2012-10-09,37.3921
2012-10-10,37.4018
2012-10-11,37.6255
2012-10-12,37.3727
2012-10-15,37.5769
2012-10-16,37.995
2012-10-17,38.316
2012-10-18,38.7536
2012-10-19,38.4521
2012-10-22,38.5396
2012-10-23,38.4327
2012-10-24,38.3743
2012-10-25,38.8022
2012-10-26,39.4635
2012-10-31,38.7925
2012-11-01,38.6758
2012-11-02,38.0145
2012-11-05,38.1409
2012-11-06,38.7536
2012-11-07,38.0145
2012-11-08,37.9367
2012-11-09,37.9853
2012-11-12,37.7811
2012-11-13,37.4213
2012-11-14,36.8961
2012-11-15,37.2754
2012-11-16,37.927
2012-11-19,38.5202
2012-11-20,38.8022
2012-11-21,38.773
2012-11-23,38.7925
2012-11-26,38.9967
2012-11-27,38.9286
2012-11-28,39.269
2012-11-29,39.3273
2012-11-30,39.4051
2012-12-03,39.3176
2012-12-04,39.3176
2012-12-05,39.376
2012-12-06,39.4635
2012-12-07,39.3662
2012-12-10,39.4635
2012-12-11,39.4927
2012-12-12,39.444
2012-12-13,38.7244
2012-12-14,38.491
2012-12-17,38.979
2012-12-18,39.4408
2012-12-19,39.2344
2012-12-20,39.4015
2012-12-21,38.861
2012-12-24,38.7923
2012-12-26,38.5663
2012-12-27,38.4091
2012-12-28,37.9473
2012-12-31,38.4385
2013-01-02,39.1263
2013-01-03,39.1459
2013-01-04,39.6175
2013-01-07,39.6569
2013-01-08,39.5487
2013-01-09,40.0007
2013-01-10,40.4331
2013-01-11,40.5412
2013-01-14,40.4626
2013-01-15,40.3447
2013-01-16,40.2955
2013-01-17,40.61
2013-01-18,40.8851
2013-01-22,41.6712
2013-01-23,41.6024
2013-01-24,41.7792
2013-01-25,41.9856
2013-01-28,41.5635
2013-01-29,41.9959
2013-01-30,41.7478
2013-01-31,41.7502
2013-02-01,42.7131
2013-02-04,42.5707
2013-02-05,42.7721
2013-02-06,43.1647
2013-02-07,43.6466
2013-02-08,43.794
2013-02-11,43.8234
2013-02-12,43.8244
2013-02-13,43.9218
2013-02-14,43.9218
2013-02-15,44.02
2013-02-19,44.2553
2013-02-20,43.7444
2013-02-21,43.7345
2013-02-22,44.216
2013-02-25,43.2142
2013-02-26,43.8554
2013-02-27,44.2067
2013-02-28,44.2558
2013-03-01,44.3197
2013-03-04,44.4617
2013-03-05,44.9432
2013-03-06,45.228
2013-03-07,45.513
2013-03-08,45.5228
2013-03-11,45.6801
2013-03-12,45.8275
2013-03-13,46.1812
2013-03-14,46.3286
2013-03-15,46.1615
2013-03-18,45.7532
2013-03-19,45.773
2013-03-20,46.0604
2013-03-21,45.8325
2013-03-22,45.9217
2013-03-25,46.0109
2013-03-26,46.4867
2013-03-27,46.4272
2013-03-28,46.784
2013-04-01,46.6948
2013-04-02,47.0913
2013-04-03,47.0219
2013-04-04,47.1607
2013-04-05,46.9426
2013-04-08,47.3193
2013-04-09,47.2201
2013-04-10,47.8842
2013-04-11,48.5781
2013-04-12,48.3203
2013-04-15,47.686
2013-04-16,48.3501
2013-04-17,47.2796
2013-04-18,46.4371
2013-04-19,47.3292
2013-04-22,47.4679
2013-04-23,48.251
2013-04-24,48.4888
2013-04-25,48.4195
2013-04-26,47.6563
2013-04-29,47.795
2013-04-30,48.4988
2013-05-01,47.9338
2013-05-02,48.2807
2013-05-03,48.7862
2013-05-06,48.9448
2013-05-07,48.8655
2013-05-08,48.9944
2013-05-09,48.6375
2013-05-10,48.8259
2013-05-13,49.034
2013-05-14,49.7972
2013-05-15,49.8864
2013-05-16,48.8853
2013-05-17,49.1629
2013-05-20,48.7565
2013-05-21,47.914
2013-05-22,47.4382
2013-05-23,47.3093
2013-05-24,47.4679
2013-05-28,47.6463
2013-05-29,47.1706
2013-05-30,47.567
2013-05-31,47.0021
2013-06-03,46.675
2013-06-04,45.7928
2013-06-05,45.1783
2013-06-06,45.5153
2013-06-07,46.0604
2013-06-10,46.0505
2013-06-11,45.0792
2013-06-12,45.2477
2013-06-13,46.0109
2013-06-14,45.8226
2013-06-17,46.8
2013-06-18,47.07
2013-06-19,46.31
2013-06-20,45.3
2013-06-21,45.43
2013-06-24,44.77
2013-06-25,45.06
2013-06-26,45.69
2013-06-27,46.22
2013-06-28,46.06
2013-07-01,46.51
2013-07-02,46.32
2013-07-03,46.32
2013-07-05,46.64
2013-07-08,47.38
2013-07-09,48.1
2013-07-10,48.5
2013-07-11,48.85
2013-07-12,49.17
2013-07-15,49.39
2013-07-16,48.97
2013-07-17,49.04
2013-07-18,49.6
2013-07-19,49.48
2013-07-22,50.0
2013-07-23,49.51
2013-07-24,48.67
2013-07-25,48.88
2013-07-26,49.04
2013-07-29,49.06
2013-07-30,48.97
2013-07-31,49.01
2013-08-01,49.93
2013-08-02,49.73
2013-08-05,49.11
2013-08-06,48.7
2013-08-07,48.56
2013-08-08,48.74
2013-08-09,48.62
