date,close_price
2002-12-06,7.03279
2002-12-09,6.90195
2002-12-10,6.969
2002-12-11,7.40896
2002-12-12,7.17999
2002-12-13,7.1391
2002-12-16,7.04914
2002-12-17,7.07368
2002-12-18,6.97882
2002-12-19,6.91012
2002-12-20,7.24541
2002-12-23,7.09003
2002-12-24,7.04097
2002-12-26,6.96737
2002-12-27,6.86924
2002-12-30,6.92811
2002-12-31,7.16363
2003-01-02,7.17508
2003-01-03,7.44985
2003-01-06,7.86364
2003-01-07,7.85219
2003-01-08,7.85383
2003-01-09,8.01738
2003-01-10,8.01247
2003-01-13,8.12532
2003-01-14,8.03046
2003-01-15,7.66247
2003-01-16,7.42532
2003-01-17,7.36317
2003-01-21,7.2683
2003-01-22,7.22088
2003-01-23,7.42695
2003-01-24,7.68537
2003-01-27,7.55943
2003-01-28,7.53163
2003-01-29,7.57906
2003-01-30,7.18816
2003-01-31,6.94611
2003-02-03,6.92484
2003-02-04,6.86924
2003-02-05,6.83652
2003-02-06,6.78419
2003-02-07,6.89377
2003-02-10,7.04097
2003-02-11,7.01643
2003-02-12,7.02134
2003-02-13,7.1162
2003-02-14,7.28139
2003-02-18,7.30592
2003-02-19,7.32555
2003-02-20,7.37134
2003-02-21,7.43513
2003-02-24,7.45803
2003-02-25,7.47765
2003-02-26,7.4155
2003-02-27,7.08185
2003-02-28,7.04914
2003-03-03,7.05405
2003-03-04,7.01807
2003-03-05,6.90849
2003-03-06,6.97576
2003-03-07,6.95443
2003-03-10,6.95115
2003-03-11,6.92982
2003-03-12,6.94459
2003-03-13,6.97905
2003-03-14,7.10376
2003-03-17,7.55667
2003-03-18,7.57964
2003-03-19,7.70436
2003-03-20,7.49923
2003-03-21,7.72733
2003-03-24,7.88322
2003-03-25,7.9423
2003-03-26,7.96035
2003-03-27,8.02435
2003-03-28,7.98496
2003-03-31,7.93081
2003-04-01,7.88322
2003-04-02,7.90948
2003-04-03,7.93409
2003-04-04,7.9505
2003-04-07,7.68631
2003-04-08,7.62395
2003-04-09,7.67154
2003-04-10,7.72077
2003-04-11,7.67482
2003-04-14,7.79461
2003-04-15,7.79461
2003-04-16,7.80117
2003-04-17,8.04896
2003-04-21,7.99481
2003-04-22,8.20485
2003-04-23,8.34598
2003-04-24,8.44443
2003-04-25,8.61017
2003-04-28,9.1238
2003-04-29,9.132
2003-04-30,9.28461
2003-05-01,9.15661
2003-05-02,9.36174
2003-05-05,9.34697
2003-05-06,9.27148
2003-05-07,9.12051
2003-05-08,9.08769
2003-05-09,9.18779
2003-05-12,9.29774
2003-05-13,9.63906
2003-05-14,9.59147
2003-05-15,9.66039
2003-05-16,9.75721
2003-05-19,9.6046
2003-05-20,9.60624
2003-05-21,9.70798
2003-05-22,9.82121
2003-05-23,9.87536
2003-05-27,9.76377
2003-05-28,9.91967
2003-05-29,9.88685
2003-05-30,10.087
2003-06-02,10.2036
2003-06-03,10.2397
2003-06-04,10.3709
2003-06-05,10.3381
2003-06-06,10.0388
2003-06-09,10.1983
2003-06-10,10.2411
2003-06-11,10.269
2003-06-12,10.5585
2003-06-13,10.6111
2003-06-16,10.7723
2003-06-17,11.4104
2003-06-18,11.4597
2003-06-19,11.1834
2003-06-20,10.8924
2003-06-23,10.8562
2003-06-24,11.2903
2003-06-25,11.0239
2003-06-26,11.366
2003-06-27,11.4121
2003-06-30,11.4301
2003-07-01,12.2525
2003-07-02,12.2525
2003-07-03,12.1456
2003-07-07,12.1801
2003-07-08,12.2327
2003-07-09,12.6143
2003-07-10,12.7426
2003-07-11,12.4515
2003-07-14,12.7491
2003-07-15,12.7754
2003-07-16,12.5732
2003-07-17,12.2442
2003-07-18,12.2919
2003-07-21,12.1456
2003-07-22,12.7754
2003-07-23,12.9827
2003-07-24,12.4876
2003-07-25,12.9087
2003-07-28,12.8281
2003-07-29,12.5567
2003-07-30,12.3824
2003-07-31,12.1192
2003-08-01,11.8084
2003-08-04,12.0288
2003-08-05,12.2821
2003-08-06,12.315
2003-08-07,12.3347
2003-08-08,12.3429
2003-08-11,12.3544
2003-08-12,12.4169
2003-08-13,12.6554
2003-08-14,12.8692
2003-08-15,12.9103
2003-08-18,12.8281
2003-08-19,11.8249
2003-08-20,12.065
2003-08-21,11.5617
2003-08-22,11.2492
2003-08-25,10.9368
2003-08-26,11.5683
2003-08-27,11.9745
2003-08-28,11.792
2003-08-29,11.5913
2003-09-02,11.4696
2003-09-03,11.6785
2003-09-04,11.6686
2003-09-05,11.5699
2003-09-08,11.8814
2003-09-09,11.8534
2003-09-10,11.8006
2003-09-11,11.8402
2003-09-12,11.799
2003-09-15,11.7149
2003-09-16,11.7825
2003-09-17,11.8929
2003-09-18,12.1434
2003-09-19,12.1006
2003-09-22,11.9424
2003-09-23,11.5765
2003-09-24,11.4694
2003-09-25,11.2881
2003-09-26,10.9569
2003-09-29,10.9701
2003-09-30,11.3672
2003-10-01,11.3722
2003-10-02,11.7084
2003-10-03,11.8155
2003-10-06,11.9885
2003-10-07,12.0116
2003-10-08,12.1039
2003-10-09,12.0132
2003-10-10,11.9654
2003-10-13,12.3016
2003-10-14,12.2851
2003-10-15,12.2439
2003-10-16,12.0989
2003-10-17,11.6342
2003-10-20,11.3607
2003-10-21,11.5353
2003-10-22,11.0838
2003-10-23,10.7443
2003-10-24,11.158
2003-10-27,11.1926
2003-10-28,11.2354
2003-10-29,11.3541
2003-10-30,11.097
2003-10-31,11.2057
2003-11-03,11.2057
2003-11-04,10.8778
2003-11-05,10.9487
2003-11-06,10.9487
2003-11-07,11.0871
2003-11-10,11.1365
2003-11-11,11.2222
2003-11-12,11.4249
2003-11-13,11.0887
2003-11-14,11.1464
2003-11-17,10.8712
2003-11-18,10.9404
2003-11-19,11.2469
2003-11-20,11.1629
2003-11-21,11.1992
2003-11-24,11.3096
2003-11-25,11.3079
2003-11-26,11.2947
2003-11-28,11.2832
2003-12-01,11.3656
2003-12-02,11.4463
2003-12-03,11.2519
2003-12-04,11.3376
2003-12-05,11.6507
2003-12-08,11.5582
2003-12-09,11.4557
2003-12-10,11.2144
2003-12-11,11.3334
2003-12-12,11.302
2003-12-15,11.2359
2003-12-16,11.3449
2003-12-17,11.3714
2003-12-18,11.6408
2003-12-19,11.8904
2003-12-22,11.9499
2003-12-23,11.9532
2003-12-24,11.8937
2003-12-26,11.8193
2003-12-29,11.9548
2003-12-30,12.0127
2003-12-31,11.9499
2004-01-02,12.0821
2004-01-05,12.9102
2004-01-06,12.5366
2004-01-07,12.4622
2004-01-08,12.3267
2004-01-09,12.4523
2004-01-12,12.3862
2004-01-13,12.2193
2004-01-14,12.1383
2004-01-15,12.3961
2004-01-16,13.1366
2004-01-20,13.4953
2004-01-21,13.5862
2004-01-22,14.3613
2004-01-23,14.163
2004-01-26,14.1233
2004-01-27,14.1812
2004-01-28,14.049
2004-01-29,14.0688
2004-01-30,14.4159
2004-02-02,14.4241
2004-02-03,14.1994
2004-02-04,13.9118
2004-02-05,14.0523
2004-02-06,14.1465
2004-02-09,14.3018
2004-02-10,14.1266
2004-02-11,14.0572
2004-02-12,13.9647
2004-02-13,13.7432
2004-02-17,14.0721
2004-02-18,14.0985
2004-02-19,14.1448
2004-02-20,14.0655
2004-02-23,14.3382
2004-02-24,14.2969
2004-02-25,14.4622
2004-02-26,15.1249
2004-02-27,15.3629
2004-03-01,15.6522
2004-03-02,15.6357
2004-03-03,15.4307
2004-03-04,15.7117
2004-03-05,16.0637
2004-03-08,15.8417
2004-03-09,16.0753
2004-03-10,15.9096
2004-03-11,15.6328
2004-03-12,15.7638
2004-03-15,15.5052
2004-03-16,15.1556
2004-03-17,15.555
2004-03-18,15.5135
2004-03-19,15.54
2004-03-22,15.2517
2004-03-23,15.3909
2004-03-24,15.2683
2004-03-25,15.4008
2004-03-26,15.6826
2004-03-29,15.9809
2004-03-30,16.4698
2004-03-31,16.0571
2004-04-01,16.5808
2004-04-02,17.068
2004-04-05,17.774
2004-04-06,17.9232
2004-04-07,18.1883
2004-04-08,18.185
2004-04-12,18.243
2004-04-13,17.4674
2004-04-14,17.5768
2004-04-15,18.0077
2004-04-16,18.2248
2004-04-19,18.9954
2004-04-20,19.244
2004-04-21,19.0087
2004-04-22,19.3948
2004-04-23,19.7113
2004-04-26,19.428
2004-04-27,20.0544
2004-04-28,19.6716
2004-04-29,19.3318
2004-04-30,19.4246
2004-05-03,19.6036
2004-05-04,20.1025
2004-05-05,20.3212
2004-05-06,19.5788
2004-05-07,19.3235
2004-05-10,19.3733
2004-05-11,19.4346
2004-05-12,19.3932
2004-05-13,19.5092
2004-05-14,19.6732
2004-05-17,19.3915
2004-05-18,20.3196
2004-05-19,20.5549
2004-05-20,20.5333
2004-05-21,20.6411
2004-05-24,20.9245
2004-05-25,21.1498
2004-05-26,21.5675
2004-05-27,21.5641
2004-05-28,21.3587
2004-06-01,20.2201
2004-06-02,20.4422
2004-06-03,19.6152
2004-06-04,19.9533
2004-06-07,20.6361
2004-06-08,20.6926
2004-06-09,20.2608
2004-06-10,21.0862
2004-06-14,21.0331
2004-06-15,20.9417
2004-06-16,21.1078
2004-06-17,21.1244
2004-06-18,21.4732
2004-06-21,21.5894
2004-06-22,21.4167
2004-06-23,22.1889
2004-06-24,22.4198
2004-06-25,22.9512
2004-06-28,23.393
2004-06-29,23.3315
2004-06-30,23.946
2004-07-01,24.4259
2004-07-02,23.7932
2004-07-06,23.579
2004-07-07,23.9377
2004-07-08,23.5158
2004-07-09,23.0724
2004-07-12,22.3915
2004-07-13,22.2437
2004-07-14,21.7389
2004-07-15,20.3787
2004-07-16,19.4438
2004-07-19,19.7875
2004-07-20,20.8554
2004-07-21,20.0499
2004-07-22,20.7757
2004-07-23,20.6478
2004-07-26,20.3821
2004-07-27,20.784
2004-07-28,20.7159
2004-07-29,20.9733
2004-07-30,20.7906
2004-08-02,20.8255
2004-08-03,20.9832
2004-08-04,20.8421
2004-08-05,20.1263
2004-08-06,21.523
2004-08-09,22.4829
2004-08-10,22.8399
2004-08-11,22.8316
2004-08-12,22.1192
2004-08-13,22.1125
2004-08-16,22.3998
2004-08-17,22.4081
2004-08-18,22.3932
2004-08-19,22.2022
2004-08-20,22.4065
2004-08-23,22.8349
2004-08-24,22.6523
2004-08-25,22.6108
2004-08-26,22.9595
2004-08-27,22.6672
2004-08-30,22.1275
2004-08-31,22.0611
2004-09-01,21.9465
2004-09-02,22.9097
2004-09-03,22.7519
2004-09-07,24.0107
2004-09-08,23.866
2004-09-09,24.0923
2004-09-10,23.9625
2004-09-13,23.5
2004-09-14,23.9442
2004-09-15,23.4867
2004-09-16,23.4717
2004-09-17,23.8094
2004-09-20,24.3036
2004-09-21,25.1537
2004-09-22,25.2935
2004-09-23,25.4815
2004-09-24,26.2584
2004-09-27,26.1203
2004-09-28,26.493
2004-09-29,26.3666
2004-09-30,26.8457
2004-10-01,27.5345
2004-10-04,27.9937
2004-10-05,28.0669
2004-10-06,28.0569
2004-10-07,27.8173
2004-10-08,27.5911
2004-10-11,27.6476
2004-10-12,27.4913
2004-10-13,27.8123
2004-10-14,28.5943
2004-10-15,28.4728
2004-10-18,28.4163
2004-10-19,28.2416
2004-10-20,27.7974
2004-10-21,28.0486
2004-10-22,27.9421
2004-10-25,28.2133
2004-10-26,27.5345
2004-10-27,28.3764
2004-10-28,28.8622
2004-10-29,29.2315
2004-11-01,29.2648
2004-11-02,29.9136
2004-11-03,31.1331
2004-11-04,31.0882
2004-11-05,30.0184
2004-11-08,31.1614
2004-11-09,31.8103
2004-11-10,33.0264
2004-11-11,33.1246
2004-11-12,34.0646
2004-11-15,35.0212
2004-11-16,33.4241
2004-11-17,33.7036
2004-11-18,33.8932
2004-11-19,33.4424
2004-11-22,33.6404
2004-11-23,34.0762
2004-11-24,33.0431
2004-11-26,32.8368
2004-11-29,32.9732
2004-11-30,32.6288
2004-12-01,34.5221
2004-12-02,34.9231
2004-12-03,35.5969
2004-12-06,36.0111
2004-12-07,35.745
2004-12-08,35.8148
2004-12-09,36.5528
2004-12-10,37.0491
2004-12-13,37.5972
2004-12-14,37.229
2004-12-15,37.329
2004-12-16,37.1507
2004-12-17,36.6677
2004-12-20,36.2629
2004-12-21,36.771
2004-12-22,36.8909
2004-12-23,36.8942
2004-12-27,36.4162
2004-12-28,37.5239
2004-12-29,37.9803
2004-12-30,37.962
2004-12-31,38.1035
2005-01-03,36.3029
2005-01-04,35.6982
2005-01-05,36.2163
2005-01-06,36.9259
2005-01-07,36.2429
2005-01-10,35.8565
2005-01-11,35.3634
2005-01-12,34.4839
2005-01-13,34.5555
2005-01-14,34.5489
2005-01-18,34.3873
2005-01-19,34.0042
2005-01-20,32.8232
2005-01-21,32.0103
2005-01-24,30.8376
2005-01-25,30.8943
2005-01-26,32.8282
2005-01-27,34.8987
2005-01-28,34.8854
2005-01-31,35.6666
2005-02-01,31.8154
2005-02-02,32.3868
2005-02-03,32.5383
2005-02-04,34.1058
2005-02-07,34.6805
2005-02-08,35.0319
2005-02-09,33.8343
2005-02-10,34.3557
2005-02-11,34.8804
2005-02-14,35.1452
2005-02-15,35.3118
2005-02-16,35.9731
2005-02-17,35.5
2005-02-18,35.6832
2005-02-22,34.9653
2005-02-23,34.6372
2005-02-24,35.0969
2005-02-25,35.1485
2005-02-28,34.4639
2005-03-01,36.6177
2005-03-02,33.0664
2005-03-03,32.2602
2005-03-04,32.8149
2005-03-07,32.4484
2005-03-08,32.4801
2005-03-09,31.9742
2005-03-10,33.0762
2005-03-11,32.9343
2005-03-14,32.8341
2005-03-15,33.0445
2005-03-16,32.8592
2005-03-17,32.3916
2005-03-18,32.2247
2005-03-21,33.118
2005-03-22,32.3683
2005-03-23,31.7789
2005-03-24,32.2781
2005-03-28,32.562
2005-03-29,31.6687
2005-03-30,32.2948
2005-03-31,32.4
2005-04-01,30.6385
2005-04-04,31.4783
2005-04-05,31.5234
2005-04-06,31.6319
2005-04-07,31.3231
2005-04-08,31.0559
2005-04-11,30.924
2005-04-12,30.9891
2005-04-13,30.9724
2005-04-14,29.8404
2005-04-15,28.5531
2005-04-18,28.862
2005-04-19,29.1775
2005-04-20,28.5915
2005-04-21,28.4529
2005-04-22,28.4345
2005-04-25,29.7703
2005-04-26,31.5735
2005-04-27,33.0428
2005-04-28,32.5402
2005-04-29,32.7022
2005-05-02,32.1946
2005-05-03,32.0494
2005-05-04,33.0862
2005-05-05,32.9794
2005-05-06,33.0929
2005-05-09,33.2415
2005-05-10,32.7757
2005-05-11,32.5753
2005-05-12,31.6653
2005-05-13,31.9492
2005-05-16,33.0411
2005-05-17,33.6322
2005-05-18,34.1147
2005-05-19,34.1732
2005-05-20,34.8962
2005-05-23,35.4154
2005-05-24,35.5907
2005-05-25,35.18
2005-05-26,35.4104
2005-05-27,35.4555
2005-05-31,36.1067
2005-06-01,35.7444
2005-06-02,38.7197
2005-06-03,41.0472
2005-06-06,42.0073
2005-06-07,40.8369
2005-06-08,40.7414
2005-06-09,41.6514
2005-06-10,41.3771
2005-06-13,42.1767
2005-06-14,42.155
2005-06-15,43.2222
2005-06-16,42.7839
2005-06-17,42.5882
2005-06-20,41.9459
2005-06-21,42.155
2005-06-22,44.1623
2005-06-23,42.5732
2005-06-24,42.4895
2005-06-27,42.7137
2005-06-28,45.3751
2005-06-29,51.2383
2005-06-30,49.1908
2005-07-01,49.1942
2005-07-05,50.1159
2005-07-06,49.1674
2005-07-07,49.0771
2005-07-08,48.6539
2005-07-11,48.6672
2005-07-12,49.9118
2005-07-13,50.4638
2005-07-14,50.611
2005-07-15,51.0042
2005-07-18,50.7281
2005-07-19,51.4842
2005-07-20,51.0878
2005-07-21,51.4525
2005-07-22,50.7114
2005-07-25,50.0507
2005-07-26,50.3267
2005-07-27,49.5538
2005-07-28,50.2681
2005-07-29,50.3936
2005-08-01,50.7449
2005-08-02,51.6432
2005-08-03,51.0192
2005-08-04,50.4856
2005-08-05,49.599
2005-08-08,48.4213
2005-08-09,49.047
2005-08-10,48.5117
2005-08-11,48.612
2005-08-12,49.0135
2005-08-15,45.8017
2005-08-16,45.8753
2005-08-17,44.4768
2005-08-18,44.7662
2005-08-19,45.6695
2005-08-22,45.8385
2005-08-23,46.1028
2005-08-24,45.9857
2005-08-25,45.2999
2005-08-26,45.0071
2005-08-29,45.0489
2005-08-30,45.6679
2005-08-31,46.3521
2005-09-01,50.3936
2005-09-02,50.0005
2005-09-06,49.7997
2005-09-07,50.1699
2005-09-08,50.9054
2005-09-09,50.9909
2005-09-12,50.8602
2005-09-13,50.5972
2005-09-14,50.4749
2005-09-15,50.3358
2005-09-16,52.172
2005-09-19,51.3528
2005-09-20,53.4789
2005-09-21,53.6196
2005-09-22,55.5748
2005-09-23,54.8192
2005-09-26,55.7407
2005-09-27,54.7287
2005-09-28,54.5963
2005-09-29,55.8747
2005-09-30,56.4108
2005-10-03,57.5769
2005-10-04,57.0458
2005-10-05,56.2919
2005-10-06,56.1947
2005-10-07,56.2617
2005-10-10,55.1492
2005-10-11,55.5999
2005-10-12,53.4638
2005-10-13,51.966
2005-10-14,53.0433
2005-10-17,54.1323
2005-10-18,55.4391
2005-10-19,55.7088
2005-10-20,55.9568
2005-10-21,58.2471
2005-10-24,59.4801
2005-10-25,60.2156
2005-10-26,60.5859
2005-10-27,59.1786
2005-10-28,60.7333
2005-10-31,60.9327
2005-11-01,60.286
2005-11-02,62.449
2005-11-03,62.5093
2005-11-04,63.8965
2005-11-07,64.9755
2005-11-08,64.9637
2005-11-09,63.8345
2005-11-10,65.6775
2005-11-11,64.7124
2005-11-14,64.3757
2005-11-15,64.8582
2005-11-16,63.151
2005-11-17,63.3319
2005-11-18,62.8444
2005-11-21,64.2617
2005-11-22,63.9853
2005-11-23,64.7208
2005-11-25,66.2337
2005-11-28,62.273
2005-11-29,61.9916
2005-11-30,59.5103
2005-12-01,61.7788
2005-12-02,61.7218
2005-12-05,60.6345
2005-12-06,60.1888
2005-12-07,58.1304
2005-12-08,59.9891
2005-12-09,60.3582
2005-12-12,61.5996
2005-12-13,62.0022
2005-12-14,62.0525
2005-12-15,61.6398
2005-12-16,61.9099
2005-12-19,61.5627
2005-12-20,62.3696
2005-12-21,62.7403
2005-12-22,63.0657
2005-12-23,63.6596
2005-12-27,63.522
2005-12-28,62.7386
2005-12-29,61.8009
2005-12-30,61.6583
2006-01-03,60.9269
2006-01-04,60.073
2006-01-05,61.0024
2006-01-06,62.7739
2006-01-09,63.9062
2006-01-10,63.6797
2006-01-11,64.7433
2006-01-12,63.7804
2006-01-13,64.1176
2006-01-17,63.9716
2006-01-18,63.2436
2006-01-19,64.079
2006-01-20,63.0775
2006-01-23,64.5219
2006-01-24,68.5614
2006-01-25,67.3972
2006-01-26,68.3886
2006-01-27,67.3787
2006-01-30,68.1085
2006-01-31,71.0794
2006-02-01,69.3951
2006-02-02,69.5813
2006-02-03,69.7508
2006-02-06,70.0443
2006-02-07,67.0768
2006-02-08,67.7746
2006-02-09,66.8889
2006-02-10,67.1858
2006-02-13,67.6052
2006-02-14,68.9791
2006-02-15,68.9808
2006-02-16,68.9489
2006-02-17,69.3767
2006-02-21,69.2072
2006-02-22,70.8764
2006-02-23,70.0729
2006-02-24,70.9452
2006-02-27,73.074
2006-02-28,71.4266
2006-03-01,72.309
2006-03-02,72.6378
2006-03-03,72.7754
2006-03-06,71.8326
2006-03-07,70.7925
2006-03-08,70.3941
2006-03-09,70.0144
2006-03-10,71.8792
2006-03-13,71.2761
2006-03-14,72.3009
2006-03-15,72.7882
2006-03-16,71.9061
2006-03-17,71.2173
2006-03-20,72.0321
2006-03-21,70.7738
2006-03-22,71.5281
2006-03-23,72.1917
2006-03-24,73.1242
2006-03-27,75.2209
2006-03-28,74.6396
2006-03-29,75.2662
2006-03-30,75.2158
2006-03-31,75.1217
2006-04-03,73.5526
2006-04-04,74.6933
2006-04-05,74.5589
2006-04-06,76.5431
2006-04-07,80.8356
2006-04-10,81.18
2006-04-11,81.017
2006-04-12,82.2804
2006-04-13,82.3443
2006-04-17,82.6064
2006-04-18,83.1625
2006-04-19,83.6698
2006-04-20,83.0986
2006-04-21,84.0058
2006-04-24,82.9205
2006-04-25,79.7856
2006-04-26,78.7389
2006-04-27,78.544
2006-04-28,76.9883
2006-05-01,76.1987
2006-05-02,77.289
2006-05-03,75.6913
2006-05-04,80.1569
2006-05-05,81.4824
2006-05-08,81.2254
2006-05-09,80.8121
2006-05-10,80.6054
2006-05-11,77.8703
2006-05-12,77.5242
2006-05-15,76.8136
2006-05-16,77.3596
2006-05-17,74.6009
2006-05-18,74.3338
2006-05-19,75.5905
2006-05-22,73.1275
2006-05-23,73.4467
2006-05-24,72.679
2006-05-25,74.6245
2006-05-26,75.236
2006-05-30,73.2098
2006-05-31,74.0734
2006-06-01,76.5229
2006-06-02,76.6775
2006-06-05,74.6866
2006-06-06,73.9961
2006-06-07,74.8239
2006-06-08,75.5339
2006-06-09,76.2809
2006-06-12,75.2108
2006-06-13,74.3141
2006-06-14,74.1189
2006-06-15,75.4985
2006-06-16,76.2741
2006-06-19,74.8844
2006-06-20,75.6567
2006-06-21,80.3642
2006-06-22,79.2083
2006-06-23,80.4332
2006-06-26,81.5991
2006-06-27,79.7484
2006-06-28,79.4254
2006-06-29,82.0281
2006-06-30,82.5699
2006-07-03,83.5928
2006-07-05,84.5602
2006-07-06,84.2052
2006-07-07,83.2563
2006-07-10,82.2805
2006-07-11,80.842
2006-07-12,79.6222
2006-07-13,78.3015
2006-07-14,78.0861
2006-07-17,77.6352
2006-07-18,77.4771
2006-07-19,79.067
2006-07-20,78.0659
2006-07-21,76.1227
2006-07-24,77.8237
2006-07-25,76.3852
2006-07-26,75.7105
2006-07-27,74.871
2006-07-28,76.2624
2006-07-31,77.5444
2006-08-01,77.679
2006-08-02,76.5938
2006-08-03,77.2247
2006-08-04,81.6916
2006-08-07,81.9003
2006-08-08,82.4572
2006-08-09,81.6142
2006-08-10,80.5829
2006-08-11,78.2964
2006-08-14,77.6453
2006-08-15,78.4967
2006-08-16,78.68
2006-08-17,77.9381
2006-08-18,77.6117
2006-08-21,76.5921
2006-08-22,75.8316
2006-08-23,74.977
2006-08-24,74.8676
2006-08-25,75.4665
2006-08-28,73.4611
2006-08-29,73.6579
2006-08-30,72.9479
2006-08-31,73.9961
2006-09-01,74.4083
2006-09-05,74.5597
2006-09-06,74.9267
2006-09-07,74.3017
2006-09-08,74.7734
2006-09-11,74.6184
2006-09-12,76.4178
2006-09-13,76.9974
2006-09-14,76.433
2006-09-15,79.0866
2006-09-18,79.7033
2006-09-19,78.8103
2006-09-20,77.5955
2006-09-21,78.2206
2006-09-22,77.8213
2006-09-25,79.0209
2006-09-26,79.2703
2006-09-27,80.7698
2006-09-28,80.2997
2006-09-29,80.1969
2006-10-02,78.7143
2006-10-03,80.1851
2006-10-04,82.4226
2006-10-05,82.8944
2006-10-06,82.5574
2006-10-09,87.9152
2006-10-10,84.741
2006-10-11,84.0249
2006-10-12,84.2085
2006-10-13,84.345
2006-10-16,84.6079
2006-10-17,86.938
2006-10-18,85.4048
2006-10-19,84.4107
2006-10-20,82.6248
2006-10-23,84.5725
2006-10-24,85.0425
2006-10-25,83.8935
2006-10-26,84.2608
2006-10-27,85.1032
2006-10-30,84.2052
2006-10-31,84.3922
2006-11-01,84.4714
2006-11-02,84.2422
2006-11-03,84.4646
2006-11-06,86.2253
2006-11-07,85.9271
2006-11-08,85.0089
2006-11-09,83.4588
2006-11-10,83.5683
2006-11-13,84.0097
2006-11-14,86.5589
2006-11-15,89.718
2006-11-16,90.9799
2006-11-17,90.0903
2006-11-20,91.167
2006-11-21,93.0338
2006-11-22,93.2629
2006-11-24,93.0641
2006-11-27,89.841
2006-11-28,90.4762
2006-11-29,90.8553
2006-11-30,90.611
2006-12-01,89.2462
2006-12-04,89.7972
2006-12-05,91.2849
2006-12-06,91.2562
2006-12-07,90.9138
2006-12-08,92.1182
2006-12-11,91.7522
2006-12-12,91.4148
2006-12-13,89.6943
2006-12-14,89.259
2006-12-15,89.9135
2006-12-18,88.721
2006-12-19,90.1936
2006-12-20,88.559
2006-12-21,86.7794
2006-12-22,86.2599
2006-12-26,85.8079
2006-12-27,86.1941
2006-12-28,86.4674
2006-12-29,85.9006
2007-01-03,87.9636
2007-01-04,88.7918
2007-01-05,89.4935
2007-01-08,90.2138
2007-01-09,90.6996
2007-01-10,93.2737
2007-01-11,93.918
2007-01-12,96.762
2007-01-16,95.7634
2007-01-17,98.1182
2007-01-18,97.327
2007-01-19,97.3642
2007-01-22,96.0383
2007-01-23,98.5534
2007-01-24,99.7915
2007-01-25,97.6847
2007-01-26,99.2703
2007-01-29,97.0875
2007-01-30,95.7583
2007-01-31,95.087
2007-02-01,97.4856
2007-02-02,97.6661
2007-02-05,97.3254
2007-02-06,97.995
2007-02-07,99.0628
2007-02-08,98.5415
2007-02-09,96.8244
2007-02-12,95.3046
2007-02-13,96.5933
2007-02-14,96.6203
2007-02-15,96.5697
2007-02-16,96.9576
2007-02-20,97.5295
2007-02-21,95.6824
2007-02-22,92.577
2007-02-23,91.8432
2007-02-26,90.5562
2007-02-27,86.1958
2007-02-28,91.0066
2007-03-01,92.0423
2007-03-02,91.0876
2007-03-05,93.6262
2007-03-06,95.6419
2007-03-07,94.8823
2007-03-08,95.8368
2007-03-09,95.8706
2007-03-12,95.9179
2007-03-13,92.9716
2007-03-14,95.1138
2007-03-15,89.9527
2007-03-16,88.5201
2007-03-19,89.2009
2007-03-20,89.8649
2007-03-21,91.1505
2007-03-22,91.7046
2007-03-23,91.3667
2007-03-26,90.941
2007-03-27,90.8548
2007-03-28,89.1824
2007-03-29,89.7314
2007-03-30,89.8767
2007-04-02,91.98
2007-04-03,92.9159
2007-04-04,94.1829
2007-04-05,93.4548
2007-04-09,92.9176
2007-04-10,92.8348
2007-04-11,93.1558
2007-04-12,93.4767
2007-04-13,93.3163
2007-04-16,94.4414
2007-04-17,94.1863
2007-04-18,94.3518
2007-04-19,93.5055
2007-04-20,93.796
2007-04-23,92.3668
2007-04-24,89.7061
2007-04-25,89.4324
2007-04-26,87.5318
2007-04-27,88.2397
2007-04-30,87.3358
2007-05-01,86.2935
2007-05-02,87.0301
2007-05-03,87.89
2007-05-04,86.8527
2007-05-07,85.8289
2007-05-08,85.7107
2007-05-09,85.5384
2007-05-10,84.0635
2007-05-11,90.7771
2007-05-14,89.4374
2007-05-15,88.211
2007-05-16,87.8579
2007-05-17,88.4863
2007-05-18,87.7633
2007-05-21,87.003
2007-05-22,88.211
2007-05-23,87.7869
2007-05-24,86.6415
2007-05-25,86.6922
2007-05-29,88.8698
2007-05-30,88.8664
2007-05-31,89.8328
2007-06-01,90.7146
2007-06-04,90.397
2007-06-05,91.1285
2007-06-06,91.7293
2007-06-07,90.9966
2007-06-08,93.0474
2007-06-11,94.6058
2007-06-12,92.8748
2007-06-13,93.0135
2007-06-14,92.7716
2007-06-15,93.0237
2007-06-18,92.3283
2007-06-19,92.3875
2007-06-20,92.1844
2007-06-21,92.8951
2007-06-22,91.7953
2007-06-25,90.2318
2007-06-26,90.1083
2007-06-27,91.7022
2007-06-28,91.3942
2007-06-29,90.4128
2007-07-02,90.1015
2007-07-03,91.2622
2007-07-05,93.6515
2007-07-06,97.4942
2007-07-09,96.6549
2007-07-10,95.0474
2007-07-11,98.5111
2007-07-12,99.3301
2007-07-13,98.8191
2007-07-16,98.7683
2007-07-17,98.3098
2007-07-18,97.7344
2007-07-19,96.8647
2007-07-20,95.2454
2007-07-23,94.3723
2007-07-24,92.9205
2007-07-25,92.6481
2007-07-26,91.5262
2007-07-27,94.3977
2007-07-30,96.3283
2007-07-31,93.313
2007-08-01,94.841
2007-08-02,94.0203
2007-08-03,94.4772
2007-08-06,96.374
2007-08-07,97.8038
2007-08-08,99.1829
2007-08-09,101.18
2007-08-10,100.339
2007-08-13,98.4654
2007-08-14,95.638
2007-08-15,91.2081
2007-08-16,89.9171
2007-08-17,91.7868
2007-08-20,91.0558
2007-08-21,93.6751
2007-08-22,92.3503
2007-08-23,93.9527
2007-08-24,94.6566
2007-08-27,94.5872
2007-08-28,93.9527
2007-08-29,94.7496
2007-08-30,93.6413
2007-08-31,93.7615
2007-09-04,95.4891
2007-09-05,95.9831
2007-09-06,94.301
2007-09-07,92.4708
2007-09-10,91.5489
2007-09-11,92.6623
2007-09-12,92.0624
2007-09-13,93.0368
2007-09-14,92.4437
2007-09-17,91.5116
2007-09-18,93.1537
2007-09-19,93.1503
2007-09-20,91.7472
2007-09-21,91.7946
2007-09-24,91.2828
2007-09-25,93.635
2007-09-26,98.7936
2007-09-27,99.4799
2007-09-28,99.2494
2007-10-01,103.254
2007-10-02,102.098
2007-10-03,103.459
2007-10-04,102.335
2007-10-05,106.098
2007-10-08,105.723
2007-10-09,106.67
2007-10-10,105.962
2007-10-11,105.028
2007-10-12,106.733
2007-10-15,105.509
2007-10-16,105.177
2007-10-17,105.02
2007-10-18,105.493
2007-10-19,104.264
2007-10-22,104.782
2007-10-23,107.646
2007-10-24,110.563
2007-10-25,114.33
2007-10-26,112.139
2007-10-29,111.354
2007-10-30,110.937
2007-10-31,112.561
2007-11-01,110.195
2007-11-02,109.856
2007-11-05,110.968
2007-11-06,113.422
2007-11-07,111.661
2007-11-08,111.348
2007-11-09,108.802
2007-11-12,106.636
2007-11-13,109.302
2007-11-14,110.322
2007-11-15,109.939
2007-11-16,110.304
2007-11-19,110.931
2007-11-20,109.373
2007-11-21,106.472
2007-11-23,107.906
2007-11-26,105.93
2007-11-27,105.379
2007-11-28,110.488
2007-11-29,111.683
2007-11-30,111.187
2007-12-03,112.185
2007-12-04,114.401
2007-12-05,118.438
2007-12-06,118.187
2007-12-07,119.909
2007-12-10,118.983
2007-12-11,115.527
2007-12-12,116.808
2007-12-13,119.212
2007-12-14,118.827
2007-12-17,117.734
2007-12-18,117.008
2007-12-19,117.507
2007-12-20,119.154
2007-12-21,120.115
2007-12-24,117.246
2007-12-26,116.826
2007-12-27,115.34
2007-12-28,115.131
2007-12-31,116.043
2008-01-02,114.319
2008-01-03,110.362
2008-01-04,106.157
2008-01-07,104.013
2008-01-08,101.211
2008-01-09,101.686
2008-01-10,104.077
2008-01-11,105.188
2008-01-14,105.714
2008-01-15,101.805
2008-01-16,98.1893
2008-01-17,92.6613
2008-01-18,95.4915
2008-01-22,98.7408
2008-01-23,102.823
2008-01-24,107.958
2008-01-25,106.855
2008-01-28,105.368
2008-01-29,104.729
2008-01-30,101.047
2008-01-31,104.647
2008-02-01,103.587
2008-02-04,105.26
2008-02-05,100.278
2008-02-06,81.6613
2008-02-07,89.8396
2008-02-08,87.9121
2008-02-11,88.8046
2008-02-12,89.7802
2008-02-13,90.744
2008-02-14,89.9312
2008-02-15,89.0828
2008-02-19,88.1344
2008-02-20,88.0529
2008-02-21,87.5218
2008-02-22,88.6705
2008-02-25,89.9991
2008-02-26,89.4867
2008-02-27,89.3272
2008-02-28,87.9766
2008-02-29,86.5394
2008-03-03,87.2843
2008-03-04,85.4857
2008-03-05,88.0088
2008-03-06,85.9666
2008-03-07,83.3546
2008-03-10,79.0454
2008-03-11,85.2302
2008-03-12,84.7609
2008-03-13,85.9751
2008-03-14,82.9107
2008-03-17,76.6936
2008-03-18,79.5267
2008-03-19,76.3348
2008-03-20,79.9841
2008-03-24,82.4805
2008-03-25,85.4122
2008-03-26,83.3818
2008-03-27,83.4923
2008-03-28,81.6472
2008-03-31,79.5726
2008-04-01,85.0653
2008-04-02,86.6706
2008-04-03,87.1297
2008-04-04,87.4035
2008-04-07,86.8525
2008-04-08,87.0498
2008-04-09,84.9241
2008-04-10,84.7286
2008-04-11,83.5127
2008-04-14,81.285
2008-04-15,82.4125
2008-04-16,84.1368
2008-04-17,84.499
2008-04-18,85.5567
2008-04-21,89.0717
2008-04-22,81.802
2008-04-23,83.0519
2008-04-24,82.2441
2008-04-25,81.6421
2008-04-28,80.5266
2008-04-29,80.8548
2008-04-30,77.969
2008-05-01,81.1558
2008-05-02,82.6471
2008-05-05,83.2355
2008-05-06,82.4533
2008-05-07,79.9008
2008-05-08,79.2648
2008-05-09,78.7359
2008-05-12,79.0709
2008-05-13,77.5031
2008-05-14,80.6779
2008-05-15,80.5793
2008-05-16,81.4823
2008-05-19,82.421
2008-05-20,82.4992
2008-05-21,78.9213
2008-05-22,78.6424
2008-05-23,77.6765
2008-05-27,77.2378
2008-05-28,74.2959
2008-05-29,74.4149
2008-05-30,73.029
2008-06-02,70.1789
2008-06-03,68.1689
2008-06-04,64.2033
2008-06-05,68.5022
2008-06-06,66.2427
2008-06-09,66.5497
2008-06-10,66.5855
2008-06-11,65.9016
2008-06-12,67.5507
2008-06-13,70.6921
2008-06-16,71.3606
2008-06-17,75.3495
2008-06-18,75.3188
2008-06-19,75.4672
2008-06-20,73.2774
2008-06-23,74.5462
2008-06-24,73.6236
2008-06-25,72.863
2008-06-26,69.5972
2008-06-27,66.8634
2008-06-30,65.6611
2008-07-01,61.06
2008-07-02,59.8816
2008-07-03,59.3085
2008-07-07,56.7453
2008-07-08,58.3245
2008-07-09,54.9223
2008-07-10,52.7888
2008-07-11,52.3693
2008-07-14,50.5138
2008-07-15,52.6967
2008-07-16,56.3787
2008-07-17,56.8971
2008-07-18,56.6754
2008-07-21,55.7238
2008-07-22,62.5096
2008-07-23,66.5906
2008-07-24,62.9257
2008-07-25,63.1491
2008-07-28,59.8031
2008-07-29,63.717
2008-07-30,63.5806
2008-07-31,61.5273
2008-08-01,56.6635
2008-08-04,55.0502
2008-08-05,57.5349
2008-08-06,58.4848
2008-08-07,56.336
2008-08-08,57.9118
2008-08-11,59.5115
2008-08-12,57.6185
2008-08-13,57.9221
2008-08-14,58.623
2008-08-15,60.9764
2008-08-18,57.4821
2008-08-19,57.598
2008-08-20,58.3433
2008-08-21,58.2921
2008-08-22,60.9935
2008-08-25,58.2683
2008-08-26,54.9308
2008-08-27,56.4128
2008-08-28,58.2921
2008-08-29,57.39
2008-09-02,57.7566
2008-09-03,59.2062
2008-09-04,55.9694
2008-09-05,56.1143
2008-09-08,59.6433
2008-09-09,55.9107
2008-09-10,57.0984
2008-09-11,58.5052
2008-09-12,59.9599
2008-09-15,56.8725
2008-09-16,58.714
2008-09-17,55.002
2008-09-18,60.3278
2008-09-19,66.8841
2008-09-22,68.1112
2008-09-23,64.746
2008-09-24,63.4374
2008-09-25,65.864
2008-09-26,69.4345
2008-09-29,61.9641
2008-09-30,66.9022
2008-10-01,69.1121
2008-10-02,64.7044
2008-10-03,62.9954
2008-10-06,69.9926
2008-10-07,69.3617
2008-10-08,70.8904
2008-10-09,61.4632
2008-10-10,68.3027
2008-10-13,70.7535
2008-10-14,68.7013
2008-10-15,62.5275
2008-10-16,64.8223
2008-10-17,63.4842
2008-10-20,62.5101
2008-10-21,56.6829
2008-10-22,52.8732
2008-10-23,48.2696
2008-10-24,43.2397
2008-10-27,40.385
2008-10-28,45.4305
2008-10-29,46.1793
2008-10-30,47.7531
2008-10-31,49.0496
2008-11-03,52.3203
2008-11-04,55.3465
2008-11-05,48.8589
2008-11-06,45.0926
2008-11-07,46.3318
2008-11-10,42.1685
2008-11-11,40.905
2008-11-12,38.9967
2008-11-13,38.787
2008-11-14,35.8179
2008-11-17,32.932
2008-11-18,32.1278
2008-11-19,29.722
2008-11-20,27.4098
2008-11-21,30.3702
2008-11-24,34.3949
2008-11-25,34.6237
2008-11-26,36.7382
2008-11-28,36.2079
2008-12-01,30.5037
2008-12-02,29.8156
2008-12-03,31.639
2008-12-04,30.7256
2008-12-05,33.4502
2008-12-08,38.9792
2008-12-09,37.94
2008-12-10,38.6531
2008-12-11,37.2391
2008-12-12,36.6916
2008-12-15,35.5531
2008-12-16,38.2922
2008-12-17,38.77
2008-12-18,38.7839
2008-12-19,37.3978
2008-12-22,33.9089
2008-12-23,32.4286
2008-12-24,32.6797
2008-12-26,31.7521
2008-12-29,32.0224
2008-12-30,34.908
2008-12-31,36.5242
2009-01-02,37.056
2009-01-05,36.7509
2009-01-06,35.3683
2009-01-07,34.7615
2009-01-08,33.5288
2009-01-09,32.8401
2009-01-12,33.0528
2009-01-13,32.3048
2009-01-14,30.8106
2009-01-15,29.3843
2009-01-16,30.4758
2009-01-20,27.8709
2009-01-21,31.2308
2009-01-22,29.4628
2009-01-23,29.5046
2009-01-26,29.0147
2009-01-27,29.468
2009-01-28,32.3589
2009-01-29,30.1288
2009-01-30,30.3416
2009-02-02,29.2884
2009-02-03,29.8586
2009-02-04,30.1027
2009-02-05,31.3389
2009-02-06,32.8418
2009-02-09,32.7268
2009-02-10,31.2831
2009-02-11,32.2944
2009-02-12,33.8252
2009-02-13,33.351
2009-02-17,31.2726
2009-02-18,31.1035
2009-02-19,31.3877
2009-02-20,31.8864
2009-02-23,30.0835
2009-02-24,32.0049
2009-02-25,31.7242
2009-02-26,32.0886
2009-02-27,31.9474
2009-03-02,30.2683
2009-03-03,31.2534
2009-03-04,32.7599
2009-03-05,31.8637
2009-03-06,31.9834
2009-03-09,32.1922
2009-03-10,33.7503
2009-03-11,33.659
2009-03-12,35.0803
2009-03-13,34.4346
2009-03-16,34.1837
2009-03-17,39.2879
2009-03-18,41.59
2009-03-19,40.174
2009-03-20,40.3828
2009-03-23,45.1519
2009-03-24,42.0514
2009-03-25,43.9201
2009-03-26,44.7448
2009-03-27,43.013
2009-03-30,41.4724
2009-03-31,42.848
2009-04-01,41.5321
2009-04-02,42.748
2009-04-03,44.5097
2009-04-06,43.4341
2009-04-07,42.3725
2009-04-08,42.9463
2009-04-09,44.9729
2009-04-13,46.4906
2009-04-14,43.8955
2009-04-15,44.3693
2009-04-16,42.7954
2009-04-17,41.7023
2009-04-20,39.2054
2009-04-21,39.8108
2009-04-22,38.5737
2009-04-23,42.4252
2009-04-24,41.8409
2009-04-27,40.6319
2009-04-28,39.909
2009-04-29,39.6423
2009-04-30,38.8791
2009-05-01,39.2054
2009-05-04,41.1408
2009-05-05,43.4446
2009-05-06,44.3763
2009-05-07,41.2776
2009-05-08,43.4639
2009-05-11,42.4567
2009-05-12,45.4958
2009-05-13,48.1646
2009-05-14,49.756
2009-05-15,48.8331
2009-05-18,50.7088
2009-05-19,49.3016
2009-05-20,47.968
2009-05-21,49.2507
2009-05-22,51.6685
2009-05-26,53.367
2009-05-27,52.1721
2009-05-28,56.1341
2009-05-29,56.2358
2009-06-01,57.5571
2009-06-02,58.8608
2009-06-03,57.5518
2009-06-04,58.9696
2009-06-05,58.7801
2009-06-08,58.2308
2009-06-09,58.928
2009-06-10,58.053
2009-06-11,60.4968
2009-06-12,59.9369
2009-06-15,58.4403
2009-06-16,58.2061
2009-06-17,57.4314
2009-06-18,57.9068
2009-06-19,57.5617
2009-06-22,53.4365
2009-06-23,53.683
2009-06-24,55.4331
2009-06-25,55.3398
2009-06-26,55.8556
2009-06-29,55.9595
2009-06-30,54.9172
2009-07-01,54.0404
2009-07-02,53.4541
2009-07-06,52.167
2009-07-07,49.5383
2009-07-08,46.8234
2009-07-09,47.3146
2009-07-10,46.0804
2009-07-13,47.9784
2009-07-14,47.1385
2009-07-15,48.9256
2009-07-16,47.952
2009-07-17,48.4203
2009-07-20,48.9978
2009-07-21,48.3305
2009-07-22,47.952
2009-07-23,48.4643
2009-07-24,47.6139
2009-07-27,47.3516
2009-07-28,46.8427
2009-07-29,47.5364
2009-07-30,48.8024
2009-07-31,49.0506
2009-08-03,49.8958
2009-08-04,48.9749
2009-08-05,49.1563
2009-08-06,48.033
2009-08-07,50.4961
2009-08-10,49.8465
2009-08-11,48.445
2009-08-12,49.7461
2009-08-13,50.1088
2009-08-14,49.4415
2009-08-17,47.3745
2009-08-18,47.253
2009-08-19,47.3727
2009-08-20,47.9414
2009-08-21,48.5312
2009-08-24,47.0945
2009-08-25,47.2125
2009-08-26,48.7161
2009-08-27,48.9679
2009-08-28,50.3078
2009-08-31,51.2814
2009-09-01,49.2672
2009-09-02,48.8728
2009-09-03,47.709
2009-09-04,47.6914
2009-09-08,48.1726
2009-09-09,48.3689
2009-09-10,48.6836
2009-09-11,48.6553
2009-09-14,49.1982
2009-09-15,50.4005
2009-09-16,51.5994
2009-09-17,51.9601
2009-09-18,53.7901
2009-09-21,54.0129
2009-09-22,55.2206
2009-09-23,54.1597
2009-09-24,52.8159
2009-09-25,51.9353
2009-09-28,54.7609
2009-09-29,54.1668
2009-09-30,54.409
2009-10-01,51.8151
2009-10-02,51.7638
2009-10-05,51.7001
2009-10-06,50.9345
2009-10-07,51.0636
2009-10-08,50.7506
2009-10-09,52.1811
2009-10-12,52.632
2009-10-13,53.8326
2009-10-14,54.3931
2009-10-15,54.4709
2009-10-16,55.3815
2009-10-19,56.5079
2009-10-20,56.2338
2009-10-21,56.1206
2009-10-22,56.2338
2009-10-23,56.6352
2009-10-26,56.7978
2009-10-27,55.9862
2009-10-28,54.6088
2009-10-29,55.7634
2009-10-30,53.7177
2009-11-02,54.0112
2009-11-03,53.2791
2009-11-04,52.3491
2009-11-05,54.1173
2009-11-06,54.1367
2009-11-09,55.401
2009-11-10,54.5735
2009-11-11,55.4169
2009-11-12,55.6114
2009-11-13,55.4328
2009-11-16,56.2303
2009-11-17,56.9835
2009-11-18,57.2134
2009-11-19,56.9322
2009-11-20,57.1409
2009-11-23,57.1126
2009-11-24,56.9941
2009-11-25,58.1417
2009-11-27,56.5839
2009-11-30,58.1187
2009-12-01,58.5006
2009-12-02,58.0409
2009-12-03,58.4812
2009-12-04,58.4263
2009-12-07,57.2151
2009-12-08,56.7484
2009-12-09,57.7918
2009-12-10,58.1023
2009-12-11,59.2469
2009-12-14,59.128
2009-12-15,58.6737
2009-12-16,58.601
2009-12-17,57.5984
2009-12-18,57.5398
2009-12-21,57.5061
2009-12-22,58.1591
2009-12-23,58.2106
2009-12-24,58.766
2009-12-28,60.2424
2009-12-29,59.9851
2009-12-30,60.001
2009-12-31,59.7242
2010-01-04,60.8013
2010-01-05,60.6097
2010-01-06,60.1785
2010-01-07,60.4127
2010-01-08,61.9885
2010-01-11,61.9849
2010-01-12,60.7942
2010-01-13,61.0515
2010-01-14,60.6594
2010-01-15,60.033
2010-01-19,60.0915
2010-01-20,58.6152
2010-01-21,55.1957
2010-01-22,55.3643
2010-01-25,54.5906
2010-01-26,50.8358
2010-01-27,52.3281
2010-01-28,51.5544
2010-01-29,50.9529
2010-02-01,51.6236
2010-02-02,51.9821
2010-02-03,51.7017
2010-02-04,47.8883
2010-02-05,49.9095
2010-02-08,49.8119
2010-02-09,50.2466
2010-02-10,49.0542
2010-02-11,50.5696
2010-02-12,51.668
2010-02-16,52.6777
2010-02-17,51.9519
2010-02-18,51.7674
2010-02-19,51.6662
2010-02-22,50.8819
2010-02-23,49.0134
2010-02-24,51.5988
2010-02-25,52.4328
2010-02-26,53.3555
2010-03-01,53.4017
2010-03-02,54.8603
2010-03-03,54.2286
2010-03-04,54.4948
2010-03-05,54.9171
2010-03-08,55.8126
2010-03-09,54.8971
2010-03-10,54.881
2010-03-11,55.7876
2010-03-12,55.9729
2010-03-15,55.9372
2010-03-16,55.98
2010-03-17,56.224
2010-03-18,55.3477
2010-03-19,55.2782
2010-03-22,55.4884
2010-03-23,55.3228
2010-03-24,56.8492
2010-03-25,56.9596
2010-03-26,56.1937
2010-03-29,56.2151
2010-03-30,56.3487
2010-03-31,56.395
2010-04-01,56.8901
2010-04-05,56.4751
2010-04-06,56.4538
2010-04-07,56.0868
2010-04-08,55.5276
2010-04-09,55.5009
2010-04-12,55.2782
2010-04-13,55.1072
2010-04-14,56.8848
2010-04-15,57.2285
2010-04-16,55.4546
2010-04-19,57.2374
2010-04-20,57.0771
2010-04-21,57.4494
2010-04-22,60.2938
2010-04-23,59.6241
2010-04-26,60.8691
2010-04-27,59.3463
2010-04-28,58.6018
2010-04-29,59.1022
2010-04-30,58.6962
2010-05-03,58.6605
2010-05-04,57.4993
2010-05-05,57.843
2010-05-06,57.3799
2010-05-07,56.3219
2010-05-10,59.1788
2010-05-11,58.6303
2010-05-12,58.6142
2010-05-13,57.8305
2010-05-14,56.2774
2010-05-17,56.3718
2010-05-18,54.9558
2010-05-19,55.3744
2010-05-20,54.2755
2010-05-21,56.6853
2010-05-24,57.6168
2010-05-25,55.6095
2010-05-26,55.1375
2010-05-27,56.8118
2010-05-28,56.4395
2010-06-01,55.5668
2010-06-02,57.4797
2010-06-03,57.6186
2010-06-04,55.2978
2010-06-07,53.3849
2010-06-08,53.3725
2010-06-09,52.2104
2010-06-10,54.3684
2010-06-11,54.0966
2010-06-14,54.8887
2010-06-15,55.4573
2010-06-16,55.5538
2010-06-17,55.316
2010-06-18,54.9853
2010-06-21,54.9227
2010-06-22,54.2701
2010-06-23,53.8106
2010-06-24,51.851
2010-06-25,53.1437
2010-06-28,53.0829
2010-06-29,51.4362
2010-06-30,50.4635
2010-07-01,49.7841
2010-07-02,49.1958
2010-07-06,49.0725
2010-07-07,49.7304
2010-07-08,50.2811
2010-07-09,49.5588
2010-07-12,49.4676
2010-07-13,49.7501
2010-07-14,49.2388
2010-07-15,49.4104
2010-07-16,47.6028
2010-07-19,47.803
2010-07-20,49.2531
2010-07-21,48.8436
2010-07-22,50.3169
2010-07-23,51.159
2010-07-26,50.6405
2010-07-27,50.7549
2010-07-28,50.7728
2010-07-29,51.134
2010-07-30,49.8574
2010-08-02,51.1072
2010-08-03,49.9736
2010-08-04,49.7376
2010-08-05,49.0743
2010-08-06,48.4842
2010-08-09,48.6344
2010-08-10,47.213
2010-08-11,45.1336
2010-08-12,44.6759
2010-08-13,43.8248
2010-08-16,44.0733
2010-08-17,44.2825
2010-08-18,44.0
2010-08-19,43.0345
2010-08-20,42.5518
2010-08-23,42.5696
2010-08-24,42.7163
2010-08-25,43.9446
2010-08-26,44.9459
2010-08-27,45.9239
2010-08-30,44.574
2010-08-31,44.3469
2010-09-01,45.7969
2010-09-02,46.9072
2010-09-03,47.3882
2010-09-07,46.1724
2010-09-08,46.799
2010-09-09,47.1025
2010-09-10,47.5551
2010-09-13,48.6884
2010-09-14,48.4136
2010-09-15,48.8123
2010-09-16,48.1406
2010-09-17,47.3989
2010-09-20,48.8159
2010-09-21,48.2933
2010-09-22,47.8766
2010-09-23,46.9212
2010-09-24,48.3507
2010-09-27,47.7581
2010-09-28,47.424
2010-09-29,46.6194
2010-09-30,46.8134
2010-10-01,46.6823
2010-10-04,46.7146
2010-10-05,48.0167
2010-10-06,47.9933
2010-10-07,47.3989
2010-10-08,47.1528
2010-10-11,46.6248
2010-10-12,47.5461
2010-10-13,47.3468
2010-10-14,47.6234
2010-10-15,48.0634
2010-10-18,50.4412
2010-10-19,50.4502
2010-10-20,50.4251
2010-10-21,50.6819
2010-10-22,50.8381
2010-10-25,50.7878
2010-10-26,50.3173
2010-10-27,50.7232
2010-10-28,51.9786
2010-10-29,52.1689
2010-11-01,51.5188
2010-11-02,51.8313
2010-11-03,51.9319
2010-11-04,53.2663
2010-11-05,52.9843
2010-11-08,53.0957
2010-11-09,52.6018
2010-11-10,52.9628
2010-11-11,52.6844
2010-11-12,51.9875
2010-11-15,52.0989
2010-11-16,51.5835
2010-11-17,52.318
2010-11-18,53.0238
2010-11-19,53.0885
2010-11-22,51.6786
2010-11-23,50.4287
2010-11-24,51.9067
2010-11-26,52.0468
2010-11-29,51.3787
2010-11-30,51.6302
2010-12-01,53.9757
2010-12-02,56.0662
2010-12-03,55.8255
2010-12-06,56.1865
2010-12-07,56.3894
2010-12-08,57.9018
2010-12-09,57.9451
2010-12-10,57.9847
2010-12-13,58.2082
2010-12-14,58.1992
2010-12-15,57.4656
2010-12-16,57.9793
2010-12-17,57.7324
2010-12-20,57.9865
2010-12-21,58.7724
2010-12-22,58.9148
2010-12-23,58.457
2010-12-27,58.7779
2010-12-28,58.5003
2010-12-29,58.5706
2010-12-30,58.0388
2010-12-31,58.0658
2011-01-03,57.0113
2011-01-04,57.0095
2011-01-05,56.0596
2011-01-06,56.631
2011-01-07,55.5459
2011-01-10,56.8203
2011-01-11,56.0235
2011-01-12,56.8004
2011-01-13,56.5301
2011-01-14,57.0059
2011-01-18,56.5986
2011-01-19,55.1944
2011-01-20,55.6919
2011-01-21,55.8361
2011-01-24,55.8072
2011-01-25,55.252
2011-01-26,55.1151
2011-01-27,55.9244
2011-01-28,54.9618
2011-01-31,55.5963
2011-02-01,57.0023
2011-02-02,56.8545
2011-02-03,54.1939
2011-02-04,54.805
2011-02-07,54.7167
2011-02-08,54.3237
2011-02-09,54.4733
2011-02-10,55.2863
2011-02-11,55.6576
2011-02-14,54.7257
2011-02-15,52.5554
2011-02-16,52.9448
2011-02-17,54.5815
2011-02-18,54.5094
2011-02-22,54.1327
2011-02-23,54.5545
2011-02-24,54.9691
2011-02-25,56.5733
2011-02-28,56.1623
2011-03-01,55.2448
2011-03-02,54.8068
2011-03-03,55.7441
2011-03-04,54.9258
2011-03-07,54.9348
2011-03-08,55.0224
2011-03-09,54.2691
2011-03-10,53.6643
2011-03-11,53.5158
2011-03-14,52.7226
2011-03-15,51.7972
2011-03-16,50.7415
2011-03-17,51.9765
2011-03-18,51.8027
2011-03-21,52.5053
2011-03-22,52.6936
2011-03-23,54.1442
2011-03-24,54.0409
2011-03-25,53.6136
2011-03-28,53.5212
2011-03-29,53.9359
2011-03-30,54.9247
2011-03-31,54.6693
2011-04-01,55.0695
2011-04-04,55.2705
2011-04-05,55.2216
2011-04-06,55.9025
2011-04-07,55.3466
2011-04-08,55.247
2011-04-11,55.046
2011-04-12,54.6784
2011-04-13,55.1746
2011-04-14,55.4009
2011-04-15,55.5983
2011-04-18,55.0949
2011-04-19,54.7055
2011-04-20,56.1036
2011-04-21,56.1017
2011-04-25,55.6327
2011-04-26,56.2466
2011-04-27,56.0474
2011-04-28,55.0279
2011-04-29,53.6371
2011-05-02,53.8291
2011-05-03,52.8729
2011-05-04,52.0562
2011-05-05,51.8153
2011-05-06,52.8439
2011-05-09,53.4542
2011-05-10,54.0645
2011-05-11,53.8128
2011-05-12,53.8472
2011-05-13,53.3274
2011-05-16,53.9522
2011-05-17,53.4361
2011-05-18,53.7838
2011-05-19,54.2075
2011-05-20,54.1315
2011-05-23,53.5122
2011-05-24,52.4836
2011-05-25,51.9312
2011-05-26,51.4296
2011-05-27,51.2558
2011-05-31,51.6958
2011-06-01,50.3376
2011-06-02,50.4173
2011-06-03,49.3109
2011-06-06,48.1519
2011-06-07,48.1428
2011-06-08,47.4529
2011-06-09,48.2388
2011-06-10,48.6734
2011-06-13,49.2565
2011-06-14,49.7545
2011-06-15,49.0845
2011-06-16,50.0619
2011-06-17,50.5952
2011-06-20,50.7336
2011-06-21,51.4599
2011-06-22,51.1304
2011-06-23,50.8646
2011-06-24,50.9247
2011-06-27,51.1395
2011-06-28,51.6947
2011-06-29,52.3864
2011-06-30,53.1255
2011-07-01,53.9555
2011-07-05,54.0229
2011-07-06,53.9537
2011-07-07,54.4652
2011-07-08,53.5587
2011-07-11,52.3373
2011-07-12,52.5939
2011-07-13,52.7086
2011-07-14,52.7323
2011-07-15,53.2365
2011-07-18,52.0369
2011-07-19,52.634
2011-07-20,52.0278
2011-07-21,52.188
2011-07-22,52.006
2011-07-25,51.9113
2011-07-26,51.8949
2011-07-27,50.7846
2011-07-28,51.6255
2011-07-29,52.6886
2011-08-01,52.3973
2011-08-02,51.145
2011-08-03,51.0048
2011-08-04,48.4018
2011-08-05,49.0808
2011-08-08,45.249
2011-08-09,48.2744
2011-08-10,43.5489
2011-08-11,46.9164
2011-08-12,46.3867
2011-08-15,47.3806
2011-08-16,46.6579
2011-08-17,46.1919
2011-08-18,43.8547
2011-08-19,43.1393
2011-08-22,43.4906
2011-08-23,45.5166
2011-08-24,46.201
2011-08-25,44.8358
2011-08-26,45.6204
2011-08-29,48.0341
2011-08-30,48.3035
2011-08-31,48.5347
2011-09-01,48.4364
2011-09-02,47.2368
2011-09-06,46.4468
2011-09-07,48.6235
2011-09-08,47.3715
2011-09-09,46.9249
2011-09-12,47.5875
2011-09-13,48.4294
2011-09-14,49.3684
2011-09-15,49.6832
2011-09-16,49.6887
2011-09-19,48.6839
2011-09-20,48.3947
2011-09-21,47.3148
2011-09-22,47.5033
2011-09-23,47.1299
2011-09-26,48.3086
2011-09-27,48.0615
2011-09-28,46.5753
2011-09-29,46.967
2011-09-30,45.2117
2011-10-03,45.5228
2011-10-04,46.1177
2011-10-05,46.8517
2011-10-06,48.8248
2011-10-07,46.4051
2011-10-10,48.5045
2011-10-11,47.0274
2011-10-12,47.5069
2011-10-13,46.9322
2011-10-14,47.5381
2011-10-17,46.2495
2011-10-18,47.5619
2011-10-19,47.1244
2011-10-20,47.9133
2011-10-21,48.3873
2011-10-24,49.1945
2011-10-25,47.2379
2011-10-26,48.2171
2011-10-27,50.5948
2011-10-28,51.1951
2011-10-31,50.5545
2011-11-01,46.1708
2011-11-02,47.4447
2011-11-03,49.1195
2011-11-04,49.6009
2011-11-07,50.366
2011-11-08,51.1164
2011-11-09,48.6161
2011-11-10,47.56
2011-11-11,48.175
2011-11-14,47.1427
2011-11-15,47.1116
2011-11-16,44.1373
2011-11-17,43.5204
2011-11-18,45.543
2011-11-21,44.2635
2011-11-22,44.0402
2011-11-23,43.7931
2011-11-25,43.4911
2011-11-28,44.8181
2011-11-29,43.8865
2011-11-30,45.5814
2011-12-01,45.7791
2011-12-02,46.5478
2011-12-05,45.5247
2011-12-06,45.5704
2011-12-07,46.4655
2011-12-08,44.7193
2011-12-09,45.5338
2011-12-12,44.5509
2011-12-13,44.1244
2011-12-14,43.8243
2011-12-15,44.0992
2011-12-16,44.5779
2011-12-19,44.565
2011-12-20,45.7046
2011-12-21,44.3311
2011-12-22,45.1799
2011-12-23,45.283
2011-12-27,45.1504
2011-12-28,44.6404
2011-12-29,45.167
2011-12-30,44.9332
2012-01-03,45.2057
2012-01-04,44.3256
2012-01-05,43.9795
2012-01-06,43.0902
2012-01-09,41.9597
2012-01-10,41.9616
2012-01-11,41.5933
2012-01-12,42.9319
2012-01-13,43.1767
2012-01-17,42.1567
2012-01-18,42.803
2012-01-19,43.7401
2012-01-20,44.1047
2012-01-23,43.8856
2012-01-24,44.2501
2012-01-25,44.6533
2012-01-26,44.2685
2012-01-27,44.5024
2012-01-30,44.1875
2012-01-31,44.0807
2012-02-01,45.1081
2012-02-02,48.7573
2012-02-03,50.2744
2012-02-06,50.6886
2012-02-07,50.7696
2012-02-08,52.4469
2012-02-09,52.2002
2012-02-10,53.6179
2012-02-13,53.5203
2012-02-14,53.3933
2012-02-15,53.5056
2012-02-16,54.4354
2012-02-17,54.1224
2012-02-21,53.3454
2012-02-22,52.9882
2012-02-23,53.7689
2012-02-24,53.6915
2012-02-27,53.3141
2012-02-28,53.57
2012-02-29,53.3141
2012-03-01,53.3307
2012-03-02,53.3307
2012-03-05,51.8375
2012-03-06,50.6352
2012-03-07,51.6641
2012-03-08,51.863
2012-03-09,51.8405
2012-03-12,50.7613
2012-03-13,51.1198
2012-03-14,51.7298
2012-03-15,53.8318
2012-03-16,54.2823
2012-03-19,54.4287
2012-03-20,55.1475
2012-03-21,56.0596
2012-03-22,55.5022
2012-03-23,55.5979
2012-03-26,55.872
2012-03-27,55.247
2012-03-28,54.5281
2012-03-29,54.3705
2012-03-30,54.2748
2012-04-02,54.667
2012-04-03,54.1453
2012-04-04,53.6348
2012-04-05,54.0439
2012-04-09,53.4527
2012-04-10,53.006
2012-04-11,53.3401
2012-04-12,53.8806
2012-04-13,52.9854
2012-04-16,52.6888
2012-04-17,52.5218
2012-04-18,52.2346
2012-04-19,52.0751
2012-04-20,51.2587
2012-04-23,51.1198
2012-04-24,51.2155
2012-04-25,51.3581
2012-04-26,51.2418
2012-04-27,50.4028
2012-04-30,49.8604
2012-05-01,50.4948
2012-05-02,49.4306
2012-05-03,49.6108
2012-05-04,48.5091
2012-05-07,47.8897
2012-05-08,48.2444
2012-05-09,48.7756
2012-05-10,49.0759
2012-05-11,49.4062
2012-05-14,48.83
2012-05-15,48.5973
2012-05-16,48.2238
2012-05-17,47.5988
2012-05-18,48.5147
2012-05-21,49.5883
2012-05-22,48.1431
2012-05-23,47.5444
2012-05-24,48.0605
2012-05-25,49.3386
2012-05-29,49.4963
2012-05-30,49.0571
2012-05-31,48.4096
2012-06-01,48.0924
2012-06-04,48.8676
2012-06-05,50.3409
2012-06-06,50.8917
2012-06-07,50.3996
2012-06-08,51.2797
2012-06-11,51.715
2012-06-12,52.031
2012-06-13,51.4348
2012-06-14,51.6676
2012-06-15,52.6253
2012-06-18,53.4334
2012-06-19,52.9792
2012-06-20,52.3982
2012-06-21,51.4689
2012-06-22,51.5995
2012-06-25,50.5851
2012-06-26,51.0033
2012-06-27,50.0495
2012-06-28,49.9605
2012-06-29,50.674
2012-07-02,51.3308
2012-07-03,51.221
2012-07-05,50.1328
2012-07-06,49.8829
2012-07-09,49.5877
2012-07-10,48.9745
2012-07-11,49.1391
2012-07-12,49.3435
2012-07-13,49.8583
2012-07-16,49.5915
2012-07-17,49.7656
2012-07-18,49.9643
2012-07-19,49.3114
2012-07-20,48.5903
2012-07-23,48.384
2012-07-24,48.3935
2012-07-25,48.4692
2012-07-26,49.6236
2012-07-27,49.6804
2012-07-30,49.4912
2012-07-31,49.3681
2012-08-01,48.4124
2012-08-02,47.1917
2012-08-03,48.1474
2012-08-06,49.1221
2012-08-07,50.2103
2012-08-08,50.1252
2012-08-09,50.6078
2012-08-10,50.7024
2012-08-13,50.5889
2012-08-14,49.7561
2012-08-15,49.7845
2012-08-16,50.5889
2012-08-17,51.185
2012-08-20,51.062
2012-08-21,50.7403
2012-08-22,50.7497
2012-08-23,50.4564
2012-08-24,50.7876
2012-08-27,50.7781
2012-08-28,51.1756
2012-08-29,51.4311
2012-08-30,51.4784
2012-08-31,51.9137
2012-09-04,52.2638
2012-09-05,52.3395
2012-09-06,53.8278
2012-09-07,55.6024
2012-09-10,55.8504
2012-09-11,55.8123
2012-09-12,56.232
2012-09-13,56.5469
2012-09-14,56.1271
2012-09-17,55.984
2012-09-18,55.6787
2012-09-19,54.9918
2012-09-20,55.3448
2012-09-21,55.3162
2012-09-24,55.1444
2012-09-25,54.4384
2012-09-26,54.572
2012-09-27,54.7342
2012-09-28,54.6674
2012-10-01,54.343
2012-10-02,54.3716
2012-10-03,54.5434
2012-10-04,54.8677
2012-10-05,54.8582
2012-10-08,54.8487
2012-10-09,54.2476
2012-10-10,54.2572
2012-10-11,53.9137
2012-10-12,53.7229
2012-10-15,54.2285
2012-10-16,54.8391
2012-10-17,55.173
2012-10-18,55.0299
2012-10-19,53.8851
2012-10-22,54.0377
2012-10-23,53.8469
2012-10-24,53.9232
2012-10-25,52.4349
2012-10-26,52.8261
2012-10-31,53.2745
2012-11-01,53.761
2012-11-02,53.0932
2012-11-05,53.6084
2012-11-06,53.6179
2012-11-07,53.1027
2012-11-08,52.2823
2012-11-09,51.8434
2012-11-12,51.8911
2012-11-13,51.5476
2012-11-14,51.0801
2012-11-15,51.6717
2012-11-16,51.8529
2012-11-19,51.9483
2012-11-20,52.1105
2012-11-21,51.9006
2012-11-23,52.1391
2012-11-26,52.7688
2012-11-27,51.7194
2012-11-28,52.3681
2012-11-29,52.5685
2012-11-30,52.807
2012-12-03,52.9883
2012-12-04,52.1773
2012-12-05,52.1487
2012-12-06,52.9082
2012-12-07,52.8216
2012-12-10,51.9847
2012-12-11,50.8977
2012-12-12,50.7822
2012-12-13,50.5551
2012-12-14,50.5354
2012-12-17,50.851
2012-12-18,51.6893
2012-12-19,51.8964
2012-12-20,50.6538
2012-12-21,49.9535
2012-12-24,50.0028
2012-12-26,50.0719
2012-12-27,49.6873
2012-12-28,49.4801
2012-12-31,49.8648
2013-01-02,50.5552
2013-01-03,50.8214
2013-01-04,53.0405
2013-01-07,52.7348
2013-01-08,52.1135
2013-01-09,52.0839
2013-01-10,52.5178
2013-01-11,53.2476
2013-01-14,53.5928
2013-01-15,54.0564
2013-01-16,54.0268
2013-01-17,54.6974
2013-01-18,54.6974
2013-01-22,55.7428
2013-01-23,56.2261
2013-01-24,56.5319
2013-01-25,56.7883
2013-01-28,56.8967
2013-01-29,57.1334
2013-01-30,57.311
2013-01-31,57.1038
2013-02-01,58.2282
2013-02-04,57.4786
2013-02-05,58.1591
2013-02-06,56.019
2013-02-07,56.1077
2013-02-08,56.4529
2013-02-11,56.1127
2013-02-12,56.4036
2013-02-13,56.4431
2013-02-14,57.5772
2013-02-15,57.6857
2013-02-19,58.1395
2013-02-20,57.2025
2013-02-21,56.8179
2013-02-22,57.4589
2013-02-25,56.8178
2013-02-26,58.0013
2013-02-27,59.0665
2013-02-28,58.7805
2013-03-01,58.9973
2013-03-04,60.0626
2013-03-05,60.7135
2013-03-06,61.5873
2013-03-07,61.3687
2013-03-08,61.9649
2013-03-11,62.1834
2013-03-12,62.1139
2013-03-13,62.1139
2013-03-14,62.6404
2013-03-15,62.7398
2013-03-18,62.1536
2013-03-19,60.723
2013-03-20,61.5973
2013-03-21,60.5938
2013-03-22,61.1899
2013-03-25,60.9316
2013-03-26,61.0906
2013-03-27,60.9316
2013-03-28,61.031
2013-04-01,60.5441
2013-04-02,60.1567
2013-04-03,59.6699
2013-04-04,59.5804
2013-04-05,59.1234
2013-04-08,59.7891
2013-04-09,59.5804
2013-04-10,59.7791
2013-04-11,60.3852
2013-04-12,59.9381
2013-04-15,58.577
2013-04-16,59.1433
2013-04-17,58.4478
2013-04-18,58.0802
2013-04-19,58.6465
2013-04-22,59.8884
2013-04-23,59.4016
2013-04-24,59.7593
2013-04-25,60.6435
2013-04-26,60.405
2013-04-29,60.3852
2013-04-30,60.4547
2013-05-01,59.7295
2013-05-02,60.0176
2013-05-03,60.2461
2013-05-06,60.6038
2013-05-07,60.0474
2013-05-08,60.2759
2013-05-09,60.3454
2013-05-10,62.1636
2013-05-13,62.4517
2013-05-14,63.2564
2013-05-15,63.6041
2013-05-16,63.8028
2013-05-17,64.687
2013-05-20,64.7566
2013-05-21,63.9221
2013-05-22,62.5212
2013-05-23,63.7234
2013-05-24,64.0413
2013-05-28,65.0646
2013-05-29,67.3298
2013-05-30,69.3367
2013-05-31,67.6378
2013-06-03,68.2637
2013-06-04,68.7604
2013-06-05,68.7306
2013-06-06,68.88
2013-06-07,72.12
2013-06-10,72.86
2013-06-11,72.35
2013-06-12,72.44
2013-06-13,74.1
2013-06-14,74.32
2013-06-17,76.34
2013-06-18,77.23
2013-06-19,76.03
2013-06-20,77.15
2013-06-21,76.88
2013-06-24,76.14
2013-06-25,76.44
2013-06-26,76.35
2013-06-27,76.55
2013-06-28,76.12
2013-07-01,76.52
2013-07-02,75.16
2013-07-03,75.9
2013-07-05,77.57
2013-07-08,77.25
2013-07-09,76.74
2013-07-10,76.44
2013-07-11,76.79
2013-07-12,77.35
2013-07-15,77.13
2013-07-16,76.25
2013-07-17,76.06
2013-07-18,76.4
2013-07-19,74.72
2013-07-22,73.73
2013-07-23,73.72
2013-07-24,73.65
2013-07-25,73.85
2013-07-26,73.8
2013-07-29,74.32
2013-07-30,74.19
2013-07-31,73.96
2013-08-01,72.12
2013-08-02,72.27
2013-08-05,72.05
2013-08-06,72.37
2013-08-07,71.9
2013-08-08,72.24
2013-08-09,72.13
