date,close_price
2007-07-02,35.883
2007-07-03,35.4463
2007-07-05,34.7788
2007-07-06,34.8118
2007-07-09,35.438
2007-07-10,35.6358
2007-07-11,36.5833
2007-07-12,36.5833
2007-07-13,36.262
2007-07-16,36.4844
2007-07-17,36.262
2007-07-18,35.8418
2007-07-19,35.644
2007-07-20,34.9355
2007-07-23,34.8036
2007-07-24,34.6223
2007-07-25,34.1691
2007-07-26,33.6171
2007-07-27,32.4718
2007-07-30,33.7077
2007-07-31,33.8231
2007-08-01,34.2763
2007-08-02,34.4245
2007-08-03,33.8313
2007-08-06,34.2186
2007-08-07,34.3669
2007-08-08,33.8561
2007-08-09,32.9497
2007-08-10,32.9991
2007-08-13,32.9332
2007-08-14,32.2081
2007-08-15,31.3101
2007-08-16,31.3101
2007-08-17,31.7056
2007-08-20,31.3924
2007-08-21,31.7632
2007-08-22,32.859
2007-08-23,32.6283
2007-08-24,33.1227
2007-08-27,33.6335
2007-08-28,32.9826
2007-08-29,32.9909
2007-08-30,32.9497
2007-08-31,32.8014
2007-09-04,33.1392
2007-09-05,33.098
2007-09-06,32.9332
2007-09-07,32.925
2007-09-10,33.5512
2007-09-11,34.2433
2007-09-12,34.647
2007-09-13,34.5234
2007-09-14,34.7047
2007-09-17,34.3504
2007-09-18,35.2156
2007-09-19,34.7707
2007-09-20,34.8942
2007-09-21,35.0095
2007-09-24,34.5152
2007-09-25,34.1527
2007-09-26,34.1032
2007-09-27,33.9714
2007-09-28,34.1362
2007-10-01,34.7294
2007-10-02,33.9467
2007-10-03,33.8066
2007-10-04,33.8975
2007-10-05,34.096
2007-10-08,34.3856
2007-10-09,34.5758
2007-10-10,34.3194
2007-10-11,34.3856
2007-10-12,34.3939
2007-10-15,34.3525
2007-10-16,34.096
2007-10-17,34.1457
2007-10-18,33.7321
2007-10-19,33.0952
2007-10-22,33.6908
2007-10-23,33.7404
2007-10-24,33.3102
2007-10-25,33.4922
2007-10-26,33.9389
2007-10-29,34.5593
2007-10-30,34.4765
2007-10-31,34.4931
2007-11-01,33.9885
2007-11-02,33.5915
2007-11-05,33.3764
2007-11-06,33.2606
2007-11-07,32.6733
2007-11-08,32.9711
2007-11-09,32.6651
2007-11-12,32.359
2007-11-13,32.4583
2007-11-14,31.904
2007-11-15,32.2432
2007-11-16,32.8057
2007-11-19,32.3755
2007-11-20,31.9537
2007-11-21,31.5153
2007-11-23,31.7221
2007-11-26,31.4325
2007-11-27,31.7304
2007-11-28,32.359
2007-11-29,32.3507
2007-11-30,33.2027
2007-12-03,33.1448
2007-12-04,32.4665
2007-12-05,32.5162
2007-12-06,33.608
2007-12-07,34.8488
2007-12-10,34.9977
2007-12-11,34.7165
2007-12-12,35.8331
2007-12-13,35.8993
2007-12-14,36.3129
2007-12-17,35.3616
2007-12-18,35.9489
2007-12-19,35.982
2007-12-20,36.2467
2007-12-21,37.1897
2007-12-24,37.1318
2007-12-26,37.1318
2007-12-27,37.0159
2007-12-28,37.0077
2007-12-31,36.5279
2008-01-02,35.7753
2008-01-03,35.2706
2008-01-04,35.5188
2008-01-07,36.3543
2008-01-08,36.9001
2008-01-09,37.0656
2008-01-10,36.9084
2008-01-11,37.231
2008-01-14,37.2228
2008-01-15,36.9498
2008-01-16,37.2641
2008-01-17,37.4957
2008-01-18,35.8414
2008-01-22,35.6512
2008-01-23,34.8624
2008-01-24,35.0201
2008-01-25,35.2526
2008-01-28,35.5265
2008-01-29,35.3439
2008-01-30,35.2526
2008-01-31,37.1041
2008-02-01,36.2239
2008-02-04,35.8587
2008-02-05,35.5265
2008-02-06,35.7508
2008-02-07,36.5644
2008-02-08,36.1908
2008-02-11,35.3605
2008-02-12,36.199
2008-02-13,36.2488
2008-02-14,35.8088
2008-02-15,35.8503
2008-02-19,35.8836
2008-02-20,35.95
2008-02-21,36.116
2008-02-22,36.199
2008-02-25,36.7305
2008-02-26,36.4067
2008-02-27,36.199
2008-02-28,35.7424
2008-02-29,35.6013
2008-03-03,35.6594
2008-03-04,35.8254
2008-03-05,35.5847
2008-03-06,35.2028
2008-03-07,34.3725
2008-03-10,33.5921
2008-03-11,34.4804
2008-03-12,35.2193
2008-03-13,35.9749
2008-03-14,35.319
2008-03-17,35.4352
2008-03-18,36.5975
2008-03-19,35.676
2008-03-20,35.6428
2008-03-24,35.4934
2008-03-25,35.2858
2008-03-26,36.307
2008-03-27,36.757
2008-03-28,36.6236
2008-03-31,36.8986
2008-04-01,37.0986
2008-04-02,37.6319
2008-04-03,37.4819
2008-04-04,37.9985
2008-04-07,38.0402
2008-04-08,38.3902
2008-04-09,37.9985
2008-04-10,38.3735
2008-04-11,37.5068
2008-04-14,37.3735
2008-04-15,37.1569
2008-04-16,37.8069
2008-04-17,37.8402
2008-04-18,38.8235
2008-04-21,39.0484
2008-04-22,38.9235
2008-04-23,39.9651
2008-04-24,39.3652
2008-04-25,38.9985
2008-04-28,39.1818
2008-04-29,39.1651
2008-04-30,38.8569
2008-05-01,39.3735
2008-05-02,39.5318
2008-05-05,39.3235
2008-05-06,40.7485
2008-05-07,40.8818
2008-05-08,41.2151
2008-05-09,40.6151
2008-05-12,40.3985
2008-05-13,40.5401
2008-05-14,41.1735
2008-05-15,41.69
2008-05-16,41.4984
2008-05-19,41.2151
2008-05-20,40.8234
2008-05-21,40.5318
2008-05-22,40.2318
2008-05-23,39.8152
2008-05-27,40.2818
2008-05-28,40.3735
2008-05-29,41.0401
2008-05-30,41.6817
2008-06-02,41.665
2008-06-03,41.6567
2008-06-04,41.2067
2008-06-05,41.5734
2008-06-06,40.4901
2008-06-09,40.2234
2008-06-10,39.9818
2008-06-11,39.5818
2008-06-12,40.6818
2008-06-13,40.965
2008-06-16,41.1234
2008-06-17,40.6734
2008-06-18,39.8901
2008-06-19,40.1984
2008-06-20,39.2735
2008-06-23,38.9902
2008-06-24,38.8069
2008-06-25,39.6735
2008-06-26,38.9818
2008-06-27,39.3735
2008-06-30,39.9318
2008-07-01,40.4151
2008-07-02,40.4984
2008-07-03,40.0651
2008-07-07,39.5485
2008-07-08,39.9735
2008-07-09,39.6401
2008-07-10,40.9484
2008-07-11,40.7817
2008-07-14,40.5234
2008-07-15,40.8317
2008-07-16,40.4151
2008-07-17,40.1568
2008-07-18,40.9068
2008-07-21,41.0901
2008-07-22,42.39
2008-07-23,41.6234
2008-07-24,41.6318
2008-07-25,41.7404
2008-07-28,41.1469
2008-07-29,41.4645
2008-07-30,41.5398
2008-07-31,41.0717
2008-08-01,41.3475
2008-08-04,41.7822
2008-08-05,43.6297
2008-08-06,42.986
2008-08-07,43.287
2008-08-08,44.959
2008-08-11,44.2985
2008-08-12,44.2484
2008-08-13,44.566
2008-08-14,44.3988
2008-08-15,44.9757
2008-08-18,45.0091
2008-08-19,44.7165
2008-08-20,44.9339
2008-08-21,45.0592
2008-08-22,45.377
2008-08-25,45.1345
2008-08-26,45.6444
2008-08-27,45.82
2008-08-28,46.1878
2008-08-29,45.2431
2008-09-02,45.2098
2008-09-03,46.4135
2008-09-04,44.3905
2008-09-05,44.2484
2008-09-08,44.566
2008-09-09,44.8085
2008-09-10,45.9705
2008-09-11,47.3164
2008-09-12,46.982
2008-09-15,46.7981
2008-09-16,46.9068
2008-09-17,45.7364
2008-09-18,45.9955
2008-09-19,45.0843
2008-09-22,44.6162
2008-09-23,44.6998
2008-09-24,45.1345
2008-09-25,45.7113
2008-09-26,45.8534
2008-09-29,43.7216
2008-09-30,44.8419
2008-10-01,43.4626
2008-10-02,42.8021
2008-10-03,43.8638
2008-10-06,41.0466
2008-10-07,41.3653
2008-10-08,40.0737
2008-10-09,37.0962
2008-10-10,36.2408
2008-10-13,40.3253
2008-10-14,39.8053
2008-10-15,37.0626
2008-10-16,38.6227
2008-10-17,38.7569
2008-10-20,39.1511
2008-10-21,38.2705
2008-10-22,36.8027
2008-10-23,36.0814
2008-10-24,34.7981
2008-10-27,32.8272
2008-10-28,34.5885
2008-10-29,35.3182
2008-10-30,36.6098
2008-10-31,37.004
2008-11-03,37.004
2008-11-04,37.4737
2008-11-05,36.5595
2008-11-06,35.2762
2008-11-07,36.0059
2008-11-10,34.8821
2008-11-11,33.8001
2008-11-12,32.0389
2008-11-13,31.284
2008-11-14,32.3239
2008-11-17,31.913
2008-11-18,31.2421
2008-11-19,29.5982
2008-11-20,27.9123
2008-11-21,28.4239
2008-11-24,30.5962
2008-11-25,31.1833
2008-11-26,31.0491
2008-11-28,30.9065
2008-12-01,28.6672
2008-12-02,28.5749
2008-12-03,29.6652
2008-12-04,29.6737
2008-12-05,30.2439
2008-12-08,30.831
2008-12-09,29.8666
2008-12-10,29.1955
2008-12-11,29.7407
2008-12-12,28.7762
2008-12-15,28.9691
2008-12-16,30.1937
2008-12-17,31.6362
2008-12-18,31.4014
2008-12-19,30.613
2008-12-22,31.2336
2008-12-23,29.7323
2008-12-24,29.5562
2008-12-26,28.8098
2008-12-29,28.9272
2008-12-30,29.6317
2008-12-31,30.462
2009-01-02,31.2756
2009-01-05,30.7555
2009-01-06,31.2336
2009-01-07,31.091
2009-01-08,31.0407
2009-01-09,31.024
2009-01-12,31.2504
2009-01-13,30.7305
2009-01-14,29.9839
2009-01-15,29.9085
2009-01-16,30.8143
2009-01-20,29.8749
2009-01-21,30.982
2009-01-22,31.2756
2009-01-23,29.4892
2009-01-26,31.0743
2009-01-27,31.3091
2009-01-28,32.0472
2009-01-29,32.022
2009-01-30,32.1311
2009-02-02,31.9298
2009-02-03,32.693
2009-02-04,33.5605
2009-02-05,33.3079
2009-02-06,33.5101
2009-02-09,33.0385
2009-02-10,32.0446
2009-02-11,32.6089
2009-02-12,33.0047
2009-02-13,32.2299
2009-02-17,31.312
2009-02-18,31.2025
2009-02-19,31.0341
2009-02-20,30.2172
2009-02-23,29.8213
2009-02-24,30.335
2009-02-25,29.6529
2009-02-26,27.9601
2009-02-27,26.7474
2009-03-02,25.8547
2009-03-03,25.6105
2009-03-04,25.2568
2009-03-05,23.8419
2009-03-06,23.564
2009-03-09,23.463
2009-03-10,24.1114
2009-03-11,25.2652
2009-03-12,26.1831
2009-03-13,27.0338
2009-03-16,26.3937
2009-03-17,26.5284
2009-03-18,27.3285
2009-03-19,26.3179
2009-03-20,26.9832
2009-03-23,27.6233
2009-03-24,27.0
2009-03-25,27.4632
2009-03-26,28.5044
2009-03-27,28.4621
2009-03-30,27.9712
2009-03-31,28.115
2009-04-01,28.0389
2009-04-02,27.4887
2009-04-03,26.4139
2009-04-06,26.4393
2009-04-07,26.5832
2009-04-08,27.201
2009-04-09,27.0149
2009-04-13,27.1418
2009-04-14,27.9204
2009-04-15,28.2674
2009-04-16,28.7837
2009-04-17,29.4438
2009-04-20,28.6737
2009-04-21,28.2759
2009-04-22,28.0643
2009-04-23,27.3618
2009-04-24,27.9796
2009-04-27,28.6313
2009-04-28,28.6483
2009-04-29,28.6652
2009-04-30,27.9288
2009-05-01,27.4041
2009-05-04,27.9796
2009-05-05,28.4621
2009-05-06,28.2674
2009-05-07,28.9445
2009-05-08,29.2322
2009-05-11,28.5382
2009-05-12,29.3676
2009-05-13,30.0193
2009-05-14,30.5187
2009-05-15,30.8063
2009-05-18,30.2394
2009-05-19,30.0278
2009-05-20,30.2732
2009-05-21,29.7823
2009-05-22,29.63
2009-05-26,29.4353
2009-05-27,28.8345
2009-05-28,28.8683
2009-05-29,30.2055
2009-06-01,30.4763
2009-06-02,31.0264
2009-06-03,30.5356
2009-06-04,30.4256
2009-06-05,30.4256
2009-06-08,30.1886
2009-06-09,29.9685
2009-06-10,30.0362
2009-06-11,30.3917
2009-06-12,30.5356
2009-06-15,29.9601
2009-06-16,29.7315
2009-06-17,30.3578
2009-06-18,30.4256
2009-06-19,30.6287
2009-06-22,30.5525
2009-06-23,30.0532
2009-06-24,30.3325
2009-06-25,30.7979
2009-06-26,30.8571
2009-06-29,31.7458
2009-06-30,31.6612
2009-07-01,31.1872
2009-07-02,30.4933
2009-07-06,30.324
2009-07-07,30.0785
2009-07-08,29.9008
2009-07-09,30.1209
2009-07-10,30.2986
2009-07-13,30.3917
2009-07-14,30.6372
2009-07-15,30.8825
2009-07-16,31.2295
2009-07-17,30.9079
2009-07-20,30.6541
2009-07-21,30.451
2009-07-22,29.9685
2009-07-23,30.6118
2009-07-24,31.6527
2009-07-27,31.7543
2009-07-28,32.1097
2009-07-29,32.3637
2009-07-30,31.9066
2009-07-31,32.1616
2009-08-03,33.224
2009-08-04,33.1985
2009-08-05,32.8076
2009-08-06,32.2211
2009-08-07,32.442
2009-08-10,32.7905
2009-08-11,33.411
2009-08-12,33.6405
2009-08-13,33.7085
2009-08-14,33.1815
2009-08-17,33.3855
2009-08-18,32.8501
2009-08-19,34.1079
2009-08-20,34.1249
2009-08-21,33.6064
2009-08-24,33.5895
2009-08-25,33.5129
2009-08-26,33.122
2009-08-27,33.105
2009-08-28,33.0455
2009-08-31,33.598
2009-09-01,33.19
2009-09-02,32.7141
2009-09-03,33.3685
2009-09-04,33.6319
2009-09-08,33.36
2009-09-09,33.496
2009-09-10,33.4365
2009-09-11,35.5783
2009-09-14,35.3064
2009-09-15,35.4424
2009-09-16,36.3943
2009-09-17,35.9183
2009-09-18,35.2809
2009-09-21,35.0429
2009-09-22,34.6689
2009-09-23,34.5499
2009-09-24,34.4054
2009-09-25,35.1023
2009-09-28,36.1138
2009-09-29,36.4622
2009-09-30,36.7427
2009-10-01,35.8928
2009-10-02,35.3121
2009-10-05,35.406
2009-10-06,35.6963
2009-10-07,36.0292
2009-10-08,36.7291
2009-10-09,37.0534
2009-10-12,36.9425
2009-10-13,36.7291
2009-10-14,37.2925
2009-10-15,37.1131
2009-10-16,37.6082
2009-10-19,38.0094
2009-10-20,37.9411
2009-10-21,36.7205
2009-10-22,37.0108
2009-10-23,37.0705
2009-10-26,37.0108
2009-10-27,36.7461
2009-10-28,35.9267
2009-10-29,36.1059
2009-10-30,35.9779
2009-11-02,36.6522
2009-11-03,36.6522
2009-11-04,36.8742
2009-11-05,37.6936
2009-11-06,37.5741
2009-11-09,38.2569
2009-11-10,38.0691
2009-11-11,37.7619
2009-11-12,37.6936
2009-11-13,37.8813
2009-11-16,37.6765
2009-11-17,38.5472
2009-11-18,38.2655
2009-11-19,38.5472
2009-11-20,38.9313
2009-11-23,39.3324
2009-11-24,39.9385
2009-11-25,40.4079
2009-11-27,40.0836
2009-11-30,39.9897
2009-12-01,40.6299
2009-12-02,40.5957
2009-12-03,40.4335
2009-12-04,40.3396
2009-12-07,40.1092
2009-12-08,40.186
2009-12-09,40.1434
2009-12-10,40.4335
2009-12-11,40.169
2009-12-14,40.1945
2009-12-15,39.9983
2009-12-16,39.8873
2009-12-17,39.8275
2009-12-18,39.7507
2009-12-21,39.8531
2009-12-22,40.6811
2009-12-23,41.5176
2009-12-24,41.6029
2009-12-28,41.4322
2009-12-29,41.7395
2009-12-30,41.27
2009-12-31,40.8518
2010-01-04,40.775
2010-01-05,40.7152
2010-01-06,41.5603
2010-01-07,41.9017
2010-01-08,41.8334
2010-01-11,41.859
2010-01-12,41.4834
2010-01-13,42.4822
2010-01-14,41.7822
2010-01-15,41.1676
2010-01-19,42.1493
2010-01-20,44.0014
2010-01-21,43.5149
2010-01-22,43.3187
2010-01-25,43.3784
2010-01-26,43.3271
2010-01-27,43.5747
2010-01-28,43.5832
2010-01-29,43.3177
2010-02-01,43.1036
2010-02-02,43.6517
2010-02-03,43.6346
2010-02-04,43.2663
2010-02-05,42.0843
2010-02-08,42.3669
2010-02-09,42.4783
2010-02-10,41.7245
2010-02-11,42.5896
2010-02-12,42.4098
2010-02-16,43.0351
2010-02-17,43.5062
2010-02-18,43.5661
2010-02-19,43.0865
2010-02-22,43.0608
2010-02-23,42.9579
2010-02-24,42.9665
2010-02-25,42.4868
2010-02-26,42.0757
2010-03-01,42.4183
2010-03-02,43.0693
2010-03-03,43.1207
2010-03-04,42.8038
2010-03-05,42.6924
2010-03-08,43.1721
2010-03-09,44.0287
2010-03-10,43.5575
2010-03-11,43.5233
2010-03-12,43.2577
2010-03-15,43.3091
2010-03-16,43.1464
2010-03-17,43.9002
2010-03-18,43.5661
2010-03-19,43.8831
2010-03-22,43.8574
2010-03-23,43.7889
2010-03-24,42.5553
2010-03-25,42.5725
2010-03-26,42.3498
2010-03-29,42.4098
2010-03-30,43.1293
2010-03-31,43.0008
2010-04-01,43.2235
2010-04-05,43.4291
2010-04-06,43.3863
2010-04-07,43.0693
2010-04-08,42.2298
2010-04-09,43.4291
2010-04-12,43.5404
2010-04-13,43.3601
2010-04-14,44.2455
2010-04-15,44.555
2010-04-16,43.9618
2010-04-19,44.1767
2010-04-20,44.916
2010-04-21,43.085
2010-04-22,42.2769
2010-04-23,42.2942
2010-04-26,40.9531
2010-04-27,40.4201
2010-04-28,40.8757
2010-04-29,41.4689
2010-04-30,41.2282
2010-05-03,41.2626
2010-05-04,40.2482
2010-05-05,39.784
2010-05-06,38.8899
2010-05-07,37.6005
2010-05-10,38.5117
2010-05-11,38.271
2010-05-12,39.8785
2010-05-13,39.3628
2010-05-14,38.4086
2010-05-17,38.3828
2010-05-18,38.314
2010-05-19,37.4286
2010-05-20,36.0274
2010-05-21,35.503
2010-05-24,36.0446
2010-05-25,35.8726
2010-05-26,35.632
2010-05-27,36.5775
2010-05-28,36.4314
2010-06-01,35.4686
2010-06-02,35.6491
2010-06-03,36.8956
2010-06-04,35.3396
2010-06-07,34.5058
2010-06-08,34.033
2010-06-09,33.9729
2010-06-10,35.0732
2010-06-11,35.589
2010-06-14,35.7351
2010-06-15,35.8469
2010-06-16,35.6062
2010-06-17,36.2337
2010-06-18,36.7666
2010-06-21,37.1449
2010-06-22,36.6463
2010-06-23,36.0446
2010-06-24,35.7007
2010-06-25,36.2681
2010-06-28,35.9672
2010-06-29,34.7551
2010-06-30,34.5145
2010-07-01,34.3425
2010-07-02,34.0846
2010-07-06,33.6805
2010-07-07,34.4113
2010-07-08,35.0216
2010-07-09,35.0559
2010-07-12,34.7724
2010-07-13,35.2107
2010-07-14,34.8153
2010-07-15,34.8067
2010-07-16,34.3855
2010-07-19,33.8868
2010-07-20,34.4714
2010-07-21,33.8611
2010-07-22,34.3597
2010-07-23,33.2335
2010-07-26,33.9557
2010-07-27,33.7666
2010-07-28,33.2766
2010-07-29,31.7825
2010-07-30,32.2575
2010-08-02,31.7393
2010-08-03,31.3679
2010-08-04,32.6894
2010-08-05,32.8361
2010-08-06,32.9916
2010-08-09,33.0435
2010-08-10,32.9916
2010-08-11,32.8102
2010-08-12,32.5943
2010-08-13,33.3284
2010-08-16,32.9139
2010-08-17,33.4925
2010-08-18,33.6912
2010-08-19,33.2939
2010-08-20,32.8794
2010-08-23,33.147
2010-08-24,32.318
2010-08-25,32.2575
2010-08-26,31.8774
2010-08-27,31.7739
2010-08-30,31.4284
2010-08-31,30.4438
2010-09-01,31.1952
2010-09-02,32.1625
2010-09-03,32.033
2010-09-07,32.2747
2010-09-08,31.5925
2010-09-09,31.7048
2010-09-10,32.0848
2010-09-13,32.2489
2010-09-14,32.5425
2010-09-15,32.7411
2010-09-16,34.097
2010-09-17,34.1144
2010-09-20,33.9848
2010-09-21,33.8898
2010-09-22,33.7257
2010-09-23,33.4321
2010-09-24,34.097
2010-09-27,34.097
2010-09-28,35.0384
2010-09-29,34.693
2010-09-30,34.9014
2010-10-01,35.0315
2010-10-04,34.5108
2010-10-05,35.2312
2010-10-06,35.5003
2010-10-07,35.6478
2010-10-08,35.5177
2010-10-11,35.5784
2010-10-12,35.5957
2010-10-13,35.4395
2010-10-14,35.2486
2010-10-15,35.3874
2010-10-18,35.2052
2010-10-19,34.6063
2010-10-20,34.2678
2010-10-21,34.6844
2010-10-22,34.2765
2010-10-25,34.8493
2010-10-26,35.1878
2010-10-27,34.9795
2010-10-28,34.9969
2010-10-29,34.641
2010-11-01,34.4066
2010-11-02,34.5715
2010-11-03,34.6844
2010-11-04,35.0229
2010-11-05,36.2033
2010-11-08,35.9256
2010-11-09,37.7397
2010-11-10,38.9462
2010-11-11,38.7813
2010-11-12,38.2952
2010-11-15,37.9045
2010-11-16,36.9758
2010-11-17,36.8543
2010-11-18,37.6789
2010-11-19,37.2275
2010-11-22,37.0626
2010-11-23,36.5592
2010-11-24,37.2102
2010-11-26,36.8283
2010-11-29,36.6634
2010-11-30,36.5592
2010-12-01,37.2362
2010-12-02,37.3404
2010-12-03,37.2796
2010-12-06,37.2189
2010-12-07,37.2362
2010-12-08,37.2796
2010-12-09,37.6095
2010-12-10,37.7917
2010-12-13,37.6529
2010-12-14,39.1372
2010-12-15,39.4149
2010-12-16,40.0746
2010-12-17,40.3436
2010-12-20,39.8662
2010-12-21,39.4149
2010-12-22,40.1266
2010-12-23,39.927
2010-12-27,39.8662
2010-12-28,39.6493
2010-12-29,39.6666
2010-12-30,39.6405
2010-12-31,39.6232
2011-01-03,41.1508
2011-01-04,40.8905
2011-01-05,40.7602
2011-01-06,40.3263
2011-01-07,40.0485
2011-01-10,40.144
2011-01-11,40.9251
2011-01-12,40.7168
2011-01-13,41.0988
2011-01-14,41.1855
2011-01-18,41.2463
2011-01-19,41.6716
2011-01-20,41.4286
2011-01-21,41.4199
2011-01-24,41.0119
2011-01-25,41.064
2011-01-26,41.5761
2011-01-27,41.5763
2011-01-28,41.0708
2011-01-31,41.4195
2011-02-01,42.814
2011-02-02,42.6572
2011-02-03,42.9361
2011-02-04,42.5701
2011-02-07,42.9099
2011-02-08,43.2847
2011-02-09,43.3632
2011-02-10,43.433
2011-02-11,43.9646
2011-02-14,44.5224
2011-02-15,43.9646
2011-02-16,44.1128
2011-02-17,44.4963
2011-02-18,44.8014
2011-02-22,44.0518
2011-02-23,43.9385
2011-02-24,43.8339
2011-02-25,44.2087
2011-02-28,44.7927
2011-03-01,44.8101
2011-03-02,44.8363
2011-03-03,46.2047
2011-03-04,46.1437
2011-03-07,46.257
2011-03-08,46.4923
2011-03-09,46.5707
2011-03-10,45.8299
2011-03-11,46.0042
2011-03-14,45.3767
2011-03-15,44.5748
2011-03-16,43.9298
2011-03-17,45.0541
2011-03-18,44.9582
2011-03-21,46.1437
2011-03-22,45.3767
2011-03-23,44.9844
2011-03-24,45.1936
2011-03-25,45.2982
2011-03-28,45.0019
2011-03-29,45.4203
2011-03-30,45.4203
2011-03-31,45.272
2011-04-01,45.8996
2011-04-04,46.0304
2011-04-05,45.8291
2011-04-06,46.1265
2011-04-07,45.9778
2011-04-08,45.8465
2011-04-11,46.3015
2011-04-12,45.9341
2011-04-13,45.8728
2011-04-14,46.2228
2011-04-15,47.0803
2011-04-18,46.0565
2011-04-19,46.844
2011-04-20,47.1415
2011-04-21,48.1126
2011-04-25,48.1914
2011-04-26,48.6464
2011-04-27,49.4076
2011-04-28,49.1626
2011-04-29,48.6813
2011-05-02,48.5851
2011-05-03,48.7164
2011-05-04,48.1214
2011-05-05,47.7365
2011-05-06,47.8239
2011-05-09,48.5414
2011-05-10,49.2064
2011-05-11,48.6813
2011-05-12,49.1013
2011-05-13,48.8564
2011-05-16,48.8826
2011-05-17,49.0576
2011-05-18,50.23
2011-05-19,50.3087
2011-05-20,49.845
2011-05-23,48.4539
2011-05-24,48.4714
2011-05-25,48.4102
2011-05-26,47.7889
2011-05-27,47.7277
2011-05-31,48.1302
2011-06-01,47.9202
2011-06-02,47.9989
2011-06-03,47.474
2011-06-06,46.6166
2011-06-07,47.5265
2011-06-08,47.3865
2011-06-09,48.0951
2011-06-10,46.8178
2011-06-13,46.7303
2011-06-14,47.3515
2011-06-15,45.7153
2011-06-16,45.4791
2011-06-17,45.9778
2011-06-20,46.2928
2011-06-21,46.8265
2011-06-22,46.4066
2011-06-23,46.2228
2011-06-24,45.7853
2011-06-27,46.3103
2011-06-28,47.0627
2011-06-29,46.704
2011-06-30,46.5727
2011-07-01,47.4389
2011-07-05,47.019
2011-07-06,47.2377
2011-07-07,47.4827
2011-07-08,47.2989
2011-07-11,45.7416
2011-07-12,46.0828
2011-07-13,46.3015
2011-07-14,46.0216
2011-07-15,45.5928
2011-07-18,45.0679
2011-07-19,45.5053
2011-07-20,45.3216
2011-07-21,46.2753
2011-07-22,45.4091
2011-07-25,43.948
2011-07-26,45.5491
2011-07-27,45.3304
2011-07-28,44.5575
2011-07-29,44.6804
2011-08-01,43.8548
2011-08-02,43.0643
2011-08-03,42.8886
2011-08-04,40.8772
2011-08-05,40.7719
2011-08-08,38.7869
2011-08-09,41.2988
2011-08-10,39.2085
2011-08-11,42.792
2011-08-12,43.4596
2011-08-15,43.7932
2011-08-16,43.8812
2011-08-17,44.1885
2011-08-18,42.6953
2011-08-19,41.94
2011-08-22,42.2475
2011-08-23,44.3906
2011-08-24,44.9351
2011-08-25,44.092
2011-08-26,44.3906
2011-08-29,45.6729
2011-08-30,45.7959
2011-08-31,45.708
2011-09-01,45.2952
2011-09-02,44.3642
2011-09-06,44.1798
2011-09-07,45.0493
2011-09-08,43.6704
2011-09-09,41.94
2011-09-12,41.7204
2011-09-13,41.9049
2011-09-14,42.3792
2011-09-15,41.861
2011-09-16,42.4143
2011-09-19,41.4394
2011-09-20,41.7468
2011-09-21,40.403
2011-09-22,39.3577
2011-09-23,39.9989
2011-09-26,40.5611
2011-09-27,40.8245
2011-09-28,39.5159
2011-09-29,39.5861
2011-09-30,38.7517
2011-10-03,37.3552
2011-10-04,37.7943
2011-10-05,38.3476
2011-10-06,38.743
2011-10-07,38.2071
2011-10-10,39.7706
2011-10-11,39.5627
2011-10-12,40.4808
2011-10-13,40.0305
2011-10-14,40.6044
2011-10-17,39.4303
2011-10-18,39.2538
2011-10-19,39.8893
2011-10-20,38.7771
2011-10-21,39.9864
2011-10-24,41.4164
2011-10-25,39.9599
2011-10-26,39.501
2011-10-27,41.8225
2011-10-28,42.5639
2011-10-31,41.5665
2011-11-01,39.8805
2011-11-02,40.1189
2011-11-03,40.3395
2011-11-04,40.216
2011-11-07,41.0457
2011-11-08,41.796
2011-11-09,39.8011
2011-11-10,41.0987
2011-11-11,41.9549
2011-11-14,41.7606
2011-11-15,42.5287
2011-11-16,41.8401
2011-11-17,40.825
2011-11-18,40.2424
2011-11-21,39.3597
2011-11-22,39.192
2011-11-23,38.3799
2011-11-25,38.0357
2011-11-28,39.2009
2011-11-29,38.68
2011-11-30,40.1454
2011-12-01,41.0104
2011-12-02,40.11
2011-12-05,40.057
2011-12-06,39.4216
2011-12-07,39.448
2011-12-08,38.2387
2011-12-09,39.192
2011-12-12,38.3269
2011-12-13,37.4178
2011-12-14,37.2324
2011-12-15,38.3976
2011-12-16,38.2563
2011-12-19,37.7885
2011-12-20,39.1214
2011-12-21,38.9714
2011-12-22,39.5363
2011-12-23,40.1542
2011-12-27,40.472
2011-12-28,39.5539
2011-12-29,39.7834
2011-12-30,39.7834
2012-01-03,40.3836
2012-01-04,39.7128
2012-01-05,39.8805
2012-01-06,40.5779
2012-01-09,40.5602
2012-01-10,40.7102
2012-01-11,40.7897
2012-01-12,40.4101
2012-01-13,40.1277
2012-01-17,40.0835
2012-01-18,40.8603
2012-01-19,42.3875
2012-01-20,42.3875
2012-01-23,42.5816
2012-01-24,43.1642
2012-01-25,43.8086
2012-01-26,45.4264
2012-01-27,45.8787
2012-01-30,45.6215
2012-01-31,45.6747
2012-02-01,46.2688
2012-02-02,46.26
2012-02-03,46.792
2012-02-06,46.659
2012-02-07,46.7299
2012-02-08,46.4994
2012-02-09,46.2334
2012-02-10,45.7723
2012-02-13,45.9762
2012-02-14,46.3131
2012-02-15,46.0028
2012-02-16,46.6058
2012-02-17,46.384
2012-02-21,46.2688
2012-02-22,46.4905
2012-02-23,45.852
2012-02-24,46.9339
2012-02-27,46.7299
2012-02-28,46.9072
2012-02-29,46.3486
2012-03-01,46.322
2012-03-02,46.0738
2012-03-05,46.2688
2012-03-06,45.0984
2012-03-07,45.657
2012-03-08,45.3999
2012-03-09,46.4285
2012-03-12,46.3043
2012-03-13,47.856
2012-03-14,47.8472
2012-03-15,48.5477
2012-03-16,47.8029
2012-03-19,47.6521
2012-03-20,47.7673
2012-03-21,47.7673
2012-03-22,47.5634
2012-03-23,48.0511
2012-03-26,48.3526
2012-03-27,48.2639
2012-03-28,47.7142
2012-03-29,47.8295
2012-03-30,48.459
2012-04-02,48.686
2012-04-03,48.125
2012-04-04,47.9825
2012-04-05,47.9825
2012-04-09,47.1278
2012-04-10,46.5935
2012-04-11,46.7449
2012-04-12,47.9825
2012-04-13,47.4216
2012-04-16,47.6798
2012-04-17,48.1695
2012-04-18,48.1072
2012-04-19,48.2675
2012-04-20,48.5524
2012-04-23,47.9915
2012-04-24,48.2318
2012-04-25,48.7394
2012-04-26,48.9531
2012-04-27,49.3181
2012-04-30,49.2024
2012-05-01,49.6119
2012-05-02,49.3894
2012-05-03,49.3804
2012-05-04,48.2942
2012-05-07,48.2853
2012-05-08,48.9976
2012-05-09,48.3209
2012-05-10,48.7394
2012-05-11,49.1757
2012-05-14,49.1222
2012-05-15,48.7839
2012-05-16,48.49
2012-05-17,47.8757
2012-05-18,47.0744
2012-05-21,47.5373
2012-05-22,47.4127
2012-05-23,47.1991
2012-05-24,47.6264
2012-05-25,47.4394
2012-05-29,47.2346
2012-05-30,46.2285
2012-05-31,46.1305
2012-06-01,45.1155
2012-06-04,45.2401
2012-06-05,45.6141
2012-06-06,46.0326
2012-06-07,45.997
2012-06-08,46.5134
2012-06-11,46.1484
2012-06-12,46.5045
2012-06-13,46.3354
2012-06-14,46.7182
2012-06-15,47.1189
2012-06-18,47.1723
2012-06-19,47.7778
2012-06-20,47.6353
2012-06-21,46.6202
2012-06-22,46.9408
2012-06-25,46.5224
2012-06-26,46.6559
2012-06-27,46.8784
2012-06-28,46.6915
2012-06-29,47.6086
2012-07-02,48.214
2012-07-03,48.3209
2012-07-05,48.0538
2012-07-06,47.4305
2012-07-09,47.7511
2012-07-10,47.2436
2012-07-11,47.3059
2012-07-12,46.7894
2012-07-13,47.0744
2012-07-16,46.6024
2012-07-17,47.1011
2012-07-18,47.3593
2012-07-19,47.7866
2012-07-20,47.4661
2012-07-23,45.7388
2012-07-24,45.0978
2012-07-25,45.534
2012-07-26,47.667
2012-07-27,49.6165
2012-07-30,50.028
2012-07-31,49.9653
2012-08-01,50.2246
2012-08-02,49.3035
2012-08-03,50.475
2012-08-06,50.6181
2012-08-07,51.1368
2012-08-08,50.8775
2012-08-09,50.5287
2012-08-10,51.1368
2012-08-13,51.1547
2012-08-14,51.3247
2012-08-15,51.1905
2012-08-16,51.4678
2012-08-17,51.2084
2012-08-20,50.8149
2012-08-21,50.5108
2012-08-22,49.223
2012-08-23,49.2499
2012-08-24,49.697
2012-08-27,49.6881
2012-08-28,49.6523
2012-08-29,50.019
2012-08-30,49.9474
2012-08-31,50.2068
2012-09-04,50.323
2012-09-05,50.2068
2012-09-06,50.7255
2012-09-07,51.0563
2012-09-10,50.7971
2012-09-11,50.9669
2012-09-12,50.8506
2012-09-13,51.6109
2012-09-14,52.7019
2012-09-17,52.9702
2012-09-18,53.1759
2012-09-19,53.31
2012-09-20,53.2385
2012-09-21,53.4442
2012-09-24,53.9629
2012-09-25,53.2475
2012-09-26,53.3637
2012-09-27,53.4353
2012-09-28,53.1669
2012-10-01,52.9702
2012-10-02,53.1132
2012-10-03,53.5604
2012-10-04,53.7929
2012-10-05,53.9807
2012-10-08,53.471
2012-10-09,51.971
2012-10-10,51.6656
2012-10-11,51.8093
2012-10-12,51.8902
2012-10-15,51.8004
2012-10-16,52.5818
2012-10-17,52.2135
2012-10-18,51.6567
2012-10-19,50.6776
2012-10-22,50.5248
2012-10-23,50.0039
2012-10-24,49.5279
2012-10-25,49.2853
2012-10-26,49.1685
2012-10-31,49.4381
2012-11-01,49.8512
2012-11-02,49.8691
2012-11-05,49.977
2012-11-06,50.0578
2012-11-07,48.971
2012-11-08,48.0368
2012-11-09,49.9321
2012-11-12,49.941
2012-11-13,50.3452
2012-11-14,50.1566
2012-11-15,50.0757
2012-11-16,50.5159
2012-11-19,50.9201
2012-11-20,50.9919
2012-11-21,50.6327
2012-11-23,51.5758
2012-11-26,51.5848
2012-11-27,51.5399
2012-11-28,51.7644
2012-11-29,52.2854
2012-11-30,52.2584
2012-12-03,51.7105
2012-12-04,52.0249
2012-12-05,51.6567
2012-12-06,52.0788
2012-12-07,52.1866
2012-12-10,51.944
2012-12-11,52.1956
2012-12-12,52.6376
2012-12-13,52.1323
2012-12-14,51.6
2012-12-17,52.1323
2012-12-18,52.403
2012-12-19,51.9158
2012-12-20,52.2586
2012-12-21,51.8075
2012-12-24,51.591
2012-12-26,51.2391
2012-12-27,51.7804
2012-12-28,50.8511
2012-12-31,52.0511
2013-01-02,57.8186
2013-01-03,57.7096
2013-01-04,58.2352
2013-01-07,58.7114
2013-01-08,59.0486
2013-01-09,59.3363
2013-01-10,59.5942
2013-01-11,59.6338
2013-01-14,59.3561
2013-01-15,59.4255
2013-01-16,59.5842
2013-01-17,59.8223
2013-01-18,60.5067
2013-01-22,60.9035
2013-01-23,60.4273
2013-01-24,61.1614
2013-01-25,61.6574
2013-01-28,62.1434
2013-01-29,62.9171
2013-01-30,62.2921
2013-01-31,61.8755
2013-02-01,62.1334
2013-02-04,61.3102
2013-02-05,61.7168
2013-02-06,61.8359
2013-02-07,62.1731
2013-02-08,62.7186
2013-02-11,62.798
2013-02-12,62.922
2013-02-13,62.7682
2013-02-14,62.5203
2013-02-15,63.0361
2013-02-19,63.0262
2013-02-20,62.5302
2013-02-21,61.6772
2013-02-22,62.2327
2013-02-25,61.2903
2013-02-26,61.3498
2013-02-27,62.8575
2013-02-28,63.0559
2013-03-01,62.9964
2013-03-04,63.5122
2013-03-05,64.1172
2013-03-06,64.4149
2013-03-07,64.3751
2013-03-08,64.6529
2013-03-11,64.9604
2013-03-12,65.0298
2013-03-13,65.4861
2013-03-14,65.0596
2013-03-15,64.8513
2013-03-18,64.2661
2013-03-19,64.2363
2013-03-20,64.9604
2013-03-21,65.7539
2013-03-22,66.0516
2013-03-25,66.2599
2013-03-26,66.9244
2013-03-27,66.9442
2013-03-28,67.3807
2013-04-01,67.1228
2013-04-02,67.7201
2013-04-03,67.511
2013-04-04,67.3816
2013-04-05,66.9335
2013-04-08,66.8339
2013-04-09,67.1028
2013-04-10,67.6405
2013-04-11,68.2379
2013-04-12,67.511
2013-04-15,65.9377
2013-04-16,66.3759
2013-04-17,65.868
2013-04-18,65.7286
2013-04-19,66.2763
2013-04-22,65.8382
2013-04-23,66.4356
2013-04-24,65.9875
2013-04-25,66.0871
2013-04-26,61.7059
2013-04-29,62.7912
2013-04-30,63.4683
2013-05-01,63.2891
2013-05-02,63.9463
2013-05-03,64.1355
2013-05-06,64.8624
2013-05-07,64.952
2013-05-08,65.4996
2013-05-09,65.42
2013-05-10,65.8382
2013-05-13,65.878
2013-05-14,66.2365
2013-05-15,66.1469
2013-05-16,65.41
2013-05-17,65.4697
2013-05-20,65.2208
2013-05-21,65.5195
2013-05-22,64.952
2013-05-23,64.9221
2013-05-24,64.8624
2013-05-28,65.7884
2013-05-29,64.942
2013-05-30,64.5636
2013-05-31,63.4185
2013-06-03,63.5081
2013-06-04,63.6177
2013-06-05,63.4086
2013-06-06,64.3645
2013-06-07,64.6234
2013-06-10,64.5736
2013-06-11,63.6475
2013-06-12,63.309
2013-06-13,64.6831
2013-06-14,65.649
2013-06-17,65.9676
2013-06-18,65.5594
2013-06-19,63.2891
2013-06-20,61.1184
2013-06-21,61.5565
2013-06-24,61.1781
2013-06-25,60.9292
2013-06-26,62.134
2013-06-27,62.8012
2013-06-28,62.6817
2013-07-01,57.2151
2013-07-02,56.8666
2013-07-03,57.3147
2013-07-05,57.9718
2013-07-08,58.0117
2013-07-09,57.7727
2013-07-10,57.7827
2013-07-11,59.0572
2013-07-12,59.2563
2013-07-15,59.5849
2013-07-16,59.794
2013-07-17,60.1625
2013-07-18,60.4911
2013-07-19,61.4569
2013-07-22,60.9292
2013-07-23,61.0288
2013-07-24,60.3716
2013-07-25,60.7101
2013-07-26,60.95
2013-07-29,60.75
2013-07-30,61.07
2013-07-31,61.58
2013-08-01,62.97
2013-08-02,63.24
2013-08-05,63.59
2013-08-06,63.57
2013-08-07,63.36
2013-08-08,63.83
2013-08-09,63.68
