date,close_price
2011-11-17,21.1661
2011-11-18,20.8387
2011-11-21,20.0448
2011-11-22,19.6479
2011-11-23,19.499
2011-11-25,19.499
2011-11-28,19.8761
2011-11-29,19.7571
2011-11-30,20.7196
2011-12-01,20.799
2011-12-02,21.1463
2011-12-05,21.6325
2011-12-06,21.9501
2011-12-07,21.831
2011-12-08,21.5035
2011-12-09,21.5928
2011-12-12,21.3547
2011-12-13,21.0967
2011-12-14,20.5311
2011-12-15,20.799
2011-12-16,20.7692
2011-12-19,20.8387
2011-12-20,21.3348
2011-12-21,21.186
2011-12-22,21.5928
2011-12-23,21.7913
2011-12-27,21.5333
2011-12-28,21.0173
2011-12-29,21.2257
2011-12-30,21.3745
2012-01-03,21.9997
2012-01-04,22.3371
2012-01-05,21.9501
2012-01-06,22.4065
2012-01-09,22.4562
2012-01-10,23.6668
2012-01-11,23.7362
2012-01-12,24.5003
2012-01-13,24.5103
2012-01-17,24.1828
2012-01-18,24.3118
2012-01-19,24.8576
2012-01-20,24.8973
2012-01-23,25.2644
2012-01-24,25.6217
2012-01-25,25.572
2012-01-26,25.7209
2012-01-27,26.9613
2012-01-30,26.8918
2012-01-31,26.7727
2012-02-01,28.3307
2012-02-02,28.7673
2012-02-03,30.5336
2012-02-06,30.2955
2012-02-07,29.8192
2012-02-08,29.6207
2012-02-09,29.581
2012-02-10,29.7695
2012-02-13,29.8192
2012-02-14,28.7772
2012-02-15,29.0749
2012-02-16,30.0176
2012-02-17,31.2084
2012-02-21,30.613
2012-02-22,30.7619
2012-02-23,30.7619
2012-02-24,31.1588
2012-02-27,30.9802
2012-02-28,31.6549
2012-02-29,31.7542
2012-03-01,31.7542
2012-03-02,32.1114
2012-03-05,31.3176
2012-03-06,29.7795
2012-03-07,29.7695
2012-03-08,31.5656
2012-03-09,31.5061
2012-03-12,31.7046
2012-03-13,31.6946
2012-03-14,31.5458
2012-03-15,31.5259
2012-03-16,31.7244
2012-03-19,31.2679
2012-03-20,30.871
2012-03-21,31.0397
2012-03-22,30.7222
2012-03-23,30.7023
2012-03-26,31.6252
2012-03-27,31.7046
2012-03-28,31.3275
2012-03-29,31.4267
2012-03-30,31.4069
2012-04-02,31.2878
2012-04-03,31.0
2012-04-04,31.4267
2012-04-05,31.5061
2012-04-09,31.0199
2012-04-10,30.5832
2012-04-11,31.2183
2012-04-12,31.4862
2012-04-13,31.5557
2012-04-16,31.7145
2012-04-17,31.8733
2012-04-18,31.9229
2012-04-19,31.6153
2012-04-20,31.5855
2012-04-23,31.1886
2012-04-24,30.0176
2012-04-25,30.613
2012-04-26,30.3649
2012-04-27,30.871
2012-04-30,30.4344
2012-05-01,30.6626
2012-05-02,30.4642
2012-05-03,30.1665
2012-05-04,29.2039
2012-05-07,29.4222
2012-05-08,28.291
2012-05-09,28.2811
2012-05-10,28.5291
2012-05-11,28.4696
2012-05-14,27.7948
2012-05-15,27.4277
2012-05-16,27.7849
2012-05-17,27.2887
2012-05-18,27.0407
2012-05-21,27.775
2012-05-22,27.9139
2012-05-23,27.7849
2012-05-24,27.4872
2012-05-25,28.2017
2012-05-29,29.5215
2012-05-30,28.6581
2012-05-31,28.8169
2012-06-01,27.9834
2012-06-04,27.5071
2012-06-05,28.0628
2012-06-06,28.7772
2012-06-07,28.2811
2012-06-08,28.5192
2012-06-11,28.291
2012-06-12,28.6879
2012-06-13,28.42
2012-06-14,28.3108
2012-06-15,28.3208
2012-06-18,28.678
2012-06-19,28.8368
2012-06-20,28.3009
2012-06-21,27.3483
2012-06-22,26.6338
2012-06-25,25.5423
2012-06-26,25.711
2012-06-27,25.5026
2012-06-28,25.1751
2012-06-29,25.2644
2012-07-02,25.056
2012-07-03,26.1079
2012-07-05,26.614
2012-07-06,26.2071
2012-07-09,26.4552
2012-07-10,26.3163
2012-07-11,25.9094
2012-07-12,26.0583
2012-07-13,26.6338
2012-07-16,26.4354
2012-07-17,26.7926
2012-07-18,26.9712
2012-07-19,26.991
2012-07-20,26.7727
2012-07-23,26.6834
2012-07-24,26.2964
2012-07-25,26.485
2012-07-26,26.743
2012-07-27,27.5269
2012-07-30,27.7353
2012-07-31,28.1322
2012-08-01,27.775
2012-08-02,27.2689
2012-08-03,28.0925
2012-08-06,28.8368
2012-08-07,28.8169
2012-08-08,28.4597
2012-08-09,28.7078
2012-08-10,28.3208
2012-08-13,28.4894
2012-08-14,28.4101
2012-08-15,28.2711
2012-08-16,29.0749
2012-08-17,29.2734
2012-08-20,29.1345
2012-08-21,29.0352
2012-08-22,29.0055
2012-08-23,28.8963
2012-08-24,28.9161
2012-08-27,29.3528
2012-08-28,30.2657
2012-08-29,29.9581
2012-08-30,29.5512
2012-08-31,30.1169
2012-09-04,29.7993
2012-09-05,29.7695
2012-09-06,30.6229
2012-09-07,30.9008
2012-09-10,30.5932
2012-09-11,30.8115
2012-09-12,30.7321
2012-09-13,30.4741
2012-09-14,31.5557
2012-09-17,31.387
2012-09-18,31.4565
2012-09-19,31.7542
2012-09-20,31.7443
2012-09-21,31.4565
2012-09-24,31.4069
2012-09-25,31.1389
2012-09-26,31.0992
2012-09-27,31.0199
2012-09-28,30.7122
2012-10-01,31.0496
2012-10-02,31.2878
2012-10-03,31.2977
2012-10-04,32.0023
2012-10-05,32.2305
2012-10-08,32.0122
2012-10-09,31.6153
2012-10-10,31.2382
2012-10-11,31.8137
2012-10-12,31.8336
2012-10-15,32.2206
2012-10-16,32.5183
2012-10-17,32.2404
2012-10-18,32.2305
2012-10-19,31.6748
2012-10-22,32.0816
2012-10-23,31.1191
2012-10-24,31.0992
2012-10-25,31.1687
2012-10-26,30.2756
2012-10-31,31.1588
2012-11-01,32.3396
2012-11-02,32.5679
2012-11-05,31.9427
2012-11-06,32.5679
2012-11-07,31.7839
2012-11-08,31.4763
2012-11-09,31.9824
2012-11-12,32.2404
2012-11-13,31.9129
2012-11-14,31.6053
2012-11-15,31.4664
2012-11-16,31.9129
2012-11-19,33.1434
2012-11-20,33.1236
2012-11-21,33.332
2012-11-23,33.7884
2012-11-26,33.1037
2012-11-27,33.1335
2012-11-28,33.3419
2012-11-29,33.709
2012-11-30,33.6892
2012-12-03,33.2724
2012-12-04,33.6495
2012-12-05,33.5304
2012-12-06,33.6693
2012-12-07,33.6892
2012-12-10,33.7686
2012-12-11,33.977
2012-12-12,34.1258
2012-12-13,34.0365
2012-12-14,33.977
2012-12-17,34.1258
2012-12-18,34.1357
2012-12-19,35.4258
2012-12-20,35.7532
2012-12-21,35.7036
2012-12-24,35.9814
2012-12-26,36.9242
2012-12-27,37.8669
2012-12-28,37.46
2012-12-31,37.9264
2013-01-02,38.5019
2013-01-03,38.0554
2013-01-04,38.1943
2013-01-07,37.8767
2013-01-08,37.8569
2013-01-09,38.1447
2013-01-10,38.5019
2013-01-11,37.7775
2013-01-14,37.2913
2013-01-15,37.9859
2013-01-16,38.0157
2013-01-17,38.7103
2013-01-18,38.5118
2013-01-22,38.5019
2013-01-23,38.3134
2013-01-24,38.5515
2013-01-25,38.9286
2013-01-28,39.5238
2013-01-29,39.3256
2013-01-30,38.5615
2013-01-31,38.3531
2013-02-01,38.8889
2013-02-04,38.4722
2013-02-05,38.9981
2013-02-06,38.234
2013-02-07,37.9462
2013-02-08,38.1943
2013-02-11,38.879
2013-02-12,39.4843
2013-02-13,39.6431
2013-02-14,39.663
2013-02-15,39.663
2013-02-19,39.4248
2013-02-20,38.4821
2013-02-21,37.5989
2013-02-22,38.0057
2013-02-25,37.8569
2013-02-26,39.4298
2013-02-27,41.4491
2013-02-28,41.5087
2013-03-01,41.8907
2013-03-04,41.9452
2013-03-05,42.1437
2013-03-06,42.0246
2013-03-07,42.4811
2013-03-08,42.62
2013-03-11,42.8284
2013-03-12,42.6796
2013-03-13,43.0382
2013-03-14,43.0482
2013-03-15,43.1877
2013-03-18,42.5999
2013-03-19,42.9187
2013-03-20,43.1677
2013-03-21,43.2176
2013-03-22,42.9984
2013-03-25,42.839
2013-03-26,44.2636
2013-03-27,44.3533
2013-03-28,44.2138
2013-04-01,43.7954
2013-04-02,43.9349
2013-04-03,43.1976
2013-04-04,43.088
2013-04-05,42.5899
2013-04-08,42.3209
2013-04-09,42.3707
2013-04-10,43.4467
2013-04-11,44.1042
2013-04-12,44.692
2013-04-15,42.2512
2013-04-16,43.4467
2013-04-17,41.763
2013-04-18,40.8265
2013-04-19,41.7033
2013-04-22,42.0221
2013-04-23,42.7593
2013-04-24,43.6161
2013-04-25,44.4928
2013-04-26,44.5725
2013-04-29,45.1802
2013-04-30,45.8875
2013-05-01,45.3296
2013-05-02,45.23
2013-05-03,45.5588
2013-05-06,46.0569
2013-05-07,46.1366
2013-05-08,45.9174
2013-05-09,45.0606
2013-05-10,45.23
2013-05-13,45.56
2013-05-14,46.33
2013-05-15,46.51
2013-05-16,46.99
2013-05-17,48.54
2013-05-20,48.76
2013-05-21,49.06
2013-05-22,48.78
2013-05-23,48.33
2013-05-24,48.01
2013-05-28,49.87
2013-05-29,49.61
2013-05-30,49.31
2013-05-31,48.83
2013-06-03,48.9
2013-06-04,48.75
2013-06-05,48.12
2013-06-06,49.29
2013-06-07,50.39
2013-06-10,50.61
2013-06-11,49.93
2013-06-12,50.03
2013-06-13,50.95
2013-06-14,51.21
2013-06-17,51.19
2013-06-18,51.91
2013-06-19,52.19
2013-06-20,50.28
2013-06-21,49.68
2013-06-24,48.18
2013-06-25,49.03
2013-06-26,50.65
2013-06-27,50.99
2013-06-28,50.84
2013-07-01,51.99
2013-07-02,51.94
2013-07-03,51.62
2013-07-05,52.38
2013-07-08,53.63
2013-07-09,53.79
2013-07-10,53.76
2013-07-11,54.78
2013-07-12,54.93
2013-07-15,54.99
2013-07-16,54.0
2013-07-17,54.4
2013-07-18,55.03
2013-07-19,54.86
2013-07-22,55.07
2013-07-23,54.64
2013-07-24,55.47
2013-07-25,55.53
2013-07-26,55.69
2013-07-29,55.18
2013-07-30,55.35
2013-07-31,53.71
2013-08-01,55.45
2013-08-02,55.86
2013-08-05,55.9
2013-08-06,55.58
2013-08-07,54.94
2013-08-08,55.56
2013-08-09,55.56
