date,close_price
1998-01-02,18.0867
1998-01-05,18.0
1998-01-06,17.8333
1998-01-07,17.5
1998-01-08,17.0
1998-01-09,16.2933
1998-01-12,15.8333
1998-01-13,16.2067
1998-01-14,16.5
1998-01-15,16.5867
1998-01-16,16.6267
1998-01-20,16.6267
1998-01-21,16.5867
1998-01-22,16.54
1998-01-23,16.54
1998-01-26,16.1667
1998-01-27,15.46
1998-01-28,15.2533
1998-01-29,16.1267
1998-01-30,16.2533
1998-02-02,17.3333
1998-02-03,19.1667
1998-02-04,19.7933
1998-02-05,19.46
1998-02-06,19.54
1998-02-09,19.42
1998-02-10,19.2933
1998-02-11,19.3333
1998-02-12,19.3333
1998-02-13,19.92
1998-02-17,19.6667
1998-02-18,19.7933
1998-02-19,19.7533
1998-02-20,20.6667
1998-02-23,20.7067
1998-02-24,20.46
1998-02-25,20.2933
1998-02-26,20.6667
1998-02-27,21.3733
1998-03-02,22.46
1998-03-03,23.1267
1998-03-04,21.7933
1998-03-05,21.54
1998-03-06,21.5867
1998-03-09,21.96
1998-03-10,22.2067
1998-03-11,22.0867
1998-03-12,23.3733
1998-03-13,23.6267
1998-03-16,23.7933
1998-03-17,23.0
1998-03-18,22.0867
1998-03-19,22.6667
1998-03-20,22.2533
1998-03-23,22.2067
1998-03-24,22.7533
1998-03-25,22.2533
1998-03-26,21.96
1998-03-27,21.6267
1998-03-30,21.46
1998-03-31,22.2067
1998-04-01,21.7533
1998-04-02,22.2533
1998-04-03,22.1667
1998-04-06,21.3733
1998-04-07,21.0
1998-04-08,20.7533
1998-04-09,21.2067
1998-04-13,21.5867
1998-04-14,21.3733
1998-04-15,21.42
1998-04-16,21.5867
1998-04-17,21.5
1998-04-20,21.04
1998-04-21,21.2067
1998-04-22,20.7067
1998-04-23,20.6667
1998-04-24,20.46
1998-04-27,20.3733
1998-04-28,20.1667
1998-04-29,20.54
1998-04-30,22.0867
1998-05-01,21.7933
1998-05-04,22.04
1998-05-05,22.04
1998-05-06,21.7067
1998-05-07,21.5867
1998-05-08,21.2067
1998-05-11,20.6267
1998-05-12,20.2067
1998-05-13,21.0
1998-05-14,21.0867
1998-05-15,20.6667
1998-05-18,20.42
1998-05-19,20.46
1998-05-20,20.3333
1998-05-21,21.2067
1998-05-22,21.3333
1998-05-26,21.0867
1998-05-27,20.7933
1998-05-28,20.5
1998-05-29,20.46
1998-06-01,20.42
1998-06-02,20.3733
1998-06-03,20.8333
1998-06-04,20.92
1998-06-05,21.2067
1998-06-08,21.8733
1998-06-09,22.0
1998-06-10,21.8333
1998-06-11,21.3333
1998-06-12,22.0
1998-06-15,21.96
1998-06-16,22.0
1998-06-17,22.1667
1998-06-18,21.92
1998-06-19,21.7533
1998-06-22,22.2933
1998-06-23,23.1667
1998-06-24,24.0
1998-06-25,23.5867
1998-06-26,23.5867
1998-06-29,23.54
1998-06-30,23.2067
1998-07-01,22.46
1998-07-02,22.6667
1998-07-06,23.3333
1998-07-07,22.54
1998-07-08,22.3333
1998-07-09,22.3333
1998-07-10,21.96
1998-07-13,21.1667
1998-07-14,21.8333
1998-07-15,22.04
1998-07-16,22.2067
1998-07-17,22.0
1998-07-20,22.54
1998-07-21,22.2933
1998-07-22,22.0
1998-07-23,21.2933
1998-07-24,20.8733
1998-07-27,20.7067
1998-07-28,21.04
1998-07-29,21.5
1998-07-30,21.0867
1998-07-31,20.2933
1998-08-03,19.7533
1998-08-04,16.5867
1998-08-05,17.1667
1998-08-06,16.42
1998-08-07,17.5867
1998-08-10,17.1667
1998-08-11,16.8733
1998-08-12,17.6667
1998-08-13,17.2067
1998-08-14,17.3733
1998-08-17,17.2933
1998-08-18,17.3333
1998-08-19,16.6667
1998-08-20,16.04
1998-08-21,15.7933
1998-08-24,14.8733
1998-08-25,14.2067
1998-08-26,13.5
1998-08-27,12.6667
1998-08-28,12.96
1998-08-31,12.6267
1998-09-01,13.2533
1998-09-02,13.3333
1998-09-03,14.0
1998-09-04,15.2067
1998-09-08,16.2933
1998-09-09,16.3333
1998-09-10,15.42
1998-09-11,15.8733
1998-09-14,15.2933
1998-09-15,15.42
1998-09-16,16.04
1998-09-17,16.2067
1998-09-18,16.7933
1998-09-21,16.96
1998-09-22,17.2933
1998-09-23,18.3733
1998-09-24,18.7067
1998-09-25,18.0
1998-09-28,18.0
1998-09-29,17.1667
1998-09-30,15.92
1998-10-01,14.04
1998-10-02,13.0
1998-10-05,13.42
1998-10-06,14.2067
1998-10-07,14.8333
1998-10-08,15.1267
1998-10-09,14.6267
1998-10-12,14.46
1998-10-13,14.6267
1998-10-14,14.6267
1998-10-15,14.3333
1998-10-16,15.8733
1998-10-19,16.0867
1998-10-20,16.5
1998-10-21,15.96
1998-10-22,15.46
1998-10-23,14.8333
1998-10-26,14.5867
1998-10-27,15.5867
1998-10-28,15.7533
1998-10-29,15.96
1998-10-30,16.2933
1998-11-02,16.5
1998-11-03,17.7067
1998-11-04,19.7933
1998-11-05,19.5
1998-11-06,20.1267
1998-11-09,18.2533
1998-11-10,18.96
1998-11-11,17.7533
1998-11-12,17.46
1998-11-13,17.8333
1998-11-16,18.2933
1998-11-17,17.8733
1998-11-18,17.96
1998-11-19,18.3333
1998-11-20,18.1267
1998-11-23,17.6667
1998-11-24,17.6667
1998-11-25,17.54
1998-11-27,17.7533
1998-11-30,17.6667
1998-12-01,17.5
1998-12-02,17.3333
1998-12-03,16.6667
1998-12-04,17.3733
1998-12-07,17.8333
1998-12-08,17.46
1998-12-09,16.92
1998-12-10,16.54
1998-12-11,16.1667
1998-12-14,14.96
1998-12-15,15.1267
1998-12-16,15.2067
1998-12-17,16.1667
1998-12-18,15.96
1998-12-21,16.42
1998-12-22,16.7533
1998-12-23,16.54
1998-12-24,17.42
1998-12-28,18.1267
1998-12-29,18.04
1998-12-30,18.8333
1998-12-31,19.42
1999-01-04,18.6667
1999-01-05,18.0
1999-01-06,16.7533
1999-01-07,17.1667
1999-01-08,17.0867
1999-01-11,16.42
1999-01-12,16.5
1999-01-13,16.8733
1999-01-14,16.6267
1999-01-15,17.0
1999-01-19,16.6667
1999-01-20,15.92
1999-01-21,15.6667
1999-01-22,16.1267
1999-01-25,15.6267
1999-01-26,15.2933
1999-01-27,15.1267
1999-01-28,15.0
1999-01-29,15.6267
1999-02-01,16.0867
1999-02-02,16.0
1999-02-03,16.2533
1999-02-04,15.8333
1999-02-05,15.2067
1999-02-08,14.96
1999-02-09,14.7533
1999-02-10,14.3733
1999-02-11,14.2533
1999-02-12,13.0867
1999-02-16,13.96
1999-02-17,14.0
1999-02-18,5.96
1999-02-19,6.04
1999-02-22,6.58667
1999-02-23,6.25334
1999-02-24,5.75334
1999-02-25,5.96
1999-02-26,5.96
1999-03-01,5.92
1999-03-02,5.79334
1999-03-03,5.5
1999-03-04,5.04
1999-03-05,5.62667
1999-03-08,5.54
1999-03-09,5.79334
1999-03-10,6.29334
1999-03-11,6.0
1999-03-12,6.16667
1999-03-15,6.16667
1999-03-16,6.42
1999-03-17,7.20667
1999-03-18,6.79334
1999-03-19,7.37334
1999-03-22,7.58667
1999-03-23,7.08667
1999-03-24,7.16667
1999-03-25,7.58667
1999-03-26,7.29334
1999-03-29,6.96
1999-03-30,6.92
1999-03-31,7.29334
1999-04-01,7.12667
1999-04-05,7.25334
1999-04-06,6.87334
1999-04-07,6.66667
1999-04-08,6.54
1999-04-09,7.0
1999-04-12,7.0
1999-04-13,7.0
1999-04-14,7.0
1999-04-15,7.08667
1999-04-16,7.25334
1999-04-19,6.96
1999-04-20,7.0
1999-04-21,7.29334
1999-04-22,7.42
1999-04-23,8.96
1999-04-26,9.29334
1999-04-27,9.42
1999-04-28,9.08667
1999-04-29,9.66667
1999-04-30,9.29334
1999-05-03,9.33334
1999-05-04,9.46
1999-05-05,9.54
1999-05-06,9.75334
1999-05-07,9.66667
1999-05-10,10.0
1999-05-11,9.66667
1999-05-12,10.42
1999-05-13,10.5867
1999-05-14,10.3333
1999-05-17,9.96
1999-05-18,9.87334
1999-05-19,9.96
1999-05-20,10.42
1999-05-21,10.3333
1999-05-24,10.0867
1999-05-25,9.83334
1999-05-26,9.96
1999-05-27,10.2533
1999-05-28,10.2933
1999-06-01,10.0
1999-06-02,9.92
1999-06-03,9.96
1999-06-04,10.0
1999-06-07,9.96
1999-06-08,9.87334
1999-06-09,9.79334
1999-06-10,9.70667
1999-06-11,10.0
1999-06-14,9.92
1999-06-15,9.5
1999-06-16,9.75334
1999-06-17,9.66667
1999-06-18,9.83334
1999-06-21,9.83334
1999-06-22,9.70667
1999-06-23,9.62667
1999-06-24,9.29334
1999-06-25,9.37334
1999-06-28,9.62667
1999-06-29,9.83334
1999-06-30,10.5
1999-07-01,10.1267
1999-07-02,10.04
1999-07-06,9.87334
1999-07-07,9.58667
1999-07-08,9.42
1999-07-09,9.5
1999-07-12,9.29334
1999-07-13,9.25334
1999-07-14,9.0
1999-07-15,9.04
1999-07-16,8.5
1999-07-19,5.79334
1999-07-20,5.54
1999-07-21,6.12667
1999-07-22,6.58667
1999-07-23,6.33334
1999-07-26,6.16667
1999-07-27,6.0
1999-07-28,5.83334
1999-07-29,5.58667
1999-07-30,5.58667
1999-08-02,5.66667
1999-08-03,5.54
1999-08-04,5.25334
1999-08-05,5.37334
1999-08-06,5.46
1999-08-09,5.29334
1999-08-10,5.70667
1999-08-11,5.42
1999-08-12,5.42
1999-08-13,5.46
1999-08-16,5.70667
1999-08-17,5.87334
1999-08-18,5.92
1999-08-19,5.83334
1999-08-20,6.0
1999-08-23,5.83334
1999-08-24,5.62667
1999-08-25,5.66667
1999-08-26,5.54
1999-08-27,5.58667
1999-08-30,5.54
1999-08-31,5.42
1999-09-01,5.25334
1999-09-02,5.16667
1999-09-03,5.37334
1999-09-07,5.37334
1999-09-08,5.20667
1999-09-09,5.29334
1999-09-10,5.29334
1999-09-13,5.29334
1999-09-14,5.37334
1999-09-15,5.66667
1999-09-16,5.42
1999-09-17,5.46
1999-09-20,5.29334
1999-09-21,5.25334
1999-09-22,5.08667
1999-09-23,5.0
1999-09-24,5.0
1999-09-27,5.0
1999-09-28,5.04
1999-09-29,4.75334
1999-09-30,4.92
1999-10-01,4.75334
1999-10-04,4.33334
1999-10-05,3.96
1999-10-06,4.5
1999-10-07,4.04
1999-10-08,3.92
1999-10-11,4.0
1999-10-12,4.0
1999-10-13,3.87334
1999-10-14,4.0
1999-10-15,4.0
1999-10-18,4.79334
1999-10-19,5.29334
1999-10-20,5.46
1999-10-21,5.62667
1999-10-22,5.70667
1999-10-25,5.33334
1999-10-26,5.29334
1999-10-27,5.33334
1999-10-28,5.12667
1999-10-29,4.92
1999-11-01,5.25334
1999-11-02,5.33334
1999-11-03,5.25334
1999-11-04,5.08667
1999-11-05,5.0
1999-11-08,5.0
1999-11-09,4.79334
1999-11-10,4.58667
1999-11-11,4.29334
1999-11-12,4.58667
1999-11-15,4.66667
1999-11-16,4.66667
1999-11-17,4.66667
1999-11-18,4.66667
1999-11-19,4.66667
1999-11-22,4.79334
1999-11-23,4.92
1999-11-24,4.66667
1999-11-26,4.66667
1999-11-29,4.70667
1999-11-30,4.75334
1999-12-01,4.33334
1999-12-02,4.66667
1999-12-03,4.66667
1999-12-06,4.66667
1999-12-07,4.5
1999-12-08,4.54
1999-12-09,4.46
1999-12-10,4.46
1999-12-13,4.62667
1999-12-14,4.58667
1999-12-15,4.54
1999-12-16,4.42
1999-12-17,4.42
1999-12-20,4.20667
1999-12-21,4.08667
1999-12-22,4.04
1999-12-23,4.16667
1999-12-27,4.08667
1999-12-28,4.16667
1999-12-29,4.12667
1999-12-30,4.20667
1999-12-31,4.46
2000-01-03,4.58667
2000-01-04,4.46
2000-01-05,4.16667
2000-01-06,4.0
2000-01-07,4.37334
2000-01-10,4.54
2000-01-11,4.5
2000-01-12,4.37334
2000-01-13,4.62667
2000-01-14,4.83334
2000-01-18,4.83334
2000-01-19,3.29333
2000-01-20,3.54
2000-01-21,3.83334
2000-01-24,3.37333
2000-01-25,3.33333
2000-01-26,3.29333
2000-01-27,3.12667
2000-01-28,3.04
2000-01-31,3.08667
2000-02-01,3.04
2000-02-02,3.08667
2000-02-03,3.0
2000-02-04,2.92
2000-02-07,2.96
2000-02-08,2.92
2000-02-09,2.79333
2000-02-10,2.66667
2000-02-11,2.75333
2000-02-14,2.46
2000-02-15,2.58667
2000-02-16,2.62667
2000-02-17,2.62667
2000-02-18,2.54
2000-02-22,2.58667
2000-02-23,2.58667
2000-02-24,2.58667
2000-02-25,2.37333
2000-02-28,2.04
2000-02-29,2.04
2000-03-01,2.0
2000-03-02,2.0
2000-03-03,2.0
2000-03-06,2.37333
2000-03-07,2.33333
2000-03-08,2.29333
2000-03-09,2.20667
2000-03-10,2.12667
2000-03-13,1.92
2000-03-14,2.0
2000-03-15,1.83333
2000-03-16,1.87333
2000-03-17,1.87333
2000-03-20,1.75333
2000-03-21,1.70667
2000-03-22,1.70667
2000-03-23,1.79333
2000-03-24,1.96
2000-03-27,1.79333
2000-03-28,1.75333
2000-03-29,1.79333
2000-03-30,1.92
2000-03-31,2.12667
2000-04-03,2.0
2000-04-04,2.04
2000-04-05,2.04
2000-04-06,2.12667
2000-04-07,2.08667
2000-04-10,2.33333
2000-04-11,2.92
2000-04-12,2.33333
2000-04-13,2.20667
2000-04-14,1.75333
2000-04-17,1.87333
2000-04-18,2.0
2000-04-19,2.08667
2000-04-20,1.96
2000-04-24,1.92
2000-04-25,1.79333
2000-04-26,1.83333
2000-04-27,1.83333
2000-04-28,1.96
2000-05-01,2.0
2000-05-02,1.96
2000-05-03,1.96
2000-05-04,1.87333
2000-05-05,1.92
2000-05-08,1.79333
2000-05-09,1.75333
2000-05-10,1.83333
2000-05-11,2.62667
2000-05-12,2.75333
2000-05-15,2.87333
2000-05-16,2.92
2000-05-17,2.83333
2000-05-18,2.87333
2000-05-19,2.83333
2000-05-22,2.70667
2000-05-23,2.46
2000-05-24,2.42
2000-05-25,2.42
2000-05-26,2.58667
2000-05-30,2.75333
2000-05-31,2.62667
2000-06-01,2.62667
2000-06-02,2.62667
2000-06-05,2.66667
2000-06-06,2.75333
2000-06-07,2.96
2000-06-08,2.75333
2000-06-09,2.62667
2000-06-12,2.58667
2000-06-13,2.83333
2000-06-14,3.33333
2000-06-15,3.62667
2000-06-16,3.54
2000-06-19,3.92
2000-06-20,3.66667
2000-06-21,3.54
2000-06-22,3.66667
2000-06-23,3.66667
2000-06-26,3.62667
2000-06-27,3.83334
2000-06-28,3.83334
2000-06-29,3.75334
2000-06-30,3.92
2000-07-03,4.08667
2000-07-05,4.29334
2000-07-06,4.5
2000-07-07,4.58667
2000-07-10,5.0
2000-07-11,4.66667
2000-07-12,4.79334
2000-07-13,4.92
2000-07-14,4.92
2000-07-17,5.04
2000-07-18,5.0
2000-07-19,4.92
2000-07-20,4.96
2000-07-21,4.79334
2000-07-24,4.46
2000-07-25,4.20667
2000-07-26,4.16667
2000-07-27,4.08667
2000-07-28,4.20667
2000-07-31,5.0
2000-08-01,5.0
2000-08-02,5.0
2000-08-03,4.92
2000-08-04,4.96
2000-08-07,4.87334
2000-08-08,4.79334
2000-08-09,4.58667
2000-08-10,4.29334
2000-08-11,4.46
2000-08-14,4.5
2000-08-15,4.25334
2000-08-16,4.33334
2000-08-17,4.25334
2000-08-18,4.25334
2000-08-21,4.33334
2000-08-22,4.37334
2000-08-23,4.16667
2000-08-24,4.12667
2000-08-25,4.08667
2000-08-28,4.20667
2000-08-29,4.29334
2000-08-30,4.54
2000-08-31,4.58667
2000-09-01,4.5
2000-09-05,4.5
2000-09-06,4.29334
2000-09-07,4.33334
2000-09-08,4.29334
2000-09-11,4.33334
2000-09-12,4.33334
2000-09-13,4.66667
2000-09-14,4.70667
2000-09-15,4.75334
2000-09-18,4.5
2000-09-19,4.58667
2000-09-20,4.5
2000-09-21,4.33334
2000-09-22,4.33334
2000-09-25,4.37334
2000-09-26,4.20667
2000-09-27,4.20667
2000-09-28,4.58667
2000-09-29,4.62667
2000-10-02,5.42
2000-10-03,5.58667
2000-10-04,5.5
2000-10-05,6.33334
2000-10-06,6.87334
2000-10-09,6.83334
2000-10-10,7.16667
2000-10-11,6.92
2000-10-12,6.54
2000-10-13,6.58667
2000-10-16,6.62667
2000-10-17,6.62667
2000-10-18,7.16667
2000-10-19,7.04
2000-10-20,7.12667
2000-10-23,7.08667
2000-10-24,7.20667
2000-10-25,7.12667
2000-10-26,7.29334
2000-10-27,7.58667
2000-10-30,7.58667
2000-10-31,7.5
2000-11-01,7.08667
2000-11-02,7.37334
2000-11-03,7.62667
2000-11-06,7.42
2000-11-07,7.92
2000-11-08,7.96
2000-11-09,8.0
2000-11-10,7.66667
2000-11-13,7.29334
2000-11-14,7.75334
2000-11-15,7.70667
2000-11-16,7.54
2000-11-17,7.62667
2000-11-20,7.29334
2000-11-21,7.29334
2000-11-22,7.08667
2000-11-24,7.42
2000-11-27,7.29334
2000-11-28,7.25334
2000-11-29,7.33334
2000-11-30,7.0
2000-12-01,7.33334
2000-12-04,7.33334
2000-12-05,7.46
2000-12-06,8.12667
2000-12-07,8.79334
2000-12-08,8.70667
2000-12-11,9.29334
2000-12-12,9.25334
2000-12-13,9.04
2000-12-14,9.12667
2000-12-15,8.70667
2000-12-18,9.33334
2000-12-19,10.3333
2000-12-20,10.1267
2000-12-21,10.1267
2000-12-22,10.6267
2000-12-26,10.92
2000-12-27,10.96
2000-12-28,11.5867
2000-12-29,11.54
2001-01-02,10.5867
2001-01-03,11.7533
2001-01-04,11.0867
2001-01-05,11.2067
2001-01-08,11.1667
2001-01-09,11.5867
2001-01-10,11.8733
2001-01-11,12.1667
2001-01-12,12.0
2001-01-16,12.3733
2001-01-17,12.3333
2001-01-18,11.1267
2001-01-19,10.7067
2001-01-22,11.2533
2001-01-23,11.2933
2001-01-24,11.46
2001-01-25,11.42
2001-01-26,11.6267
2001-01-29,12.4667
2001-01-30,12.2533
2001-01-31,13.0
2001-02-01,12.96
2001-02-02,12.4933
2001-02-05,10.3467
2001-02-06,10.9
2001-02-07,10.8333
2001-02-08,10.6333
2001-02-09,10.02
2001-02-12,9.74
2001-02-13,10.1733
2001-02-14,10.04
2001-02-15,10.1
2001-02-16,10.4667
2001-02-20,10.3333
2001-02-21,10.2
2001-02-22,10.62
2001-02-23,10.7
2001-02-26,11.28
2001-02-27,11.64
2001-02-28,11.72
2001-03-01,11.76
2001-03-02,11.5333
2001-03-05,11.5
2001-03-06,11.4667
2001-03-07,11.4
2001-03-08,11.34
2001-03-09,11.1867
2001-03-12,11.0
2001-03-13,11.12
2001-03-14,11.1267
2001-03-15,11.1867
2001-03-16,10.66
2001-03-19,10.62
2001-03-20,10.56
2001-03-21,10.7
2001-03-22,10.1333
2001-03-23,10.6667
2001-03-26,10.9333
2001-03-27,10.9067
2001-03-28,10.8
2001-03-29,11.16
2001-03-30,11.3333
2001-04-02,11.1867
2001-04-03,10.9333
2001-04-04,10.8
2001-04-05,11.3267
2001-04-06,10.9933
2001-04-09,11.2067
2001-04-10,11.06
2001-04-11,11.1
2001-04-12,11.0667
2001-04-16,11.0333
2001-04-17,11.0867
2001-04-18,11.0
2001-04-19,11.0333
2001-04-20,10.8533
2001-04-23,10.8
2001-04-24,10.8533
2001-04-25,10.9867
2001-04-26,11.4
2001-04-27,11.5667
2001-04-30,11.68
2001-05-01,11.7333
2001-05-02,11.8667
2001-05-03,11.7933
2001-05-04,11.7933
2001-05-07,12.8667
2001-05-08,13.1133
2001-05-09,13.4133
2001-05-10,12.9667
2001-05-11,12.5133
2001-05-14,12.3867
2001-05-15,12.4533
2001-05-16,12.6133
2001-05-17,12.9133
2001-05-18,13.0467
2001-05-21,12.3333
2001-05-22,12.2
2001-05-23,12.4067
2001-05-24,12.4133
2001-05-25,12.18
2001-05-29,12.1667
2001-05-30,12.58
2001-05-31,12.62
2001-06-01,12.7333
2001-06-04,12.8
2001-06-05,12.8067
2001-06-06,12.74
2001-06-07,12.5067
2001-06-08,12.5333
2001-06-11,12.2067
2001-06-12,12.1667
2001-06-13,12.3
2001-06-14,12.0
2001-06-15,12.12
2001-06-18,12.1533
2001-06-19,12.6067
2001-06-20,12.6667
2001-06-21,12.5667
2001-06-22,12.5933
2001-06-25,12.5733
2001-06-26,12.4067
2001-06-27,12.6933
2001-06-28,13.1267
2001-06-29,13.5467
2001-07-02,13.5733
2001-07-03,13.9933
2001-07-05,13.8733
2001-07-06,13.6533
2001-07-09,13.9467
2001-07-10,14.1333
2001-07-11,14.08
2001-07-12,14.1133
2001-07-13,13.96
2001-07-16,14.4067
2001-07-17,14.5
2001-07-18,14.9
2001-07-19,14.7933
2001-07-20,14.64
2001-07-23,14.8933
2001-07-24,14.0733
2001-07-25,13.7333
2001-07-26,14.1667
2001-07-27,14.3867
2001-07-30,14.6133
2001-07-31,14.2933
2001-08-01,14.64
2001-08-02,13.3067
2001-08-03,13.4133
2001-08-06,13.5867
2001-08-07,13.2533
2001-08-08,13.3067
2001-08-09,13.0867
2001-08-10,13.1267
2001-08-13,13.3067
2001-08-14,13.82
2001-08-15,13.7067
2001-08-16,13.5667
2001-08-17,13.6
2001-08-20,13.9333
2001-08-21,13.7533
2001-08-22,14.1333
2001-08-23,14.1933
2001-08-24,13.6533
2001-08-27,13.8667
2001-08-28,13.8133
2001-08-29,14.0
2001-08-30,13.9333
2001-08-31,13.8
2001-09-04,13.9333
2001-09-05,13.9133
2001-09-06,13.6
2001-09-07,13.32
2001-09-10,13.3333
2001-09-17,12.7267
2001-09-18,12.5
2001-09-19,12.5667
2001-09-20,12.2133
2001-09-21,12.2667
2001-09-24,12.2667
2001-09-25,13.0533
2001-09-26,12.66
2001-09-27,13.3667
2001-09-28,13.5667
2001-10-01,13.4
2001-10-02,13.4
2001-10-03,13.0933
2001-10-04,12.66
2001-10-05,12.6533
2001-10-08,12.3067
2001-10-09,12.04
2001-10-10,12.0267
2001-10-11,11.8
2001-10-12,11.9933
2001-10-15,12.4667
2001-10-16,12.5
2001-10-17,11.8933
2001-10-18,12.0533
2001-10-19,12.4333
2001-10-22,12.5333
2001-10-23,11.5733
2001-10-24,11.4933
2001-10-25,11.3667
2001-10-26,11.9333
2001-10-29,11.7667
2001-10-30,11.6133
2001-10-31,12.0133
2001-11-01,12.4
2001-11-02,12.0733
2001-11-05,12.6667
2001-11-06,13.1667
2001-11-07,13.0067
2001-11-08,12.6667
2001-11-09,13.0
2001-11-12,13.44
2001-11-13,14.0067
2001-11-14,14.0733
2001-11-15,14.0667
2001-11-16,14.0
2001-11-19,14.6533
2001-11-20,14.6333
2001-11-21,14.7133
2001-11-23,14.8
2001-11-26,14.8
2001-11-27,14.6733
2001-11-28,14.6
2001-11-29,14.7667
2001-11-30,15.14
2001-12-03,15.3333
2001-12-04,15.4667
2001-12-05,15.6
2001-12-06,15.42
2001-12-07,15.06
2001-12-10,14.76
2001-12-11,15.0733
2001-12-12,14.8333
2001-12-13,14.8267
2001-12-14,15.2667
2001-12-17,15.36
2001-12-18,15.8267
2001-12-19,15.8
2001-12-20,15.98
2001-12-21,16.0
2001-12-24,16.0333
2001-12-26,16.0067
2001-12-27,16.0467
2001-12-28,16.02
2001-12-31,16.3
2002-01-02,15.7933
2002-01-03,15.1667
2002-01-04,14.76
2002-01-07,14.8067
2002-01-08,14.6333
2002-01-09,15.0733
2002-01-10,15.3333
2002-01-11,15.4667
2002-01-14,15.2333
2002-01-15,15.6333
2002-01-16,15.76
2002-01-17,15.7333
2002-01-18,15.6
2002-01-22,15.8267
2002-01-23,15.7133
2002-01-24,15.9667
2002-01-25,15.8533
2002-01-28,15.6867
2002-01-29,15.7333
2002-01-30,15.7133
2002-01-31,16.2667
2002-02-01,16.06
2002-02-04,15.9867
2002-02-05,16.0
2002-02-06,15.94
2002-02-07,15.5933
2002-02-08,15.5333
2002-02-11,15.6
2002-02-12,16.1333
2002-02-13,16.12
2002-02-14,16.2733
2002-02-15,16.08
2002-02-19,15.9933
2002-02-20,15.9333
2002-02-21,15.5333
2002-02-22,15.5133
2002-02-25,15.3733
2002-02-26,15.6733
2002-02-27,15.2867
2002-02-28,14.86
2002-03-01,15.3533
2002-03-04,15.02
2002-03-05,14.3733
2002-03-06,14.9333
2002-03-07,14.6733
2002-03-08,14.6133
2002-03-11,14.6
2002-03-12,14.6533
2002-03-13,14.9267
2002-03-14,15.2867
2002-03-15,16.9667
2002-03-18,17.3667
2002-03-19,16.9067
2002-03-20,17.2
2002-03-21,16.8667
2002-03-22,16.8667
2002-03-25,16.7
2002-03-26,16.7667
2002-03-27,16.8267
2002-03-28,16.84
2002-04-01,16.9467
2002-04-02,16.6467
2002-04-03,16.7067
2002-04-04,16.8333
2002-04-05,16.8
2002-04-08,16.88
2002-04-09,16.8533
2002-04-10,16.8733
2002-04-11,16.78
2002-04-12,16.7467
2002-04-15,16.78
2002-04-16,16.7467
2002-04-17,16.6467
2002-04-18,16.7333
2002-04-19,17.3133
2002-04-22,17.24
2002-04-23,17.26
2002-04-24,17.2
2002-04-25,17.2733
2002-04-26,17.2
2002-04-29,17.1867
2002-04-30,17.3267
2002-05-01,17.4
2002-05-02,17.28
2002-05-03,17.1
2002-05-06,17.1
2002-05-07,17.1333
2002-05-08,15.4
2002-05-09,14.9333
2002-05-10,13.6733
2002-05-13,14.06
2002-05-14,14.4533
2002-05-15,14.92
2002-05-16,14.62
2002-05-17,14.6667
2002-05-20,14.5267
2002-05-21,14.4333
2002-05-22,14.5733
2002-05-23,14.6067
2002-05-24,14.8333
2002-05-28,15.0933
2002-05-29,15.02
2002-05-30,15.4933
2002-05-31,15.44
2002-06-03,15.4133
2002-06-04,15.1133
2002-06-05,15.3933
2002-06-06,15.6333
2002-06-07,15.8733
2002-06-10,15.76
2002-06-11,15.8333
2002-06-12,15.8333
2002-06-13,15.7333
2002-06-14,15.7467
2002-06-17,15.9333
2002-06-18,16.1333
2002-06-19,16.6933
2002-06-20,16.3
2002-06-21,16.0733
2002-06-24,16.0333
2002-06-25,15.4733
2002-06-26,15.8933
2002-06-27,15.78
2002-06-28,15.8333
2002-07-01,15.8133
2002-07-02,15.5867
2002-07-03,15.24
2002-07-05,15.5
2002-07-08,15.3333
2002-07-09,15.0
2002-07-10,14.4933
2002-07-11,14.2667
2002-07-12,14.0333
2002-07-15,13.7867
2002-07-16,13.7467
2002-07-17,13.86
2002-07-18,13.68
2002-07-19,13.4667
2002-07-22,12.9733
2002-07-23,13.2133
2002-07-24,14.0
2002-07-25,14.0333
2002-07-26,14.32
2002-07-29,14.8067
2002-07-30,14.6467
2002-07-31,15.68
2002-08-01,15.3267
2002-08-02,15.0733
2002-08-05,14.6133
2002-08-06,14.8
2002-08-07,14.0
2002-08-08,14.8267
2002-08-09,14.76
2002-08-12,14.8267
2002-08-13,14.8733
2002-08-14,15.1333
2002-08-15,15.2467
2002-08-16,15.0667
2002-08-19,15.26
2002-08-20,15.3
2002-08-21,15.2333
2002-08-22,15.2467
2002-08-23,15.1
2002-08-26,15.1267
2002-08-27,14.5667
2002-08-28,14.6933
2002-08-29,14.8
2002-08-30,14.72
2002-09-03,14.56
2002-09-04,14.7867
2002-09-05,14.7733
2002-09-06,14.94
2002-09-09,15.1333
2002-09-10,15.1533
2002-09-11,15.2667
2002-09-12,15.04
2002-09-13,15.1867
2002-09-16,15.2933
2002-09-17,15.2133
2002-09-18,15.2333
2002-09-19,15.3333
2002-09-20,15.58
2002-09-23,15.46
2002-09-24,15.38
2002-09-25,15.6
2002-09-26,15.9667
2002-09-27,15.8733
2002-09-30,15.7067
2002-10-01,15.8333
2002-10-02,15.78
2002-10-03,15.6667
2002-10-04,15.7333
2002-10-07,15.6467
2002-10-08,15.3067
2002-10-09,15.2933
2002-10-10,15.12
2002-10-11,15.3867
2002-10-14,15.32
2002-10-15,15.5467
2002-10-16,15.4933
2002-10-17,15.6533
2002-10-18,16.2
2002-10-21,16.2267
2002-10-22,16.3867
2002-10-23,16.4067
2002-10-24,16.44
2002-10-25,16.6067
2002-10-28,16.1333
2002-10-29,16.2667
2002-10-30,16.14
2002-10-31,15.9667
2002-11-01,16.3333
2002-11-04,16.3
2002-11-05,16.4067
2002-11-06,16.8867
2002-11-07,16.9667
2002-11-08,16.0933
2002-11-11,16.3333
2002-11-12,16.4333
2002-11-13,16.5933
2002-11-14,16.66
2002-11-15,17.2667
2002-11-18,17.24
2002-11-19,17.1667
2002-11-20,17.22
2002-11-21,17.0333
2002-11-22,17.04
2002-11-25,16.5933
2002-11-26,16.38
2002-11-27,16.6467
2002-11-29,17.1067
2002-12-02,16.76
2002-12-03,16.7
2002-12-04,16.7333
2002-12-05,17.1933
2002-12-06,17.0267
2002-12-09,16.74
2002-12-10,16.8333
2002-12-11,16.7333
2002-12-12,16.6067
2002-12-13,16.5667
2002-12-16,16.4667
2002-12-17,16.38
2002-12-18,16.38
2002-12-19,16.3267
2002-12-20,16.28
2002-12-23,16.24
2002-12-24,16.28
2002-12-26,16.1667
2002-12-27,16.04
2002-12-30,16.14
2002-12-31,16.4467
2003-01-02,16.7533
2003-01-03,16.9
2003-01-06,16.8467
2003-01-07,16.8533
2003-01-08,16.7667
2003-01-09,16.9
2003-01-10,17.0
2003-01-13,17.0733
2003-01-14,16.92
2003-01-15,16.62
2003-01-16,16.62
2003-01-17,16.7667
2003-01-21,16.6533
2003-01-22,16.78
2003-01-23,16.84
2003-01-24,16.6067
2003-01-27,16.2467
2003-01-28,16.1267
2003-01-29,16.0333
2003-01-30,15.92
2003-01-31,16.06
2003-02-03,15.8933
2003-02-04,15.5867
2003-02-05,15.6667
2003-02-06,15.6067
2003-02-07,15.4867
2003-02-10,15.88
2003-02-11,15.54
2003-02-12,14.8
2003-02-13,14.9867
2003-02-14,13.6133
2003-02-18,13.7533
2003-02-19,14.02
2003-02-20,13.68
2003-02-21,13.8667
2003-02-24,13.5333
2003-02-25,13.6
2003-02-26,13.5733
2003-02-27,13.64
2003-02-28,13.8067
2003-03-03,13.9333
2003-03-04,13.8867
2003-03-05,13.8667
2003-03-06,13.62
2003-03-07,13.7133
2003-03-10,13.5667
2003-03-11,13.32
2003-03-12,13.2067
2003-03-13,13.1667
2003-03-14,13.1133
2003-03-17,13.08
2003-03-18,13.2933
2003-03-19,13.3
2003-03-20,13.28
2003-03-21,13.2667
2003-03-24,13.2333
2003-03-25,13.4133
2003-03-26,13.68
2003-03-27,13.6067
2003-03-28,13.7867
2003-03-31,13.82
2003-04-01,13.92
2003-04-02,13.9
2003-04-03,13.8667
2003-04-04,13.7667
2003-04-07,13.76
2003-04-08,13.6667
2003-04-09,13.5
2003-04-10,13.46
2003-04-11,13.5867
2003-04-14,13.6867
2003-04-15,13.4
2003-04-16,12.9667
2003-04-17,13.2067
2003-04-21,13.2267
2003-04-22,13.3333
2003-04-23,13.64
2003-04-24,13.66
2003-04-25,13.5333
2003-04-28,13.7333
2003-04-29,13.6133
2003-04-30,13.7667
2003-05-01,14.0067
2003-05-02,13.9733
2003-05-05,15.5267
2003-05-06,15.94
2003-05-07,15.9867
2003-05-08,15.9667
2003-05-09,16.12
2003-05-12,16.0533
2003-05-13,15.9867
2003-05-14,16.0
2003-05-15,16.0333
2003-05-16,16.1333
2003-05-19,15.9467
2003-05-20,15.8867
2003-05-21,15.9067
2003-05-22,15.9933
2003-05-23,16.0133
2003-05-27,16.1067
2003-05-28,16.1467
2003-05-29,15.94
2003-05-30,16.16
2003-06-02,16.64
2003-06-03,16.52
2003-06-04,16.7867
2003-06-05,16.8067
2003-06-06,17.0667
2003-06-09,17.04
2003-06-10,17.1667
2003-06-11,17.5133
2003-06-12,17.3733
2003-06-13,17.62
2003-06-16,17.9333
2003-06-17,17.82
2003-06-18,17.62
2003-06-19,17.6267
2003-06-20,17.7667
2003-06-23,17.74
2003-06-24,17.7333
2003-06-25,17.6133
2003-06-26,17.66
2003-06-27,17.6
2003-06-30,17.9133
2003-07-01,18.14
2003-07-02,18.4
2003-07-03,18.24
2003-07-07,18.36
2003-07-08,18.26
2003-07-09,18.2333
2003-07-10,17.8867
2003-07-11,17.86
2003-07-14,17.9733
2003-07-15,18.22
2003-07-16,18.8467
2003-07-17,18.5067
2003-07-18,18.8667
2003-07-21,18.8867
2003-07-22,18.8
2003-07-23,19.0067
2003-07-24,18.86
2003-07-25,18.9333
2003-07-28,19.2
2003-07-29,19.2333
2003-07-30,18.8733
2003-07-31,18.6733
2003-08-01,17.9933
2003-08-04,18.34
2003-08-05,18.3467
2003-08-06,18.3133
2003-08-07,18.5733
2003-08-08,19.2
2003-08-11,19.3667
2003-08-12,19.34
2003-08-13,19.3267
2003-08-14,19.32
2003-08-15,19.5867
2003-08-18,19.82
2003-08-19,20.1
2003-08-20,20.0
2003-08-21,19.98
2003-08-22,20.0067
2003-08-25,19.8333
2003-08-26,19.8733
2003-08-27,19.9133
2003-08-28,19.8
2003-08-29,20.1133
2003-09-02,20.5867
2003-09-03,20.52
2003-09-04,20.6533
2003-09-05,20.4733
2003-09-08,20.6333
2003-09-09,20.7067
2003-09-10,20.6333
2003-09-11,20.74
2003-09-12,20.84
2003-09-15,20.7
2003-09-16,20.8867
2003-09-17,21.1933
2003-09-18,21.3067
2003-09-19,21.3
2003-09-22,21.1533
2003-09-23,21.54
2003-09-24,21.3133
2003-09-25,21.62
2003-09-26,21.2
2003-09-29,21.2333
2003-09-30,21.18
2003-10-01,21.9533
2003-10-02,22.0667
2003-10-03,22.4133
2003-10-06,22.4667
2003-10-07,22.4667
2003-10-08,22.3667
2003-10-09,22.5533
2003-10-10,22.64
2003-10-13,22.9267
2003-10-14,22.7533
2003-10-15,22.9933
2003-10-16,23.2933
2003-10-17,22.6667
2003-10-20,22.8267
2003-10-21,23.3333
2003-10-22,22.9467
2003-10-23,23.1467
2003-10-24,22.94
2003-10-27,23.5467
2003-10-28,23.4867
2003-10-29,23.6467
2003-10-30,23.2933
2003-10-31,23.3933
2003-11-03,25.5667
2003-11-04,25.6533
2003-11-05,25.7333
2003-11-06,25.84
2003-11-07,25.8267
2003-11-10,25.3467
2003-11-11,25.1867
2003-11-12,25.5333
2003-11-13,26.16
2003-11-14,26.0133
2003-11-17,25.8133
2003-11-18,25.5933
2003-11-19,25.4267
2003-11-20,25.04
2003-11-21,24.4267
2003-11-24,24.8
2003-11-25,25.58
2003-11-26,25.3267
2003-11-28,25.4533
2003-12-01,26.1933
2003-12-02,26.2667
2003-12-03,26.66
2003-12-04,26.6667
2003-12-05,25.98
2003-12-08,25.7867
2003-12-09,25.64
2003-12-10,25.2933
2003-12-11,25.3333
2003-12-12,25.3267
2003-12-15,25.1867
2003-12-16,24.8467
2003-12-17,24.9867
2003-12-18,25.46
2003-12-19,25.0533
2003-12-22,24.86
2003-12-23,25.16
2003-12-24,25.6067
2003-12-26,25.58
2003-12-29,25.5667
2003-12-30,26.1533
2003-12-31,25.9867
2004-01-02,26.34
2004-01-05,26.58
2004-01-06,26.3
2004-01-07,26.1933
2004-01-08,26.0267
2004-01-09,25.96
2004-01-12,25.7
2004-01-13,25.3467
2004-01-14,25.3667
2004-01-15,25.3333
2004-01-16,25.7533
2004-01-20,25.9333
2004-01-21,26.4333
2004-01-22,26.0733
2004-01-23,26.1
2004-01-26,26.0933
2004-01-27,26.7933
2004-01-28,26.1533
2004-01-29,26.5067
2004-01-30,26.7333
2004-02-02,27.3667
2004-02-03,27.6733
2004-02-04,27.38
2004-02-05,26.7867
2004-02-06,27.02
2004-02-09,27.1333
2004-02-10,26.8933
2004-02-11,28.4667
2004-02-12,29.4467
2004-02-13,29.9533
2004-02-17,31.0667
2004-02-18,30.6733
2004-02-19,30.4333
2004-02-20,29.9667
2004-02-23,29.5667
2004-02-24,29.9333
2004-02-25,30.0333
2004-02-26,29.9867
2004-02-27,30.34
2004-03-01,30.8333
2004-03-02,30.9
2004-03-03,30.6667
2004-03-04,30.8067
2004-03-05,30.8267
2004-03-08,30.6533
2004-03-09,30.26
2004-03-10,29.8667
2004-03-11,29.0667
2004-03-12,29.56
2004-03-15,29.76
2004-03-16,29.84
2004-03-17,29.8933
2004-03-18,30.04
2004-03-19,30.0
2004-03-22,29.42
2004-03-23,29.9533
2004-03-24,30.0733
2004-03-25,31.0867
2004-03-26,31.62
2004-03-29,31.8267
2004-03-30,31.8867
2004-03-31,31.94
2004-04-01,31.62
2004-04-02,32.0
2004-04-05,32.16
2004-04-06,31.9933
2004-04-07,32.2667
2004-04-08,32.12
2004-04-12,32.4133
2004-04-13,31.72
2004-04-14,31.6867
2004-04-15,31.5534
2004-04-16,32.42
2004-04-19,32.5
2004-04-20,32.3733
2004-04-21,32.6533
2004-04-22,33.1334
2004-04-23,33.32
2004-04-26,33.4067
2004-04-27,33.7667
2004-04-28,34.1
2004-04-29,34.1334
2004-04-30,33.8533
2004-05-03,33.1733
2004-05-04,33.0533
2004-05-05,33.3267
2004-05-06,33.1467
2004-05-07,33.0467
2004-05-10,31.5867
2004-05-11,32.2
2004-05-12,31.9733
2004-05-13,31.68
2004-05-14,31.44
2004-05-17,30.7267
2004-05-18,30.84
2004-05-19,30.3533
2004-05-20,30.2867
2004-05-21,30.5333
2004-05-24,30.6533
2004-05-25,30.9
2004-05-26,30.7733
2004-05-27,30.54
2004-05-28,30.96
2004-06-01,31.6333
2004-06-02,31.64
2004-06-03,31.2333
2004-06-04,31.5067
2004-06-07,31.4667
2004-06-08,31.2333
2004-06-09,30.5333
2004-06-10,30.26
2004-06-14,30.1
2004-06-15,30.0333
2004-06-16,29.38
2004-06-17,29.28
2004-06-18,29.22
2004-06-21,29.98
2004-06-22,29.72
2004-06-23,29.98
2004-06-24,29.96
2004-06-25,30.06
2004-06-28,29.48
2004-06-29,29.98
2004-06-30,30.81
2004-07-01,30.51
2004-07-02,30.24
2004-07-06,29.69
2004-07-07,30.0
2004-07-08,29.88
2004-07-09,30.33
2004-07-12,30.42
2004-07-13,30.73
2004-07-14,30.71
2004-07-15,31.33
2004-07-16,32.04
2004-07-19,31.94
2004-07-20,32.14
2004-07-21,31.66
2004-07-22,31.25
2004-07-23,30.58
2004-07-26,29.06
2004-07-27,29.99
2004-07-28,29.65
2004-07-29,29.7
2004-07-30,30.37
2004-08-02,30.0
2004-08-03,27.58
2004-08-04,28.01
2004-08-05,27.95
2004-08-06,27.53
2004-08-09,27.41
2004-08-10,27.54
2004-08-11,28.19
2004-08-12,27.99
2004-08-13,28.44
2004-08-16,28.9
2004-08-17,29.0
2004-08-18,29.05
2004-08-19,28.86
2004-08-20,29.03
2004-08-23,28.49
2004-08-24,28.62
2004-08-25,28.9
2004-08-26,29.14
2004-08-27,29.84
2004-08-30,29.71
2004-08-31,30.36
2004-09-01,29.99
2004-09-02,30.37
2004-09-03,30.04
2004-09-07,30.15
2004-09-08,30.01
2004-09-09,30.09
2004-09-10,29.82
2004-09-13,30.22
2004-09-14,30.74
2004-09-15,31.01
2004-09-16,31.22
2004-09-17,31.06
2004-09-20,31.03
2004-09-21,31.13
2004-09-22,31.11
2004-09-23,31.0
2004-09-24,31.42
2004-09-27,30.84
2004-09-28,31.04
2004-09-29,31.09
2004-09-30,31.08
2004-10-01,31.4
2004-10-04,31.35
2004-10-05,32.02
2004-10-06,31.85
2004-10-07,31.61
2004-10-08,31.41
2004-10-11,31.46
2004-10-12,31.4
2004-10-13,31.29
2004-10-14,30.98
2004-10-15,31.19
2004-10-18,31.65
2004-10-19,30.85
2004-10-20,31.41
2004-10-21,31.78
2004-10-22,31.88
2004-10-25,32.25
2004-10-26,29.45
2004-10-27,30.2
2004-10-28,29.47
2004-10-29,29.62
2004-11-01,30.25
2004-11-02,30.68
2004-11-03,31.44
2004-11-04,31.88
2004-11-05,32.22
2004-11-08,32.5
2004-11-09,32.55
2004-11-10,32.95
2004-11-11,33.02
2004-11-12,33.31
2004-11-15,33.49
2004-11-16,33.04
2004-11-17,32.95
2004-11-18,32.99
2004-11-19,32.82
2004-11-22,32.99
2004-11-23,32.8
2004-11-24,32.84
2004-11-26,32.76
2004-11-29,32.72
2004-11-30,33.14
2004-12-01,33.23
2004-12-02,33.59
2004-12-03,33.5
2004-12-06,36.84
2004-12-07,37.71
2004-12-08,37.55
2004-12-09,37.88
2004-12-10,38.32
2004-12-13,38.42
2004-12-14,39.56
2004-12-15,38.85
2004-12-16,38.86
2004-12-17,37.95
2004-12-20,37.79
2004-12-21,37.86
2004-12-22,38.85
2004-12-23,38.55
2004-12-27,38.41
2004-12-28,39.04
2004-12-29,39.55
2004-12-30,39.54
2004-12-31,39.47
2005-01-03,39.37
2005-01-04,39.51
2005-01-05,39.31
2005-01-06,39.27
2005-01-07,39.86
2005-01-10,41.65
2005-01-11,41.7
2005-01-12,41.42
2005-01-13,41.2
2005-01-14,42.0
2005-01-18,42.0
2005-01-19,41.9
2005-01-20,41.43
2005-01-21,41.0
2005-01-24,40.03
2005-01-25,40.4
2005-01-26,40.66
2005-01-27,41.21
2005-01-28,41.4
2005-01-31,41.92
2005-02-01,42.17
2005-02-02,41.64
2005-02-03,41.41
2005-02-04,41.35
2005-02-07,41.3
2005-02-08,41.55
2005-02-09,42.4
2005-02-10,43.27
2005-02-11,43.55
2005-02-14,43.89
2005-02-15,43.1
2005-02-16,42.87
2005-02-17,42.2
2005-02-18,42.16
2005-02-22,41.26
2005-02-23,41.67
2005-02-24,42.25
2005-02-25,42.4
2005-02-28,42.31
2005-03-01,42.67
2005-03-02,43.19
2005-03-03,44.06
2005-03-04,44.01
2005-03-07,42.1
2005-03-08,41.63
2005-03-09,41.7
2005-03-10,41.73
2005-03-11,41.08
2005-03-14,42.06
2005-03-15,42.31
2005-03-16,41.81
2005-03-17,41.82
2005-03-18,41.96
2005-03-21,42.05
2005-03-22,41.78
2005-03-23,42.02
2005-03-24,41.89
2005-03-28,41.39
2005-03-29,41.21
2005-03-30,41.82
2005-03-31,41.88
2005-04-01,42.0
2005-04-04,42.02
2005-04-05,42.25
2005-04-06,42.71
2005-04-07,43.29
2005-04-08,43.25
2005-04-11,43.7
2005-04-12,43.99
2005-04-13,43.21
2005-04-14,42.14
2005-04-15,41.67
2005-04-18,41.76
2005-04-19,41.9
2005-04-20,41.26
2005-04-21,41.0
2005-04-22,40.55
2005-04-25,41.0
2005-04-26,40.71
2005-04-27,41.34
2005-04-28,40.01
2005-04-29,40.3
2005-05-02,40.18
2005-05-03,40.18
2005-05-04,41.21
2005-05-05,41.45
2005-05-06,41.55
2005-05-09,42.5
2005-05-10,42.6
2005-05-11,42.67
2005-05-12,42.16
2005-05-13,41.65
2005-05-16,41.93
2005-05-17,42.22
2005-05-18,42.77
2005-05-19,43.06
2005-05-20,43.48
2005-05-23,43.85
2005-05-24,43.72
2005-05-25,43.71
2005-05-26,45.15
2005-05-27,46.09
2005-05-31,46.06
2005-06-01,46.4
2005-06-02,46.62
2005-06-03,46.25
2005-06-06,46.01
2005-06-07,46.26
2005-06-08,46.57
2005-06-09,46.07
2005-06-10,45.7
2005-06-13,46.07
2005-06-14,46.02
2005-06-15,45.79
2005-06-16,45.57
2005-06-17,46.1
2005-06-20,46.72
2005-06-21,46.13
2005-06-22,45.85
2005-06-23,45.08
2005-06-24,44.55
2005-06-27,44.74
2005-06-28,45.95
2005-06-29,45.77
2005-06-30,45.55
2005-07-01,45.59
2005-07-05,45.78
2005-07-06,45.66
2005-07-07,46.13
2005-07-08,46.38
2005-07-11,46.79
2005-07-12,46.0
2005-07-13,45.11
2005-07-14,45.15
2005-07-15,44.85
2005-07-18,44.67
2005-07-19,44.51
2005-07-20,44.99
2005-07-21,43.99
2005-07-22,43.65
2005-07-25,43.34
2005-07-26,43.81
2005-07-27,43.95
2005-07-28,46.82
2005-07-29,47.31
2005-08-01,47.42
2005-08-02,47.75
2005-08-03,47.54
2005-08-04,47.31
2005-08-05,46.43
2005-08-08,46.32
2005-08-09,46.93
2005-08-10,47.53
2005-08-11,47.6
2005-08-12,47.12
2005-08-15,47.56
2005-08-16,47.52
2005-08-17,47.02
2005-08-18,47.09
2005-08-19,46.78
2005-08-22,46.88
2005-08-23,46.17
2005-08-24,44.91
2005-08-25,45.19
2005-08-26,44.56
2005-08-29,45.1
2005-08-30,45.28
2005-08-31,45.76
2005-09-01,46.0
2005-09-02,46.33
2005-09-06,47.76
2005-09-07,47.51
2005-09-08,46.83
2005-09-09,47.37
2005-09-12,47.28
2005-09-13,46.73
2005-09-14,46.48
2005-09-15,47.09
2005-09-16,46.04
2005-09-19,46.16
2005-09-20,46.61
2005-09-21,46.32
2005-09-22,45.99
2005-09-23,47.32
2005-09-26,46.78
2005-09-27,46.27
2005-09-28,45.96
2005-09-29,46.12
2005-09-30,46.01
2005-10-03,48.2
2005-10-04,50.33
2005-10-05,49.99
2005-10-06,49.63
2005-10-07,49.53
2005-10-10,48.6
2005-10-11,48.7
2005-10-12,48.15
2005-10-13,47.88
2005-10-14,48.33
2005-10-17,48.58
2005-10-18,48.79
2005-10-19,49.35
2005-10-20,48.58
2005-10-21,48.26
2005-10-24,48.46
2005-10-25,48.17
2005-10-26,48.24
2005-10-27,47.9
2005-10-28,47.93
2005-10-31,49.12
2005-11-01,49.9
2005-11-02,51.0
2005-11-03,51.96
2005-11-04,51.56
2005-11-07,51.51
2005-11-08,51.71
2005-11-09,51.15
2005-11-10,51.59
2005-11-11,52.07
2005-11-14,51.92
2005-11-15,51.71
2005-11-16,51.49
2005-11-17,52.53
2005-11-18,52.2
2005-11-21,52.33
2005-11-22,52.66
2005-11-23,52.51
2005-11-25,52.7
2005-11-28,52.02
2005-11-29,53.51
2005-11-30,52.42
2005-12-01,53.2
2005-12-02,53.34
2005-12-05,52.8
2005-12-06,53.13
2005-12-07,53.39
2005-12-08,52.96
2005-12-09,52.55
2005-12-12,52.48
2005-12-13,51.84
2005-12-14,51.57
2005-12-15,51.02
2005-12-16,51.5
2005-12-19,50.82
2005-12-20,50.58
2005-12-21,50.72
2005-12-22,50.95
2005-12-23,50.92
2005-12-27,50.44
2005-12-28,50.55
2005-12-29,50.86
2005-12-30,50.6
2006-01-03,51.53
2006-01-04,51.86
2006-01-05,54.25
2006-01-06,55.4
2006-01-09,54.65
2006-01-10,54.01
2006-01-11,54.05
2006-01-12,54.22
2006-01-13,54.27
2006-01-17,53.41
2006-01-18,54.25
2006-01-19,54.9
2006-01-20,54.91
2006-01-23,54.73
2006-01-24,56.06
2006-01-25,54.96
2006-01-26,55.18
2006-01-27,54.88
2006-01-30,55.1
2006-01-31,54.86
2006-02-01,54.22
2006-02-02,53.76
2006-02-03,53.69
2006-02-06,57.16
2006-02-07,55.29
2006-02-08,55.28
2006-02-09,55.66
2006-02-10,55.26
2006-02-13,55.41
2006-02-14,55.39
2006-02-15,59.23
2006-02-16,59.08
2006-02-17,58.77
2006-02-21,58.97
2006-02-22,58.82
2006-02-23,58.76
2006-02-24,59.12
2006-02-27,59.03
2006-02-28,58.3
2006-03-01,58.15
2006-03-02,58.3
2006-03-03,58.55
2006-03-06,58.05
2006-03-07,58.28
2006-03-08,58.43
2006-03-09,57.98
2006-03-10,58.18
2006-03-13,58.5
2006-03-14,59.11
2006-03-15,60.1
2006-03-16,60.33
2006-03-17,60.04
2006-03-20,59.77
2006-03-21,59.83
2006-03-22,59.13
2006-03-23,58.65
2006-03-24,59.12
2006-03-27,59.46
2006-03-28,60.04
2006-03-29,60.09
2006-03-30,60.0
2006-03-31,60.16
2006-04-03,58.72
2006-04-04,58.08
2006-04-05,58.26
2006-04-06,57.83
2006-04-07,56.21
2006-04-10,55.47
2006-04-11,55.06
2006-04-12,55.54
2006-04-13,55.03
2006-04-17,55.14
2006-04-18,54.58
2006-04-19,55.08
2006-04-20,56.85
2006-04-21,57.64
2006-04-24,57.17
2006-04-25,56.51
2006-04-26,56.8
2006-04-27,56.57
2006-04-28,56.19
2006-05-01,55.97
2006-05-02,54.84
2006-05-03,54.27
2006-05-04,51.0
2006-05-05,53.29
2006-05-08,53.57
2006-05-09,53.16
2006-05-10,53.02
2006-05-11,52.31
2006-05-12,52.22
2006-05-15,51.97
2006-05-16,52.52
2006-05-17,52.22
2006-05-18,52.59
2006-05-19,51.64
2006-05-22,51.39
2006-05-23,51.24
2006-05-24,50.48
2006-05-25,51.26
2006-05-26,51.29
2006-05-30,51.32
2006-05-31,52.92
2006-06-01,52.67
2006-06-02,52.74
2006-06-05,51.16
2006-06-06,50.3
2006-06-07,50.17
2006-06-08,48.93
2006-06-09,49.0
2006-06-12,47.59
2006-06-13,47.6
2006-06-14,48.22
2006-06-15,49.1
2006-06-16,48.87
2006-06-19,47.99
2006-06-20,47.79
2006-06-21,50.05
2006-06-22,49.62
2006-06-23,48.79
2006-06-26,48.5
2006-06-27,48.03
2006-06-28,47.74
2006-06-29,48.4
2006-06-30,49.76
2006-07-03,49.98
2006-07-05,50.19
2006-07-06,50.18
2006-07-07,49.37
2006-07-10,48.9
2006-07-11,48.46
2006-07-12,48.66
2006-07-13,48.32
2006-07-14,48.84
2006-07-17,49.6
2006-07-18,49.26
2006-07-19,50.87
2006-07-20,50.97
2006-07-21,50.99
2006-07-24,51.8
2006-07-25,52.59
2006-07-26,51.52
2006-07-27,50.13
2006-07-28,50.15
2006-07-31,50.08
2006-08-01,49.02
2006-08-02,54.34
2006-08-03,55.05
2006-08-04,55.87
2006-08-07,55.54
2006-08-08,55.77
2006-08-09,55.37
2006-08-10,56.6
2006-08-11,56.01
2006-08-14,55.81
2006-08-15,55.23
2006-08-16,55.83
2006-08-17,55.63
2006-08-18,55.61
2006-08-21,56.1
2006-08-22,56.68
2006-08-23,56.79
2006-08-24,57.29
2006-08-25,57.64
2006-08-28,58.8
2006-08-29,58.74
2006-08-30,58.33
2006-08-31,58.34
2006-09-01,57.81
2006-09-05,57.31
2006-09-06,56.04
2006-09-07,55.86
2006-09-08,56.34
2006-09-11,56.95
2006-09-12,58.56
2006-09-13,58.63
2006-09-14,58.11
2006-09-15,57.13
2006-09-18,56.64
2006-09-19,57.47
2006-09-20,57.89
2006-09-21,57.1
2006-09-22,56.93
2006-09-25,57.58
2006-09-26,58.45
2006-09-27,57.72
2006-09-28,57.78
2006-09-29,57.96
2006-10-02,57.42
2006-10-03,57.16
2006-10-04,58.4
2006-10-05,59.35
2006-10-06,58.55
2006-10-09,57.45
2006-10-10,56.37
2006-10-11,56.29
2006-10-12,56.44
2006-10-13,56.42
2006-10-16,56.78
2006-10-17,56.23
2006-10-18,56.29
2006-10-19,56.74
2006-10-20,57.2
2006-10-23,57.69
2006-10-24,57.66
2006-10-25,56.42
2006-10-26,56.59
2006-10-27,56.45
2006-10-30,56.81
2006-10-31,55.65
2006-11-01,55.37
2006-11-02,55.01
2006-11-03,54.09
2006-11-06,54.41
2006-11-07,53.89
2006-11-08,52.96
2006-11-09,52.57
2006-11-10,52.5
2006-11-13,54.3
2006-11-14,54.7
2006-11-15,55.82
2006-11-16,53.09
2006-11-17,53.22
2006-11-20,53.0
2006-11-21,52.73
2006-11-22,53.09
2006-11-24,53.2
2006-11-27,52.75
2006-11-28,51.9
2006-11-29,52.23
2006-11-30,53.2
2006-12-01,54.08
2006-12-04,54.52
2006-12-05,53.68
2006-12-06,55.4
2006-12-07,55.57
2006-12-08,55.9
2006-12-11,56.0
2006-12-12,55.71
2006-12-13,55.5
2006-12-14,55.37
2006-12-15,54.82
2006-12-18,55.49
2006-12-19,55.1
2006-12-20,55.61
2006-12-21,56.2
2006-12-22,56.4
2006-12-26,56.63
2006-12-27,56.73
2006-12-28,56.72
2006-12-29,56.83
2007-01-03,55.36
2007-01-04,55.49
2007-01-05,54.8
2007-01-08,54.5
2007-01-09,53.15
2007-01-10,52.39
2007-01-11,52.8
2007-01-12,53.9
2007-01-16,53.49
2007-01-17,53.06
2007-01-18,53.05
2007-01-19,53.7
2007-01-22,53.28
2007-01-23,52.56
2007-01-24,52.19
2007-01-25,52.0
2007-01-26,51.79
2007-01-29,52.37
2007-01-30,53.58
2007-01-31,54.59
2007-02-01,54.9
2007-02-02,54.01
2007-02-05,54.97
2007-02-06,55.0
2007-02-07,55.06
2007-02-08,54.9
2007-02-09,55.07
2007-02-12,56.07
2007-02-13,56.53
2007-02-14,57.43
2007-02-15,58.61
2007-02-16,58.15
2007-02-20,58.09
2007-02-21,57.59
2007-02-22,57.1
2007-02-23,56.81
2007-02-26,56.75
2007-02-27,55.0
2007-02-28,54.48
2007-03-01,54.44
2007-03-02,53.15
2007-03-05,52.95
2007-03-06,53.72
2007-03-07,53.5
2007-03-08,53.5
2007-03-09,52.99
2007-03-12,51.47
2007-03-13,52.09
2007-03-14,52.11
2007-03-15,52.37
2007-03-16,52.72
2007-03-19,52.93
2007-03-20,52.72
2007-03-21,53.34
2007-03-22,53.35
2007-03-23,53.31
2007-03-26,53.26
2007-03-27,53.43
2007-03-28,52.93
2007-03-29,52.63
2007-03-30,53.3
2007-04-02,52.6
2007-04-03,53.48
2007-04-04,54.19
2007-04-05,55.99
2007-04-09,55.96
2007-04-10,56.08
2007-04-11,56.41
2007-04-12,56.92
2007-04-13,57.46
2007-04-16,56.88
2007-04-17,56.12
2007-04-18,55.24
2007-04-19,55.0
2007-04-20,54.86
2007-04-23,54.83
2007-04-24,54.95
2007-04-25,54.62
2007-04-26,55.13
2007-04-27,54.51
2007-04-30,54.67
2007-05-01,54.66
2007-05-02,55.25
2007-05-03,54.84
2007-05-04,55.19
2007-05-07,55.66
2007-05-08,55.0
2007-05-09,55.55
2007-05-10,54.32
2007-05-11,53.9
2007-05-14,53.45
2007-05-15,52.93
2007-05-16,53.0
2007-05-17,53.4
2007-05-18,53.05
2007-05-21,53.14
2007-05-22,53.77
2007-05-23,54.09
2007-05-24,54.03
2007-05-25,54.1
2007-05-29,55.08
2007-05-30,55.23
2007-05-31,55.15
2007-06-01,55.95
2007-06-04,55.9
2007-06-05,55.59
2007-06-06,54.83
2007-06-07,54.68
2007-06-08,54.38
2007-06-11,55.12
2007-06-12,54.62
2007-06-13,54.77
2007-06-14,54.57
2007-06-15,54.47
2007-06-18,53.68
2007-06-19,53.58
2007-06-20,53.07
2007-06-21,53.23
2007-06-22,53.78
2007-06-25,52.7
2007-06-26,52.64
2007-06-27,52.58
2007-06-28,53.25
2007-06-29,53.86
2007-07-02,54.5
2007-07-03,54.91
2007-07-05,55.51
2007-07-06,55.73
2007-07-09,54.82
2007-07-10,53.88
2007-07-11,53.88
2007-07-12,53.79
2007-07-13,55.16
2007-07-16,54.68
2007-07-17,54.33
2007-07-18,53.66
2007-07-19,52.95
2007-07-20,53.87
2007-07-23,53.48
2007-07-24,52.81
2007-07-25,53.49
2007-07-26,52.95
2007-07-27,53.13
2007-07-30,54.16
2007-07-31,52.97
2007-08-01,52.75
2007-08-02,53.2
2007-08-03,55.93
2007-08-06,57.59
2007-08-07,57.6
2007-08-08,56.8
2007-08-09,57.0
2007-08-10,56.38
2007-08-13,55.87
2007-08-14,55.5
2007-08-15,54.19
2007-08-16,53.83
2007-08-17,54.26
2007-08-20,54.43
2007-08-21,54.84
2007-08-22,55.28
2007-08-23,55.44
2007-08-24,56.03
2007-08-27,55.9
2007-08-28,56.22
2007-08-29,56.36
2007-08-30,57.16
2007-08-31,57.49
2007-09-04,58.9
2007-09-05,58.79
2007-09-06,58.81
2007-09-07,58.4
2007-09-10,57.62
2007-09-11,60.07
2007-09-12,62.08
2007-09-13,61.95
2007-09-14,62.01
2007-09-17,61.68
2007-09-18,61.57
2007-09-19,60.68
2007-09-20,60.62
2007-09-21,61.55
2007-09-24,60.69
2007-09-25,61.55
2007-09-26,61.5
2007-09-27,61.47
2007-09-28,63.03
2007-10-01,63.38
2007-10-02,63.85
2007-10-03,63.97
2007-10-04,63.39
2007-10-05,64.18
2007-10-08,64.66
2007-10-09,64.81
2007-10-10,65.45
2007-10-11,64.6
2007-10-12,63.97
2007-10-15,64.88
2007-10-16,65.1
2007-10-17,66.3
2007-10-18,66.52
2007-10-19,65.85
2007-10-22,65.16
2007-10-23,65.85
2007-10-24,65.47
2007-10-25,66.01
2007-10-26,64.21
2007-10-29,64.15
2007-10-30,63.71
2007-10-31,64.95
2007-11-01,65.44
2007-11-02,59.5
2007-11-05,58.26
2007-11-06,59.94
2007-11-07,59.0
2007-11-08,60.12
2007-11-09,59.85
2007-11-12,59.09
2007-11-13,58.99
2007-11-14,59.31
2007-11-15,58.27
2007-11-16,59.6
2007-11-19,58.16
2007-11-20,58.01
2007-11-21,57.83
2007-11-23,58.31
2007-11-26,59.65
2007-11-27,59.4
2007-11-28,60.62
2007-11-29,62.01
2007-11-30,61.85
2007-12-03,61.9
2007-12-04,60.64
2007-12-05,59.83
2007-12-06,61.04
2007-12-07,61.06
2007-12-10,59.51
2007-12-11,57.52
2007-12-12,56.86
2007-12-13,57.15
2007-12-14,55.62
2007-12-17,55.73
2007-12-18,57.08
2007-12-19,57.13
2007-12-20,56.45
2007-12-21,56.86
2007-12-24,57.35
2007-12-26,57.68
2007-12-27,56.26
2007-12-28,56.05
2007-12-31,56.27
2008-01-02,55.49
2008-01-03,55.5
2008-01-04,54.86
2008-01-07,56.51
2008-01-08,58.86
2008-01-09,58.8
2008-01-10,59.13
2008-01-11,59.0
2008-01-14,58.62
2008-01-15,57.64
2008-01-16,57.38
2008-01-17,56.16
2008-01-18,55.5
2008-01-22,54.55
2008-01-23,53.77
2008-01-24,52.77
2008-01-25,52.2
2008-01-28,53.18
2008-01-29,53.51
2008-01-30,53.25
2008-01-31,53.28
2008-02-01,54.19
2008-02-04,54.23
2008-02-05,52.74
2008-02-06,52.95
2008-02-07,52.51
2008-02-08,52.54
2008-02-11,52.53
2008-02-12,53.83
2008-02-13,54.19
2008-02-14,50.5
2008-02-15,51.03
2008-02-19,50.77
2008-02-20,50.34
2008-02-21,50.87
2008-02-22,50.93
2008-02-25,51.04
2008-02-26,51.02
2008-02-27,50.13
2008-02-28,50.29
2008-02-29,49.55
2008-03-03,48.47
2008-03-04,48.59
2008-03-05,47.35
2008-03-06,47.3
2008-03-07,46.05
2008-03-10,45.66
2008-03-11,43.64
2008-03-12,45.72
2008-03-13,44.99
2008-03-14,43.96
2008-03-17,42.42
2008-03-18,43.96
2008-03-19,43.3
2008-03-20,45.31
2008-03-24,44.24
2008-03-25,46.32
2008-03-26,47.14
2008-03-27,47.67
2008-03-28,48.04
2008-03-31,47.73
2008-04-01,48.56
2008-04-02,47.76
2008-04-03,47.73
2008-04-04,48.16
2008-04-07,48.07
2008-04-08,48.49
2008-04-09,48.92
2008-04-10,49.48
2008-04-11,49.68
2008-04-14,49.03
2008-04-15,49.55
2008-04-16,50.29
2008-04-17,50.0
2008-04-18,51.0
2008-04-21,50.11
2008-04-22,49.67
2008-04-23,49.58
2008-04-24,50.04
2008-04-25,49.9
2008-04-28,50.27
2008-04-29,50.84
2008-04-30,52.5
2008-05-01,52.49
2008-05-02,52.25
2008-05-05,53.28
2008-05-06,52.28
2008-05-07,51.5
2008-05-08,51.73
2008-05-09,51.84
2008-05-12,51.56
2008-05-13,50.37
2008-05-14,50.52
2008-05-15,51.17
2008-05-16,51.88
2008-05-19,51.9
2008-05-20,51.56
2008-05-21,51.9
2008-05-22,52.03
2008-05-23,51.36
2008-05-27,52.02
2008-05-28,51.89
2008-05-29,51.75
2008-05-30,51.82
2008-06-02,52.15
2008-06-03,52.05
2008-06-04,51.89
2008-06-05,51.69
2008-06-06,50.48
2008-06-09,49.83
2008-06-10,49.74
2008-06-11,49.56
2008-06-12,49.36
2008-06-13,50.36
2008-06-16,50.26
2008-06-17,50.03
2008-06-18,49.25
2008-06-19,51.11
2008-06-20,51.76
2008-06-23,51.89
2008-06-24,52.3
2008-06-25,53.05
2008-06-26,53.71
2008-06-27,54.06
2008-06-30,53.0
2008-07-01,53.13
2008-07-02,53.29
2008-07-03,52.7
2008-07-07,52.66
2008-07-08,52.96
2008-07-09,52.93
2008-07-10,56.58
2008-07-11,53.57
2008-07-14,53.69
2008-07-15,53.6
2008-07-16,53.35
2008-07-17,52.98
2008-07-18,53.13
2008-07-21,52.95
2008-07-22,53.24
2008-07-23,53.0
2008-07-24,52.8
2008-07-25,55.86
2008-07-28,56.15
2008-07-29,56.64
2008-07-30,56.4
2008-07-31,55.93
2008-08-01,56.14
2008-08-04,55.8
2008-08-05,59.12
2008-08-06,59.15
2008-08-07,58.29
2008-08-08,59.26
2008-08-11,59.53
2008-08-12,59.28
2008-08-13,59.15
2008-08-14,59.33
2008-08-15,59.99
2008-08-18,58.61
2008-08-19,58.49
2008-08-20,58.44
2008-08-21,58.19
2008-08-22,58.35
2008-08-25,57.56
2008-08-26,57.59
2008-08-27,57.86
2008-08-28,57.93
2008-08-29,57.28
2008-09-02,57.99
2008-09-03,57.61
2008-09-04,56.62
2008-09-05,56.71
2008-09-08,57.87
2008-09-09,57.23
2008-09-10,56.6
2008-09-11,57.98
2008-09-12,58.55
2008-09-15,57.74
2008-09-16,57.38
2008-09-17,55.35
2008-09-18,55.76
2008-09-19,57.14
2008-09-22,56.58
2008-09-23,56.02
2008-09-24,55.05
2008-09-25,56.26
2008-09-26,56.43
2008-09-29,55.48
2008-09-30,57.01
2008-10-01,55.28
2008-10-02,54.01
2008-10-03,53.56
2008-10-06,48.91
2008-10-07,50.0
2008-10-08,50.82
2008-10-09,48.77
2008-10-10,47.2
2008-10-13,50.41
2008-10-14,51.31
2008-10-15,49.35
2008-10-16,49.79
2008-10-17,50.41
2008-10-20,50.87
2008-10-21,51.59
2008-10-22,48.99
2008-10-23,49.68
2008-10-24,48.9
2008-10-27,46.86
2008-10-28,50.45
2008-10-29,51.19
2008-10-30,54.02
2008-10-31,54.75
2008-11-03,52.82
2008-11-04,52.9
2008-11-05,50.39
2008-11-06,50.17
2008-11-07,52.03
2008-11-10,53.78
2008-11-11,52.77
2008-11-12,52.0
2008-11-13,52.53
2008-11-14,51.57
2008-11-17,51.95
2008-11-18,51.88
2008-11-19,47.09
2008-11-20,42.49
2008-11-21,44.65
2008-11-24,48.45
2008-11-25,48.03
2008-11-26,48.53
2008-11-28,50.25
2008-12-01,46.62
2008-12-02,47.3
2008-12-03,46.78
2008-12-04,45.59
2008-12-05,47.46
2008-12-08,48.23
2008-12-09,48.74
2008-12-10,48.2
2008-12-11,48.01
2008-12-12,47.77
2008-12-15,48.28
2008-12-16,50.62
2008-12-17,50.05
2008-12-18,50.2
2008-12-19,49.95
2008-12-22,49.24
2008-12-23,48.5
2008-12-24,47.98
2008-12-26,48.7
2008-12-29,48.57
2008-12-30,49.1
2008-12-31,49.41
2009-01-02,49.06
2009-01-05,47.55
2009-01-06,46.89
2009-01-07,47.19
2009-01-08,47.43
2009-01-09,47.33
2009-01-12,46.56
2009-01-13,46.96
2009-01-14,46.82
2009-01-15,46.78
2009-01-16,48.26
2009-01-20,46.68
2009-01-21,47.57
2009-01-22,47.67
2009-01-23,47.05
2009-01-26,47.83
2009-01-27,49.01
2009-01-28,48.09
2009-01-29,47.42
2009-01-30,46.87
2009-02-02,47.9
2009-02-03,48.67
2009-02-04,48.02
2009-02-05,48.05
2009-02-06,46.86
2009-02-09,45.91
2009-02-10,47.51
2009-02-11,53.11
2009-02-12,52.74
2009-02-13,52.76
2009-02-17,51.09
2009-02-18,51.66
2009-02-19,50.95
2009-02-20,50.78
2009-02-23,50.53
2009-02-24,51.86
2009-02-25,50.87
2009-02-26,50.0
2009-02-27,46.84
2009-03-02,46.3
2009-03-03,46.22
2009-03-04,47.59
2009-03-05,45.88
2009-03-06,45.67
2009-03-09,44.17
2009-03-10,43.95
2009-03-11,43.37
2009-03-12,44.84
2009-03-13,45.9
2009-03-16,45.85
2009-03-17,45.86
2009-03-18,46.01
2009-03-19,45.01
2009-03-20,42.34
2009-03-23,43.0
2009-03-24,43.06
2009-03-25,44.2
2009-03-26,44.49
2009-03-27,43.57
2009-03-30,43.78
2009-03-31,43.82
2009-04-01,44.33
2009-04-02,45.31
2009-04-03,44.54
2009-04-06,44.8
2009-04-07,45.14
2009-04-08,45.14
2009-04-09,45.19
2009-04-13,44.55
2009-04-14,44.47
2009-04-15,44.99
2009-04-16,44.25
2009-04-17,43.09
2009-04-20,43.55
2009-04-21,43.99
2009-04-22,43.58
2009-04-23,42.39
2009-04-24,43.72
2009-04-27,44.37
2009-04-28,45.6
2009-04-29,47.32
2009-04-30,46.36
2009-05-01,45.88
2009-05-04,46.82
2009-05-05,45.88
2009-05-06,45.6
2009-05-07,46.49
2009-05-08,47.25
2009-05-11,46.32
2009-05-12,46.36
2009-05-13,45.4
2009-05-14,45.34
2009-05-15,44.52
2009-05-18,45.03
2009-05-19,46.31
2009-05-20,45.42
2009-05-21,43.93
2009-05-22,44.8
2009-05-26,45.48
2009-05-27,45.47
2009-05-28,44.82
2009-05-29,45.04
2009-06-01,46.44
2009-06-02,47.56
2009-06-03,47.33
2009-06-04,47.13
2009-06-05,46.79
2009-06-08,46.65
2009-06-09,46.07
2009-06-10,45.96
2009-06-11,46.36
2009-06-12,47.15
2009-06-15,45.85
2009-06-16,46.25
2009-06-17,47.8
2009-06-18,48.91
2009-06-19,48.1
2009-06-22,47.75
2009-06-23,47.25
2009-06-24,47.92
2009-06-25,48.97
2009-06-26,49.45
2009-06-29,49.5
2009-06-30,49.41
2009-07-01,50.88
2009-07-02,50.14
2009-07-06,51.35
2009-07-07,51.8
2009-07-08,50.81
2009-07-09,49.92
2009-07-10,49.22
2009-07-13,49.88
2009-07-14,49.63
2009-07-15,49.28
2009-07-16,49.05
2009-07-17,48.08
2009-07-20,47.83
2009-07-21,48.53
2009-07-22,47.71
2009-07-23,49.01
2009-07-24,49.83
2009-07-27,49.42
2009-07-28,49.22
2009-07-29,50.06
2009-07-30,49.95
2009-07-31,49.73
2009-08-03,50.69
2009-08-04,50.95
2009-08-05,51.3
2009-08-06,50.59
2009-08-07,51.94
2009-08-10,52.81
2009-08-11,52.38
2009-08-12,52.22
2009-08-13,51.79
2009-08-14,51.32
2009-08-17,51.72
2009-08-18,51.04
2009-08-19,52.0
2009-08-20,51.75
2009-08-21,52.39
2009-08-24,52.01
2009-08-25,51.98
2009-08-26,52.03
2009-08-27,52.51
2009-08-28,51.69
2009-08-31,51.73
2009-09-01,51.59
2009-09-02,51.99
2009-09-03,52.83
2009-09-04,53.25
2009-09-08,53.85
2009-09-09,54.1
2009-09-10,54.38
2009-09-11,54.21
2009-09-14,54.13
2009-09-15,54.3
2009-09-16,56.07
2009-09-17,55.88
2009-09-18,55.66
2009-09-21,56.01
2009-09-22,56.23
2009-09-23,56.47
2009-09-24,56.16
2009-09-25,55.95
2009-09-28,56.42
2009-09-29,56.21
2009-09-30,56.55
2009-10-01,56.04
2009-10-02,55.66
2009-10-05,56.16
2009-10-06,56.62
2009-10-07,56.64
2009-10-08,56.37
2009-10-09,55.9
2009-10-12,56.34
2009-10-13,56.48
2009-10-14,56.57
2009-10-15,56.62
2009-10-16,56.3
2009-10-19,55.71
2009-10-20,55.27
2009-10-21,54.98
2009-10-22,55.22
2009-10-23,54.4
2009-10-26,53.49
2009-10-27,53.53
2009-10-28,53.4
2009-10-29,53.6
2009-10-30,53.01
2009-11-02,53.69
2009-11-03,54.38
2009-11-04,57.89
2009-11-05,58.28
2009-11-06,57.9
2009-11-09,58.07
2009-11-10,58.75
2009-11-11,58.54
2009-11-12,58.2
2009-11-13,58.21
2009-11-16,58.55
2009-11-17,58.78
2009-11-18,58.55
2009-11-19,58.23
2009-11-20,59.0
2009-11-23,59.9
2009-11-24,60.09
2009-11-25,59.97
2009-11-27,59.33
2009-11-30,59.22
2009-12-01,60.12
2009-12-02,60.62
2009-12-03,60.49
2009-12-04,60.05
2009-12-07,59.73
2009-12-08,58.1
2009-12-09,58.51
2009-12-10,59.3
2009-12-11,59.56
2009-12-14,60.42
2009-12-15,61.54
2009-12-16,60.78
2009-12-17,59.88
2009-12-18,59.6
2009-12-21,59.32
2009-12-22,59.5
2009-12-23,59.97
2009-12-24,59.7
2009-12-28,59.54
2009-12-29,59.57
2009-12-30,59.31
2009-12-31,58.71
2010-01-04,59.92
2010-01-05,59.45
2010-01-06,59.05
2010-01-07,59.53
2010-01-08,61.0
2010-01-11,61.82
2010-01-12,61.23
2010-01-13,62.13
2010-01-14,62.18
2010-01-15,61.7
2010-01-19,62.73
2010-01-20,62.45
2010-01-21,62.13
2010-01-22,60.73
2010-01-25,60.63
2010-01-26,60.62
2010-01-27,60.74
2010-01-28,60.1
2010-01-29,59.84
2010-02-01,60.39
2010-02-02,61.45
2010-02-03,61.02
2010-02-04,59.79
2010-02-05,60.44
2010-02-08,60.07
2010-02-09,61.15
2010-02-10,60.76
2010-02-11,59.92
2010-02-12,58.94
2010-02-16,59.49
2010-02-17,60.25
2010-02-18,61.15
2010-02-19,61.63
2010-02-22,61.62
2010-02-23,61.03
2010-02-24,61.64
2010-02-25,61.46
2010-02-26,61.63
2010-03-01,63.09
2010-03-02,63.53
2010-03-03,63.0
2010-03-04,63.55
2010-03-05,64.11
2010-03-08,62.57
2010-03-09,62.42
2010-03-10,60.82
2010-03-11,62.7
2010-03-12,62.41
2010-03-15,62.57
2010-03-16,62.72
2010-03-17,63.42
2010-03-18,63.64
2010-03-19,63.37
2010-03-22,64.13
2010-03-23,63.8
2010-03-24,63.24
2010-03-25,62.94
2010-03-26,62.67
2010-03-29,63.11
2010-03-30,63.36
2010-03-31,63.4
2010-04-01,63.58
2010-04-05,63.97
2010-04-06,63.97
2010-04-07,64.61
2010-04-08,64.54
2010-04-09,66.13
2010-04-12,65.63
2010-04-13,66.2
2010-04-14,65.22
2010-04-15,64.74
2010-04-16,64.55
2010-04-19,65.0
2010-04-20,65.6
2010-04-21,65.51
2010-04-22,64.65
2010-04-23,64.78
2010-04-26,64.88
2010-04-27,64.44
2010-04-28,63.58
2010-04-29,63.88
2010-04-30,62.48
2010-05-03,63.28
2010-05-04,63.17
2010-05-05,63.65
2010-05-06,62.59
2010-05-07,61.25
2010-05-10,63.98
2010-05-11,63.61
2010-05-12,63.69
2010-05-13,63.55
2010-05-14,63.0
2010-05-17,63.69
2010-05-18,63.42
2010-05-19,63.69
2010-05-20,61.37
2010-05-21,61.3
2010-05-24,60.43
2010-05-25,60.84
2010-05-26,60.54
2010-05-27,63.08
2010-05-28,63.5
2010-06-01,63.07
2010-06-02,64.77
2010-06-03,65.4
2010-06-04,62.91
2010-06-07,62.61
2010-06-08,62.62
2010-06-09,62.33
2010-06-10,63.91
2010-06-11,64.62
2010-06-14,65.19
2010-06-15,65.57
2010-06-16,65.74
2010-06-17,66.59
2010-06-18,66.56
2010-06-21,64.83
2010-06-22,63.5
2010-06-23,63.2
2010-06-24,62.64
2010-06-25,63.3
2010-06-28,63.77
2010-06-29,62.75
2010-06-30,62.49
2010-07-01,61.8
2010-07-02,61.16
2010-07-06,60.32
2010-07-07,60.71
2010-07-08,59.88
2010-07-09,60.13
2010-07-12,60.53
2010-07-13,61.6
2010-07-14,61.27
2010-07-15,61.2
2010-07-16,60.03
2010-07-19,59.76
2010-07-20,60.01
2010-07-21,58.35
2010-07-22,57.96
2010-07-23,56.9
2010-07-26,60.87
2010-07-27,60.56
2010-07-28,59.24
2010-07-29,58.54
2010-07-30,57.31
2010-08-02,57.86
2010-08-03,61.1
2010-08-04,61.58
2010-08-05,63.16
2010-08-06,63.59
2010-08-09,63.58
2010-08-10,63.59
2010-08-11,63.03
2010-08-12,63.73
2010-08-13,64.17
2010-08-16,64.32
2010-08-17,64.74
2010-08-18,64.63
2010-08-19,63.61
2010-08-20,63.88
2010-08-23,64.15
2010-08-24,64.26
2010-08-25,64.74
2010-08-26,64.08
2010-08-27,65.54
2010-08-30,65.3
2010-08-31,64.58
2010-09-01,63.81
2010-09-02,63.99
2010-09-03,64.25
2010-09-07,64.46
2010-09-08,64.71
2010-09-09,64.93
2010-09-10,64.98
2010-09-13,64.65
2010-09-14,63.19
2010-09-15,65.19
2010-09-16,64.72
2010-09-17,64.88
2010-09-20,66.01
2010-09-21,66.54
2010-09-22,66.11
2010-09-23,66.23
2010-09-24,67.65
2010-09-27,67.39
2010-09-28,68.49
2010-09-29,68.9
2010-09-30,69.01
2010-10-01,68.89
2010-10-04,68.17
2010-10-05,69.25
2010-10-06,69.46
2010-10-07,71.59
2010-10-08,72.18
2010-10-11,71.91
2010-10-12,70.82
2010-10-13,70.8
2010-10-14,71.66
2010-10-15,72.32
2010-10-18,72.4
2010-10-19,71.11
2010-10-20,72.22
2010-10-21,71.88
2010-10-22,71.63
2010-10-25,71.75
2010-10-26,71.27
2010-10-27,70.8
2010-10-28,71.2
2010-10-29,71.79
2010-11-01,72.64
2010-11-02,73.42
2010-11-03,72.01
2010-11-04,72.33
2010-11-05,71.78
2010-11-08,72.03
2010-11-09,72.07
2010-11-10,72.08
2010-11-11,73.63
2010-11-12,72.9
2010-11-15,72.13
2010-11-16,71.22
2010-11-17,71.38
2010-11-18,72.36
2010-11-19,73.1
2010-11-22,73.31
2010-11-23,72.35
2010-11-24,72.97
2010-11-26,72.59
2010-11-29,72.34
2010-11-30,72.86
2010-12-01,74.04
2010-12-02,74.1
2010-12-03,74.09
2010-12-06,73.46
2010-12-07,72.18
2010-12-08,71.67
2010-12-09,71.56
2010-12-10,71.34
2010-12-13,70.69
2010-12-14,71.28
2010-12-15,70.81
2010-12-16,69.7
2010-12-17,70.06
2010-12-20,69.15
2010-12-21,69.35
2010-12-22,69.98
2010-12-23,69.4
2010-12-27,69.56
2010-12-28,69.43
2010-12-29,69.08
2010-12-30,69.79
2010-12-31,69.51
2011-01-03,69.32
2011-01-04,70.32
2011-01-05,69.45
2011-01-06,69.05
2011-01-07,69.28
2011-01-10,69.4
2011-01-11,70.02
2011-01-12,69.7
2011-01-13,70.17
2011-01-14,71.26
2011-01-18,71.37
2011-01-19,71.11
2011-01-20,70.8
2011-01-21,70.69
2011-01-24,70.68
2011-01-25,73.29
2011-01-26,73.52
2011-01-27,75.23
2011-01-28,74.22
2011-01-31,73.81
2011-02-01,74.76
2011-02-02,74.6
2011-02-03,74.89
2011-02-04,76.54
2011-02-07,75.98
2011-02-08,76.72
2011-02-09,76.0
2011-02-10,76.09
2011-02-11,78.54
2011-02-14,78.56
2011-02-15,79.08
2011-02-16,80.12
2011-02-17,80.05
2011-02-18,79.6
2011-02-22,78.35
2011-02-23,77.66
2011-02-24,77.57
2011-02-25,78.58
2011-02-28,79.33
2011-03-01,79.57
2011-03-02,80.7
2011-03-03,80.8
2011-03-04,83.75
2011-03-07,82.48
2011-03-08,83.16
2011-03-09,82.3
2011-03-10,80.89
2011-03-11,81.8
2011-03-14,81.56
2011-03-15,80.52
2011-03-16,79.32
2011-03-17,80.54
2011-03-18,79.76
2011-03-21,79.66
2011-03-22,81.61
2011-03-23,82.94
2011-03-24,82.85
2011-03-25,83.19
2011-03-28,83.03
2011-03-29,82.99
2011-03-30,84.18
2011-03-31,85.61
2011-04-01,86.51
2011-04-04,86.71
2011-04-05,86.25
2011-04-06,86.95
2011-04-07,86.91
2011-04-08,86.66
2011-04-11,86.69
2011-04-12,86.43
2011-04-13,86.75
2011-04-14,86.97
2011-04-15,87.0
2011-04-18,86.1
2011-04-19,86.82
2011-04-20,87.38
2011-04-21,87.69
2011-04-25,87.98
2011-04-26,87.8
2011-04-27,87.85
2011-04-28,88.18
2011-04-29,88.04
2011-05-02,89.19
2011-05-03,85.84
2011-05-04,85.41
2011-05-05,84.46
2011-05-06,84.32
2011-05-09,83.75
2011-05-10,85.44
2011-05-11,85.74
2011-05-12,86.58
2011-05-13,85.56
2011-05-16,85.41
2011-05-17,85.96
2011-05-18,86.65
2011-05-19,86.7
2011-05-20,85.64
2011-05-23,84.51
2011-05-24,83.7
2011-05-25,83.53
2011-05-26,83.9
2011-05-27,83.62
2011-05-31,84.04
2011-06-01,83.92
2011-06-02,84.42
2011-06-03,83.72
2011-06-06,82.92
2011-06-07,82.71
2011-06-08,83.32
2011-06-09,84.04
2011-06-10,83.02
2011-06-13,83.17
2011-06-14,83.81
2011-06-15,83.24
2011-06-16,84.27
2011-06-17,84.09
2011-06-20,84.95
2011-06-21,84.72
2011-06-22,84.99
2011-06-23,84.41
2011-06-24,83.93
2011-06-27,84.9
2011-06-28,85.51
2011-06-29,85.53
2011-06-30,86.61
2011-07-01,87.2
2011-07-05,88.07
2011-07-06,88.5
2011-07-07,89.42
2011-07-08,88.67
2011-07-11,87.0
2011-07-12,87.55
2011-07-13,87.2
2011-07-14,87.06
2011-07-15,87.09
2011-07-18,85.84
2011-07-19,86.58
2011-07-20,86.37
2011-07-21,86.6
2011-07-22,85.84
2011-07-25,84.89
2011-07-26,84.19
2011-07-27,82.7
2011-07-28,83.05
2011-07-29,83.63
2011-08-01,79.66
2011-08-02,79.8
2011-08-03,78.4
2011-08-04,77.79
2011-08-05,78.35
2011-08-08,71.61
2011-08-09,74.26
2011-08-10,70.78
2011-08-11,72.44
2011-08-12,72.73
2011-08-15,74.72
2011-08-16,74.1
2011-08-17,73.36
2011-08-18,70.62
2011-08-19,69.59
2011-08-22,69.19
2011-08-23,71.66
2011-08-24,71.56
2011-08-25,69.5
2011-08-26,71.93
2011-08-29,74.13
2011-08-30,74.08
2011-08-31,73.39
2011-09-01,73.3
2011-09-02,71.37
2011-09-06,72.04
2011-09-07,74.69
2011-09-08,73.37
2011-09-09,71.45
2011-09-12,71.74
2011-09-13,71.89
2011-09-14,73.05
2011-09-15,73.91
2011-09-16,72.81
2011-09-19,72.91
2011-09-20,73.45
2011-09-21,72.49
2011-09-22,69.22
2011-09-23,67.87
2011-09-26,69.4
2011-09-27,71.49
2011-09-28,69.02
2011-09-29,62.92
2011-09-30,62.72
2011-10-03,60.59
2011-10-04,60.91
2011-10-05,62.7
2011-10-06,64.43
2011-10-07,61.63
2011-10-10,62.99
2011-10-11,63.82
2011-10-12,63.63
2011-10-13,62.88
2011-10-14,62.99
2011-10-17,61.49
2011-10-18,65.58
2011-10-19,66.68
2011-10-20,67.0
2011-10-21,69.16
2011-10-24,68.78
2011-10-25,67.88
2011-10-26,68.82
2011-10-27,71.94
2011-10-28,72.65
2011-10-31,70.06
2011-11-01,68.28
2011-11-02,70.1
2011-11-03,73.6
2011-11-04,73.91
2011-11-07,74.02
2011-11-08,74.42
2011-11-09,72.73
2011-11-10,73.35
2011-11-11,74.37
2011-11-14,73.8
2011-11-15,73.71
2011-11-16,73.35
2011-11-17,71.1
2011-11-18,73.37
2011-11-21,72.75
2011-11-22,73.02
2011-11-23,72.43
2011-11-25,71.88
2011-11-28,74.36
2011-11-29,74.18
2011-11-30,76.18
2011-12-01,76.63
2011-12-02,76.86
2011-12-05,76.37
2011-12-06,75.68
2011-12-07,75.43
2011-12-08,73.88
2011-12-09,74.59
2011-12-12,73.23
2011-12-13,72.77
2011-12-14,72.65
2011-12-15,73.74
2011-12-16,74.12
2011-12-19,73.11
2011-12-20,74.66
2011-12-21,74.89
2011-12-22,75.84
2011-12-23,76.43
2011-12-27,76.4
2011-12-28,75.27
2011-12-29,76.0
2011-12-30,75.95
2012-01-03,77.11
2012-01-04,77.33
2012-01-05,77.6
2012-01-06,77.76
2012-01-09,77.76
2012-01-10,78.6
2012-01-11,78.54
2012-01-12,78.91
2012-01-13,78.42
2012-01-17,78.76
2012-01-18,78.45
2012-01-19,79.8
2012-01-20,79.77
2012-01-23,80.46
2012-01-24,80.85
2012-01-25,81.92
2012-01-26,80.85
2012-01-27,81.21
2012-01-30,81.33
2012-01-31,81.89
2012-02-01,83.92
2012-02-02,82.94
2012-02-03,83.99
2012-02-06,84.15
2012-02-07,83.89
2012-02-08,83.68
2012-02-09,84.04
2012-02-10,83.87
2012-02-13,83.9
2012-02-14,84.64
2012-02-15,85.85
2012-02-16,85.44
2012-02-17,85.73
2012-02-21,86.01
2012-02-22,85.91
2012-02-23,85.94
2012-02-24,86.8
2012-02-27,86.24
2012-02-28,86.75
2012-02-29,86.53
2012-03-01,86.8
2012-03-02,86.68
2012-03-05,86.54
2012-03-06,85.88
2012-03-07,86.62
2012-03-08,87.79
2012-03-09,86.2
2012-03-12,86.27
2012-03-13,87.11
2012-03-14,87.93
2012-03-15,87.89
2012-03-16,88.6
2012-03-19,88.09
2012-03-20,87.5
2012-03-21,87.97
2012-03-22,87.46
2012-03-23,86.6
2012-03-26,88.42
2012-03-27,88.56
2012-03-28,88.25
2012-03-29,89.29
2012-03-30,90.15
2012-04-02,89.7
2012-04-03,89.45
2012-04-04,86.9
2012-04-05,87.02
2012-04-09,85.45
2012-04-10,84.81
2012-04-11,85.68
2012-04-12,86.76
2012-04-13,85.74
2012-04-16,85.61
2012-04-17,86.63
2012-04-18,86.75
2012-04-19,87.21
2012-04-20,87.67
2012-04-23,86.23
2012-04-24,86.32
2012-04-25,87.86
2012-04-26,88.16
2012-04-27,89.22
2012-04-30,88.56
2012-05-01,89.67
2012-05-02,86.4
2012-05-03,85.27
2012-05-04,84.38
2012-05-07,84.68
2012-05-08,85.47
2012-05-09,85.59
2012-05-10,84.11
2012-05-11,82.88
2012-05-14,81.97
2012-05-15,82.25
2012-05-16,82.8
2012-05-17,81.42
2012-05-18,80.8
2012-05-21,84.77
2012-05-22,80.12
2012-05-23,80.37
2012-05-24,82.02
2012-05-25,81.7
2012-05-29,82.71
2012-05-30,81.73
2012-05-31,81.18
2012-06-01,80.26
2012-06-04,81.06
2012-06-05,82.46
2012-06-06,83.67
2012-06-07,84.35
2012-06-08,85.55
2012-06-11,84.94
2012-06-12,85.92
2012-06-13,86.82
2012-06-14,88.0
2012-06-15,89.37
2012-06-18,91.5
2012-06-19,93.68
2012-06-20,93.86
2012-06-21,91.72
2012-06-22,94.47
2012-06-25,94.39
2012-06-26,94.19
2012-06-27,95.22
2012-06-28,96.6
2012-06-29,98.09
2012-07-02,97.57
2012-07-03,97.71
2012-07-05,97.54
2012-07-06,96.64
2012-07-09,97.38
2012-07-10,96.8
2012-07-11,97.43
2012-07-12,97.86
2012-07-13,98.96
2012-07-16,98.91
2012-07-17,99.57
2012-07-18,98.65
2012-07-19,98.4
2012-07-20,97.17
2012-07-23,95.1
2012-07-24,94.79
2012-07-25,95.67
2012-07-26,97.72
2012-07-27,98.49
2012-07-30,99.77
2012-07-31,98.43
2012-08-01,98.6
2012-08-02,97.31
2012-08-03,99.25
2012-08-06,95.8
2012-08-07,97.04
2012-08-08,97.22
2012-08-09,96.25
2012-08-10,96.71
2012-08-13,96.39
2012-08-14,97.81
2012-08-15,98.14
2012-08-16,98.22
2012-08-17,97.62
2012-08-20,97.96
2012-08-21,95.97
2012-08-22,96.51
2012-08-23,96.2
2012-08-24,96.95
2012-08-27,97.48
2012-08-28,97.5
2012-08-29,97.3
2012-08-30,97.06
2012-08-31,97.45
2012-09-04,97.65
2012-09-05,100.29
2012-09-06,100.79
2012-09-07,100.55
2012-09-10,98.45
2012-09-11,97.55
2012-09-12,98.5
2012-09-13,99.5
2012-09-14,98.42
2012-09-17,99.64
2012-09-18,99.47
2012-09-19,98.63
2012-09-20,98.64
2012-09-21,101.41
2012-09-24,100.42
2012-09-25,100.25
2012-09-26,100.91
2012-09-27,102.4
2012-09-28,103.61
2012-10-01,103.39
2012-10-02,104.08
2012-10-03,107.61
2012-10-04,108.45
2012-10-05,108.22
2012-10-08,108.47
2012-10-09,107.87
2012-10-10,109.5
2012-10-11,109.59
2012-10-12,110.38
2012-10-15,108.97
2012-10-16,109.98
2012-10-17,110.54
2012-10-18,113.09
2012-10-19,110.67
2012-10-22,111.99
2012-10-23,111.48
2012-10-24,110.78
2012-10-25,111.35
2012-10-26,110.98
2012-10-31,112.52
2012-11-01,112.29
2012-11-02,111.52
2012-11-05,111.61
2012-11-06,114.99
2012-11-07,112.9
2012-11-08,111.95
2012-11-09,112.34
2012-11-12,112.92
2012-11-13,112.64
2012-11-14,111.95
2012-11-15,113.05
2012-11-16,113.08
2012-11-19,113.96
2012-11-20,113.36
2012-11-21,109.94
2012-11-23,110.01
2012-11-26,109.99
2012-11-27,109.2
2012-11-28,108.44
2012-11-29,107.64
2012-11-30,107.89
2012-12-03,106.56
2012-12-04,106.14
2012-12-05,106.22
2012-12-06,105.82
2012-12-07,106.37
2012-12-10,106.41
2012-12-11,107.49
2012-12-12,107.35
2012-12-13,106.98
2012-12-14,109.04
2012-12-17,109.72
2012-12-18,110.66
2012-12-19,110.93
2012-12-20,112.57
2012-12-21,111.9
2012-12-24,110.95
2012-12-26,110.15
2012-12-27,109.9
2012-12-28,109.91
2012-12-31,110.4
2013-01-02,109.06
2013-01-03,109.81
2013-01-04,109.8
2013-01-07,108.38
2013-01-08,109.57
2013-01-09,109.58
2013-01-10,109.7
2013-01-11,109.18
2013-01-14,109.49
2013-01-15,110.29
2013-01-16,112.02
2013-01-17,112.72
2013-01-18,113.21
2013-01-22,114.66
2013-01-23,113.9
2013-01-24,114.35
2013-01-25,114.43
2013-01-28,113.66
2013-01-29,114.97
2013-01-30,114.88
2013-01-31,115.37
2013-02-01,116.72
2013-02-04,114.945
2013-02-05,116.55
2013-02-06,118.1
2013-02-07,118.9
2013-02-08,118.939
2013-02-11,118.74
2013-02-12,118.38
2013-02-13,118.79
2013-02-14,119.14
2013-02-15,117.26
2013-02-19,115.84
2013-02-20,116.22
2013-02-21,115.61
2013-02-22,115.96
2013-02-25,115.54
2013-02-26,116.22
2013-02-27,118.29
2013-02-28,119.71
2013-03-01,120.03
2013-03-04,121.76
2013-03-05,123.34
2013-03-06,122.0
2013-03-07,118.99
2013-03-08,118.76
2013-03-11,118.44
2013-03-12,117.26
2013-03-13,117.2
2013-03-14,118.53
2013-03-15,118.21
2013-03-18,117.21
2013-03-19,117.93
2013-03-20,119.0
2013-03-21,117.78
2013-03-22,117.65
2013-03-25,117.96
2013-03-26,118.28
2013-03-27,118.14
2013-03-28,118.58
2013-04-01,120.07
2013-04-02,127.21
2013-04-03,125.38
2013-04-04,125.29
2013-04-05,125.39
2013-04-08,125.63
2013-04-09,125.72
2013-04-10,125.29
2013-04-11,127.03
2013-04-12,126.82
2013-04-15,124.28
2013-04-16,126.58
2013-04-17,124.93
2013-04-18,121.44
2013-04-19,122.74
2013-04-22,122.33
2013-04-23,123.0
2013-04-24,121.86
2013-04-25,120.88
2013-04-26,120.27
2013-04-29,119.04
2013-04-30,118.71
2013-05-01,118.48
2013-05-02,117.9
2013-05-03,117.15
2013-05-06,118.38
2013-05-07,117.83
2013-05-08,129.46
2013-05-09,128.42
2013-05-10,131.18
2013-05-13,129.92
2013-05-14,130.81
2013-05-15,130.26
2013-05-16,128.15
2013-05-17,128.14
2013-05-20,127.07
2013-05-21,126.61
2013-05-22,126.04
2013-05-23,125.65
2013-05-24,125.0
2013-05-28,127.55
2013-05-29,124.72
2013-05-30,126.4
2013-05-31,124.1
2013-06-03,125.46
2013-06-04,124.9
2013-06-05,123.15
2013-06-06,124.99
2013-06-07,126.43
2013-06-10,127.62
2013-06-11,129.35
2013-06-12,129.98
2013-06-13,129.93
2013-06-14,128.85
2013-06-17,130.24
2013-06-18,129.46
2013-06-19,126.92
2013-06-20,122.96
2013-06-21,123.56
2013-06-24,123.13
2013-06-25,121.94
2013-06-26,121.93
2013-06-27,122.2
2013-06-28,120.88
2013-07-01,121.26
2013-07-02,114.04
2013-07-03,113.38
2013-07-05,114.48
2013-07-08,116.8
2013-07-09,116.08
2013-07-10,116.37
2013-07-11,120.51
2013-07-12,121.2
2013-07-15,120.25
2013-07-16,117.93
2013-07-17,118.36
2013-07-18,117.27
2013-07-19,117.92
2013-07-22,118.62
2013-07-23,118.42
2013-07-24,117.61
2013-07-25,117.53
2013-07-26,117.69
2013-07-29,116.84
2013-07-30,116.32
2013-07-31,116.32
2013-08-01,117.2
2013-08-02,117.44
2013-08-05,117.35
2013-08-06,116.2
2013-08-07,113.95
2013-08-08,113.64
2013-08-09,114.38
