date,close_price
1998-01-02,11.9377
1998-01-05,11.9377
1998-01-06,11.7204
1998-01-07,11.6292
1998-01-08,11.1184
1998-01-09,10.8273
1998-01-12,11.1505
1998-01-13,11.6292
1998-01-14,11.9524
1998-01-15,11.982
1998-01-16,12.0758
1998-01-20,12.0141
1998-01-21,12.1523
1998-01-22,12.0758
1998-01-23,11.8291
1998-01-26,11.9056
1998-01-27,12.3373
1998-01-28,12.4421
1998-01-29,12.6437
1998-01-30,12.6909
1998-02-02,12.91
1998-02-03,12.8477
1998-02-04,12.7233
1998-02-05,12.4745
1998-02-06,12.8005
1998-02-09,13.1116
1998-02-10,13.1414
1998-02-11,13.1588
1998-02-12,13.3902
1998-02-13,13.3454
1998-02-17,13.6714
1998-02-18,13.4997
1998-02-19,13.5321
1998-02-20,13.7809
1998-02-23,13.7485
1998-02-24,13.5943
1998-02-25,13.8581
1998-02-26,13.7958
1998-02-27,14.0745
1998-03-02,14.1218
1998-03-03,14.6519
1998-03-04,14.4951
1998-03-05,14.4329
1998-03-06,14.9306
1998-03-09,14.7763
1998-03-10,14.9455
1998-03-11,14.6817
1998-03-12,14.2612
1998-03-13,14.7589
1998-03-16,14.9629
1998-03-17,15.2267
1998-03-18,15.2739
1998-03-19,15.5377
1998-03-20,15.8637
1998-03-23,15.7095
1998-03-24,15.8165
1998-03-25,15.8165
1998-03-26,16.0827
1998-03-27,16.2072
1998-03-30,15.9583
1998-03-31,16.0976
1998-04-01,15.8637
1998-04-02,15.7393
1998-04-03,16.2519
1998-04-06,16.2072
1998-04-07,16.2843
1998-04-08,17.2215
1998-04-09,18.0163
1998-04-13,18.545
1998-04-14,18.9077
1998-04-15,19.2473
1998-04-16,19.1971
1998-04-17,18.8112
1998-04-20,18.352
1998-04-21,18.352
1998-04-22,18.3057
1998-04-23,17.6768
1998-04-24,17.5803
1998-04-27,17.3179
1998-04-28,17.2677
1998-04-29,17.7232
1998-04-30,17.844
1998-05-01,18.2608
1998-05-04,18.1127
1998-05-05,17.8713
1998-05-06,17.7973
1998-05-07,17.8207
1998-05-08,17.844
1998-05-11,17.5518
1998-05-12,17.844
1998-05-13,18.7477
1998-05-14,18.9152
1998-05-15,18.623
1998-05-18,18.3075
1998-05-19,18.5257
1998-05-20,19.258
1998-05-21,19.963
1998-05-22,19.8423
1998-05-26,20.2551
1998-05-27,20.2551
1998-05-28,20.2318
1998-05-29,20.2084
1998-06-01,20.5707
1998-06-02,21.7392
1998-06-03,21.4744
1998-06-04,21.5951
1998-06-05,21.5445
1998-06-08,21.7158
1998-06-09,21.4744
1998-06-10,21.2796
1998-06-11,20.5473
1998-06-12,20.3526
1998-06-15,20.2084
1998-06-16,20.2084
1998-06-17,21.0849
1998-06-18,21.1822
1998-06-19,21.4003
1998-06-22,21.7158
1998-06-23,22.2534
1998-06-24,22.4481
1998-06-25,22.6663
1998-06-26,22.787
1998-06-29,22.6663
1998-06-30,22.9818
1998-07-01,22.7403
1998-07-02,22.6157
1998-07-06,23.274
1998-07-07,22.9078
1998-07-08,23.1298
1998-07-09,23.0324
1998-07-10,22.6663
1998-07-13,23.1532
1998-07-14,23.5193
1998-07-15,23.0792
1998-07-16,23.274
1998-07-17,22.9584
1998-07-20,22.4949
1998-07-21,22.787
1998-07-22,23.422
1998-07-23,22.6896
1998-07-24,22.4715
1998-07-27,22.9818
1998-07-28,23.0792
1998-07-29,22.5572
1998-07-30,23.8558
1998-07-31,22.361
1998-08-03,22.2159
1998-08-04,21.2823
1998-08-05,21.1371
1998-08-06,20.988
1998-08-07,20.4741
1998-08-10,20.376
1998-08-11,19.8622
1998-08-12,20.325
1998-08-13,20.0583
1998-08-14,19.1992
1998-08-17,18.8814
1998-08-18,19.764
1998-08-19,20.0819
1998-08-20,19.1481
1998-08-21,18.8304
1998-08-24,19.5169
1998-08-25,19.1992
1998-08-26,18.952
1998-08-27,18.2184
1998-08-28,18.6853
1998-08-31,17.3593
1998-09-01,17.8732
1998-09-02,17.5083
1998-09-03,16.7708
1998-09-04,16.3785
1998-09-08,17.2847
1998-09-09,18.0223
1998-09-10,16.9199
1998-09-11,16.967
1998-09-14,18.1203
1998-09-15,18.5126
1998-09-16,18.3636
1998-09-17,17.728
1998-09-18,17.6064
1998-09-21,18.0458
1998-09-22,17.8732
1998-09-23,19.0266
1998-09-24,18.6107
1998-09-25,18.8304
1998-09-28,19.2973
1998-09-29,19.2973
1998-09-30,18.391
1998-10-01,17.2612
1998-10-02,16.8924
1998-10-05,15.6174
1998-10-06,15.9391
1998-10-07,16.2059
1998-10-08,16.1353
1998-10-09,17.2847
1998-10-12,17.8261
1998-10-13,17.2612
1998-10-14,18.0458
1998-10-15,19.1756
1998-10-16,19.9092
1998-10-19,19.8111
1998-10-20,19.8857
1998-10-21,19.615
1998-10-22,19.615
1998-10-23,19.5679
1998-10-26,19.6896
1998-10-27,19.8857
1998-10-28,20.1666
1998-10-29,20.3645
1998-10-30,21.3779
1998-11-02,21.5759
1998-11-03,21.1325
1998-11-04,21.4017
1998-11-05,21.2553
1998-11-06,21.3304
1998-11-09,21.0058
1998-11-10,21.3304
1998-11-11,21.2553
1998-11-12,20.5387
1998-11-13,21.1048
1998-11-16,21.5996
1998-11-17,21.6749
1998-11-18,21.7264
1998-11-19,21.5007
1998-11-20,21.9481
1998-11-23,22.0708
1998-11-24,21.9243
1998-11-25,21.6749
1998-11-27,21.8253
1998-11-30,21.8491
1998-12-01,23.0842
1998-12-02,22.2925
1998-12-03,21.8491
1998-12-04,22.3202
1998-12-07,22.5181
1998-12-08,21.6986
1998-12-09,21.6749
1998-12-10,21.4017
1998-12-11,21.6986
1998-12-14,20.7604
1998-12-15,21.5284
1998-12-16,21.9956
1998-12-17,22.5656
1998-12-18,22.5419
1998-12-21,22.0232
1998-12-22,22.1223
1998-12-23,23.1832
1998-12-24,23.3099
1998-12-28,23.5078
1998-12-29,23.3574
1998-12-30,23.0605
1998-12-31,23.2109
1999-01-04,22.8625
1999-01-05,23.5078
1999-01-06,24.4698
1999-01-07,24.4698
1999-01-08,25.8317
1999-01-11,25.5348
1999-01-12,24.9172
1999-01-13,24.2996
1999-01-14,23.9274
1999-01-15,24.5213
1999-01-19,25.3131
1999-01-20,25.6338
1999-01-21,24.5689
1999-01-22,24.1255
1999-01-25,24.1255
1999-01-26,24.4698
1999-01-27,24.0311
1999-01-28,24.9046
1999-01-29,24.5297
1999-02-01,24.2545
1999-02-02,23.5564
1999-02-03,24.0311
1999-02-04,23.1337
1999-02-05,22.7866
1999-02-08,23.4846
1999-02-09,22.9343
1999-02-10,23.4328
1999-02-11,23.9832
1999-02-12,23.1097
1999-02-16,22.9103
1999-02-17,23.6841
1999-02-18,23.9314
1999-02-19,23.4567
1999-02-22,24.0551
1999-02-23,23.6323
1999-02-24,23.6323
1999-02-25,23.7558
1999-02-26,23.4567
1999-03-01,23.1855
1999-03-02,22.8106
1999-03-03,22.659
1999-03-04,23.2095
1999-03-05,23.9075
1999-03-08,23.9314
1999-03-09,23.0858
1999-03-10,22.7109
1999-03-11,23.0858
1999-03-12,23.1337
1999-03-15,23.357
1999-03-16,23.1337
1999-03-17,22.8864
1999-03-18,23.2573
1999-03-19,23.3849
1999-03-22,23.7838
1999-03-23,22.7348
1999-03-24,22.4118
1999-03-25,23.1576
1999-03-26,22.6869
1999-03-29,22.7866
1999-03-30,22.6112
1999-03-31,22.6869
1999-04-01,22.5115
1999-04-05,23.2095
1999-04-06,23.2852
1999-04-07,24.1548
1999-04-08,24.2823
1999-04-09,24.1308
1999-04-12,24.5815
1999-04-13,25.2516
1999-04-14,25.0522
1999-04-15,25.0522
1999-04-16,25.9017
1999-04-19,25.9496
1999-04-20,25.3034
1999-04-21,25.5029
1999-04-22,25.5268
1999-04-23,25.3792
1999-04-26,25.5786
1999-04-27,25.5508
1999-04-28,25.6026
1999-04-29,26.3139
1999-04-30,25.6349
1999-05-03,26.7919
1999-05-04,25.7353
1999-05-05,25.8358
1999-05-06,25.0605
1999-05-07,26.0126
1999-05-10,25.7634
1999-05-11,25.663
1999-05-12,25.8358
1999-05-13,25.5867
1999-05-14,24.482
1999-05-17,23.2004
1999-05-18,23.353
1999-05-19,23.1763
1999-05-20,23.2245
1999-05-21,23.4012
1999-05-24,22.4973
1999-05-25,22.8509
1999-05-26,23.0758
1999-05-27,22.4973
1999-05-28,22.8991
1999-06-01,23.0999
1999-06-02,22.6982
1999-06-03,22.7505
1999-06-04,22.5978
1999-06-07,22.8991
1999-06-08,22.6219
1999-06-09,22.196
1999-06-10,22.0715
1999-06-11,21.8184
1999-06-14,21.5452
1999-06-15,21.2921
1999-06-16,21.9952
1999-06-17,22.0193
1999-06-18,22.1197
1999-06-21,22.0715
1999-06-22,22.0474
1999-06-23,21.2439
1999-06-24,21.6697
1999-06-25,21.4447
1999-06-28,21.3685
1999-06-29,21.5171
1999-06-30,22.7223
1999-07-01,23.4535
1999-07-02,23.1241
1999-07-06,23.1763
1999-07-07,23.0758
1999-07-08,22.7987
1999-07-09,22.4973
1999-07-12,22.3969
1999-07-13,21.493
1999-07-14,21.2439
1999-07-15,21.5171
1999-07-16,21.7179
1999-07-19,21.6697
1999-07-20,21.3925
1999-07-21,21.8184
1999-07-22,21.6939
1999-07-23,21.4689
1999-07-26,21.3685
1999-07-27,21.4167
1999-07-28,21.4447
1999-07-29,21.0479
1999-07-30,19.7552
1999-08-02,19.9821
1999-08-03,20.2617
1999-08-04,19.8808
1999-08-05,19.7552
1999-08-06,19.5526
1999-08-09,19.4513
1999-08-10,18.8434
1999-08-11,19.3013
1999-08-12,19.1474
1999-08-13,19.7066
1999-08-16,19.7066
1999-08-17,19.9578
1999-08-18,20.6427
1999-08-19,20.4643
1999-08-20,20.8939
1999-08-23,20.9466
1999-08-24,20.7926
1999-08-25,21.0722
1999-08-26,20.9466
1999-08-27,20.8696
1999-08-30,20.5414
1999-08-31,20.9222
1999-09-01,21.0235
1999-09-02,20.6183
1999-09-03,21.2748
1999-09-07,20.7196
1999-09-08,20.517
1999-09-09,20.2617
1999-09-10,20.6669
1999-09-13,21.0479
1999-09-14,20.744
1999-09-15,20.1848
1999-09-16,20.2374
1999-09-17,20.2617
1999-09-20,20.2374
1999-09-21,19.7552
1999-09-22,20.1361
1999-09-23,19.9821
1999-09-24,20.0591
1999-09-27,20.4887
1999-09-28,20.2374
1999-09-29,20.1118
1999-09-30,20.4157
1999-10-01,20.517
1999-10-04,20.7682
1999-10-05,21.0235
1999-10-06,21.4531
1999-10-07,20.8939
1999-10-08,21.0722
1999-10-11,21.603
1999-10-12,21.4531
1999-10-13,21.3761
1999-10-14,21.5017
1999-10-15,20.5414
1999-10-18,21.0479
1999-10-19,21.3761
1999-10-20,21.5301
1999-10-21,21.5301
1999-10-22,21.757
1999-10-25,21.9354
1999-10-26,21.8583
1999-10-27,21.7043
1999-10-28,22.3182
1999-10-29,22.4491
1999-11-01,22.2936
1999-11-02,22.2445
1999-11-03,22.0114
1999-11-04,21.7046
1999-11-05,21.8069
1999-11-08,21.9091
1999-11-09,22.0891
1999-11-10,21.9868
1999-11-11,21.7824
1999-11-12,21.8355
1999-11-15,22.3714
1999-11-16,22.3714
1999-11-17,21.6309
1999-11-18,20.7842
1999-11-19,20.6328
1999-11-22,20.6819
1999-11-23,20.7106
1999-11-24,21.0665
1999-11-26,20.7106
1999-11-29,20.9642
1999-11-30,20.7597
1999-12-01,20.7106
1999-12-02,20.6574
1999-12-03,21.3733
1999-12-06,21.4264
1999-12-07,20.6574
1999-12-08,20.5797
1999-12-09,20.5797
1999-12-10,20.0438
1999-12-13,20.0683
1999-12-14,19.8393
1999-12-15,20.2484
1999-12-16,20.3261
1999-12-17,20.4529
1999-12-20,20.7351
1999-12-21,20.7597
1999-12-22,20.8865
1999-12-23,21.6309
1999-12-27,21.5001
1999-12-28,21.5287
1999-12-29,21.6801
1999-12-30,21.86
1999-12-31,21.8069
2000-01-03,21.3978
2000-01-04,20.7351
2000-01-05,20.7842
2000-01-06,20.8129
2000-01-07,22.3468
2000-01-10,21.9623
2000-01-11,21.3487
2000-01-12,21.9091
2000-01-13,21.7332
2000-01-14,21.1933
2000-01-18,22.1136
2000-01-19,21.86
2000-01-20,21.2464
2000-01-21,20.6328
2000-01-24,20.8865
2000-01-25,20.5306
2000-01-26,19.557
2000-01-27,20.4529
2000-01-28,20.197
2000-01-31,20.5316
2000-02-01,20.6598
2000-02-02,19.8871
2000-02-03,20.1184
2000-02-04,19.8582
2000-02-07,19.7549
2000-02-08,19.8582
2000-02-09,19.5234
2000-02-10,19.3705
2000-02-11,19.0317
2000-02-14,19.3954
2000-02-15,19.0855
2000-02-16,19.0855
2000-02-17,18.9574
2000-02-18,17.974
2000-02-22,18.2054
2000-02-23,17.8211
2000-02-24,17.3293
2000-02-25,17.8211
2000-02-28,17.6641
2000-02-29,17.2509
2000-03-01,17.3293
2000-03-02,17.0691
2000-03-03,17.6888
2000-03-06,17.3046
2000-03-07,16.9658
2000-03-08,17.5608
2000-03-09,17.1724
2000-03-10,16.9658
2000-03-13,17.5855
2000-03-14,16.6848
2000-03-15,18.1558
2000-03-16,18.1021
2000-03-17,18.4409
2000-03-20,17.974
2000-03-21,18.9284
2000-03-22,18.1558
2000-03-23,18.3376
2000-03-24,18.4657
2000-03-27,18.2591
2000-03-28,18.4657
2000-03-29,18.5442
2000-03-30,19.2136
2000-03-31,19.0607
2000-04-03,19.4202
2000-04-04,20.2466
2000-04-05,20.325
2000-04-06,20.635
2000-04-07,20.0152
2000-04-10,21.0978
2000-04-11,21.4613
2000-04-12,22.2092
2000-04-13,22.4944
2000-04-14,21.4366
2000-04-17,23.5521
2000-04-18,22.7009
2000-04-19,22.7009
2000-04-20,22.7257
2000-04-24,22.829
2000-04-25,22.7009
2000-04-26,22.7009
2000-04-27,22.7009
2000-04-28,22.8493
2000-05-01,22.5658
2000-05-02,22.2532
2000-05-03,22.0155
2000-05-04,21.9405
2000-05-05,22.0447
2000-05-08,22.3032
2000-05-09,22.0947
2000-05-10,21.7821
2000-05-11,22.0447
2000-05-12,22.2532
2000-05-15,21.7028
2000-05-16,22.1489
2000-05-17,21.8362
2000-05-18,22.3574
2000-05-19,22.2781
2000-05-22,21.3402
2000-05-23,21.3402
2000-05-24,21.6279
2000-05-25,21.1818
2000-05-26,20.1395
2000-05-30,20.3772
2000-05-31,20.2438
2000-06-01,20.6106
2000-06-02,20.1146
2000-06-05,21.2109
2000-06-06,20.8441
2000-06-07,20.6106
2000-06-08,20.3229
2000-06-09,20.7148
2000-06-12,20.7941
2000-06-13,20.8191
2000-06-14,20.1146
2000-06-15,19.1515
2000-06-16,18.7596
2000-06-19,18.5762
2000-06-20,17.8467
2000-06-21,18.2386
2000-06-22,18.2386
2000-06-23,18.472
2000-06-26,17.9009
2000-06-27,17.9509
2000-06-28,18.2135
2000-06-29,18.805
2000-06-30,18.6441
2000-07-03,19.1049
2000-07-05,19.5919
2000-07-06,20.1659
2000-07-07,20.0833
2000-07-10,20.3007
2000-07-11,20.7094
2000-07-12,20.8963
2000-07-13,20.9268
2000-07-14,20.6268
2000-07-17,20.1919
2000-07-18,20.4615
2000-07-19,20.6528
2000-07-20,20.6006
2000-07-21,20.6006
2000-07-24,20.4909
2000-07-25,20.7896
2000-07-26,20.6007
2000-07-27,20.4909
2000-07-28,20.2975
2000-07-31,20.4909
2000-08-01,20.6007
2000-08-02,20.4337
2000-08-09,22.5834
2000-08-10,22.4374
2000-08-11,22.3913
2000-08-14,22.3375
2000-08-15,21.907
2000-08-16,21.5227
2000-08-17,20.8539
2000-08-18,21.2844
2000-08-21,21.1383
2000-08-22,21.1383
2000-08-23,21.0922
2000-08-24,21.4766
2000-08-25,21.1383
2000-08-28,20.0315
2000-08-29,19.5549
2000-08-30,20.0315
2000-08-31,18.6401
2000-09-01,19.1705
2000-09-05,20.2774
2000-09-06,20.0315
2000-09-07,20.1314
2000-09-08,19.9392
2000-09-11,19.9392
2000-09-12,19.3167
2000-09-13,19.4088
2000-09-14,19.7009
2000-09-15,19.8931
2000-09-18,19.8393
2000-09-19,19.8393
2000-09-20,19.2628
2000-09-21,19.0706
2000-09-22,19.5087
2000-09-25,19.5549
2000-09-26,18.7862
2000-09-27,19.2166
2000-09-28,19.3627
2000-09-29,19.4549
2000-10-02,20.1775
2000-10-03,19.7932
2000-10-04,20.3235
2000-10-05,19.9392
2000-10-06,19.5087
2000-10-09,19.8931
2000-10-10,19.4088
2000-10-11,18.6401
2000-10-12,18.2558
2000-10-13,19.5087
2000-10-16,18.8323
2000-10-17,18.8784
2000-10-18,19.3627
2000-10-19,19.8393
2000-10-20,19.2628
2000-10-23,19.3627
2000-10-24,19.8393
2000-10-25,19.3167
2000-10-26,19.3167
2000-10-27,19.601
2000-10-30,20.6115
2000-10-31,20.4171
2000-11-01,20.176
2000-11-02,20.3238
2000-11-03,19.686
2000-11-06,20.5649
2000-11-07,19.4915
2000-11-08,19.2971
2000-11-09,19.7405
2000-11-10,19.4915
2000-11-13,19.6394
2000-11-14,19.686
2000-11-15,20.3705
2000-11-16,19.4915
2000-11-17,19.4449
2000-11-20,18.4726
2000-11-21,18.9626
2000-11-22,18.5194
2000-11-24,18.7138
2000-11-27,19.1571
2000-11-28,18.9082
2000-11-29,19.0094
2000-11-30,17.7415
2000-12-01,18.6671
2000-12-04,18.5737
2000-12-05,19.2037
2000-12-06,18.5737
2000-12-07,18.5737
2000-12-08,18.7682
2000-12-11,18.5737
2000-12-12,18.426
2000-12-13,18.426
2000-12-14,18.0371
2000-12-15,17.8426
2000-12-18,18.2315
2000-12-19,18.2782
2000-12-20,17.2126
2000-12-21,18.7682
2000-12-22,17.6948
2000-12-26,18.7138
2000-12-27,18.426
2000-12-28,18.8615
2000-12-29,18.3249
2001-01-02,18.8615
2001-01-03,19.4915
2001-01-04,20.9071
2001-01-05,20.3705
2001-01-08,19.8804
2001-01-09,20.5649
2001-01-10,20.4638
2001-01-11,20.9071
2001-01-12,20.5183
2001-01-16,21.1016
2001-01-17,20.8527
2001-01-18,21.1949
2001-01-19,20.4171
2001-01-22,21.1016
2001-01-23,20.9538
2001-01-24,21.6304
2001-01-25,21.926
2001-01-26,22.0136
2001-01-29,22.2337
2001-01-30,22.4067
2001-01-31,22.0844
2001-02-01,22.1787
2001-02-02,22.0293
2001-02-05,22.391
2001-02-06,22.5875
2001-02-07,21.4318
2001-02-08,22.0136
2001-02-09,21.2274
2001-02-12,21.817
2001-02-13,21.9979
2001-02-14,21.9192
2001-02-15,21.9979
2001-02-16,21.8721
2001-02-20,21.7541
2001-02-21,21.7935
2001-02-22,21.6205
2001-02-23,22.3831
2001-02-26,22.6032
2001-02-27,22.3596
2001-02-28,21.8563
2001-03-01,22.1787
2001-03-02,22.0608
2001-03-05,22.2495
2001-03-06,22.8155
2001-03-07,22.8313
2001-03-08,23.8691
2001-03-09,23.6489
2001-03-12,23.7668
2001-03-13,23.4602
2001-03-14,22.6347
2001-03-15,22.4618
2001-03-16,22.3517
2001-03-19,23.4523
2001-03-20,22.6583
2001-03-21,22.2258
2001-03-22,21.8328
2001-03-23,21.9665
2001-03-26,22.7211
2001-03-27,22.163
2001-03-28,21.9743
2001-03-29,22.3988
2001-03-30,22.0136
2001-04-02,22.446
2001-04-03,21.5105
2001-04-04,22.3123
2001-04-05,22.3045
2001-04-06,21.8563
2001-04-09,22.6897
2001-04-10,22.7684
2001-04-11,22.1472
2001-04-12,22.7211
2001-04-16,22.9098
2001-04-17,22.7054
2001-04-18,24.1992
2001-04-19,23.8533
2001-04-20,23.5781
2001-04-23,23.6332
2001-04-24,23.3737
2001-04-25,22.6189
2001-04-26,22.9413
2001-04-27,23.2715
2001-04-30,23.2556
2001-05-01,22.4772
2001-05-02,23.2158
2001-05-03,22.7949
2001-05-04,23.0888
2001-05-07,22.5805
2001-05-08,22.3501
2001-05-09,22.2945
2001-05-10,22.5805
2001-05-11,22.1039
2001-05-14,22.0642
2001-05-15,22.1595
2001-05-16,22.3501
2001-05-17,21.8974
2001-05-18,21.5479
2001-05-21,21.1508
2001-05-22,20.5313
2001-05-23,20.436
2001-05-24,20.1739
2001-05-25,19.6735
2001-05-29,19.8165
2001-05-30,19.4988
2001-05-31,19.332
2001-06-01,19.4988
2001-06-04,19.4908
2001-06-05,19.2684
2001-06-06,19.2446
2001-06-07,19.1334
2001-06-08,19.0779
2001-06-11,19.7449
2001-06-12,19.5623
2001-06-13,19.5147
2001-06-14,19.4194
2001-06-15,19.1414
2001-06-18,19.8403
2001-06-19,19.6179
2001-06-20,19.5623
2001-06-21,20.5472
2001-06-22,19.9991
2001-06-25,19.9197
2001-06-26,19.7291
2001-06-27,19.332
2001-06-28,19.6577
2001-06-29,19.5544
2001-07-02,19.8006
2001-07-03,19.8959
2001-07-05,19.8721
2001-07-06,19.2923
2001-07-09,19.3638
2001-07-10,19.6179
2001-07-11,20.1182
2001-07-12,20.0945
2001-07-13,20.293
2001-07-16,19.8562
2001-07-17,20.4121
2001-07-18,20.1341
2001-07-19,20.3406
2001-07-20,20.4439
2001-07-23,20.2771
2001-07-24,20.015
2001-07-25,20.2295
2001-07-26,19.9436
2001-07-27,20.0865
2001-07-30,19.9753
2001-07-31,20.2215
2001-08-01,20.0929
2001-08-02,20.1893
2001-08-03,20.0286
2001-08-06,19.8517
2001-08-07,20.0366
2001-08-08,19.5865
2001-08-09,19.5544
2001-08-10,19.908
2001-08-13,19.1284
2001-08-14,18.4854
2001-08-15,18.0836
2001-08-16,18.8712
2001-08-17,17.4004
2001-08-20,16.3957
2001-08-21,16.1064
2001-08-22,16.3717
2001-08-23,16.1787
2001-08-24,16.3877
2001-08-27,16.2913
2001-08-28,16.3315
2001-08-29,16.227
2001-08-30,15.8894
2001-08-31,16.01
2001-09-04,16.2753
2001-09-05,16.0502
2001-09-06,15.6643
2001-09-07,15.0616
2001-09-10,15.5599
2001-09-17,13.1166
2001-09-18,13.5828
2001-09-19,13.2292
2001-09-20,12.4817
2001-09-21,12.4656
2001-09-24,13.2292
2001-09-25,13.0202
2001-09-26,13.1005
2001-09-27,13.3176
2001-09-28,13.856
2001-10-01,13.7998
2001-10-02,14.2338
2001-10-03,14.4347
2001-10-04,13.8319
2001-10-05,14.2017
2001-10-08,13.8801
2001-10-09,14.0489
2001-10-10,14.5793
2001-10-11,14.4187
2001-10-12,14.1775
2001-10-15,14.2739
2001-10-16,14.1775
2001-10-17,13.7676
2001-10-18,13.4864
2001-10-19,13.2774
2001-10-22,13.2613
2001-10-23,13.5426
2001-10-24,12.9398
2001-10-25,13.2693
2001-10-26,13.3979
2001-10-29,13.0362
2001-10-30,12.9317
2001-10-31,13.0132
2001-11-01,13.2404
2001-11-02,13.2404
2001-11-05,13.1024
2001-11-06,13.2728
2001-11-07,13.1998
2001-11-08,13.4189
2001-11-09,13.3134
2001-11-12,13.1592
2001-11-13,13.3296
2001-11-14,13.2485
2001-11-15,13.5162
2001-11-16,13.8326
2001-11-19,14.2139
2001-11-20,14.003
2001-11-21,13.9056
2001-11-23,14.6034
2001-11-26,15.0576
2001-11-27,14.8548
2001-11-28,14.5627
2001-11-29,14.8468
2001-11-30,15.3741
2001-12-03,14.441
2001-12-04,14.3599
2001-12-05,13.6217
2001-12-06,14.076
2001-12-07,13.8894
2001-12-10,13.5487
2001-12-11,13.5
2001-12-12,13.5081
2001-12-13,13.1186
2001-12-14,13.0619
2001-12-17,12.2912
2001-12-18,12.2181
2001-12-19,12.1452
2001-12-20,12.356
2001-12-21,12.502
2001-12-24,12.4453
2001-12-26,12.502
2001-12-27,12.7292
2001-12-28,12.8996
2001-12-31,12.7698
2002-01-02,13.1268
2002-01-03,13.5811
2002-01-04,13.719
2002-01-07,13.3945
2002-01-08,13.4269
2002-01-09,13.2647
2002-01-10,12.3398
2002-01-11,12.5751
2002-01-14,12.4129
2002-01-15,12.2505
2002-01-16,12.137
2002-01-17,11.9342
2002-01-18,11.7476
2002-01-22,11.7151
2002-01-23,11.7638
2002-01-24,11.7151
2002-01-25,11.8531
2002-01-28,12.3186
2002-01-29,12.1961
2002-01-30,12.1553
2002-01-31,12.4821
2002-02-01,12.1634
2002-02-04,11.9021
2002-02-05,11.4364
2002-02-06,11.5263
2002-02-07,11.8204
2002-02-08,11.7795
2002-02-11,11.6733
2002-02-12,11.706
2002-02-13,12.2043
2002-02-14,12.0083
2002-02-15,11.9511
2002-02-19,11.6733
2002-02-20,11.8449
2002-02-21,12.0083
2002-02-22,11.8939
2002-02-25,12.4902
2002-02-26,12.67
2002-02-27,12.5229
2002-02-28,12.2125
2002-03-01,12.7761
2002-03-04,13.2172
2002-03-05,12.866
2002-03-06,13.348
2002-03-07,13.7401
2002-03-08,13.7238
2002-03-11,14.0423
2002-03-12,13.8871
2002-03-13,13.9688
2002-03-14,13.8462
2002-03-15,13.8462
2002-03-18,13.9361
2002-03-19,14.0341
2002-03-20,13.4705
2002-03-21,13.6748
2002-03-22,13.6339
2002-03-25,13.1192
2002-03-26,13.1355
2002-03-27,13.1928
2002-03-28,13.3724
2002-04-01,12.8333
2002-04-02,12.5555
2002-04-03,12.3105
2002-04-04,12.3759
2002-04-05,12.3186
2002-04-08,12.3105
2002-04-09,12.2696
2002-04-10,12.8251
2002-04-11,12.2289
2002-04-12,12.4739
2002-04-15,12.3105
2002-04-16,12.9722
2002-04-17,13.2091
2002-04-18,12.9967
2002-04-19,13.3316
2002-04-22,13.1192
2002-04-23,13.4541
2002-04-24,13.2499
2002-04-25,13.2581
2002-04-26,13.3153
2002-04-29,12.9803
2002-04-30,13.0702
2002-05-01,13.4319
2002-05-02,13.2428
2002-05-03,13.251
2002-05-06,13.0949
2002-05-07,12.8236
2002-05-08,13.1524
2002-05-09,13.0785
2002-05-10,13.0209
2002-05-13,13.2922
2002-05-14,13.5141
2002-05-15,13.6539
2002-05-16,13.6292
2002-05-17,13.7771
2002-05-20,13.6949
2002-05-21,14.4265
2002-05-22,14.9362
2002-05-23,14.8458
2002-05-24,14.5581
2002-05-28,14.4348
2002-05-29,14.5663
2002-05-30,14.4677
2002-05-31,14.4594
2002-06-03,14.1635
2002-06-04,13.8511
2002-06-05,13.9416
2002-06-06,13.7442
2002-06-07,13.5881
2002-06-10,13.7936
2002-06-11,13.843
2002-06-12,13.7114
2002-06-13,13.473
2002-06-14,13.062
2002-06-17,13.4319
2002-06-18,13.9004
2002-06-19,13.5634
2002-06-20,12.9387
2002-06-21,12.7578
2002-06-24,13.0291
2002-06-25,13.1688
2002-06-26,12.9387
2002-06-27,12.9797
2002-06-28,13.1278
2002-07-01,12.8072
2002-07-02,12.9716
2002-07-03,12.6181
2002-07-05,12.8976
2002-07-08,12.5441
2002-07-09,12.3962
2002-07-10,11.5165
2002-07-11,10.8261
2002-07-12,10.3657
2002-07-15,10.6041
2002-07-16,10.3082
2002-07-17,10.3904
2002-07-18,10.5384
2002-07-19,10.1273
2002-07-22,9.98764
2002-07-23,9.93829
2002-07-24,10.374
2002-07-25,10.3
2002-07-26,10.3657
2002-07-29,10.7768
2002-07-30,10.8672
2002-07-31,11.1158
2002-08-01,10.8011
2002-08-02,10.2626
2002-08-05,9.74911
2002-08-06,10.0721
2002-08-07,10.1384
2002-08-08,9.8982
2002-08-09,9.7988
2002-08-12,9.64971
2002-08-13,9.45092
2002-08-14,9.4095
2002-08-15,9.58344
2002-08-16,9.44263
2002-08-19,9.99758
2002-08-20,9.86506
2002-08-21,9.92304
2002-08-22,10.0224
2002-08-23,9.76567
2002-08-26,10.0058
2002-08-27,9.81537
2002-08-28,9.60829
2002-08-29,9.65799
2002-08-30,9.73253
2002-09-03,9.06161
2002-09-04,9.11131
2002-09-05,8.78828
2002-09-06,8.44038
2002-09-09,8.86282
2002-09-10,9.03677
2002-09-11,9.2107
2002-09-12,9.0202
2002-09-13,8.78828
2002-09-16,8.84626
2002-09-17,8.63089
2002-09-18,8.49008
2002-09-19,8.15048
2002-09-20,8.07594
2002-09-23,7.95997
2002-09-24,7.68663
2002-09-25,8.24988
2002-09-26,8.34927
2002-09-27,7.97654
2002-09-30,8.00967
2002-10-01,8.16705
2002-10-02,7.72805
2002-10-03,7.52097
2002-10-04,7.18137
2002-10-07,7.01571
2002-10-08,6.41933
2002-10-09,5.93064
2002-10-10,6.30337
2002-10-11,6.89147
2002-10-14,6.60156
2002-10-15,7.28905
2002-10-16,6.84177
2002-10-17,7.03228
2002-10-18,6.84177
2002-10-21,7.87714
2002-10-22,7.88543
2002-10-23,7.57895
2002-10-24,7.27249
2002-10-25,7.22279
2002-10-28,7.28077
2002-10-29,6.99914
2002-10-30,7.05045
2002-10-31,7.05883
2002-11-01,7.06721
2002-11-04,7.21812
2002-11-05,7.46124
2002-11-06,7.85526
2002-11-07,7.36064
2002-11-08,7.26842
2002-11-11,7.09237
2002-11-12,7.23489
2002-11-13,7.13428
2002-11-14,7.41093
2002-11-15,7.25165
2002-11-18,7.39417
2002-11-19,7.18458
2002-11-20,7.48639
2002-11-21,8.63491
2002-11-22,8.54269
2002-11-25,9.10439
2002-11-26,9.06246
2002-11-27,9.27205
2002-11-29,9.51517
2002-12-02,9.61577
2002-12-03,8.3415
2002-12-04,8.50916
2002-12-05,8.40018
2002-12-06,8.26604
2002-12-09,7.91394
2002-12-10,8.07323
2002-12-11,8.14029
2002-12-12,8.24089
2002-12-13,8.12353
2002-12-16,8.30796
2002-12-17,8.30796
2002-12-18,8.17382
2002-12-19,8.19059
2002-12-20,8.21575
2002-12-23,8.11514
2002-12-24,8.04807
2002-12-26,8.20736
2002-12-27,8.02292
2002-12-30,8.02292
2002-12-31,7.85526
2003-01-02,8.30796
2003-01-03,8.11514
2003-01-06,8.44209
2003-01-07,8.46725
2003-01-08,8.38341
2003-01-09,8.55108
2003-01-10,8.71037
2003-01-13,8.85288
2003-01-14,8.83612
2003-01-15,8.6433
2003-01-16,8.70198
2003-01-17,8.51754
2003-01-21,8.48401
2003-01-22,8.15706
2003-01-23,8.40018
2003-01-24,8.18221
2003-01-27,7.9307
2003-01-28,8.03131
2003-01-29,7.96362
2003-01-30,7.63321
2003-01-31,7.70946
2003-02-03,7.78571
2003-02-04,7.63321
2003-02-05,7.68404
2003-02-06,7.60779
2003-02-07,7.4553
2003-02-10,7.54849
2003-02-11,7.54002
2003-02-12,7.38753
2003-02-13,7.16725
2003-02-14,7.36211
2003-02-18,7.56544
2003-02-19,7.47225
2003-02-20,7.32823
2003-02-21,7.13336
2003-02-24,7.01476
2003-02-25,6.88768
2003-02-26,6.87074
2003-02-27,7.0317
2003-02-28,7.04018
2003-03-03,6.81991
2003-03-04,6.5488
2003-03-05,6.56575
2003-03-06,6.31159
2003-03-07,6.12521
2003-03-10,5.93035
2003-03-11,5.59995
2003-03-12,6.01507
2003-03-13,6.04049
2003-03-14,5.76092
2003-03-17,6.09979
2003-03-18,6.41325
2003-03-19,6.42173
2003-03-20,6.40478
2003-03-21,6.77755
2003-03-24,6.39631
2003-03-25,6.46408
2003-03-26,6.47256
2003-03-27,6.37937
2003-03-28,6.28618
2003-03-31,6.36242
2003-04-01,6.32854
2003-04-02,6.57422
2003-04-03,6.65047
2003-04-04,6.67589
2003-04-07,6.81144
2003-04-08,6.68436
2003-04-09,6.71825
2003-04-10,6.68436
2003-04-11,6.84532
2003-04-14,7.19268
2003-04-15,7.07406
2003-04-16,7.82807
2003-04-17,7.97209
2003-04-21,8.37875
2003-04-22,8.73456
2003-04-23,9.19205
2003-04-24,8.89553
2003-04-25,8.43805
2003-04-28,8.59901
2003-04-29,8.74303
2003-04-30,8.81147
2003-05-01,8.53772
2003-05-02,8.58905
2003-05-05,8.58905
2003-05-06,8.57194
2003-05-07,8.55483
2003-05-08,8.47783
2003-05-09,8.44362
2003-05-12,8.58049
2003-05-13,8.66605
2003-05-14,8.56338
2003-05-15,8.52061
2003-05-16,8.56338
2003-05-19,8.40085
2003-05-20,8.2383
2003-05-21,8.25541
2003-05-22,8.3324
2003-05-23,8.17842
2003-05-27,8.6746
2003-05-28,8.78581
2003-05-29,8.63183
2003-05-30,8.98258
2003-06-02,9.43598
2003-06-03,9.17078
2003-06-04,9.0339
2003-06-05,9.06812
2003-06-06,9.16223
2003-06-09,8.99112
2003-06-10,9.37609
2003-06-11,9.66696
2003-06-12,9.63274
2003-06-13,9.34187
2003-06-16,9.59852
2003-06-17,9.97492
2003-06-18,9.86372
2003-06-19,9.6584
2003-06-20,9.85516
2003-06-23,9.67552
2003-06-24,9.71829
2003-06-25,9.60707
2003-06-26,9.60707
2003-06-27,9.42743
2003-06-30,9.41031
2003-07-01,9.22211
2003-07-02,9.31621
2003-07-03,9.28199
2003-07-07,9.5643
2003-07-08,9.55574
2003-07-09,9.53008
2003-07-10,9.52152
2003-07-11,9.6584
2003-07-14,9.68407
2003-07-15,9.92361
2003-07-16,9.3932
2003-07-17,9.25632
2003-07-18,9.34187
2003-07-21,9.0339
2003-07-22,9.04245
2003-07-23,9.06812
2003-07-24,9.11089
2003-07-25,9.35898
2003-07-28,9.27343
2003-07-29,9.25632
2003-07-30,9.18717
2003-07-31,9.54119
2003-08-01,9.41167
2003-08-04,9.35123
2003-08-05,9.10946
2003-08-06,9.18717
2003-08-07,9.25626
2003-08-08,9.25626
2003-08-11,9.24762
2003-08-12,9.27352
2003-08-13,9.32533
2003-08-14,9.27352
2003-08-15,9.28215
2003-08-18,9.42894
2003-08-19,9.54119
2003-08-20,9.66208
2003-08-21,9.86067
2003-08-22,9.67935
2003-08-25,9.5671
2003-08-26,9.8434
2003-08-27,10.0765
2003-08-28,9.86931
2003-08-29,9.95563
2003-09-02,10.6119
2003-09-03,10.2923
2003-09-04,10.232
2003-09-05,10.1456
2003-09-08,10.2234
2003-09-09,10.0334
2003-09-10,9.80886
2003-09-11,9.85203
2003-09-12,10.0161
2003-09-15,9.81749
2003-09-16,10.042
2003-09-17,9.91247
2003-09-18,10.1197
2003-09-19,9.94698
2003-09-22,9.90384
2003-09-23,9.95563
2003-09-24,9.69661
2003-09-25,9.63617
2003-09-26,9.46348
2003-09-29,9.42031
2003-09-30,9.30806
2003-10-01,9.57573
2003-10-02,9.54119
2003-10-03,9.85203
2003-10-06,9.85203
2003-10-07,9.85203
2003-10-08,9.91247
2003-10-09,10.1197
2003-10-10,10.1197
2003-10-13,10.3183
2003-10-14,10.301
2003-10-15,10.4737
2003-10-16,10.6205
2003-10-17,10.4478
2003-10-20,10.6896
2003-10-21,10.5169
2003-10-22,10.2406
2003-10-23,10.4305
2003-10-24,10.2579
2003-10-27,10.396
2003-10-28,10.6983
2003-10-29,10.82
2003-10-30,10.5763
2003-10-31,10.5676
2003-11-03,10.6546
2003-11-04,10.7069
2003-11-05,10.6024
2003-11-06,10.5415
2003-11-07,10.6198
2003-11-10,10.6372
2003-11-11,10.7156
2003-11-12,11.3946
2003-11-13,11.4381
2003-11-14,11.2727
2003-11-17,11.0637
2003-11-18,11.0029
2003-11-19,10.9506
2003-11-20,10.8113
2003-11-21,10.7417
2003-11-24,10.9854
2003-11-25,11.3249
2003-11-26,11.2639
2003-11-28,11.4816
2003-12-01,11.3946
2003-12-02,11.2465
2003-12-03,11.4642
2003-12-04,11.3946
2003-12-05,11.2901
2003-12-08,11.4816
2003-12-09,11.7601
2003-12-10,11.6122
2003-12-11,11.9081
2003-12-12,11.9603
2003-12-15,12.4304
2003-12-16,12.4913
2003-12-17,12.7525
2003-12-18,12.9788
2003-12-19,13.2313
2003-12-22,14.6415
2003-12-23,14.0756
2003-12-24,14.1017
2003-12-26,13.9799
2003-12-29,14.0669
2003-12-30,13.9277
2003-12-31,13.9277
2004-01-02,13.9799
2004-01-05,14.476
2004-01-06,14.3977
2004-01-07,14.7806
2004-01-08,14.8939
2004-01-09,14.4238
2004-01-12,14.2671
2004-01-13,14.1801
2004-01-14,14.0756
2004-01-15,13.9973
2004-01-16,14.032
2004-01-20,14.1104
2004-01-21,14.3106
2004-01-22,14.302
2004-01-23,13.7796
2004-01-26,13.8928
2004-01-27,13.8841
2004-01-28,13.6389
2004-01-29,13.0082
2004-01-30,12.7279
2004-02-02,12.2023
2004-02-03,12.0271
2004-02-04,12.176
2004-02-05,12.4037
2004-02-06,12.5177
2004-02-09,12.4213
2004-02-10,12.614
2004-02-11,12.8243
2004-02-12,12.7367
2004-02-13,12.579
2004-02-17,12.7454
2004-02-18,12.6402
2004-02-19,12.6666
2004-02-20,12.4037
2004-02-23,12.2373
2004-02-24,11.9045
2004-02-25,11.9658
2004-02-26,11.9483
2004-02-27,12.0621
2004-03-01,12.2724
2004-03-02,12.3862
2004-03-03,12.1585
2004-03-04,11.9921
2004-03-05,12.3425
2004-03-08,12.0095
2004-03-09,11.8606
2004-03-10,11.5365
2004-03-11,11.3876
2004-03-12,11.6417
2004-03-15,11.4052
2004-03-16,11.4664
2004-03-17,11.6942
2004-03-18,11.6417
2004-03-19,11.4314
2004-03-22,11.3264
2004-03-23,11.2825
2004-03-24,11.3526
2004-03-25,11.5365
2004-03-26,11.6329
2004-03-29,11.738
2004-03-30,11.9571
2004-03-31,11.8782
2004-04-01,11.7906
2004-04-02,11.9483
2004-04-05,12.2986
2004-04-06,12.2637
2004-04-07,11.9833
2004-04-08,11.9045
2004-04-12,11.9921
2004-04-13,11.7555
2004-04-14,11.6066
2004-04-15,11.5015
2004-04-16,11.6767
2004-04-19,11.6505
2004-04-20,11.887
2004-04-21,13.0958
2004-04-22,13.8404
2004-04-23,13.779
2004-04-26,13.744
2004-04-27,14.0506
2004-04-28,13.6628
2004-04-29,13.5482
2004-04-30,13.5218
2004-05-03,13.4248
2004-05-04,13.5482
2004-05-05,13.3455
2004-05-06,13.0986
2004-05-07,12.6139
2004-05-10,12.3759
2004-05-11,12.6932
2004-05-12,12.7461
2004-05-13,12.7284
2004-05-14,12.94
2004-05-17,12.5786
2004-05-18,12.7373
2004-05-19,12.4023
2004-05-20,12.4993
2004-05-21,12.5433
2004-05-24,12.6139
2004-05-25,12.9488
2004-05-26,13.2397
2004-05-27,13.2309
2004-05-28,13.0986
2004-06-01,13.2486
2004-06-02,13.1251
2004-06-03,13.0282
2004-06-04,13.1604
2004-06-07,13.3984
2004-06-08,13.5658
2004-06-09,13.5393
2004-06-10,13.7245
2004-06-14,13.3807
2004-06-15,13.6011
2004-06-16,13.7773
2004-06-17,13.7686
2004-06-18,14.0066
2004-06-21,13.795
2004-06-22,14.0859
2004-06-23,14.4209
2004-06-24,14.2358
2004-06-25,13.9978
2004-06-28,13.8038
2004-06-29,13.9889
2004-06-30,13.8038
2004-07-01,13.2486
2004-07-02,13.1692
2004-07-06,13.1868
2004-07-07,13.1868
2004-07-08,13.0017
2004-07-09,13.3631
2004-07-12,13.3455
2004-07-13,13.3631
2004-07-14,13.3014
2004-07-15,13.2397
2004-07-16,13.0899
2004-07-19,13.2133
2004-07-20,12.8695
2004-07-21,12.8078
2004-07-22,12.9048
2004-07-23,12.9312
2004-07-26,12.9841
2004-07-27,13.1251
2004-07-28,13.4801
2004-07-29,13.2671
2004-07-30,13.0719
2004-08-02,13.3381
2004-08-03,13.063
2004-08-04,13.0276
2004-08-05,12.6371
2004-08-06,12.4773
2004-08-09,12.4951
2004-08-10,12.6903
2004-08-11,12.6371
2004-08-12,12.2998
2004-08-13,12.2289
2004-08-16,12.4684
2004-08-17,12.5483
2004-08-18,12.6814
2004-08-19,12.4508
2004-08-20,12.5306
2004-08-23,12.4596
2004-08-24,12.3531
2004-08-25,12.4063
2004-08-26,12.3975
2004-08-27,12.5217
2004-08-30,12.3886
2004-08-31,12.5039
2004-09-01,12.3265
2004-09-02,12.7435
2004-09-03,12.6104
2004-09-07,12.9121
2004-09-08,12.6549
2004-09-09,12.5749
2004-09-10,12.3975
2004-09-13,12.4773
2004-09-14,12.4152
2004-09-15,12.2555
2004-09-16,12.3708
2004-09-17,12.6282
2004-09-20,12.5394
2004-09-21,12.6282
2004-09-22,12.4241
2004-09-23,12.2555
2004-09-24,12.2289
2004-09-27,12.3176
2004-09-28,12.3531
2004-09-29,12.291
2004-09-30,12.4684
2004-10-01,12.5927
2004-10-04,12.5483
2004-10-05,12.5572
2004-10-06,12.5572
2004-10-07,12.291
2004-10-08,12.3797
2004-10-11,12.3797
2004-10-12,12.2643
2004-10-13,12.149
2004-10-14,11.6521
2004-10-15,11.8117
2004-10-18,11.8828
2004-10-19,11.4745
2004-10-20,11.439
2004-10-21,11.5811
2004-10-22,11.5011
2004-10-25,11.2792
2004-10-26,11.3947
2004-10-27,11.6697
2004-10-28,11.7592
2004-10-29,11.6609
2004-11-01,11.8129
2004-11-02,11.8576
2004-11-03,11.8487
2004-11-04,12.2958
2004-11-05,12.3316
2004-11-08,12.3226
2004-11-09,12.5999
2004-11-10,12.4478
2004-11-11,12.725
2004-11-12,12.7071
2004-11-15,12.8323
2004-11-16,12.7161
2004-11-17,12.7877
2004-11-18,12.8323
2004-11-19,12.6535
2004-11-22,12.5999
2004-11-23,12.5999
2004-11-24,12.5909
2004-11-26,12.7429
2004-11-29,12.725
2004-11-30,12.6803
2004-12-01,12.6445
2004-12-02,12.6982
2004-12-03,12.7877
2004-12-06,12.7608
2004-12-07,12.7519
2004-12-08,12.7161
2004-12-09,12.7519
2004-12-10,12.7161
2004-12-13,12.725
2004-12-14,12.8144
2004-12-15,12.7877
2004-12-16,12.725
2004-12-17,12.7966
2004-12-20,13.1006
2004-12-21,13.1543
2004-12-22,13.2705
2004-12-23,13.2705
2004-12-27,13.1989
2004-12-28,13.2884
2004-12-29,13.2168
2004-12-30,13.2347
2004-12-31,13.1185
2005-01-03,13.1543
2005-01-04,13.0738
2005-01-05,12.9039
2005-01-06,12.9218
2005-01-07,13.0827
2005-01-10,13.0112
2005-01-11,12.9128
2005-01-12,12.8055
2005-01-13,12.5909
2005-01-14,12.573
2005-01-18,12.573
2005-01-19,12.4567
2005-01-20,12.0365
2005-01-21,11.7324
2005-01-24,11.6967
2005-01-25,11.8219
2005-01-26,12.029
2005-01-27,11.8938
2005-01-28,11.8398
2005-01-31,11.8488
2005-02-01,11.8038
2005-02-02,11.966
2005-02-03,11.8218
2005-02-04,11.9209
2005-02-07,12.065
2005-02-08,11.8669
2005-02-09,11.8218
2005-02-10,11.7947
2005-02-11,11.7858
2005-02-14,11.8038
2005-02-15,11.8488
2005-02-16,11.9479
2005-02-17,11.7226
2005-02-18,11.6687
2005-02-22,11.4884
2005-02-23,11.5514
2005-02-24,11.5334
2005-02-25,11.7137
2005-02-28,11.3982
2005-03-01,11.3982
2005-03-02,11.2541
2005-03-03,11.2631
2005-03-04,11.164
2005-03-07,11.3172
2005-03-08,11.2271
2005-03-09,11.119
2005-03-10,11.137
2005-03-11,11.1731
2005-03-14,11.155
2005-03-15,11.0199
2005-03-16,10.7315
2005-03-17,10.5243
2005-03-18,10.2449
2005-03-21,10.362
2005-03-22,10.0737
2005-03-23,9.90254
2005-03-24,10.1999
2005-03-28,10.1188
2005-03-29,10.1458
2005-03-30,10.29
2005-03-31,10.1908
2005-04-01,10.0737
2005-04-04,9.98367
2005-04-05,10.0017
2005-04-06,10.0107
2005-04-07,10.1729
2005-04-08,9.93859
2005-04-11,9.41597
2005-04-12,9.08259
2005-04-13,9.05556
2005-04-14,8.78525
2005-04-15,8.55097
2005-04-18,8.4068
2005-04-19,8.38878
2005-04-20,8.42483
2005-04-21,8.84831
2005-04-22,8.90238
2005-04-25,8.83931
2005-04-26,8.64107
2005-04-27,8.52394
2005-04-28,8.31467
2005-04-29,8.30557
2005-05-02,8.41484
2005-05-03,8.6152
2005-05-04,9.27091
2005-05-05,8.85198
2005-05-06,8.88841
2005-05-09,9.06144
2005-05-10,8.8793
2005-05-11,8.78824
2005-05-12,8.53324
2005-05-13,8.45127
2005-05-16,8.56056
2005-05-17,8.48771
2005-05-18,9.02501
2005-05-19,9.07965
2005-05-20,9.10697
2005-05-23,9.25269
2005-05-24,9.10697
2005-05-25,9.07965
2005-05-26,9.1343
2005-05-27,9.17983
2005-05-31,9.09787
2005-06-01,9.03412
2005-06-02,9.33465
2005-06-03,9.06144
2005-06-06,9.05233
2005-06-07,9.16162
2005-06-08,9.18894
2005-06-09,9.1252
2005-06-10,9.40751
2005-06-13,9.58964
2005-06-14,9.85375
2005-06-15,10.1634
2005-06-16,10.3455
2005-06-17,10.2727
2005-06-20,10.1179
2005-06-21,10.1998
2005-06-22,9.72625
2005-06-23,9.49858
2005-06-24,9.30733
2005-06-27,9.21626
2005-06-28,9.46215
2005-06-29,9.48947
2005-06-30,9.33465
2005-07-01,9.38929
2005-07-05,9.48037
2005-07-06,9.41661
2005-07-07,9.36197
2005-07-08,9.48947
2005-07-11,9.75357
2005-07-12,9.80822
2005-07-13,9.74446
2005-07-14,9.89018
2005-07-15,9.99947
2005-07-18,9.96299
2005-07-19,9.88107
2005-07-20,9.95394
2005-07-21,9.71714
2005-07-22,9.75357
2005-07-25,9.66251
2005-07-26,9.88107
2005-07-27,9.90839
2005-07-28,9.9266
2005-07-29,9.89903
2005-08-01,9.96339
2005-08-02,9.99092
2005-08-03,9.90822
2005-08-04,9.79793
2005-08-05,9.52219
2005-08-08,9.53138
2005-08-09,9.57734
2005-08-10,9.56814
2005-08-11,9.52219
2005-08-12,9.32917
2005-08-15,9.33836
2005-08-16,9.24644
2005-08-17,9.13615
2005-08-18,8.97071
2005-08-19,8.96152
2005-08-22,8.9799
2005-08-23,9.00747
2005-08-24,9.09939
2005-08-25,9.03505
2005-08-26,8.98909
2005-08-29,8.96152
2005-08-30,8.96152
2005-08-31,9.11777
2005-09-01,8.94314
2005-09-02,9.05343
2005-09-06,9.14534
2005-09-07,9.2924
2005-09-08,9.14534
2005-09-09,9.09939
2005-09-12,9.09939
2005-09-13,9.02585
2005-09-14,9.14534
2005-09-15,9.06262
2005-09-16,9.10857
2005-09-19,8.92476
2005-09-20,8.97071
2005-09-21,8.86041
2005-09-22,8.93394
2005-09-23,9.01666
2005-09-26,9.16373
2005-09-27,9.05343
2005-09-28,9.15453
2005-09-29,9.06262
2005-09-30,9.06262
2005-10-03,9.08101
2005-10-04,8.99828
2005-10-05,8.64901
2005-10-06,8.54791
2005-10-07,8.47437
2005-10-10,8.21702
2005-10-11,8.00562
2005-10-12,8.00562
2005-10-13,8.26298
2005-10-14,7.9137
2005-10-17,7.95048
2005-10-18,7.79423
2005-10-19,7.80341
2005-10-20,7.75745
2005-10-21,7.59202
2005-10-24,7.90452
2005-10-25,7.94128
2005-10-26,7.84937
2005-10-27,7.48171
2005-10-28,7.4631
2005-10-31,7.75158
2005-11-01,7.65852
2005-11-02,7.69575
2005-11-03,7.77949
2005-11-04,7.72366
2005-11-07,7.77019
2005-11-08,7.68644
2005-11-09,7.48171
2005-11-10,7.29561
2005-11-11,7.43519
2005-11-14,7.37936
2005-11-15,7.28629
2005-11-16,7.12811
2005-11-17,7.26768
2005-11-18,7.82603
2005-11-21,7.72366
2005-11-22,7.75158
2005-11-23,7.83533
2005-11-25,7.75158
2005-11-28,7.80742
2005-11-29,7.947
2005-11-30,7.57478
2005-12-01,7.55617
2005-12-02,7.59339
2005-12-05,7.50033
2005-12-06,7.53756
2005-12-07,7.612
2005-12-08,7.59339
2005-12-09,7.60269
2005-12-12,7.63061
2005-12-13,7.54685
2005-12-14,7.59339
2005-12-15,7.612
2005-12-16,7.71436
2005-12-19,7.66783
2005-12-20,7.50033
2005-12-21,7.4631
2005-12-22,7.39797
2005-12-23,7.37005
2005-12-27,7.34214
2005-12-28,7.30491
2005-12-29,7.26768
2005-12-30,7.17463
2006-01-03,7.28629
2006-01-04,7.4631
2006-01-05,7.76088
2006-01-06,7.92839
2006-01-09,8.03074
2006-01-10,8.15172
2006-01-11,8.30061
2006-01-12,7.9563
2006-01-13,7.9563
2006-01-17,7.72366
2006-01-18,7.63061
2006-01-19,7.63991
2006-01-20,7.33283
2006-01-23,7.69575
2006-01-24,7.79811
2006-01-25,8.03074
2006-01-26,8.14384
2006-01-27,8.15325
2006-01-30,8.17208
2006-01-31,8.07794
2006-02-01,8.16267
2006-02-02,7.88022
2006-02-03,7.79549
2006-02-06,7.63543
2006-02-07,7.6166
2006-02-08,7.75783
2006-02-09,7.88963
2006-02-10,7.78607
2006-02-13,7.72959
2006-02-14,7.81432
2006-02-15,7.88963
2006-02-16,7.88963
2006-02-17,7.95554
2006-02-21,7.90846
2006-02-22,7.81432
2006-02-23,7.68251
2006-02-24,7.62603
2006-02-27,7.6166
2006-02-28,7.50363
2006-03-01,7.47538
2006-03-02,7.21176
2006-03-03,7.12703
2006-03-06,7.24002
2006-03-07,7.19293
2006-03-08,7.11762
2006-03-09,7.31533
2006-03-10,7.38124
2006-03-13,7.40948
2006-03-14,7.28709
2006-03-15,7.38124
2006-03-16,7.46597
2006-03-17,7.35299
2006-03-20,7.46597
2006-03-21,7.57894
2006-03-22,7.6731
2006-03-23,7.6166
2006-03-24,7.62603
2006-03-27,7.58836
2006-03-28,7.66368
2006-03-29,7.77666
2006-03-30,7.68251
2006-03-31,7.49421
2006-04-03,7.31533
2006-04-04,7.23059
2006-04-05,7.12703
2006-04-06,7.20235
2006-04-07,7.16469
2006-04-10,7.08937
2006-04-11,6.76927
2006-04-12,6.86342
2006-04-13,6.92932
2006-04-17,6.89167
2006-04-18,7.03289
2006-04-19,7.14586
2006-04-20,7.49421
2006-04-21,6.90108
2006-04-24,6.54332
2006-04-25,6.58097
2006-04-26,6.82576
2006-04-27,6.76927
2006-04-28,6.65457
2006-05-01,6.60683
2006-05-02,6.59729
2006-05-03,6.46362
2006-05-04,6.51135
2006-05-05,6.61638
2006-05-08,6.64502
2006-05-09,6.86462
2006-05-10,6.7214
2006-05-11,6.79778
2006-05-12,6.78823
2006-05-15,6.80733
2006-05-16,6.71185
2006-05-17,6.59729
2006-05-18,6.59729
2006-05-19,6.73095
2006-05-22,6.57819
2006-05-23,6.54
2006-05-24,6.61638
2006-05-25,6.84552
2006-05-26,6.98872
2006-05-30,6.67366
2006-05-31,6.83597
2006-06-01,6.87416
2006-06-02,6.77868
2006-06-05,6.63547
2006-06-06,6.57819
2006-06-07,6.49227
2006-06-08,6.34905
2006-06-09,6.44453
2006-06-12,6.45407
2006-06-13,6.37769
2006-06-14,6.32041
2006-06-15,6.46362
2006-06-16,6.38724
2006-06-19,6.45407
2006-06-20,6.16765
2006-06-21,6.139
2006-06-22,6.14856
2006-06-23,6.23448
2006-06-26,6.25358
2006-06-27,6.24403
2006-06-28,6.07218
2006-06-29,6.10082
2006-06-30,6.61638
2006-07-03,6.44453
2006-07-05,6.32041
2006-07-06,6.29177
2006-07-07,6.42543
2006-07-10,6.58773
2006-07-11,6.48271
2006-07-12,6.56865
2006-07-13,6.26312
2006-07-14,6.08172
2006-07-17,6.11992
2006-07-18,6.139
2006-07-19,6.05308
2006-07-20,5.91942
2006-07-21,5.9958
2006-07-24,6.06262
2006-07-25,6.31086
2006-07-26,6.42543
2006-07-27,6.53045
2006-07-28,6.56865
2006-07-31,6.43393
2006-08-01,6.32814
2006-08-02,6.68398
2006-08-03,6.59743
2006-08-04,6.85709
2006-08-07,6.91479
2006-08-08,7.06866
2006-08-09,7.04944
2006-08-10,7.10714
2006-08-11,7.0879
2006-08-14,7.52068
2006-08-15,7.60724
2006-08-16,7.94384
2006-08-17,7.85729
2006-08-18,7.69379
2006-08-21,7.19369
2006-08-22,7.1456
2006-08-23,7.45336
2006-08-24,7.45336
2006-08-25,7.69379
2006-08-28,7.76111
2006-08-29,7.94384
2006-08-30,7.94384
2006-08-31,8.04001
2006-09-01,7.97269
2006-09-05,8.07847
2006-09-06,8.23236
2006-09-07,8.24197
2006-09-08,8.4247
2006-09-11,8.37661
2006-09-12,8.72283
2006-09-13,8.83823
2006-09-14,8.75168
2006-09-15,7.71302
2006-09-18,7.50145
2006-09-19,7.3668
2006-09-20,7.45336
2006-09-21,7.46297
2006-09-22,7.69379
2006-09-25,7.84766
2006-09-26,8.06886
2006-09-27,7.69379
2006-09-28,7.83805
2006-09-29,7.79957
2006-10-02,7.81881
2006-10-03,7.91499
2006-10-04,8.25159
2006-10-05,8.01116
2006-10-06,7.98231
2006-10-09,7.87651
2006-10-10,7.87651
2006-10-11,7.94384
2006-10-12,7.91499
2006-10-13,7.85729
2006-10-16,7.78035
2006-10-17,7.72264
2006-10-18,7.74187
2006-10-19,7.71302
2006-10-20,7.70341
2006-10-23,7.588
2006-10-24,7.97269
2006-10-25,8.15541
2006-10-26,8.13618
2006-10-27,7.96307
2006-10-30,7.9246
2006-10-31,7.96307
2006-11-01,8.17465
2006-11-02,8.23236
2006-11-03,8.06886
2006-11-06,8.31891
2006-11-07,8.39585
2006-11-08,8.29006
2006-11-09,8.23236
2006-11-10,8.23236
2006-11-13,8.53049
2006-11-14,8.45355
2006-11-15,8.65551
2006-11-16,8.68436
2006-11-17,8.54011
2006-11-20,8.33815
2006-11-21,8.24197
2006-11-22,8.28044
2006-11-24,8.2035
2006-11-27,7.8669
2006-11-28,7.83805
2006-11-29,7.85729
2006-11-30,7.82843
2006-12-01,7.72264
2006-12-04,7.588
2006-12-05,7.39565
2006-12-06,7.06866
2006-12-07,6.88594
2006-12-08,6.95326
2006-12-11,6.95326
2006-12-12,6.81862
2006-12-13,6.62628
2006-12-14,6.82824
2006-12-15,6.79939
2006-12-18,6.7513
2006-12-19,6.90518
2006-12-20,7.04944
2006-12-21,7.01096
2006-12-22,7.12638
2006-12-26,7.20331
2006-12-27,7.28025
2006-12-28,7.21293
2006-12-29,7.22255
2007-01-03,7.22255
2007-01-04,7.39565
2007-01-05,7.32834
2007-01-08,7.43412
2007-01-09,7.49183
2007-01-10,7.43412
2007-01-11,7.47259
2007-01-12,7.588
2007-01-16,7.63609
2007-01-17,7.72264
2007-01-18,7.8669
2007-01-19,7.99192
2007-01-22,8.0881
2007-01-23,7.99192
2007-01-24,7.88614
2007-01-25,7.90537
2007-01-26,8.0881
2007-01-29,8.05925
2007-01-30,7.89575
2007-01-31,7.82843
2007-02-01,7.96307
2007-02-02,7.90537
2007-02-05,8.01116
2007-02-06,8.22273
2007-02-07,8.23236
2007-02-08,8.22273
2007-02-09,8.40546
2007-02-12,8.33815
2007-02-13,8.12656
2007-02-14,8.18427
2007-02-15,8.28044
2007-02-16,8.2035
2007-02-20,8.32852
2007-02-21,8.1458
2007-02-22,8.0304
2007-02-23,7.98231
2007-02-26,7.95346
2007-02-27,7.50145
2007-02-28,7.60724
2007-03-01,7.46297
2007-03-02,7.31871
2007-03-05,7.28986
2007-03-06,7.33795
2007-03-07,7.32834
2007-03-08,7.6457
2007-03-09,7.63609
2007-03-12,7.61685
2007-03-13,7.34756
2007-03-14,7.22255
2007-03-15,7.3091
2007-03-16,7.2514
2007-03-19,7.50145
2007-03-20,7.57839
2007-03-21,7.70341
2007-03-22,7.77072
2007-03-23,7.588
2007-03-26,7.56876
2007-03-27,7.54953
2007-03-28,7.69379
2007-03-29,7.63609
2007-03-30,7.588
2007-04-02,7.77072
2007-04-03,7.77072
2007-04-04,7.74187
2007-04-05,7.68417
2007-04-09,7.77072
2007-04-10,7.87651
2007-04-11,7.8092
2007-04-12,7.76111
2007-04-13,7.69379
2007-04-16,7.72264
2007-04-17,7.56876
2007-04-18,7.52068
2007-04-19,7.46297
2007-04-20,7.43412
2007-04-23,7.5303
2007-04-24,7.5303
2007-04-25,7.55915
2007-04-26,7.89575
2007-04-27,7.7515
2007-04-30,7.7515
2007-05-01,7.74187
2007-05-02,7.87651
2007-05-03,7.8669
2007-05-04,7.89575
2007-05-07,7.84766
2007-05-08,8.04962
2007-05-09,8.04001
2007-05-10,7.9246
2007-05-11,8.04962
2007-05-14,8.37661
2007-05-15,8.57857
2007-05-16,8.4247
2007-05-17,8.43432
2007-05-18,8.35737
2007-05-21,8.44393
2007-05-22,8.34776
2007-05-23,8.4247
2007-05-24,8.16503
2007-05-25,8.10733
2007-05-29,8.06886
2007-05-30,8.18427
2007-05-31,8.00154
2007-06-01,8.02077
2007-06-04,7.94384
2007-06-05,7.99192
2007-06-06,7.94384
2007-06-07,7.74187
2007-06-08,7.93422
2007-06-11,8.06886
2007-06-12,8.02077
2007-06-13,8.23236
2007-06-14,8.3093
2007-06-15,8.56896
2007-06-18,8.50163
2007-06-19,8.32852
2007-06-20,8.54011
2007-06-21,8.55933
2007-06-22,8.79977
2007-06-25,8.69398
2007-06-26,8.62666
2007-06-27,8.94403
2007-06-28,9.11714
2007-06-29,9.04982
2007-07-02,9.25178
2007-07-03,9.03058
2007-07-05,8.79977
2007-07-06,8.77092
2007-07-09,8.73245
2007-07-10,8.75168
2007-07-11,8.54972
2007-07-12,8.60742
2007-07-13,8.61705
2007-07-16,8.53049
2007-07-17,8.39585
2007-07-18,8.29967
2007-07-19,8.29006
2007-07-20,8.07847
2007-07-23,8.12656
2007-07-24,7.94384
2007-07-25,7.68417
2007-07-26,7.79957
2007-07-27,7.93422
2007-07-30,8.39585
2007-07-31,8.2035
2007-08-01,8.12656
2007-08-02,8.12656
2007-08-03,7.7515
2007-08-06,7.88614
2007-08-07,7.96307
2007-08-08,8.4824
2007-08-09,8.07847
2007-08-10,7.9246
2007-08-13,8.0304
2007-08-14,7.76111
2007-08-15,7.70341
2007-08-16,7.45336
2007-08-17,7.52068
2007-08-20,7.69379
2007-08-21,7.60724
2007-08-22,7.53991
2007-08-23,7.43412
2007-08-24,7.59761
2007-08-27,7.50145
2007-08-28,7.23216
2007-08-29,7.44374
2007-08-30,7.38604
2007-08-31,7.52068
2007-09-04,7.69379
2007-09-05,7.46297
2007-09-06,7.47259
2007-09-07,7.23216
2007-09-10,7.24178
2007-09-11,7.29949
2007-09-12,7.22255
2007-09-13,7.6457
2007-09-14,7.72264
2007-09-17,7.97269
2007-09-18,8.06886
2007-09-19,8.06886
2007-09-20,7.93422
2007-09-21,7.89575
2007-09-24,8.15541
2007-09-25,8.01116
2007-09-26,8.53049
2007-09-27,8.3093
2007-09-28,8.15541
2007-10-01,7.91499
2007-10-02,8.23236
2007-10-03,8.09771
2007-10-04,7.94384
2007-10-05,8.05925
2007-10-08,7.88614
2007-10-09,7.99192
2007-10-10,7.89575
2007-10-11,8.45355
2007-10-12,8.86709
2007-10-15,8.6459
2007-10-16,8.45355
2007-10-17,8.35737
2007-10-18,8.44393
2007-10-19,8.06886
2007-10-22,8.00154
2007-10-23,8.3093
2007-10-24,8.26121
2007-10-25,8.28044
2007-10-26,8.31891
2007-10-29,8.4247
2007-10-30,8.46317
2007-10-31,8.52087
2007-11-01,8.18427
2007-11-02,8.57857
2007-11-05,8.33815
2007-11-06,8.29006
2007-11-07,7.95346
2007-11-08,8.04001
2007-11-09,7.89575
2007-11-12,7.59761
2007-11-13,7.69379
2007-11-14,7.66494
2007-11-15,7.47259
2007-11-16,7.41489
2007-11-19,7.05905
2007-11-20,6.96288
2007-11-21,6.67436
2007-11-23,6.89556
2007-11-26,6.77054
2007-11-27,6.79939
2007-11-28,7.07829
2007-11-29,7.03981
2007-11-30,7.20331
2007-12-03,6.9725
2007-12-04,6.72245
2007-12-05,6.73206
2007-12-06,6.77054
2007-12-07,6.76092
2007-12-10,6.8667
2007-12-11,6.70321
2007-12-12,6.78977
2007-12-13,6.72245
2007-12-14,6.63589
2007-12-17,6.51087
2007-12-18,6.53972
2007-12-19,6.49164
2007-12-20,6.54934
2007-12-21,6.53972
2007-12-24,6.48202
2007-12-26,6.63589
2007-12-27,6.55895
2007-12-28,6.46278
2007-12-31,6.46278
2008-01-02,6.35699
2008-01-03,6.18388
2008-01-04,5.90498
2008-01-07,5.93383
2008-01-08,5.87613
2008-01-09,5.82804
2008-01-10,6.02039
2008-01-11,5.81843
2008-01-14,5.93383
2008-01-15,5.69341
2008-01-16,5.64532
2008-01-17,5.52029
2008-01-18,5.72226
2008-01-22,5.71264
2008-01-23,6.03963
2008-01-24,6.04924
2008-01-25,6.28967
2008-01-28,6.40508
2008-01-29,6.44355
2008-01-30,6.50125
2008-01-31,6.33775
2008-02-01,6.57819
2008-02-04,6.40508
2008-02-05,6.22235
2008-02-06,6.04924
2008-02-07,5.92422
2008-02-08,5.83767
2008-02-11,6.14542
2008-02-12,6.21273
2008-02-13,6.32814
2008-02-14,6.22235
2008-02-15,6.20312
2008-02-19,6.22235
2008-02-20,6.17427
2008-02-21,5.98192
2008-02-22,6.00115
2008-02-25,6.22235
2008-02-26,6.27044
2008-02-27,6.32814
2008-02-28,6.37623
2008-02-29,6.26082
2008-03-03,5.95307
2008-03-04,5.90498
2008-03-05,5.87613
2008-03-06,5.71264
2008-03-07,5.55876
2008-03-10,5.39527
2008-03-11,5.66456
2008-03-12,5.49144
2008-03-13,5.16446
2008-03-14,5.09713
2008-03-17,4.91441
2008-03-18,5.06828
2008-03-19,5.24139
2008-03-20,5.40488
2008-03-24,5.73187
2008-03-25,5.77034
2008-03-26,5.65493
2008-03-27,5.61647
2008-03-28,5.37603
2008-03-31,5.48182
2008-04-01,5.72226
2008-04-02,5.90498
2008-04-03,6.20312
2008-04-04,6.2512
2008-04-07,6.49164
2008-04-08,6.64551
2008-04-09,6.44355
2008-04-10,6.48202
2008-04-11,6.44355
2008-04-14,6.5301
2008-04-15,6.63589
2008-04-16,6.90518
2008-04-17,7.00135
2008-04-18,7.17446
2008-04-21,7.44374
2008-04-22,7.38604
2008-04-23,7.22255
2008-04-24,8.06886
2008-04-25,7.22255
2008-04-28,7.88614
2008-04-29,7.82843
2008-04-30,7.96307
2008-05-01,8.15541
2008-05-02,7.9246
2008-05-05,8.0304
2008-05-06,7.93422
2008-05-07,7.65532
2008-05-08,7.87651
2008-05-09,7.77072
2008-05-12,7.82843
2008-05-13,7.90537
2008-05-14,7.81881
2008-05-15,7.83805
2008-05-16,7.78996
2008-05-19,7.70341
2008-05-20,7.68417
2008-05-21,7.50145
2008-05-22,6.88594
2008-05-23,6.61665
2008-05-27,6.53972
2008-05-28,6.50125
2008-05-29,6.45317
2008-05-30,6.5301
2008-06-02,6.39547
2008-06-03,6.42432
2008-06-04,6.23197
2008-06-05,6.13579
2008-06-06,5.83767
2008-06-09,5.93383
2008-06-10,5.88574
2008-06-11,5.75111
2008-06-12,5.75111
2008-06-13,6.04924
2008-06-16,6.27044
2008-06-17,6.33775
2008-06-18,5.94345
2008-06-19,6.06848
2008-06-20,5.56838
2008-06-23,5.08752
2008-06-24,5.10676
2008-06-25,5.02982
2008-06-26,4.84708
2008-06-27,4.77977
2008-06-30,4.65475
2008-07-01,4.58742
2008-07-02,4.21235
2008-07-03,4.23159
2008-07-07,4.30852
2008-07-08,4.72206
2008-07-09,4.77015
2008-07-10,4.39507
2008-07-11,4.66436
2008-07-14,4.51048
2008-07-15,4.47201
2008-07-16,5.28948
2008-07-17,5.26063
2008-07-18,5.24139
2008-07-21,5.27986
2008-07-22,5.62608
2008-07-23,5.78958
2008-07-24,4.94326
2008-07-25,4.85671
2008-07-28,4.56818
2008-07-29,4.77977
2008-07-30,4.63551
2008-07-31,4.63551
2008-08-01,4.4624
2008-08-04,4.59704
2008-08-05,4.85671
2008-08-06,4.76053
2008-08-07,4.69321
2008-08-08,5.02982
2008-08-11,4.98173
2008-08-12,4.99135
2008-08-13,4.70283
2008-08-14,4.92402
2008-08-15,4.89517
2008-08-18,4.70283
2008-08-19,4.55857
2008-08-20,4.43355
2008-08-21,4.25082
2008-08-22,4.28929
2008-08-25,4.21235
2008-08-26,4.16426
2008-08-27,4.1258
2008-08-28,4.23159
2008-08-29,4.33737
2008-09-02,4.37585
2008-09-03,4.42392
2008-09-04,4.2412
2008-09-05,4.2412
2008-09-08,4.39507
2008-09-09,4.2412
2008-09-10,4.28929
2008-09-11,4.5201
2008-09-12,4.71245
2008-09-15,4.59704
2008-09-16,4.88556
2008-09-17,4.81823
2008-09-18,5.0779
2008-09-19,5.06828
2008-09-22,4.73168
2008-09-23,4.66436
2008-09-24,4.71245
2008-09-25,4.80862
2008-09-26,4.78938
2008-09-29,4.42392
2008-09-30,4.60666
2008-10-01,4.36622
2008-10-02,4.1835
2008-10-03,3.95269
2008-10-06,3.54876
2008-10-07,2.88517
2008-10-08,2.64474
2008-10-09,2.10618
2008-10-10,1.92344
2008-10-13,2.36584
2008-10-14,2.40431
2008-10-15,2.22158
2008-10-16,2.18312
2008-10-17,2.35622
2008-10-20,2.29852
2008-10-21,2.08694
2008-10-22,2.04847
2008-10-23,1.91383
2008-10-24,1.93307
2008-10-27,1.93307
2008-10-28,2.08694
2008-10-29,2.04847
2008-10-30,2.08694
2008-10-31,2.12541
2008-11-03,2.04847
2008-11-04,2.06771
2008-11-05,2.01962
2008-11-06,1.87536
2008-11-07,1.93307
2008-11-10,1.86574
2008-11-11,1.74072
2008-11-12,1.77919
2008-11-13,1.80804
2008-11-14,1.74072
2008-11-17,1.65417
2008-11-18,1.54837
2008-11-19,1.21177
2008-11-20,1.35603
2008-11-21,1.37527
2008-11-24,1.44258
2008-11-25,1.62531
2008-11-26,2.04847
2008-11-28,2.92364
2008-12-01,2.50048
2008-12-02,2.60627
2008-12-03,2.75053
2008-12-04,2.54857
2008-12-05,2.58704
2008-12-08,3.24101
2008-12-09,3.10636
2008-12-10,3.11599
2008-12-11,2.86594
2008-12-12,2.93325
2008-12-15,3.04866
2008-12-16,3.02943
2008-12-17,3.01019
2008-12-18,2.71206
2008-12-19,2.789
2008-12-22,2.49087
2008-12-23,2.09656
2008-12-24,2.02923
2008-12-26,2.19273
2008-12-29,2.13503
2008-12-30,2.19273
2008-12-31,2.16388
2009-01-02,2.33699
2009-01-05,2.47163
2009-01-06,2.65435
2009-01-07,2.57742
2009-01-08,2.5678
2009-01-09,2.51972
2009-01-12,2.53895
2009-01-13,2.36584
2009-01-14,2.16388
2009-01-15,2.15426
2009-01-16,2.08694
2009-01-20,2.01
2009-01-21,2.00038
2009-01-22,1.85613
2009-01-23,1.76957
2009-01-26,1.89459
2009-01-27,1.89459
2009-01-28,1.94268
2009-01-29,1.88498
2009-01-30,1.80804
2009-02-02,1.79842
2009-02-03,1.88498
2009-02-04,1.86574
2009-02-05,1.86574
2009-02-06,1.85613
2009-02-09,1.81766
2009-02-10,1.76957
2009-02-11,1.76957
2009-02-12,1.72148
2009-02-13,1.68302
2009-02-17,1.63493
2009-02-18,1.61569
2009-02-19,1.55799
2009-02-20,1.52914
2009-02-23,1.64455
2009-02-24,1.91383
2009-02-25,1.93307
2009-02-26,1.90422
2009-02-27,1.89459
2009-03-02,1.82727
2009-03-03,1.73111
2009-03-04,1.79842
2009-03-05,1.76957
2009-03-06,1.64455
2009-03-09,1.6734
2009-03-10,1.75996
2009-03-11,1.88498
2009-03-12,2.01
2009-03-13,2.08694
2009-03-16,2.02923
2009-03-17,2.20234
2009-03-18,2.40431
2009-03-19,2.40431
2009-03-20,2.60627
2009-03-23,2.76977
2009-03-24,2.72168
2009-03-25,2.69283
2009-03-26,2.81785
2009-03-27,2.73129
2009-03-30,2.67359
2009-03-31,2.54857
2009-04-01,2.65435
2009-04-02,2.82747
2009-04-03,3.10636
2009-04-06,3.65455
2009-04-07,3.35641
2009-04-08,3.83728
2009-04-09,4.04886
2009-04-13,4.09695
2009-04-14,4.1258
2009-04-15,3.88536
2009-04-16,3.98154
2009-04-17,3.86613
2009-04-20,3.53914
2009-04-21,3.63531
2009-04-22,4.09695
2009-04-23,4.30852
2009-04-24,4.78938
2009-04-27,4.91441
2009-04-28,4.98173
2009-04-29,5.23178
2009-04-30,5.62608
2009-05-01,5.45297
2009-05-04,5.64532
2009-05-05,5.6357
2009-05-06,6.03001
2009-05-07,5.81843
2009-05-08,6.00115
2009-05-11,5.82804
2009-05-12,5.10676
2009-05-13,4.76053
2009-05-14,5.0202
2009-05-15,5.27986
2009-05-18,5.31833
2009-05-19,5.41451
2009-05-20,5.18369
2009-05-21,5.12598
2009-05-22,5.04905
2009-05-26,5.19331
2009-05-27,5.11637
2009-05-28,5.32795
2009-05-29,5.48182
2009-06-01,5.86652
2009-06-02,6.18388
2009-06-03,5.95307
2009-06-04,6.08771
2009-06-05,6.10694
2009-06-08,6.09733
2009-06-09,6.02039
2009-06-10,5.94345
2009-06-11,5.77996
2009-06-12,5.86652
2009-06-15,5.69341
2009-06-16,5.46259
2009-06-17,5.48182
2009-06-18,5.45297
2009-06-19,5.52029
2009-06-22,5.17407
2009-06-23,5.32795
2009-06-24,5.42412
2009-06-25,5.45297
2009-06-26,5.40488
2009-06-29,5.54914
2009-06-30,5.82804
2009-07-01,5.69341
2009-07-02,5.71264
2009-07-06,5.52029
2009-07-07,5.2991
2009-07-08,5.17407
2009-07-09,5.41451
2009-07-10,5.47221
2009-07-13,5.46259
2009-07-14,5.58762
2009-07-15,5.80881
2009-07-16,5.88574
2009-07-17,5.89537
2009-07-20,5.95307
2009-07-21,5.95307
2009-07-22,6.16465
2009-07-23,6.67436
2009-07-24,6.52049
2009-07-27,6.98211
2009-07-28,6.84748
2009-07-29,6.84748
2009-07-30,7.10714
2009-07-31,7.69379
2009-08-03,8.04001
2009-08-04,8.01116
2009-08-05,8.10733
2009-08-06,7.6457
2009-08-07,7.72264
2009-08-10,7.41489
2009-08-11,7.53991
2009-08-12,7.40527
2009-08-13,7.59761
2009-08-14,7.53991
2009-08-17,7.06866
2009-08-18,7.35719
2009-08-19,7.34756
2009-08-20,7.38604
2009-08-21,7.44374
2009-08-24,7.11675
2009-08-25,7.3091
2009-08-26,7.31871
2009-08-27,7.37642
2009-08-28,7.41489
2009-08-31,7.29949
2009-09-01,6.96288
2009-09-02,6.77054
2009-09-03,7.19369
2009-09-04,7.13599
2009-09-08,7.01096
2009-09-09,7.09752
2009-09-10,7.16484
2009-09-11,7.04944
2009-09-14,7.09752
2009-09-15,6.93403
2009-09-16,6.88594
2009-09-17,6.65513
2009-09-18,6.67436
2009-09-21,6.54934
2009-09-22,6.72245
2009-09-23,7.09752
2009-09-24,7.04944
2009-09-25,7.00135
2009-09-28,7.19369
2009-09-29,7.16484
2009-09-30,6.95326
2009-10-01,6.71283
2009-10-02,6.5878
2009-10-05,6.77054
2009-10-06,6.83785
2009-10-07,6.84748
2009-10-08,6.91479
2009-10-09,6.83785
2009-10-12,7.32834
2009-10-13,7.3091
2009-10-14,7.37642
2009-10-15,7.3668
2009-10-16,7.13599
2009-10-19,7.27063
2009-10-20,7.40527
2009-10-21,7.48221
2009-10-22,7.44374
2009-10-23,7.34756
2009-10-26,7.18408
2009-10-27,7.0302
2009-10-28,6.70321
2009-10-29,6.99173
2009-10-30,6.7513
2009-11-02,7.28025
2009-11-03,7.18408
2009-11-04,7.00135
2009-11-05,7.16484
2009-11-06,7.43412
2009-11-09,7.8669
2009-11-10,7.91499
2009-11-11,8.02077
2009-11-12,7.88614
2009-11-13,8.10733
2009-11-16,8.37661
2009-11-17,8.63628
2009-11-18,8.59781
2009-11-19,8.39585
2009-11-20,8.29967
2009-11-23,8.38623
2009-11-24,8.49202
2009-11-25,8.4824
2009-11-27,8.39585
2009-11-30,8.56896
2009-12-01,8.54972
2009-12-02,8.65551
2009-12-03,8.58819
2009-12-04,8.58819
2009-12-07,8.54972
2009-12-08,8.4824
2009-12-09,8.52087
2009-12-10,8.7036
2009-12-11,8.6459
2009-12-14,8.75168
2009-12-15,9.02097
2009-12-16,9.12676
2009-12-17,9.03058
2009-12-18,9.29987
2009-12-21,9.29025
2009-12-22,9.52107
2009-12-23,9.71341
2009-12-24,9.74226
2009-12-28,9.80958
2009-12-29,9.72303
2009-12-30,9.60762
2009-12-31,9.61723
2010-01-04,9.88652
2010-01-05,10.5405
2010-01-06,10.9348
2010-01-07,11.2329
2010-01-08,11.2714
2010-01-11,11.6657
2010-01-12,11.3868
2010-01-13,11.2233
2010-01-14,11.3099
2010-01-15,11.1656
2010-01-19,11.281
2010-01-20,11.0887
2010-01-21,10.7329
2010-01-22,10.0884
2010-01-25,10.6366
2010-01-26,10.7617
2010-01-27,11.1175
2010-01-28,10.9925
2010-01-29,10.4347
2010-02-01,10.6944
2010-02-02,10.9444
2010-02-03,11.2041
2010-02-04,10.6559
2010-02-05,10.4828
2010-02-08,10.579
2010-02-09,10.7232
2010-02-10,10.5213
2010-02-11,10.752
2010-02-12,10.704
2010-02-16,10.8868
2010-02-17,11.031
2010-02-18,10.9348
2010-02-19,10.8386
2010-02-22,10.7809
2010-02-23,11.1464
2010-02-24,11.2714
2010-02-25,11.3291
2010-02-26,11.2907
2010-03-01,11.935
2010-03-02,11.7523
2010-03-03,12.1947
2010-03-04,12.3101
2010-03-05,12.4928
2010-03-08,12.4159
2010-03-09,12.3004
2010-03-10,12.3293
2010-03-11,12.3966
2010-03-12,12.8294
2010-03-15,12.8871
2010-03-16,12.964
2010-03-17,13.5988
2010-03-18,13.1852
2010-03-19,12.9256
2010-03-22,13.4545
2010-03-23,13.368
2010-03-24,13.3776
2010-03-25,13.2622
2010-03-26,13.3391
2010-03-29,13.041
2010-03-30,12.7813
2010-03-31,12.0985
2010-04-01,12.1562
2010-04-05,12.3004
2010-04-06,12.1947
2010-04-07,12.0985
2010-04-08,12.1562
2010-04-09,12.2331
2010-04-12,12.2812
2010-04-13,12.3004
2010-04-14,12.839
2010-04-15,13.2237
2010-04-16,12.9064
2010-04-19,13.0602
2010-04-20,13.3968
2010-04-21,13.5795
2010-04-22,13.6373
2010-04-23,13.6661
2010-04-26,13.8969
2010-04-27,13.0602
2010-04-28,12.6947
2010-04-29,13.041
2010-04-30,12.5409
2010-05-03,12.791
2010-05-04,12.3389
2010-05-05,11.858
2010-05-06,11.2907
2010-05-07,11.0983
2010-05-10,11.685
2010-05-11,11.8389
2010-05-12,12.2043
2010-05-13,11.9446
2010-05-14,11.6368
2010-05-17,11.4926
2010-05-18,11.108
2010-05-19,11.0983
2010-05-20,10.4154
2010-05-21,10.8193
2010-05-24,10.5886
2010-05-25,10.6078
2010-05-26,10.9348
2010-05-27,11.5214
2010-05-28,11.2907
2010-06-01,10.9732
2010-06-02,11.3965
2010-06-03,11.5214
2010-06-04,11.0502
2010-06-07,10.6559
2010-06-08,10.8002
2010-06-09,10.6271
2010-06-10,10.9636
2010-06-11,10.9636
2010-06-14,11.0117
2010-06-15,11.2617
2010-06-16,11.1656
2010-06-17,11.0598
2010-06-18,10.9829
2010-06-21,11.108
2010-06-22,10.7809
2010-06-23,10.5982
2010-06-24,10.3289
2010-06-25,10.2712
2010-06-28,10.0404
2010-06-29,9.50183
2010-06-30,9.69418
2010-07-01,10.1847
2010-07-02,9.88652
2010-07-06,9.78073
2010-07-07,10.1847
2010-07-08,10.2039
2010-07-09,10.4444
2010-07-12,10.6944
2010-07-13,11.2041
2010-07-14,11.3675
2010-07-15,11.4349
2010-07-16,10.9059
2010-07-19,11.0598
2010-07-20,11.2907
2010-07-21,11.108
2010-07-22,11.6465
2010-07-23,12.262
2010-07-26,12.4543
2010-07-27,12.5024
2010-07-28,12.4062
2010-07-29,12.4735
2010-07-30,12.2812
2010-08-02,12.6467
2010-08-03,12.4159
2010-08-04,12.6371
2010-08-05,12.4735
2010-08-06,12.5505
2010-08-09,12.5505
2010-08-10,12.4159
2010-08-11,11.9158
2010-08-12,11.7907
2010-08-13,11.685
2010-08-16,11.5503
2010-08-17,11.685
2010-08-18,11.7523
2010-08-19,11.4349
2010-08-20,11.3387
2010-08-23,11.156
2010-08-24,10.8098
2010-08-25,10.8963
2010-08-26,10.7425
2010-08-27,11.1271
2010-08-30,10.9156
2010-08-31,10.8578
2010-09-01,11.1656
2010-09-02,11.2522
2010-09-03,11.6177
2010-09-07,11.358
2010-09-08,11.3291
2010-09-09,11.3002
2010-09-10,11.3387
2010-09-13,11.5214
2010-09-14,11.5214
2010-09-15,11.4156
2010-09-16,11.9831
2010-09-17,12.0119
2010-09-20,12.0889
2010-09-21,12.0792
2010-09-22,11.9062
2010-09-23,11.8196
2010-09-24,12.0601
2010-09-27,11.9926
2010-09-28,12.0311
2010-09-29,11.8484
2010-09-30,11.7811
2010-10-01,11.7811
2010-10-04,12.3486
2010-10-05,12.5216
2010-10-06,12.714
2010-10-07,12.8101
2010-10-08,13.1468
2010-10-11,13.2718
2010-10-12,13.2718
2010-10-13,13.1276
2010-10-14,13.368
2010-10-15,13.2718
2010-10-18,13.3391
2010-10-19,12.8101
2010-10-20,13.1276
2010-10-21,13.291
2010-10-22,13.3968
2010-10-25,13.618
2010-10-26,13.8392
2010-10-27,13.6949
2010-10-28,13.6853
2010-10-29,13.6083
2010-11-01,13.6853
2010-11-02,13.868
2010-11-03,14.599
2010-11-04,15.253
2010-11-05,15.628
2010-11-08,15.7723
2010-11-09,15.4549
2010-11-10,16.0031
2010-11-11,15.9742
2010-11-12,15.6761
2010-11-15,16.359
2010-11-16,15.8876
2010-11-17,16.0512
2010-11-18,15.5222
2010-11-19,15.6761
2010-11-22,15.5703
2010-11-23,15.0702
2010-11-24,15.3395
2010-11-26,15.4357
2010-11-29,15.4452
2010-11-30,15.3395
2010-12-01,15.8492
2010-12-02,16.1473
2010-12-03,16.1569
2010-12-06,15.9935
2010-12-07,15.9166
2010-12-08,16.0127
2010-12-09,16.1185
2010-12-10,16.0993
2010-12-13,15.8492
2010-12-14,15.7915
2010-12-15,15.9166
2010-12-16,16.1185
2010-12-17,16.1473
2010-12-20,16.2147
2010-12-21,16.3493
2010-12-22,16.3397
2010-12-23,16.1378
2010-12-27,16.2243
2010-12-28,16.0896
2010-12-29,16.1088
2010-12-30,16.0415
2010-12-31,16.1569
2011-01-03,16.5802
2011-01-04,16.6955
2011-01-05,17.2053
2011-01-06,17.5323
2011-01-07,17.5323
2011-01-10,17.5996
2011-01-11,17.5996
2011-01-12,18.0131
2011-01-13,17.9747
2011-01-14,17.9457
2011-01-18,17.9938
2011-01-19,17.2053
2011-01-20,17.0899
2011-01-21,17.2245
2011-01-24,17.2341
2011-01-25,17.2053
2011-01-26,17.6669
2011-01-27,18.1093
2011-01-28,15.628
2011-01-31,15.3203
2011-02-01,15.3106
2011-02-02,14.8009
2011-02-03,15.1472
2011-02-04,15.1472
2011-02-07,15.4837
2011-02-08,15.628
2011-02-09,15.4742
2011-02-10,15.3203
2011-02-11,15.753
2011-02-14,15.4645
2011-02-15,15.4549
2011-02-16,15.4357
2011-02-17,15.3587
2011-02-18,15.1664
2011-02-22,14.6182
2011-02-23,14.3009
2011-02-24,14.147
2011-02-25,14.4643
2011-02-28,14.4739
2011-03-01,14.1085
2011-03-02,14.0989
2011-03-03,14.1758
2011-03-04,13.8585
2011-03-07,13.4737
2011-03-08,13.9258
2011-03-09,13.7238
2011-03-10,13.5219
2011-03-11,13.82
2011-03-14,13.743
2011-03-15,14.1277
2011-03-16,13.6373
2011-03-17,13.7238
2011-03-18,13.9065
2011-03-21,14.0316
2011-03-22,13.7719
2011-03-23,13.7622
2011-03-24,14.4836
2011-03-25,14.4451
2011-03-28,14.3009
2011-03-29,14.2719
2011-03-30,14.3201
2011-03-31,14.3201
2011-04-01,14.5894
2011-04-04,14.9548
2011-04-05,15.1952
2011-04-06,15.1375
2011-04-07,14.9452
2011-04-08,14.724
2011-04-11,14.2816
2011-04-12,14.3393
2011-04-13,14.4066
2011-04-14,14.2431
2011-04-15,14.1373
2011-04-18,14.0604
2011-04-19,14.0989
2011-04-20,14.5221
2011-04-21,14.8586
2011-04-25,14.9452
2011-04-26,15.0702
2011-04-27,15.0029
2011-04-28,14.9067
2011-04-29,14.8682
2011-05-02,14.8586
2011-05-03,14.7817
2011-05-04,14.5797
2011-05-05,14.4836
2011-05-06,14.5413
2011-05-09,14.4931
2011-05-10,14.5605
2011-05-11,14.5701
2011-05-12,14.6567
2011-05-13,14.4931
2011-05-16,14.5509
2011-05-17,14.3874
2011-05-18,14.5509
2011-05-19,14.5413
2011-05-20,14.4162
2011-05-23,14.2143
2011-05-24,14.0797
2011-05-25,14.0123
2011-05-26,13.9931
2011-05-27,14.0316
2011-05-31,14.3104
2011-06-01,13.7238
2011-06-02,13.6276
2011-06-03,13.4834
2011-06-06,13.3776
2011-06-07,13.4161
2011-06-08,13.1564
2011-06-09,13.2525
2011-06-10,12.8871
2011-06-13,12.6371
2011-06-14,12.9256
2011-06-15,12.6659
2011-06-16,12.3389
2011-06-17,12.2716
2011-06-20,12.4543
2011-06-21,12.8198
2011-06-22,12.8294
2011-06-23,12.9448
2011-06-24,12.7525
2011-06-27,12.9448
2011-06-28,12.8101
2011-06-29,12.9159
2011-06-30,13.2718
2011-07-01,13.4641
2011-07-05,13.57
2011-07-06,13.4161
2011-07-07,13.5795
2011-07-08,13.368
2011-07-11,12.8101
2011-07-12,12.6274
2011-07-13,12.7813
2011-07-14,12.5889
2011-07-15,12.5793
2011-07-18,12.4062
2011-07-19,12.5793
2011-07-20,12.5793
2011-07-21,12.7717
2011-07-22,12.8005
2011-07-25,12.6274
2011-07-26,12.435
2011-07-27,11.9158
2011-07-28,11.858
2011-07-29,11.7714
2011-08-01,11.8869
2011-08-02,11.3772
2011-08-03,11.2137
2011-08-04,10.4444
2011-08-05,10.4347
2011-08-08,9.54992
2011-08-09,10.4828
2011-08-10,9.98267
2011-08-11,10.5213
2011-08-12,10.6463
2011-08-15,10.9156
2011-08-16,10.7905
2011-08-17,10.6656
2011-08-18,9.98267
2011-08-19,9.60762
2011-08-22,9.62685
2011-08-23,9.90575
2011-08-24,10.0308
2011-08-25,9.88652
2011-08-26,10.0115
2011-08-29,10.5117
2011-08-30,10.4635
2011-08-31,10.6559
2011-09-01,10.4251
2011-09-02,10.0211
2011-09-06,9.85767
2011-09-07,10.1269
2011-09-08,9.95384
2011-09-09,9.68456
2011-09-12,9.72303
2011-09-13,9.77112
2011-09-14,9.9442
2011-09-15,10.2135
2011-09-16,10.2039
2011-09-19,10.1462
2011-09-20,10.0308
2011-09-21,9.60762
2011-09-22,9.27102
2011-09-23,9.45374
2011-09-26,9.69418
2011-09-27,9.76149
2011-09-28,9.55953
2011-09-29,9.60762
2011-09-30,9.30948
2011-10-03,9.02097
2011-10-04,9.73264
2011-10-05,10.1654
2011-10-06,10.5597
2011-10-07,10.2712
2011-10-10,10.7809
2011-10-11,10.8002
2011-10-12,10.9636
2011-10-13,10.9059
2011-10-14,11.1271
2011-10-17,10.9444
2011-10-18,11.3002
2011-10-19,11.108
2011-10-20,11.2522
2011-10-21,11.8099
2011-10-24,12.0216
2011-10-25,11.935
2011-10-26,11.3965
2011-10-27,11.608
2011-10-28,11.5119
2011-10-31,11.2617
2011-11-01,10.6366
2011-11-02,10.7329
2011-11-03,10.9059
2011-11-04,10.8193
2011-11-07,10.7713
2011-11-08,11.1848
2011-11-09,10.6174
2011-11-10,10.579
2011-11-11,10.7136
2011-11-14,10.579
2011-11-15,10.4635
2011-11-16,10.1366
2011-11-17,9.72303
2011-11-18,9.71341
2011-11-21,9.69418
2011-11-22,9.69418
2011-11-23,9.47298
2011-11-25,9.37681
2011-11-28,9.59801
2011-11-29,9.61723
2011-11-30,10.1942
2011-12-01,10.1942
2011-12-02,10.5117
2011-12-05,10.6944
2011-12-06,10.6174
2011-12-07,10.6559
2011-12-08,10.3289
2011-12-09,10.6271
2011-12-12,10.4347
2011-12-13,10.0693
2011-12-14,9.75188
2011-12-15,9.85767
2011-12-16,9.85767
2011-12-19,9.63647
2011-12-20,9.9346
2011-12-21,10.2423
2011-12-22,10.5213
2011-12-23,10.5213
2011-12-27,10.3962
2011-12-28,10.1077
2011-12-29,10.2712
2011-12-30,10.3481
2012-01-03,10.7136
2012-01-04,10.9059
2012-01-05,11.156
2012-01-06,11.2714
2012-01-09,11.358
2012-01-10,11.3483
2012-01-11,11.6177
2012-01-12,11.6657
2012-01-13,11.5503
2012-01-17,11.5503
2012-01-18,11.8677
2012-01-19,12.1465
2012-01-20,12.1274
2012-01-23,12.185
2012-01-24,12.3293
2012-01-25,12.4255
2012-01-26,12.2716
2012-01-27,11.7984
2012-01-30,11.8756
2012-01-31,11.9818
2012-02-01,11.9142
2012-02-02,11.8563
2012-02-03,12.3488
2012-02-06,12.4935
2012-02-07,12.4453
2012-02-08,12.4066
2012-02-09,12.2521
2012-02-10,11.9915
2012-02-13,12.0977
2012-02-14,12.0301
2012-02-15,11.9432
2012-02-16,12.3101
2012-02-17,12.3101
2012-02-21,12.117
2012-02-22,11.8467
2012-02-23,11.9818
2012-02-24,11.808
2012-02-27,11.8949
2012-02-28,11.837
2012-02-29,11.9529
2012-03-01,12.2328
2012-03-02,12.2715
2012-03-05,12.0205
2012-03-06,11.6632
2012-03-07,11.8177
2012-03-08,12.0398
2012-03-09,12.1459
2012-03-12,11.9915
2012-03-13,12.2715
2012-03-14,12.4356
2012-03-15,12.4453
2012-03-16,12.1363
2012-03-19,12.1846
2012-03-20,12.117
2012-03-21,12.1556
2012-03-22,11.8853
2012-03-23,11.9046
2012-03-26,12.0591
2012-03-27,11.8853
2012-03-28,11.8853
2012-03-29,12.0687
2012-03-30,12.0494
2012-04-02,12.1943
2012-04-03,12.1943
2012-04-04,12.0591
2012-04-05,12.0398
2012-04-09,11.7887
2012-04-10,11.3832
2012-04-11,11.5087
2012-04-12,11.6632
2012-04-13,11.4991
2012-04-16,11.4701
2012-04-17,11.5087
2012-04-18,11.3736
2012-04-19,11.248
2012-04-20,11.055
2012-04-23,10.9488
2012-04-24,10.997
2012-04-25,11.3349
2012-04-26,11.4701
2012-04-27,11.1902
2012-04-30,10.9283
2012-05-01,10.8992
2012-05-02,10.7731
2012-05-03,10.5695
2012-05-04,10.3368
2012-05-07,10.3562
2012-05-08,10.298
2012-05-09,10.3756
2012-05-10,10.3658
2012-05-11,10.2495
2012-05-14,9.98764
2012-05-15,9.84222
2012-05-16,9.85192
2012-05-17,9.72586
2012-05-18,9.70647
2012-05-21,9.9004
2012-05-22,9.8907
2012-05-23,10.1137
2012-05-24,10.2689
2012-05-25,10.2785
2012-05-29,10.5113
2012-05-30,10.3464
2012-05-31,10.2689
2012-06-01,9.80344
2012-06-04,9.72586
2012-06-05,9.9101
2012-06-06,10.2301
2012-06-07,10.2301
2012-06-08,10.3174
2012-06-11,10.1525
2012-06-12,10.1913
2012-06-13,9.96826
2012-06-14,10.0943
2012-06-15,10.007
2012-06-18,10.007
2012-06-19,10.2591
2012-06-20,10.327
2012-06-21,9.94887
2012-06-22,9.9198
2012-06-25,9.69677
2012-06-26,9.72586
2012-06-27,9.71617
2012-06-28,9.76464
2012-06-29,9.2992
2012-07-02,9.10527
2012-07-03,9.33799
2012-07-05,9.27981
2012-07-06,9.21194
2012-07-09,9.15375
2012-07-10,9.07617
2012-07-11,9.05679
2012-07-12,8.86285
2012-07-13,8.9986
2012-07-16,8.98891
2012-07-17,9.05679
2012-07-18,9.10527
2012-07-19,9.05679
2012-07-20,8.92103
2012-07-23,8.88225
2012-07-24,8.78528
2012-07-25,8.69801
2012-07-26,8.68831
2012-07-27,8.7271
2012-07-30,8.83376
2012-07-31,8.95012
2012-08-01,8.82332
2012-08-02,8.68682
2012-08-03,8.86232
2012-08-06,8.92082
2012-08-07,9.07681
2012-08-08,9.10606
2012-08-09,9.11581
2012-08-10,9.11581
2012-08-13,9.1548
2012-08-14,9.2133
2012-08-15,9.2523
2012-08-16,9.3498
2012-08-17,9.37904
2012-08-20,9.38879
2012-08-21,9.2913
2012-08-22,9.26205
2012-08-23,9.20356
2012-08-24,9.2523
2012-08-27,9.16455
2012-08-28,9.08655
2012-08-29,9.08655
2012-08-30,9.07681
2012-08-31,9.11581
2012-09-04,9.20356
2012-09-05,9.3303
2012-09-06,9.67153
2012-09-07,9.88602
2012-09-10,9.86652
2012-09-11,9.89577
2012-09-12,9.96398
2012-09-13,10.0712
2012-09-14,10.2467
2012-09-17,10.1298
2012-09-18,10.1688
2012-09-19,10.315
2012-09-20,10.1785
2012-09-21,10.12
2012-09-24,10.0712
2012-09-25,9.82752
2012-09-26,9.75928
2012-09-27,9.76903
2012-09-28,9.60328
2012-10-01,9.68127
2012-10-02,9.54479
2012-10-03,9.70078
2012-10-04,9.85677
2012-10-05,9.87627
2012-10-08,9.77877
2012-10-09,9.81777
2012-10-10,9.73003
2012-10-11,9.89577
2012-10-12,9.87627
2012-10-15,9.96398
2012-10-16,10.042
2012-10-17,10.1395
2012-10-18,10.1785
2012-10-19,9.92502
2012-10-22,9.90552
2012-10-23,9.74952
2012-10-24,9.90552
2012-10-25,10.1298
2012-10-26,10.1005
2012-10-31,10.943
2012-11-01,11.0214
2012-11-02,10.9529
2012-11-05,11.0214
2012-11-06,11.188
2012-11-07,10.8451
2012-11-08,10.6883
2012-11-09,10.7079
2012-11-12,10.7569
2012-11-13,10.7765
2012-11-14,10.4629
2012-11-15,10.3552
2012-11-16,10.2964
2012-11-19,10.6001
2012-11-20,10.6197
2012-11-21,10.7079
2012-11-23,10.8451
2012-11-26,10.8647
2012-11-27,10.8744
2012-11-28,11.0214
2012-11-29,11.2762
2012-11-30,11.2173
2012-12-03,11.1684
2012-12-04,11.0802
2012-12-05,11.0606
2012-12-06,10.992
2012-12-07,11.2271
2012-12-10,11.2467
2012-12-11,11.2566
2012-12-12,11.2467
2012-12-13,11.041
2012-12-14,10.8744
2012-12-17,11.1586
2012-12-18,11.4231
2012-12-19,11.5113
2012-12-20,11.5406
2012-12-21,11.5113
2012-12-24,12.0501
2012-12-26,12.4812
2012-12-27,12.5008
2012-12-28,12.6085
2012-12-31,12.6967
2013-01-02,12.922
2013-01-03,13.1669
2013-01-04,13.2747
2013-01-07,13.157
2013-01-08,13.0592
2013-01-09,13.1963
2013-01-10,13.5391
2013-01-11,13.6959
2013-01-14,13.6959
2013-01-15,13.9898
2013-01-16,13.9212
2013-01-17,13.931
2013-01-18,13.8037
2013-01-22,13.8723
2013-01-23,13.5882
2013-01-24,13.5783
2013-01-25,13.3726
2013-01-28,13.639
2013-01-29,12.9778
2013-01-30,12.731
2013-01-31,12.7971
2013-02-01,12.8396
2013-02-04,12.7014
2013-02-05,13.0122
2013-02-06,13.0172
2013-02-07,12.887
2013-02-08,12.9087
2013-02-11,12.9333
2013-02-12,12.8988
2013-02-13,12.8494
2013-02-14,12.9353
2013-02-15,12.8494
2013-02-19,12.8198
2013-02-20,12.4349
2013-02-21,12.208
2013-02-22,12.3066
2013-02-25,11.9612
2013-02-26,12.1586
2013-02-27,12.5879
2013-02-28,12.4498
2013-03-01,12.4448
2013-03-04,12.583
2013-03-05,12.6915
2013-03-06,12.7112
2013-03-07,12.6718
2013-03-08,12.8001
2013-03-11,13.1652
2013-03-12,13.2146
2013-03-13,13.2146
2013-03-14,13.254
2013-03-15,13.264
2013-03-18,13.0863
2013-03-19,12.9876
2013-03-20,13.1849
2013-03-21,13.0962
2013-03-22,13.0764
2013-03-25,13.1258
2013-03-26,13.1356
2013-03-27,13.0271
2013-03-28,12.9678
2013-04-01,12.731
2013-04-02,12.8396
2013-04-03,12.5139
2013-04-04,12.4843
2013-04-05,12.2869
2013-04-08,12.5928
2013-04-09,12.6323
2013-04-10,12.9481
2013-04-11,13.3725
2013-04-12,13.3429
2013-04-15,12.8001
2013-04-16,12.9481
2013-04-17,12.7705
2013-04-18,12.583
2013-04-19,12.7705
2013-04-22,12.8692
2013-04-23,13.2047
2013-04-24,13.1455
2013-04-25,13.3034
2013-04-26,13.5106
2013-04-29,13.4711
2013-04-30,13.5402
2013-05-01,13.2918
2013-05-02,13.3316
2013-05-03,13.7392
2013-05-06,14.0076
2013-05-07,14.107
2013-05-08,14.1269
2013-05-09,14.1169
2013-05-10,14.0175
2013-05-13,13.9281
2013-05-14,14.1865
2013-05-15,14.5643
2013-05-16,14.5345
2013-05-17,14.962
2013-05-20,14.952
2013-05-21,14.8725
2013-05-22,14.8626
2013-05-23,14.7333
2013-05-24,14.7035
2013-05-28,15.1905
2013-05-29,15.5485
2013-05-30,15.8169
2013-05-31,15.6181
2013-06-03,15.7971
2013-06-04,15.6976
2013-06-05,15.1707
2013-06-06,15.3298
2013-06-07,15.6479
2013-06-10,15.6082
2013-06-11,15.4093
2013-06-12,15.2702
2013-06-13,15.469
2013-06-14,15.2801
2013-06-17,15.4491
2013-06-18,15.5769
2013-06-19,15.2503
2013-06-20,14.7433
2013-06-21,14.9123
2013-06-24,14.5941
2013-06-25,14.8824
2013-06-26,15.2105
2013-06-27,15.5684
2013-06-28,15.3994
2013-07-01,15.6579
2013-07-02,16.0854
2013-07-03,16.3339
2013-07-05,16.6023
2013-07-08,16.7117
2013-07-09,16.7316
2013-07-10,16.6123
2013-07-11,16.8906
2013-07-12,17.0
2013-07-15,17.0099
2013-07-16,16.493
2013-07-17,16.6719
2013-07-18,16.8409
2013-07-19,16.662
2013-07-22,16.9205
2013-07-23,16.8509
2013-07-24,17.2783
2013-07-25,16.831
2013-07-26,16.9304
2013-07-29,16.99
2013-07-30,17.0
2013-07-31,16.87
2013-08-01,17.19
2013-08-02,17.49
2013-08-05,17.17
2013-08-06,17.02
2013-08-07,16.76
2013-08-08,16.97
2013-08-09,17.02
