date,close_price
1998-01-02,18.3071
1998-01-05,18.2545
1998-01-06,18.083
1998-01-07,17.4248
1998-01-08,16.9767
1998-01-09,16.2852
1998-01-12,16.5784
1998-01-13,16.595
1998-01-14,17.0099
1998-01-15,16.631
1998-01-16,16.7333
1998-01-20,16.9767
1998-01-21,16.8384
1998-01-22,16.3876
1998-01-23,16.4567
1998-01-26,16.1718
1998-01-27,16.335
1998-01-28,16.5259
1998-01-29,16.5618
1998-01-30,16.3184
1998-02-02,16.8716
1998-02-03,17.1648
1998-02-04,17.2533
1998-02-05,17.4248
1998-02-06,17.4607
1998-02-09,17.4607
1998-02-10,17.3722
1998-02-11,17.4939
1998-02-12,17.4248
1998-02-13,17.3916
1998-02-17,17.4248
1998-02-18,17.2865
1998-02-19,17.1482
1998-02-20,17.1841
1998-02-23,17.4967
1998-02-24,17.458
1998-02-25,17.8065
1998-02-26,17.5631
1998-02-27,17.7014
1998-03-02,17.4248
1998-03-03,17.458
1998-03-04,17.3916
1998-03-05,17.4248
1998-03-06,17.7345
1998-03-09,17.5631
1998-03-10,17.6682
1998-03-11,17.8656
1998-03-12,17.8266
1998-03-13,17.7933
1998-03-16,17.8266
1998-03-17,18.1436
1998-03-18,18.2437
1998-03-19,18.2826
1998-03-20,18.2103
1998-03-23,18.2103
1998-03-24,18.3827
1998-03-25,18.1436
1998-03-26,18.2103
1998-03-27,18.2437
1998-03-30,17.7933
1998-03-31,17.8989
1998-04-01,18.1436
1998-04-02,18.2826
1998-04-03,18.4216
1998-04-06,18.7663
1998-04-07,18.3827
1998-04-08,18.3493
1998-04-09,18.4216
1998-04-13,19.1167
1998-04-14,19.289
1998-04-15,19.9507
1998-04-16,19.9507
1998-04-17,19.7394
1998-04-20,19.0777
1998-04-21,19.5337
1998-04-22,19.7728
1998-04-23,19.3224
1998-04-24,18.8386
1998-04-27,18.0713
1998-04-28,18.316
1998-04-29,18.733
1998-04-30,19.15
1998-05-01,19.1834
1998-05-04,18.9054
1998-05-05,18.6996
1998-05-06,18.733
1998-05-07,18.6107
1998-05-08,18.6607
1998-05-11,18.4883
1998-05-12,18.6996
1998-05-13,18.594
1998-05-14,18.5217
1998-05-15,18.2103
1998-05-18,18.4883
1998-05-19,18.4883
1998-05-20,18.4216
1998-05-21,18.7997
1998-05-22,18.6273
1998-05-26,18.2103
1998-05-27,17.7933
1998-05-28,17.8656
1998-05-29,17.5875
1998-06-01,17.6876
1998-06-02,17.5486
1998-06-03,17.0982
1998-06-04,17.3095
1998-06-05,17.3762
1998-06-08,17.3429
1998-06-09,17.1705
1998-06-10,17.1901
1998-06-11,17.4025
1998-06-12,16.9106
1998-06-15,16.2118
1998-06-16,16.4242
1998-06-17,16.7708
1998-06-18,16.6311
1998-06-19,16.4242
1998-06-22,16.6311
1998-06-23,16.7037
1998-06-24,16.9106
1998-06-25,17.123
1998-06-26,17.3298
1998-06-29,17.8218
1998-06-30,17.682
1998-07-01,18.1684
1998-07-02,18.1348
1998-07-06,18.5206
1998-07-07,18.3808
1998-07-08,18.2411
1998-07-09,18.2411
1998-07-10,18.2019
1998-07-13,18.4144
1998-07-14,18.3081
1998-07-15,18.4144
1998-07-16,18.4479
1998-07-17,18.638
1998-07-20,18.8672
1998-07-21,18.4479
1998-07-22,18.5206
1998-07-23,18.3808
1998-07-24,17.8218
1998-07-27,18.1013
1998-07-28,17.6429
1998-07-29,17.6094
1998-07-30,18.1684
1998-07-31,17.4025
1998-08-03,17.2628
1998-08-04,16.3851
1998-08-05,16.3515
1998-08-06,16.9832
1998-08-07,16.4913
1998-08-10,16.5248
1998-08-11,15.6528
1998-08-12,16.1447
1998-08-13,15.6192
1998-08-14,15.9323
1998-08-17,15.759
1998-08-18,16.318
1998-08-19,16.1056
1998-08-20,15.4068
1998-08-21,15.267
1998-08-24,15.3733
1998-08-25,15.1273
1998-08-26,14.954
1998-08-27,14.1881
1998-08-28,14.3279
1998-08-31,13.3104
1998-09-01,13.9757
1998-09-02,14.8142
1998-09-03,14.5683
1998-09-04,14.4676
1998-09-08,15.0937
1998-09-09,14.872
1998-09-10,14.2026
1998-09-11,14.9789
1998-09-14,15.682
1998-09-15,15.8901
1998-09-16,16.0307
1998-09-17,15.7495
1998-09-18,15.9632
1998-09-21,15.7495
1998-09-22,15.8226
1998-09-23,16.5257
1998-09-24,16.1713
1998-09-25,16.1376
1998-09-28,16.3119
1998-09-29,16.4526
1998-09-30,15.3614
1998-10-01,15.4682
1998-10-02,15.682
1998-10-05,15.0464
1998-10-06,15.2207
1998-10-07,14.872
1998-10-08,14.3433
1998-10-09,14.7651
1998-10-12,15.8226
1998-10-13,15.682
1998-10-14,15.9632
1998-10-15,17.0882
1998-10-16,17.735
1998-10-19,17.7181
1998-10-20,18.2131
1998-10-21,17.7519
1998-10-22,17.1894
1998-10-23,17.1557
1998-10-26,17.1894
1998-10-27,17.1219
1998-10-28,17.7181
1998-10-29,17.7913
1998-10-30,17.8588
1998-11-02,18.14
1998-11-03,18.2131
1998-11-04,18.5619
1998-11-05,18.9837
1998-11-06,18.9837
1998-11-09,18.8431
1998-11-10,18.7025
1998-11-11,18.455
1998-11-12,19.1243
1998-11-13,18.7362
1998-11-16,18.635
1998-11-17,19.0569
1998-11-18,19.1581
1998-11-19,19.1581
1998-11-20,19.265
1998-11-23,19.5125
1998-11-24,19.0906
1998-11-25,19.3718
1998-11-27,19.1975
1998-11-30,18.8937
1998-12-01,19.265
1998-12-02,18.8094
1998-12-03,18.8769
1998-12-04,19.0569
1998-12-07,19.1975
1998-12-08,19.3718
1998-12-09,19.089
1998-12-10,19.2644
1998-12-11,19.0212
1998-12-14,18.6988
1998-12-15,18.8798
1998-12-16,18.9476
1998-12-17,19.6546
1998-12-18,19.5868
1998-12-21,19.796
1998-12-22,20.4691
1998-12-23,21.5268
1998-12-24,21.1761
1998-12-28,20.5766
1998-12-29,20.4691
1998-12-30,21.0686
1998-12-31,21.4929
1999-01-04,21.5664
1999-01-05,21.5268
1999-01-06,22.0585
1999-01-07,21.7757
1999-01-08,21.6682
1999-01-11,21.8492
1999-01-12,21.5664
1999-01-13,20.9272
1999-01-14,20.3616
1999-01-15,20.8933
1999-01-19,20.7859
1999-01-20,20.6444
1999-01-21,20.3616
1999-01-22,19.9374
1999-01-25,19.9714
1999-01-26,20.9272
1999-01-27,20.2202
1999-01-28,20.6784
1999-01-29,20.6444
1999-02-01,21.2836
1999-02-02,21.4929
1999-02-03,21.5664
1999-02-04,21.244
1999-02-05,21.0347
1999-02-08,21.0008
1999-02-09,20.8594
1999-02-10,20.537
1999-02-11,21.0008
1999-02-12,20.7519
1999-02-16,20.9272
1999-02-17,21.1422
1999-02-18,21.8096
1999-02-19,21.8492
1999-02-22,22.132
1999-02-23,21.8492
1999-02-24,21.425
1999-02-25,21.425
1999-02-26,21.5268
1999-03-01,21.7417
1999-03-02,21.8096
1999-03-03,21.9171
1999-03-04,22.0245
1999-03-05,22.3073
1999-03-08,23.1897
1999-03-09,22.6241
1999-03-10,22.4475
1999-03-11,23.1579
1999-03-12,23.2318
1999-03-15,23.0897
1999-03-16,22.5555
1999-03-17,22.5896
1999-03-18,23.1238
1999-03-19,22.7658
1999-03-22,22.7317
1999-03-23,22.7317
1999-03-24,22.8056
1999-03-25,23.0158
1999-03-26,22.1634
1999-03-29,22.5896
1999-03-30,21.7031
1999-03-31,20.9188
1999-04-01,21.9531
1999-04-05,22.0725
1999-04-06,21.2769
1999-04-07,21.1689
1999-04-08,21.5269
1999-04-09,21.453
1999-04-12,21.2428
1999-04-13,21.9872
1999-04-14,22.5896
1999-04-15,22.7317
1999-04-16,22.7658
1999-04-19,23.0158
1999-04-20,22.6237
1999-04-21,23.5159
1999-04-22,23.4421
1999-04-23,23.3739
1999-04-26,23.2659
1999-04-27,23.8683
1999-04-28,24.3684
1999-04-29,24.1524
1999-04-30,24.5104
1999-05-03,25.0787
1999-05-04,25.505
1999-05-05,24.3684
1999-05-06,24.1183
1999-05-07,24.8287
1999-05-10,24.6127
1999-05-11,24.5445
1999-05-12,24.8969
1999-05-13,25.647
1999-05-14,24.0103
1999-05-17,23.658
1999-05-18,24.1183
1999-05-19,23.8683
1999-05-20,23.8683
1999-05-21,23.7262
1999-05-24,22.9476
1999-05-25,22.3055
1999-05-26,22.8397
1999-05-27,22.9079
1999-05-28,23.408
1999-06-01,23.5841
1999-06-02,22.9476
1999-06-03,22.9817
1999-06-04,22.6237
1999-06-07,22.7317
1999-06-08,22.1634
1999-06-09,21.8428
1999-06-10,21.8771
1999-06-11,21.5916
1999-06-14,21.5573
1999-06-15,22.0941
1999-06-16,22.2026
1999-06-17,21.9513
1999-06-18,22.4881
1999-06-21,22.2369
1999-06-22,21.9171
1999-06-23,21.6658
1999-06-24,21.1633
1999-06-25,21.4145
1999-06-28,21.7343
1999-06-29,22.2369
1999-06-30,21.8771
1999-07-01,22.3454
1999-07-02,22.0941
1999-07-06,22.3054
1999-07-07,22.2711
1999-07-08,21.3803
1999-07-09,21.7914
1999-07-12,22.2711
1999-07-13,21.9171
1999-07-14,21.4488
1999-07-15,21.7743
1999-07-16,22.0598
1999-07-19,22.1626
1999-07-20,22.0941
1999-07-21,22.6309
1999-07-22,22.6651
1999-07-23,21.6658
1999-07-26,21.4488
1999-07-27,21.1633
1999-07-28,20.8778
1999-07-29,20.558
1999-07-30,20.735
1999-08-02,20.4894
1999-08-03,19.7014
1999-08-04,19.4901
1999-08-05,19.7014
1999-08-06,19.3473
1999-08-09,19.4158
1999-08-10,19.2046
1999-08-11,19.1303
1999-08-12,19.1303
1999-08-13,19.3473
1999-08-16,19.1303
1999-08-17,19.3473
1999-08-18,19.4158
1999-08-19,19.0618
1999-08-20,18.8791
1999-08-23,19.5929
1999-08-24,19.7014
1999-08-25,19.5586
1999-08-26,19.2046
1999-08-27,18.8105
1999-08-30,18.2737
1999-08-31,18.4165
1999-09-01,18.7763
1999-09-02,18.3822
1999-09-03,18.8791
1999-09-07,17.8112
1999-09-08,17.4147
1999-09-09,17.455
1999-09-10,17.2366
1999-09-13,17.2711
1999-09-14,17.0241
1999-09-15,16.9149
1999-09-16,16.5931
1999-09-17,16.484
1999-09-20,16.1622
1999-09-21,16.1967
1999-09-22,16.5184
1999-09-23,16.5529
1999-09-24,16.4495
1999-09-27,16.5931
1999-09-28,16.5184
1999-09-29,16.2312
1999-09-30,16.2656
1999-10-01,16.0531
1999-10-04,16.3403
1999-10-05,16.5184
1999-10-06,17.0585
1999-10-07,16.9149
1999-10-08,17.4147
1999-10-11,17.3113
1999-10-12,17.1275
1999-10-13,16.5931
1999-10-14,16.1622
1999-10-15,15.9784
1999-10-18,15.9439
1999-10-19,16.6966
1999-10-20,17.2366
1999-10-21,17.2022
1999-10-22,18.1329
1999-10-25,17.8859
1999-10-26,17.9548
1999-10-27,18.3857
1999-10-28,19.5349
1999-10-29,19.644
1999-11-01,19.713
1999-11-02,19.9658
1999-11-03,19.5349
1999-11-04,20.0002
1999-11-05,20.3967
1999-11-08,20.2186
1999-11-09,20.0002
1999-11-10,19.8221
1999-11-11,19.7532
1999-11-12,20.3967
1999-11-15,20.5748
1999-11-16,20.7931
1999-11-17,20.2186
1999-11-18,19.8968
1999-11-19,19.9313
1999-11-22,19.3567
1999-11-23,18.9603
1999-11-24,18.0985
1999-11-26,18.4202
1999-11-29,17.9548
1999-11-30,18.7075
1999-12-01,18.2421
1999-12-02,17.6676
1999-12-03,18.0295
1999-12-06,17.2711
1999-12-07,16.9838
1999-12-08,16.4968
1999-12-09,16.6415
1999-12-10,16.8615
1999-12-13,16.6068
1999-12-14,16.4273
1999-12-15,16.3868
1999-12-16,16.0974
1999-12-17,16.2074
1999-12-20,15.9932
1999-12-21,16.3174
1999-12-22,16.2074
1999-12-23,16.2074
1999-12-27,16.4968
1999-12-28,16.572
1999-12-29,16.7862
1999-12-30,16.6415
1999-12-31,16.4968
2000-01-03,15.808
2000-01-04,15.3044
2000-01-05,15.3391
2000-01-06,15.5938
2000-01-07,15.7038
2000-01-10,15.6633
2000-01-11,15.0497
2000-01-12,15.1597
2000-01-13,15.5938
2000-01-14,16.0974
2000-01-18,15.4144
2000-01-19,15.1597
2000-01-20,14.4361
2000-01-21,14.5461
2000-01-24,13.892
2000-01-25,13.8573
2000-01-26,14.2567
2000-01-27,14.4709
2000-01-28,14.5056
2000-01-31,15.0844
2000-02-01,15.0497
2000-02-02,14.8703
2000-02-03,14.9397
2000-02-04,14.6503
2000-02-07,14.6908
2000-02-08,14.8355
2000-02-09,14.5056
2000-02-10,14.0715
2000-02-11,14.0367
2000-02-14,13.9268
2000-02-15,13.9673
2000-02-16,13.8573
2000-02-17,14.002
2000-02-18,13.6026
2000-02-22,13.3885
2000-02-23,13.1685
2000-02-24,13.1338
2000-02-25,13.0585
2000-02-28,13.5679
2000-02-29,9.9849
2000-03-01,10.2049
2000-03-02,10.1643
2000-03-03,10.0196
2000-03-06,9.9849
2000-03-07,9.77073
2000-03-08,9.53032
2000-03-09,9.49513
2000-03-10,9.49513
2000-03-13,9.45994
2000-03-14,9.45994
2000-03-15,10.0054
2000-03-16,11.1783
2000-03-17,10.8851
2000-03-20,10.3749
2000-03-21,10.8499
2000-03-22,10.8147
2000-03-23,11.2546
2000-03-24,11.1431
2000-03-27,10.5567
2000-03-28,10.8147
2000-03-29,10.9613
2000-03-30,10.7795
2000-03-31,11.6182
2000-04-03,11.7296
2000-04-04,11.583
2000-04-05,11.6182
2000-04-06,11.8762
2000-04-07,11.1783
2000-04-10,11.4012
2000-04-11,11.366
2000-04-12,11.9114
2000-04-13,11.6182
2000-04-14,10.7033
2000-04-17,11.0317
2000-04-18,11.4364
2000-04-19,11.108
2000-04-20,11.3249
2000-04-24,11.4716
2000-04-25,11.9877
2000-04-26,11.583
2000-04-27,11.2546
2000-04-28,11.108
2000-05-01,11.4716
2000-05-02,11.3249
2000-05-03,10.9965
2000-05-04,10.7385
2000-05-05,10.5918
2000-05-08,10.7033
2000-05-09,10.8147
2000-05-10,10.5918
2000-05-11,10.7795
2000-05-12,10.8851
2000-05-15,10.9613
2000-05-16,10.9613
2000-05-17,10.9261
2000-05-18,11.1783
2000-05-19,10.7033
2000-05-22,10.7033
2000-05-23,11.366
2000-05-24,11.5126
2000-05-25,11.2898
2000-05-26,11.583
2000-05-30,11.7296
2000-05-31,11.9877
2000-06-01,12.4979
2000-06-02,13.0492
2000-06-05,12.6093
2000-06-06,12.4275
2000-06-07,12.3742
2000-06-08,11.8171
2000-06-09,11.3371
2000-06-12,11.5919
2000-06-13,11.5564
2000-06-14,11.7816
2000-06-15,11.1119
2000-06-16,10.6674
2000-06-19,10.9993
2000-06-20,11.0763
2000-06-21,10.6674
2000-06-22,10.5963
2000-06-23,10.5548
2000-06-26,10.5548
2000-06-27,10.5963
2000-06-28,10.5963
2000-06-29,10.5193
2000-06-30,10.2585
2000-07-03,10.8926
2000-07-05,10.6319
2000-07-06,10.5548
2000-07-07,11.0408
2000-07-10,10.9993
2000-07-11,10.7445
2000-07-12,10.703
2000-07-13,10.5963
2000-07-14,10.8156
2000-07-17,10.6319
2000-07-18,10.8156
2000-07-19,10.5548
2000-07-20,10.8156
2000-07-21,10.703
2000-07-24,10.8156
2000-07-25,10.8511
2000-07-26,10.5963
2000-07-27,10.5193
2000-07-28,10.5548
2000-07-31,10.8511
2000-08-01,10.8511
2000-08-02,10.8156
2000-08-03,11.2601
2000-08-04,12.8187
2000-08-07,12.226
2000-08-08,12.3327
2000-08-09,12.2972
2000-08-10,12.226
2000-08-11,12.5935
2000-08-14,12.7061
2000-08-15,12.5935
2000-08-16,12.4809
2000-08-17,12.4098
2000-08-18,12.4098
2000-08-21,12.3742
2000-08-22,12.5579
2000-08-23,12.4098
2000-08-24,12.4809
2000-08-25,12.4809
2000-08-28,12.5224
2000-08-29,12.4453
2000-08-30,12.5935
2000-08-31,13.038
2000-09-01,12.8898
2000-09-05,12.7772
2000-09-06,12.8898
2000-09-07,12.7772
2000-09-08,12.8898
2000-09-11,13.038
2000-09-12,13.038
2000-09-13,13.1697
2000-09-14,13.2834
2000-09-15,13.1697
2000-09-18,12.4214
2000-09-19,12.4992
2000-09-20,12.3076
2000-09-21,11.9724
2000-09-22,11.7868
2000-09-25,11.7868
2000-09-26,11.7868
2000-09-27,11.5234
2000-09-28,12.4573
2000-09-29,12.2358
2000-10-02,12.5351
2000-10-03,12.8703
2000-10-04,12.9063
2000-10-05,12.9841
2000-10-06,12.8344
2000-10-09,12.7566
2000-10-10,12.7566
2000-10-11,12.3495
2000-10-12,11.7868
2000-10-13,12.2358
2000-10-16,12.158
2000-10-17,11.6013
2000-10-18,11.5234
2000-10-19,12.7985
2000-10-20,12.1999
2000-10-23,12.4214
2000-10-24,12.4573
2000-10-25,12.571
2000-10-26,12.4573
2000-10-27,12.7985
2000-10-30,13.3193
2000-10-31,13.8461
2000-11-01,13.5049
2000-11-02,14.2172
2000-11-03,14.4806
2000-11-06,14.2951
2000-11-07,14.0317
2000-11-08,14.0317
2000-11-09,13.882
2000-11-10,13.7683
2000-11-13,13.6545
2000-11-14,13.5827
2000-11-15,13.2475
2000-11-16,13.0978
2000-11-17,13.2056
2000-11-20,13.2056
2000-11-21,13.5468
2000-11-22,13.5049
2000-11-24,13.7683
2000-11-27,13.7324
2000-11-28,13.6964
2000-11-29,14.6303
2000-11-30,14.8937
2000-12-01,14.9296
2000-12-04,14.9296
2000-12-05,15.5641
2000-12-06,15.193
2000-12-07,15.0433
2000-12-08,15.8275
2000-12-11,16.3483
2000-12-12,15.6779
2000-12-13,15.2801
2000-12-14,15.1714
2000-12-15,15.1291
2000-12-18,16.2279
2000-12-19,16.8316
2000-12-20,16.6022
2000-12-21,16.8316
2000-12-22,17.4716
2000-12-26,17.4353
2000-12-27,17.5078
2000-12-28,17.4716
2000-12-29,17.2421
2001-01-02,16.8316
2001-01-03,17.4716
2001-01-04,17.9606
2001-01-05,17.9243
2001-01-08,16.9825
2001-01-09,16.4875
2001-01-10,17.2421
2001-01-11,17.3931
2001-01-12,17.2059
2001-01-16,18.0753
2001-01-17,18.1115
2001-01-18,17.5078
2001-01-19,17.8096
2001-01-22,18.039
2001-01-23,18.2986
2001-01-24,17.9968
2001-01-25,17.6949
2001-01-26,18.2262
2001-01-29,18.4134
2001-01-30,18.7273
2001-01-31,18.7816
2001-02-01,18.6548
2001-02-02,18.7333
2001-02-05,18.8178
2001-02-06,18.8963
2001-02-07,19.0291
2001-02-08,19.1982
2001-02-09,19.4457
2001-02-12,19.7717
2001-02-13,19.6208
2001-02-14,19.7113
2001-02-15,19.5665
2001-02-16,19.6812
2001-02-20,19.4216
2001-02-21,19.2223
2001-02-22,18.8963
2001-02-23,18.7997
2001-02-26,18.7575
2001-02-27,18.9627
2001-02-28,18.5522
2001-03-01,18.7575
2001-03-02,19.1076
2001-03-05,19.1439
2001-03-06,19.3672
2001-03-07,19.4819
2001-03-08,19.3552
2001-03-09,19.4397
2001-03-12,18.9265
2001-03-13,19.5302
2001-03-14,19.1351
2001-03-15,19.7187
2001-03-16,19.6275
2001-03-19,19.901
2001-03-20,19.4208
2001-03-21,18.9771
2001-03-22,17.5912
2001-03-23,18.3024
2001-03-26,18.193
2001-03-27,18.5881
2001-03-28,18.4483
2001-03-29,18.5151
2001-03-30,18.971
2001-04-02,19.0926
2001-04-03,18.6853
2001-04-04,18.3145
2001-04-05,18.813
2001-04-06,18.5698
2001-04-09,18.5394
2001-04-10,18.8434
2001-04-11,18.6792
2001-04-12,18.6853
2001-04-16,18.4361
2001-04-17,18.7036
2001-04-18,19.1534
2001-04-19,19.4755
2001-04-20,19.0683
2001-04-23,19.0075
2001-04-24,19.3053
2001-04-25,19.6396
2001-04-26,19.6944
2001-04-27,19.8828
2001-04-30,19.8524
2001-05-01,19.901
2001-05-02,19.9983
2001-05-03,19.9618
2001-05-04,20.3508
2001-05-07,20.3751
2001-05-08,20.4542
2001-05-09,20.6244
2001-05-10,20.6669
2001-05-11,20.4663
2001-05-14,20.8006
2001-05-15,20.7885
2001-05-16,21.2687
2001-05-17,21.1897
2001-05-18,21.293
2001-05-21,21.2748
2001-05-22,21.3963
2001-05-23,21.214
2001-05-24,21.3659
2001-05-25,21.2444
2001-05-29,21.2748
2001-05-30,21.3477
2001-05-31,21.5848
2001-06-01,21.7367
2001-06-04,21.8522
2001-06-05,22.1014
2001-06-06,21.3659
2001-06-07,21.4085
2001-06-08,21.141
2001-06-11,20.9769
2001-06-12,20.9283
2001-06-13,20.8853
2001-06-14,20.5427
2001-06-15,20.61
2001-06-18,21.0444
2001-06-19,21.3564
2001-06-20,21.6622
2001-06-21,22.4881
2001-06-22,22.0721
2001-06-25,21.8825
2001-06-26,21.6867
2001-06-27,21.4542
2001-06-28,21.3135
2001-06-29,21.234
2001-07-02,21.9803
2001-07-03,21.9681
2001-07-05,21.8091
2001-07-06,21.6561
2001-07-09,21.5338
2001-07-10,20.9526
2001-07-11,20.8608
2001-07-12,21.2768
2001-07-13,21.2891
2001-07-16,20.9893
2001-07-17,21.1606
2001-07-18,21.1789
2001-07-19,20.6467
2001-07-20,20.3103
2001-07-23,19.723
2001-07-24,19.5761
2001-07-25,19.9371
2001-07-26,19.9187
2001-07-27,20.2613
2001-07-30,20.4754
2001-07-31,21.0138
2001-08-01,21.1667
2001-08-02,21.13
2001-08-03,20.9526
2001-08-06,20.4999
2001-08-07,20.7568
2001-08-08,20.7568
2001-08-09,20.8792
2001-08-10,20.9098
2001-08-13,20.9893
2001-08-14,21.3502
2001-08-15,21.1361
2001-08-16,21.0321
2001-08-17,20.6467
2001-08-20,20.6834
2001-08-21,20.7079
2001-08-22,20.867
2001-08-23,20.6895
2001-08-24,20.1145
2001-08-27,19.6006
2001-08-28,19.3926
2001-08-29,19.5211
2001-08-30,19.515
2001-08-31,19.6985
2001-09-04,19.5211
2001-09-05,19.1418
2001-09-06,19.9493
2001-09-07,19.8147
2001-09-10,20.1206
2001-09-17,20.3484
2001-09-18,20.3854
2001-09-19,21.0013
2001-09-20,20.8104
2001-09-21,20.9458
2001-09-24,21.2538
2001-09-25,21.7957
2001-09-26,22.5656
2001-09-27,22.7935
2001-09-28,22.7319
2001-10-01,22.5902
2001-10-02,22.9351
2001-10-03,22.6272
2001-10-04,21.8327
2001-10-05,21.2415
2001-10-08,20.176
2001-10-09,20.0097
2001-10-10,20.7611
2001-10-11,21.0937
2001-10-12,20.1575
2001-10-15,19.9604
2001-10-16,20.1514
2001-10-17,19.7264
2001-10-18,19.6279
2001-10-19,19.7634
2001-10-22,20.139
2001-10-23,20.5763
2001-10-24,20.7672
2001-10-25,21.0629
2001-10-26,21.2784
2001-10-29,21.106
2001-10-30,21.1983
2001-10-31,21.2907
2001-11-01,21.377
2001-11-02,21.4447
2001-11-05,22.0175
2001-11-06,22.3624
2001-11-07,22.0483
2001-11-08,22.1283
2001-11-09,22.1345
2001-11-12,22.153
2001-11-13,22.3316
2001-11-14,22.3562
2001-11-15,22.2884
2001-11-16,22.2946
2001-11-19,22.4178
2001-11-20,22.27
2001-11-21,22.1468
2001-11-23,22.467
2001-11-26,22.5841
2001-11-27,22.541
2001-11-28,22.2638
2001-11-29,22.7134
2001-11-30,22.1837
2001-12-03,22.1406
2001-12-04,22.3439
2001-12-05,22.6025
2001-12-06,22.5533
2001-12-07,22.6457
2001-12-10,22.5102
2001-12-11,22.621
2001-12-12,22.6334
2001-12-13,22.3543
2001-12-14,22.2365
2001-12-17,22.3481
2001-12-18,22.8194
2001-12-19,22.6892
2001-12-20,22.8752
2001-12-21,22.7264
2001-12-24,22.621
2001-12-26,22.5404
2001-12-27,22.4598
2001-12-28,22.5404
2001-12-31,22.4846
2002-01-02,22.2551
2002-01-03,22.2303
2002-01-04,22.1497
2002-01-07,22.1993
2002-01-08,21.9699
2002-01-09,21.6722
2002-01-10,21.4614
2002-01-11,21.6288
2002-01-14,21.387
2002-01-15,21.5792
2002-01-16,21.5978
2002-01-17,21.6846
2002-01-18,21.5668
2002-01-22,21.6102
2002-01-23,21.7156
2002-01-24,21.7777
2002-01-25,21.8335
2002-01-28,21.7032
2002-01-29,20.9157
2002-01-30,21.0149
2002-01-31,21.1762
2002-02-01,21.0832
2002-02-04,20.8971
2002-02-05,20.9467
2002-02-06,20.7669
2002-02-07,20.8041
2002-02-08,21.201
2002-02-11,21.5296
2002-02-12,21.7032
2002-02-13,21.8583
2002-02-14,21.8397
2002-02-15,21.7467
2002-02-19,21.2692
2002-02-20,21.4552
2002-02-21,21.325
2002-02-22,21.3436
2002-02-25,21.7032
2002-02-26,21.9265
2002-02-27,21.6412
2002-02-28,21.3932
2002-03-01,21.8149
2002-03-04,22.0009
2002-03-05,21.8211
2002-03-06,22.0567
2002-03-07,21.7032
2002-03-08,21.7777
2002-03-11,22.0257
2002-03-12,22.0257
2002-03-13,22.0756
2002-03-14,22.1505
2002-03-15,22.5127
2002-03-18,22.4628
2002-03-19,22.4628
2002-03-20,22.0819
2002-03-21,22.1193
2002-03-22,21.957
2002-03-25,21.6385
2002-03-26,21.8758
2002-03-27,22.2879
2002-03-28,21.9007
2002-04-01,22.0007
2002-04-02,22.0756
2002-04-03,21.5448
2002-04-04,21.8695
2002-04-05,22.1318
2002-04-08,22.4815
2002-04-09,22.7563
2002-04-10,23.0685
2002-04-11,23.156
2002-04-12,23.6243
2002-04-15,23.3808
2002-04-16,22.5315
2002-04-17,22.7813
2002-04-18,22.7313
2002-04-19,22.9936
2002-04-22,22.7625
2002-04-23,22.8999
2002-04-24,23.0873
2002-04-25,23.6493
2002-04-26,23.4745
2002-04-29,23.3808
2002-04-30,24.1177
2002-05-01,24.2176
2002-05-02,24.074
2002-05-03,24.3612
2002-05-06,24.1177
2002-05-07,24.074
2002-05-08,24.1739
2002-05-09,24.1052
2002-05-10,23.9803
2002-05-13,24.4112
2002-05-14,24.7984
2002-05-15,25.3104
2002-05-16,25.1044
2002-05-17,25.0669
2002-05-20,24.7796
2002-05-21,24.6298
2002-05-22,24.4299
2002-05-23,24.8046
2002-05-24,24.2051
2002-05-28,23.768
2002-05-29,23.668
2002-05-30,24.1239
2002-05-31,24.2988
2002-06-03,24.0865
2002-06-04,23.8929
2002-06-05,23.9616
2002-06-06,23.2621
2002-06-07,23.1685
2002-06-10,23.3808
2002-06-11,22.9312
2002-06-12,23.1638
2002-06-13,22.862
2002-06-14,23.3336
2002-06-17,24.0504
2002-06-18,24.0504
2002-06-19,24.0881
2002-06-20,23.8995
2002-06-21,23.9938
2002-06-24,24.1762
2002-06-25,24.0818
2002-06-26,24.0001
2002-06-27,23.9498
2002-06-28,23.9624
2002-07-01,23.6103
2002-07-02,23.5537
2002-07-03,23.1638
2002-07-05,23.8178
2002-07-08,24.2453
2002-07-09,24.0252
2002-07-10,23.321
2002-07-11,23.5662
2002-07-12,23.0758
2002-07-15,23.101
2002-07-16,22.6294
2002-07-17,22.8117
2002-07-18,22.2521
2002-07-19,21.6611
2002-07-22,21.1455
2002-07-23,20.5482
2002-07-24,21.4976
2002-07-25,21.9063
2002-07-26,22.2395
2002-07-29,23.3273
2002-07-30,23.0695
2002-07-31,23.5159
2002-08-01,23.0129
2002-08-02,22.7488
2002-08-05,21.9943
2002-08-06,22.8997
2002-08-07,23.233
2002-08-08,24.3019
2002-08-09,24.3082
2002-08-12,24.3082
2002-08-13,23.9309
2002-08-14,24.6226
2002-08-15,24.8112
2002-08-16,24.7923
2002-08-19,24.981
2002-08-20,24.8364
2002-08-21,24.8929
2002-08-22,24.8867
2002-08-23,24.3522
2002-08-26,24.7735
2002-08-27,24.4717
2002-08-28,24.1762
2002-08-29,24.1636
2002-08-30,24.1258
2002-09-03,23.2456
2002-09-04,23.4091
2002-09-05,23.4531
2002-09-06,24.019
2002-09-09,24.3459
2002-09-10,23.7989
2002-09-11,23.7418
2002-09-12,22.9063
2002-09-13,23.2291
2002-09-16,23.0013
2002-09-17,23.0266
2002-09-18,22.4379
2002-09-19,21.7607
2002-09-20,21.9379
2002-09-23,22.0772
2002-09-24,21.5708
2002-09-25,22.2037
2002-09-26,22.7291
2002-09-27,22.1405
2002-09-30,21.9063
2002-10-01,22.9633
2002-10-02,21.8113
2002-10-03,20.8872
2002-10-04,20.3302
2002-10-07,19.2099
2002-10-08,20.0897
2002-10-09,18.982
2002-10-10,19.9884
2002-10-11,20.6277
2002-10-14,21.0455
2002-10-15,21.9189
2002-10-16,21.6974
2002-10-17,22.3177
2002-10-18,22.8557
2002-10-21,23.0076
2002-10-22,23.1405
2002-10-23,23.1089
2002-10-24,22.6595
2002-10-25,23.4823
2002-10-28,23.3557
2002-10-29,22.9949
2002-10-30,23.7924
2002-10-31,23.4823
2002-11-01,24.0773
2002-11-04,23.6469
2002-11-05,23.5393
2002-11-06,23.0646
2002-11-07,22.4063
2002-11-08,22.0961
2002-11-11,21.9822
2002-11-12,22.0392
2002-11-13,21.8809
2002-11-14,22.7924
2002-11-15,22.862
2002-11-18,22.5202
2002-11-19,22.5392
2002-11-20,23.1975
2002-11-21,23.5772
2002-11-22,23.6215
2002-11-25,23.4823
2002-11-26,23.3241
2002-11-27,23.7355
2002-11-29,23.3431
2002-12-02,23.4633
2002-12-03,23.6089
2002-12-04,23.2291
2002-12-05,22.7861
2002-12-06,23.0139
2002-12-09,22.6721
2002-12-10,23.0835
2002-12-11,23.307
2002-12-12,23.0772
2002-12-13,22.7773
2002-12-16,23.2048
2002-12-17,23.1027
2002-12-18,22.739
2002-12-19,22.6369
2002-12-20,23.0644
2002-12-23,22.9049
2002-12-24,22.8921
2002-12-26,22.9751
2002-12-27,22.6241
2002-12-30,22.9049
2002-12-31,22.9049
2003-01-02,23.6516
2003-01-03,23.6644
2003-01-06,24.2898
2003-01-07,23.8622
2003-01-08,23.7473
2003-01-09,24.3727
2003-01-10,24.0728
2003-01-13,24.06
2003-01-14,24.3089
2003-01-15,23.8048
2003-01-16,23.926
2003-01-17,23.7154
2003-01-21,23.2942
2003-01-22,23.4346
2003-01-23,23.8048
2003-01-24,23.307
2003-01-27,23.0453
2003-01-28,23.1474
2003-01-29,23.2878
2003-01-30,23.0453
2003-01-31,23.9515
2003-02-03,23.7856
2003-02-04,23.6324
2003-02-05,23.575
2003-02-06,23.5559
2003-02-07,23.5495
2003-02-10,23.9196
2003-02-11,23.8558
2003-02-12,23.6644
2003-02-13,23.7984
2003-02-14,24.2515
2003-02-18,24.06
2003-02-19,23.9324
2003-02-20,23.7601
2003-02-21,24.1685
2003-02-24,23.4793
2003-02-25,23.7473
2003-02-26,23.4027
2003-02-27,24.5451
2003-02-28,24.3919
2003-03-03,24.494
2003-03-04,24.2515
2003-03-05,24.4557
2003-03-06,24.3983
2003-03-07,24.7238
2003-03-10,24.0856
2003-03-11,23.8303
2003-03-12,23.6372
2003-03-13,24.1969
2003-03-14,24.1455
2003-03-17,24.7245
2003-03-18,24.6923
2003-03-19,25.014
2003-03-20,25.1942
2003-03-21,25.696
2003-03-24,25.4129
2003-03-25,25.6123
2003-03-26,25.4837
2003-03-27,25.6381
2003-03-28,25.6574
2003-03-31,25.5351
2003-04-01,25.9855
2003-04-02,26.4294
2003-04-03,26.0756
2003-04-04,26.3265
2003-04-07,25.3936
2003-04-08,25.5609
2003-04-09,25.0912
2003-04-10,25.6381
2003-04-11,25.7346
2003-04-14,26.037
2003-04-15,26.5259
2003-04-16,26.3908
2003-04-17,26.8347
2003-04-21,27.002
2003-04-22,28.0185
2003-04-23,28.1215
2003-04-24,27.9027
2003-04-25,27.5038
2003-04-28,28.025
2003-04-29,28.3402
2003-04-30,28.1665
2003-05-01,28.0314
2003-05-02,28.7584
2003-05-05,28.7455
2003-05-06,28.9192
2003-05-07,28.9192
2003-05-08,28.6297
2003-05-09,28.7391
2003-05-12,28.456
2003-05-13,28.5139
2003-05-14,28.2694
2003-05-15,28.9192
2003-05-16,28.9192
2003-05-19,28.1987
2003-05-20,28.2759
2003-05-21,28.6233
2003-05-22,28.5654
2003-05-23,28.7906
2003-05-27,29.1058
2003-05-28,29.0801
2003-05-29,29.0608
2003-05-30,30.0773
2003-06-02,30.013
2003-06-03,30.1095
2003-06-04,30.3861
2003-06-05,30.8107
2003-06-06,30.5405
2003-06-09,30.2832
2003-06-10,30.3346
2003-06-11,29.8749
2003-06-12,29.7454
2003-06-13,29.7065
2003-06-16,30.3411
2003-06-17,30.1986
2003-06-18,30.0173
2003-06-19,29.2533
2003-06-20,29.6288
2003-06-23,29.0202
2003-06-24,28.813
2003-06-25,28.7677
2003-06-26,28.7936
2003-06-27,28.3727
2003-06-30,28.4504
2003-07-01,28.7806
2003-07-02,28.6188
2003-07-03,28.431
2003-07-07,28.5605
2003-07-08,28.4698
2003-07-09,27.9065
2003-07-10,27.8094
2003-07-11,27.6605
2003-07-14,28.1008
2003-07-15,27.6216
2003-07-16,27.6087
2003-07-17,27.1749
2003-07-18,27.3173
2003-07-21,27.667
2003-07-22,27.7382
2003-07-23,28.0878
2003-07-24,28.8519
2003-07-25,29.1109
2003-07-28,28.7806
2003-07-29,28.4569
2003-07-30,28.3598
2003-07-31,27.7706
2003-08-01,27.0001
2003-08-04,26.8382
2003-08-05,26.4626
2003-08-06,26.7087
2003-08-07,26.6504
2003-08-08,26.5921
2003-08-11,26.5403
2003-08-12,26.9418
2003-08-13,26.5274
2003-08-14,26.9547
2003-08-15,26.877
2003-08-18,26.7475
2003-08-19,26.6116
2003-08-20,26.6116
2003-08-21,26.8511
2003-08-22,26.0353
2003-08-25,26.1907
2003-08-26,26.4562
2003-08-27,26.4821
2003-08-28,26.6828
2003-08-29,26.7087
2003-09-02,26.7734
2003-09-03,26.4885
2003-09-04,26.5533
2003-09-05,26.7411
2003-09-08,26.9029
2003-09-09,26.5468
2003-09-10,25.4446
2003-09-11,25.6925
2003-09-12,26.0186
2003-09-15,26.0969
2003-09-16,26.2926
2003-09-17,26.0251
2003-09-18,26.6578
2003-09-19,27.0818
2003-09-22,26.573
2003-09-23,26.8992
2003-09-24,27.134
2003-09-25,27.7797
2003-09-26,27.3949
2003-09-29,27.6558
2003-09-30,27.6688
2003-10-01,28.3276
2003-10-02,28.2167
2003-10-03,28.5102
2003-10-06,28.9016
2003-10-07,28.9407
2003-10-08,28.7646
2003-10-09,28.5624
2003-10-10,28.6211
2003-10-13,28.7451
2003-10-14,28.9016
2003-10-15,28.4581
2003-10-16,28.5298
2003-10-17,28.3928
2003-10-20,28.6146
2003-10-21,28.5037
2003-10-22,28.3146
2003-10-23,28.5559
2003-10-24,28.6211
2003-10-27,29.2603
2003-10-28,29.3582
2003-10-29,29.1038
2003-10-30,29.1495
2003-10-31,29.5734
2003-11-03,30.4214
2003-11-04,29.893
2003-11-05,29.5669
2003-11-06,29.1886
2003-11-07,28.9277
2003-11-10,29.2408
2003-11-11,29.0842
2003-11-12,29.0908
2003-11-13,29.0777
2003-11-14,28.7646
2003-11-17,28.4711
2003-11-18,28.1385
2003-11-19,28.308
2003-11-20,28.2428
2003-11-21,28.3602
2003-11-24,28.6277
2003-11-25,28.9342
2003-11-26,29.2734
2003-11-28,29.0908
2003-12-01,29.7104
2003-12-02,29.4299
2003-12-03,29.0908
2003-12-04,28.8951
2003-12-05,28.6016
2003-12-08,29.0451
2003-12-09,28.3407
2003-12-10,27.9395
2003-12-11,28.9797
2003-12-12,29.0521
2003-12-15,28.3608
2003-12-16,28.6703
2003-12-17,28.769
2003-12-18,28.6768
2003-12-19,28.7427
2003-12-22,28.9797
2003-12-23,29.2891
2003-12-24,29.2957
2003-12-26,29.006
2003-12-29,28.9007
2003-12-30,29.0192
2003-12-31,29.0455
2004-01-02,28.5583
2004-01-05,28.5188
2004-01-06,28.5715
2004-01-07,28.5913
2004-01-08,28.2884
2004-01-09,28.5452
2004-01-12,28.453
2004-01-13,28.1304
2004-01-14,28.3477
2004-01-15,29.3681
2004-01-16,29.6512
2004-01-20,29.5985
2004-01-21,29.4537
2004-01-22,29.4471
2004-01-23,30.1647
2004-01-26,30.2963
2004-01-27,29.9211
2004-01-28,29.4142
2004-01-29,29.2233
2004-01-30,29.2298
2004-02-02,29.2167
2004-02-03,28.9665
2004-02-04,28.7098
2004-02-05,28.6044
2004-02-06,29.1179
2004-02-09,29.0587
2004-02-10,29.1443
2004-02-11,29.5985
2004-02-12,29.6314
2004-02-13,29.7697
2004-02-17,29.9935
2004-02-18,30.27
2004-02-19,30.0593
2004-02-20,29.7236
2004-02-23,29.7499
2004-02-24,29.7236
2004-02-25,29.8684
2004-02-26,29.7433
2004-02-27,30.4412
2004-03-01,30.5465
2004-03-02,30.2042
2004-03-03,30.3951
2004-03-04,30.5662
2004-03-05,31.5142
2004-03-08,31.534
2004-03-09,31.455
2004-03-10,30.8642
2004-03-11,30.7513
2004-03-12,30.9372
2004-03-15,30.3729
2004-03-16,30.2202
2004-03-17,30.6252
2004-03-18,30.7845
2004-03-19,30.5588
2004-03-22,30.831
2004-03-23,30.9106
2004-03-24,30.7978
2004-03-25,31.2094
2004-03-26,30.9837
2004-03-29,31.4152
2004-03-30,31.4617
2004-03-31,31.6276
2004-04-01,31.8666
2004-04-02,30.9239
2004-04-05,30.6385
2004-04-06,30.7646
2004-04-07,30.7048
2004-04-08,30.5455
2004-04-12,30.1936
2004-04-13,29.5298
2004-04-14,29.1779
2004-04-15,28.7132
2004-04-16,29.1912
2004-04-19,29.1912
2004-04-20,28.5206
2004-04-21,28.6003
2004-04-22,28.846
2004-04-23,28.8791
2004-04-26,28.9256
2004-04-27,29.0982
2004-04-28,28.7928
2004-04-29,29.065
2004-04-30,29.1978
2004-05-03,29.158
2004-05-04,29.5231
2004-05-05,29.8883
2004-05-06,29.7754
2004-05-07,29.47
2004-05-10,29.304
2004-05-11,29.7024
2004-05-12,29.6891
2004-05-13,29.8086
2004-05-14,30.0808
2004-05-17,29.8617
2004-05-18,30.1405
2004-05-19,30.2401
2004-05-20,30.1472
2004-05-21,30.1737
2004-05-24,30.3596
2004-05-25,30.4924
2004-05-26,31.07
2004-05-27,30.6916
2004-05-28,30.9704
2004-06-01,30.5588
2004-06-02,30.2999
2004-06-03,30.114
2004-06-04,29.9148
2004-06-07,30.1007
2004-06-08,30.3131
2004-06-09,29.9043
2004-06-10,29.6565
2004-06-14,29.3283
2004-06-15,29.3216
2004-06-16,29.5293
2004-06-17,29.5359
2004-06-18,29.6096
2004-06-21,29.8306
2004-06-22,30.4133
2004-06-23,30.4736
2004-06-24,30.5942
2004-06-25,30.5071
2004-06-28,30.6276
2004-06-29,30.1722
2004-06-30,30.5004
2004-07-01,29.8708
2004-07-02,29.978
2004-07-06,29.7302
2004-07-07,29.6096
2004-07-08,29.4824
2004-07-09,29.6297
2004-07-12,29.8373
2004-07-13,30.1454
2004-07-14,29.8239
2004-07-15,29.6766
2004-07-16,29.7034
2004-07-19,29.8038
2004-07-20,30.1789
2004-07-21,29.4958
2004-07-22,29.4422
2004-07-23,29.0738
2004-07-26,29.1877
2004-07-27,29.6029
2004-07-28,29.4623
2004-07-29,29.2547
2004-07-30,29.1006
2004-08-02,29.4087
2004-08-03,29.0403
2004-08-04,29.1542
2004-08-05,28.8796
2004-08-06,28.9064
2004-08-09,28.8327
2004-08-10,28.893
2004-08-11,28.9868
2004-08-12,29.047
2004-08-13,28.6787
2004-08-16,29.2881
2004-08-17,29.5092
2004-08-18,30.2057
2004-08-19,29.7235
2004-08-20,29.6498
2004-08-23,29.7771
2004-08-24,29.7235
2004-08-25,29.7838
2004-08-26,29.9311
2004-08-27,30.0182
2004-08-30,30.1387
2004-08-31,30.4669
2004-09-01,30.2191
2004-09-02,30.0651
2004-09-03,30.2124
2004-09-07,30.6075
2004-09-08,30.2088
2004-09-09,30.3574
2004-09-10,30.5534
2004-09-13,30.2696
2004-09-14,30.0601
2004-09-15,29.8237
2004-09-16,30.1345
2004-09-17,29.9656
2004-09-20,29.9385
2004-09-21,29.9385
2004-09-22,29.7088
2004-09-23,29.4385
2004-09-24,29.7088
2004-09-27,29.6142
2004-09-28,29.871
2004-09-29,29.8507
2004-09-30,29.2696
2004-10-01,29.3034
2004-10-04,28.7899
2004-10-05,29.0061
2004-10-06,29.1885
2004-10-07,29.0534
2004-10-08,29.121
2004-10-11,28.871
2004-10-12,28.7494
2004-10-13,28.6683
2004-10-14,28.3913
2004-10-15,28.871
2004-10-18,29.1142
2004-10-19,29.094
2004-10-20,28.5534
2004-10-21,28.4521
2004-10-22,28.3778
2004-10-25,28.0737
2004-10-26,28.4859
2004-10-27,28.9858
2004-10-28,29.3034
2004-10-29,29.2021
2004-11-01,29.0399
2004-11-02,28.8913
2004-11-03,29.2291
2004-11-04,29.8304
2004-11-05,29.3507
2004-11-08,29.4183
2004-11-09,29.0534
2004-11-10,29.1075
2004-11-11,29.2764
2004-11-12,29.871
2004-11-15,29.6412
2004-11-16,29.6615
2004-11-17,29.5061
2004-11-18,29.5196
2004-11-19,29.3642
2004-11-22,29.6075
2004-11-23,29.7156
2004-11-24,29.7223
2004-11-26,29.7899
2004-11-29,29.6885
2004-11-30,29.5264
2004-12-01,29.7899
2004-12-02,29.7629
2004-12-03,29.8304
2004-12-06,29.4723
2004-12-07,28.9926
2004-12-08,29.2494
2004-12-09,29.0669
2004-12-10,28.8102
2004-12-13,29.2223
2004-12-14,29.6075
2004-12-15,29.4094
2004-12-16,29.3412
2004-12-17,29.2252
2004-12-20,29.2115
2004-12-21,29.5527
2004-12-22,29.1365
2004-12-23,29.273
2004-12-27,29.116
2004-12-28,29.1842
2004-12-29,29.3071
2004-12-30,29.3685
2004-12-31,29.4504
2005-01-03,29.3753
2005-01-04,29.0068
2005-01-05,29.0137
2005-01-06,29.1501
2005-01-07,28.925
2005-01-10,29.0
2005-01-11,28.9932
2005-01-12,28.9795
2005-01-13,28.8635
2005-01-14,28.7885
2005-01-18,29.1297
2005-01-19,29.3617
2005-01-20,29.2388
2005-01-21,29.3753
2005-01-24,29.3958
2005-01-25,29.3412
2005-01-26,29.3685
2005-01-27,29.1024
2005-01-28,28.884
2005-01-31,29.0751
2005-02-01,29.1092
2005-02-02,28.8704
2005-02-03,29.2525
2005-02-04,29.7233
2005-02-07,30.16
2005-02-08,30.2282
2005-02-09,29.5595
2005-02-10,29.3685
2005-02-11,29.5595
2005-02-14,29.4572
2005-02-15,29.7438
2005-02-16,29.6687
2005-02-17,29.2252
2005-02-18,28.9591
2005-02-22,28.6588
2005-02-23,28.8362
2005-02-24,29.0
2005-02-25,29.1365
2005-02-28,28.9864
2005-03-01,29.2115
2005-03-02,29.0751
2005-03-03,28.9795
2005-03-04,29.2047
2005-03-07,29.5186
2005-03-08,30.0099
2005-03-09,29.2931
2005-03-10,29.4309
2005-03-11,29.2449
2005-03-14,29.2242
2005-03-15,29.1071
2005-03-16,28.6316
2005-03-17,28.7418
2005-03-18,28.2871
2005-03-21,28.8452
2005-03-22,28.0321
2005-03-23,27.5842
2005-03-24,27.5704
2005-03-28,27.5704
2005-03-29,27.5773
2005-03-30,27.8736
2005-03-31,28.1423
2005-04-01,27.7289
2005-04-04,27.6944
2005-04-05,27.6669
2005-04-06,27.8736
2005-04-07,28.0045
2005-04-08,27.7013
2005-04-11,27.7702
2005-04-12,27.8185
2005-04-13,27.4119
2005-04-14,27.026
2005-04-15,26.7366
2005-04-18,27.1156
2005-04-19,27.2121
2005-04-20,27.0605
2005-04-21,27.5222
2005-04-22,27.7909
2005-04-25,28.5007
2005-04-26,28.3215
2005-04-27,28.9072
2005-04-28,28.542
2005-04-29,28.5834
2005-05-02,28.859
2005-05-03,28.7281
2005-05-04,29.1208
2005-05-05,28.3904
2005-05-06,28.4111
2005-05-09,28.225
2005-05-10,27.9907
2005-05-11,28.163
2005-05-12,27.9287
2005-05-13,27.7427
2005-05-16,28.2871
2005-05-17,28.5971
2005-05-18,28.9624
2005-05-19,29.1346
2005-05-20,29.1898
2005-05-23,29.0244
2005-05-24,28.7143
2005-05-25,28.5351
2005-05-26,28.5489
2005-05-27,29.0106
2005-05-31,29.114
2005-06-01,29.1346
2005-06-02,28.9486
2005-06-03,28.5971
2005-06-06,28.8039
2005-06-07,28.8039
2005-06-08,28.6924
2005-06-09,28.6506
2005-06-10,28.6506
2005-06-13,28.6158
2005-06-14,28.6924
2005-06-15,29.0893
2005-06-16,29.4235
2005-06-17,29.7298
2005-06-20,29.6463
2005-06-21,29.6602
2005-06-22,30.1267
2005-06-23,29.8273
2005-06-24,29.6741
2005-06-27,29.8343
2005-06-28,30.0222
2005-06-29,29.8343
2005-06-30,29.3399
2005-07-01,29.2981
2005-07-05,29.89
2005-07-06,29.9178
2005-07-07,29.9178
2005-07-08,30.1336
2005-07-11,30.2729
2005-07-12,30.8299
2005-07-13,31.004
2005-07-14,30.802
2005-07-15,30.6349
2005-07-18,29.2981
2005-07-19,28.7829
2005-07-20,28.9639
2005-07-21,28.3512
2005-07-22,28.7342
2005-07-25,28.8247
2005-07-26,28.7063
2005-07-27,28.6994
2005-07-28,28.6785
2005-07-29,28.3791
2005-08-01,28.4278
2005-08-02,28.4766
2005-08-03,28.3304
2005-08-04,28.0449
2005-08-05,27.7594
2005-08-08,27.7455
2005-08-09,27.7455
2005-08-10,27.7246
2005-08-11,27.836
2005-08-12,27.8708
2005-08-15,28.1841
2005-08-16,28.4
2005-08-17,28.1215
2005-08-18,27.9753
2005-08-19,28.2955
2005-08-22,28.3304
2005-08-23,28.1076
2005-08-24,27.7734
2005-08-25,27.8848
2005-08-26,27.2442
2005-08-29,27.2164
2005-08-30,27.091
2005-08-31,27.1885
2005-09-01,27.46
2005-09-02,27.1189
2005-09-06,27.279
2005-09-07,27.1816
2005-09-08,26.9588
2005-09-09,27.1607
2005-09-12,27.0702
2005-09-13,26.8265
2005-09-14,26.8546
2005-09-15,26.9954
2005-09-16,27.2419
2005-09-19,27.3264
2005-09-20,27.263
2005-09-21,26.4392
2005-09-22,26.2139
2005-09-23,26.1857
2005-09-26,26.2209
2005-09-27,26.0308
2005-09-28,25.6717
2005-09-29,25.9745
2005-09-30,25.5943
2005-10-03,26.0308
2005-10-04,25.3619
2005-10-05,25.2
2005-10-06,25.1859
2005-10-07,25.1788
2005-10-10,24.7845
2005-10-11,24.7141
2005-10-12,24.7564
2005-10-13,24.7916
2005-10-14,25.9041
2005-10-17,25.8759
2005-10-18,25.4182
2005-10-19,25.5943
2005-10-20,25.7421
2005-10-21,25.7421
2005-10-24,26.2491
2005-10-25,26.2561
2005-10-26,26.4251
2005-10-27,26.3899
2005-10-28,27.1996
2005-10-31,27.263
2005-11-01,27.087
2005-11-02,27.263
2005-11-03,26.756
2005-11-04,27.0025
2005-11-07,27.4249
2005-11-08,27.1292
2005-11-09,27.2771
2005-11-10,27.9882
2005-11-11,28.1713
2005-11-14,28.0023
2005-11-15,27.3334
2005-11-16,27.1785
2005-11-17,27.6221
2005-11-18,27.8545
2005-11-21,27.3334
2005-11-22,27.4602
2005-11-23,27.6573
2005-11-25,27.7911
2005-11-28,27.6432
2005-11-29,27.5446
2005-11-30,27.3757
2005-12-01,27.5165
2005-12-02,27.4249
2005-12-05,27.5165
2005-12-06,27.2348
2005-12-07,27.1503
2005-12-08,27.1081
2005-12-09,27.3475
2005-12-12,27.4742
2005-12-13,27.6925
2005-12-14,28.0133
2005-12-15,28.0845
2005-12-16,28.0631
2005-12-19,28.0774
2005-12-20,27.999
2005-12-21,28.0631
2005-12-22,28.0489
2005-12-23,28.2483
2005-12-27,28.0204
2005-12-28,27.6999
2005-12-29,27.5859
2005-12-30,27.358
2006-01-03,28.0275
2006-01-04,28.1842
2006-01-05,28.1984
2006-01-06,28.3979
2006-01-09,28.9891
2006-01-10,28.6614
2006-01-11,28.4691
2006-01-12,28.056
2006-01-13,28.1343
2006-01-17,27.8494
2006-01-18,27.7568
2006-01-19,27.5218
2006-01-20,26.4748
2006-01-23,26.8523
2006-01-24,27.4007
2006-01-25,27.1657
2006-01-26,27.301
2006-01-27,27.1585
2006-01-30,27.0802
2006-01-31,26.9734
2006-02-01,27.2939
2006-02-02,27.3793
2006-02-03,27.301
2006-02-06,27.2939
2006-02-07,27.3437
2006-02-08,27.6785
2006-02-09,27.6856
2006-02-10,27.3152
2006-02-13,27.2654
2006-02-14,27.5717
2006-02-15,27.5645
2006-02-16,27.7853
2006-02-17,27.5574
2006-02-21,27.6856
2006-02-22,28.7398
2006-02-23,28.5475
2006-02-24,28.5759
2006-02-27,28.5475
2006-02-28,27.8708
2006-03-01,28.0631
2006-03-02,28.2697
2006-03-03,28.0061
2006-03-06,27.9492
2006-03-07,27.9919
2006-03-08,28.0987
2006-03-09,27.6714
2006-03-10,27.8779
2006-03-13,28.4121
2006-03-14,28.8395
2006-03-15,28.9329
2006-03-16,29.5811
2006-03-17,29.8476
2006-03-20,29.5667
2006-03-21,29.6027
2006-03-22,29.8908
2006-03-23,29.862
2006-03-24,29.9052
2006-03-27,29.8404
2006-03-28,29.8188
2006-03-29,30.0421
2006-03-30,29.7252
2006-03-31,29.9773
2006-04-03,29.862
2006-04-04,30.2798
2006-04-05,30.3518
2006-04-06,30.4598
2006-04-07,30.0565
2006-04-10,30.2294
2006-04-11,29.5163
2006-04-12,29.6892
2006-04-13,29.8188
2006-04-17,29.3074
2006-04-18,30.0349
2006-04-19,29.9845
2006-04-20,29.6459
2006-04-21,29.0193
2006-04-24,29.185
2006-04-25,29.2354
2006-04-26,29.2714
2006-04-27,30.0997
2006-04-28,30.5823
2006-05-01,29.8692
2006-05-02,29.6676
2006-05-03,29.6676
2006-05-04,29.8116
2006-05-05,30.1717
2006-05-08,30.1861
2006-05-09,30.2438
2006-05-10,29.9917
2006-05-11,29.4371
2006-05-12,29.3362
2006-05-15,29.6387
2006-05-16,29.3722
2006-05-17,28.8249
2006-05-18,28.8176
2006-05-19,29.2642
2006-05-22,29.4155
2006-05-23,29.0337
2006-05-24,29.0265
2006-05-25,29.0049
2006-05-26,29.329
2006-05-30,28.7672
2006-05-31,28.7672
2006-06-01,29.1418
2006-06-02,29.1274
2006-06-05,28.652
2006-06-06,28.6376
2006-06-07,28.7024
2006-06-08,29.3218
2006-06-09,29.185
2006-06-12,28.7456
2006-06-13,28.4575
2006-06-14,28.3185
2006-06-15,28.8795
2006-06-16,28.8649
2006-06-19,28.4934
2006-06-20,28.3404
2006-06-21,28.4861
2006-06-22,28.2966
2006-06-23,28.1728
2006-06-26,28.5735
2006-06-27,28.3549
2006-06-28,28.4788
2006-06-29,29.0835
2006-06-30,29.2365
2006-07-03,29.404
2006-07-05,29.0908
2006-07-06,28.9888
2006-07-07,29.1418
2006-07-10,29.2
2006-07-11,29.2
2006-07-12,28.7192
2006-07-13,28.5006
2006-07-14,28.4205
2006-07-17,28.7338
2006-07-18,28.7338
2006-07-19,29.3967
2006-07-20,29.0543
2006-07-21,29.149
2006-07-24,29.6007
2006-07-25,29.6882
2006-07-26,29.8776
2006-07-27,29.6299
2006-07-28,30.2564
2006-07-31,30.4968
2006-08-01,30.3876
2006-08-02,30.526
2006-08-03,30.7008
2006-08-04,31.1525
2006-08-07,30.7664
2006-08-08,30.4823
2006-08-09,30.0306
2006-08-10,30.0306
2006-08-11,29.8047
2006-08-14,29.8193
2006-08-15,30.3147
2006-08-16,30.5478
2006-08-17,30.526
2006-08-18,30.5551
2006-08-21,30.3657
2006-08-22,30.3293
2006-08-23,30.016
2006-08-24,29.7829
2006-08-25,29.1126
2006-08-28,29.1855
2006-08-29,28.0198
2006-08-30,27.7939
2006-08-31,27.7794
2006-09-01,27.8231
2006-09-05,27.8449
2006-09-06,27.8814
2006-09-07,27.6992
2006-09-08,27.7502
2006-09-11,27.8522
2006-09-12,28.4351
2006-09-13,28.5527
2006-09-14,28.5232
2006-09-15,28.759
2006-09-18,28.5379
2006-09-19,28.4421
2006-09-20,28.7517
2006-09-21,28.5232
2006-09-22,28.5674
2006-09-25,28.9801
2006-09-26,29.0686
2006-09-27,28.8696
2006-09-28,28.8548
2006-09-29,27.9557
2006-10-02,28.1694
2006-10-03,28.2873
2006-10-04,28.5379
2006-10-05,28.6043
2006-10-06,28.3094
2006-10-09,28.4937
2006-10-10,28.6337
2006-10-11,28.7443
2006-10-12,28.7001
2006-10-13,28.9507
2006-10-16,28.7811
2006-10-17,28.5895
2006-10-18,28.5969
2006-10-19,28.1915
2006-10-20,28.3831
2006-10-23,28.2431
2006-10-24,28.2063
2006-10-25,28.5969
2006-10-26,29.2012
2006-10-27,28.9359
2006-10-30,28.9212
2006-10-31,28.9728
2006-11-01,28.678
2006-11-02,28.5969
2006-11-03,28.5821
2006-11-06,28.6853
2006-11-07,28.6485
2006-11-08,29.0391
2006-11-09,29.1128
2006-11-10,29.0538
2006-11-13,29.1275
2006-11-14,29.2528
2006-11-15,29.1939
2006-11-16,29.6951
2006-11-17,29.4371
2006-11-20,29.5771
2006-11-21,29.3781
2006-11-22,29.474
2006-11-24,29.7098
2006-11-27,29.356
2006-11-28,29.1644
2006-11-29,29.3634
2006-11-30,29.3634
2006-12-01,29.4813
2006-12-04,29.8277
2006-12-05,29.7761
2006-12-06,29.7172
2006-12-07,29.5108
2006-12-08,29.754
2006-12-11,29.9014
2006-12-12,30.1225
2006-12-13,30.4132
2006-12-14,30.4579
2006-12-15,30.7709
2006-12-18,30.674
2006-12-19,30.6591
2006-12-20,30.7486
2006-12-21,30.7635
2006-12-22,30.7486
2006-12-26,31.0094
2006-12-27,31.2032
2006-12-28,31.1361
2006-12-29,31.1212
2007-01-03,31.0765
2007-01-04,30.9349
2007-01-05,30.3685
2007-01-08,30.1449
2007-01-09,30.3163
2007-01-10,30.2716
2007-01-11,30.3089
2007-01-12,30.2716
2007-01-16,29.981
2007-01-17,29.7425
2007-01-18,29.8841
2007-01-19,29.8543
2007-01-22,29.9288
2007-01-23,30.1077
2007-01-24,30.1449
2007-01-25,30.0182
2007-01-26,30.0927
2007-01-29,30.0033
2007-01-30,32.716
2007-01-31,32.4924
2007-02-01,32.4626
2007-02-02,32.5968
2007-02-05,32.5669
2007-02-06,33.0066
2007-02-07,33.2451
2007-02-08,33.1333
2007-02-09,32.8352
2007-02-12,32.6042
2007-02-13,32.7085
2007-02-14,32.7682
2007-02-15,32.947
2007-02-16,33.3494
2007-02-20,33.5879
2007-02-21,33.6326
2007-02-22,33.5432
2007-02-23,33.2749
2007-02-26,33.0588
2007-02-27,32.1496
2007-02-28,32.1273
2007-03-01,31.9484
2007-03-02,32.0974
2007-03-05,31.1957
2007-03-06,31.9335
2007-03-07,31.5534
2007-03-08,31.7323
2007-03-09,31.5236
2007-03-12,31.3746
2007-03-13,30.5697
2007-03-14,30.5172
2007-03-15,30.9392
2007-03-16,30.8412
2007-03-19,31.0974
2007-03-20,31.3008
2007-03-21,32.1146
2007-03-22,31.8584
2007-03-23,31.9338
2007-03-26,31.8358
2007-03-27,31.7303
2007-03-28,31.1953
2007-03-29,31.3234
2007-03-30,31.2632
2007-04-02,30.3137
2007-04-03,30.487
2007-04-04,30.0802
2007-04-05,30.0651
2007-04-09,29.7637
2007-04-10,29.8692
2007-04-11,29.3719
2007-04-12,29.2664
2007-04-13,29.628
2007-04-16,29.7561
2007-04-17,29.8842
2007-04-18,31.0446
2007-04-19,29.6054
2007-04-20,29.7787
2007-04-23,29.2136
2007-04-24,29.1835
2007-04-25,29.6582
2007-04-26,30.0802
2007-04-27,29.8993
2007-04-30,29.5376
2007-05-01,29.6808
2007-05-02,29.726
2007-05-03,30.1254
2007-05-04,30.148
2007-05-07,30.4192
2007-05-08,30.3514
2007-05-09,30.6528
2007-05-10,29.8315
2007-05-11,29.9445
2007-05-14,29.8164
2007-05-15,29.628
2007-05-16,29.8089
2007-05-17,29.9897
2007-05-18,30.0802
2007-05-21,29.9897
2007-05-22,30.4494
2007-05-23,30.2911
2007-05-24,30.0877
2007-05-25,30.3288
2007-05-29,30.4268
2007-05-30,30.4946
2007-05-31,30.3891
2007-06-01,30.472
2007-06-04,30.3966
2007-06-05,30.1932
2007-06-06,30.05
2007-06-07,29.3191
2007-06-08,29.7335
2007-06-11,29.5753
2007-06-12,28.9951
2007-06-13,29.3539
2007-06-14,29.3692
2007-06-15,29.5826
2007-06-18,29.7656
2007-06-19,30.0248
2007-06-20,29.8876
2007-06-21,30.0096
2007-06-22,30.0401
2007-06-25,29.9257
2007-06-26,29.8114
2007-06-27,29.7046
2007-06-28,29.8724
2007-06-29,29.7504
2007-07-02,29.8495
2007-07-03,29.758
2007-07-05,29.5445
2007-07-06,29.6131
2007-07-09,29.3539
2007-07-10,28.7135
2007-07-11,29.0032
2007-07-12,29.4606
2007-07-13,29.5445
2007-07-16,29.3996
2007-07-17,29.3082
2007-07-18,28.8431
2007-07-19,28.6525
2007-07-20,27.5393
2007-07-23,27.0285
2007-07-24,25.8848
2007-07-25,25.8391
2007-07-26,24.7793
2007-07-27,24.581
2007-07-30,24.6268
2007-07-31,24.1541
2007-08-01,24.1541
2007-08-02,23.933
2007-08-03,22.0421
2007-08-06,22.8655
2007-08-07,24.4667
2007-08-08,25.6637
2007-08-09,24.6268
2007-08-10,23.6432
2007-08-13,22.835
2007-08-14,22.1717
2007-08-15,21.5923
2007-08-16,23.7576
2007-08-17,24.398
2007-08-20,24.0931
2007-08-21,24.398
2007-08-22,24.1846
2007-08-23,23.3535
2007-08-24,23.3916
2007-08-27,22.9647
2007-08-28,22.0421
2007-08-29,22.6139
2007-08-30,22.6063
2007-08-31,23.384
2007-09-04,23.3611
2007-09-05,23.1324
2007-09-06,23.1705
2007-09-07,22.7359
2007-09-10,22.5987
2007-09-11,22.5682
2007-09-12,22.8231
2007-09-13,22.6218
2007-09-14,22.8928
2007-09-17,22.6915
2007-09-18,23.7986
2007-09-19,23.5818
2007-09-20,22.7612
2007-09-21,22.4592
2007-09-24,21.7625
2007-09-25,21.8012
2007-09-26,21.4373
2007-09-27,21.3599
2007-09-28,20.6476
2007-10-01,21.267
2007-10-02,21.6231
2007-10-03,21.8631
2007-10-04,21.4605
2007-10-05,21.7625
2007-10-08,21.1973
2007-10-09,21.0347
2007-10-10,20.965
2007-10-11,20.5005
2007-10-12,19.9586
2007-10-15,19.6257
2007-10-16,19.0218
2007-10-17,19.4089
2007-10-18,18.3096
2007-10-19,18.7354
2007-10-22,19.1612
2007-10-23,19.285
2007-10-24,18.7741
2007-10-25,19.0605
2007-10-26,19.6412
2007-10-29,19.9973
2007-10-30,19.8192
2007-10-31,20.1676
2007-11-01,18.7199
2007-11-02,17.938
2007-11-05,17.9147
2007-11-06,18.4102
2007-11-07,17.5276
2007-11-08,17.1096
2007-11-09,17.636
2007-11-12,17.6128
2007-11-13,18.5109
2007-11-14,18.0154
2007-11-15,17.0554
2007-11-16,16.3354
2007-11-19,15.6154
2007-11-20,15.5689
2007-11-21,16.0954
2007-11-23,16.7147
2007-11-26,15.6076
2007-11-27,16.2657
2007-11-28,16.9547
2007-11-29,16.2812
2007-11-30,17.0322
2007-12-03,17.3651
2007-12-04,17.1251
2007-12-05,17.4347
2007-12-06,18.2089
2007-12-07,17.7909
2007-12-10,18.1625
2007-12-11,16.6838
2007-12-12,16.1545
2007-12-13,15.7196
2007-12-14,15.34
2007-12-17,15.1107
2007-12-18,15.4033
2007-12-19,14.6996
2007-12-20,14.5177
2007-12-21,15.6721
2007-12-24,15.0317
2007-12-26,14.2409
2007-12-27,14.5177
2007-12-28,14.2014
2007-12-31,14.3121
2008-01-02,13.7665
2008-01-03,13.2209
2008-01-04,12.8888
2008-01-07,13.0153
2008-01-08,12.2641
2008-01-09,12.9916
2008-01-10,13.6242
2008-01-11,13.7823
2008-01-14,14.2093
2008-01-15,14.4623
2008-01-16,14.9289
2008-01-17,13.2367
2008-01-18,12.6279
2008-01-22,12.7386
2008-01-23,14.9051
2008-01-24,15.8066
2008-01-25,15.4349
2008-01-28,16.9057
2008-01-29,16.6843
2008-01-30,16.1466
2008-01-31,17.0875
2008-02-01,17.388
2008-02-04,16.368
2008-02-05,14.8182
2008-02-06,14.8735
2008-02-07,15.2135
2008-02-08,14.5809
2008-02-11,14.407
2008-02-12,14.7865
2008-02-13,14.8419
2008-02-14,14.1698
2008-02-15,14.5809
2008-02-19,14.0828
2008-02-20,14.6284
2008-02-21,14.1065
2008-02-22,15.0317
2008-02-25,15.1028
2008-02-26,15.1898
2008-02-27,15.0
2008-02-28,14.407
2008-02-29,12.8334
2008-03-03,13.2209
2008-03-04,13.4265
2008-03-05,12.7465
2008-03-06,12.6595
2008-03-07,12.8493
2008-03-10,12.8572
2008-03-11,13.7507
2008-03-12,13.799
2008-03-13,13.919
2008-03-14,13.383
2008-03-17,13.103
2008-03-18,13.551
2008-03-19,13.191
2008-03-20,13.759
2008-03-24,14.1109
2008-03-25,14.1429
2008-03-26,13.223
2008-03-27,12.623
2008-03-28,11.7831
2008-03-31,11.2712
2008-04-01,11.9671
2008-04-02,11.7031
2008-04-03,11.6711
2008-04-04,10.9192
2008-04-07,11.4231
2008-04-08,11.0712
2008-04-09,10.5992
2008-04-10,10.7032
2008-04-11,10.5592
2008-04-14,9.3513
2008-04-15,9.43929
2008-04-16,9.87926
2008-04-17,10.1672
2008-04-18,10.4312
2008-04-21,9.46329
2008-04-22,9.39129
2008-04-23,8.59935
2008-04-24,8.99132
2008-04-25,8.53536
2008-04-28,8.77534
2008-04-29,8.82334
2008-04-30,8.64735
2008-05-01,9.13531
2008-05-02,8.97532
2008-05-05,8.88733
2008-05-06,9.06332
2008-05-07,8.70334
2008-05-08,8.29537
2008-05-09,8.19938
2008-05-12,8.21538
2008-05-13,8.03139
2008-05-14,8.0074
2008-05-15,8.03139
2008-05-16,7.9434
2008-05-19,7.85541
2008-05-20,7.43944
2008-05-21,7.39944
2008-05-22,7.35145
2008-05-23,7.28745
2008-05-27,7.47944
2008-05-28,7.21546
2008-05-29,7.71142
2008-05-30,7.64742
2008-06-02,7.68742
2008-06-03,7.70342
2008-06-04,8.0234
2008-06-05,7.78341
2008-06-06,7.47944
2008-06-09,7.05547
2008-06-10,7.21546
2008-06-11,6.75767
2008-06-12,6.87221
2008-06-13,6.81494
2008-06-16,7.12583
2008-06-17,6.64313
2008-06-18,6.50405
2008-06-19,6.40588
2008-06-20,6.38952
2008-06-23,6.35679
2008-06-24,6.41406
2008-06-25,6.33225
2008-06-26,6.16044
2008-06-27,6.23407
2008-06-30,6.07863
2008-07-01,6.42224
2008-07-02,6.28316
2008-07-03,5.78411
2008-07-07,5.13779
2008-07-08,5.89046
2008-07-09,5.32596
2008-07-10,5.4814
2008-07-11,5.49777
2008-07-14,4.09878
2008-07-15,4.7451
2008-07-16,6.16044
2008-07-17,6.72495
2008-07-18,6.94584
2008-07-21,6.51224
2008-07-22,7.54307
2008-07-23,8.67207
2008-07-24,7.75578
2008-07-25,7.47762
2008-07-28,6.9213
2008-07-29,7.71487
2008-07-30,7.70669
2008-07-31,7.68215
2008-08-01,7.91122
2008-08-04,7.75578
2008-08-05,8.49209
2008-08-06,8.34482
2008-08-07,8.45118
2008-08-08,8.99932
2008-08-11,9.25294
2008-08-12,8.80297
2008-08-13,8.65571
2008-08-14,9.08931
2008-08-15,9.25294
2008-08-18,9.21203
2008-08-19,8.75388
2008-08-20,8.50027
2008-08-21,8.30392
2008-08-22,8.54117
2008-08-25,8.24665
2008-08-26,8.24665
2008-08-27,8.41027
2008-08-28,8.95841
2008-08-29,9.17931
2008-09-02,9.58019
2008-09-03,9.58837
2008-09-04,9.0075
2008-09-05,9.49837
2008-09-08,10.1938
2008-09-09,9.44111
2008-09-10,9.13182
2008-09-11,9.21614
2008-09-12,9.79794
2008-09-15,9.31732
2008-09-16,9.67146
2008-09-17,9.2583
2008-09-18,10.911
2008-09-19,12.0914
2008-09-22,10.5231
2008-09-23,9.98344
2008-09-24,10.0678
2008-09-25,10.405
2008-09-26,9.2583
2008-09-29,6.73714
2008-09-30,7.97664
2008-10-01,9.59557
2008-10-02,9.46909
2008-10-03,9.35105
2008-10-06,8.60903
2008-10-07,7.69838
2008-10-08,7.35267
2008-10-09,6.52634
2008-10-10,6.60223
2008-10-13,7.74897
2008-10-14,9.4185
2008-10-15,9.54498
2008-10-16,9.73048
2008-10-17,9.77264
2008-10-20,9.55341
2008-10-21,9.81481
2008-10-22,9.38477
2008-10-23,8.85356
2008-10-24,7.31051
2008-10-27,8.06939
2008-10-28,9.17398
2008-10-29,9.71362
2008-10-30,9.84853
2008-10-31,10.0509
2008-11-03,10.0256
2008-11-04,10.2027
2008-11-05,9.51969
2008-11-06,8.96318
2008-11-07,9.54498
2008-11-10,9.2077
2008-11-11,8.92945
2008-11-12,8.25489
2008-11-13,8.50785
2008-11-14,8.27176
2008-11-17,7.808
2008-11-18,8.50785
2008-11-19,7.85859
2008-11-20,6.72871
2008-11-21,6.83832
2008-11-24,7.88389
2008-11-25,8.43196
2008-11-26,8.56687
2008-11-28,9.01377
2008-12-01,7.51288
2008-12-02,8.3898
2008-12-03,8.8367
2008-12-04,8.45726
2008-12-05,9.05593
2008-12-08,8.96318
2008-12-09,8.40667
2008-12-10,8.38929
2008-12-11,7.59931
2008-12-12,8.24332
2008-12-15,8.20038
2008-12-16,8.65548
2008-12-17,8.73276
2008-12-18,8.89591
2008-12-19,8.81004
2008-12-22,8.85298
2008-12-23,8.4494
2008-12-24,8.32918
2008-12-26,8.15745
2008-12-29,8.34636
2008-12-30,8.67265
2008-12-31,9.11917
2009-01-02,9.60861
2009-01-05,9.19645
2009-01-06,9.26514
2009-01-07,8.87874
2009-01-08,8.98178
2009-01-09,8.45798
2009-01-12,7.71952
2009-01-13,7.80539
2009-01-14,7.37605
2009-01-15,6.40574
2009-01-16,7.5392
2009-01-20,6.89519
2009-01-21,7.96854
2009-01-22,7.47909
2009-01-23,7.95995
2009-01-26,7.44474
2009-01-27,7.88267
2009-01-28,8.9045
2009-01-29,8.24332
2009-01-30,8.16603
2009-02-02,7.81398
2009-02-03,7.9943
2009-02-04,8.22614
2009-02-05,8.53526
2009-02-06,8.81863
2009-02-09,9.11058
2009-02-10,7.62507
2009-02-11,8.18321
2009-02-12,8.08017
2009-02-13,7.9256
2009-02-17,7.58213
2009-02-18,7.45333
2009-02-19,7.23007
2009-02-20,7.41898
2009-02-23,7.43616
2009-02-24,8.08875
2009-02-25,7.91702
2009-02-26,8.16603
2009-02-27,7.87408
2009-03-02,7.52203
2009-03-03,7.53061
2009-03-04,7.62507
2009-03-05,6.89519
2009-03-06,6.79215
2009-03-09,6.99823
2009-03-10,8.00288
2009-03-11,8.29559
2009-03-12,8.76282
2009-03-13,8.58651
2009-03-16,8.63059
2009-03-17,9.29177
2009-03-18,9.69729
2009-03-19,9.38874
2009-03-20,8.6923
2009-03-23,9.82071
2009-03-24,9.22124
2009-03-25,9.424
2009-03-26,9.56505
2009-03-27,9.55624
2009-03-30,8.90387
2009-03-31,9.4769
2009-04-01,9.71492
2009-04-02,9.82071
2009-04-03,9.95294
2009-04-06,9.78545
2009-04-07,9.74137
2009-04-08,9.81189
2009-04-09,10.9844
2009-04-13,11.5662
2009-04-14,10.3232
2009-04-15,11.0461
2009-04-16,11.3017
2009-04-17,11.0373
2009-04-20,9.78545
2009-04-21,10.332
2009-04-22,9.9265
2009-04-23,10.4114
2009-04-24,10.3408
2009-04-27,9.96176
2009-04-28,9.81189
2009-04-29,10.2968
2009-04-30,10.1028
2009-05-01,9.97939
2009-05-04,10.9403
2009-05-05,10.8698
2009-05-06,12.0599
2009-05-07,10.8433
2009-05-08,10.9668
2009-05-11,9.8736
2009-05-12,9.83834
2009-05-13,9.9265
2009-05-14,10.0499
2009-05-15,9.9265
2009-05-18,10.4554
2009-05-19,9.89123
2009-05-20,9.40637
2009-05-21,9.68847
2009-05-22,9.88242
2009-05-26,10.3585
2009-05-27,10.1293
2009-05-28,10.4466
2009-05-29,10.6935
2009-06-01,11.0108
2009-06-02,10.7375
2009-06-03,10.8169
2009-06-04,11.5574
2009-06-05,11.2929
2009-06-08,11.3546
2009-06-09,11.6015
2009-06-10,11.9636
2009-06-11,11.874
2009-06-12,11.7039
2009-06-15,11.4084
2009-06-16,11.1756
2009-06-17,10.9427
2009-06-18,11.1935
2009-06-19,11.4621
2009-06-22,11.0233
2009-06-23,10.6651
2009-06-24,10.495
2009-06-25,10.7995
2009-06-26,10.6562
2009-06-29,10.898
2009-06-30,10.7457
2009-07-01,10.5577
2009-07-02,10.1458
2009-07-06,10.2711
2009-07-07,9.99353
2009-07-08,10.0652
2009-07-09,10.2084
2009-07-10,10.2353
2009-07-13,10.8621
2009-07-14,10.7636
2009-07-15,11.0412
2009-07-16,11.3188
2009-07-17,10.8353
2009-07-20,11.0233
2009-07-21,10.5129
2009-07-22,10.3069
2009-07-23,10.6204
2009-07-24,10.6562
2009-07-27,10.9875
2009-07-28,11.2114
2009-07-29,11.1129
2009-07-30,11.2024
2009-07-31,11.4621
2009-08-03,11.7576
2009-08-04,11.8651
2009-08-05,12.08
2009-08-06,11.9099
2009-08-07,12.3486
2009-08-10,12.2412
2009-08-11,11.8114
2009-08-12,11.9725
2009-08-13,12.1606
2009-08-14,12.089
2009-08-17,11.5875
2009-08-18,11.6054
2009-08-19,11.5964
2009-08-20,11.874
2009-08-21,12.1606
2009-08-24,11.9367
2009-08-25,12.2054
2009-08-26,12.1606
2009-08-27,12.1964
2009-08-28,12.0531
2009-08-31,11.9546
2009-09-01,11.3188
2009-09-02,11.0412
2009-09-03,11.3815
2009-09-04,11.4532
2009-09-08,11.6233
2009-09-09,12.0541
2009-09-10,11.8722
2009-09-11,11.8813
2009-09-14,11.8995
2009-09-15,12.4908
2009-09-16,13.4188
2009-09-17,12.8365
2009-09-18,12.6273
2009-09-21,12.3726
2009-09-22,12.6182
2009-09-23,12.5363
2009-09-24,12.1815
2009-09-25,12.136
2009-09-28,12.3271
2009-09-29,12.1633
2009-09-30,12.0359
2009-10-01,11.572
2009-10-02,11.3627
2009-10-05,11.6539
2009-10-06,11.672
2009-10-07,11.5902
2009-10-08,11.6266
2009-10-09,12.0541
2009-10-12,12.136
2009-10-13,12.0359
2009-10-14,12.4089
2009-10-15,12.2634
2009-10-16,12.2816
2009-10-19,12.2816
2009-10-20,11.9632
2009-10-21,11.5174
2009-10-22,11.854
2009-10-23,11.5993
2009-10-26,11.299
2009-10-27,11.2172
2009-10-28,10.9261
2009-10-29,11.0716
2009-10-30,10.7623
2009-11-02,10.7441
2009-11-03,10.8715
2009-11-04,10.9806
2009-11-05,11.2354
2009-11-06,11.1535
2009-11-09,11.5811
2009-11-10,11.29
2009-11-11,11.29
2009-11-12,11.1171
2009-11-13,11.1353
2009-11-16,11.1808
2009-11-17,11.2627
2009-11-18,11.5265
2009-11-19,11.6084
2009-11-20,11.945
2009-11-23,12.1997
2009-11-24,12.2907
2009-11-25,12.3089
2009-11-27,12.0268
2009-11-30,12.318
2009-12-01,12.4089
2009-12-02,12.6819
2009-12-03,12.5727
2009-12-04,12.8911
2009-12-07,12.7274
2009-12-08,12.8001
2009-12-09,12.853
2009-12-10,12.8068
2009-12-11,12.6406
2009-12-14,12.8437
2009-12-15,12.4836
2009-12-16,12.4744
2009-12-17,12.4282
2009-12-18,12.4005
2009-12-21,12.7514
2009-12-22,12.6868
2009-12-23,12.5206
2009-12-24,12.6406
2009-12-28,12.4467
2009-12-29,12.4005
2009-12-30,12.4652
2009-12-31,12.3913
2010-01-04,12.3728
2010-01-05,12.4098
2010-01-06,12.7976
2010-01-07,13.1207
2010-01-08,13.13
2010-01-11,13.0192
2010-01-12,12.7699
2010-01-13,12.8714
2010-01-14,12.9915
2010-01-15,12.5852
2010-01-19,12.3821
2010-01-20,12.4744
2010-01-21,12.5575
2010-01-22,12.3174
2010-01-25,12.2251
2010-01-26,11.865
2010-01-27,12.2159
2010-01-28,12.022
2010-01-29,11.9666
2010-02-01,11.7911
2010-02-02,11.7727
2010-02-03,11.6065
2010-02-04,11.4957
2010-02-05,11.6342
2010-02-08,11.6157
2010-02-09,11.8373
2010-02-10,12.1882
2010-02-11,11.8927
2010-02-12,12.0312
2010-02-16,12.0404
2010-02-17,12.0312
2010-02-18,11.9666
2010-02-19,11.9112
2010-02-22,12.0681
2010-02-23,11.7634
2010-02-24,11.8558
2010-02-25,11.7727
2010-02-26,11.8188
2010-03-01,11.7357
2010-03-02,11.8096
2010-03-03,11.9204
2010-03-04,12.2343
2010-03-05,12.4559
2010-03-08,12.5298
2010-03-09,12.2528
2010-03-10,12.4129
2010-03-11,12.7127
2010-03-12,12.5347
2010-03-15,12.3754
2010-03-16,12.5722
2010-03-17,13.0406
2010-03-18,13.3591
2010-03-19,13.5371
2010-03-22,13.2467
2010-03-23,13.2654
2010-03-24,13.2186
2010-03-25,12.9844
2010-03-26,13.1623
2010-03-29,13.1905
2010-03-30,13.0968
2010-03-31,13.1717
2010-04-01,13.3403
2010-04-05,13.5183
2010-04-06,13.7432
2010-04-07,13.7807
2010-04-08,13.9212
2010-04-09,14.0804
2010-04-12,14.0711
2010-04-13,13.9868
2010-04-14,14.5488
2010-04-15,14.3521
2010-04-16,13.1155
2010-04-19,13.1436
2010-04-20,13.4059
2010-04-21,13.5558
2010-04-22,13.7525
2010-04-23,13.8556
2010-04-26,13.3403
2010-04-27,12.9656
2010-04-28,13.1905
2010-04-29,13.6027
2010-04-30,13.2841
2010-05-03,13.3872
2010-05-04,13.0687
2010-05-05,13.0593
2010-05-06,12.6471
2010-05-07,12.5628
2010-05-10,12.9562
2010-05-11,13.1811
2010-05-12,13.3778
2010-05-13,13.1342
2010-05-14,12.7595
2010-05-17,12.8626
2010-05-18,12.5253
2010-05-19,12.2068
2010-05-20,11.7665
2010-05-21,12.1131
2010-05-24,11.6166
2010-05-25,11.7571
2010-05-26,11.5791
2010-05-27,11.982
2010-05-28,11.6728
2010-06-01,11.373
2010-06-02,11.7759
2010-06-03,11.626
2010-06-04,11.0545
2010-06-07,11.017
2010-06-08,11.0545
2010-06-09,10.7601
2010-06-10,11.1017
2010-06-11,11.263
2010-06-14,11.0827
2010-06-15,11.4148
2010-06-16,11.4053
2010-06-17,11.2725
2010-06-18,11.3768
2010-06-21,11.4148
2010-06-22,11.3674
2010-06-23,11.4148
2010-06-24,11.2914
2010-06-25,11.8133
2010-06-28,11.4717
2010-06-29,11.0922
2010-06-30,10.8834
2010-07-01,10.4565
2010-07-02,10.4185
2010-07-06,10.447
2010-07-07,10.9783
2010-07-08,11.1301
2010-07-09,11.4148
2010-07-12,11.5097
2010-07-13,11.8133
2010-07-14,11.6141
2010-07-15,11.4717
2010-07-16,11.1871
2010-07-19,10.8455
2010-07-20,10.798
2010-07-21,10.3521
2010-07-22,10.6747
2010-07-23,10.9024
2010-07-26,11.1586
2010-07-27,11.1586
2010-07-28,11.0732
2010-07-29,10.9214
2010-07-30,10.8645
2010-08-02,11.2155
2010-08-03,11.0447
2010-08-04,11.0068
2010-08-05,10.8455
2010-08-06,10.5513
2010-08-09,10.7126
2010-08-10,10.5324
2010-08-11,10.0105
2010-08-12,9.90611
2010-08-13,9.81122
2010-08-16,9.72583
2010-08-17,9.83969
2010-08-18,9.73532
2010-08-19,9.68787
2010-08-20,9.73532
2010-08-23,9.71634
2010-08-24,9.72583
2010-08-25,9.50759
2010-08-26,9.46015
2010-08-27,9.78276
2010-08-30,9.40321
2010-08-31,9.55503
2010-09-01,10.0484
2010-09-02,10.1623
2010-09-03,10.0674
2010-09-07,9.93458
2010-09-08,10.2056
2010-09-09,10.5529
2010-09-10,10.7265
2010-09-13,10.8905
2010-09-14,10.5625
2010-09-15,10.5625
2010-09-16,10.5529
2010-09-17,10.5818
2010-09-20,10.7265
2010-09-21,10.6493
2010-09-22,10.2731
2010-09-23,10.4371
2010-09-24,10.495
2010-09-27,10.5914
2010-09-28,10.7844
2010-09-29,10.8712
2010-09-30,11.0352
2010-10-01,11.0834
2010-10-04,10.9291
2010-10-05,11.0062
2010-10-06,11.1991
2010-10-07,11.2281
2010-10-08,11.1027
2010-10-11,11.286
2010-10-12,10.9869
2010-10-13,10.8808
2010-10-14,10.5143
2010-10-15,9.69435
2010-10-18,9.71364
2010-10-19,9.88727
2010-10-20,9.80046
2010-10-21,9.57859
2010-10-22,9.5593
2010-10-25,9.36638
2010-10-26,9.37603
2010-10-27,9.42426
2010-10-28,9.64612
2010-10-29,9.76187
2010-11-01,9.0577
2010-11-02,9.23133
2010-11-03,9.67506
2010-11-04,9.82939
2010-11-05,10.032
2010-11-08,10.167
2010-11-09,9.98373
2010-11-10,10.1959
2010-11-11,10.1091
2010-11-12,9.84869
2010-11-15,9.77152
2010-11-16,9.6847
2010-11-17,9.53036
2010-11-18,9.48213
2010-11-19,9.49178
2010-11-22,9.31815
2010-11-23,9.19275
2010-11-24,9.29886
2010-11-26,9.26027
2010-11-29,9.34709
2010-11-30,9.24098
2010-12-01,9.53036
2010-12-02,9.83904
2010-12-03,9.90656
2010-12-06,9.91621
2010-12-07,9.72329
2010-12-08,10.1055
2010-12-09,10.2037
2010-12-10,10.3412
2010-12-13,10.734
2010-12-14,10.2626
2010-12-15,10.4394
2010-12-16,10.4983
2010-12-17,10.7046
2010-12-20,11.009
2010-12-21,11.0679
2010-12-22,11.5786
2010-12-23,11.5001
2010-12-27,11.6375
2010-12-28,11.6866
2010-12-29,11.667
2010-12-30,11.6179
2010-12-31,11.5688
2011-01-03,11.9322
2011-01-04,11.775
2011-01-05,12.1286
2011-01-06,12.0598
2011-01-07,11.7554
2011-01-10,11.7849
2011-01-11,11.8929
2011-01-12,12.2071
2011-01-13,12.2366
2011-01-14,12.3053
2011-01-18,12.0304
2011-01-19,11.7849
2011-01-20,11.7947
2011-01-21,11.5786
2011-01-24,11.176
2011-01-25,11.176
2011-01-26,11.1072
2011-01-27,11.4117
2011-01-28,11.0581
2011-01-31,11.1269
2011-02-01,11.5197
2011-02-02,11.3331
2011-02-03,11.2251
2011-02-04,11.5688
2011-02-07,11.5884
2011-02-08,11.5884
2011-02-09,11.5099
2011-02-10,11.3036
2011-02-11,11.6375
2011-02-14,11.6179
2011-02-15,11.5393
2011-02-16,11.667
2011-02-17,11.6375
2011-02-18,11.5688
2011-02-22,11.2054
2011-02-23,11.0974
2011-02-24,11.0778
2011-02-25,11.3626
2011-02-28,11.2938
2011-03-01,11.2153
2011-03-02,11.176
2011-03-03,11.3429
2011-03-04,11.2349
2011-03-07,11.0876
2011-03-08,11.4018
2011-03-09,11.3134
2011-03-10,11.1266
2011-03-11,11.2544
2011-03-14,10.9694
2011-03-15,10.9694
2011-03-16,10.8416
2011-03-17,10.9202
2011-03-18,11.1856
2011-03-21,11.1561
2011-03-22,10.9988
2011-03-23,10.8809
2011-03-24,10.9694
2011-03-25,11.0873
2011-03-28,11.1561
2011-03-29,10.8612
2011-03-30,10.9595
2011-03-31,11.0087
2011-04-01,11.1856
2011-04-04,11.1758
2011-04-05,11.1365
2011-04-06,11.4018
2011-04-07,11.3527
2011-04-08,11.2544
2011-04-11,11.2839
2011-04-12,11.1856
2011-04-13,10.8416
2011-04-14,10.7138
2011-04-15,10.6843
2011-04-18,10.6253
2011-04-19,10.6155
2011-04-20,10.5565
2011-04-21,10.1929
2011-04-25,10.4091
2011-04-26,10.6253
2011-04-27,10.6155
2011-04-28,10.645
2011-04-29,10.7728
2011-05-02,10.6843
2011-05-03,10.9988
2011-05-04,11.0185
2011-05-05,10.7433
2011-05-06,10.8023
2011-05-09,10.3305
2011-05-10,10.5467
2011-05-11,10.4189
2011-05-12,10.2518
2011-05-13,10.0847
2011-05-16,10.1142
2011-05-17,10.3894
2011-05-18,10.3305
2011-05-19,10.3305
2011-05-20,10.1044
2011-05-23,10.0946
2011-05-24,10.1634
2011-05-25,10.0847
2011-05-26,10.242
2011-05-27,10.2813
2011-05-31,10.3305
2011-06-01,9.88815
2011-06-02,9.86849
2011-06-03,9.89797
2011-06-06,9.6719
2011-06-07,9.64242
2011-06-08,9.53418
2011-06-09,9.49482
2011-06-10,9.44563
2011-06-13,9.73097
2011-06-14,9.79984
2011-06-15,9.71129
2011-06-16,9.68177
2011-06-17,10.0557
2011-06-20,9.91791
2011-06-21,9.90807
2011-06-22,9.85888
2011-06-23,9.66209
2011-06-24,9.44563
2011-06-27,9.37675
2011-06-28,9.24884
2011-06-29,9.37675
2011-06-30,9.37675
2011-07-01,9.52434
2011-07-05,9.2882
2011-07-06,9.20949
2011-07-07,9.42595
2011-07-08,9.26852
2011-07-11,9.17997
2011-07-12,9.35708
2011-07-13,9.55386
2011-07-14,9.32756
2011-07-15,9.45547
2011-07-18,9.21933
2011-07-19,9.24884
2011-07-20,9.23901
2011-07-21,9.49482
2011-07-22,9.35708
2011-07-25,9.23901
2011-07-26,9.20949
2011-07-27,8.93399
2011-07-28,8.82576
2011-07-29,8.85528
2011-08-01,8.73721
2011-08-02,8.5601
2011-08-03,8.64865
2011-08-04,8.30428
2011-08-05,7.95007
2011-08-08,7.1531
2011-08-09,7.41875
2011-08-10,6.6513
2011-08-11,6.88744
2011-08-12,6.73985
2011-08-15,7.0547
2011-08-16,6.8776
2011-08-17,6.89728
2011-08-18,6.45451
2011-08-19,6.30692
2011-08-22,6.23805
2011-08-23,6.46435
2011-08-24,6.67098
2011-08-25,6.55291
2011-08-26,6.69065
2011-08-29,7.16294
2011-08-30,6.8776
2011-08-31,6.90712
2011-09-01,6.6513
2011-09-02,6.21837
2011-09-06,6.1495
2011-09-07,6.61194
2011-09-08,6.29709
2011-09-09,6.12982
2011-09-12,6.08062
2011-09-13,6.15934
2011-09-14,6.36633
2011-09-15,6.69154
2011-09-16,6.65212
2011-09-19,6.47473
2011-09-20,6.46488
2011-09-21,6.10024
2011-09-22,6.01155
2011-09-23,5.98198
2011-09-26,6.43531
2011-09-27,6.2185
2011-09-28,5.89329
2011-09-29,6.22836
2011-09-30,5.87358
2011-10-03,5.55822
2011-10-04,5.87358
2011-10-05,6.00169
2011-10-06,6.20865
2011-10-07,6.00169
2011-10-10,6.25792
2011-10-11,6.39589
2011-10-12,6.58314
2011-10-13,6.44517
2011-10-14,6.47473
2011-10-17,6.14952
2011-10-18,6.56343
2011-10-19,6.45502
2011-10-20,6.7014
2011-10-21,6.8098
2011-10-24,7.02661
2011-10-25,6.62256
2011-10-26,6.79995
2011-10-27,7.18429
2011-10-28,7.17444
2011-10-31,6.90835
2011-11-01,6.42546
2011-11-02,6.73096
2011-11-03,7.08574
2011-11-04,6.96748
2011-11-07,7.14487
2011-11-08,7.37154
2011-11-09,6.86893
2011-11-10,7.04632
2011-11-11,7.28284
2011-11-14,7.03647
2011-11-15,7.06603
2011-11-16,6.95763
2011-11-17,7.08574
2011-11-18,7.18429
2011-11-21,7.05618
2011-11-22,6.75067
2011-11-23,6.58314
2011-11-25,6.69154
2011-11-28,6.84922
2011-11-29,7.12516
2011-11-30,7.58835
2011-12-01,7.44052
2011-12-02,7.47994
2011-12-05,7.63762
2011-12-06,7.32226
2011-12-07,7.58835
2011-12-08,7.41096
2011-12-09,7.74603
2011-12-12,7.4898
2011-12-13,7.34197
2011-12-14,7.33209
2011-12-15,7.30249
2011-12-16,7.33209
2011-12-19,7.1446
2011-12-20,7.6084
2011-12-21,7.69722
2011-12-22,8.14129
2011-12-23,8.04261
2011-12-27,7.89458
2011-12-28,7.70709
2011-12-29,7.93406
2011-12-30,7.88471
2012-01-03,8.12155
2012-01-04,8.2005
2012-01-05,8.33865
2012-01-06,8.39786
2012-01-09,8.49654
2012-01-10,8.61496
2012-01-11,8.65444
2012-01-12,8.62483
2012-01-13,8.56562
2012-01-17,8.51628
2012-01-18,8.77285
2012-01-19,8.61496
2012-01-20,8.89127
2012-01-23,9.13798
2012-01-24,8.87154
2012-01-25,8.99982
2012-01-26,8.59523
2012-01-27,8.68404
2012-01-30,8.59523
2012-01-31,8.62483
2012-02-01,8.76299
2012-02-02,8.90114
2012-02-03,9.30574
2012-02-06,9.11824
2012-02-07,9.08864
2012-02-08,9.33534
2012-02-09,9.33534
2012-02-10,9.17745
2012-02-13,9.37482
2012-02-14,9.33534
2012-02-15,9.31561
2012-02-16,9.44389
2012-02-17,9.46363
2012-02-21,9.5031
2012-02-22,9.286
2012-02-23,9.33534
2012-02-24,9.26627
2012-02-27,9.31561
2012-02-28,9.31561
2012-02-29,9.286
2012-03-01,9.41429
2012-03-02,9.35508
2012-03-05,9.286
2012-03-06,9.10837
2012-03-07,9.30574
2012-03-08,9.54258
2012-03-09,9.96691
2012-03-12,9.86823
2012-03-13,10.2432
2012-03-14,10.3914
2012-03-15,10.5494
2012-03-16,10.5889
2012-03-19,10.6679
2012-03-20,10.6482
2012-03-21,10.7568
2012-03-22,10.2728
2012-03-23,10.3815
2012-03-26,10.5593
2012-03-27,10.342
2012-03-28,10.421
2012-03-29,10.3519
2012-03-30,10.2728
2012-04-02,10.3124
2012-04-03,10.4605
2012-04-04,10.2531
2012-04-05,10.0555
2012-04-09,9.7592
2012-04-10,9.5814
2012-04-11,9.8481
2012-04-12,10.0852
2012-04-13,9.64067
2012-04-16,9.71969
2012-04-17,10.016
2012-04-18,9.83822
2012-04-19,9.07763
2012-04-20,8.96898
2012-04-23,8.84057
2012-04-24,8.96898
2012-04-25,9.03812
2012-04-26,9.09739
2012-04-27,9.12702
2012-04-30,9.07763
2012-05-01,9.17641
2012-05-02,9.15666
2012-05-03,9.16653
2012-05-04,9.048
2012-05-07,9.09739
2012-05-08,9.08751
2012-05-09,8.84057
2012-05-10,8.9591
2012-05-11,8.97886
2012-05-14,8.8702
2012-05-15,8.64301
2012-05-16,8.48497
2012-05-17,8.4257
2012-05-18,8.3368
2012-05-21,8.4257
2012-05-22,8.6035
2012-05-23,8.5146
2012-05-24,8.55412
2012-05-25,8.6035
2012-05-29,8.70228
2012-05-30,8.37632
2012-05-31,8.37632
2012-06-01,7.9417
2012-06-04,7.53671
2012-06-05,7.46756
2012-06-06,7.7639
2012-06-07,7.88243
2012-06-08,7.86267
2012-06-11,7.54659
2012-06-12,7.63549
2012-06-13,7.69482
2012-06-14,7.86296
2012-06-15,7.98164
2012-06-18,8.03109
2012-06-19,8.32781
2012-06-20,8.32781
2012-06-21,7.96186
2012-06-22,8.04098
2012-06-25,7.80361
2012-06-26,8.13
2012-06-27,8.23879
2012-06-28,8.21901
2012-06-29,8.55529
2012-07-02,8.62453
2012-07-03,8.64431
2012-07-05,8.40693
2012-07-06,8.4366
2012-07-09,8.25858
2012-07-10,8.16956
2012-07-11,8.4465
2012-07-12,8.50584
2012-07-13,8.72343
2012-07-16,8.58496
2012-07-17,8.79266
2012-07-18,8.77288
2012-07-19,8.4465
2012-07-20,8.01131
2012-07-23,7.83328
2012-07-24,7.91241
2012-07-25,7.87285
2012-07-26,7.9223
2012-07-27,8.14978
2012-07-30,8.08055
2012-07-31,8.14978
2012-08-01,8.13
2012-08-02,7.98164
2012-08-03,8.20912
2012-08-06,8.13989
2012-08-07,8.32781
2012-08-08,8.37726
2012-08-09,8.23879
2012-08-10,8.24869
2012-08-13,8.3377
2012-08-14,8.39704
2012-08-15,8.4465
2012-08-16,8.5454
2012-08-17,8.5454
2012-08-20,8.53551
2012-08-21,8.48606
2012-08-22,8.42671
2012-08-23,8.20912
2012-08-24,8.29814
2012-08-27,8.50584
2012-08-28,8.56518
2012-08-29,8.8619
2012-08-30,8.88168
2012-08-31,8.87179
2012-09-04,8.90146
2012-09-05,8.91135
2012-09-06,9.21795
2012-09-07,9.26741
2012-09-10,9.29708
2012-09-11,9.46522
2012-09-12,9.70284
2012-09-13,9.91076
2012-09-14,10.1187
2012-09-17,9.93056
2012-09-18,9.94046
2012-09-19,10.0098
2012-09-20,9.82165
2012-09-21,9.75234
2012-09-24,9.77214
2012-09-25,9.56423
2012-09-26,9.45532
2012-09-27,9.65333
2012-09-28,9.53452
2012-10-01,9.63353
2012-10-02,9.62363
2012-10-03,9.62363
2012-10-04,9.81175
2012-10-05,9.81175
2012-10-08,9.76224
2012-10-09,9.60383
2012-10-10,9.60383
2012-10-11,9.87115
2012-10-12,9.44542
2012-10-15,9.50482
2012-10-16,9.287
2012-10-17,9.55433
2012-10-18,9.53452
2012-10-19,9.2375
2012-10-22,9.32661
2012-10-23,9.2078
2012-10-24,9.16819
2012-10-25,9.2375
2012-10-26,9.10879
2012-10-31,9.2276
2012-11-01,9.3068
2012-11-02,9.2078
2012-11-05,9.14839
2012-11-06,9.45532
2012-11-07,9.06918
2012-11-08,8.92067
2012-11-09,8.93057
2012-11-12,9.17809
2012-11-13,9.06918
2012-11-14,9.04938
2012-11-15,9.06918
2012-11-16,9.2177
2012-11-19,9.49492
2012-11-20,9.58403
2012-11-21,9.49492
2012-11-23,9.75234
2012-11-26,9.56423
2012-11-27,9.48502
2012-11-28,9.49492
2012-11-29,9.46522
2012-11-30,9.37611
2012-12-03,9.36621
2012-12-04,9.2672
2012-12-05,9.2771
2012-12-06,9.2771
2012-12-07,9.3068
2012-12-10,9.2771
2012-12-11,9.35631
2012-12-12,9.4356
2012-12-13,9.42569
2012-12-14,9.32657
2012-12-17,9.69329
2012-12-18,10.0204
2012-12-19,10.0005
2012-12-20,10.0699
2012-12-21,9.93117
2012-12-24,9.88161
2012-12-26,9.85187
2012-12-27,9.74285
2012-12-28,9.69329
2012-12-31,9.81223
2013-01-02,9.9807
2013-01-03,9.96089
2013-01-04,10.3475
2013-01-07,10.3277
2013-01-08,10.2979
2013-01-09,9.96089
2013-01-10,10.0105
2013-01-11,9.88161
2013-01-14,9.86178
2013-01-15,9.9807
2013-01-16,10.0501
2013-01-17,10.1789
2013-01-18,9.86178
2013-01-22,9.9807
2013-01-23,9.93117
2013-01-24,10.0501
2013-01-25,10.0203
2013-01-28,10.0798
2013-01-29,10.0947
2013-01-30,10.1294
2013-01-31,10.1294
2013-02-01,10.2682
2013-02-04,10.1889
2013-02-05,10.4366
2013-02-06,10.625
2013-02-07,10.511
2013-02-08,10.5209
2013-02-11,10.5952
2013-02-12,10.7241
2013-02-13,10.6943
2013-02-14,10.7042
2013-02-15,10.506
2013-02-19,10.5457
2013-02-20,10.5556
2013-02-21,10.3375
2013-02-22,10.4565
2013-02-25,10.2434
2013-02-26,10.2235
2013-02-27,10.4267
2013-02-28,10.5457
2013-03-01,10.5457
2013-03-04,10.6745
2013-03-05,10.7241
2013-03-06,10.7538
2013-03-07,11.1404
2013-03-08,11.0313
2013-03-11,11.1602
2013-03-12,11.061
2013-03-13,11.1108
2013-03-14,11.1705
2013-03-15,11.1307
2013-03-18,10.9515
2013-03-19,11.0411
2013-03-20,11.061
2013-03-21,10.9117
2013-03-22,10.8719
2013-03-25,10.832
2013-03-26,10.9017
2013-03-27,10.7325
2013-03-28,10.6528
2013-04-01,10.4736
2013-04-02,10.384
2013-04-03,10.2048
2013-04-04,10.1849
2013-04-05,10.2645
2013-04-08,10.3342
2013-04-09,10.3342
2013-04-10,10.4338
2013-04-11,10.3442
2013-04-12,10.1948
2013-04-15,9.936
2013-04-16,10.0156
2013-04-17,9.80657
2013-04-18,9.67714
2013-04-19,9.8663
2013-04-22,9.88622
2013-04-23,10.1351
2013-04-24,10.3044
2013-04-25,10.4338
2013-04-26,10.4238
2013-04-29,10.4935
2013-04-30,10.3541
2013-05-01,10.165
2013-05-02,10.2446
2013-05-03,10.4537
2013-05-06,10.6628
2013-05-07,10.8519
2013-05-08,10.8818
2013-05-09,10.7524
2013-05-10,10.8519
2013-05-13,10.9515
2013-05-14,11.2004
2013-05-15,11.2502
2013-05-16,11.1805
2013-05-17,11.3
2013-05-20,11.3896
2013-05-21,11.3398
2013-05-22,11.0909
2013-05-23,11.0411
2013-05-24,11.0809
2013-05-28,11.4792
2013-05-29,11.4593
2013-05-30,11.6185
2013-05-31,11.4493
2013-06-03,11.4095
2013-06-04,11.3298
2013-06-05,11.2104
2013-06-06,11.2303
2013-06-07,11.29
2013-06-10,11.4692
2013-06-11,11.29
2013-06-12,11.12
2013-06-13,11.21
2013-06-14,10.96
2013-06-17,10.93
2013-06-18,10.96
2013-06-19,10.79
2013-06-20,10.71
2013-06-21,10.67
2013-06-24,10.73
2013-06-25,11.05
2013-06-26,11.14
2013-06-27,11.34
2013-06-28,11.19
2013-07-01,11.24
2013-07-02,11.7
2013-07-03,11.84
2013-07-05,12.33
2013-07-08,12.27
2013-07-09,12.28
2013-07-10,12.09
2013-07-11,11.87
2013-07-12,12.13
2013-07-15,12.29
2013-07-16,11.98
2013-07-17,11.98
2013-07-18,12.11
2013-07-19,12.13
2013-07-22,12.3
2013-07-23,12.37
2013-07-24,12.54
2013-07-25,12.45
2013-07-26,12.33
2013-07-29,12.3
2013-07-30,12.48
2013-07-31,12.33
2013-08-01,12.56
2013-08-02,12.52
2013-08-05,12.51
2013-08-06,12.29
2013-08-07,12.2
2013-08-08,12.14
2013-08-09,12.02
