date,close_price
1998-01-02,1.19531
1998-01-05,1.215
1998-01-06,1.22281
1998-01-07,1.215
1998-01-08,1.23438
1998-01-09,1.19938
1998-01-12,1.14062
1998-01-13,1.20125
1998-01-14,1.17781
1998-01-15,1.19938
1998-01-16,1.21875
1998-01-20,1.24812
1998-01-21,1.1875
1998-01-22,1.19531
1998-01-23,1.20125
1998-01-26,1.19531
1998-01-27,1.22281
1998-01-28,1.30875
1998-01-29,1.3125
1998-01-30,1.28125
1998-02-02,1.21094
1998-02-03,1.23438
1998-02-04,1.23438
1998-02-05,1.15813
1998-02-06,1.23844
1998-02-09,1.1875
1998-02-10,1.15625
1998-02-11,1.16406
1998-02-12,1.16813
1998-02-13,1.15031
1998-02-17,1.13688
1998-02-18,1.12125
1998-02-19,1.125
1998-02-20,1.14844
1998-02-23,1.16594
1998-02-24,1.125
1998-02-25,1.16031
1998-02-26,1.12906
1998-02-27,1.11531
1998-03-02,1.11719
1998-03-03,1.125
1998-03-04,1.125
1998-03-05,1.13281
1998-03-06,1.16031
1998-03-09,1.18156
1998-03-10,1.18375
1998-03-11,1.19938
1998-03-12,1.22656
1998-03-13,1.21094
1998-03-16,1.19938
1998-03-17,1.24219
1998-03-18,1.24219
1998-03-19,1.24219
1998-03-20,1.23438
1998-03-23,1.23625
1998-03-24,1.23844
1998-03-25,1.23438
1998-03-26,1.24219
1998-03-27,1.23625
1998-03-30,1.215
1998-03-31,1.12125
1998-04-01,1.07438
1998-04-02,1.11906
1998-04-03,1.13469
1998-04-06,1.35938
1998-04-07,1.34375
1998-04-08,1.33219
1998-04-09,1.3125
1998-04-13,1.3125
1998-04-14,1.34
1998-04-15,1.32812
1998-04-16,1.3125
1998-04-17,1.30094
1998-04-20,1.31656
1998-04-21,1.29188
1998-04-22,1.29313
1998-04-23,1.28531
1998-04-24,1.23063
1998-04-27,1.17969
1998-04-28,1.19531
1998-04-29,1.21875
1998-04-30,1.19531
1998-05-01,1.1875
1998-05-04,1.20719
1998-05-05,1.1875
1998-05-06,1.16813
1998-05-07,1.17188
1998-05-08,1.17969
1998-05-11,1.11906
1998-05-12,1.12906
1998-05-13,1.12906
1998-05-14,1.10938
1998-05-15,1.16406
1998-05-18,1.12688
1998-05-19,1.13688
1998-05-20,1.12312
1998-05-21,1.125
1998-05-22,1.09563
1998-05-26,1.06656
1998-05-27,1.05094
1998-05-28,1.08594
1998-05-29,1.01562
1998-06-01,1.01188
1998-06-02,1.04313
1998-06-03,1.0275
1998-06-04,1.04313
1998-06-05,1.03719
1998-06-08,1.05875
1998-06-09,1.05281
1998-06-10,1.02344
1998-06-11,1.00781
1998-06-12,0.992188
1998-06-15,1.00406
1998-06-16,1.08219
1998-06-17,1.03531
1998-06-18,1.0625
1998-06-19,1.06844
1998-06-22,1.08
1998-06-23,1.07812
1998-06-24,1.07812
1998-06-25,1.05469
1998-06-26,1.08219
1998-06-29,1.09375
1998-06-30,1.0
1998-07-01,0.955
1998-07-02,0.785312
1998-07-06,0.783125
1998-07-07,0.751875
1998-07-08,0.793125
1998-07-09,0.780625
1998-07-10,0.751875
1998-07-13,0.734375
1998-07-14,0.754062
1998-07-15,0.75
1998-07-16,0.742188
1998-07-17,0.720625
1998-07-20,0.744062
1998-07-21,0.715
1998-07-22,0.71875
1998-07-23,0.719688
1998-07-24,0.71875
1998-07-27,0.703125
1998-07-28,0.675937
1998-07-29,0.689375
1998-07-30,0.726562
1998-07-31,0.734375
1998-08-03,0.738437
1998-08-04,0.699375
1998-08-05,0.71875
1998-08-06,0.740313
1998-08-07,0.761875
1998-08-10,0.773438
1998-08-11,0.730625
1998-08-12,0.75
1998-08-13,0.742188
1998-08-14,0.726562
1998-08-17,0.722812
1998-08-18,0.712812
1998-08-19,0.710938
1998-08-20,0.689375
1998-08-21,0.703125
1998-08-24,0.675937
1998-08-25,0.6525
1998-08-26,0.640625
1998-08-27,0.605625
1998-08-28,0.585938
1998-08-31,0.570312
1998-09-01,0.62125
1998-09-02,0.619062
1998-09-03,0.572187
1998-09-04,0.582187
1998-09-08,0.647812
1998-09-09,0.65625
1998-09-10,0.632812
1998-09-11,0.738437
1998-09-14,0.75
1998-09-15,0.785312
1998-09-16,0.773438
1998-09-17,0.78125
1998-09-18,0.757812
1998-09-21,0.779375
1998-09-22,0.828125
1998-09-23,0.867188
1998-09-24,0.796875
1998-09-25,0.800937
1998-09-28,0.7675
1998-09-29,0.71875
1998-09-30,0.675937
1998-10-01,0.6425
1998-10-02,0.640625
1998-10-05,0.629062
1998-10-06,0.646563
1998-10-07,0.62125
1998-10-08,0.585938
1998-10-09,0.640625
1998-10-12,0.65625
1998-10-13,0.65625
1998-10-14,0.685625
1998-10-15,0.774375
1998-10-16,0.7775
1998-10-19,0.816562
1998-10-20,0.894687
1998-10-21,0.851562
1998-10-22,0.898438
1998-10-23,0.882812
1998-10-26,0.925937
1998-10-27,0.855625
1998-10-28,0.828125
1998-10-29,0.87125
1998-10-30,0.88875
1998-11-02,1.0
1998-11-03,0.99625
1998-11-04,0.972812
1998-11-05,0.96875
1998-11-06,0.990313
1998-11-09,0.965
1998-11-10,0.929688
1998-11-11,0.92375
1998-11-12,0.898438
1998-11-13,0.898438
1998-11-16,0.929688
1998-11-17,0.921875
1998-11-18,0.957187
1998-11-19,0.998125
1998-11-20,0.98625
1998-11-23,0.998125
1998-11-24,0.984375
1998-11-25,1.0
1998-11-27,0.99625
1998-11-30,0.974688
1998-12-01,0.992188
1998-12-02,1.04875
1998-12-03,1.01969
1998-12-04,1.00188
1998-12-07,1.00594
1998-12-08,0.992188
1998-12-09,1.04313
1998-12-10,1.02531
1998-12-11,1.02937
1998-12-14,1.0
1998-12-15,0.99625
1998-12-16,1.14844
1998-12-17,1.10563
1998-12-18,1.10938
1998-12-21,1.12688
1998-12-22,1.12125
1998-12-23,1.14844
1998-12-24,1.16406
1998-12-28,1.20906
1998-12-29,1.23625
1998-12-30,1.21875
1998-12-31,1.28313
1999-01-04,1.24219
1999-01-05,1.20906
1999-01-06,1.20906
1999-01-07,1.21094
1999-01-08,1.29313
1999-01-11,1.25188
1999-01-12,1.25406
1999-01-13,1.21094
1999-01-14,1.205
1999-01-15,1.29688
1999-01-19,1.27937
1999-01-20,1.24625
1999-01-21,1.17969
1999-01-22,1.17188
1999-01-25,1.125
1999-01-26,1.27344
1999-01-27,1.25
1999-01-28,1.30875
1999-01-29,1.34781
1999-02-01,1.36344
1999-02-02,1.35563
1999-02-03,1.35563
1999-02-04,1.35563
1999-02-05,1.30875
1999-02-08,1.31438
1999-02-09,1.21875
1999-02-10,1.25
1999-02-11,1.29875
1999-02-12,1.2325
1999-02-16,1.27937
1999-02-17,1.1875
1999-02-18,1.21187
1999-02-19,1.15625
1999-02-22,1.18562
1999-02-23,1.32031
1999-02-24,1.30875
1999-02-25,1.32812
1999-02-26,1.29688
1999-03-01,1.27344
1999-03-02,1.26188
1999-03-03,1.30875
1999-03-04,1.51375
1999-03-05,1.59563
1999-03-08,1.55875
1999-03-09,1.53719
1999-03-10,1.61125
1999-03-11,1.59375
1999-03-12,1.55094
1999-03-15,1.52531
1999-03-16,1.56656
1999-03-17,1.62125
1999-03-18,1.74812
1999-03-19,1.77156
1999-03-22,1.50188
1999-03-23,1.42375
1999-03-24,1.45312
1999-03-25,1.47281
1999-03-26,1.44531
1999-03-29,1.39844
1999-03-30,1.4025
1999-03-31,1.42188
1999-04-01,1.40437
1999-04-05,1.38688
1999-04-06,1.34187
1999-04-07,1.34781
1999-04-08,1.34375
1999-04-09,1.34563
1999-04-12,1.33219
1999-04-13,1.33781
1999-04-14,1.31656
1999-04-15,1.29688
1999-04-16,1.27344
1999-04-19,1.125
1999-04-20,1.29688
1999-04-21,1.30281
1999-04-22,1.33
1999-04-23,1.2675
1999-04-26,1.27344
1999-04-27,1.38688
1999-04-28,1.36719
1999-04-29,1.35156
1999-04-30,1.43938
1999-05-03,1.4025
1999-05-04,1.38281
1999-05-05,1.4025
1999-05-06,1.41219
1999-05-07,1.41406
1999-05-10,1.38875
1999-05-11,1.49219
1999-05-12,1.47281
1999-05-13,1.46094
1999-05-14,1.44156
1999-05-17,1.45312
1999-05-18,1.44531
1999-05-19,1.49219
1999-05-20,1.50406
1999-05-21,1.42594
1999-05-24,1.36719
1999-05-25,1.35938
1999-05-26,1.33781
1999-05-27,1.30656
1999-05-28,1.36125
1999-06-01,1.35938
1999-06-02,1.31656
1999-06-03,1.30281
1999-06-04,1.32438
1999-06-07,1.38094
1999-06-08,1.41219
1999-06-09,1.36719
1999-06-10,1.34969
1999-06-11,1.34
1999-06-14,1.39844
1999-06-15,1.46094
1999-06-16,1.53531
1999-06-17,1.56062
1999-06-18,1.59187
1999-06-21,1.56656
1999-06-22,1.56656
1999-06-23,1.5625
1999-06-24,1.52937
1999-06-25,1.5275
1999-06-28,1.50969
1999-06-29,1.54313
1999-06-30,1.63469
1999-07-01,1.61531
1999-07-02,1.68156
1999-07-06,1.6875
1999-07-07,1.67
1999-07-08,1.68562
1999-07-09,1.70312
1999-07-12,1.67969
1999-07-13,1.7775
1999-07-14,1.81062
1999-07-15,1.88875
1999-07-16,1.89469
1999-07-19,1.80094
1999-07-20,1.81656
1999-07-21,1.81656
1999-07-22,1.76562
1999-07-23,1.73844
1999-07-26,1.67969
1999-07-27,1.82031
1999-07-28,1.99625
1999-07-29,2.13875
1999-07-30,2.41031
1999-08-02,2.34969
1999-08-03,2.27344
1999-08-04,2.31156
1999-08-05,2.2325
1999-08-06,2.23062
1999-08-09,2.14844
1999-08-10,2.14469
1999-08-11,2.25
1999-08-12,2.26562
1999-08-13,2.39656
1999-08-16,2.53531
1999-08-17,2.40812
1999-08-18,2.39844
1999-08-19,2.47281
1999-08-20,2.54688
1999-08-23,2.60562
1999-08-24,2.58594
1999-08-25,2.57031
1999-08-26,2.55281
1999-08-27,2.52531
1999-08-30,2.51562
1999-08-31,2.4375
1999-09-01,2.45906
1999-09-02,2.43156
1999-09-03,2.6075
1999-09-07,2.88469
1999-09-08,2.77344
1999-09-09,2.67188
1999-09-10,2.625
1999-09-13,2.75
1999-09-14,2.80469
1999-09-15,2.5
1999-09-16,2.44531
1999-09-17,2.48438
1999-09-20,2.42969
1999-09-21,2.3575
1999-09-22,2.49219
1999-09-23,2.39844
1999-09-24,2.41219
1999-09-27,2.17188
1999-09-28,2.17188
1999-09-29,2.13281
1999-09-30,2.00594
1999-10-01,2.045
1999-10-04,2.02156
1999-10-05,2.03125
1999-10-06,2.08406
1999-10-07,2.30469
1999-10-08,2.25
1999-10-11,2.28531
1999-10-12,2.18375
1999-10-13,2.20125
1999-10-14,2.19156
1999-10-15,2.05094
1999-10-18,2.02156
1999-10-19,2.13281
1999-10-20,2.08406
1999-10-21,2.05875
1999-10-22,2.16594
1999-10-25,2.13281
1999-10-26,2.0175
1999-10-27,2.04312
1999-10-28,1.99219
1999-10-29,1.97656
1999-11-02,1.53531
1999-11-03,1.55875
1999-11-04,1.46875
1999-11-05,1.45906
1999-11-08,1.50188
1999-11-09,1.45906
1999-11-10,1.45312
1999-11-11,1.48063
1999-11-12,1.46281
1999-11-15,1.47281
1999-11-16,1.47844
1999-11-17,1.61344
1999-11-18,1.47063
1999-11-19,1.44531
1999-11-22,1.43375
1999-11-23,1.39062
1999-11-24,1.51188
1999-11-26,1.53719
1999-11-29,1.53906
1999-11-30,1.5
1999-12-01,1.44156
1999-12-02,1.41406
1999-12-03,1.42375
1999-12-06,1.3925
1999-12-07,1.37906
1999-12-08,1.34375
1999-12-09,1.27937
1999-12-10,1.21875
1999-12-13,1.25
1999-12-14,1.21094
1999-12-15,1.24219
1999-12-16,1.22063
1999-12-17,1.18938
1999-12-20,1.16406
1999-12-21,1.26969
1999-12-22,1.40625
1999-12-23,1.44938
1999-12-27,1.49031
1999-12-28,1.63281
1999-12-29,1.69938
1999-12-30,1.70125
1999-12-31,1.68938
2000-01-03,1.75969
2000-01-04,1.67594
2000-01-05,1.66406
2000-01-06,1.78125
2000-01-07,2.05094
2000-01-10,2.32031
2000-01-11,2.10156
2000-01-12,2.09
2000-01-13,2.20719
2000-01-14,2.15031
2000-01-18,2.13687
2000-01-19,1.96281
2000-01-20,1.94531
2000-01-21,1.96687
2000-01-24,1.74406
2000-01-25,1.76969
2000-01-26,1.68938
2000-01-27,1.55094
2000-01-28,1.51969
2000-01-31,1.46281
2000-02-01,1.44531
2000-02-02,1.4375
2000-02-03,1.40813
2000-02-04,1.46094
2000-02-07,1.69719
2000-02-08,1.85344
2000-02-09,1.71875
2000-02-10,1.72656
2000-02-11,1.75
2000-02-14,1.87312
2000-02-15,1.98844
2000-02-16,1.99812
2000-02-17,2.3125
2000-02-18,2.41031
2000-02-22,2.34375
2000-02-23,2.36906
2000-02-24,2.29312
2000-02-25,2.26562
2000-02-28,2.21875
2000-02-29,2.39062
2000-03-01,2.49813
2000-03-02,2.44156
2000-03-03,2.49406
2000-03-06,2.56063
2000-03-07,2.37906
2000-03-08,2.30875
2000-03-09,2.25281
2000-03-10,2.23844
2000-03-13,2.125
2000-03-14,2.12313
2000-03-15,2.0
2000-03-16,2.06063
2000-03-17,1.99031
2000-03-20,1.79313
2000-03-21,1.80906
2000-03-22,2.00094
2000-03-23,2.17594
2000-03-24,2.20906
2000-03-27,2.18563
2000-03-28,2.20125
2000-03-29,2.07625
2000-03-30,1.84781
2000-03-31,1.9825
2000-04-03,1.88469
2000-04-04,1.85156
2000-04-05,1.94375
2000-04-06,2.05875
2000-04-07,1.9825
2000-04-10,1.93375
2000-04-11,1.965
2000-04-12,1.80094
2000-04-13,1.9025
2000-04-14,1.72469
2000-04-17,1.58781
2000-04-18,1.70906
2000-04-19,1.62906
2000-04-20,1.60156
2000-04-24,1.54313
2000-04-25,1.49812
2000-04-26,1.43938
2000-04-27,1.35563
2000-04-28,1.67969
2000-05-01,1.73969
2000-05-02,1.79
2000-05-03,1.67781
2000-05-04,1.97281
2000-05-05,2.15438
2000-05-08,2.10562
2000-05-09,2.03531
2000-05-10,1.94094
2000-05-11,1.93938
2000-05-12,1.94156
2000-05-15,2.01375
2000-05-16,2.13094
2000-05-17,2.05094
2000-05-18,1.96094
2000-05-19,1.875
2000-05-22,1.86906
2000-05-23,1.88875
2000-05-24,2.03125
2000-05-25,1.93375
2000-05-26,1.66031
2000-05-30,1.73625
2000-05-31,1.70719
2000-06-01,1.76562
2000-06-02,1.95125
2000-06-05,1.875
2000-06-06,1.94156
2000-06-07,2.0625
2000-06-08,1.88688
2000-06-09,2.07625
2000-06-12,1.875
2000-06-13,1.97063
2000-06-14,1.95906
2000-06-15,2.01031
2000-06-16,2.05469
2000-06-19,2.18937
2000-06-20,2.34
2000-06-21,2.25406
2000-06-22,1.98625
2000-06-23,2.16406
2000-06-26,2.125
2000-06-27,2.10562
2000-06-28,2.25406
2000-06-29,2.205
2000-06-30,2.21875
2000-07-03,2.18375
2000-07-05,2.21688
2000-07-06,2.28531
2000-07-07,2.51187
2000-07-10,2.47469
2000-07-11,2.59375
2000-07-12,2.79312
2000-07-13,2.5625
2000-07-14,2.5175
2000-07-17,2.59
2000-07-18,2.50406
2000-07-19,2.34375
2000-07-20,2.27344
2000-07-21,2.34562
2000-07-24,2.18156
2000-07-25,2.14656
2000-07-26,2.17594
2000-07-27,2.10562
2000-07-28,2.19156
2000-07-31,2.32031
2000-08-01,2.715
2000-08-02,2.64062
2000-08-03,2.84375
2000-08-04,2.74219
2000-08-07,2.77531
2000-08-08,2.82812
2000-08-09,2.78531
2000-08-10,2.71094
2000-08-11,2.69937
2000-08-14,2.715
2000-08-15,2.64844
2000-08-16,2.68375
2000-08-17,2.82437
2000-08-18,2.81437
2000-08-21,2.96875
2000-08-22,3.28125
2000-08-23,3.14062
2000-08-24,3.19937
2000-08-25,3.22281
2000-08-28,3.06437
2000-08-29,3.09781
2000-08-30,3.25594
2000-08-31,3.38219
2000-09-01,3.27156
2000-09-05,3.08
2000-09-06,2.87125
2000-09-07,3.12687
2000-09-08,3.18563
2000-09-11,3.07437
2000-09-12,2.97281
2000-09-13,3.03531
2000-09-14,3.18375
2000-09-15,3.21875
2000-09-18,2.91594
2000-09-19,3.06656
2000-09-20,3.04688
2000-09-21,3.25
2000-09-22,3.41031
2000-09-25,3.625
2000-09-26,3.35156
2000-09-27,3.34188
2000-09-28,3.61906
2000-09-29,3.40625
2000-10-02,3.28125
2000-10-03,3.2325
2000-10-04,3.06656
2000-10-05,3.09
2000-10-06,2.89469
2000-10-09,2.82812
2000-10-10,2.96094
2000-10-11,2.92188
2000-10-12,2.79688
2000-10-13,3.0
2000-10-16,3.08594
2000-10-17,3.12156
2000-10-18,2.87125
2000-10-19,2.84375
2000-10-20,2.76562
2000-10-23,3.01969
2000-10-24,2.67969
2000-10-25,2.86531
2000-10-26,2.84375
2000-10-27,2.57437
2000-10-30,2.64844
2000-10-31,2.67969
2000-11-01,2.6525
2000-11-02,2.75
2000-11-03,2.765
2000-11-06,2.90812
2000-11-07,2.94156
2000-11-08,2.82031
2000-11-09,2.7775
2000-11-10,2.81656
2000-11-13,2.465
2000-11-14,2.42969
2000-11-15,2.41594
2000-11-16,2.38031
2000-11-17,2.19531
2000-11-20,2.0175
2000-11-21,2.125
2000-11-22,2.24406
2000-11-24,2.1875
2000-11-27,2.30469
2000-11-28,2.36344
2000-11-29,2.54063
2000-11-30,2.55094
2000-12-01,2.74219
2000-12-04,2.55562
2000-12-05,2.74219
2000-12-06,2.715
2000-12-07,2.70312
2000-12-08,3.03187
2000-12-11,2.85938
2000-12-12,2.64062
2000-12-13,2.5
2000-12-14,2.43563
2000-12-15,2.41219
2000-12-18,2.53063
2000-12-19,2.5
2000-12-20,2.42781
2000-12-21,2.20312
2000-12-22,2.29312
2000-12-26,2.5625
2000-12-27,2.5
2000-12-28,2.53125
2000-12-29,2.58
2001-01-02,2.31844
2001-01-03,2.41219
2001-01-04,2.05656
2001-01-05,1.82812
2001-01-08,1.70125
2001-01-09,1.68938
2001-01-10,1.75594
2001-01-11,1.78906
2001-01-12,1.86531
2001-01-16,2.03906
2001-01-17,1.85563
2001-01-18,1.85156
2001-01-19,1.86125
2001-01-22,1.94156
2001-01-23,2.16031
2001-01-24,2.04688
2001-01-25,2.05469
2001-01-26,2.01375
2001-01-29,2.15625
2001-01-30,2.11719
2001-01-31,2.11344
2001-02-01,2.01906
2001-02-02,1.97594
2001-02-05,1.92375
2001-02-06,2.06188
2001-02-07,2.02969
2001-02-08,1.91594
2001-02-09,1.96875
2001-02-12,2.17969
2001-02-13,2.12125
2001-02-14,2.08219
2001-02-15,2.08781
2001-02-16,2.17781
2001-02-20,2.19156
2001-02-21,2.06656
2001-02-22,1.98812
2001-02-23,2.16438
2001-02-26,2.285
2001-02-27,2.24625
2001-02-28,2.34
2001-03-01,2.20688
2001-03-02,2.2425
2001-03-05,2.10188
2001-03-06,2.18
2001-03-07,2.08625
2001-03-08,2.11313
2001-03-09,2.10188
2001-03-12,1.8475
2001-03-13,1.94562
2001-03-14,2.07437
2001-03-15,2.035
2001-03-16,1.89062
2001-03-19,2.14438
2001-03-20,2.055
2001-03-21,1.8125
2001-03-22,1.82438
2001-03-23,1.85187
2001-03-26,1.9925
2001-03-27,1.99625
2001-03-28,2.00375
2001-03-29,2.00813
2001-03-30,2.0275
2001-04-02,1.90937
2001-04-03,1.83625
2001-04-04,1.81625
2001-04-05,1.98438
2001-04-06,2.02375
2001-04-09,2.11063
2001-04-10,2.26562
2001-04-11,2.2475
2001-04-12,2.41
2001-04-16,2.35625
2001-04-17,2.44937
2001-04-18,2.5625
2001-04-19,2.63438
2001-04-20,2.52562
2001-04-23,2.3975
2001-04-24,2.305
2001-04-25,2.45312
2001-04-26,2.60562
2001-04-27,2.84188
2001-04-30,3.05938
2001-05-01,3.13125
2001-05-02,3.08437
2001-05-03,2.98938
2001-05-04,3.15875
2001-05-07,3.19688
2001-05-08,3.13125
2001-05-09,3.1125
2001-05-10,3.02688
2001-05-11,3.04875
2001-05-14,3.00437
2001-05-15,2.90625
2001-05-16,3.29125
2001-05-17,3.62
2001-05-18,3.37438
2001-05-21,3.71563
2001-05-22,3.61562
2001-05-23,3.3125
2001-05-24,3.39375
2001-05-25,3.4
2001-05-29,3.3
2001-05-30,3.18563
2001-05-31,3.23438
2001-06-01,3.48062
2001-06-04,3.60938
2001-06-05,3.58125
2001-06-06,3.40625
2001-06-07,3.3625
2001-06-08,3.24688
2001-06-11,3.10188
2001-06-12,3.13562
2001-06-13,3.15
2001-06-14,3.06562
2001-06-15,3.22438
2001-06-18,3.19625
2001-06-19,3.2475
2001-06-20,3.585
2001-06-21,3.59687
2001-06-22,3.82125
2001-06-25,3.595
2001-06-26,3.6225
2001-06-27,3.725
2001-06-28,3.74375
2001-06-29,3.71563
2001-07-02,3.60375
2001-07-03,3.63125
2001-07-05,3.55625
2001-07-06,3.48187
2001-07-09,3.52125
2001-07-10,3.40687
2001-07-11,3.30625
2001-07-12,3.34375
2001-07-13,3.54375
2001-07-16,3.11375
2001-07-17,3.27063
2001-07-18,3.40937
2001-07-19,3.31312
2001-07-20,3.37875
2001-07-23,3.30063
2001-07-24,3.12188
2001-07-25,3.17438
2001-07-26,3.40687
2001-07-27,3.36937
2001-07-30,3.19187
2001-07-31,3.20312
2001-08-01,3.18563
2001-08-02,3.10875
2001-08-03,3.27813
2001-08-06,3.21875
2001-08-07,3.17125
2001-08-08,3.02125
2001-08-09,3.0025
2001-08-10,2.99938
2001-08-13,3.17062
2001-08-14,3.18438
2001-08-15,3.25187
2001-08-16,3.2475
2001-08-17,3.09562
2001-08-20,3.1875
2001-08-21,3.24
2001-08-22,3.42
2001-08-23,3.68688
2001-08-24,3.78
2001-08-27,3.85625
2001-08-28,3.81375
2001-08-29,3.8475
2001-08-30,3.83562
2001-08-31,3.76562
2001-09-04,3.78688
2001-09-05,3.73125
2001-09-06,3.75437
2001-09-07,3.68313
2001-09-10,3.62438
2001-09-17,3.30875
2001-09-18,3.05312
2001-09-19,3.13812
2001-09-20,3.18688
2001-09-21,2.98375
2001-09-24,3.03437
2001-09-25,3.27
2001-09-26,3.3875
2001-09-27,3.55562
2001-09-28,3.50938
2001-10-01,3.52875
2001-10-02,3.559
2001-10-03,3.585
2001-10-04,3.65563
2001-10-05,3.56562
2001-10-08,3.55625
2001-10-09,3.67812
2001-10-10,3.93125
2001-10-11,3.94625
2001-10-12,3.88313
2001-10-15,4.02063
2001-10-16,3.9375
2001-10-17,3.74062
2001-10-18,3.92
2001-10-19,4.0675
2001-10-22,4.2275
2001-10-23,4.13312
2001-10-24,4.27812
2001-10-25,4.27812
2001-10-26,4.2375
2001-10-29,4.10375
2001-10-30,4.02187
2001-10-31,3.94313
2001-11-01,3.96563
2001-11-02,3.89375
2001-11-05,4.08437
2001-11-06,4.09
2001-11-07,4.17125
2001-11-08,4.15
2001-11-09,4.01062
2001-11-12,3.99187
2001-11-13,4.23125
2001-11-14,4.19812
2001-11-15,4.21063
2001-11-16,4.27875
2001-11-19,4.37687
2001-11-20,4.24687
2001-11-21,4.30688
2001-11-23,4.325
2001-11-26,4.45437
2001-11-27,4.5125
2001-11-28,4.33
2001-11-29,4.43437
2001-11-30,4.51438
2001-12-03,4.36375
2001-12-04,4.31812
2001-12-05,4.23438
2001-12-06,4.27938
2001-12-07,4.29125
2001-12-10,4.07812
2001-12-11,4.02437
2001-12-12,4.04063
2001-12-13,4.15438
2001-12-14,4.145
2001-12-17,4.29688
2001-12-18,4.285
2001-12-19,4.20687
2001-12-20,4.06313
2001-12-21,4.10563
2001-12-24,4.16563
2001-12-26,4.175
2001-12-27,4.06313
2001-12-28,4.17375
2001-12-31,4.12563
2002-01-02,3.84375
2002-01-03,3.65687
2002-01-04,3.8225
2002-01-07,3.84375
2002-01-08,3.9825
2002-01-09,4.1125
2002-01-10,4.23438
2002-01-11,4.32812
2002-01-14,4.30312
2002-01-15,4.31625
2002-01-16,4.31875
2002-01-17,4.3875
2002-01-18,4.10625
2002-01-22,4.19
2002-01-23,4.28562
2002-01-24,4.21812
2002-01-25,4.2425
2002-01-28,4.24375
2002-01-29,4.10563
2002-01-30,4.19312
2002-01-31,4.11125
2002-02-01,4.36312
2002-02-04,4.0775
2002-02-05,4.15562
2002-02-06,3.90937
2002-02-07,3.95312
2002-02-08,4.175
2002-02-11,4.255
2002-02-12,4.2675
2002-02-13,4.215
2002-02-14,4.09188
2002-02-15,4.10938
2002-02-19,4.02313
2002-02-20,4.18937
2002-02-21,4.19375
2002-02-22,4.14875
2002-02-25,4.2125
2002-02-26,4.3075
2002-02-27,4.34625
2002-02-28,4.40438
2002-03-01,4.61688
2002-03-04,4.65
2002-03-05,4.56063
2002-03-06,4.575
2002-03-07,4.47937
2002-03-08,4.51
2002-03-11,4.5225
2002-03-12,4.4575
2002-03-13,4.5775
2002-03-14,4.485
2002-03-15,4.4925
2002-03-18,4.6775
2002-03-19,4.81625
2002-03-20,4.66625
2002-03-21,4.79625
2002-03-22,4.66
2002-03-25,4.51375
2002-03-26,4.57
2002-03-27,4.67625
2002-03-28,4.495
2002-04-01,4.53125
2002-04-02,4.51625
2002-04-03,4.40875
2002-04-04,4.34625
2002-04-05,4.3225
2002-04-08,4.34
2002-04-09,4.225
2002-04-10,4.475
2002-04-11,4.435
2002-04-12,4.44625
2002-04-15,4.5175
2002-04-16,4.56
2002-04-17,4.4375
2002-04-18,4.435
2002-04-19,4.40875
2002-04-22,4.25875
2002-04-23,4.215
2002-04-24,4.2875
2002-04-25,4.0
2002-04-26,3.65625
2002-04-29,3.63875
2002-04-30,3.89
2002-05-01,4.13125
2002-05-02,4.1125
2002-05-03,3.9875
2002-05-06,3.7275
2002-05-07,3.845
2002-05-08,4.345
2002-05-09,4.2375
2002-05-10,4.0675
2002-05-13,4.33625
2002-05-14,4.695
2002-05-15,4.64875
2002-05-16,4.515
2002-05-17,4.6175
2002-05-20,4.56125
2002-05-21,4.4575
2002-05-22,4.3925
2002-05-23,4.75375
2002-05-24,4.6325
2002-05-28,4.7425
2002-05-29,4.4225
2002-05-30,4.59
2002-05-31,4.4625
2002-06-03,4.2825
2002-06-04,4.3025
2002-06-05,4.28625
2002-06-06,4.0075
2002-06-07,3.99625
2002-06-10,4.11375
2002-06-11,3.8275
2002-06-12,3.79375
2002-06-13,3.92125
2002-06-14,4.11875
2002-06-17,4.4825
2002-06-18,4.43125
2002-06-19,4.38
2002-06-20,4.115
2002-06-21,3.89625
2002-06-24,4.12375
2002-06-25,4.0075
2002-06-26,4.08875
2002-06-27,4.09125
2002-06-28,4.11125
2002-07-01,3.77625
2002-07-02,3.46125
2002-07-03,3.64375
2002-07-05,3.86125
2002-07-08,3.80625
2002-07-09,3.69875
2002-07-10,3.32
2002-07-11,3.5775
2002-07-12,3.615
2002-07-15,3.6675
2002-07-16,3.92125
2002-07-17,4.28375
2002-07-18,4.0925
2002-07-19,3.9575
2002-07-22,3.845
2002-07-23,3.64
2002-07-24,3.82
2002-07-25,3.63125
2002-07-26,3.5175
2002-07-29,3.655
2002-07-30,3.66625
2002-07-31,3.79125
2002-08-01,3.71125
2002-08-02,3.61125
2002-08-05,3.835
2002-08-07,4.0
2002-08-08,4.2775
2002-08-09,4.23375
2002-08-12,4.31875
2002-08-13,4.125
2002-08-14,4.4075
2002-08-15,4.34375
2002-08-16,4.33125
2002-08-19,4.3
2002-08-20,4.4
2002-08-21,4.50375
2002-08-22,4.6325
2002-08-23,4.57875
2002-08-26,4.5225
2002-08-27,4.18125
2002-08-28,4.0625
2002-08-29,4.1875
2002-08-30,4.01
2002-09-03,3.82375
2002-09-04,3.9225
2002-09-05,3.76
2002-09-06,4.025
2002-09-09,4.08125
2002-09-10,4.1225
2002-09-11,4.09625
2002-09-12,3.855
2002-09-13,4.01375
2002-09-16,4.00875
2002-09-17,4.0
2002-09-18,4.2525
2002-09-19,4.13375
2002-09-20,4.185
2002-09-23,4.14125
2002-09-24,4.1125
2002-09-25,4.28125
2002-09-26,4.23
2002-09-27,4.175
2002-09-30,4.19125
2002-10-01,4.345
2002-10-02,4.11375
2002-10-03,4.00625
2002-10-04,3.86125
2002-10-07,3.9825
2002-10-08,3.98375
2002-10-09,4.10625
2002-10-10,4.26875
2002-10-11,4.19625
2002-10-14,4.395
2002-10-15,4.22875
2002-10-16,4.2625
2002-10-17,4.335
2002-10-18,4.2725
2002-10-21,4.325
2002-10-22,4.37375
2002-10-23,4.32
2002-10-24,4.0825
2002-10-25,4.2675
2002-10-28,4.25
2002-10-29,4.24625
2002-10-30,4.325
2002-10-31,4.3275
2002-11-01,4.5625
2002-11-04,4.56375
2002-11-05,4.575
2002-11-06,4.78625
2002-11-07,4.66
2002-11-08,4.4725
2002-11-11,4.46
2002-11-12,4.48625
2002-11-13,4.4525
2002-11-14,4.68875
2002-11-15,4.51125
2002-11-18,4.46875
2002-11-19,4.445
2002-11-20,4.5425
2002-11-21,4.76625
2002-11-22,4.90875
2002-11-25,4.95125
2002-11-26,4.59125
2002-11-27,4.8925
2002-11-29,4.9275
2002-12-02,4.785
2002-12-03,4.61625
2002-12-04,4.6875
2002-12-05,4.8525
2002-12-06,4.9
2002-12-09,4.785
2002-12-10,4.69125
2002-12-11,4.6775
2002-12-12,4.6825
2002-12-13,4.45375
2002-12-16,4.55125
2002-12-17,4.51625
2002-12-18,4.50125
2002-12-19,4.46125
2002-12-20,4.4775
2002-12-23,4.555
2002-12-24,4.50625
2002-12-26,4.435
2002-12-27,4.32125
2002-12-30,4.27125
2002-12-31,4.23
2003-01-02,4.36375
2003-01-03,4.42625
2003-01-06,4.55625
2003-01-07,4.54
2003-01-08,4.34875
2003-01-09,4.48125
2003-01-10,4.62
2003-01-13,4.695
2003-01-14,4.72625
2003-01-15,4.6275
2003-01-16,4.75625
2003-01-17,4.55
2003-01-21,4.49375
2003-01-22,4.46125
2003-01-23,4.51
2003-01-24,4.36125
2003-01-27,4.34375
2003-01-28,4.47
2003-01-29,4.52125
2003-01-30,4.60875
2003-01-31,4.3875
2003-02-03,4.31625
2003-02-04,4.16875
2003-02-05,4.18375
2003-02-06,4.2
2003-02-07,4.2475
2003-02-10,4.28
2003-02-11,4.36625
2003-02-12,4.265
2003-02-13,4.08375
2003-02-14,4.125
2003-02-18,4.05
2003-02-19,4.05375
2003-02-20,4.05375
2003-02-21,4.185
2003-02-24,4.09125
2003-02-25,4.1
2003-02-26,4.05875
2003-02-27,4.1875
2003-02-28,4.24875
2003-03-03,4.25
2003-03-04,4.245
2003-03-05,4.21625
2003-03-06,4.2675
2003-03-07,4.6125
2003-03-10,4.72625
2003-03-11,4.6675
2003-03-12,4.74375
2003-03-13,4.97875
2003-03-14,4.88875
2003-03-17,5.1
2003-03-18,5.11875
2003-03-19,5.105
2003-03-20,5.10875
2003-03-21,5.1925
2003-03-24,4.995
2003-03-25,5.135
2003-03-26,5.06
2003-03-27,5.36875
2003-03-28,5.2625
2003-03-31,5.24875
2003-04-01,5.3225
2003-04-02,5.45
2003-04-03,5.5775
2003-04-04,5.52
2003-04-07,5.35875
2003-04-08,5.375
2003-04-09,5.19
2003-04-10,5.3375
2003-04-11,5.22125
2003-04-14,5.265
2003-04-15,5.3625
2003-04-16,5.34875
2003-04-17,5.525
2003-04-21,5.455
2003-04-22,5.54875
2003-04-23,5.71375
2003-04-24,5.83
2003-04-25,5.765
2003-04-28,5.8
2003-04-29,5.785
2003-04-30,5.76
2003-05-01,5.77875
2003-05-02,5.9175
2003-05-05,5.845
2003-05-06,5.715
2003-05-07,5.65875
2003-05-08,5.7125
2003-05-09,5.845
2003-05-12,5.925
2003-05-13,5.8675
2003-05-14,5.9325
2003-05-15,6.0875
2003-05-16,5.93875
2003-05-19,5.885
2003-05-20,5.76875
2003-05-21,5.72
2003-05-22,5.9225
2003-05-23,5.99375
2003-05-27,6.4425
2003-05-28,6.26875
2003-05-29,6.2875
2003-05-30,6.46375
2003-06-02,6.255
2003-06-03,6.28875
2003-06-04,6.38375
2003-06-05,6.63875
2003-06-06,6.54
2003-06-09,6.20625
2003-06-10,6.32875
2003-06-11,6.54
2003-06-12,6.50875
2003-06-13,6.71875
2003-06-16,7.0575
2003-06-17,7.00125
2003-06-18,6.75
2003-06-19,6.4075
2003-06-20,6.6775
2003-06-23,6.5325
2003-06-24,6.6125
2003-06-25,6.695
2003-06-26,6.795
2003-06-27,7.0075
2003-06-30,6.91875
2003-07-01,6.865
2003-07-02,7.025
2003-07-03,7.26625
2003-07-07,7.3875
2003-07-08,7.3775
2003-07-09,7.385
2003-07-10,7.265
2003-07-11,7.41875
2003-07-14,8.43625
2003-07-15,8.59125
2003-07-16,8.44
2003-07-17,8.18125
2003-07-18,8.34625
2003-07-21,8.19125
2003-07-22,8.29375
2003-07-23,8.25625
2003-07-24,8.27
2003-07-25,8.5075
2003-07-28,8.62
2003-07-29,8.74375
2003-07-30,8.60625
2003-07-31,8.48875
2003-08-01,8.115
2003-08-04,8.15
2003-08-05,7.7375
2003-08-06,7.675
2003-08-07,7.8075
2003-08-08,7.77375
2003-08-11,7.905
2003-08-12,7.9975
2003-08-13,7.8375
2003-08-14,7.74875
2003-08-15,7.78375
2003-08-18,7.94875
2003-08-19,8.16
2003-08-20,8.08625
2003-08-21,8.27625
2003-08-22,8.0625
2003-08-25,8.05375
2003-08-26,8.0125
2003-08-27,8.0575
2003-08-28,8.25
2003-08-29,8.33125
2003-09-02,8.405
2003-09-03,8.2375
2003-09-04,8.4175
2003-09-05,8.35125
2003-09-08,8.6275
2003-09-09,8.57125
2003-09-10,8.2575
2003-09-11,8.35375
2003-09-12,8.37375
2003-09-15,8.285
2003-09-16,7.71875
2003-09-17,7.70625
2003-09-18,7.77
2003-09-19,7.49875
2003-09-22,7.20625
2003-09-23,7.2575
2003-09-24,7.0
2003-09-25,6.9875
2003-09-26,6.94375
2003-09-29,6.9925
2003-09-30,7.02625
2003-10-01,7.1025
2003-10-02,7.33125
2003-10-03,7.35125
2003-10-06,7.36625
2003-10-07,7.3
2003-10-08,7.415
2003-10-09,7.505
2003-10-10,7.5125
2003-10-13,7.65125
2003-10-14,7.68375
2003-10-15,7.41125
2003-10-16,7.4275
2003-10-17,7.19125
2003-10-20,7.295
2003-10-21,7.4925
2003-10-22,7.27
2003-10-23,7.26
2003-10-24,7.3
2003-10-27,7.16125
2003-10-28,7.4125
2003-10-29,6.5025
2003-10-30,6.77875
2003-10-31,6.85875
2003-11-03,6.88625
2003-11-04,6.68125
2003-11-05,6.58375
2003-11-06,6.745
2003-11-07,6.675
2003-11-10,6.51375
2003-11-11,6.50625
2003-11-12,6.785
2003-11-13,6.875
2003-11-14,6.78125
2003-11-17,6.81875
2003-11-18,6.75625
2003-11-19,6.87375
2003-11-20,6.96
2003-11-21,7.1
2003-11-24,7.40875
2003-11-25,7.2675
2003-11-26,7.34875
2003-11-28,7.3225
2003-12-01,7.49875
2003-12-02,7.50125
2003-12-03,7.3475
2003-12-04,7.345
2003-12-05,7.22125
2003-12-08,7.18375
2003-12-09,7.0875
2003-12-10,6.98125
2003-12-11,7.005
2003-12-12,7.01375
2003-12-15,7.02125
2003-12-16,7.04375
2003-12-17,7.1375
2003-12-18,7.32375
2003-12-19,7.42375
2003-12-22,7.45
2003-12-23,7.41875
2003-12-24,7.39
2003-12-26,7.3625
2003-12-29,7.3375
2003-12-30,7.26125
2003-12-31,7.3125
2004-01-02,7.2675
2004-01-05,7.26625
2004-01-06,7.26625
2004-01-07,7.78375
2004-01-08,7.67
2004-01-09,7.78125
2004-01-12,7.84625
2004-01-13,7.68125
2004-01-14,7.62875
2004-01-15,7.73125
2004-01-16,7.91
2004-01-20,7.93875
2004-01-21,8.18
2004-01-22,8.1575
2004-01-23,8.22625
2004-01-26,8.04125
2004-01-27,7.65
2004-01-28,7.61
2004-01-29,7.6025
2004-01-30,6.82375
2004-02-02,7.02625
2004-02-03,7.04375
2004-02-04,7.0225
2004-02-05,7.00125
2004-02-06,7.04625
2004-02-09,7.21875
2004-02-10,7.17875
2004-02-11,7.31125
2004-02-12,7.4075
2004-02-13,7.30375
2004-02-17,7.25875
2004-02-18,7.1875
2004-02-19,6.97375
2004-02-20,6.9825
2004-02-23,6.805
2004-02-24,6.76625
2004-02-25,6.84125
2004-02-26,6.83125
2004-02-27,6.775
2004-03-01,6.85625
2004-03-02,6.815
2004-03-03,6.96125
2004-03-04,6.96
2004-03-05,7.16625
2004-03-08,6.98125
2004-03-09,7.05625
2004-03-10,7.02125
2004-03-11,7.00875
2004-03-12,7.1875
2004-03-15,7.04375
2004-03-16,6.91875
2004-03-17,7.045
2004-03-18,7.07875
2004-03-19,6.9325
2004-03-22,6.70875
2004-03-23,6.5025
2004-03-24,6.48125
2004-03-25,6.67375
2004-03-26,6.735
2004-03-29,6.8925
2004-03-30,6.92125
2004-03-31,6.92625
2004-04-01,6.97625
2004-04-02,7.14875
2004-04-05,7.2475
2004-04-06,7.0525
2004-04-07,7.1
2004-04-08,7.195
2004-04-12,7.115
2004-04-13,6.94625
2004-04-14,7.0525
2004-04-15,7.10875
2004-04-16,7.17375
2004-04-19,7.26625
2004-04-20,7.12
2004-04-21,7.20375
2004-04-22,7.3675
2004-04-23,7.49375
2004-04-26,7.69125
2004-04-27,7.7925
2004-04-28,7.65375
2004-04-29,7.67125
2004-04-30,7.65375
2004-05-03,7.57625
2004-05-04,7.29125
2004-05-05,7.28125
2004-05-06,7.12
2004-05-07,6.975
2004-05-10,6.835
2004-05-11,6.94625
2004-05-12,7.03125
2004-05-13,7.07625
2004-05-14,6.9875
2004-05-17,7.205
2004-05-18,7.7975
2004-05-19,7.9175
2004-05-20,7.91
2004-05-21,7.92125
2004-05-24,7.85375
2004-05-25,7.97
2004-05-26,8.25
2004-05-27,8.19375
2004-05-28,8.14875
2004-06-01,8.3725
2004-06-02,8.33125
2004-06-03,8.06375
2004-06-04,8.06375
2004-06-07,8.1
2004-06-08,8.05
2004-06-09,7.875
2004-06-10,7.7275
2004-06-14,7.73125
2004-06-15,7.9775
2004-06-16,8.05
2004-06-17,7.9175
2004-06-18,8.00875
2004-06-21,7.9
2004-06-22,7.8375
2004-06-23,8.155
2004-06-24,8.07125
2004-06-25,8.0875
2004-06-28,7.99375
2004-06-29,8.21
2004-06-30,8.37
2004-07-01,8.3475
2004-07-02,8.44125
2004-07-06,8.37875
2004-07-07,8.39625
2004-07-08,8.21625
2004-07-09,8.19
2004-07-12,8.20875
2004-07-13,8.21
2004-07-14,8.03375
2004-07-15,7.97125
2004-07-16,7.85375
2004-07-19,7.89125
2004-07-20,7.7975
2004-07-21,7.4375
2004-07-22,7.4775
2004-07-23,7.28125
2004-07-26,7.025
2004-07-27,7.2725
2004-07-28,7.2725
2004-07-29,7.47875
2004-07-30,8.0975
2004-08-02,7.91
2004-08-03,7.9375
2004-08-04,7.8675
2004-08-05,7.955
2004-08-06,7.725
2004-08-09,7.69375
2004-08-10,7.98625
2004-08-11,8.24375
2004-08-12,7.96875
2004-08-13,7.86875
2004-08-16,8.1025
2004-08-17,8.0125
2004-08-18,8.24875
2004-08-19,8.11625
2004-08-20,8.2925
2004-08-23,8.12375
2004-08-24,8.0875
2004-08-25,8.32625
2004-08-26,8.65125
2004-08-27,8.66875
2004-08-30,8.54375
2004-08-31,8.605
2004-09-01,8.8475
2004-09-02,8.91
2004-09-03,8.79625
2004-09-07,8.6375
2004-09-08,8.545
2004-09-09,8.6775
2004-09-10,8.8625
2004-09-13,8.8975
2004-09-14,8.965
2004-09-15,8.875
2004-09-16,8.9375
2004-09-17,9.2275
2004-09-20,9.1425
2004-09-21,9.3325
2004-09-22,9.1125
2004-09-23,9.1025
2004-09-24,9.1275
2004-09-27,8.855
2004-09-28,8.9625
2004-09-29,9.0475
2004-09-30,9.345
2004-10-01,9.43
2004-10-04,9.6025
2004-10-05,9.6
2004-10-06,9.7275
2004-10-07,9.51
2004-10-08,9.4725
2004-10-11,9.4775
2004-10-12,9.545
2004-10-13,9.395
2004-10-14,9.3375
2004-10-15,9.3775
2004-10-18,9.5775
2004-10-19,9.315
2004-10-20,9.4425
2004-10-21,9.1475
2004-10-22,8.3
2004-10-25,8.215
2004-10-26,8.495
2004-10-27,8.75
2004-10-28,8.7375
2004-10-29,8.67
2004-11-01,8.8025
2004-11-02,8.8
2004-11-03,9.11
2004-11-04,9.295
2004-11-05,9.365
2004-11-08,9.225
2004-11-09,9.2
2004-11-10,9.145
2004-11-11,9.295
2004-11-12,9.225
2004-11-15,9.0
2004-11-16,8.79
2004-11-17,8.635
2004-11-18,8.8475
2004-11-19,8.62
2004-11-22,8.66
2004-11-23,8.635
2004-11-24,8.6575
2004-11-26,8.6275
2004-11-29,8.5175
2004-11-30,8.61
2004-12-01,8.68
2004-12-02,8.7225
2004-12-03,8.8525
2004-12-06,8.9825
2004-12-07,8.885
2004-12-08,9.0575
2004-12-09,9.2125
2004-12-10,9.11
2004-12-13,9.21
2004-12-14,9.2875
2004-12-15,9.0125
2004-12-16,8.8675
2004-12-17,8.72
2004-12-20,8.785
2004-12-21,8.745
2004-12-22,8.6275
2004-12-23,8.5875
2004-12-27,8.565
2004-12-28,8.7775
2004-12-29,8.865
2004-12-30,8.77
2004-12-31,8.7725
2005-01-03,8.695
2005-01-04,8.5075
2005-01-05,8.3525
2005-01-06,8.42
2005-01-07,8.3875
2005-01-10,8.3925
2005-01-11,8.1825
2005-01-12,8.2875
2005-01-13,8.1675
2005-01-14,8.1575
2005-01-18,8.375
2005-01-19,8.33
2005-01-20,8.36
2005-01-21,8.225
2005-01-24,8.0625
2005-01-25,8.0475
2005-01-26,8.275
2005-01-27,8.1625
2005-01-28,8.1525
2005-01-31,8.2675
2005-02-01,8.37
2005-02-02,8.1875
2005-02-03,8.07
2005-02-04,8.315
2005-02-07,8.1325
2005-02-08,8.045
2005-02-09,7.84
2005-02-10,7.775
2005-02-11,8.1675
2005-02-14,8.25
2005-02-15,8.2725
2005-02-16,8.41
2005-02-17,8.45
2005-02-18,8.3825
2005-02-22,8.2925
2005-02-23,8.4725
2005-02-24,8.7425
2005-02-25,8.865
2005-02-28,8.6725
2005-03-01,8.575
2005-03-02,8.8075
2005-03-03,8.7775
2005-03-04,8.7325
2005-03-07,8.7425
2005-03-08,8.805
2005-03-09,8.825
2005-03-10,8.7525
2005-03-11,8.635
2005-03-14,8.9125
2005-03-15,8.775
2005-03-16,8.7525
2005-03-17,8.8275
2005-03-18,8.7975
2005-03-21,8.7825
2005-03-22,8.7325
2005-03-23,8.9775
2005-03-24,8.8725
2005-03-28,8.825
2005-03-29,8.735
2005-03-30,8.9625
2005-03-31,8.92
2005-04-01,8.825
2005-04-04,8.8075
2005-04-05,8.995
2005-04-06,9.135
2005-04-07,9.4575
2005-04-08,9.28
2005-04-11,9.2475
2005-04-12,9.3975
2005-04-13,9.2425
2005-04-14,9.105
2005-04-15,8.7975
2005-04-18,8.81
2005-04-19,9.0225
2005-04-20,9.29
2005-04-21,9.64
2005-04-22,9.9
2005-04-25,9.7975
2005-04-26,9.8225
2005-04-27,9.205
2005-04-28,9.21
2005-04-29,9.2975
2005-05-02,9.42
2005-05-03,9.74
2005-05-04,9.7425
2005-05-05,9.6475
2005-05-06,9.6425
2005-05-09,9.7025
2005-05-10,9.66
2005-05-11,9.83
2005-05-12,9.6725
2005-05-13,9.6925
2005-05-16,9.71
2005-05-17,9.71
2005-05-18,9.915
2005-05-19,10.0875
2005-05-20,10.03
2005-05-23,10.17
2005-05-24,10.065
2005-05-25,10.1025
2005-05-26,10.295
2005-05-27,10.2475
2005-05-31,10.2025
2005-06-01,10.4425
2005-06-02,10.745
2005-06-03,10.3575
2005-06-06,10.43
2005-06-07,10.5225
2005-06-08,10.5325
2005-06-09,10.905
2005-06-10,10.8275
2005-06-13,10.98
2005-06-14,10.9875
2005-06-15,10.8725
2005-06-16,11.0625
2005-06-17,11.3375
2005-06-20,11.2775
2005-06-21,10.8525
2005-06-22,10.655
2005-06-23,10.33
2005-06-24,10.4375
2005-06-27,10.505
2005-06-28,10.7975
2005-06-29,10.85
2005-06-30,10.9825
2005-07-01,11.04
2005-07-05,11.19
2005-07-06,11.155
2005-07-07,11.3475
2005-07-08,11.64
2005-07-11,11.5
2005-07-12,11.25
2005-07-13,11.375
2005-07-14,11.45
2005-07-15,11.365
2005-07-18,11.4275
2005-07-19,11.6475
2005-07-20,11.64
2005-07-21,11.5275
2005-07-22,11.1075
2005-07-25,10.71
2005-07-26,10.9975
2005-07-27,11.3475
2005-07-28,11.305
2005-07-29,11.185
2005-08-01,11.4625
2005-08-02,11.39
2005-08-03,11.3225
2005-08-04,11.0525
2005-08-05,10.6775
2005-08-08,10.54
2005-08-09,10.6775
2005-08-10,10.3775
2005-08-11,10.66
2005-08-12,10.5875
2005-08-15,10.7175
2005-08-16,10.45
2005-08-17,10.495
2005-08-18,10.6475
2005-08-19,10.62
2005-08-22,10.515
2005-08-23,10.46
2005-08-24,10.2925
2005-08-25,10.27
2005-08-26,10.265
2005-08-29,10.505
2005-08-30,10.3125
2005-08-31,10.7325
2005-09-01,10.7425
2005-09-02,10.63
2005-09-06,10.835
2005-09-07,10.8075
2005-09-08,10.795
2005-09-09,11.075
2005-09-12,11.3325
2005-09-13,11.3125
2005-09-14,11.29
2005-09-15,11.445
2005-09-16,11.55
2005-09-19,11.5425
2005-09-20,11.4425
2005-09-21,11.2625
2005-09-22,11.465
2005-09-23,11.515
2005-09-26,11.8075
2005-09-27,11.7775
2005-09-28,11.715
2005-09-29,11.885
2005-09-30,12.1725
2005-10-03,11.99
2005-10-04,11.8175
2005-10-05,11.54
2005-10-06,11.3875
2005-10-07,11.89
2005-10-10,12.03
2005-10-11,11.9125
2005-10-12,11.56
2005-10-13,11.715
2005-10-14,11.845
2005-10-17,11.92
2005-10-18,12.045
2005-10-19,11.5225
2005-10-20,11.305
2005-10-21,11.4225
2005-10-24,11.91
2005-10-25,11.9575
2005-10-26,11.7225
2005-10-27,11.4125
2005-10-28,11.765
2005-10-31,11.785
2005-11-01,11.78
2005-11-02,12.2025
2005-11-03,12.7
2005-11-04,12.4125
2005-11-07,12.455
2005-11-08,12.875
2005-11-09,12.8725
2005-11-10,13.07
2005-11-11,13.4875
2005-11-14,13.005
2005-11-15,12.8975
2005-11-16,13.92
2005-11-17,13.6625
2005-11-18,13.605
2005-11-21,13.5475
2005-11-22,13.515
2005-11-23,13.4475
2005-11-25,13.2575
2005-11-28,13.05
2005-11-29,12.9075
2005-11-30,12.7025
2005-12-01,13.25
2005-12-02,13.4
2005-12-05,13.5975
2005-12-06,13.35
2005-12-07,13.1
2005-12-08,13.15
2005-12-09,12.995
2005-12-12,12.93
2005-12-13,13.48
2005-12-14,12.9875
2005-12-15,13.1225
2005-12-16,12.685
2005-12-19,12.6425
2005-12-20,12.8625
2005-12-21,13.4875
2005-12-22,13.8275
2005-12-23,13.6425
2005-12-27,13.54
2005-12-28,13.375
2005-12-29,13.19
2005-12-30,13.1675
2006-01-03,13.7
2006-01-04,13.875
2006-01-05,14.1375
2006-01-06,14.2275
2006-01-09,14.49
2006-01-10,14.25
2006-01-11,14.2375
2006-01-12,14.6025
2006-01-13,14.84
2006-01-17,14.77
2006-01-18,14.6525
2006-01-19,14.7725
2006-01-20,14.39
2006-01-23,14.1
2006-01-24,14.5
2006-01-25,14.35
2006-01-26,14.7075
2006-01-27,14.935
2006-01-30,14.475
2006-01-31,15.2
2006-02-01,15.375
2006-02-02,15.1975
2006-02-03,15.175
2006-02-06,15.0075
2006-02-07,15.0575
2006-02-08,14.85
2006-02-09,14.5725
2006-02-10,14.7975
2006-02-13,14.79
2006-02-14,15.0675
2006-02-15,15.2675
2006-02-16,15.375
2006-02-17,15.3975
2006-02-21,14.9775
2006-02-22,15.4725
2006-02-23,15.31
2006-02-24,15.415
2006-02-27,15.9
2006-02-28,15.5525
2006-03-01,15.2375
2006-03-02,15.325
2006-03-03,15.0525
2006-03-06,14.8525
2006-03-07,14.7825
2006-03-08,15.2175
2006-03-09,15.1575
2006-03-10,15.26
2006-03-13,15.3525
2006-03-14,15.7125
2006-03-15,15.92
2006-03-16,15.745
2006-03-17,15.84
2006-03-20,15.7675
2006-03-21,15.575
2006-03-22,15.6875
2006-03-23,15.5
2006-03-24,15.5975
2006-03-27,15.595
2006-03-28,15.425
2006-03-29,15.5
2006-03-30,15.425
2006-03-31,15.5625
2006-04-03,15.8575
2006-04-04,16.1375
2006-04-05,15.9725
2006-04-06,15.44
2006-04-07,15.35
2006-04-10,15.4625
2006-04-11,15.1025
2006-04-12,15.2775
2006-04-13,15.3475
2006-04-17,15.3
2006-04-18,15.4775
2006-04-19,16.32
2006-04-20,16.2925
2006-04-21,16.1525
2006-04-24,15.86
2006-04-25,15.3275
2006-04-26,14.3275
2006-04-27,14.19
2006-04-28,14.3525
2006-05-01,14.4525
2006-05-02,13.7
2006-05-03,14.04
2006-05-04,13.8075
2006-05-05,14.0275
2006-05-08,14.17
2006-05-09,14.3375
2006-05-10,14.2225
2006-05-11,14.15
2006-05-12,13.895
2006-05-15,14.29
2006-05-16,14.17
2006-05-17,13.9425
2006-05-18,13.435
2006-05-19,13.735
2006-05-22,13.6625
2006-05-23,13.4475
2006-05-24,13.8625
2006-05-25,13.945
2006-05-26,14.2625
2006-05-30,13.97
2006-05-31,14.27
2006-06-01,14.63
2006-06-02,14.575
2006-06-05,14.0875
2006-06-06,14.175
2006-06-07,14.21
2006-06-08,14.1575
2006-06-09,14.345
2006-06-12,14.08
2006-06-13,14.2475
2006-06-14,14.2275
2006-06-15,14.635
2006-06-16,14.475
2006-06-19,14.035
2006-06-20,13.7925
2006-06-21,13.9875
2006-06-22,13.7525
2006-06-23,13.92
2006-06-26,13.945
2006-06-27,13.7875
2006-06-28,14.0175
2006-06-29,14.74
2006-06-30,14.7875
2006-07-03,14.815
2006-07-05,14.7525
2006-07-06,15.0075
2006-07-07,15.2125
2006-07-10,15.3875
2006-07-11,15.4375
2006-07-12,15.4675
2006-07-13,15.26
2006-07-14,14.97
2006-07-17,14.8475
2006-07-18,15.04
2006-07-19,15.325
2006-07-20,14.91
2006-07-21,14.9475
2006-07-24,15.0925
2006-07-25,15.47
2006-07-26,15.6
2006-07-27,15.3
2006-07-28,15.595
2006-07-31,15.3675
2006-08-01,15.17
2006-08-02,15.41
2006-08-03,15.505
2006-08-04,15.3225
2006-08-07,15.4725
2006-08-08,15.4
2006-08-09,15.41
2006-08-10,15.455
2006-08-11,15.49
2006-08-14,15.43
2006-08-15,15.535
2006-08-16,16.0
2006-08-17,16.0125
2006-08-18,15.935
2006-08-21,15.9075
2006-08-22,15.8575
2006-08-23,15.785
2006-08-24,15.9075
2006-08-25,15.7825
2006-08-28,16.11
2006-08-29,16.01
2006-08-30,15.8675
2006-08-31,15.855
2006-09-01,15.85
2006-09-05,15.7175
2006-09-06,15.3875
2006-09-07,15.47
2006-09-08,15.9375
2006-09-11,15.8425
2006-09-12,15.9475
2006-09-13,15.935
2006-09-14,15.87
2006-09-15,16.18
2006-09-18,16.2
2006-09-19,16.2325
2006-09-20,16.2475
2006-09-21,16.075
2006-09-22,16.1925
2006-09-25,16.5225
2006-09-26,16.7075
2006-09-27,16.84
2006-09-28,17.1375
2006-09-29,17.2
2006-10-02,16.1
2006-10-03,15.51
2006-10-04,16.06
2006-10-05,16.3125
2006-10-06,16.34
2006-10-09,16.3
2006-10-10,16.225
2006-10-11,16.335
2006-10-12,16.7
2006-10-13,16.7
2006-10-16,16.9
2006-10-17,17.0025
2006-10-18,16.95
2006-10-19,17.11
2006-10-20,17.2375
2006-10-23,17.3725
2006-10-24,17.1225
2006-10-25,16.97
2006-10-26,17.3375
2006-10-27,17.0475
2006-10-30,17.235
2006-10-31,17.2425
2006-11-01,16.9175
2006-11-02,17.01
2006-11-03,16.9625
2006-11-06,17.2075
2006-11-07,17.4425
2006-11-08,17.2525
2006-11-09,16.755
2006-11-10,16.8225
2006-11-13,16.75
2006-11-14,16.9025
2006-11-15,16.9625
2006-11-16,17.0575
2006-11-17,17.345
2006-11-20,17.23
2006-11-21,16.8725
2006-11-22,16.6375
2006-11-24,16.5025
2006-11-27,16.2975
2006-11-28,16.5475
2006-11-29,16.6825
2006-11-30,16.5
2006-12-01,16.29
2006-12-04,16.8925
2006-12-05,16.925
2006-12-06,17.0225
2006-12-07,16.7575
2006-12-08,16.515
2006-12-11,16.4425
2006-12-12,16.3225
2006-12-13,16.0
2006-12-14,15.8375
2006-12-15,16.1175
2006-12-18,15.9575
2006-12-19,16.17
2006-12-20,16.21
2006-12-21,16.35
2006-12-22,16.14
2006-12-26,16.27
2006-12-27,16.5075
2006-12-28,16.335
2006-12-29,16.23
2007-01-03,15.78
2007-01-04,16.035
2007-01-05,16.035
2007-01-08,16.0625
2007-01-09,16.23
2007-01-10,16.1575
2007-01-11,16.5425
2007-01-12,16.515
2007-01-16,16.57
2007-01-17,16.5925
2007-01-18,16.5575
2007-01-19,16.415
2007-01-22,16.0725
2007-01-23,15.965
2007-01-24,16.0625
2007-01-25,15.855
2007-01-26,15.6975
2007-01-29,15.82
2007-01-30,15.9
2007-01-31,16.0875
2007-02-01,17.9225
2007-02-02,17.6775
2007-02-05,17.5025
2007-02-06,17.5875
2007-02-07,18.06
2007-02-08,18.03
2007-02-09,17.8025
2007-02-12,17.6875
2007-02-13,17.6425
2007-02-14,17.925
2007-02-15,18.0525
2007-02-16,18.025
2007-02-20,18.155
2007-02-21,18.5525
2007-02-22,18.505
2007-02-23,18.4125
2007-02-26,18.5025
2007-02-27,17.7125
2007-02-28,17.8775
2007-03-01,17.66
2007-03-02,17.6275
2007-03-05,17.49
2007-03-06,17.685
2007-03-07,17.51
2007-03-08,17.4925
2007-03-09,17.5775
2007-03-12,17.6825
2007-03-13,17.235
2007-03-14,17.365
2007-03-15,17.5325
2007-03-16,17.3775
2007-03-19,17.6875
2007-03-20,18.1975
2007-03-21,18.5875
2007-03-22,18.6875
2007-03-23,18.6275
2007-03-26,18.83
2007-03-27,18.7375
2007-03-28,18.78
2007-03-29,19.0525
2007-03-30,19.1225
2007-04-02,19.1125
2007-04-03,19.4675
2007-04-04,19.4675
2007-04-05,19.5625
2007-04-09,19.4325
2007-04-10,19.33
2007-04-11,19.1675
2007-04-12,19.7375
2007-04-13,19.6025
2007-04-16,19.9225
2007-04-17,19.8425
2007-04-18,19.5875
2007-04-19,20.4175
2007-04-20,20.6
2007-04-23,20.8
2007-04-24,20.8125
2007-04-25,21.055
2007-04-26,20.9825
2007-04-27,20.4575
2007-04-30,20.4275
2007-05-01,20.625
2007-05-02,20.86
2007-05-03,20.805
2007-05-04,20.75
2007-05-07,20.745
2007-05-08,20.7025
2007-05-09,20.7725
2007-05-10,20.255
2007-05-11,20.51
2007-05-14,20.415
2007-05-15,20.47
2007-05-16,20.99
2007-05-17,20.725
2007-05-18,20.765
2007-05-21,20.675
2007-05-22,20.9675
2007-05-23,20.635
2007-05-24,20.5775
2007-05-25,20.45
2007-05-29,20.47
2007-05-30,20.53
2007-05-31,20.675
2007-06-01,20.7475
2007-06-04,20.96
2007-06-05,20.81
2007-06-06,20.365
2007-06-07,19.6625
2007-06-08,19.7625
2007-06-11,19.8
2007-06-12,19.7475
2007-06-13,20.06
2007-06-14,20.16
2007-06-15,20.1825
2007-06-18,20.1275
2007-06-19,20.21
2007-06-20,19.7825
2007-06-21,19.8625
2007-06-22,19.62
2007-06-25,19.345
2007-06-26,19.425
2007-06-27,19.89
2007-06-28,19.805
2007-06-29,19.395
2007-07-02,19.665
2007-07-03,19.8
2007-07-05,19.495
2007-07-06,19.55
2007-07-09,19.7
2007-07-10,19.93
2007-07-11,19.845
2007-07-12,19.95
2007-07-13,19.97
2007-07-16,19.84
2007-07-17,19.635
2007-07-18,19.645
2007-07-19,20.23
2007-07-20,19.34
2007-07-23,18.985
2007-07-24,18.925
2007-07-25,18.98
2007-07-26,18.66
2007-07-27,18.52
2007-07-30,18.725
2007-07-31,18.65
2007-08-01,18.535
2007-08-02,18.855
2007-08-03,18.485
2007-08-06,19.065
2007-08-07,18.95
2007-08-08,19.13
2007-08-09,18.76
2007-08-10,18.5
2007-08-13,18.695
2007-08-14,18.87
2007-08-15,18.885
2007-08-16,18.85
2007-08-17,19.0
2007-08-20,18.92
2007-08-21,18.855
2007-08-22,18.765
2007-08-23,18.585
2007-08-24,18.625
2007-08-27,18.35
2007-08-28,17.86
2007-08-29,18.02
2007-08-30,18.05
2007-08-31,18.16
2007-09-04,18.54
2007-09-05,18.235
2007-09-06,18.795
2007-09-07,18.825
2007-09-10,18.71
2007-09-11,19.055
2007-09-12,19.12
2007-09-13,19.255
2007-09-14,19.015
2007-09-17,18.605
2007-09-18,19.245
2007-09-19,19.3
2007-09-20,19.75
2007-09-21,20.04
2007-09-24,19.86
2007-09-25,20.36
2007-09-26,20.39
2007-09-27,20.55
2007-09-28,20.4
2007-10-01,20.955
2007-10-02,20.695
2007-10-03,20.645
2007-10-04,20.76
2007-10-05,21.035
2007-10-08,20.59
2007-10-09,21.04
2007-10-10,21.475
2007-10-11,21.195
2007-10-12,21.62
2007-10-15,21.0
2007-10-16,21.21
2007-10-17,21.32
2007-10-18,21.73
2007-10-19,21.005
2007-10-22,21.27
2007-10-23,21.505
2007-10-24,21.955
2007-10-25,22.8
2007-10-26,23.17
2007-10-29,22.97
2007-10-30,22.75
2007-10-31,23.04
2007-11-01,22.925
2007-11-02,23.445
2007-11-05,23.625
2007-11-06,23.535
2007-11-07,22.305
2007-11-08,22.595
2007-11-09,21.81
2007-11-12,21.33
2007-11-13,21.55
2007-11-14,21.99
2007-11-15,21.85
2007-11-16,22.36
2007-11-19,21.635
2007-11-20,21.835
2007-11-21,21.52
2007-11-23,21.45
2007-11-26,20.96
2007-11-27,22.255
2007-11-28,22.94
2007-11-29,22.88
2007-11-30,23.27
2007-12-03,22.98
2007-12-04,22.585
2007-12-05,23.4
2007-12-06,23.775
2007-12-07,23.515
2007-12-10,23.88
2007-12-11,22.955
2007-12-12,23.46
2007-12-13,23.13
2007-12-14,22.945
2007-12-17,22.74
2007-12-18,22.8
2007-12-19,22.885
2007-12-20,22.975
2007-12-21,23.17
2007-12-24,23.455
2007-12-26,23.55
2007-12-27,23.185
2007-12-28,23.145
2007-12-31,23.0
2008-01-02,22.7
2008-01-03,23.425
2008-01-04,22.975
2008-01-07,23.85
2008-01-08,23.425
2008-01-09,24.23
2008-01-10,24.15
2008-01-11,24.355
2008-01-14,24.065
2008-01-15,23.665
2008-01-16,23.825
2008-01-17,23.62
2008-01-18,23.165
2008-01-22,22.225
2008-01-23,22.465
2008-01-24,22.765
2008-01-25,21.565
2008-01-28,21.475
2008-01-29,21.56
2008-01-30,21.95
2008-01-31,22.76
2008-02-01,22.92
2008-02-04,23.175
2008-02-05,22.375
2008-02-06,22.445
2008-02-07,22.165
2008-02-08,22.22
2008-02-11,22.26
2008-02-12,22.58
2008-02-13,22.7
2008-02-14,22.35
2008-02-15,22.33
2008-02-19,22.59
2008-02-20,22.775
2008-02-21,21.99
2008-02-22,21.405
2008-02-25,21.81
2008-02-26,22.025
2008-02-27,21.89
2008-02-28,22.725
2008-02-29,23.66
2008-03-03,24.31
2008-03-04,24.665
2008-03-05,24.48
2008-03-06,23.925
2008-03-07,24.295
2008-03-10,23.01
2008-03-11,23.59
2008-03-12,23.935
2008-03-13,24.2
2008-03-14,23.825
2008-03-17,23.4
2008-03-18,24.0
2008-03-19,23.84
2008-03-20,24.205
2008-03-24,24.75
2008-03-25,25.5
2008-03-26,25.12
2008-03-27,25.05
2008-03-28,24.775
2008-03-31,25.695
2008-04-01,26.39
2008-04-02,25.94
2008-04-03,25.835
2008-04-04,26.13
2008-04-07,26.045
2008-04-08,25.905
2008-04-09,25.475
2008-04-10,26.085
2008-04-11,25.34
2008-04-14,25.405
2008-04-15,25.485
2008-04-16,25.85
2008-04-17,25.0
2008-04-18,25.88
2008-04-21,26.04
2008-04-22,25.45
2008-04-23,25.25
2008-04-24,25.505
2008-04-25,25.745
2008-04-28,26.265
2008-04-29,25.885
2008-04-30,25.875
2008-05-01,26.495
2008-05-02,26.755
2008-05-05,26.885
2008-05-06,27.03
2008-05-07,26.6
2008-05-08,27.1
2008-05-09,26.805
2008-05-12,27.225
2008-05-13,26.69
2008-05-14,26.285
2008-05-15,26.47
2008-05-16,26.53
2008-05-19,26.625
2008-05-20,26.92
2008-05-21,26.255
2008-05-22,26.825
2008-05-23,26.49
2008-05-27,26.795
2008-05-28,26.765
2008-05-29,27.665
2008-05-30,27.605
2008-06-02,27.295
2008-06-03,27.685
2008-06-04,28.085
2008-06-05,28.27
2008-06-06,27.43
2008-06-09,27.165
2008-06-10,27.08
2008-06-11,26.58
2008-06-12,26.36
2008-06-13,27.055
2008-06-16,27.14
2008-06-17,26.82
2008-06-18,26.725
2008-06-19,27.68
2008-06-20,27.33
2008-06-23,27.4
2008-06-24,27.28
2008-06-25,27.215
2008-06-26,26.51
2008-06-27,26.465
2008-06-30,26.47
2008-07-01,26.055
2008-07-02,25.605
2008-07-03,25.67
2008-07-07,25.825
2008-07-08,26.715
2008-07-09,26.9
2008-07-10,27.265
2008-07-11,26.815
2008-07-14,26.805
2008-07-15,27.5
2008-07-16,27.38
2008-07-17,27.635
2008-07-18,24.87
2008-07-21,24.83
2008-07-22,25.585
2008-07-23,26.29
2008-07-24,26.38
2008-07-25,27.29
2008-07-28,26.37
2008-07-29,26.955
2008-07-30,26.97
2008-07-31,26.95
2008-08-01,26.88
2008-08-04,26.92
2008-08-05,27.605
2008-08-06,28.05
2008-08-07,27.57
2008-08-08,28.35
2008-08-11,28.22
2008-08-12,28.535
2008-08-13,28.375
2008-08-14,28.35
2008-08-15,28.11
2008-08-18,27.85
2008-08-19,27.275
2008-08-20,27.315
2008-08-21,27.065
2008-08-22,27.2
2008-08-25,26.625
2008-08-26,26.97
2008-08-27,26.85
2008-08-28,26.585
2008-08-29,26.33
2008-09-02,25.255
2008-09-03,25.705
2008-09-04,25.005
2008-09-05,23.97
2008-09-08,23.55
2008-09-09,23.325
2008-09-10,23.38
2008-09-11,24.465
2008-09-12,23.99
2008-09-15,23.97
2008-09-16,24.805
2008-09-17,23.505
2008-09-18,23.57
2008-09-19,23.17
2008-09-22,22.395
2008-09-23,22.325
2008-09-24,23.295
2008-09-25,23.52
2008-09-26,24.375
2008-09-29,22.655
2008-09-30,22.79
2008-10-01,22.675
2008-10-02,22.375
2008-10-03,22.86
2008-10-06,21.045
2008-10-07,20.435
2008-10-08,20.435
2008-10-09,20.325
2008-10-10,18.69
2008-10-13,21.29
2008-10-14,20.67
2008-10-15,19.195
2008-10-16,20.63
2008-10-17,21.4
2008-10-20,23.225
2008-10-21,23.015
2008-10-22,23.13
2008-10-23,22.69
2008-10-24,21.695
2008-10-27,21.205
2008-10-28,22.405
2008-10-29,22.585
2008-10-30,23.415
2008-10-31,22.955
2008-11-03,23.7
2008-11-04,23.545
2008-11-05,22.51
2008-11-06,22.225
2008-11-07,22.48
2008-11-10,22.445
2008-11-11,22.035
2008-11-12,22.255
2008-11-13,23.685
2008-11-14,23.595
2008-11-17,22.95
2008-11-18,22.395
2008-11-19,21.645
2008-11-20,20.785
2008-11-21,20.665
2008-11-24,21.23
2008-11-25,22.085
2008-11-26,22.495
2008-11-28,22.395
2008-12-01,21.25
2008-12-02,22.095
2008-12-03,23.17
2008-12-04,22.8
2008-12-05,23.695
2008-12-08,23.24
2008-12-09,22.325
2008-12-10,22.895
2008-12-11,22.05
2008-12-12,22.5
2008-12-15,22.35
2008-12-16,23.72
2008-12-17,23.905
2008-12-18,24.36
2008-12-19,24.765
2008-12-22,25.15
2008-12-23,24.965
2008-12-24,25.1
2008-12-26,24.995
2008-12-29,24.87
2008-12-30,25.645
2008-12-31,25.715
2009-01-02,26.045
2009-01-05,25.495
2009-01-06,24.745
2009-01-07,24.3
2009-01-08,24.35
2009-01-09,24.02
2009-01-12,23.82
2009-01-13,24.21
2009-01-14,23.885
2009-01-15,24.065
2009-01-16,24.185
2009-01-20,23.68
2009-01-21,24.715
2009-01-22,24.375
2009-01-23,24.24
2009-01-26,24.155
2009-01-27,24.15
2009-01-28,25.195
2009-01-29,25.38
2009-01-30,25.34
2009-02-02,25.925
2009-02-03,26.38
2009-02-04,26.0
2009-02-05,26.03
2009-02-06,26.155
2009-02-09,25.69
2009-02-10,24.98
2009-02-11,24.945
2009-02-12,25.185
2009-02-13,25.165
2009-02-17,24.4
2009-02-18,24.8
2009-02-19,24.63
2009-02-20,25.01
2009-02-23,24.52
2009-02-24,25.125
2009-02-25,24.77
2009-02-26,23.62
2009-02-27,22.53
2009-03-02,22.195
2009-03-03,22.615
2009-03-04,22.745
2009-03-05,21.95
2009-03-06,22.06
2009-03-09,21.9
2009-03-10,22.235
2009-03-11,21.99
2009-03-12,22.195
2009-03-13,22.63
2009-03-16,22.155
2009-03-17,22.985
2009-03-18,22.48
2009-03-19,22.145
2009-03-20,22.16
2009-03-23,22.85
2009-03-24,22.225
2009-03-25,22.01
2009-03-26,21.875
2009-03-27,22.12
2009-03-30,22.75
2009-03-31,23.15
2009-04-01,22.685
2009-04-02,22.265
2009-04-03,23.385
2009-04-06,24.125
2009-04-07,23.68
2009-04-08,23.62
2009-04-09,23.75
2009-04-13,23.805
2009-04-14,23.36
2009-04-15,22.31
2009-04-16,22.415
2009-04-17,22.335
2009-04-20,21.85
2009-04-21,21.925
2009-04-22,23.1
2009-04-23,22.89
2009-04-24,22.82
2009-04-27,23.755
2009-04-28,23.77
2009-04-29,23.49
2009-04-30,22.75
2009-05-01,22.42
2009-05-04,22.425
2009-05-05,22.22
2009-05-06,22.005
2009-05-07,22.65
2009-05-08,21.97
2009-05-11,22.28
2009-05-12,22.27
2009-05-13,22.255
2009-05-14,22.08
2009-05-15,21.94
2009-05-18,21.645
2009-05-19,21.32
2009-05-20,21.14
2009-05-21,21.285
2009-05-22,21.195
2009-05-26,21.205
2009-05-27,20.675
2009-05-28,21.03
2009-05-29,21.44
2009-06-01,21.41
2009-06-02,21.495
2009-06-03,22.355
2009-06-04,22.44
2009-06-05,22.3
2009-06-08,22.26
2009-06-09,22.285
2009-06-10,22.15
2009-06-11,22.105
2009-06-12,22.4
2009-06-15,21.965
2009-06-16,22.075
2009-06-17,22.76
2009-06-18,23.285
2009-06-19,23.505
2009-06-22,23.165
2009-06-23,23.33
2009-06-24,23.29
2009-06-25,23.93
2009-06-26,23.745
2009-06-29,23.68
2009-06-30,23.39
2009-07-01,23.4
2009-07-02,22.985
2009-07-06,22.875
2009-07-07,22.625
2009-07-08,22.505
2009-07-09,22.305
2009-07-10,22.205
2009-07-13,22.595
2009-07-14,22.46
2009-07-15,22.945
2009-07-16,23.45
2009-07-17,23.895
2009-07-20,23.975
2009-07-21,24.245
2009-07-22,23.92
2009-07-23,24.165
2009-07-24,24.22
2009-07-27,24.47
2009-07-28,24.86
2009-07-29,24.895
2009-07-30,24.75
2009-07-31,24.5
2009-08-03,24.63
2009-08-04,23.915
2009-08-05,23.415
2009-08-06,22.765
2009-08-07,22.885
2009-08-10,22.995
2009-08-11,22.825
2009-08-12,22.965
2009-08-13,22.585
2009-08-14,22.44
2009-08-17,22.145
2009-08-18,22.13
2009-08-19,22.605
2009-08-20,23.02
2009-08-21,23.045
2009-08-24,22.98
2009-08-25,23.095
2009-08-26,23.1
2009-08-27,22.935
2009-08-28,22.63
2009-08-31,22.565
2009-09-01,22.58
2009-09-02,22.66
2009-09-03,22.75
2009-09-04,23.045
2009-09-08,23.395
2009-09-09,23.575
2009-09-10,23.16
2009-09-11,23.025
2009-09-14,23.285
2009-09-15,23.065
2009-09-16,23.15
2009-09-17,22.92
2009-09-18,22.88
2009-09-21,23.295
2009-09-22,23.03
2009-09-23,22.94
2009-09-24,23.03
2009-09-25,23.085
2009-09-28,23.54
2009-09-29,23.245
2009-09-30,23.25
2009-10-01,22.7
2009-10-02,22.25
2009-10-05,22.52
2009-10-06,22.865
2009-10-07,22.64
2009-10-08,22.615
2009-10-09,22.63
2009-10-12,22.565
2009-10-13,22.785
2009-10-14,23.035
2009-10-15,23.32
2009-10-16,23.075
2009-10-19,23.435
2009-10-20,23.065
2009-10-21,22.625
2009-10-22,22.26
2009-10-23,21.895
2009-10-26,21.73
2009-10-27,21.525
2009-10-28,21.27
2009-10-29,21.49
2009-10-30,21.29
2009-11-02,21.35
2009-11-03,21.875
2009-11-04,21.925
2009-11-05,22.725
2009-11-06,23.125
2009-11-09,23.27
2009-11-10,23.395
2009-11-11,23.55
2009-11-12,23.43
2009-11-13,23.515
2009-11-16,23.71
2009-11-17,23.725
2009-11-18,23.37
2009-11-19,23.265
2009-11-20,23.22
2009-11-23,23.475
2009-11-24,23.44
2009-11-25,23.505
2009-11-27,23.49
2009-11-30,23.085
2009-12-01,23.19
2009-12-02,23.25
2009-12-03,23.105
2009-12-04,23.295
2009-12-07,23.3
2009-12-08,23.055
2009-12-09,22.995
2009-12-10,23.14
2009-12-11,23.21
2009-12-14,23.495
2009-12-15,22.63
2009-12-16,21.6
2009-12-17,21.62
2009-12-18,21.4
2009-12-21,21.565
2009-12-22,21.605
2009-12-23,21.495
2009-12-24,21.51
2009-12-28,21.625
2009-12-29,21.75
2009-12-30,21.895
2009-12-31,21.645
2010-01-04,21.65
2010-01-05,21.615
2010-01-06,22.42
2010-01-07,22.44
2010-01-08,22.295
2010-01-11,22.465
2010-01-12,22.465
2010-01-13,22.765
2010-01-14,22.735
2010-01-15,22.8
2010-01-19,23.16
2010-01-20,23.025
2010-01-21,22.86
2010-01-22,23.045
2010-01-25,22.88
2010-01-26,22.46
2010-01-27,24.055
2010-01-28,23.765
2010-01-29,24.18
2010-02-01,23.905
2010-02-02,24.24
2010-02-03,23.77
2010-02-04,23.265
2010-02-05,23.195
2010-02-08,23.055
2010-02-09,23.14
2010-02-10,23.0
2010-02-11,23.375
2010-02-12,23.47
2010-02-16,23.39
2010-02-17,24.3
2010-02-18,24.735
2010-02-19,24.42
2010-02-22,23.9
2010-02-23,23.695
2010-02-24,23.77
2010-02-25,23.685
2010-02-26,23.79
2010-03-01,23.74
2010-03-02,23.74
2010-03-03,23.78
2010-03-04,23.54
2010-03-05,23.785
2010-03-08,23.5
2010-03-09,23.695
2010-03-10,23.635
2010-03-11,23.55
2010-03-12,23.72
2010-03-15,23.74
2010-03-16,23.765
2010-03-17,23.575
2010-03-18,23.685
2010-03-19,23.905
2010-03-22,24.065
2010-03-23,23.875
2010-03-24,23.655
2010-03-25,22.98
2010-03-26,22.665
2010-03-29,22.92
2010-03-30,22.8
2010-03-31,22.74
2010-04-01,22.8
2010-04-05,22.925
2010-04-06,22.755
2010-04-07,22.71
2010-04-08,22.92
2010-04-09,22.89
2010-04-12,22.925
2010-04-13,23.23
2010-04-14,23.03
2010-04-15,22.69
2010-04-16,22.88
2010-04-19,22.9
2010-04-20,22.505
2010-04-21,20.38
2010-04-22,20.305
2010-04-23,20.87
2010-04-26,20.285
2010-04-27,20.185
2010-04-28,20.325
2010-04-29,20.165
2010-04-30,19.86
2010-05-03,19.87
2010-05-04,19.275
2010-05-05,20.11
2010-05-06,19.655
2010-05-07,19.23
2010-05-10,19.2
2010-05-11,19.645
2010-05-12,20.08
2010-05-13,19.745
2010-05-14,18.84
2010-05-17,19.11
2010-05-18,19.15
2010-05-19,19.51
2010-05-20,18.475
2010-05-21,18.27
2010-05-24,18.175
2010-05-25,18.085
2010-05-26,17.45
2010-05-27,18.13
2010-05-28,17.97
2010-06-01,17.725
2010-06-02,17.99
2010-06-03,17.93
2010-06-04,17.335
2010-06-07,17.21
2010-06-08,16.73
2010-06-09,16.47
2010-06-10,16.845
2010-06-11,17.26
2010-06-14,17.29
2010-06-15,17.765
2010-06-16,17.9
2010-06-17,17.98
2010-06-18,18.025
2010-06-21,18.04
2010-06-22,17.98
2010-06-23,18.11
2010-06-24,17.83
2010-06-25,18.185
2010-06-28,17.9
2010-06-29,17.495
2010-06-30,17.16
2010-07-01,17.075
2010-07-02,17.465
2010-07-06,17.355
2010-07-07,17.455
2010-07-08,17.42
2010-07-09,17.37
2010-07-12,17.235
2010-07-13,17.62
2010-07-14,17.39
2010-07-15,17.455
2010-07-16,15.94
2010-07-19,16.455
2010-07-20,16.47
2010-07-21,16.455
2010-07-22,16.88
2010-07-23,16.715
2010-07-26,16.7
2010-07-27,16.71
2010-07-28,16.715
2010-07-29,16.705
2010-07-30,16.71
2010-08-02,17.215
2010-08-03,17.21
2010-08-04,17.635
2010-08-05,17.85
2010-08-06,17.9
2010-08-09,17.865
2010-08-10,17.905
2010-08-11,17.28
2010-08-12,17.365
2010-08-13,17.165
2010-08-16,16.92
2010-08-17,17.075
2010-08-18,16.89
2010-08-19,16.575
2010-08-20,16.345
2010-08-23,16.425
2010-08-24,16.06
2010-08-25,16.405
2010-08-26,16.065
2010-08-27,16.27
2010-08-30,16.22
2010-08-31,15.915
2010-09-01,16.515
2010-09-02,16.575
2010-09-03,17.02
2010-09-07,16.58
2010-09-08,16.95
2010-09-09,17.03
2010-09-10,17.17
2010-09-13,17.2
2010-09-14,17.24
2010-09-15,17.41
2010-09-16,17.485
2010-09-17,17.295
2010-09-20,17.8
2010-09-21,17.955
2010-09-22,17.985
2010-09-23,17.89
2010-09-24,18.275
2010-09-27,17.92
2010-09-28,18.1
2010-09-29,17.92
2010-09-30,17.815
2010-10-01,17.9
2010-10-04,17.695
2010-10-05,18.02
2010-10-06,17.865
2010-10-07,18.12
2010-10-08,18.19
2010-10-11,18.09
2010-10-12,18.06
2010-10-13,18.355
2010-10-14,18.39
2010-10-15,18.875
2010-10-18,18.79
2010-10-19,18.34
2010-10-20,19.2
2010-10-21,19.535
2010-10-22,19.535
2010-10-25,19.77
2010-10-26,19.79
2010-10-27,19.735
2010-10-28,19.925
2010-10-29,19.885
2010-11-01,20.105
2010-11-02,20.14
2010-11-03,19.88
2010-11-04,19.805
2010-11-05,19.46
2010-11-08,19.4
2010-11-09,19.21
2010-11-10,19.365
2010-11-11,19.475
2010-11-12,18.89
2010-11-15,19.02
2010-11-16,18.93
2010-11-17,18.85
2010-11-18,19.0
2010-11-19,19.035
2010-11-22,18.845
2010-11-23,18.49
2010-11-24,18.895
2010-11-26,18.75
2010-11-29,18.525
2010-11-30,18.295
2010-12-01,18.615
2010-12-02,18.82
2010-12-03,18.615
2010-12-06,18.35
2010-12-07,18.57
2010-12-08,18.66
2010-12-09,18.485
2010-12-10,18.815
2010-12-13,18.425
2010-12-14,18.595
2010-12-15,18.66
2010-12-16,18.91
2010-12-17,18.65
2010-12-20,18.59
2010-12-21,18.275
2010-12-22,18.175
2010-12-23,18.115
2010-12-27,18.215
2010-12-28,18.13
2010-12-29,18.205
2010-12-30,18.135
2010-12-31,18.115
2011-01-03,18.285
2011-01-04,18.495
2011-01-05,18.76
2011-01-06,18.77
2011-01-07,18.76
2011-01-10,18.335
2011-01-11,18.57
2011-01-12,18.9
2011-01-13,19.045
2011-01-14,19.1
2011-01-18,19.35
2011-01-19,19.05
2011-01-20,19.045
2011-01-21,19.095
2011-01-24,19.14
2011-01-25,19.07
2011-01-26,19.92
2011-01-27,19.485
2011-01-28,19.095
2011-01-31,19.2
2011-02-01,19.25
2011-02-02,19.735
2011-02-03,19.365
2011-02-04,19.395
2011-02-07,19.175
2011-02-08,19.4
2011-02-09,19.065
2011-02-10,19.14
2011-02-11,19.155
2011-02-14,19.275
2011-02-15,19.475
2011-02-16,19.695
2011-02-17,19.675
2011-02-18,19.65
2011-02-22,19.26
2011-02-23,19.01
2011-02-24,19.385
2011-02-25,19.515
2011-02-28,19.48
2011-03-01,19.275
2011-03-02,19.53
2011-03-03,20.0
2011-03-04,20.38
2011-03-07,20.53
2011-03-08,20.63
2011-03-09,20.81
2011-03-10,20.48
2011-03-11,20.425
2011-03-14,20.39
2011-03-15,19.905
2011-03-16,19.905
2011-03-17,20.17
2011-03-18,20.095
2011-03-21,20.14
2011-03-22,20.24
2011-03-23,20.685
2011-03-24,21.0
2011-03-25,21.045
2011-03-28,20.9
2011-03-29,21.035
2011-03-30,21.25
2011-03-31,21.235
2011-04-01,21.33
2011-04-04,21.38
2011-04-05,20.93
2011-04-06,20.87
2011-04-07,20.75
2011-04-08,20.635
2011-04-11,20.61
2011-04-12,20.565
2011-04-13,20.67
2011-04-14,20.925
2011-04-15,20.855
2011-04-18,20.175
2011-04-19,20.305
2011-04-20,20.41
2011-04-21,19.545
2011-04-25,19.6
2011-04-26,19.76
2011-04-27,19.95
2011-04-28,19.67
2011-04-29,19.475
2011-05-02,20.375
2011-05-03,20.855
2011-05-04,20.685
2011-05-05,20.305
2011-05-06,20.53
2011-05-09,20.62
2011-05-10,20.5
2011-05-11,20.415
2011-05-12,20.65
2011-05-13,20.625
2011-05-16,20.285
2011-05-17,20.225
2011-05-18,20.17
2011-05-19,20.1
2011-05-20,20.495
2011-05-23,20.21
2011-05-24,20.22
2011-05-25,20.25
2011-05-26,20.455
2011-05-27,20.605
2011-05-31,20.865
2011-06-01,20.655
2011-06-02,20.7
2011-06-03,20.54
2011-06-06,20.475
2011-06-07,20.51
2011-06-08,20.595
2011-06-09,20.59
2011-06-10,20.11
2011-06-13,19.97
2011-06-14,19.9
2011-06-15,19.825
2011-06-16,19.82
2011-06-17,19.78
2011-06-20,20.05
2011-06-21,19.94
2011-06-22,20.04
2011-06-23,20.105
2011-06-24,19.875
2011-06-27,20.07
2011-06-28,20.46
2011-06-29,20.68
2011-06-30,20.71
2011-07-01,20.945
2011-07-05,20.805
2011-07-06,21.11
2011-07-07,21.335
2011-07-08,21.205
2011-07-11,20.62
2011-07-12,20.775
2011-07-13,20.815
2011-07-14,20.645
2011-07-15,20.49
2011-07-18,20.395
2011-07-19,20.83
2011-07-20,20.905
2011-07-21,21.49
2011-07-22,21.6
2011-07-25,21.325
2011-07-26,21.07
2011-07-27,21.485
2011-07-28,21.585
2011-07-29,21.21
2011-08-01,20.775
2011-08-02,20.195
2011-08-03,19.87
2011-08-04,18.745
2011-08-05,18.915
2011-08-08,18.425
2011-08-09,19.07
2011-08-10,17.66
2011-08-11,18.45
2011-08-12,18.715
2011-08-15,18.63
2011-08-16,19.42
2011-08-17,19.2
2011-08-18,18.655
2011-08-19,18.58
2011-08-22,18.895
2011-08-23,19.52
2011-08-24,19.065
2011-08-25,19.04
2011-08-26,19.335
2011-08-29,19.89
2011-08-30,20.07
2011-08-31,19.9
2011-09-01,19.8
2011-09-02,19.42
2011-09-06,19.34
2011-09-07,19.895
2011-09-08,19.765
2011-09-09,18.92
2011-09-12,18.99
2011-09-13,19.115
2011-09-14,19.71
2011-09-15,19.9
2011-09-16,20.18
2011-09-19,20.035
2011-09-20,20.425
2011-09-21,19.845
2011-09-22,19.2
2011-09-23,19.205
2011-09-26,19.775
2011-09-27,20.015
2011-09-28,19.61
2011-09-29,19.595
2011-09-30,19.4
2011-10-03,18.94
2011-10-04,18.93
2011-10-05,19.565
2011-10-06,19.815
2011-10-07,19.655
2011-10-10,20.295
2011-10-11,19.835
2011-10-12,20.165
2011-10-13,20.33
2011-10-14,20.2
2011-10-17,19.88
2011-10-18,20.39
2011-10-19,20.405
2011-10-20,20.535
2011-10-21,20.735
2011-10-24,20.985
2011-10-25,20.505
2011-10-26,20.745
2011-10-27,20.985
2011-10-28,21.385
2011-10-31,20.87
2011-11-01,20.53
2011-11-02,20.515
2011-11-03,20.465
2011-11-04,20.335
2011-11-07,20.55
2011-11-08,20.625
2011-11-09,19.94
2011-11-10,20.09
2011-11-11,20.525
2011-11-14,20.235
2011-11-15,20.33
2011-11-16,20.08
2011-11-17,19.75
2011-11-18,19.94
2011-11-21,18.16
2011-11-22,19.4
2011-11-23,19.86
2011-11-25,19.585
2011-11-28,19.895
2011-11-29,19.64
2011-11-30,19.895
2011-12-01,19.83
2011-12-02,19.725
2011-12-05,20.07
2011-12-06,19.885
2011-12-07,19.715
2011-12-08,19.375
2011-12-09,19.525
2011-12-12,19.515
2011-12-13,19.29
2011-12-14,19.405
2011-12-15,19.235
2011-12-16,18.59
2011-12-19,18.735
2011-12-20,19.055
2011-12-21,19.425
2011-12-22,19.34
2011-12-23,19.65
2011-12-27,19.9
2011-12-28,19.935
2011-12-29,20.255
2011-12-30,20.42
2012-01-03,20.92
2012-01-04,20.99
2012-01-05,21.28
2012-01-06,21.38
2012-01-09,21.365
2012-01-10,22.115
2012-01-11,22.2
2012-01-12,22.455
2012-01-13,22.405
2012-01-17,23.13
2012-01-18,23.76
2012-01-19,23.605
2012-01-20,23.715
2012-01-23,23.69
2012-01-24,23.84
2012-01-25,24.17
2012-01-26,24.29
2012-01-27,24.335
2012-01-30,24.305
2012-01-31,24.42
2012-02-01,24.56
2012-02-02,24.68
2012-02-03,27.34
2012-02-06,28.01
2012-02-07,27.535
2012-02-08,27.12
2012-02-09,26.865
2012-02-10,26.86
2012-02-13,27.445
2012-02-14,27.235
2012-02-15,27.395
2012-02-16,27.44
2012-02-17,23.44
2012-02-21,22.32
2012-02-22,22.225
2012-02-23,22.595
2012-02-24,22.58
2012-02-27,22.625
2012-02-28,23.005
2012-02-29,22.75
2012-03-01,23.31
2012-03-02,23.505
2012-03-05,23.085
2012-03-06,22.945
2012-03-07,22.72
2012-03-08,23.255
2012-03-09,23.07
2012-03-12,23.085
2012-03-13,23.4
2012-03-14,23.325
2012-03-15,23.565
2012-03-16,23.355
2012-03-19,23.535
2012-03-20,23.465
2012-03-21,23.155
2012-03-22,23.325
2012-03-23,23.43
2012-03-26,23.605
2012-03-27,23.64
2012-03-28,23.7
2012-03-29,23.88
2012-03-30,24.43
2012-04-02,24.345
2012-04-03,24.045
2012-04-04,23.615
2012-04-05,23.885
2012-04-09,23.29
2012-04-10,22.88
2012-04-11,22.705
2012-04-12,22.86
2012-04-13,22.74
2012-04-16,22.92
2012-04-17,23.37
2012-04-18,23.32
2012-04-19,26.11
2012-04-20,25.535
2012-04-23,25.71
2012-04-24,26.175
2012-04-25,26.245
2012-04-26,26.325
2012-04-27,26.07
2012-04-30,26.01
2012-05-01,25.73
2012-05-02,25.945
2012-05-03,25.695
2012-05-04,25.165
2012-05-07,24.98
2012-05-08,24.745
2012-05-09,25.325
2012-05-10,25.575
2012-05-11,25.99
2012-05-14,26.225
2012-05-15,25.955
2012-05-16,25.82
2012-05-17,25.125
2012-05-18,24.975
2012-05-21,25.44
2012-05-22,25.215
2012-05-23,25.1
2012-05-24,25.3
2012-05-25,25.24
2012-05-29,25.455
2012-05-30,25.285
2012-05-31,25.01
2012-06-01,24.365
2012-06-04,24.615
2012-06-05,24.275
2012-06-06,24.575
2012-06-07,24.535
2012-06-08,24.825
2012-06-11,24.75
2012-06-12,24.695
2012-06-13,24.55
2012-06-14,25.045
2012-06-15,25.15
2012-06-18,25.1
2012-06-19,25.355
2012-06-20,25.35
2012-06-21,24.935
2012-06-22,25.29
2012-06-25,25.135
2012-06-26,25.2
2012-06-27,25.615
2012-06-28,25.045
2012-06-29,25.605
2012-07-02,25.82
2012-07-03,26.0
2012-07-05,25.75
2012-07-06,25.475
2012-07-09,25.755
2012-07-10,25.8
2012-07-11,25.335
2012-07-12,25.32
2012-07-13,25.625
2012-07-16,25.93
2012-07-17,26.42
2012-07-18,26.565
2012-07-19,26.915
2012-07-20,26.52
2012-07-23,25.925
2012-07-24,25.565
2012-07-25,25.595
2012-07-26,25.85
2012-07-27,27.705
2012-07-30,27.81
2012-07-31,27.185
2012-08-01,26.81
2012-08-02,28.68
2012-08-03,28.435
2012-08-06,28.795
2012-08-07,28.78
2012-08-08,28.38
2012-08-09,28.455
2012-08-10,28.375
2012-08-13,28.3
2012-08-14,28.78
2012-08-15,28.975
2012-08-16,28.36
2012-08-17,28.375
2012-08-20,28.25
2012-08-21,28.41
2012-08-22,28.245
2012-08-23,28.04
2012-08-24,28.655
2012-08-27,28.57
2012-08-28,28.8
2012-08-29,28.9
2012-08-30,28.755
2012-08-31,28.905
2012-09-04,29.02
2012-09-05,29.215
2012-09-06,29.735
2012-09-07,29.62
2012-09-10,29.84
2012-09-11,29.665
2012-09-12,29.88
2012-09-13,30.115
2012-09-14,31.005
2012-09-17,32.89
2012-09-18,33.355
2012-09-19,33.595
2012-09-20,33.64
2012-09-21,33.87
2012-09-24,33.56
2012-09-25,33.61
2012-09-26,32.995
2012-09-27,33.33
2012-09-28,33.18
2012-10-01,33.69
2012-10-02,34.56
2012-10-03,35.02
2012-10-04,34.84
2012-10-05,34.655
2012-10-08,34.92
2012-10-09,34.38
2012-10-10,33.82
2012-10-11,33.96
2012-10-12,33.995
2012-10-15,33.68
2012-10-16,34.215
2012-10-17,34.76
2012-10-18,34.165
2012-10-19,33.33
2012-10-22,33.2
2012-10-23,32.535
2012-10-24,34.165
2012-10-25,33.7
2012-10-26,33.485
2012-10-31,33.6
2012-11-01,33.755
2012-11-02,33.465
2012-11-05,33.51
2012-11-06,33.715
2012-11-07,32.76
2012-11-08,32.47
2012-11-09,32.52
2012-11-12,36.96
2012-11-13,36.365
2012-11-14,36.145
2012-11-15,36.495
2012-11-16,37.27
2012-11-19,37.39
2012-11-20,37.91
2012-11-21,37.75
2012-11-23,37.785
2012-11-26,37.75
2012-11-27,37.31
2012-11-28,37.465
2012-11-29,37.655
2012-11-30,37.55
2012-12-03,37.285
2012-12-04,37.1
2012-12-05,37.225
2012-12-06,36.895
2012-12-07,36.965
2012-12-10,37.085
2012-12-11,38.175
2012-12-12,38.07
2012-12-13,37.36
2012-12-14,37.075
2012-12-17,37.7
2012-12-18,37.93
2012-12-19,37.38
2012-12-20,36.855
2012-12-21,36.39
2012-12-24,36.33
2012-12-26,36.215
2012-12-27,36.335
2012-12-28,36.155
2012-12-31,36.67
2013-01-02,37.47
2013-01-03,37.435
2013-01-04,37.87
2013-01-07,38.44
2013-01-08,38.675
2013-01-09,38.92
2013-01-10,38.955
2013-01-11,39.035
2013-01-14,38.815
2013-01-15,38.68
2013-01-16,38.605
2013-01-17,38.795
2013-01-18,39.13
2013-01-22,38.885
2013-01-23,38.465
2013-01-24,39.205
2013-01-25,39.645
2013-01-28,39.44
2013-01-29,39.92
2013-01-30,39.8
2013-01-31,39.47
2013-02-01,40.51
2013-02-04,39.625
2013-02-05,40.49
2013-02-06,39.87
2013-02-07,40.345
2013-02-08,40.88
2013-02-11,40.4
2013-02-12,40.86
2013-02-13,41.4
2013-02-14,41.58
2013-02-15,41.55
2013-02-19,42.24
2013-02-20,41.91
2013-02-21,41.5
2013-02-22,42.43
2013-02-25,42.145
2013-02-26,42.26
2013-02-27,42.95
2013-02-28,42.7799
2013-03-01,43.4
2013-03-04,43.85
2013-03-05,44.93
2013-03-06,45.37
2013-03-07,44.99
2013-03-08,45.4
2013-03-11,45.92
2013-03-12,46.1
2013-03-13,45.86
2013-03-14,45.85
2013-03-15,45.14
2013-03-18,44.79
2013-03-19,44.38
2013-03-20,44.52
2013-03-21,44.58
2013-03-22,45.5
2013-03-25,44.99
2013-03-26,45.71
2013-03-27,47.68
2013-03-28,48.97
2013-04-01,47.99
2013-04-02,48.2
2013-04-03,47.66
2013-04-04,47.67
2013-04-05,47.39
2013-04-08,47.24
2013-04-09,48.27
2013-04-10,49.72
2013-04-11,51.63
2013-04-12,51.91
2013-04-15,50.75
2013-04-16,51.99
2013-04-17,52.03
2013-04-18,50.92
2013-04-19,53.12
2013-04-22,53.92
2013-04-23,53.32
2013-04-24,50.44
2013-04-25,51.41
2013-04-26,51.35
2013-04-29,51.09
2013-04-30,50.65
2013-05-01,50.14
2013-05-02,52.4
2013-05-03,55.04
2013-05-06,54.42
2013-05-07,53.09
2013-05-08,52.39
2013-05-09,52.71
2013-05-10,52.89
2013-05-13,54.49
2013-05-14,56.2
2013-05-15,56.4
2013-05-16,54.94
2013-05-17,56.21
2013-05-20,55.73
2013-05-21,56.5
2013-05-22,55.87
2013-05-23,55.45
2013-05-24,55.76
2013-05-28,56.17
2013-05-29,55.72
2013-05-30,55.79
2013-05-31,54.75
2013-06-03,53.0
2013-06-04,52.39
2013-06-05,50.17
2013-06-06,51.32
2013-06-07,52.88
2013-06-10,52.38
2013-06-11,52.48
2013-06-12,51.24
2013-06-13,52.03
2013-06-14,52.22
2013-06-17,51.03
2013-06-18,51.89
2013-06-19,50.71
2013-06-20,49.4
2013-06-21,48.85
2013-06-24,49.02
2013-06-25,49.88
2013-06-26,51.38
2013-06-27,51.02
2013-06-28,51.47
2013-07-01,51.64
2013-07-02,52.23
2013-07-03,51.98
2013-07-05,53.3
2013-07-08,53.28
2013-07-09,54.42
2013-07-10,55.29
2013-07-11,55.82
2013-07-12,57.2
2013-07-15,57.58
2013-07-16,57.13
2013-07-17,57.73
2013-07-18,58.18
2013-07-19,60.06
2013-07-22,59.68
2013-07-23,59.11
2013-07-24,59.85
2013-07-25,60.82
2013-07-26,62.5
2013-07-29,61.9
2013-07-30,61.77
2013-07-31,61.42
2013-08-01,61.98
2013-08-02,61.69
2013-08-05,60.86
2013-08-06,59.95
2013-08-07,60.28
2013-08-08,59.37
2013-08-09,59.34
