date,close_price
1998-01-02,8.63599
1998-01-05,8.61469
1998-01-06,8.55992
1998-01-07,8.61469
1998-01-08,8.55992
1998-01-09,8.55992
1998-01-12,8.44428
1998-01-13,8.57817
1998-01-14,8.63599
1998-01-15,8.63599
1998-01-16,8.65425
1998-01-20,8.6725
1998-01-21,8.71206
1998-01-22,8.55992
1998-01-23,8.42603
1998-01-26,8.42603
1998-01-27,8.63599
1998-01-28,8.76684
1998-01-29,8.82465
1998-01-30,8.75954
1998-02-02,8.79985
1998-02-03,8.62311
1998-02-04,8.64481
1998-02-05,8.68202
1998-02-06,8.62311
1998-02-09,8.79985
1998-02-10,8.81846
1998-02-11,8.70062
1998-02-12,8.72233
1998-02-13,8.66342
1998-02-17,8.68202
1998-02-18,8.64481
1998-02-19,8.50838
1998-02-20,8.39056
1998-02-23,8.33474
1998-02-24,8.33474
1998-02-25,8.44947
1998-02-26,8.44947
1998-02-27,8.33474
1998-03-02,8.25722
1998-03-03,8.29443
1998-03-04,8.37195
1998-03-05,8.33474
1998-03-06,8.41226
1998-03-09,8.41226
1998-03-10,8.33474
1998-03-11,8.37195
1998-03-12,8.6045
1998-03-13,8.54559
1998-03-16,8.52699
1998-03-17,8.46807
1998-03-18,8.50838
1998-03-19,8.44947
1998-03-20,8.46807
1998-03-23,8.48978
1998-03-24,8.35334
1998-03-25,8.48978
1998-03-26,8.33474
1998-03-27,8.39056
1998-03-30,8.37195
1998-03-31,8.44947
1998-04-01,8.6045
1998-04-02,8.5859
1998-04-03,8.66342
1998-04-06,8.62311
1998-04-07,8.54559
1998-04-08,8.52699
1998-04-09,8.5673
1998-04-13,8.64481
1998-04-14,8.62311
1998-04-15,8.6045
1998-04-16,8.72233
1998-04-17,8.70062
1998-04-20,8.64481
1998-04-21,8.66342
1998-04-22,8.62311
1998-04-23,8.6045
1998-04-24,8.54559
1998-04-27,8.39056
1998-04-28,8.43087
1998-04-29,8.44947
1998-04-30,8.62311
1998-05-01,8.77649
1998-05-04,8.65947
1998-05-05,8.73854
1998-05-06,8.65947
1998-05-07,8.63733
1998-05-08,8.58041
1998-05-11,8.46022
1998-05-12,8.34319
1998-05-13,8.36217
1998-05-14,8.40013
1998-05-15,8.53929
1998-05-18,8.58041
1998-05-19,8.59937
1998-05-20,8.38115
1998-05-21,8.38115
1998-05-22,8.36217
1998-05-26,8.14395
1998-05-27,8.10599
1998-05-28,8.12497
1998-05-29,8.16293
1998-06-01,8.12497
1998-06-02,8.46022
1998-06-03,8.42227
1998-06-04,8.40013
1998-06-05,8.4792
1998-06-08,8.59937
1998-06-09,8.58041
1998-06-10,8.55827
1998-06-11,8.52031
1998-06-12,8.44124
1998-06-15,8.26413
1998-06-16,8.42227
1998-06-17,8.34319
1998-06-18,8.30208
1998-06-19,8.26413
1998-06-22,8.32106
1998-06-23,8.20404
1998-06-24,8.22302
1998-06-25,8.14395
1998-06-26,8.16293
1998-06-29,8.16293
1998-06-30,8.14395
1998-07-01,8.16293
1998-07-02,8.12497
1998-07-06,8.14395
1998-07-07,8.20404
1998-07-08,8.26413
1998-07-09,8.30208
1998-07-10,8.20404
1998-07-13,8.18506
1998-07-14,8.22302
1998-07-15,8.36217
1998-07-16,8.52031
1998-07-17,8.4792
1998-07-20,8.52031
1998-07-21,8.59937
1998-07-22,8.52031
1998-07-23,8.46022
1998-07-24,8.55827
1998-07-27,8.4792
1998-07-28,8.34319
1998-07-29,8.08386
1998-07-30,8.18506
1998-07-31,8.03969
1998-08-03,7.9589
1998-08-04,7.79733
1998-08-05,7.8975
1998-08-06,8.07847
1998-08-07,8.48239
1998-08-10,8.463
1998-08-11,8.3402
1998-08-12,8.38221
1998-08-13,8.30143
1998-08-14,8.25942
1998-08-17,8.22065
1998-08-18,8.28204
1998-08-19,8.15924
1998-08-20,8.22065
1998-08-21,8.09785
1998-08-24,8.07847
1998-08-25,8.30143
1998-08-26,8.12047
1998-08-27,7.87812
1998-08-28,7.85549
1998-08-31,7.39341
1998-09-01,7.71655
1998-09-02,7.63576
1998-09-03,8.07847
1998-09-04,8.07847
1998-09-08,8.22065
1998-09-09,8.3402
1998-09-10,8.22065
1998-09-11,8.03969
1998-09-14,8.12047
1998-09-15,8.01707
1998-09-16,8.03969
1998-09-17,8.07847
1998-09-18,8.60517
1998-09-21,8.56318
1998-09-22,8.74413
1998-09-23,8.84753
1998-09-24,8.68596
1998-09-25,8.66335
1998-09-28,8.48239
1998-09-29,8.58256
1998-09-30,8.62457
1998-10-01,8.463
1998-10-02,8.44361
1998-10-05,8.15924
1998-10-06,7.77472
1998-10-07,7.27062
1998-10-08,6.94748
1998-10-09,7.4742
1998-10-12,7.55498
1998-10-13,7.43219
1998-10-14,7.31262
1998-10-15,7.53236
1998-10-16,7.4742
1998-10-19,7.51297
1998-10-20,7.53236
1998-10-21,7.59375
1998-10-22,7.55498
1998-10-23,7.55498
1998-10-26,7.57437
1998-10-27,7.4742
1998-10-28,7.53236
1998-10-29,7.55498
1998-10-30,7.49047
1998-11-02,7.67583
1998-11-03,7.65597
1998-11-04,7.82147
1998-11-05,7.75858
1998-11-06,7.75858
1998-11-09,7.71555
1998-11-10,7.65597
1998-11-11,7.6328
1998-11-12,7.65597
1998-11-13,7.65597
1998-11-16,7.65597
1998-11-17,7.67583
1998-11-18,7.77844
1998-11-19,7.67583
1998-11-20,7.67583
1998-11-23,7.61294
1998-11-24,7.57322
1998-11-25,7.57322
1998-11-27,7.4673
1998-11-30,7.49047
1998-12-01,7.77844
1998-12-02,7.71555
1998-12-03,7.77844
1998-12-04,7.75858
1998-12-07,7.73872
1998-12-08,7.42758
1998-12-09,7.61294
1998-12-10,7.65597
1998-12-11,7.75858
1998-12-14,7.55005
1998-12-15,7.75858
1998-12-16,7.51034
1998-12-17,7.61294
1998-12-18,7.86118
1998-12-21,8.15247
1998-12-22,8.04655
1998-12-23,8.1293
1998-12-24,8.17233
1998-12-28,8.31796
1998-12-29,8.52318
1998-12-30,8.40071
1998-12-31,8.56621
1999-01-04,8.52318
1999-01-05,8.77143
1999-01-06,8.60594
1999-01-07,8.35769
1999-01-08,8.21204
1999-01-11,8.08957
1999-01-12,8.02669
1999-01-13,8.10944
1999-01-14,8.35769
1999-01-15,8.31796
1999-01-19,8.35769
1999-01-20,8.42057
1999-01-21,8.44043
1999-01-22,8.40071
1999-01-25,8.44043
1999-01-26,8.52318
1999-01-27,8.58608
1999-01-28,8.60594
1999-01-29,8.4589
1999-02-01,8.4183
1999-02-02,8.33371
1999-02-03,8.24912
1999-02-04,8.16453
1999-02-05,8.16453
1999-02-08,8.18483
1999-02-09,8.24912
1999-02-10,8.16453
1999-02-11,8.12055
1999-02-12,8.07994
1999-02-16,7.99535
1999-02-17,7.95137
1999-02-18,7.97167
1999-02-19,7.99535
1999-02-22,8.16453
1999-02-23,8.39461
1999-02-24,8.24912
1999-02-25,8.10024
1999-02-26,7.82617
1999-03-01,7.97167
1999-03-02,8.10024
1999-03-03,8.16453
1999-03-04,8.26942
1999-03-05,8.31002
1999-03-08,7.99535
1999-03-09,7.93106
1999-03-10,7.67729
1999-03-11,7.67729
1999-03-12,7.78219
1999-03-15,7.80249
1999-03-16,7.63331
1999-03-17,7.67729
1999-03-18,7.6976
1999-03-19,7.59271
1999-03-22,7.61301
1999-03-23,7.657
1999-03-24,7.657
1999-03-25,7.37955
1999-03-26,7.31864
1999-03-29,7.35925
1999-03-30,7.29496
1999-03-31,7.23405
1999-04-01,7.16976
1999-04-05,7.23405
1999-04-06,7.31864
1999-04-07,7.31864
1999-04-08,7.27466
1999-04-09,7.23405
1999-04-12,7.35925
1999-04-13,7.33894
1999-04-14,7.63331
1999-04-15,8.07994
1999-04-16,8.14085
1999-04-19,8.31002
1999-04-20,8.22544
1999-04-21,8.35401
1999-04-22,8.35401
1999-04-23,8.26942
1999-04-26,8.31002
1999-04-27,8.26942
1999-04-28,8.24912
1999-04-29,8.22544
1999-04-30,8.14054
1999-05-03,8.14054
1999-05-04,8.14054
1999-05-05,7.98813
1999-05-06,8.22715
1999-05-07,8.42113
1999-05-10,8.29297
1999-05-11,8.40035
1999-05-12,8.42113
1999-05-13,8.46617
1999-05-14,8.48694
1999-05-17,8.48694
1999-05-18,8.37956
1999-05-19,8.55276
1999-05-20,8.79178
1999-05-21,8.81257
1999-05-24,8.79178
1999-05-25,8.50773
1999-05-26,8.55276
1999-05-27,8.53199
1999-05-28,8.55276
1999-06-01,8.44538
1999-06-02,8.40035
1999-06-03,8.33453
1999-06-04,8.46617
1999-06-07,8.44538
1999-06-08,8.37956
1999-06-09,8.40035
1999-06-10,8.42113
1999-06-11,8.33453
1999-06-14,8.07472
1999-06-15,8.03316
1999-06-16,7.92577
1999-06-17,7.96734
1999-06-18,7.75257
1999-06-21,7.70754
1999-06-22,7.70754
1999-06-23,7.62093
1999-06-24,7.66597
1999-06-25,7.60015
1999-06-28,7.75257
1999-06-29,7.83917
1999-06-30,8.03316
1999-07-01,8.01237
1999-07-02,7.96734
1999-07-06,7.96734
1999-07-07,7.98813
1999-07-08,8.01237
1999-07-09,7.90152
1999-07-12,7.83917
1999-07-13,7.85996
1999-07-14,7.66597
1999-07-15,7.88074
1999-07-16,8.09898
1999-07-19,7.88074
1999-07-20,7.81492
1999-07-21,7.75257
1999-07-22,7.72832
1999-07-23,7.70754
1999-07-26,7.66597
1999-07-27,7.79414
1999-07-28,7.79414
1999-07-29,7.77335
1999-07-30,7.84091
1999-08-02,7.81958
1999-08-03,7.86579
1999-08-04,7.66319
1999-08-05,7.62053
1999-08-06,7.55301
1999-08-09,7.44282
1999-08-10,7.33264
1999-08-11,6.93099
1999-08-12,7.17624
1999-08-13,7.24377
1999-08-16,7.04118
1999-08-17,6.99853
1999-08-18,6.9772
1999-08-19,6.90967
1999-08-20,6.90967
1999-08-23,7.19758
1999-08-24,7.21889
1999-08-25,7.15491
1999-08-26,7.15491
1999-08-27,7.01985
1999-08-30,7.01985
1999-08-31,7.15491
1999-09-01,7.28643
1999-09-02,7.19758
1999-09-03,7.13004
1999-09-07,7.24377
1999-09-08,7.2651
1999-09-09,7.10871
1999-09-10,7.17624
1999-09-13,7.28643
1999-09-14,7.10871
1999-09-15,7.08739
1999-09-16,7.10871
1999-09-17,7.21889
1999-09-20,7.10871
1999-09-21,7.08739
1999-09-22,7.08739
1999-09-23,7.13004
1999-09-24,7.10871
1999-09-27,7.01985
1999-09-28,7.06606
1999-09-29,7.06606
1999-09-30,7.10871
1999-10-01,7.06606
1999-10-04,7.08739
1999-10-05,7.01985
1999-10-06,6.95232
1999-10-07,6.95232
1999-10-08,6.95232
1999-10-11,6.88834
1999-10-12,6.82081
1999-10-13,6.88834
1999-10-14,6.9772
1999-10-15,6.90967
1999-10-18,6.93099
1999-10-19,6.9772
1999-10-20,7.01985
1999-10-21,6.86346
1999-10-22,6.62177
1999-10-25,6.64309
1999-10-26,6.39784
1999-10-27,6.39784
1999-10-28,6.50802
1999-10-29,6.58323
1999-11-01,6.62726
1999-11-02,6.69698
1999-11-03,6.67496
1999-11-04,6.58323
1999-11-05,6.51349
1999-11-08,6.42176
1999-11-09,6.53552
1999-11-10,6.19424
1999-11-11,5.96307
1999-11-12,5.96307
1999-11-15,6.14654
1999-11-16,6.19424
1999-11-17,6.03279
1999-11-18,6.0548
1999-11-19,6.0548
1999-11-22,6.07682
1999-11-23,5.91902
1999-11-24,5.94105
1999-11-26,5.89334
1999-11-29,5.8493
1999-11-30,5.91902
1999-12-01,5.87132
1999-12-02,5.8016
1999-12-03,5.73555
1999-12-06,5.61813
1999-12-07,5.73555
1999-12-08,5.55207
1999-12-09,5.50436
1999-12-10,5.48235
1999-12-13,5.50436
1999-12-14,5.46033
1999-12-15,5.46033
1999-12-16,5.50436
1999-12-17,5.59611
1999-12-20,5.75757
1999-12-21,5.73555
1999-12-22,5.73555
1999-12-23,5.57408
1999-12-27,5.52638
1999-12-28,5.48235
1999-12-29,5.46033
1999-12-30,5.52638
1999-12-31,5.55207
2000-01-03,5.64381
2000-01-04,5.61813
2000-01-05,5.75757
2000-01-06,6.07682
2000-01-07,6.16856
2000-01-10,6.23829
2000-01-11,6.16856
2000-01-12,6.07682
2000-01-13,6.10251
2000-01-14,6.07682
2000-01-18,5.94105
2000-01-19,6.10251
2000-01-20,6.2603
2000-01-21,6.37773
2000-01-24,6.2603
2000-01-25,6.21626
2000-01-26,6.35204
2000-01-27,6.21626
2000-01-28,6.22308
2000-01-31,6.17369
2000-02-01,6.05592
2000-02-02,6.00653
2000-02-03,5.93815
2000-02-04,5.88875
2000-02-07,5.86596
2000-02-08,5.86596
2000-02-09,5.676
2000-02-10,5.62661
2000-02-11,5.676
2000-02-14,5.676
2000-02-15,5.72159
2000-02-16,5.79378
2000-02-17,5.77099
2000-02-18,5.84317
2000-02-22,5.84317
2000-02-23,5.84317
2000-02-24,5.81657
2000-02-25,5.6988
2000-02-28,5.74818
2000-02-29,5.88875
2000-03-01,5.74818
2000-03-02,5.81657
2000-03-03,5.77099
2000-03-06,5.6988
2000-03-07,5.62661
2000-03-08,5.74818
2000-03-09,5.62661
2000-03-10,5.81657
2000-03-13,5.74818
2000-03-14,5.676
2000-03-15,5.65321
2000-03-16,5.676
2000-03-17,5.676
2000-03-20,5.84317
2000-03-21,5.91155
2000-03-22,5.98374
2000-03-23,5.86596
2000-03-24,5.676
2000-03-27,5.72159
2000-03-28,5.65321
2000-03-29,5.6988
2000-03-30,5.55823
2000-03-31,5.31888
2000-04-03,5.34167
2000-04-04,5.27329
2000-04-05,5.43665
2000-04-06,5.58102
2000-04-07,5.53163
2000-04-10,5.53163
2000-04-11,5.62661
2000-04-12,5.96094
2000-04-13,6.00653
2000-04-14,5.77099
2000-04-17,5.88875
2000-04-18,5.96094
2000-04-19,6.1509
2000-04-20,6.22308
2000-04-24,6.34086
2000-04-25,6.29147
2000-04-26,6.34086
2000-04-27,6.29147
2000-04-28,6.30129
2000-05-01,6.25402
2000-05-02,6.30129
2000-05-03,6.30129
2000-05-04,6.128
2000-05-05,6.08074
2000-05-08,6.27766
2000-05-09,6.25402
2000-05-10,6.22646
2000-05-11,6.35249
2000-05-12,6.47457
2000-05-15,6.47457
2000-05-16,6.4982
2000-05-17,6.39974
2000-05-18,6.32491
2000-05-19,6.30129
2000-05-22,6.35249
2000-05-23,6.32491
2000-05-24,6.30129
2000-05-25,6.27766
2000-05-26,6.25402
2000-05-30,6.37612
2000-05-31,6.32491
2000-06-01,6.32491
2000-06-02,6.32491
2000-06-05,6.37612
2000-06-06,6.39974
2000-06-07,6.42337
2000-06-08,6.45094
2000-06-09,6.4982
2000-06-12,6.4982
2000-06-13,6.4982
2000-06-14,6.4982
2000-06-15,6.4982
2000-06-16,6.4982
2000-06-19,6.4982
2000-06-20,6.4982
2000-06-21,6.4982
2000-06-22,6.39974
2000-06-23,6.42337
2000-06-26,6.47457
2000-06-27,6.47457
2000-06-28,6.4982
2000-06-29,6.47457
2000-06-30,6.37612
2000-07-03,6.45094
2000-07-05,6.4982
2000-07-06,6.47457
2000-07-07,6.4982
2000-07-10,6.4982
2000-07-11,6.64786
2000-07-12,6.69511
2000-07-13,6.74631
2000-07-14,6.8684
2000-07-17,6.8684
2000-07-18,6.8684
2000-07-19,7.04168
2000-07-20,7.21103
2000-07-21,7.23861
2000-07-24,7.28586
2000-07-25,7.1874
2000-07-26,7.26223
2000-07-27,7.16378
2000-07-28,7.14468
2000-07-31,7.32371
2000-08-01,7.34812
2000-08-02,7.34812
2000-08-03,7.40102
2000-08-04,7.3766
2000-08-07,7.42542
2000-08-08,7.50273
2000-08-09,7.55155
2000-08-10,7.60445
2000-08-11,7.70617
2000-08-14,7.73057
2000-08-15,7.55155
2000-08-16,7.55155
2000-08-17,7.55155
2000-08-18,7.52714
2000-08-21,7.58004
2000-08-22,7.60445
2000-08-23,7.50273
2000-08-24,7.55155
2000-08-25,7.44983
2000-08-28,7.34812
2000-08-29,7.34812
2000-08-30,7.2993
2000-08-31,7.32371
2000-09-01,7.2993
2000-09-05,7.42542
2000-09-06,7.42542
2000-09-07,7.32371
2000-09-08,7.40102
2000-09-11,7.44983
2000-09-12,7.40102
2000-09-13,7.50273
2000-09-14,7.65328
2000-09-15,7.50273
2000-09-18,7.3766
2000-09-19,7.32371
2000-09-20,7.2464
2000-09-21,7.27488
2000-09-22,7.32371
2000-09-25,7.2993
2000-09-26,7.27488
2000-09-27,7.27488
2000-09-28,7.27488
2000-09-29,7.2464
2000-10-02,7.14468
2000-10-03,7.17316
2000-10-04,7.42542
2000-10-05,7.22199
2000-10-06,7.17316
2000-10-09,7.19758
2000-10-10,7.2993
2000-10-11,7.2464
2000-10-12,7.17316
2000-10-13,7.27488
2000-10-16,7.22199
2000-10-17,6.83952
2000-10-18,7.07144
2000-10-19,7.19758
2000-10-20,7.17316
2000-10-23,7.14468
2000-10-24,7.22199
2000-10-25,7.07144
2000-10-26,7.19758
2000-10-27,7.41942
2000-10-30,7.46992
2000-10-31,7.44468
2000-11-01,7.36471
2000-11-02,7.36471
2000-11-03,7.2595
2000-11-06,7.10379
2000-11-07,7.17954
2000-11-08,7.17954
2000-11-09,7.12904
2000-11-10,7.04908
2000-11-13,7.07434
2000-11-14,7.04908
2000-11-15,7.10379
2000-11-16,7.02383
2000-11-17,7.07434
2000-11-20,7.23425
2000-11-21,7.17954
2000-11-22,7.12904
2000-11-24,7.23425
2000-11-27,7.2595
2000-11-28,7.15429
2000-11-29,7.23425
2000-11-30,7.10379
2000-12-01,7.12904
2000-12-04,7.04908
2000-12-05,7.23425
2000-12-06,7.07434
2000-12-07,7.12904
2000-12-08,7.15429
2000-12-11,7.10379
2000-12-12,7.10379
2000-12-13,7.10379
2000-12-14,7.10379
2000-12-15,7.07434
2000-12-18,7.12904
2000-12-19,7.17954
2000-12-20,7.07434
2000-12-21,7.07434
2000-12-22,6.94387
2000-12-26,6.7587
2000-12-27,6.86391
2000-12-28,6.96913
2000-12-29,6.86391
2001-01-02,6.7587
2001-01-03,6.99858
2001-01-04,6.99858
2001-01-05,6.83867
2001-01-08,7.07434
2001-01-09,7.36471
2001-01-10,7.52463
2001-01-11,7.44468
2001-01-12,7.41942
2001-01-16,7.46992
2001-01-17,7.36471
2001-01-18,7.44468
2001-01-19,7.62984
2001-01-22,7.86551
2001-01-23,7.99597
2001-01-24,8.12643
2001-01-25,8.05069
2001-01-26,8.1559
2001-01-29,8.24575
2001-01-30,8.23707
2001-01-31,8.02875
2001-02-01,8.13291
2001-02-02,7.98535
2001-02-05,7.93328
2001-02-06,8.16763
2001-02-07,8.16329
2001-02-08,8.16329
2001-02-09,8.09819
2001-02-12,8.08951
2001-02-13,8.16763
2001-02-14,8.2414
2001-02-15,8.2414
2001-02-16,8.20235
2001-02-20,8.27612
2001-02-21,8.23707
2001-02-22,8.24575
2001-02-23,8.23707
2001-02-26,8.35424
2001-02-27,8.25876
2001-02-28,8.28047
2001-03-01,8.33254
2001-03-02,8.3716
2001-03-05,8.29348
2001-03-06,8.31085
2001-03-07,8.48878
2001-03-08,8.51481
2001-03-09,8.53652
2001-03-12,8.4801
2001-03-13,8.89672
2001-03-14,9.07032
2001-03-15,9.03127
2001-03-16,8.83163
2001-03-19,9.04428
2001-03-20,8.96182
2001-03-21,8.9922
2001-03-22,8.89672
2001-03-23,8.91843
2001-03-26,8.96617
2001-03-27,9.00522
2001-03-28,8.93144
2001-03-29,8.96182
2001-03-30,9.02692
2001-04-02,9.27863
2001-04-03,9.31335
2001-04-04,9.526
2001-04-05,9.54771
2001-04-06,9.46525
2001-04-09,9.41317
2001-04-10,9.6779
2001-04-11,9.69092
2001-04-12,9.82979
2001-04-16,9.76904
2001-04-17,9.86886
2001-04-18,9.7213
2001-04-19,9.71262
2001-04-20,9.59111
2001-04-23,9.70395
2001-04-24,9.86017
2001-04-25,10.1944
2001-04-26,10.3072
2001-04-27,10.4429
2001-04-30,10.4117
2001-05-01,10.1003
2001-05-02,9.98462
2001-05-03,9.75322
2001-05-04,9.83332
2001-05-07,9.78882
2001-05-08,9.77547
2001-05-09,9.85557
2001-05-10,9.73543
2001-05-11,9.66424
2001-05-14,9.78882
2001-05-15,9.94451
2001-05-16,10.087
2001-05-17,10.1003
2001-05-18,9.96683
2001-05-21,10.1136
2001-05-22,10.2516
2001-05-23,10.0558
2001-05-24,10.2649
2001-05-25,10.1982
2001-05-29,10.1892
2001-05-30,10.167
2001-05-31,10.1225
2001-06-01,10.2605
2001-06-04,10.2782
2001-06-05,10.3005
2001-06-06,10.256
2001-06-07,10.4563
2001-06-08,10.3584
2001-06-11,10.385
2001-06-12,10.5586
2001-06-13,10.612
2001-06-14,10.5897
2001-06-15,9.83776
2001-06-18,9.85557
2001-06-19,9.92228
2001-06-20,9.94451
2001-06-21,10.0558
2001-06-22,10.0825
2001-06-25,10.1448
2001-06-26,10.2338
2001-06-27,10.3005
2001-06-28,10.3406
2001-06-29,10.3895
2001-07-02,10.9679
2001-07-03,10.8033
2001-07-05,10.7899
2001-07-06,10.8923
2001-07-09,10.7543
2001-07-10,10.6698
2001-07-11,10.6698
2001-07-12,10.7099
2001-07-13,10.7499
2001-07-16,10.4829
2001-07-17,10.9234
2001-07-18,10.9902
2001-07-19,11.1059
2001-07-20,11.0792
2001-07-23,10.8567
2001-07-24,10.8256
2001-07-25,11.008
2001-07-26,11.2794
2001-07-27,11.2179
2001-07-30,11.1587
2001-07-31,11.1132
2001-08-01,11.1814
2001-08-02,11.2954
2001-08-03,11.3044
2001-08-06,11.2634
2001-08-07,11.35
2001-08-08,11.4456
2001-08-09,11.5458
2001-08-10,11.6142
2001-08-13,11.5048
2001-08-14,11.473
2001-08-15,11.4456
2001-08-16,11.473
2001-08-17,11.4639
2001-08-20,11.5003
2001-08-21,11.8236
2001-08-22,11.851
2001-08-23,11.728
2001-08-24,11.7053
2001-08-27,11.6369
2001-08-28,11.6142
2001-08-29,11.3682
2001-08-30,11.227
2001-08-31,11.2999
2001-09-04,11.1404
2001-09-05,11.1814
2001-09-06,11.0312
2001-09-07,10.8399
2001-09-10,10.726
2001-09-17,10.6349
2001-09-18,10.9765
2001-09-19,11.2043
2001-09-20,10.8626
2001-09-21,10.7397
2001-09-24,11.0767
2001-09-25,11.1359
2001-09-26,11.186
2001-09-27,11.0904
2001-09-28,11.3682
2001-10-01,11.5003
2001-10-02,11.5276
2001-10-03,11.7053
2001-10-04,11.6643
2001-10-05,11.7098
2001-10-08,11.5686
2001-10-09,11.8419
2001-10-10,11.8874
2001-10-11,11.6005
2001-10-12,11.7463
2001-10-15,11.728
2001-10-16,11.6643
2001-10-17,11.4866
2001-10-18,11.4547
2001-10-19,11.391
2001-10-22,11.4092
2001-10-23,11.5048
2001-10-24,11.6597
2001-10-25,11.8374
2001-10-26,11.8191
2001-10-29,11.6955
2001-10-30,11.7188
2001-10-31,11.7468
2001-11-01,12.0916
2001-11-02,12.0636
2001-11-05,11.8912
2001-11-06,12.1569
2001-11-07,12.0683
2001-11-08,11.9565
2001-11-09,12.045
2001-11-12,11.9518
2001-11-13,11.9285
2001-11-14,11.7887
2001-11-15,11.7887
2001-11-16,11.6023
2001-11-19,11.4905
2001-11-20,11.3927
2001-11-21,11.5464
2001-11-23,11.6023
2001-11-26,11.5278
2001-11-27,11.6256
2001-11-28,11.6816
2001-11-29,11.7468
2001-11-30,11.649
2001-12-03,11.6256
2001-12-04,11.7887
2001-12-05,11.7887
2001-12-06,11.6023
2001-12-07,11.6303
2001-12-10,11.4625
2001-12-11,11.4858
2001-12-12,11.4066
2001-12-13,11.4113
2001-12-14,11.5045
2001-12-17,11.5325
2001-12-18,11.5744
2001-12-19,11.4439
2001-12-20,11.2855
2001-12-21,11.416
2001-12-24,11.5325
2001-12-26,11.4625
2001-12-27,11.4858
2001-12-28,11.4206
2001-12-31,11.3414
2002-01-02,11.5558
2002-01-03,11.7887
2002-01-04,11.8353
2002-01-07,11.9518
2002-01-08,12.1102
2002-01-09,12.1149
2002-01-10,12.2174
2002-01-11,12.1335
2002-01-14,12.5343
2002-01-15,12.5529
2002-01-16,12.4923
2002-01-17,12.4784
2002-01-18,12.511
2002-01-22,12.525
2002-01-23,12.5622
2002-01-24,12.5576
2002-01-25,12.66
2002-01-28,12.907
2002-01-29,12.9768
2002-01-30,13.0434
2002-01-31,12.972
2002-02-01,12.9386
2002-02-04,12.972
2002-02-05,13.091
2002-02-06,12.8577
2002-02-07,12.972
2002-02-08,12.9625
2002-02-11,12.9768
2002-02-12,12.9482
2002-02-13,13.0196
2002-02-14,12.9958
2002-02-15,13.1386
2002-02-19,13.091
2002-02-20,13.21
2002-02-21,13.091
2002-02-22,13.21
2002-02-25,13.1291
2002-02-26,13.0101
2002-02-27,13.0196
2002-02-28,12.953
2002-03-01,13.1672
2002-03-04,13.1766
2002-03-05,13.1148
2002-03-06,13.2814
2002-03-07,13.1386
2002-03-08,13.0957
2002-03-11,12.891
2002-03-12,12.8054
2002-03-13,12.8339
2002-03-14,12.8721
2002-03-15,13.0768
2002-03-18,13.1148
2002-03-19,13.1386
2002-03-20,13.0101
2002-03-21,13.21
2002-03-22,13.2814
2002-03-25,13.1481
2002-03-26,13.291
2002-03-27,13.3052
2002-03-28,13.291
2002-04-01,13.4004
2002-04-02,13.4813
2002-04-03,13.5099
2002-04-04,13.8051
2002-04-05,13.8813
2002-04-08,14.0288
2002-04-09,14.1573
2002-04-10,14.4191
2002-04-11,14.5429
2002-04-12,14.9951
2002-04-15,14.4811
2002-04-16,13.8003
2002-04-17,13.548
2002-04-18,13.7051
2002-04-19,13.4623
2002-04-22,13.2148
2002-04-23,13.3624
2002-04-24,13.5337
2002-04-25,13.5861
2002-04-26,13.5347
2002-04-29,13.3646
2002-04-30,13.6173
2002-05-01,13.5978
2002-05-02,13.938
2002-05-03,14.2248
2002-05-06,14.1372
2002-05-07,14.0207
2002-05-08,13.8602
2002-05-09,13.559
2002-05-10,13.3889
2002-05-13,13.4132
2002-05-14,13.4035
2002-05-15,13.5104
2002-05-16,13.5541
2002-05-17,13.5541
2002-05-20,13.559
2002-05-21,13.3549
2002-05-22,13.384
2002-05-23,13.4618
2002-05-24,13.3889
2002-05-28,13.4083
2002-05-29,13.4618
2002-05-30,13.5347
2002-05-31,13.5638
2002-06-03,13.5833
2002-06-04,13.6367
2002-06-05,13.6319
2002-06-06,13.6076
2002-06-07,13.6561
2002-06-10,13.7145
2002-06-11,13.7971
2002-06-12,13.8845
2002-06-13,13.9672
2002-06-14,14.1179
2002-06-17,14.1129
2002-06-18,14.1129
2002-06-19,13.9138
2002-06-20,14.0547
2002-06-21,14.1372
2002-06-24,14.1372
2002-06-25,14.1762
2002-06-26,14.181
2002-06-27,14.1762
2002-06-28,14.3122
2002-07-01,14.4289
2002-07-02,14.0886
2002-07-03,13.9478
2002-07-05,14.0595
2002-07-08,13.9478
2002-07-09,14.0693
2002-07-10,14.045
2002-07-11,13.6076
2002-07-12,13.6513
2002-07-15,13.6076
2002-07-16,13.8262
2002-07-17,14.1179
2002-07-18,14.0693
2002-07-19,13.7582
2002-07-22,13.1944
2002-07-23,12.9515
2002-07-24,13.1216
2002-07-25,13.6076
2002-07-26,14.0936
2002-07-29,14.4833
2002-07-30,14.5577
2002-07-31,14.5825
2002-08-01,14.5081
2002-08-02,14.2849
2002-08-05,14.1311
2002-08-06,14.3295
2002-08-07,14.5329
2002-08-08,14.4089
2002-08-09,14.2006
2002-08-12,14.1014
2002-08-13,13.9922
2002-08-14,14.1063
2002-08-15,14.1262
2002-08-16,14.0617
2002-08-19,13.9774
2002-08-20,13.9377
2002-08-21,14.0567
2002-08-22,14.0469
2002-08-23,14.0121
2002-08-26,14.1113
2002-08-27,14.0121
2002-08-28,14.0815
2002-08-29,14.0469
2002-08-30,14.017
2002-09-03,14.0221
2002-09-04,14.1361
2002-09-05,14.017
2002-09-06,14.0865
2002-09-09,14.0121
2002-09-10,13.9426
2002-09-11,13.8534
2002-09-12,13.7294
2002-09-13,13.9129
2002-09-16,13.8583
2002-09-17,13.6649
2002-09-18,13.5012
2002-09-19,13.3623
2002-09-20,13.4169
2002-09-23,13.2086
2002-09-24,13.2631
2002-09-25,13.2433
2002-09-26,13.4913
2002-09-27,13.402
2002-09-30,13.5161
2002-10-01,13.4665
2002-10-02,13.3921
2002-10-03,13.3524
2002-10-04,13.144
2002-10-07,12.5786
2002-10-08,12.6282
2002-10-09,12.4001
2002-10-10,12.5241
2002-10-11,12.8614
2002-10-14,12.7522
2002-10-15,13.2185
2002-10-16,13.4169
2002-10-17,13.7145
2002-10-18,13.9178
2002-10-21,13.903
2002-10-22,13.6848
2002-10-23,13.7938
2002-10-24,14.0121
2002-10-25,14.1559
2002-10-28,14.1163
2002-10-29,14.1133
2002-10-30,14.0981
2002-10-31,14.2349
2002-11-01,14.2804
2002-11-04,14.4171
2002-11-05,14.3817
2002-11-06,14.4476
2002-11-07,14.2044
2002-11-08,14.1944
2002-11-11,13.9664
2002-11-12,14.1892
2002-11-13,14.0121
2002-11-14,14.1538
2002-11-15,14.1285
2002-11-18,13.7994
2002-11-19,13.8753
2002-11-20,13.9361
2002-11-21,14.0879
2002-11-22,14.0019
2002-11-25,13.9107
2002-11-26,14.0019
2002-11-27,14.1791
2002-11-29,14.1032
2002-12-02,14.2146
2002-12-03,13.9057
2002-12-04,13.8247
2002-12-05,13.7639
2002-12-06,13.774
2002-12-09,13.7031
2002-12-10,13.6879
2002-12-11,13.6474
2002-12-12,13.5867
2002-12-13,13.5461
2002-12-16,13.4651
2002-12-17,13.4094
2002-12-18,13.3689
2002-12-19,13.3182
2002-12-20,13.4196
2002-12-23,13.5411
2002-12-24,13.3487
2002-12-26,13.4297
2002-12-27,13.4044
2002-12-30,13.2524
2002-12-31,13.6727
2003-01-02,13.7487
2003-01-03,13.8905
2003-01-06,14.0931
2003-01-07,13.8499
2003-01-08,13.7335
2003-01-09,13.8196
2003-01-10,13.6778
2003-01-13,13.7132
2003-01-14,13.6727
2003-01-15,13.4854
2003-01-16,13.4752
2003-01-17,13.3436
2003-01-21,13.3234
2003-01-22,13.3892
2003-01-23,13.4297
2003-01-24,13.1866
2003-01-27,13.0296
2003-01-28,13.0651
2003-01-29,13.15
2003-01-30,13.1085
2003-01-31,13.3416
2003-02-03,13.1137
2003-02-04,13.3158
2003-02-05,13.352
2003-02-06,13.3469
2003-02-07,13.1189
2003-02-10,13.2329
2003-02-11,13.0722
2003-02-12,12.9686
2003-02-13,13.036
2003-02-14,13.0101
2003-02-18,13.0982
2003-02-19,13.0722
2003-02-20,13.0049
2003-02-21,13.1033
2003-02-24,12.9946
2003-02-25,13.2121
2003-02-26,13.1345
2003-02-27,13.3002
2003-02-28,13.3469
2003-03-03,13.1551
2003-03-04,13.1862
2003-03-05,13.5023
2003-03-06,13.3054
2003-03-07,13.3831
2003-03-10,13.2329
2003-03-11,13.321
2003-03-12,13.4971
2003-03-13,13.5955
2003-03-14,13.4764
2003-03-17,13.8132
2003-03-18,13.8495
2003-03-19,13.808
2003-03-20,13.6992
2003-03-21,13.6784
2003-03-24,13.5023
2003-03-25,13.5178
2003-03-26,13.6888
2003-03-27,13.637
2003-03-28,13.6681
2003-03-31,13.5334
2003-04-01,13.8339
2003-04-02,14.036
2003-04-03,13.9945
2003-04-04,13.9945
2003-04-07,14.1292
2003-04-08,14.124
2003-04-09,14.1189
2003-04-10,14.2018
2003-04-11,14.1863
2003-04-14,14.3572
2003-04-15,14.4971
2003-04-16,14.6266
2003-04-17,14.751
2003-04-21,14.8909
2003-04-22,15.1603
2003-04-23,15.2121
2003-04-24,15.1552
2003-04-25,15.1085
2003-04-28,15.1109
2003-04-29,15.1479
2003-04-30,15.0158
2003-05-01,14.9681
2003-05-02,15.0475
2003-05-05,15.0951
2003-05-06,15.2801
2003-05-07,15.2537
2003-05-08,15.3013
2003-05-09,15.4387
2003-05-12,15.5392
2003-05-13,15.4652
2003-05-14,15.4387
2003-05-15,15.5075
2003-05-16,15.518
2003-05-19,15.4652
2003-05-20,15.5445
2003-05-21,15.592
2003-05-22,15.6185
2003-05-23,15.7982
2003-05-27,15.7665
2003-05-28,15.7771
2003-05-29,15.3806
2003-05-30,15.7348
2003-06-02,15.6766
2003-06-03,15.7031
2003-06-04,15.8723
2003-06-05,15.7824
2003-06-06,15.8405
2003-06-09,15.5075
2003-06-10,15.8088
2003-06-11,15.8353
2003-06-12,15.7665
2003-06-13,15.6026
2003-06-16,16.0785
2003-06-17,15.9198
2003-06-18,15.8564
2003-06-19,15.7401
2003-06-20,15.7559
2003-06-23,15.5657
2003-06-24,15.666
2003-06-25,15.8458
2003-06-26,16.0468
2003-06-27,16.0626
2003-06-30,16.052
2003-07-01,16.1631
2003-07-02,16.364
2003-07-03,16.4169
2003-07-07,16.6548
2003-07-08,16.6072
2003-07-09,16.7182
2003-07-10,16.6495
2003-07-11,16.6495
2003-07-14,16.66
2003-07-15,16.6019
2003-07-16,16.6231
2003-07-17,16.512
2003-07-18,16.5226
2003-07-21,16.3798
2003-07-22,16.4644
2003-07-23,16.6759
2003-07-24,16.6177
2003-07-25,16.6812
2003-07-28,16.8028
2003-07-29,16.844
2003-07-30,16.9679
2003-07-31,16.9571
2003-08-01,16.3915
2003-08-04,16.2245
2003-08-05,15.9606
2003-08-06,16.0414
2003-08-07,16.0468
2003-08-08,16.3592
2003-08-11,16.3377
2003-08-12,16.3484
2003-08-13,15.966
2003-08-14,16.0091
2003-08-15,15.9391
2003-08-18,16.0091
2003-08-19,16.0738
2003-08-20,16.2192
2003-08-21,16.203
2003-08-22,15.966
2003-08-25,15.9552
2003-08-26,16.0198
2003-08-27,16.1599
2003-08-28,16.1761
2003-08-29,16.1815
2003-09-02,16.3915
2003-09-03,16.5586
2003-09-04,16.6501
2003-09-05,16.5962
2003-09-08,16.607
2003-09-09,16.4939
2003-09-10,16.2946
2003-09-11,16.5369
2003-09-12,16.5369
2003-09-15,16.3807
2003-09-16,16.4723
2003-09-17,16.3862
2003-09-18,16.4993
2003-09-19,16.4939
2003-09-22,16.4562
2003-09-23,16.37
2003-09-24,16.4292
2003-09-25,16.3108
2003-09-26,16.2946
2003-09-29,16.5586
2003-09-30,16.5586
2003-10-01,16.7794
2003-10-02,17.0379
2003-10-03,17.0649
2003-10-06,17.0757
2003-10-07,17.0918
2003-10-08,17.0757
2003-10-09,17.4904
2003-10-10,17.4096
2003-10-13,17.3719
2003-10-14,17.5335
2003-10-15,17.5227
2003-10-16,17.6466
2003-10-17,17.6413
2003-10-20,17.512
2003-10-21,17.6196
2003-10-22,17.4527
2003-10-23,17.5282
2003-10-24,17.5066
2003-10-27,17.7975
2003-10-28,17.749
2003-10-29,18.056
2003-10-30,18.1297
2003-10-31,18.1462
2003-11-03,18.7054
2003-11-04,18.9685
2003-11-05,18.8918
2003-11-06,19.1275
2003-11-07,18.9685
2003-11-10,18.7547
2003-11-11,18.6725
2003-11-12,19.1604
2003-11-13,19.1769
2003-11-14,19.0507
2003-11-17,18.8644
2003-11-18,18.7328
2003-11-19,18.7711
2003-11-20,18.53
2003-11-21,18.6287
2003-11-24,18.9685
2003-11-25,18.9905
2003-11-26,19.1275
2003-11-28,19.2317
2003-12-01,19.27
2003-12-02,19.1769
2003-12-03,19.0178
2003-12-04,18.9795
2003-12-05,19.1001
2003-12-08,19.3578
2003-12-09,19.2427
2003-12-10,19.3029
2003-12-11,19.4016
2003-12-12,19.3687
2003-12-15,19.0507
2003-12-16,19.0234
2003-12-17,19.1769
2003-12-18,19.0836
2003-12-19,19.0288
2003-12-22,19.1165
2003-12-23,19.2864
2003-12-24,19.3413
2003-12-26,19.418
2003-12-29,19.6154
2003-12-30,19.6593
2003-12-31,19.769
2004-01-02,19.6703
2004-01-05,19.769
2004-01-06,19.8183
2004-01-07,19.8292
2004-01-08,19.9114
2004-01-09,19.7141
2004-01-12,19.8841
2004-01-13,19.8566
2004-01-14,19.9992
2004-01-15,20.0595
2004-01-16,20.0157
2004-01-20,20.0157
2004-01-21,19.9992
2004-01-22,20.0101
2004-01-23,20.2788
2004-01-26,20.6954
2004-01-27,21.0683
2004-01-28,20.8364
2004-01-29,20.764
2004-01-30,21.393
2004-02-02,21.2372
2004-02-03,20.6025
2004-02-04,20.3297
2004-02-05,20.1962
2004-02-06,20.469
2004-02-09,20.597
2004-02-10,20.7083
2004-02-11,20.6693
2004-02-12,20.4022
2004-02-13,20.3521
2004-02-17,20.4022
2004-02-18,20.3464
2004-02-19,20.2073
2004-02-20,20.224
2004-02-23,20.1015
2004-02-24,20.3743
2004-02-25,20.6526
2004-02-26,20.8641
2004-02-27,21.02
2004-03-01,21.3596
2004-03-02,21.1982
2004-03-03,21.5935
2004-03-04,21.6936
2004-03-05,21.7716
2004-03-08,21.5768
2004-03-09,21.5322
2004-03-10,21.226
2004-03-11,21.0033
2004-03-12,21.4709
2004-03-15,20.9755
2004-03-16,21.1202
2004-03-17,21.4042
2004-03-18,21.5434
2004-03-19,21.5768
2004-03-22,21.5711
2004-03-23,21.7437
2004-03-24,21.4876
2004-03-25,21.8495
2004-03-26,21.521
2004-03-29,21.766
2004-03-30,22.0945
2004-03-31,22.5955
2004-04-01,22.6511
2004-04-02,22.2336
2004-04-05,20.9087
2004-04-06,19.2109
2004-04-07,19.5894
2004-04-08,19.261
2004-04-12,18.1698
2004-04-13,17.9583
2004-04-14,18.0919
2004-04-15,18.7099
2004-04-16,18.9102
2004-04-19,19.0049
2004-04-20,18.1476
2004-04-21,18.4538
2004-04-22,18.7711
2004-04-23,18.476
2004-04-26,18.4816
2004-04-27,18.5373
2004-04-28,18.3717
2004-04-29,18.0373
2004-04-30,18.0203
2004-05-03,17.8841
2004-05-04,18.4794
2004-05-05,18.1959
2004-05-06,18.0259
2004-05-07,17.0906
2004-05-10,16.4387
2004-05-11,16.7448
2004-05-12,16.8241
2004-05-13,16.6088
2004-05-14,16.7392
2004-05-17,16.9999
2004-05-18,17.221
2004-05-19,16.6427
2004-05-20,17.1019
2004-05-21,16.9829
2004-05-24,17.3683
2004-05-25,17.6234
2004-05-26,17.9919
2004-05-27,17.9862
2004-05-28,18.349
2004-06-01,17.8785
2004-06-02,18.1846
2004-06-03,17.9805
2004-06-04,17.9862
2004-06-07,18.2073
2004-06-08,18.3377
2004-06-09,18.128
2004-06-10,18.0032
2004-06-14,17.5384
2004-06-15,17.9578
2004-06-16,18.2299
2004-06-17,18.2187
2004-06-18,18.1789
2004-06-21,18.3263
2004-06-22,18.1052
2004-06-23,18.0259
2004-06-24,18.0089
2004-06-25,17.9975
2004-06-28,18.1619
2004-06-29,18.0032
2004-06-30,18.3377
2004-07-01,18.417
2004-07-02,18.8875
2004-07-06,18.8931
2004-07-07,19.0122
2004-07-08,18.7117
2004-07-09,18.7287
2004-07-12,19.2389
2004-07-13,19.0292
2004-07-14,19.1879
2004-07-15,19.2956
2004-07-16,19.2559
2004-07-19,19.3466
2004-07-20,19.3296
2004-07-21,18.9555
2004-07-22,18.2583
2004-07-23,18.485
2004-07-26,18.1506
2004-07-27,18.2753
2004-07-28,18.3319
2004-07-29,18.2395
2004-07-30,18.5687
2004-08-02,18.7651
2004-08-03,18.6957
2004-08-04,18.7708
2004-08-05,18.4185
2004-08-06,18.4763
2004-08-09,18.3723
2004-08-10,18.4127
2004-08-11,18.355
2004-08-12,18.0778
2004-08-13,18.0084
2004-08-16,18.2799
2004-08-17,18.5687
2004-08-18,18.6785
2004-08-19,18.4185
2004-08-20,18.5513
2004-08-23,18.7651
2004-08-24,18.8863
2004-08-25,18.7708
2004-08-26,18.8575
2004-08-27,18.9614
2004-08-30,19.2617
2004-08-31,19.5852
2004-09-01,19.5852
2004-09-02,19.6891
2004-09-03,19.7873
2004-09-07,19.8624
2004-09-08,19.8682
2004-09-09,19.718
2004-09-10,19.9144
2004-09-13,19.6719
2004-09-14,19.4062
2004-09-15,19.6372
2004-09-16,19.7469
2004-09-17,19.6545
2004-09-20,19.4062
2004-09-21,19.5274
2004-09-22,19.5852
2004-09-23,19.5621
2004-09-24,19.5852
2004-09-27,19.6603
2004-09-28,19.8682
2004-09-29,20.0934
2004-09-30,20.2956
2004-10-01,20.7172
2004-10-04,20.5035
2004-10-05,20.44
2004-10-06,20.4284
2004-10-07,20.5093
2004-10-08,20.6306
2004-10-11,20.5266
2004-10-12,20.7749
2004-10-13,20.619
2004-10-14,20.8096
2004-10-15,21.0695
2004-10-18,21.0291
2004-10-19,20.9021
2004-10-20,20.7403
2004-10-21,21.0637
2004-10-22,20.6133
2004-10-25,20.5959
2004-10-26,20.9078
2004-10-27,21.2254
2004-10-28,21.3309
2004-10-29,21.0725
2004-11-01,21.1078
2004-11-02,20.7966
2004-11-03,20.9668
2004-11-04,21.1371
2004-11-05,20.456
2004-11-08,20.5147
2004-11-09,20.7848
2004-11-10,21.0256
2004-11-11,21.1547
2004-11-12,21.3133
2004-11-15,21.278
2004-11-16,21.1489
2004-11-17,20.5793
2004-11-18,20.6439
2004-11-19,20.2623
2004-11-22,20.55
2004-11-23,20.779
2004-11-24,21.1078
2004-11-26,20.8201
2004-11-29,20.6322
2004-11-30,20.7261
2004-12-01,21.19
2004-12-02,21.0256
2004-12-03,21.4013
2004-12-06,21.4013
2004-12-07,21.1078
2004-12-08,21.3015
2004-12-09,21.6127
2004-12-10,21.9533
2004-12-13,21.6949
2004-12-14,21.7125
2004-12-15,21.7536
2004-12-16,21.507
2004-12-17,21.5364
2004-12-20,21.3309
2004-12-21,21.4777
2004-12-22,21.6832
2004-12-23,21.6303
2004-12-27,21.7125
2004-12-28,21.7301
2004-12-29,21.8945
2004-12-30,21.8945
2004-12-31,22.1646
2005-01-03,21.8358
2005-01-04,21.6361
2005-01-05,20.773
2005-01-06,20.8494
2005-01-07,20.7907
2005-01-10,20.7437
2005-01-11,20.4325
2005-01-12,20.2447
2005-01-13,20.2505
2005-01-14,20.3445
2005-01-18,20.4619
2005-01-19,20.6674
2005-01-20,20.5206
2005-01-21,20.6146
2005-01-24,20.4971
2005-01-25,20.1272
2005-01-26,20.0803
2005-01-27,19.7637
2005-01-28,19.8892
2005-01-31,20.0207
2005-02-01,19.6681
2005-02-02,19.7996
2005-02-03,19.8773
2005-02-04,20.1881
2005-02-07,20.0386
2005-02-08,20.1522
2005-02-09,20.8455
2005-02-10,20.8514
2005-02-11,20.6303
2005-02-14,20.7199
2005-02-15,20.8514
2005-02-16,21.0666
2005-02-17,21.222
2005-02-18,20.7916
2005-02-22,20.1642
2005-02-23,20.3553
2005-02-24,20.2598
2005-02-25,20.5287
2005-02-28,20.5048
2005-03-01,20.6243
2005-03-02,20.3135
2005-03-03,20.3375
2005-03-04,20.6004
2005-03-07,20.6721
2005-03-08,20.5466
2005-03-09,19.8235
2005-03-10,20.0745
2005-03-11,19.9012
2005-03-14,20.3733
2005-03-15,20.2657
2005-03-16,20.0207
2005-03-17,20.1342
2005-03-18,19.7697
2005-03-21,19.5844
2005-03-22,19.202
2005-03-23,19.1302
2005-03-24,19.1601
2005-03-28,19.0944
2005-03-29,18.9629
2005-03-30,19.2557
2005-03-31,19.1542
2005-04-01,19.2498
2005-04-04,19.1542
2005-04-05,19.19
2005-04-06,19.3095
2005-04-07,19.5007
2005-04-08,19.3155
2005-04-11,19.2677
2005-04-12,19.5246
2005-04-13,19.5307
2005-04-14,19.3812
2005-04-15,19.3931
2005-04-18,19.5068
2005-04-19,19.6621
2005-04-20,19.6561
2005-04-21,19.7816
2005-04-22,19.8355
2005-04-25,20.1403
2005-04-26,20.2478
2005-04-27,20.2722
2005-04-28,20.2114
2005-04-29,20.394
2005-05-02,20.394
2005-05-03,20.3818
2005-05-04,20.4671
2005-05-05,20.6071
2005-05-06,20.4549
2005-05-09,20.6984
2005-05-10,20.6679
2005-05-11,20.5279
2005-05-12,20.3148
2005-05-13,20.1322
2005-05-16,20.4549
2005-05-17,20.9176
2005-05-18,21.0089
2005-05-19,21.1246
2005-05-20,21.2584
2005-05-23,21.3437
2005-05-24,21.3558
2005-05-25,21.1002
2005-05-26,21.088
2005-05-27,21.2889
2005-05-31,21.8064
2005-06-01,22.0925
2005-06-02,22.1838
2005-06-03,22.1046
2005-06-06,22.3177
2005-06-07,22.409
2005-06-08,22.3969
2005-06-09,22.3056
2005-06-10,22.3482
2005-06-13,22.4152
2005-06-14,22.5856
2005-06-15,22.677
2005-06-16,22.5978
2005-06-17,22.9144
2005-06-20,22.9387
2005-06-21,22.7134
2005-06-22,22.6221
2005-06-23,22.61
2005-06-24,22.5247
2005-06-27,22.5978
2005-06-28,22.8474
2005-06-29,23.0482
2005-06-30,22.9691
2005-07-01,23.1335
2005-07-05,23.4683
2005-07-06,23.2675
2005-07-07,23.3162
2005-07-08,23.6144
2005-07-11,23.7727
2005-07-12,23.7362
2005-07-13,23.7544
2005-07-14,23.1274
2005-07-15,23.2309
2005-07-18,23.2857
2005-07-19,23.6205
2005-07-20,23.5536
2005-07-21,23.0361
2005-07-22,23.2552
2005-07-25,23.3283
2005-07-26,23.4926
2005-07-27,23.6341
2005-07-28,23.8568
2005-07-29,24.1105
2005-08-01,24.0115
2005-08-02,24.1724
2005-08-03,24.1166
2005-08-04,23.498
2005-08-05,22.8421
2005-08-08,21.877
2005-08-09,22.0873
2005-08-10,22.0564
2005-08-11,22.2111
2005-08-12,22.1678
2005-08-15,22.4152
2005-08-16,22.5328
2005-08-17,22.4647
2005-08-18,22.3163
2005-08-19,22.2235
2005-08-22,22.3658
2005-08-23,22.3101
2005-08-24,22.5019
2005-08-25,22.6009
2005-08-26,22.372
2005-08-29,22.3843
2005-08-30,22.471
2005-08-31,22.8916
2005-09-01,22.9349
2005-09-02,22.8793
2005-09-06,23.3866
2005-09-07,23.2938
2005-09-08,23.3743
2005-09-09,23.1701
2005-09-12,23.1391
2005-09-13,23.102
2005-09-14,23.0834
2005-09-15,23.0092
2005-09-16,23.0959
2005-09-19,22.9597
2005-09-20,22.7555
2005-09-21,22.4215
2005-09-22,22.5947
2005-09-23,22.5575
2005-09-26,22.7494
2005-09-27,22.6813
2005-09-28,22.539
2005-09-29,22.7989
2005-09-30,22.9535
2005-10-03,23.0648
2005-10-04,22.8236
2005-10-05,22.6875
2005-10-06,22.3225
2005-10-07,22.3163
2005-10-10,21.7966
2005-10-11,21.5243
2005-10-12,21.1345
2005-10-13,21.2212
2005-10-14,21.9636
2005-10-17,22.0007
2005-10-18,21.7162
2005-10-19,21.9388
2005-10-20,21.6852
2005-10-21,21.9451
2005-10-24,22.6504
2005-10-25,22.3225
2005-10-26,21.9512
2005-10-27,21.6856
2005-10-28,22.2713
2005-10-31,22.2083
2005-11-01,21.7675
2005-11-02,21.9312
2005-11-03,22.0257
2005-11-04,21.8683
2005-11-07,22.1076
2005-11-08,22.1076
2005-11-09,22.2838
2005-11-10,22.6553
2005-11-11,22.8632
2005-11-14,22.4035
2005-11-15,22.1769
2005-11-16,22.0446
2005-11-17,21.7108
2005-11-18,21.692
2005-11-21,21.692
2005-11-22,21.8242
2005-11-23,21.8368
2005-11-25,21.8809
2005-11-28,21.5282
2005-11-29,21.6604
2005-11-30,21.6164
2005-12-01,21.692
2005-12-02,21.5471
2005-12-05,21.6856
2005-12-06,21.2701
2005-12-07,21.0875
2005-12-08,21.2826
2005-12-09,21.1756
2005-12-12,21.2953
2005-12-13,21.3205
2005-12-14,21.3897
2005-12-15,21.3457
2005-12-16,21.585
2005-12-19,21.3897
2005-12-20,21.4653
2005-12-21,21.5723
2005-12-22,21.5598
2005-12-23,21.5975
2005-12-27,21.4149
2005-12-28,21.459
2005-12-29,21.3645
2005-12-30,21.3393
2006-01-03,21.7487
2006-01-04,22.0005
2006-01-05,22.4035
2006-01-06,22.5231
2006-01-09,22.7876
2006-01-10,22.9891
2006-01-11,22.9765
2006-01-12,22.9891
2006-01-13,22.8505
2006-01-17,22.8128
2006-01-18,23.0269
2006-01-19,23.2283
2006-01-20,22.9639
2006-01-23,23.1087
2006-01-24,23.2535
2006-01-25,23.2976
2006-01-26,23.5432
2006-01-27,23.6841
2006-01-30,23.6138
2006-01-31,23.8122
2006-02-01,23.6521
2006-02-02,23.4409
2006-02-03,23.1591
2006-02-06,23.332
2006-02-07,23.1911
2006-02-08,22.7814
2006-02-09,22.6469
2006-02-10,22.8774
2006-02-13,22.7557
2006-02-14,22.8774
2006-02-15,23.1591
2006-02-16,23.2936
2006-02-17,23.4985
2006-02-21,23.6329
2006-02-22,23.9083
2006-02-23,23.6969
2006-02-24,23.5496
2006-02-27,23.4536
2006-02-28,23.268
2006-03-01,23.1527
2006-03-02,22.9926
2006-03-03,22.775
2006-03-06,23.2424
2006-03-07,23.1079
2006-03-08,23.0246
2006-03-09,23.364
2006-03-10,23.4088
2006-03-13,23.3256
2006-03-14,23.5176
2006-03-15,24.0683
2006-03-16,24.1708
2006-03-17,24.4589
2006-03-20,24.6318
2006-03-21,23.9787
2006-03-22,23.9787
2006-03-23,24.1132
2006-03-24,23.9915
2006-03-27,23.7866
2006-03-28,23.6458
2006-03-29,24.1323
2006-03-30,24.0683
2006-03-31,24.3821
2006-04-03,23.5496
2006-04-04,23.5369
2006-04-05,23.6201
2006-04-06,23.0695
2006-04-07,22.9542
2006-04-10,22.6725
2006-04-11,22.5892
2006-04-12,22.3716
2006-04-13,22.2243
2006-04-17,22.3396
2006-04-18,22.5828
2006-04-19,22.7685
2006-04-20,22.6532
2006-04-21,22.474
2006-04-24,22.4292
2006-04-25,22.3972
2006-04-26,22.3247
2006-04-27,22.5724
2006-04-28,22.7355
2006-05-01,22.305
2006-05-02,22.2854
2006-05-03,22.4877
2006-05-04,22.7681
2006-05-05,22.7876
2006-05-08,23.0746
2006-05-09,22.6376
2006-05-10,22.5659
2006-05-11,22.1811
2006-05-12,21.9333
2006-05-15,22.4225
2006-05-16,22.3573
2006-05-17,22.0246
2006-05-18,21.9529
2006-05-19,22.0833
2006-05-22,21.8681
2006-05-23,21.4442
2006-05-24,21.6398
2006-05-25,22.0702
2006-05-26,22.2854
2006-05-30,22.0963
2006-05-31,22.0572
2006-06-01,22.3964
2006-06-02,22.9051
2006-06-05,22.8855
2006-06-06,22.6181
2006-06-07,22.8725
2006-06-08,22.755
2006-06-09,22.879
2006-06-12,22.5724
2006-06-13,22.3116
2006-06-14,22.2137
2006-06-15,22.4485
2006-06-16,22.5855
2006-06-19,22.3573
2006-06-20,22.3312
2006-06-21,22.5203
2006-06-22,22.4355
2006-06-23,22.2528
2006-06-26,22.5203
2006-06-27,22.4551
2006-06-28,22.429
2006-06-29,22.7746
2006-06-30,22.7746
2006-07-03,22.7355
2006-07-05,22.6637
2006-07-06,22.7876
2006-07-07,22.6702
2006-07-10,22.8073
2006-07-11,22.9312
2006-07-12,22.9833
2006-07-13,22.8138
2006-07-14,22.5529
2006-07-17,22.6572
2006-07-18,23.0551
2006-07-19,23.4138
2006-07-20,23.4855
2006-07-21,23.3681
2006-07-24,23.6681
2006-07-25,23.8377
2006-07-26,23.9747
2006-07-27,23.7283
2006-07-28,23.9871
2006-07-31,24.0203
2006-08-01,24.1663
2006-08-02,24.1265
2006-08-03,24.4916
2006-08-04,24.8433
2006-08-07,24.5646
2006-08-08,24.4119
2006-08-09,24.2593
2006-08-10,24.3854
2006-08-11,24.4982
2006-08-14,24.7305
2006-08-15,24.8699
2006-08-16,24.9694
2006-08-17,25.0358
2006-08-18,25.2151
2006-08-21,25.2747
2006-08-22,25.6066
2006-08-23,25.3279
2006-08-24,25.3013
2006-08-25,25.1553
2006-08-28,25.5137
2006-08-29,26.0182
2006-08-30,26.3567
2006-08-31,26.4429
2006-09-01,26.3899
2006-09-05,26.5225
2006-09-06,26.204
2006-09-07,25.9916
2006-09-08,26.3899
2006-09-11,26.2903
2006-09-12,26.6022
2006-09-13,25.6862
2006-09-14,25.673
2006-09-15,25.7394
2006-09-18,25.8322
2006-09-19,26.0182
2006-09-20,26.0115
2006-09-21,25.7062
2006-09-22,25.8124
2006-09-25,25.8654
2006-09-26,26.0712
2006-09-27,26.3567
2006-09-28,26.4695
2006-09-29,26.5491
2006-10-02,26.5557
2006-10-03,26.7947
2006-10-04,26.9208
2006-10-05,27.3522
2006-10-06,27.2128
2006-10-09,27.339
2006-10-10,27.2394
2006-10-11,27.4518
2006-10-12,27.7571
2006-10-13,27.8765
2006-10-16,27.9562
2006-10-17,27.6443
2006-10-18,27.85
2006-10-19,27.7305
2006-10-20,27.6907
2006-10-23,27.6907
2006-10-24,27.4916
2006-10-25,27.5115
2006-10-26,27.8832
2006-10-27,27.5729
2006-10-30,27.829
2006-10-31,27.7549
2006-11-01,27.4045
2006-11-02,27.054
2006-11-03,26.38
2006-11-06,26.6563
2006-11-07,26.5687
2006-11-08,26.6698
2006-11-09,26.6496
2006-11-10,26.6563
2006-11-13,26.7102
2006-11-14,26.3463
2006-11-15,26.4205
2006-11-16,26.8249
2006-11-17,26.6968
2006-11-20,27.182
2006-11-21,27.3708
2006-11-22,27.6539
2006-11-24,27.9032
2006-11-27,27.2427
2006-11-28,27.5393
2006-11-29,27.9302
2006-11-30,28.1998
2006-12-01,28.2806
2006-12-04,28.6446
2006-12-05,28.6581
2006-12-06,28.4087
2006-12-07,28.0852
2006-12-08,28.1054
2006-12-11,28.065
2006-12-12,27.9706
2006-12-13,28.038
2006-12-14,28.0582
2006-12-15,27.8762
2006-12-18,27.8156
2006-12-19,27.5662
2006-12-20,28.3614
2006-12-21,28.3614
2006-12-22,28.1508
2006-12-26,28.4566
2006-12-27,28.7488
2006-12-28,28.776
2006-12-29,29.2042
2007-01-03,29.2586
2007-01-04,29.5644
2007-01-05,29.6052
2007-01-08,29.7207
2007-01-09,29.8771
2007-01-10,30.312
2007-01-11,30.5567
2007-01-12,30.4139
2007-01-16,30.6927
2007-01-17,30.9169
2007-01-18,30.9577
2007-01-19,31.1684
2007-01-22,31.0529
2007-01-23,31.0052
2007-01-24,31.3315
2007-01-25,31.5354
2007-01-26,31.5762
2007-01-29,31.7397
2007-01-30,31.8217
2007-01-31,32.0133
2007-02-01,32.2322
2007-02-02,32.3279
2007-02-05,32.239
2007-02-06,32.4374
2007-02-07,32.9231
2007-02-08,32.6152
2007-02-09,32.4852
2007-02-12,31.7397
2007-02-13,32.1433
2007-02-14,31.9244
2007-02-15,32.2596
2007-02-16,32.1637
2007-02-20,32.451
2007-02-21,32.4237
2007-02-22,32.3279
2007-02-23,31.7943
2007-02-26,31.3292
2007-02-27,30.5152
2007-02-28,30.6725
2007-03-01,30.652
2007-03-02,30.1048
2007-03-05,29.2976
2007-03-06,30.0433
2007-03-07,29.6259
2007-03-08,30.3442
2007-03-09,30.6109
2007-03-12,30.9052
2007-03-13,30.1526
2007-03-14,30.3168
2007-03-15,30.5768
2007-03-16,30.0022
2007-03-19,30.2689
2007-03-20,30.5768
2007-03-21,30.8709
2007-03-22,31.0898
2007-03-23,31.0556
2007-03-26,30.5358
2007-03-27,30.2416
2007-03-28,30.139
2007-03-29,29.9817
2007-03-30,29.9543
2007-04-02,30.3306
2007-04-03,30.6109
2007-04-04,30.5494
2007-04-05,30.8504
2007-04-09,30.9804
2007-04-10,31.0966
2007-04-11,30.8435
2007-04-12,30.1048
2007-04-13,30.1116
2007-04-16,30.3579
2007-04-17,30.5836
2007-04-18,30.5152
2007-04-19,30.3032
2007-04-20,30.6109
2007-04-23,30.8025
2007-04-24,30.5562
2007-04-25,30.5905
2007-04-26,31.0556
2007-04-27,31.083
2007-04-30,30.9462
2007-05-01,30.6179
2007-05-02,30.5626
2007-05-03,30.7779
2007-05-04,30.3544
2007-05-07,30.4724
2007-05-08,31.1737
2007-05-09,31.4514
2007-05-10,31.2431
2007-05-11,31.132
2007-05-14,30.7848
2007-05-15,30.5697
2007-05-16,30.2433
2007-05-17,29.681
2007-05-18,29.4033
2007-05-21,29.6254
2007-05-22,30.0975
2007-05-23,29.9725
2007-05-24,29.7989
2007-05-25,29.8753
2007-05-29,30.3891
2007-05-30,30.6321
2007-05-31,30.3335
2007-06-01,30.3683
2007-06-04,30.4377
2007-06-05,30.0628
2007-06-06,30.0072
2007-06-07,29.0977
2007-06-08,29.306
2007-06-11,28.9728
2007-06-12,28.3826
2007-06-13,28.7436
2007-06-14,28.5145
2007-06-15,28.6951
2007-06-18,28.341
2007-06-19,28.4729
2007-06-20,27.7785
2007-06-21,27.7022
2007-06-22,27.4592
2007-06-25,27.0426
2007-06-26,27.2162
2007-06-27,27.959
2007-06-28,27.9452
2007-06-29,27.9661
2007-07-02,28.813
2007-07-03,28.8686
2007-07-05,28.9935
2007-07-06,29.2088
2007-07-09,28.8339
2007-07-10,28.084
2007-07-11,28.3062
2007-07-12,28.4937
2007-07-13,28.5701
2007-07-16,28.0979
2007-07-17,27.2024
2007-07-18,27.4106
2007-07-19,27.3481
2007-07-20,27.2162
2007-07-23,26.9246
2007-07-24,26.0706
2007-07-25,26.0845
2007-07-26,25.9179
2007-07-27,24.9736
2007-07-30,25.3763
2007-07-31,25.5847
2007-08-01,25.7985
2007-08-02,26.2509
2007-08-03,25.7561
2007-08-06,26.3712
2007-08-07,26.3994
2007-08-08,27.0994
2007-08-09,26.5833
2007-08-10,26.0813
2007-08-13,26.4489
2007-08-14,25.9823
2007-08-15,25.6712
2007-08-16,25.8904
2007-08-17,26.456
2007-08-20,26.8237
2007-08-21,27.064
2007-08-22,27.0853
2007-08-23,27.4317
2007-08-24,27.4953
2007-08-27,27.4034
2007-08-28,27.0004
2007-08-29,27.7498
2007-08-30,28.1811
2007-08-31,28.1458
2007-09-04,28.3154
2007-09-05,28.1245
2007-09-06,28.4215
2007-09-07,28.0821
2007-09-10,27.9973
2007-09-11,28.7325
2007-09-12,29.0719
2007-09-13,29.5315
2007-09-14,29.8355
2007-09-17,30.0335
2007-09-18,29.9769
2007-09-19,30.1677
2007-09-20,29.7365
2007-09-21,30.5354
2007-09-24,30.9667
2007-09-25,30.995
2007-09-26,30.8324
2007-09-27,31.1081
2007-09-28,31.2282
2007-10-01,31.5888
2007-10-02,31.7302
2007-10-03,32.0131
2007-10-04,32.1686
2007-10-05,32.8402
2007-10-08,32.1332
2007-10-09,32.4443
2007-10-10,32.3171
2007-10-11,32.1968
2007-10-12,32.1686
2007-10-15,31.6807
2007-10-16,31.2141
2007-10-17,30.9384
2007-10-18,30.9596
2007-10-19,30.2667
2007-10-22,30.9031
2007-10-23,31.3767
2007-10-24,31.4192
2007-10-25,31.2707
2007-10-26,31.3767
2007-10-29,31.0445
2007-10-30,31.7797
2007-10-31,31.6858
2007-11-01,31.1189
2007-11-02,30.509
2007-11-05,29.856
2007-11-06,29.8633
2007-11-07,29.8273
2007-11-08,31.0687
2007-11-09,31.1332
2007-11-12,31.2552
2007-11-13,31.9583
2007-11-14,31.6068
2007-11-15,31.5996
2007-11-16,31.3126
2007-11-19,30.5592
2007-11-20,30.2794
2007-11-21,30.5376
2007-11-23,31.1045
2007-11-26,29.7986
2007-11-27,30.7386
2007-11-28,31.7646
2007-11-29,31.7144
2007-11-30,32.0731
2007-12-03,31.858
2007-12-04,30.631
2007-12-05,31.1547
2007-12-06,31.858
2007-12-07,31.6642
2007-12-10,32.4248
2007-12-11,31.3843
2007-12-12,30.918
2007-12-13,30.9467
2007-12-14,30.4659
2007-12-17,30.4013
2007-12-18,30.5449
2007-12-19,30.796
2007-12-20,31.3772
2007-12-21,31.8364
2007-12-24,32.5252
2007-12-26,32.3961
2007-12-27,32.145
2007-12-28,31.8149
2007-12-31,32.0157
2008-01-02,32.3746
2008-01-03,31.7575
2008-01-04,30.8175
2008-01-07,30.9323
2008-01-08,30.2865
2008-01-09,31.1906
2008-01-10,31.5494
2008-01-11,31.6785
2008-01-14,31.5207
2008-01-15,30.8319
2008-01-16,30.4659
2008-01-17,29.9207
2008-01-18,29.4184
2008-01-22,29.9995
2008-01-23,31.5924
2008-01-24,31.2911
2008-01-25,31.2552
2008-01-28,31.858
2008-01-29,31.399
2008-01-30,30.8454
2008-01-31,31.1294
2008-02-01,31.7558
2008-02-04,31.6029
2008-02-05,30.5978
2008-02-06,29.5198
2008-02-07,30.219
2008-02-08,29.6
2008-02-11,28.908
2008-02-12,29.6583
2008-02-13,29.8257
2008-02-14,29.1557
2008-02-15,29.4834
2008-02-19,29.3669
2008-02-20,29.8039
2008-02-21,29.4252
2008-02-22,30.0734
2008-02-25,30.7653
2008-02-26,30.8017
2008-02-27,30.8672
2008-02-28,30.2118
2008-02-29,29.9205
2008-03-03,30.1972
2008-03-04,30.1827
2008-03-05,29.9568
2008-03-06,29.112
2008-03-07,29.7238
2008-03-10,29.5708
2008-03-11,30.9983
2008-03-12,30.8382
2008-03-13,31.5227
2008-03-14,31.4136
2008-03-17,31.4499
2008-03-18,32.2074
2008-03-19,32.2074
2008-03-20,33.1178
2008-03-24,33.4675
2008-03-25,33.7807
2008-03-26,33.1324
2008-03-27,32.7755
2008-03-28,32.7027
2008-03-31,32.8775
2008-04-01,33.9774
2008-04-02,34.1448
2008-04-03,34.7785
2008-04-04,33.97
2008-04-07,33.9627
2008-04-08,33.9409
2008-04-09,33.5549
2008-04-10,34.2832
2008-04-11,34.1448
2008-04-14,34.1303
2008-04-15,34.4216
2008-04-16,35.7545
2008-04-17,35.9584
2008-04-18,35.5433
2008-04-21,35.4049
2008-04-22,35.2591
2008-04-23,35.6889
2008-04-24,36.2279
2008-04-25,36.4828
2008-04-28,36.5848
2008-04-29,36.1114
2008-04-30,35.8243
2008-05-01,36.2674
2008-05-02,35.3886
2008-05-05,35.5067
2008-05-06,35.6913
2008-05-07,34.8938
2008-05-08,35.2556
2008-05-09,35.7282
2008-05-12,36.8359
2008-05-13,36.8212
2008-05-14,36.4889
2008-05-15,36.9541
2008-05-16,36.1492
2008-05-19,35.972
2008-05-20,35.8094
2008-05-21,35.0636
2008-05-22,34.8199
2008-05-23,34.7534
2008-05-27,35.2335
2008-05-28,35.4255
2008-05-29,35.6396
2008-05-30,35.6987
2008-06-02,35.4328
2008-06-03,35.6544
2008-06-04,35.8685
2008-06-05,36.3265
2008-06-06,35.514
2008-06-09,34.7017
2008-06-10,34.7313
2008-06-11,34.2586
2008-06-12,34.3251
2008-06-13,34.8864
2008-06-16,35.2704
2008-06-17,34.4212
2008-06-18,34.0223
2008-06-19,34.6943
2008-06-20,33.9855
2008-06-23,33.1435
2008-06-24,33.4315
2008-06-25,33.7269
2008-06-26,33.0549
2008-06-27,32.8408
2008-06-30,32.8555
2008-07-01,32.5527
2008-07-02,32.501
2008-07-03,32.442
2008-07-07,31.9767
2008-07-08,34.17
2008-07-09,31.9102
2008-07-10,33.1288
2008-07-11,33.5424
2008-07-14,32.6192
2008-07-15,32.5306
2008-07-16,34.5614
2008-07-17,34.9011
2008-07-18,34.8568
2008-07-21,35.5954
2008-07-22,36.4151
2008-07-23,36.3412
2008-07-24,35.0046
2008-07-25,36.0606
2008-07-28,35.7652
2008-07-29,36.7473
2008-07-30,36.742
2008-07-31,37.4084
2008-08-01,37.7977
2008-08-04,37.7004
2008-08-05,38.7562
2008-08-06,38.0823
2008-08-07,37.5133
2008-08-08,39.2804
2008-08-11,40.2313
2008-08-12,39.3028
2008-08-13,39.6173
2008-08-14,39.8644
2008-08-15,39.3403
2008-08-18,38.7187
2008-08-19,38.2021
2008-08-20,38.3668
2008-08-21,37.7903
2008-08-22,38.8461
2008-08-25,37.7529
2008-08-26,37.7678
2008-08-27,37.955
2008-08-28,39.1156
2008-08-29,38.8311
2008-09-02,38.7337
2008-09-03,37.4458
2008-09-04,35.9109
2008-09-05,36.0082
2008-09-08,36.7719
2008-09-09,35.2295
2008-09-10,35.9408
2008-09-11,36.3526
2008-09-12,36.802
2008-09-15,35.3793
2008-09-16,36.5623
2008-09-17,35.177
2008-09-18,37.7753
2008-09-19,39.0857
2008-09-22,36.6971
2008-09-23,37.1389
2008-09-24,37.0715
2008-09-25,37.8052
2008-09-26,39.168
2008-09-29,37.633
2008-09-30,40.1564
2008-10-01,39.797
2008-10-02,39.3103
2008-10-03,38.3968
2008-10-06,37.6106
2008-10-07,36.0457
2008-10-08,35.8509
2008-10-09,32.489
2008-10-10,33.8817
2008-10-13,35.3942
2008-10-14,34.3684
2008-10-15,30.9016
2008-10-16,33.1854
2008-10-17,32.7661
2008-10-20,33.6271
2008-10-21,33.3202
2008-10-22,32.0473
2008-10-23,32.2419
2008-10-24,30.7294
2008-10-27,28.9399
2008-10-28,31.86
2008-10-29,30.969
2008-10-30,31.905
2008-10-31,33.3202
2008-11-03,32.0996
2008-11-04,32.5339
2008-11-05,30.4599
2008-11-06,29.3787
2008-11-07,30.856
2008-11-10,28.2059
2008-11-11,27.4521
2008-11-12,26.8658
2008-11-13,28.9599
2008-11-14,27.1246
2008-11-17,27.1551
2008-11-18,27.3988
2008-11-19,25.0305
2008-11-20,23.5684
2008-11-21,26.622
2008-11-24,29.2797
2008-11-25,29.1502
2008-11-26,29.927
2008-11-28,28.937
2008-12-01,25.2741
2008-12-02,26.424
2008-12-03,26.8124
2008-12-04,25.7691
2008-12-05,28.1907
2008-12-08,30.0336
2008-12-09,27.7034
2008-12-10,29.8432
2008-12-11,25.5711
2008-12-12,28.0689
2008-12-15,27.6424
2008-12-16,29.8356
2008-12-17,29.5995
2008-12-18,28.3583
2008-12-19,29.8356
2008-12-22,29.2721
2008-12-23,29.8888
2008-12-24,30.1858
2008-12-26,30.9321
2008-12-29,29.531
2008-12-30,30.955
2008-12-31,32.1657
2009-01-02,30.3762
2009-01-05,29.4015
2009-01-06,30.4904
2009-01-07,29.63
2009-01-08,28.8533
2009-01-09,28.2897
2009-01-12,27.6729
2009-01-13,28.5943
2009-01-14,27.2388
2009-01-15,28.5181
2009-01-16,29.9346
2009-01-20,27.2464
2009-01-21,29.531
2009-01-22,28.1374
2009-01-23,29.3863
2009-01-26,29.371
2009-01-27,29.6224
2009-01-28,31.7851
2009-01-29,28.7467
2009-01-30,28.6247
2009-02-02,29.4091
2009-02-03,28.9979
2009-02-04,27.9775
2009-02-05,27.5558
2009-02-06,29.1693
2009-02-09,29.1461
2009-02-10,26.8808
2009-02-11,27.3075
2009-02-12,26.5549
2009-02-13,24.9956
2009-02-17,24.2509
2009-02-18,24.6466
2009-02-19,23.188
2009-02-20,25.3138
2009-02-23,24.0026
2009-02-24,25.9498
2009-02-25,25.3835
2009-02-26,24.4837
2009-02-27,23.9174
2009-03-02,22.4356
2009-03-03,22.839
2009-03-04,23.0251
2009-03-05,21.4348
2009-03-06,21.1168
2009-03-09,21.6753
2009-03-10,23.7389
2009-03-11,23.607
2009-03-12,25.1896
2009-03-13,24.6077
2009-03-16,23.2035
2009-03-17,24.9491
2009-03-18,25.9964
2009-03-19,24.2742
2009-03-20,23.4518
2009-03-23,26.9118
2009-03-24,24.9569
2009-03-25,25.0189
2009-03-26,23.9949
2009-03-27,23.188
2009-03-30,21.846
2009-03-31,23.7389
2009-04-01,23.3743
2009-04-02,24.9569
2009-04-03,26.0507
2009-04-06,26.0972
2009-04-07,24.3207
2009-04-08,24.9414
2009-04-09,27.323
2009-04-13,27.2686
2009-04-14,24.9103
2009-04-15,26.8576
2009-04-16,26.7722
2009-04-17,26.2446
2009-04-20,23.9871
2009-04-21,26.2291
2009-04-22,24.6156
2009-04-23,26.2834
2009-04-24,26.6713
2009-04-27,26.1282
2009-04-28,27.067
2009-04-29,27.5945
2009-04-30,26.3765
2009-05-01,25.7093
2009-05-04,27.1057
2009-05-05,25.6318
2009-05-06,26.5162
2009-05-07,25.3452
2009-05-08,27.2845
2009-05-11,26.4533
2009-05-12,26.572
2009-05-13,25.7568
2009-05-14,26.382
2009-05-15,25.361
2009-05-18,26.8412
2009-05-19,26.0417
2009-05-20,25.7805
2009-05-21,25.9705
2009-05-22,25.6776
2009-05-26,26.8095
2009-05-27,25.923
2009-05-28,26.4613
2009-05-29,27.1341
2009-06-01,27.7198
2009-06-02,27.1103
2009-06-03,27.5615
2009-06-04,28.3768
2009-06-05,28.1947
2009-06-08,28.4955
2009-06-09,28.638
2009-06-10,27.9731
2009-06-11,27.4744
2009-06-12,28.4243
2009-06-15,27.2845
2009-06-16,27.1499
2009-06-17,27.0866
2009-06-18,27.142
2009-06-19,27.229
2009-06-22,26.2238
2009-06-23,26.3662
2009-06-24,26.5562
2009-06-25,26.8333
2009-06-26,26.6354
2009-06-29,26.8729
2009-06-30,26.9678
2009-07-01,27.1578
2009-07-02,26.2317
2009-07-06,27.2369
2009-07-07,26.952
2009-07-08,27.3557
2009-07-09,26.9282
2009-07-10,27.0945
2009-07-13,27.9573
2009-07-14,28.0839
2009-07-15,28.8517
2009-07-16,29.105
2009-07-17,28.8201
2009-07-20,29.5641
2009-07-21,29.7699
2009-07-22,29.5799
2009-07-23,30.6722
2009-07-24,30.7672
2009-07-27,31.2184
2009-07-28,31.0126
2009-07-29,30.9097
2009-07-30,31.7487
2009-07-31,31.7725
2009-08-03,32.3345
2009-08-04,33.6088
2009-08-05,34.709
2009-08-06,33.342
2009-08-07,34.5802
2009-08-10,33.736
2009-08-11,32.9963
2009-08-12,33.0365
2009-08-13,32.6345
2009-08-14,32.747
2009-08-17,31.9832
2009-08-18,32.4255
2009-08-19,32.5461
2009-08-20,33.736
2009-08-21,34.54
2009-08-24,34.138
2009-08-25,34.0817
2009-08-26,33.9692
2009-08-27,34.4355
2009-08-28,34.6123
2009-08-31,34.339
2009-09-01,32.1602
2009-09-02,32.128
2009-09-03,32.2566
2009-09-04,32.2566
2009-09-08,32.7711
2009-09-09,33.2697
2009-09-10,33.0767
2009-09-11,33.1651
2009-09-14,33.736
2009-09-15,34.2666
2009-09-16,34.9018
2009-09-17,34.8214
2009-09-18,34.8696
2009-09-21,34.5641
2009-09-22,35.344
2009-09-23,34.3792
2009-09-24,33.7199
2009-09-25,33.6797
2009-09-28,34.5561
2009-09-29,34.0898
2009-09-30,33.5108
2009-10-01,32.9802
2009-10-02,33.2938
2009-10-05,34.1943
2009-10-06,34.0014
2009-10-07,34.1219
2009-10-08,34.4918
2009-10-09,35.135
2009-10-12,35.344
2009-10-13,35.1029
2009-10-14,36.1158
2009-10-15,36.0435
2009-10-16,35.5531
2009-10-19,36.55
2009-10-20,35.8344
2009-10-21,35.3118
2009-10-22,36.2606
2009-10-23,35.7379
2009-10-26,36.148
2009-10-27,36.333
2009-10-28,35.3842
2009-10-29,36.5902
2009-10-30,35.6656
2009-11-02,36.1641
2009-11-03,36.1399
2009-11-04,35.1511
2009-11-05,35.0121
2009-11-06,34.4159
2009-11-09,35.7063
2009-11-10,35.1591
2009-11-11,35.4939
2009-11-12,34.955
2009-11-13,35.2734
2009-11-16,35.5674
2009-11-17,35.3224
2009-11-18,36.1554
2009-11-19,35.7063
2009-11-20,35.7961
2009-11-23,36.1228
2009-11-24,35.9676
2009-11-25,35.9349
2009-11-27,34.955
2009-11-30,36.4659
2009-12-01,36.7598
2009-12-02,37.2172
2009-12-03,36.866
2009-12-04,37.6827
2009-12-07,37.2743
2009-12-08,37.1028
2009-12-09,37.1355
2009-12-10,37.062
2009-12-11,37.1355
2009-12-14,37.6582
2009-12-15,37.2907
2009-12-16,37.1028
2009-12-17,36.7517
2009-12-18,36.8252
2009-12-21,37.1437
2009-12-22,37.3233
2009-12-23,37.2253
2009-12-24,37.7235
2009-12-28,37.5847
2009-12-29,37.4132
2009-12-30,37.4785
2009-12-31,36.2698
2010-01-04,35.9513
2010-01-05,36.474
2010-01-06,36.2616
2010-01-07,36.3923
2010-01-08,36.0248
2010-01-11,36.1228
2010-01-12,35.7308
2010-01-13,36.5312
2010-01-14,36.2616
2010-01-15,36.2208
2010-01-19,37.0865
2010-01-20,36.9558
2010-01-21,36.1228
2010-01-22,35.2898
2010-01-25,35.3306
2010-01-26,35.1836
2010-01-27,35.4939
2010-01-28,35.3633
2010-01-29,35.102
2010-02-01,35.1183
2010-02-02,35.4123
2010-02-03,34.9059
2010-02-04,33.578
2010-02-05,34.0096
2010-02-08,33.4037
2010-02-09,33.4535
2010-02-10,33.5863
2010-02-11,34.0262
2010-02-12,33.8104
2010-02-16,34.5988
2010-02-17,34.8479
2010-02-18,35.1715
2010-02-19,34.6901
2010-02-22,34.8313
2010-02-23,34.4494
2010-02-24,35.0636
2010-02-25,35.3541
2010-02-26,35.1798
2010-03-01,35.462
2010-03-02,35.2628
2010-03-03,35.13
2010-03-04,35.3375
2010-03-05,35.8188
2010-03-08,35.9765
2010-03-09,36.184
2010-03-10,36.5408
2010-03-11,36.8977
2010-03-12,37.0886
2010-03-15,37.2877
2010-03-16,38.1674
2010-03-17,38.3417
2010-03-18,38.101
2010-03-19,37.9268
2010-03-22,38.3583
2010-03-23,38.3915
2010-03-24,38.4496
2010-03-25,38.4247
2010-03-26,38.1093
2010-03-29,38.0098
2010-03-30,37.9683
2010-03-31,37.5035
2010-04-01,37.3873
2010-04-05,37.6446
2010-04-06,38.0844
2010-04-07,37.4952
2010-04-08,37.4122
2010-04-09,37.8853
2010-04-12,37.6446
2010-04-13,38.3002
2010-04-14,38.0927
2010-04-15,36.74
2010-04-16,35.935
2010-04-19,35.9101
2010-04-20,36.3583
2010-04-21,36.8562
2010-04-22,37.155
2010-04-23,37.6114
2010-04-26,37.8189
2010-04-27,36.906
2010-04-28,36.9558
2010-04-29,38.0181
2010-04-30,37.296
2010-05-03,38.1674
2010-05-04,36.8977
2010-05-05,36.1508
2010-05-06,34.4565
2010-05-07,34.2795
2010-05-10,36.1596
2010-05-11,36.2271
2010-05-12,36.2776
2010-05-13,35.9403
2010-05-14,35.3923
2010-05-17,35.4851
2010-05-18,34.895
2010-05-19,34.6336
2010-05-20,33.7652
2010-05-21,35.0214
2010-05-24,35.0214
2010-05-25,35.932
2010-05-26,35.3081
2010-05-27,36.7497
2010-05-28,36.3956
2010-06-01,35.6959
2010-06-02,36.0162
2010-06-03,35.8983
2010-06-04,34.6841
2010-06-07,34.6841
2010-06-08,35.561
2010-06-09,35.7633
2010-06-10,36.9014
2010-06-11,37.0532
2010-06-14,37.3314
2010-06-15,37.7699
2010-06-16,37.2302
2010-06-17,37.4917
2010-06-18,36.5895
2010-06-21,36.2524
2010-06-22,35.4851
2010-06-23,35.7465
2010-06-24,35.2069
2010-06-25,36.0668
2010-06-28,36.0584
2010-06-29,35.6537
2010-06-30,35.4682
2010-07-01,35.4008
2010-07-02,35.2069
2010-07-06,34.7347
2010-07-07,35.9067
2010-07-08,36.1343
2010-07-09,36.4125
2010-07-12,36.48
2010-07-13,37.2135
2010-07-14,36.9858
2010-07-15,36.8341
2010-07-16,36.2439
2010-07-19,36.9352
2010-07-20,37.5001
2010-07-21,36.9605
2010-07-22,37.7952
2010-07-23,38.0143
2010-07-26,38.5033
2010-07-27,38.2757
2010-07-28,38.3094
2010-07-29,38.0396
2010-07-30,38.2166
2010-08-02,39.2537
2010-08-03,38.7732
2010-08-04,38.8237
2010-08-05,38.9355
2010-08-06,38.9355
2010-08-09,39.0039
2010-08-10,39.0125
2010-08-11,38.2507
2010-08-12,38.2422
2010-08-13,38.2936
2010-08-16,38.071
2010-08-17,38.8584
2010-08-18,38.8584
2010-08-19,38.4048
2010-08-20,38.5931
2010-08-23,38.225
2010-08-24,38.3706
2010-08-25,38.7301
2010-08-26,38.4305
2010-08-27,39.1067
2010-08-30,38.9013
2010-08-31,39.3035
2010-09-01,40.0824
2010-09-02,40.4847
2010-09-03,40.827
2010-09-07,40.3221
2010-09-08,40.3906
2010-09-09,39.9112
2010-09-10,39.9712
2010-09-13,40.5275
2010-09-14,40.6558
2010-09-15,40.8527
2010-09-16,40.7415
2010-09-17,41.0068
2010-09-20,41.4091
2010-09-21,40.1166
2010-09-22,40.2023
2010-09-23,39.6459
2010-09-24,40.5189
2010-09-27,40.0481
2010-09-28,40.5532
2010-09-29,40.1766
2010-09-30,40.5018
2010-10-01,40.5532
2010-10-04,40.8356
2010-10-05,41.7429
2010-10-06,41.6401
2010-10-07,41.7686
2010-10-08,41.6915
2010-10-11,41.8028
2010-10-12,42.0254
2010-10-13,42.2137
2010-10-14,42.342
2010-10-15,42.342
2010-10-18,43.0011
2010-10-19,42.8812
2010-10-20,43.5403
2010-10-21,43.5146
2010-10-22,43.5489
2010-10-25,43.8228
2010-10-26,43.7543
2010-10-27,43.4718
2010-10-28,43.4889
2010-10-29,43.7457
2010-11-01,44.2336
2010-11-02,43.8313
2010-11-03,43.1038
2010-11-04,44.3184
2010-11-05,43.6242
2010-11-08,43.7978
2010-11-09,41.6544
2010-11-10,42.0448
2010-11-11,41.4982
2010-11-12,40.8039
2010-11-15,40.613
2010-11-16,39.3721
2010-11-17,39.4501
2010-11-18,39.4501
2010-11-19,39.8233
2010-11-22,39.8407
2010-11-23,39.5022
2010-11-24,40.1877
2010-11-26,40.0228
2010-11-29,40.2311
2010-11-30,40.1877
2010-12-01,39.4154
2010-12-02,40.0141
2010-12-03,39.7278
2010-12-06,39.6324
2010-12-07,39.7018
2010-12-08,39.346
2010-12-09,39.2159
2010-12-10,39.5022
2010-12-13,39.5022
2010-12-14,38.834
2010-12-15,38.3567
2010-12-16,38.5042
2010-12-17,39.1551
2010-12-20,39.6324
2010-12-21,40.5436
2010-12-22,40.9861
2010-12-23,40.9687
2010-12-27,41.125
2010-12-28,41.2118
2010-12-29,41.2031
2010-12-30,41.3333
2010-12-31,41.3419
2011-01-03,42.0535
2011-01-04,41.446
2011-01-05,41.4721
2011-01-06,41.4287
2011-01-07,41.0902
2011-01-10,41.1163
2011-01-11,41.0035
2011-01-12,40.7865
2011-01-13,40.8299
2011-01-14,40.8039
2011-01-18,41.2377
2011-01-19,41.4113
2011-01-20,41.4721
2011-01-21,41.2898
2011-01-24,41.5936
2011-01-25,42.0361
2011-01-26,42.149
2011-01-27,42.6783
2011-01-28,42.0535
2011-01-31,42.5569
2011-02-01,42.9994
2011-02-02,42.5829
2011-02-03,42.8259
2011-02-04,42.5443
2011-02-07,42.87
2011-02-08,43.1692
2011-02-09,43.4068
2011-02-10,43.4685
2011-02-11,43.4773
2011-02-14,43.3189
2011-02-15,43.5741
2011-02-16,43.9702
2011-02-17,43.5917
2011-02-18,44.2254
2011-02-22,44.067
2011-02-23,43.8381
2011-02-24,43.8117
2011-02-25,44.7359
2011-02-28,45.9767
2011-03-01,44.771
2011-03-02,44.7886
2011-03-03,45.1759
2011-03-04,45.3167
2011-03-07,45.1054
2011-03-08,45.7215
2011-03-09,45.8976
2011-03-10,45.4487
2011-03-11,45.8623
2011-03-14,45.8447
2011-03-15,45.5279
2011-03-16,44.5686
2011-03-17,44.7886
2011-03-18,45.4839
2011-03-21,45.5367
2011-03-22,44.8327
2011-03-23,44.4014
2011-03-24,44.6654
2011-03-25,45.1407
2011-03-28,45.4576
2011-03-29,45.6159
2011-03-30,46.1176
2011-03-31,46.1704
2011-04-01,45.9944
2011-04-04,46.1
2011-04-05,46.4345
2011-04-06,46.3904
2011-04-07,46.1176
2011-04-08,45.7567
2011-04-11,45.7567
2011-04-12,45.5896
2011-04-13,45.5279
2011-04-14,45.9592
2011-04-15,46.5048
2011-04-18,46.3552
2011-04-19,46.6192
2011-04-20,46.9009
2011-04-21,47.0241
2011-04-25,47.0241
2011-04-26,47.6402
2011-04-27,48.001
2011-04-28,48.3707
2011-04-29,47.3409
2011-05-02,47.6314
2011-05-03,47.0769
2011-05-04,46.9537
2011-05-05,46.2848
2011-05-06,45.6913
2011-05-09,45.6557
2011-05-10,45.7627
2011-05-11,45.7271
2011-05-12,46.1196
2011-05-13,45.1738
2011-05-16,45.2988
2011-05-17,45.6111
2011-05-18,45.9055
2011-05-19,46.1107
2011-05-20,45.8698
2011-05-23,45.7627
2011-05-24,46.3516
2011-05-25,46.2535
2011-05-26,46.3873
2011-05-27,46.6371
2011-05-31,47.4401
2011-06-01,46.5122
2011-06-02,46.0304
2011-06-03,46.3873
2011-06-06,45.6824
2011-06-07,45.9144
2011-06-08,46.0393
2011-06-09,45.6468
2011-06-10,44.4333
2011-06-13,45.0578
2011-06-14,45.9858
2011-06-15,45.4593
2011-06-16,46.1554
2011-06-17,46.5835
2011-06-20,47.2796
2011-06-21,47.6543
2011-06-22,47.4312
2011-06-23,46.4943
2011-06-24,46.6193
2011-06-27,46.5835
2011-06-28,46.771
2011-06-29,47.1368
2011-06-30,46.7977
2011-07-01,47.0565
2011-07-05,47.1992
2011-07-06,47.5472
2011-07-07,47.9933
2011-07-08,47.7435
2011-07-11,47.0743
2011-07-12,47.0118
2011-07-13,46.5479
2011-07-14,46.3338
2011-07-15,46.9048
2011-07-18,46.8334
2011-07-19,47.5472
2011-07-20,47.806
2011-07-21,48.3948
2011-07-22,48.5287
2011-07-25,48.1896
2011-07-26,48.1985
2011-07-27,47.2617
2011-07-28,46.8958
2011-07-29,47.1457
2011-08-01,43.1217
2011-08-02,42.9789
2011-08-03,43.2199
2011-08-04,42.1849
2011-08-05,41.4553
2011-08-08,37.2518
2011-08-09,40.5856
2011-08-10,39.263
2011-08-11,41.0114
2011-08-12,41.5096
2011-08-15,43.2762
2011-08-16,43.2671
2011-08-17,43.3577
2011-08-18,41.718
2011-08-19,41.4462
2011-08-22,42.017
2011-08-23,43.1313
2011-08-24,43.847
2011-08-25,43.3849
2011-08-26,44.01
2011-08-29,45.3508
2011-08-30,45.9397
2011-08-31,46.0936
2011-09-01,45.1787
2011-09-02,44.5807
2011-09-06,44.9794
2011-09-07,46.4379
2011-09-08,45.7585
2011-09-09,44.4992
2011-09-12,44.5173
2011-09-13,44.5536
2011-09-14,44.8979
2011-09-15,45.3327
2011-09-16,46.3564
2011-09-19,45.6136
2011-09-20,45.9669
2011-09-21,43.5752
2011-09-22,42.3974
2011-09-23,42.4609
2011-09-26,43.4574
2011-09-27,43.9557
2011-09-28,42.9864
2011-09-29,44.0372
2011-09-30,42.4519
2011-10-03,40.8211
2011-10-04,42.1347
2011-10-05,42.1438
2011-10-06,42.787
2011-10-07,41.6999
2011-10-10,43.6567
2011-10-11,42.8504
2011-10-12,43.0498
2011-10-13,42.8414
2011-10-14,43.6024
2011-10-17,42.5786
2011-10-18,43.548
2011-10-19,43.394
2011-10-20,43.8016
2011-10-21,45.1968
2011-10-24,46.0936
2011-10-25,45.5954
2011-10-26,46.2658
2011-10-27,47.7878
2011-10-28,48.5035
2011-10-31,47.7968
2011-11-01,46.5648
2011-11-02,47.4072
2011-11-03,48.0142
2011-11-04,46.0079
2011-11-07,46.0996
2011-11-08,46.9537
2011-11-09,45.6313
2011-11-10,45.5027
2011-11-11,46.9354
2011-11-14,45.8426
2011-11-15,45.9895
2011-11-16,45.7415
2011-11-17,44.7038
2011-11-18,45.1079
2011-11-21,44.2722
2011-11-22,44.2263
2011-11-23,43.3447
2011-11-25,43.9049
2011-11-28,44.6487
2011-11-29,44.5294
2011-11-30,46.0629
2011-12-01,45.7139
2011-12-02,45.5027
2011-12-05,45.4569
2011-12-06,45.7599
2011-12-07,46.1456
2011-12-08,45.5486
2011-12-09,46.7058
2011-12-12,46.2741
2011-12-13,46.2374
2011-12-14,46.5497
2011-12-15,46.9996
2011-12-16,47.6608
2011-12-19,47.2476
2011-12-20,48.322
2011-12-21,48.3955
2011-12-22,49.2587
2011-12-23,49.5984
2011-12-27,50.0943
2011-12-28,49.6168
2011-12-29,50.1678
2011-12-30,50.076
2012-01-03,50.5903
2012-01-04,49.3872
2012-01-05,49.8832
2012-01-06,49.7729
2012-01-09,50.0117
2012-01-10,50.8657
2012-01-11,50.9025
2012-01-12,50.7647
2012-01-13,50.9668
2012-01-17,51.1504
2012-01-18,51.1413
2012-01-19,50.627
2012-01-20,50.5535
2012-01-23,50.6454
2012-01-24,50.8933
2012-01-25,52.0688
2012-01-26,52.6565
2012-01-27,52.6198
2012-01-30,52.0871
2012-01-31,52.5554
2012-02-01,52.4912
2012-02-02,52.5279
2012-02-03,52.8625
2012-02-06,52.9462
2012-02-07,53.3369
2012-02-08,53.3091
2012-02-09,53.1322
2012-02-10,52.5089
2012-02-13,53.1602
2012-02-14,52.6485
2012-02-15,52.4252
2012-02-16,51.6902
2012-02-17,51.5507
2012-02-21,50.425
2012-02-22,49.8016
2012-02-23,50.6017
2012-02-24,50.5272
2012-02-27,50.918
2012-02-28,50.4714
2012-02-29,50.6854
2012-03-01,51.1134
2012-03-02,50.8436
2012-03-05,51.2436
2012-03-06,50.3133
2012-03-07,50.3692
2012-03-08,50.183
2012-03-09,50.5272
2012-03-12,50.6947
2012-03-13,51.346
2012-03-14,50.7226
2012-03-15,50.6483
2012-03-16,50.8808
2012-03-19,51.1227
2012-03-20,50.8994
2012-03-21,50.5645
2012-03-22,49.9412
2012-03-23,50.3412
2012-03-26,50.6296
2012-03-27,51.0017
2012-03-28,51.0017
2012-03-29,50.611
2012-03-30,51.0948
2012-04-02,51.0483
2012-04-03,50.6203
2012-04-04,49.8574
2012-04-05,49.7365
2012-04-09,49.5783
2012-04-10,48.8061
2012-04-11,49.3643
2012-04-12,49.9039
2012-04-13,49.5783
2012-04-16,50.1272
2012-04-17,50.4156
2012-04-18,50.0901
2012-04-19,50.2388
2012-04-20,50.8901
2012-04-23,50.3412
2012-04-24,51.1692
2012-04-25,52.0531
2012-04-26,52.7043
2012-04-27,52.788
2012-04-30,52.7415
2012-05-01,53.4951
2012-05-02,52.8718
2012-05-03,53.0392
2012-05-04,52.9642
2012-05-07,53.36
2012-05-08,52.7003
2012-05-09,52.8039
2012-05-10,53.0113
2012-05-11,53.0395
2012-05-14,52.6437
2012-05-15,52.3986
2012-05-16,51.9085
2012-05-17,51.1733
2012-05-18,50.7679
2012-05-21,51.7765
2012-05-22,51.899
2012-05-23,52.2384
2012-05-24,52.4175
2012-05-25,52.0499
2012-05-29,52.6249
2012-05-30,51.6351
2012-05-31,52.3138
2012-06-01,51.1544
2012-06-04,50.7396
2012-06-05,51.3712
2012-06-06,52.1818
2012-06-07,52.097
2012-06-08,52.7191
2012-06-11,51.8896
2012-06-12,52.2006
2012-06-13,52.606
2012-06-14,53.3035
2012-06-15,53.5392
2012-06-18,54.312
2012-06-19,53.9728
2012-06-20,53.7277
2012-06-21,53.181
2012-06-22,53.2846
2012-06-25,53.1339
2012-06-26,53.1433
2012-06-27,53.2846
2012-06-28,54.0859
2012-06-29,54.9153
2012-07-02,55.6883
2012-07-03,55.6129
2012-07-05,55.1982
2012-07-06,55.6223
2012-07-09,56.0275
2012-07-10,55.3867
2012-07-11,55.8485
2012-07-12,56.1219
2012-07-13,57.0739
2012-07-16,57.498
2012-07-17,57.9599
2012-07-18,57.3943
2012-07-19,57.3001
2012-07-20,56.9984
2012-07-23,57.3661
2012-07-24,57.3095
2012-07-25,57.3567
2012-07-26,57.564
2012-07-27,58.2144
2012-07-30,58.6763
2012-07-31,58.6952
2012-08-01,58.3275
2012-08-02,58.5914
2012-08-03,58.3717
2012-08-06,57.8947
2012-08-07,56.3875
2012-08-08,56.3589
2012-08-09,57.0171
2012-08-10,56.9122
2012-08-13,56.7214
2012-08-14,56.7977
2012-08-15,56.8645
2012-08-16,57.3796
2012-08-17,57.1697
2012-08-20,57.0743
2012-08-21,57.0266
2012-08-22,55.5194
2012-08-23,54.6322
2012-08-24,55.424
2012-08-27,55.6625
2012-08-28,55.4908
2012-08-29,55.548
2012-08-30,55.6244
2012-08-31,55.777
2012-09-04,56.2921
2012-09-05,56.0918
2012-09-06,56.502
2012-09-07,55.9296
2012-09-10,55.3477
2012-09-11,55.8056
2012-09-12,55.7102
2012-09-13,56.5688
2012-09-14,55.7961
2012-09-17,55.4717
2012-09-18,53.9931
2012-09-19,54.5845
2012-09-20,54.5845
2012-09-21,55.0519
2012-09-24,55.3095
2012-09-25,54.4987
2012-09-26,55.0138
2012-09-27,54.9566
2012-09-28,55.0043
2012-10-01,54.8517
2012-10-02,55.8246
2012-10-03,56.75
2012-10-04,56.8167
2012-10-05,56.7786
2012-10-08,56.9217
2012-10-09,56.8263
2012-10-10,56.7214
2012-10-11,56.6069
2012-10-12,56.378
2012-10-15,56.9503
2012-10-16,57.1697
2012-10-17,56.5782
2012-10-18,57.7039
2012-10-19,57.0362
2012-10-22,57.0362
2012-10-23,56.3016
2012-10-24,56.168
2012-10-25,56.0155
2012-10-26,55.5385
2012-10-31,56.7214
2012-11-01,56.521
2012-11-02,57.0992
2012-11-05,56.3554
2012-11-06,56.5872
2012-11-07,57.2151
2012-11-08,56.6838
2012-11-09,56.6451
2012-11-12,56.9929
2012-11-13,57.4082
2012-11-14,56.7418
2012-11-15,56.7901
2012-11-16,57.5725
2012-11-19,58.0748
2012-11-20,58.3935
2012-11-21,57.7946
2012-11-23,58.2101
2012-11-26,57.9203
2012-11-27,57.2248
2012-11-28,57.0992
2012-11-29,57.0315
2012-11-30,57.0123
2012-12-03,57.2151
2012-12-04,57.2248
2012-12-05,56.9832
2012-12-06,57.5242
2012-12-07,57.7271
2012-12-10,57.6691
2012-12-11,57.8526
2012-12-12,57.4566
2012-12-13,56.7611
2012-12-14,56.2781
2012-12-17,56.4712
2012-12-18,57.1861
2012-12-19,57.1185
2012-12-20,58.1907
2012-12-21,58.3935
2012-12-24,58.5578
2012-12-26,58.326
2012-12-27,58.7124
2012-12-28,58.7607
2012-12-31,59.1374
2013-01-02,58.9678
2013-01-03,59.248
2013-01-04,59.6635
2013-01-07,59.4702
2013-01-08,59.5379
2013-01-09,59.3447
2013-01-10,59.8663
2013-01-11,59.7987
2013-01-14,59.8374
2013-01-15,59.7021
2013-01-16,59.4027
2013-01-17,60.0016
2013-01-18,60.0499
2013-01-22,60.7937
2013-01-23,60.7648
2013-01-24,60.7261
2013-01-25,60.7551
2013-01-28,61.0887
2013-01-29,61.1369
2013-01-30,60.7505
2013-01-31,60.7119
2013-02-01,61.0838
2013-02-04,60.8002
2013-02-05,60.5948
2013-02-06,60.6486
2013-02-07,60.5557
2013-02-08,60.9176
2013-02-11,60.9811
2013-02-12,61.3087
2013-02-13,61.3331
2013-02-14,61.074
2013-02-15,61.4994
2013-02-19,62.4915
2013-02-20,62.6187
2013-02-21,62.5893
2013-02-22,63.1468
2013-02-25,61.7977
2013-02-26,61.9102
2013-02-27,62.5898
2013-02-28,62.7952
2013-03-01,63.1669
2013-03-04,63.9683
2013-03-05,64.0074
2013-03-06,64.0074
2013-03-07,63.7336
2013-03-08,63.8802
2013-03-11,63.9487
2013-03-12,63.6554
2013-03-13,63.4989
2013-03-14,63.7629
2013-03-15,64.1443
2013-03-18,64.0269
2013-03-19,63.9976
2013-03-20,64.3497
2013-03-21,64.4671
2013-03-22,64.555
2013-03-25,64.7408
2013-03-26,65.4156
2013-03-27,65.6797
2013-03-28,66.4034
2013-04-01,66.8923
2013-04-02,67.4107
2013-04-03,67.3618
2013-04-04,68.4767
2013-04-05,68.193
2013-04-08,68.6625
2013-04-09,69.0438
2013-04-10,69.6795
2013-04-11,69.3177
2013-04-12,69.4742
2013-04-15,68.819
2013-04-16,70.325
2013-04-17,69.7284
2013-04-18,69.6014
2013-04-19,71.0194
2013-04-22,71.1269
2013-04-23,71.7822
2013-04-24,72.232
2013-04-25,71.7431
2013-04-26,71.8506
2013-04-29,72.4765
2013-04-30,73.298
2013-05-01,73.2785
2013-05-02,73.8163
2013-05-03,73.8902
2013-05-06,74.0681
2013-05-07,74.5917
2013-05-08,73.2481
2013-05-09,73.7717
2013-05-10,74.4929
2013-05-13,74.8683
2013-05-14,75.0264
2013-05-15,76.3305
2013-05-16,75.9946
2013-05-17,76.864
2013-05-20,76.6961
2013-05-21,77.9706
2013-05-22,76.3206
2013-05-23,73.4061
2013-05-24,73.0603
2013-05-28,70.9955
2013-05-29,68.9701
2013-05-30,68.5651
2013-05-31,67.2412
2013-06-03,67.4586
2013-06-04,66.7966
2013-06-05,66.0853
2013-06-06,67.0634
2013-06-07,67.5277
2013-06-10,66.4706
2013-06-11,66.105
2013-06-12,64.7515
2013-06-13,66.1742
2013-06-14,66.5891
2013-06-17,66.8065
2013-06-18,67.256
2013-06-19,64.6132
2013-06-20,61.4616
2013-06-21,62.5681
2013-06-24,62.4891
2013-06-25,63.6351
2013-06-26,64.7416
2013-06-27,66.3224
2013-06-28,66.4409
2013-07-01,65.6407
2013-07-02,66.0062
2013-07-03,65.2653
2013-07-05,64.3267
2013-07-08,64.0303
2013-07-09,64.8898
2013-07-10,64.8898
2013-07-11,67.7846
2013-07-12,66.3224
2013-07-15,66.7472
2013-07-16,66.9152
2013-07-17,67.3104
2013-07-18,67.6265
2013-07-19,66.9646
2013-07-22,66.5496
2013-07-23,67.0337
2013-07-24,64.8701
2013-07-25,64.959
2013-07-26,65.2949
2013-07-29,64.7515
2013-07-30,64.8108
2013-07-31,63.6944
2013-08-01,62.8052
2013-08-02,63.42
2013-08-05,63.34
2013-08-06,63.3
2013-08-07,62.73
2013-08-08,62.82
2013-08-09,63.78
