date,close_price
1998-01-02,27.5877
1998-01-05,27.2574
1998-01-06,27.2889
1998-01-07,27.3256
1998-01-08,28.1433
1998-01-09,27.3885
1998-01-12,27.9127
1998-01-13,28.2429
1998-01-14,27.9808
1998-01-15,28.1748
1998-01-16,28.7985
1998-01-20,29.1602
1998-01-21,29.4538
1998-01-22,29.3542
1998-01-23,28.8614
1998-01-26,28.636
1998-01-27,29.1235
1998-01-28,29.2913
1998-01-29,29.6477
1998-01-30,29.0921
1998-02-02,29.4538
1998-02-03,29.7473
1998-02-04,29.4852
1998-02-05,29.1917
1998-02-06,29.8154
1998-02-09,30.3029
1998-02-10,30.1719
1998-02-11,30.2086
1998-02-12,30.3711
1998-02-13,30.1719
1998-02-17,30.4025
1998-02-18,31.0263
1998-02-19,30.8953
1998-02-20,31.0892
1998-02-23,30.9267
1998-02-24,30.565
1998-02-25,30.3711
1998-02-26,29.7473
1998-02-27,29.4538
1998-03-02,29.8783
1998-03-03,30.109
1998-03-04,29.8154
1998-03-05,29.7473
1998-03-06,30.3396
1998-03-09,30.565
1998-03-10,30.24
1998-03-11,30.2715
1998-03-12,30.8271
1998-03-13,30.3396
1998-03-16,30.2086
1998-03-17,30.0408
1998-03-18,30.24
1998-03-19,30.3743
1998-03-20,30.8012
1998-03-23,31.1649
1998-03-24,31.1649
1998-03-25,30.0106
1998-03-26,30.5693
1998-03-27,30.7327
1998-03-30,30.5693
1998-03-31,30.6694
1998-04-01,30.6009
1998-04-02,30.9013
1998-04-03,30.9646
1998-04-06,30.9329
1998-04-07,30.9013
1998-04-08,30.8328
1998-04-09,31.0331
1998-04-13,31.1965
1998-04-14,31.2597
1998-04-15,31.128
1998-04-16,31.0331
1998-04-17,31.1649
1998-04-20,31.0963
1998-04-21,30.3374
1998-04-22,29.4835
1998-04-23,29.0882
1998-04-24,28.4611
1998-04-27,27.6388
1998-04-28,28.0025
1998-04-29,28.0658
1998-04-30,28.7562
1998-05-01,28.7562
1998-05-04,28.9249
1998-05-05,28.9565
1998-05-06,28.4611
1998-05-07,27.934
1998-05-08,28.4927
1998-05-11,29.0566
1998-05-12,28.5612
1998-05-13,28.7931
1998-05-14,29.0566
1998-05-15,28.7246
1998-05-18,28.2291
1998-05-19,28.5928
1998-05-20,29.0197
1998-05-21,29.415
1998-05-22,29.3834
1998-05-26,29.1515
1998-05-27,28.2977
1998-05-28,28.4294
1998-05-29,27.9656
1998-06-01,28.2977
1998-06-02,28.0974
1998-06-03,28.0658
1998-06-04,28.5612
1998-06-05,29.0566
1998-06-08,28.5612
1998-06-09,28.5928
1998-06-10,28.7246
1998-06-11,28.3609
1998-06-12,28.1343
1998-06-15,28.0341
1998-06-16,28.5296
1998-06-17,29.5152
1998-06-18,29.5814
1998-06-19,29.221
1998-06-22,29.6821
1998-06-23,29.9471
1998-06-24,30.1486
1998-06-25,29.6503
1998-06-26,29.751
1998-06-29,29.9153
1998-06-30,29.751
1998-07-01,29.6503
1998-07-02,29.6503
1998-07-06,29.9789
1998-07-07,30.1115
1998-07-08,30.7422
1998-07-09,30.244
1998-07-10,30.4136
1998-07-13,30.1804
1998-07-14,30.7104
1998-07-15,30.9065
1998-07-16,30.7104
1998-07-17,30.9754
1998-07-20,30.3447
1998-07-21,30.8111
1998-07-22,29.9789
1998-07-23,29.3535
1998-07-24,29.1521
1998-07-27,29.1203
1998-07-28,29.1203
1998-07-29,29.5814
1998-07-30,29.486
1998-07-31,29.1521
1998-08-03,29.4171
1998-08-04,28.1927
1998-08-05,27.9595
1998-08-06,27.5938
1998-08-07,27.1326
1998-08-10,26.7351
1998-08-11,26.8994
1998-08-12,27.7634
1998-08-13,28.092
1998-08-14,27.3977
1998-08-17,28.0602
1998-08-18,28.2934
1998-08-19,28.2245
1998-08-20,28.2563
1998-08-21,27.9595
1998-08-24,28.6538
1998-08-25,28.956
1998-08-26,28.6538
1998-08-27,28.357
1998-08-28,28.0284
1998-08-31,28.357
1998-09-01,28.1609
1998-09-02,27.1644
1998-09-03,26.9312
1998-09-04,27.562
1998-09-08,28.5902
1998-09-09,29.1839
1998-09-10,28.8553
1998-09-11,29.1203
1998-09-14,28.8871
1998-09-15,29.1521
1998-09-16,29.1203
1998-09-17,28.4333
1998-09-18,28.9027
1998-09-21,28.0013
1998-09-22,28.604
1998-09-23,28.8333
1998-09-24,28.668
1998-09-25,28.4013
1998-09-28,27.7346
1998-09-29,28.268
1998-09-30,27.3666
1998-10-01,27.868
1998-10-02,29.8041
1998-10-05,30.9668
1998-10-06,30.7694
1998-10-07,30.5027
1998-10-08,30.5027
1998-10-09,30.4014
1998-10-12,30.9028
1998-10-13,31.1001
1998-10-14,31.8681
1998-10-15,32.0015
1998-10-16,31.7028
1998-10-19,31.9695
1998-10-20,31.5375
1998-10-21,31.4681
1998-10-22,31.8041
1998-10-23,31.4361
1998-10-26,31.5001
1998-10-27,31.0041
1998-10-28,31.0681
1998-10-29,31.0681
1998-10-30,31.0041
1998-11-02,31.6015
1998-11-03,31.9375
1998-11-04,31.6015
1998-11-05,31.1001
1998-11-06,31.4041
1998-11-09,31.1694
1998-11-10,31.6015
1998-11-11,31.6335
1998-11-12,31.7668
1998-11-13,32.0335
1998-11-16,32.6362
1998-11-17,32.4015
1998-11-18,32.3695
1998-11-19,32.2362
1998-11-20,32.2042
1998-11-23,32.0708
1998-11-24,31.4361
1998-11-25,31.8041
1998-11-27,31.6015
1998-11-30,31.1001
1998-12-01,31.0041
1998-12-02,30.9028
1998-12-03,30.3001
1998-12-04,30.7694
1998-12-07,30.3694
1998-12-08,29.9001
1998-12-09,29.7667
1998-12-10,29.5
1998-12-11,29.068
1998-12-14,29.036
1998-12-15,29.1
1998-12-16,29.004
1998-12-17,29.4557
1998-12-18,29.2518
1998-12-21,30.0247
1998-12-22,30.3574
1998-12-23,30.6258
1998-12-24,30.76
1998-12-28,30.6956
1998-12-29,30.6634
1998-12-30,30.5292
1998-12-31,30.2233
1999-01-04,30.8942
1999-01-05,30.4272
1999-01-06,30.0569
1999-01-07,30.1266
1999-01-08,30.3574
1999-01-11,29.5523
1999-01-12,28.3447
1999-01-13,28.3125
1999-01-14,28.6131
1999-01-15,28.9512
1999-01-19,28.817
1999-01-20,28.9512
1999-01-21,28.2481
1999-01-22,28.3447
1999-01-25,29.1874
1999-01-26,29.0156
1999-01-27,28.8814
1999-01-28,29.5899
1999-01-29,30.1911
1999-02-01,29.8905
1999-02-02,29.7241
1999-02-03,29.0532
1999-02-04,28.1139
1999-02-05,27.5772
1999-02-08,27.239
1999-02-09,27.6738
1999-02-10,29.4557
1999-02-11,29.3216
1999-02-12,29.1874
1999-02-16,29.8583
1999-02-17,29.9925
1999-02-18,30.6258
1999-02-19,30.9639
1999-02-22,31.2001
1999-02-23,30.395
1999-02-24,30.2608
1999-02-25,29.7241
1999-02-26,29.1874
1999-03-01,28.9834
1999-03-02,29.1874
1999-03-03,28.5165
1999-03-04,27.91
1999-03-05,28.2481
1999-03-08,27.9797
1999-03-09,27.3088
1999-03-10,27.341
1999-03-11,27.6094
1999-03-12,28.2481
1999-03-15,27.9797
1999-03-16,27.3732
1999-03-17,26.7023
1999-03-18,27.3632
1999-03-19,26.5147
1999-03-22,26.7201
1999-03-23,25.9094
1999-03-24,25.7743
1999-03-25,25.7743
1999-03-26,25.4338
1999-03-29,25.6067
1999-03-30,25.9418
1999-03-31,25.5365
1999-04-01,25.8067
1999-04-05,25.7419
1999-04-06,25.1311
1999-04-07,25.0285
1999-04-08,24.2556
1999-04-09,24.0827
1999-04-12,24.996
1999-04-13,25.8391
1999-04-14,25.9094
1999-04-15,25.2987
1999-04-16,25.704
1999-04-19,26.5525
1999-04-20,26.8228
1999-04-21,26.8228
1999-04-22,27.3632
1999-04-23,26.7201
1999-04-26,26.1472
1999-04-27,25.4338
1999-04-28,26.1796
1999-04-29,25.5689
1999-04-30,25.2338
1999-05-03,25.9418
1999-05-04,25.6716
1999-05-05,26.2445
1999-05-06,26.6174
1999-05-07,27.5956
1999-05-10,27.6983
1999-05-11,29.0819
1999-05-12,28.6765
1999-05-13,28.309
1999-05-14,28.0388
1999-05-17,28.0712
1999-05-18,27.5632
1999-05-19,27.2281
1999-05-20,27.1578
1999-05-21,27.0227
1999-05-24,26.6174
1999-05-25,26.1472
1999-05-26,25.9743
1999-05-27,25.877
1999-05-28,26.0769
1999-06-01,25.6392
1999-06-02,26.3147
1999-06-03,26.4823
1999-06-04,26.92
1999-06-07,26.7201
1999-06-08,26.4823
1999-06-09,25.9743
1999-06-10,26.0769
1999-06-11,26.0121
1999-06-14,26.7201
1999-06-15,26.3472
1999-06-16,25.877
1999-06-17,25.9932
1999-06-18,25.9932
1999-06-21,26.3688
1999-06-22,26.4341
1999-06-23,26.2327
1999-06-24,26.1293
1999-06-25,25.7918
1999-06-28,26.2
1999-06-29,26.7771
1999-06-30,27.1853
1999-07-01,26.8424
1999-07-02,26.4015
1999-07-06,26.2
1999-07-07,25.9932
1999-07-08,25.5849
1999-07-09,25.721
1999-07-12,25.5849
1999-07-13,25.7918
1999-07-14,26.1293
1999-07-15,26.641
1999-07-16,26.6083
1999-07-19,26.8424
1999-07-20,26.8805
1999-07-21,27.0819
1999-07-22,26.8097
1999-07-23,26.0258
1999-07-26,26.4341
1999-07-27,26.641
1999-07-28,26.3361
1999-07-29,26.064
1999-07-30,25.6557
1999-08-02,25.1113
1999-08-03,25.144
1999-08-04,25.0406
1999-08-05,25.9932
1999-08-06,25.721
1999-08-09,25.7918
1999-08-10,25.5196
1999-08-11,25.7918
1999-08-12,25.5849
1999-08-13,25.5849
1999-08-16,25.6883
1999-08-17,25.6557
1999-08-18,25.144
1999-08-19,25.0732
1999-08-20,24.9371
1999-08-23,24.9752
1999-08-24,25.0079
1999-08-25,25.9932
1999-08-26,25.3454
1999-08-27,25.7918
1999-08-30,25.3835
1999-08-31,25.4488
1999-09-01,25.144
1999-09-02,24.9371
1999-09-03,25.1766
1999-09-07,24.5996
1999-09-08,24.4962
1999-09-09,23.9518
1999-09-10,23.3748
1999-09-13,23.4782
1999-09-14,23.5109
1999-09-15,24.3601
1999-09-16,24.2567
1999-09-17,24.1516
1999-09-20,23.4654
1999-09-21,23.0538
1999-09-22,23.0867
1999-09-23,23.1251
1999-09-24,23.7399
1999-09-27,24.0143
1999-09-28,23.7728
1999-09-29,23.4654
1999-09-30,23.6356
1999-10-01,23.8442
1999-10-04,24.1186
1999-10-05,23.707
1999-10-06,24.4974
1999-10-07,24.1845
1999-10-08,24.426
1999-10-11,24.2559
1999-10-12,23.8442
1999-10-13,23.5697
1999-10-14,24.8706
1999-10-15,23.9101
1999-10-18,24.426
1999-10-19,24.7005
1999-10-20,25.1451
1999-10-21,25.458
1999-10-22,24.942
1999-10-25,24.8706
1999-10-26,24.4974
1999-10-27,26.2099
1999-10-28,26.1057
1999-10-29,26.2429
1999-11-01,25.661
1999-11-02,25.1451
1999-11-03,25.3207
1999-11-04,25.0463
1999-11-05,24.7334
1999-11-08,24.909
1999-11-09,24.2888
1999-11-10,24.2888
1999-11-11,24.2229
1999-11-12,24.426
1999-11-15,23.674
1999-11-16,23.7728
1999-11-17,23.4325
1999-11-18,23.0867
1999-11-19,23.3612
1999-11-22,23.0538
1999-11-23,23.1581
1999-11-24,23.3612
1999-11-26,23.2953
1999-11-29,23.191
1999-11-30,23.0208
1999-12-01,23.1581
1999-12-02,22.8123
1999-12-03,23.191
1999-12-06,23.6356
1999-12-07,23.9814
1999-12-08,23.4654
1999-12-09,23.0538
1999-12-10,23.0538
1999-12-13,22.7464
1999-12-14,22.675
1999-12-15,22.2304
1999-12-16,22.5727
1999-12-17,22.7832
1999-12-20,22.5063
1999-12-21,22.1573
1999-12-22,22.606
1999-12-23,22.4343
1999-12-27,22.8165
1999-12-28,22.5063
1999-12-29,22.1905
1999-12-30,22.2625
1999-12-31,22.052
2000-01-03,21.4649
2000-01-04,20.983
2000-01-05,20.8777
2000-01-06,21.0494
2000-01-07,21.5701
2000-01-10,21.1214
2000-01-11,21.3984
2000-01-12,21.3264
2000-01-13,21.3596
2000-01-14,20.634
2000-01-18,20.8777
2000-01-19,21.1214
2000-01-20,21.1879
2000-01-21,21.3596
2000-01-24,21.1547
2000-01-25,20.5675
2000-01-26,20.7392
2000-01-27,20.0468
2000-01-28,20.0136
2000-01-31,20.6007
2000-02-01,19.9748
2000-02-02,19.5261
2000-02-03,19.3876
2000-02-04,19.0442
2000-02-07,18.662
2000-02-08,19.4929
2000-02-09,19.5594
2000-02-10,19.3876
2000-02-11,19.0774
2000-02-14,18.8669
2000-02-15,19.2824
2000-02-16,18.8005
2000-02-17,18.9722
2000-02-18,18.4903
2000-02-22,19.0774
2000-02-23,18.7285
2000-02-24,18.2133
2000-02-25,18.036
2000-02-28,17.7978
2000-02-29,17.6926
2000-03-01,17.9363
2000-03-02,17.4489
2000-03-03,17.8976
2000-03-06,18.2465
2000-03-07,18.2133
2000-03-08,18.9722
2000-03-09,19.0442
2000-03-10,18.6952
2000-03-13,18.2465
2000-03-14,17.9696
2000-03-15,18.9057
2000-03-16,19.987
2000-03-17,18.3405
2000-03-20,19.3933
2000-03-21,19.0069
2000-03-22,18.6205
2000-03-23,18.3069
2000-03-24,18.3405
2000-03-27,17.4333
2000-03-28,17.8141
2000-03-29,18.2733
2000-03-30,19.3541
2000-03-31,19.6734
2000-04-03,19.2869
2000-04-04,20.547
2000-04-05,20.7542
2000-04-06,20.7206
2000-04-07,20.1942
2000-04-10,20.6534
2000-04-11,20.8942
2000-04-12,21.7342
2000-04-13,22.1542
2000-04-14,21.1742
2000-04-17,21.9806
2000-04-18,21.4206
2000-04-19,21.3534
2000-04-20,21.0734
2000-04-24,20.7542
2000-04-25,21.0734
2000-04-26,20.1942
2000-04-27,19.6005
2000-04-28,19.0069
2000-05-01,19.1469
2000-05-02,18.9733
2000-05-03,21.0734
2000-05-04,21.527
2000-05-05,20.7542
2000-05-08,20.8942
2000-05-09,21.247
2000-05-10,21.107
2000-05-11,21.387
2000-05-12,21.3142
2000-05-15,21.8406
2000-05-16,21.6334
2000-05-17,21.1742
2000-05-18,21.247
2000-05-19,21.3142
2000-05-22,21.4206
2000-05-23,21.7006
2000-05-24,22.6134
2000-05-25,22.4734
2000-05-26,23.4143
2000-05-30,22.647
2000-05-31,21.9806
2000-06-01,21.7734
2000-06-02,20.967
2000-06-05,20.7206
2000-06-06,21.0006
2000-06-07,22.3334
2000-06-08,22.1206
2000-06-09,22.087
2000-06-12,22.2606
2000-06-13,22.0142
2000-06-14,22.1542
2000-06-15,22.647
2000-06-16,23.207
2000-06-19,23.4143
2000-06-20,23.4143
2000-06-21,23.4535
2000-06-22,23.6617
2000-06-23,24.2945
2000-06-26,24.6109
2000-06-27,25.1759
2000-06-28,24.2606
2000-06-29,24.3679
2000-06-30,24.7521
2000-07-03,24.8595
2000-07-05,25.6731
2000-07-06,25.5318
2000-07-07,25.7409
2000-07-10,25.5996
2000-07-11,24.5092
2000-07-12,23.9781
2000-07-13,23.5205
2000-07-14,23.4131
2000-07-17,22.5656
2000-07-18,22.882
2000-07-19,23.238
2000-07-20,23.5883
2000-07-21,22.9894
2000-07-24,22.3905
2000-07-25,22.5995
2000-07-26,22.5317
2000-07-27,23.0967
2000-07-28,23.0967
2000-07-31,22.5656
2000-08-01,22.7408
2000-08-02,23.3792
2000-08-03,23.6617
2000-08-04,23.1306
2000-08-07,23.3058
2000-08-08,22.9159
2000-08-09,22.5656
2000-08-10,22.882
2000-08-11,22.9555
2000-08-14,22.7069
2000-08-15,22.7408
2000-08-16,22.317
2000-08-17,22.1419
2000-08-18,22.0345
2000-08-21,22.5995
2000-08-22,22.2492
2000-08-23,22.2831
2000-08-24,22.4244
2000-08-25,22.0006
2000-08-28,21.8933
2000-08-29,21.6108
2000-08-30,21.752
2000-08-31,21.543
2000-09-01,21.221
2000-09-05,21.0119
2000-09-06,20.1644
2000-09-07,20.2718
2000-09-08,20.978
2000-09-11,20.8368
2000-09-12,20.9385
2000-09-13,20.7294
2000-09-14,20.4808
2000-09-15,20.1983
2000-09-18,20.3057
2000-09-19,20.413
2000-09-20,20.5637
2000-09-21,20.6379
2000-09-22,21.0663
2000-09-25,20.7065
2000-09-26,20.7408
2000-09-27,20.6722
2000-09-28,21.2091
2000-09-29,21.1692
2000-10-02,21.2777
2000-10-03,21.3862
2000-10-04,21.529
2000-10-05,22.3516
2000-10-06,22.2773
2000-10-09,22.4544
2000-10-10,22.5629
2000-10-11,22.8485
2000-10-12,22.6714
2000-10-13,22.1345
2000-10-16,22.78
2000-10-17,22.8828
2000-10-18,22.5286
2000-10-19,22.8143
2000-10-20,21.8146
2000-10-23,22.1688
2000-10-24,22.1688
2000-10-25,22.8143
2000-10-26,23.494
2000-10-27,23.494
2000-10-30,24.6707
2000-10-31,23.9567
2000-11-01,24.4536
2000-11-02,24.168
2000-11-03,23.9567
2000-11-06,23.9567
2000-11-07,24.1338
2000-11-08,24.2423
2000-11-09,24.5279
2000-11-10,25.1677
2000-11-13,24.3508
2000-11-14,23.8482
2000-11-15,24.4536
2000-11-16,25.7389
2000-11-17,25.419
2000-11-20,25.3504
2000-11-21,25.9217
2000-11-22,26.0245
2000-11-24,25.3847
2000-11-27,24.9906
2000-11-28,25.0249
2000-11-29,25.2076
2000-11-30,26.0245
2000-12-01,25.8474
2000-12-04,26.5614
2000-12-05,26.0245
2000-12-06,24.6364
2000-12-07,25.3847
2000-12-08,24.7792
2000-12-11,24.4536
2000-12-12,24.6707
2000-12-13,25.1334
2000-12-14,24.705
2000-12-15,24.8135
2000-12-18,25.4533
2000-12-19,26.0987
2000-12-20,26.3245
2000-12-21,26.5032
2000-12-22,26.4686
2000-12-26,26.9007
2000-12-27,27.0102
2000-12-28,27.4423
2000-12-29,27.3674
2001-01-02,26.9698
2001-01-03,25.8175
2001-01-04,24.8496
2001-01-05,25.5698
2001-01-08,25.5294
2001-01-09,25.8175
2001-01-10,25.5294
2001-01-11,24.7055
2001-01-12,24.3426
2001-01-16,25.0973
2001-01-17,24.8496
2001-01-18,25.3163
2001-01-19,25.0973
2001-01-22,25.1722
2001-01-23,25.0628
2001-01-24,25.0282
2001-01-25,25.0973
2001-01-26,25.1377
2001-01-29,25.3163
2001-01-30,25.0224
2001-01-31,25.2356
2001-02-01,24.8208
2001-02-02,24.6249
2001-02-05,24.9187
2001-02-06,25.1319
2001-02-07,25.3105
2001-02-08,25.7369
2001-02-09,25.4373
2001-02-12,25.7081
2001-02-13,25.9385
2001-02-14,24.7862
2001-02-15,24.9533
2001-02-16,24.9533
2001-02-20,25.3969
2001-02-21,25.1377
2001-02-22,24.5385
2001-02-23,24.5903
2001-02-26,24.2965
2001-02-27,24.573
2001-02-28,24.5385
2001-03-01,24.6306
2001-03-02,24.7747
2001-03-05,24.8323
2001-03-06,24.1409
2001-03-07,23.4438
2001-03-08,23.8528
2001-03-09,23.8356
2001-03-12,23.8816
2001-03-13,23.6339
2001-03-14,23.5417
2001-03-15,23.7952
2001-03-16,23.3746
2001-03-19,23.1096
2001-03-20,22.6141
2001-03-21,22.182
2001-03-22,22.2946
2001-03-23,22.1898
2001-03-26,22.5391
2001-03-27,22.7021
2001-03-28,22.7952
2001-03-29,23.0455
2001-03-30,23.3948
2001-04-02,23.162
2001-04-03,22.6963
2001-04-04,23.2784
2001-04-05,22.9873
2001-04-06,22.6963
2001-04-09,22.7487
2001-04-10,22.7778
2001-04-11,22.4111
2001-04-12,22.3412
2001-04-16,22.4634
2001-04-17,22.7254
2001-04-18,21.9745
2001-04-19,22.3587
2001-04-20,22.0501
2001-04-23,22.0036
2001-04-24,22.2248
2001-04-25,22.3063
2001-04-26,22.6206
2001-04-27,22.7487
2001-04-30,22.7894
2001-05-01,22.8593
2001-05-02,22.8535
2001-05-03,22.7137
2001-05-04,23.2959
2001-05-07,23.3075
2001-05-08,23.7091
2001-05-09,23.5869
2001-05-10,23.9362
2001-05-11,23.9129
2001-05-14,23.5694
2001-05-15,23.4356
2001-05-16,24.2738
2001-05-17,24.0235
2001-05-18,24.0468
2001-05-21,24.3262
2001-05-22,24.3902
2001-05-23,24.5648
2001-05-24,25.0072
2001-05-25,24.7628
2001-05-29,25.2284
2001-05-30,25.1935
2001-05-31,25.2052
2001-06-01,25.1761
2001-06-04,25.1528
2001-06-05,25.211
2001-06-06,25.1411
2001-06-07,25.2517
2001-06-08,25.0538
2001-06-11,24.821
2001-06-12,24.8035
2001-06-13,24.6929
2001-06-14,24.6231
2001-06-15,24.2389
2001-06-18,24.1399
2001-06-19,24.1574
2001-06-20,24.5648
2001-06-21,24.6784
2001-06-22,24.3435
2001-06-25,24.1319
2001-06-26,24.4022
2001-06-27,24.3787
2001-06-28,24.5668
2001-06-29,23.9439
2001-07-02,24.7665
2001-07-03,24.6196
2001-07-05,24.6608
2001-07-06,24.649
2001-07-09,24.4316
2001-07-10,24.6196
2001-07-11,24.6314
2001-07-12,24.6784
2001-07-13,24.5903
2001-07-16,24.6725
2001-07-17,24.8429
2001-07-18,25.0662
2001-07-19,25.0074
2001-07-20,25.1661
2001-07-23,24.8547
2001-07-24,24.8547
2001-07-25,25.1485
2001-07-26,25.078
2001-07-27,24.9839
2001-07-30,25.2072
2001-07-31,25.3717
2001-08-01,25.2484
2001-08-02,25.3247
2001-08-03,25.2601
2001-08-06,25.0192
2001-08-07,25.36
2001-08-08,25.5656
2001-08-09,25.595
2001-08-10,25.8007
2001-08-13,25.595
2001-08-14,25.7595
2001-08-15,26.0181
2001-08-16,26.1474
2001-08-17,26.3177
2001-08-20,26.4353
2001-08-21,26.4999
2001-08-22,26.7349
2001-08-23,26.635
2001-08-24,26.7937
2001-08-27,26.7819
2001-08-28,26.7408
2001-08-29,26.6409
2001-08-30,26.6174
2001-08-31,26.6057
2001-09-04,26.9053
2001-09-05,27.581
2001-09-06,27.4048
2001-09-07,26.9582
2001-09-10,26.7349
2001-09-17,26.8818
2001-09-18,26.8701
2001-09-19,26.1121
2001-09-20,25.4246
2001-09-21,24.0967
2001-09-24,24.4199
2001-09-25,24.6724
2001-09-26,24.8563
2001-09-27,25.0284
2001-09-28,25.0284
2001-10-01,24.7258
2001-10-02,24.886
2001-10-03,24.8207
2001-10-04,24.886
2001-10-05,25.1471
2001-10-08,24.8326
2001-10-09,24.4647
2001-10-10,24.9572
2001-10-11,24.5597
2001-10-12,23.6221
2001-10-15,23.5391
2001-10-16,23.7111
2001-10-17,23.9781
2001-10-18,24.4825
2001-10-19,24.8029
2001-10-22,24.886
2001-10-23,24.8326
2001-10-24,24.8623
2001-10-25,24.9216
2001-10-26,25.0581
2001-10-29,24.9216
2001-10-30,24.9513
2001-10-31,25.2539
2001-11-01,25.331
2001-11-02,25.6337
2001-11-05,25.604
2001-11-06,25.6989
2001-11-07,25.693
2001-11-08,25.3607
2001-11-09,23.6755
2001-11-12,23.545
2001-11-13,23.7289
2001-11-14,23.4619
2001-11-15,23.45
2001-11-16,23.6399
2001-11-19,23.2958
2001-11-20,23.1712
2001-11-21,23.094
2001-11-23,23.1593
2001-11-26,23.0288
2001-11-27,22.6965
2001-11-28,23.011
2001-11-29,22.6609
2001-11-30,22.6075
2001-12-03,23.1356
2001-12-04,23.183
2001-12-05,23.4085
2001-12-06,22.7202
2001-12-07,22.9753
2001-12-10,22.8863
2001-12-11,22.6549
2001-12-12,22.7439
2001-12-13,23.4144
2001-12-14,23.7823
2001-12-17,23.7408
2001-12-18,24.079
2001-12-19,24.5715
2001-12-20,24.3827
2001-12-21,24.2748
2001-12-24,24.4187
2001-12-26,24.6643
2001-12-27,24.8261
2001-12-28,24.6763
2001-12-31,24.6344
2002-01-02,24.4786
2002-01-03,24.4007
2002-01-04,24.0411
2002-01-07,24.0651
2002-01-08,24.2389
2002-01-09,24.2029
2002-01-10,24.3288
2002-01-11,24.2089
2002-01-14,24.5385
2002-01-15,24.9699
2002-01-16,24.7662
2002-01-17,24.7362
2002-01-18,24.8681
2002-01-22,25.3115
2002-01-23,25.1497
2002-01-24,24.6464
2002-01-25,24.6044
2002-01-28,24.8741
2002-01-29,24.5745
2002-01-30,24.6284
2002-01-31,24.8082
2002-02-01,24.7842
2002-02-04,24.6584
2002-02-05,24.5625
2002-02-06,23.9812
2002-02-07,24.143
2002-02-08,24.0771
2002-02-11,24.3887
2002-02-12,24.2689
2002-02-13,24.3647
2002-02-14,24.4426
2002-02-15,24.7722
2002-02-19,24.5145
2002-02-20,24.8681
2002-02-21,24.5745
2002-02-22,25.0778
2002-02-25,25.0658
2002-02-26,24.6344
2002-02-27,24.4007
2002-02-28,24.4666
2002-03-01,24.6584
2002-03-04,24.6284
2002-03-05,24.2329
2002-03-06,24.2748
2002-03-07,24.0531
2002-03-08,23.9632
2002-03-11,24.2149
2002-03-12,24.4127
2002-03-13,24.3108
2002-03-14,24.7362
2002-03-15,24.8082
2002-03-18,24.8801
2002-03-19,25.1737
2002-03-20,24.964
2002-03-21,24.9244
2002-03-22,24.9607
2002-03-25,24.8881
2002-03-26,25.0515
2002-03-27,25.0757
2002-03-28,25.0938
2002-04-01,24.9728
2002-04-02,25.1362
2002-04-03,24.9304
2002-04-04,25.2996
2002-04-05,25.0999
2002-04-08,25.3298
2002-04-09,25.3782
2002-04-10,25.6324
2002-04-11,25.5719
2002-04-12,25.8199
2002-04-15,25.6324
2002-04-16,25.6324
2002-04-17,25.4871
2002-04-18,25.5416
2002-04-19,25.9531
2002-04-22,26.0075
2002-04-23,25.9289
2002-04-24,25.6808
2002-04-25,25.6142
2002-04-26,25.4024
2002-04-29,25.2754
2002-04-30,25.354
2002-05-01,25.8684
2002-05-02,26.1225
2002-05-03,25.9591
2002-05-06,25.7231
2002-05-07,25.6384
2002-05-08,25.7655
2002-05-09,25.7352
2002-05-10,25.7292
2002-05-13,25.8986
2002-05-14,25.6687
2002-05-15,25.6203
2002-05-16,25.7473
2002-05-17,25.59
2002-05-20,25.4145
2002-05-21,25.4448
2002-05-22,25.8926
2002-05-23,25.7473
2002-05-24,25.3843
2002-05-28,24.9002
2002-05-29,24.5976
2002-05-30,24.5492
2002-05-31,24.5855
2002-06-03,24.1196
2002-06-04,24.0954
2002-06-05,24.3435
2002-06-06,24.0651
2002-06-07,24.3556
2002-06-10,24.5371
2002-06-11,25.0515
2002-06-12,25.0817
2002-06-13,23.9381
2002-06-14,23.8533
2002-06-17,24.2285
2002-06-18,24.4827
2002-06-19,24.7489
2002-06-20,24.9965
2002-06-21,24.7093
2002-06-24,24.6482
2002-06-25,24.6054
2002-06-26,24.746
2002-06-27,25.3021
2002-06-28,25.1738
2002-07-01,25.0454
2002-07-02,24.4893
2002-07-03,24.3059
2002-07-05,24.746
2002-07-08,24.5504
2002-07-09,24.1104
2002-07-10,23.7009
2002-07-11,23.6275
2002-07-12,23.3647
2002-07-15,23.1203
2002-07-16,22.5458
2002-07-17,23.1386
2002-07-18,22.4847
2002-07-19,21.1951
2002-07-22,20.7306
2002-07-23,20.9629
2002-07-24,21.8613
2002-07-25,22.2035
2002-07-26,21.9896
2002-07-29,23.0653
2002-07-30,23.0714
2002-07-31,23.4381
2002-08-01,23.5481
2002-08-02,23.2364
2002-08-05,22.5947
2002-08-06,22.6252
2002-08-07,22.998
2002-08-08,23.4564
2002-08-09,23.7742
2002-08-12,23.6887
2002-08-13,23.6764
2002-08-14,24.1348
2002-08-15,23.8842
2002-08-16,23.6092
2002-08-19,23.4197
2002-08-20,23.2181
2002-08-21,23.2242
2002-08-22,23.4625
2002-08-23,23.4136
2002-08-26,23.4931
2002-08-27,23.6214
2002-08-28,23.5848
2002-08-29,23.0225
2002-08-30,23.0897
2002-09-03,22.503
2002-09-04,22.8025
2002-09-05,23.0775
2002-09-06,23.0103
2002-09-09,23.2242
2002-09-10,21.9468
2002-09-11,22.1057
2002-09-12,21.7574
2002-09-13,21.9163
2002-09-16,21.9346
2002-09-17,21.5618
2002-09-18,21.6352
2002-09-19,20.9273
2002-09-20,21.3044
2002-09-23,21.1622
2002-09-24,20.884
2002-09-25,21.3044
2002-09-26,21.6753
2002-09-27,20.9582
2002-09-30,20.6367
2002-10-01,21.0942
2002-10-02,20.5996
2002-10-03,20.9706
2002-10-04,20.6367
2002-10-07,20.5687
2002-10-08,20.6676
2002-10-09,19.9628
2002-10-10,19.6908
2002-10-11,19.8886
2002-10-14,19.7835
2002-10-15,19.629
2002-10-16,19.7712
2002-10-17,18.782
2002-10-18,19.9937
2002-10-21,20.0432
2002-10-22,19.4311
2002-10-23,19.2519
2002-10-24,19.7032
2002-10-25,20.1359
2002-10-28,19.7835
2002-10-29,19.7217
2002-10-30,19.765
2002-10-31,19.8763
2002-11-01,20.0617
2002-11-04,19.8763
2002-11-05,19.8515
2002-11-06,19.9937
2002-11-07,19.969
2002-11-08,19.8268
2002-11-11,19.8454
2002-11-12,19.7403
2002-11-13,20.1112
2002-11-14,20.4945
2002-11-15,20.7851
2002-11-18,20.8655
2002-11-19,21.224
2002-11-20,21.4342
2002-11-21,21.4219
2002-11-22,21.3477
2002-11-25,21.0633
2002-11-26,21.1993
2002-11-27,21.5888
2002-11-29,21.527
2002-12-02,21.3848
2002-12-03,21.3662
2002-12-04,21.3662
2002-12-05,21.1746
2002-12-06,21.2673
2002-12-09,21.2302
2002-12-10,21.1189
2002-12-11,21.0447
2002-12-12,21.0757
2002-12-13,21.3044
2002-12-16,21.6197
2002-12-17,21.6506
2002-12-18,21.7495
2002-12-19,21.6144
2002-12-20,21.8395
2002-12-23,22.8068
2002-12-24,23.1004
2002-12-26,23.1004
2002-12-27,22.8767
2002-12-30,22.9746
2002-12-31,22.9466
2003-01-02,23.1284
2003-01-03,23.1353
2003-01-06,23.7434
2003-01-07,23.4988
2003-01-08,23.4009
2003-01-09,23.8203
2003-01-10,23.5407
2003-01-13,23.8553
2003-01-14,23.8203
2003-01-15,23.6246
2003-01-16,23.9042
2003-01-17,23.9461
2003-01-21,23.9391
2003-01-22,23.6036
2003-01-23,23.4219
2003-01-24,22.8907
2003-01-27,22.6041
2003-01-28,22.6461
2003-01-29,22.2826
2003-01-30,21.9611
2003-01-31,22.5412
2003-02-03,22.6251
2003-02-04,22.4853
2003-02-05,22.5762
2003-02-06,22.4084
2003-02-07,22.1358
2003-02-10,22.1568
2003-02-11,21.6675
2003-02-12,21.6396
2003-02-13,21.4718
2003-02-14,21.8632
2003-02-18,22.1568
2003-02-19,22.0869
2003-02-20,21.7864
2003-02-21,22.003
2003-02-24,21.6745
2003-02-25,21.7025
2003-02-26,21.4718
2003-02-27,21.6046
2003-02-28,21.4229
2003-03-03,21.36
2003-03-04,20.9826
2003-03-05,20.8917
2003-03-06,20.8637
2003-03-07,20.9336
2003-03-10,20.5492
2003-03-11,20.703
2003-03-12,20.5981
2003-03-13,20.8428
2003-03-14,21.0874
2003-03-17,21.4648
2003-03-18,21.1643
2003-03-19,21.374
2003-03-20,21.1269
2003-03-21,21.2538
2003-03-24,20.9012
2003-03-25,20.9647
2003-03-26,20.8589
2003-03-27,21.0493
2003-03-28,20.8589
2003-03-31,20.6403
2003-04-01,20.5486
2003-04-02,20.8801
2003-04-03,20.7743
2003-04-04,20.8377
2003-04-07,20.8448
2003-04-08,20.9647
2003-04-09,20.9435
2003-04-10,20.9999
2003-04-11,20.9717
2003-04-14,21.2115
2003-04-15,21.2256
2003-04-16,20.8307
2003-04-17,21.0916
2003-04-21,20.9083
2003-04-22,21.2256
2003-04-23,21.2608
2003-04-24,21.007
2003-04-25,20.8377
2003-04-28,21.0916
2003-04-29,21.2256
2003-04-30,21.0281
2003-05-01,20.9576
2003-05-02,21.148
2003-05-05,21.2397
2003-05-06,21.5288
2003-05-07,21.5077
2003-05-08,21.2679
2003-05-09,21.6839
2003-05-12,22.0295
2003-05-13,21.966
2003-05-14,22.0154
2003-05-15,22.1564
2003-05-16,22.1423
2003-05-19,21.9942
2003-05-20,22.0013
2003-05-21,22.1423
2003-05-22,22.3398
2003-05-23,22.3609
2003-05-27,22.6853
2003-05-28,22.9462
2003-05-29,22.9603
2003-05-30,23.2847
2003-06-02,23.3975
2003-06-03,23.4328
2003-06-04,23.8136
2003-06-05,23.7501
2003-06-06,23.9475
2003-06-09,23.7642
2003-06-10,23.7078
2003-06-11,24.2367
2003-06-12,23.8488
2003-06-13,23.5879
2003-06-16,23.9687
2003-06-17,24.0604
2003-06-18,24.004
2003-06-19,23.6161
2003-06-20,24.0639
2003-06-23,23.68
2003-06-24,23.9502
2003-06-25,23.5734
2003-06-26,23.417
2003-06-27,23.3033
2003-06-30,23.417
2003-07-01,23.5379
2003-07-02,23.6303
2003-07-03,23.417
2003-07-07,23.5663
2003-07-08,23.6374
2003-07-09,23.6232
2003-07-10,23.5308
2003-07-11,23.744
2003-07-14,23.5663
2003-07-15,23.6303
2003-07-16,23.6658
2003-07-17,23.545
2003-07-18,23.8507
2003-07-21,23.6018
2003-07-22,23.8151
2003-07-23,23.8364
2003-07-24,24.1066
2003-07-25,24.2488
2003-07-28,24.3554
2003-07-29,24.2843
2003-07-30,24.3127
2003-07-31,24.1919
2003-08-01,24.1706
2003-08-04,24.135
2003-08-05,23.872
2003-08-06,23.7654
2003-08-07,23.5876
2003-08-08,23.7511
2003-08-11,23.5379
2003-08-12,23.6018
2003-08-13,23.5023
2003-08-14,23.545
2003-08-15,23.417
2003-08-18,23.3175
2003-08-19,23.1469
2003-08-20,23.1469
2003-08-21,23.1042
2003-08-22,22.8127
2003-08-25,23.1682
2003-08-26,22.8127
2003-08-27,22.7488
2003-08-28,22.8341
2003-08-29,22.9905
2003-09-02,23.4739
2003-09-03,23.7582
2003-09-04,23.9644
2003-09-05,23.9146
2003-09-08,24.0355
2003-09-09,23.9217
2003-09-10,24.071
2003-09-11,24.1421
2003-09-12,24.1706
2003-09-15,24.1635
2003-09-16,24.2203
2003-09-17,24.3056
2003-09-18,24.4549
2003-09-19,24.5696
2003-09-22,24.3045
2003-09-23,24.5266
2003-09-24,24.455
2003-09-25,24.3905
2003-09-26,24.3547
2003-09-29,24.4335
2003-09-30,24.4765
2003-10-01,24.7989
2003-10-02,25.2575
2003-10-03,25.2432
2003-10-06,25.3865
2003-10-07,25.4581
2003-10-08,25.408
2003-10-09,25.4581
2003-10-10,25.408
2003-10-13,25.5513
2003-10-14,25.5943
2003-10-15,25.5011
2003-10-16,25.4509
2003-10-17,25.3076
2003-10-20,25.3148
2003-10-21,25.2861
2003-10-22,25.193
2003-10-23,25.1643
2003-10-24,25.1285
2003-10-27,25.0497
2003-10-28,25.021
2003-10-29,24.978
2003-10-30,25.15
2003-10-31,25.3363
2003-11-03,25.4939
2003-11-04,25.3435
2003-11-05,25.2503
2003-11-06,25.4939
2003-11-07,25.5369
2003-11-10,25.1142
2003-11-11,25.0784
2003-11-12,25.4223
2003-11-13,25.4724
2003-11-14,25.7161
2003-11-17,25.845
2003-11-18,25.7519
2003-11-19,25.8665
2003-11-20,25.6372
2003-11-21,25.6659
2003-11-24,25.5584
2003-11-25,25.9382
2003-11-26,25.8594
2003-11-28,25.8665
2003-12-01,25.9597
2003-12-02,26.0385
2003-12-03,26.1245
2003-12-04,26.2535
2003-12-05,26.1245
2003-12-08,26.2606
2003-12-09,25.9382
2003-12-10,25.7519
2003-12-11,25.8092
2003-12-12,25.8379
2003-12-15,25.9668
2003-12-16,25.7949
2003-12-17,25.7376
2003-12-18,25.845
2003-12-19,25.9894
2003-12-22,26.011
2003-12-23,26.1771
2003-12-24,26.1265
2003-12-26,26.0543
2003-12-29,26.307
2003-12-30,26.2853
2003-12-31,26.3142
2004-01-02,25.9605
2004-01-05,26.076
2004-01-06,26.2998
2004-01-07,26.0616
2004-01-08,26.0182
2004-01-09,25.6284
2004-01-12,25.4046
2004-01-13,25.2169
2004-01-14,25.5129
2004-01-15,25.3829
2004-01-16,25.4118
2004-01-20,25.2819
2004-01-21,25.5995
2004-01-22,25.3613
2004-01-23,25.715
2004-01-26,25.7222
2004-01-27,25.6284
2004-01-28,25.4263
2004-01-29,25.6501
2004-01-30,25.5129
2004-02-02,25.5273
2004-02-03,25.6067
2004-02-04,25.7583
2004-02-05,25.9749
2004-02-06,26.0399
2004-02-09,25.9966
2004-02-10,25.9605
2004-02-11,26.1771
2004-02-12,26.0471
2004-02-13,26.1337
2004-02-17,26.2853
2004-02-18,26.2926
2004-02-19,26.141
2004-02-20,26.3214
2004-02-23,26.2709
2004-02-24,27.1733
2004-02-25,27.1444
2004-02-26,27.4693
2004-02-27,27.6209
2004-03-01,27.9963
2004-03-02,27.787
2004-03-03,27.7942
2004-03-04,27.5632
2004-03-05,27.4693
2004-03-08,27.2311
2004-03-09,27.4837
2004-03-10,28.1046
2004-03-11,27.3321
2004-03-12,27.3177
2004-03-15,27.1228
2004-03-16,27.1083
2004-03-17,27.3105
2004-03-18,27.2166
2004-03-19,27.0362
2004-03-22,26.7672
2004-03-23,26.8472
2004-03-24,26.6145
2004-03-25,26.8763
2004-03-26,26.4836
2004-03-29,27.0072
2004-03-30,26.8836
2004-03-31,27.1163
2004-04-01,27.1308
2004-04-02,26.9854
2004-04-05,27.0654
2004-04-06,27.0799
2004-04-07,27.0727
2004-04-08,26.76
2004-04-12,26.8618
2004-04-13,26.6291
2004-04-14,26.6364
2004-04-15,26.7818
2004-04-16,27.0872
2004-04-19,27.109
2004-04-20,26.9127
2004-04-21,27.509
2004-04-22,28.1125
2004-04-23,28.0398
2004-04-26,28.2143
2004-04-27,28.0398
2004-04-28,27.6835
2004-04-29,27.8871
2004-04-30,27.8362
2004-05-03,28.1925
2004-05-04,28.0616
2004-05-05,27.9598
2004-05-06,27.8216
2004-05-07,27.4799
2004-05-10,27.0945
2004-05-11,27.2254
2004-05-12,27.1745
2004-05-13,27.1963
2004-05-14,27.3563
2004-05-17,27.0727
2004-05-18,27.1745
2004-05-19,26.949
2004-05-20,27.0508
2004-05-21,26.9272
2004-05-24,26.949
2004-05-25,27.3635
2004-05-26,27.0945
2004-05-27,27.1454
2004-05-28,27.1526
2004-06-01,27.0436
2004-06-02,27.1526
2004-06-03,27.0654
2004-06-04,27.2108
2004-06-07,27.3417
2004-06-08,27.4508
2004-06-09,27.3999
2004-06-10,27.4799
2004-06-14,27.3781
2004-06-15,27.6326
2004-06-16,27.698
2004-06-17,27.6326
2004-06-18,27.6835
2004-06-21,27.5889
2004-06-22,27.9368
2004-06-23,27.9002
2004-06-24,27.6364
2004-06-25,27.5631
2004-06-28,28.3031
2004-06-29,28.4863
2004-06-30,28.7354
2004-07-01,28.5376
2004-07-02,28.3324
2004-07-06,28.4277
2004-07-07,28.2665
2004-07-08,28.142
2004-07-09,28.098
2004-07-12,28.2812
2004-07-13,28.2152
2004-07-14,28.1346
2004-07-15,28.0614
2004-07-16,27.8928
2004-07-19,27.8342
2004-07-20,27.8416
2004-07-21,27.5778
2004-07-22,27.3214
2004-07-23,27.0942
2004-07-26,26.9917
2004-07-27,27.1235
2004-07-28,27.1016
2004-07-29,26.9037
2004-07-30,27.021
2004-08-02,27.2994
2004-08-03,27.1235
2004-08-04,27.1895
2004-08-05,26.8598
2004-08-06,26.64
2004-08-09,26.4568
2004-08-10,26.7645
2004-08-11,26.8085
2004-08-12,26.574
2004-08-13,26.7279
2004-08-16,27.1162
2004-08-17,27.1382
2004-08-18,27.2847
2004-08-19,26.9037
2004-08-20,27.0869
2004-08-23,26.8451
2004-08-24,27.5631
2004-08-25,27.6437
2004-08-26,27.7976
2004-08-27,27.9734
2004-08-30,27.8709
2004-08-31,27.7829
2004-09-01,27.8855
2004-09-02,28.076
2004-09-03,28.0614
2004-09-07,28.0394
2004-09-08,27.6218
2004-09-09,27.5558
2004-09-10,27.3287
2004-09-13,27.4166
2004-09-14,27.3873
2004-09-15,27.1968
2004-09-16,27.2481
2004-09-17,27.3873
2004-09-20,27.0723
2004-09-21,27.0834
2004-09-22,26.7069
2004-09-23,26.6773
2004-09-24,26.6404
2004-09-27,26.1457
2004-09-28,26.6183
2004-09-29,26.6478
2004-09-30,26.5813
2004-10-01,27.0539
2004-10-04,26.8545
2004-10-05,26.7216
2004-10-06,26.8915
2004-10-07,26.7069
2004-10-08,26.4115
2004-10-11,26.537
2004-10-12,26.3451
2004-10-13,26.0645
2004-10-14,25.7322
2004-10-15,25.9463
2004-10-18,25.8873
2004-10-19,25.9094
2004-10-20,26.1014
2004-10-21,26.0866
2004-10-22,25.9094
2004-10-25,25.5033
2004-10-26,25.9316
2004-10-27,26.1679
2004-10-28,26.5592
2004-10-29,26.825
2004-11-01,26.9062
2004-11-02,26.9136
2004-11-03,27.3049
2004-11-04,27.7997
2004-11-05,28.0212
2004-11-08,27.8735
2004-11-09,28.0064
2004-11-10,28.0212
2004-11-11,28.3387
2004-11-12,28.6266
2004-11-15,28.3313
2004-11-16,27.9769
2004-11-17,27.9399
2004-11-18,28.0064
2004-11-19,27.6963
2004-11-22,28.3165
2004-11-23,27.8735
2004-11-24,27.7923
2004-11-26,27.7923
2004-11-29,27.6667
2004-11-30,27.4452
2004-12-01,27.9621
2004-12-02,28.1762
2004-12-03,28.1245
2004-12-06,27.8735
2004-12-07,27.5117
2004-12-08,27.6151
2004-12-09,27.8218
2004-12-10,27.8661
2004-12-13,27.9842
2004-12-14,28.2501
2004-12-15,28.3239
2004-12-16,28.5085
2004-12-17,28.7521
2004-12-20,28.5159
2004-12-21,28.6758
2004-12-22,28.6386
2004-12-23,28.713
2004-12-27,28.6758
2004-12-28,28.8915
2004-12-29,28.6609
2004-12-30,28.8023
2004-12-31,28.9585
2005-01-03,28.7576
2005-01-04,28.5642
2005-01-05,28.4303
2005-01-06,28.2667
2005-01-07,28.3039
2005-01-10,28.2964
2005-01-11,28.1179
2005-01-12,28.0658
2005-01-13,28.0138
2005-01-14,28.0212
2005-01-18,28.5494
2005-01-19,28.3411
2005-01-20,28.1626
2005-01-21,28.0287
2005-01-24,28.0361
2005-01-25,27.9915
2005-01-26,27.6939
2005-01-27,27.7906
2005-01-28,27.9245
2005-01-31,28.1179
2005-02-01,28.1551
2005-02-02,28.2593
2005-02-03,28.1849
2005-02-04,28.2667
2005-02-07,28.0212
2005-02-08,27.8948
2005-02-09,27.6716
2005-02-10,27.5154
2005-02-11,27.7386
2005-02-14,27.7981
2005-02-15,27.746
2005-02-16,27.7088
2005-02-17,27.5451
2005-02-18,27.2104
2005-02-22,27.1583
2005-02-23,27.2625
2005-02-24,27.441
2005-02-25,27.8129
2005-02-28,27.9543
2005-03-01,28.0807
2005-03-02,27.8724
2005-03-03,27.865
2005-03-04,28.0882
2005-03-07,27.9691
2005-03-08,27.7386
2005-03-09,27.5675
2005-03-10,27.5377
2005-03-11,27.4113
2005-03-14,27.5377
2005-03-15,27.5451
2005-03-16,27.1583
2005-03-17,27.1881
2005-03-18,27.2402
2005-03-21,27.0914
2005-03-22,27.1625
2005-03-23,27.155
2005-03-24,27.2
2005-03-28,27.4474
2005-03-29,27.1175
2005-03-30,27.4624
2005-03-31,27.6273
2005-04-01,27.3049
2005-04-04,27.4849
2005-04-05,27.7173
2005-04-06,27.6798
2005-04-07,27.7398
2005-04-08,27.6348
2005-04-11,27.5374
2005-04-12,27.5673
2005-04-13,27.2974
2005-04-14,27.29
2005-04-15,26.8251
2005-04-18,26.4728
2005-04-19,26.7576
2005-04-20,26.5477
2005-04-21,26.9301
2005-04-22,27.125
2005-04-25,27.4249
2005-04-26,27.0875
2005-04-27,27.6648
2005-04-28,27.215
2005-04-29,27.5898
2005-05-02,27.6123
2005-05-03,27.6648
2005-05-04,28.0322
2005-05-05,27.8972
2005-05-06,27.8972
2005-05-09,28.0322
2005-05-10,27.6873
2005-05-11,27.8897
2005-05-12,27.6048
2005-05-13,27.3724
2005-05-16,27.6573
2005-05-17,27.8672
2005-05-18,28.1896
2005-05-19,28.3096
2005-05-20,28.2346
2005-05-23,28.3021
2005-05-24,28.2046
2005-05-25,28.0472
2005-05-26,28.0097
2005-05-27,27.7623
2005-05-31,27.2825
2005-06-01,27.3424
2005-06-02,27.3424
2005-06-03,27.275
2005-06-06,27.215
2005-06-07,27.3049
2005-06-08,27.3199
2005-06-09,27.1025
2005-06-10,27.1025
2005-06-13,27.1475
2005-06-14,27.11
2005-06-15,27.1475
2005-06-16,27.11
2005-06-17,27.2375
2005-06-20,27.245
2005-06-21,27.2525
2005-06-22,26.9878
2005-06-23,26.814
2005-06-24,26.6174
2005-06-27,26.7006
2005-06-28,26.814
2005-06-29,26.6098
2005-06-30,26.761
2005-07-01,26.9576
2005-07-05,26.9651
2005-07-06,26.6703
2005-07-07,26.6779
2005-07-08,27.1088
2005-07-11,27.4792
2005-07-12,27.5548
2005-07-13,27.7135
2005-07-14,27.7513
2005-07-15,27.8118
2005-07-18,27.8118
2005-07-19,27.6984
2005-07-20,27.8269
2005-07-21,27.7211
2005-07-22,27.8421
2005-07-25,27.8421
2005-07-26,27.9252
2005-07-27,28.0386
2005-07-28,28.22
2005-07-29,27.8043
2005-08-01,27.6682
2005-08-02,27.8269
2005-08-03,27.8269
2005-08-04,27.6682
2005-08-05,27.4187
2005-08-08,27.3885
2005-08-09,27.449
2005-08-10,27.6531
2005-08-11,27.6757
2005-08-12,27.3809
2005-08-15,27.3885
2005-08-16,27.2449
2005-08-17,27.2297
2005-08-18,27.139
2005-08-19,27.4414
2005-08-22,27.7135
2005-08-23,27.4716
2005-08-24,27.139
2005-08-25,27.0861
2005-08-26,27.0105
2005-08-29,27.139
2005-08-30,26.9122
2005-08-31,27.1466
2005-09-01,26.95
2005-09-02,26.9954
2005-09-06,27.3204
2005-09-07,27.7135
2005-09-08,27.2751
2005-09-09,27.2751
2005-09-12,27.2297
2005-09-13,27.1768
2005-09-14,26.8366
2005-09-15,26.9878
2005-09-16,27.1466
2005-09-19,26.7762
2005-09-20,26.6023
2005-09-21,26.0765
2005-09-22,26.3052
2005-09-23,26.7246
2005-09-26,26.7627
2005-09-27,27.2431
2005-09-28,27.5176
2005-09-29,27.914
2005-09-30,27.853
2005-10-03,27.975
2005-10-04,28.219
2005-10-05,27.8378
2005-10-06,27.5709
2005-10-07,27.9293
2005-10-10,27.9979
2005-10-11,27.6548
2005-10-12,27.7311
2005-10-13,27.8149
2005-10-14,28.1504
2005-10-17,28.1962
2005-10-18,28.2267
2005-10-19,28.2114
2005-10-20,27.7844
2005-10-21,27.7539
2005-10-24,27.792
2005-10-25,27.6243
2005-10-26,27.4032
2005-10-27,26.9838
2005-10-28,27.1821
2005-10-31,27.0677
2005-11-01,27.0067
2005-11-02,26.9686
2005-11-03,26.9152
2005-11-04,26.8847
2005-11-07,26.8618
2005-11-08,26.7398
2005-11-09,26.7246
2005-11-10,27.0296
2005-11-11,26.9152
2005-11-14,27.0677
2005-11-15,26.9076
2005-11-16,26.8923
2005-11-17,26.8313
2005-11-18,26.7475
2005-11-21,26.7246
2005-11-22,27.2049
2005-11-23,27.3193
2005-11-25,27.2202
2005-11-28,27.0525
2005-11-29,26.961
2005-11-30,26.4882
2005-12-01,26.7017
2005-12-02,26.5416
2005-12-05,26.3662
2005-12-06,26.4577
2005-12-07,26.2595
2005-12-08,26.1985
2005-12-09,26.2137
2005-12-12,26.3357
2005-12-13,26.4272
2005-12-14,26.5263
2005-12-15,26.4653
2005-12-16,26.5111
2005-12-19,26.2671
2005-12-20,26.1604
2005-12-21,26.2067
2005-12-22,26.3452
2005-12-23,26.0221
2005-12-27,26.0529
2005-12-28,26.1144
2005-12-29,26.1913
2005-12-30,25.9298
2006-01-03,26.0375
2006-01-04,26.0298
2006-01-05,25.999
2006-01-06,26.0144
2006-01-09,26.2913
2006-01-10,26.2605
2006-01-11,26.1759
2006-01-12,26.2298
2006-01-13,26.1529
2006-01-17,26.1144
2006-01-18,26.0682
2006-01-19,26.1606
2006-01-20,25.8452
2006-01-23,25.799
2006-01-24,25.8913
2006-01-25,25.8606
2006-01-26,26.1144
2006-01-27,26.2067
2006-01-30,26.1452
2006-01-31,26.099
2006-02-01,26.1529
2006-02-02,26.0836
2006-02-03,26.0759
2006-02-06,25.9298
2006-02-07,26.1529
2006-02-08,26.4913
2006-02-09,27.099
2006-02-10,27.1836
2006-02-13,27.1297
2006-02-14,27.399
2006-02-15,27.7836
2006-02-16,27.9989
2006-02-17,28.2297
2006-02-21,28.3066
2006-02-22,28.1682
2006-02-23,28.622
2006-02-24,28.822
2006-02-27,28.922
2006-02-28,29.0681
2006-03-01,28.9451
2006-03-02,28.7297
2006-03-03,29.3912
2006-03-06,29.4374
2006-03-07,29.2374
2006-03-08,29.0066
2006-03-09,29.3451
2006-03-10,29.3912
2006-03-13,29.445
2006-03-14,29.445
2006-03-15,29.2143
2006-03-16,29.0374
2006-03-17,29.5066
2006-03-20,29.3989
2006-03-21,29.3681
2006-03-22,29.2906
2006-03-23,29.3294
2006-03-24,29.3681
2006-03-27,29.1278
2006-03-28,29.0813
2006-03-29,29.4534
2006-03-30,29.1743
2006-03-31,29.3681
2006-04-03,29.5465
2006-04-04,29.593
2006-04-05,29.655
2006-04-06,29.6007
2006-04-07,29.4534
2006-04-10,29.4534
2006-04-11,29.2984
2006-04-12,29.2674
2006-04-13,29.2053
2006-04-17,29.4224
2006-04-18,29.3681
2006-04-19,29.8101
2006-04-20,30.2752
2006-04-21,30.8877
2006-04-24,30.5001
2006-04-25,31.3141
2006-04-26,30.911
2006-04-27,31.2133
2006-04-28,32.1902
2006-05-01,31.8568
2006-05-02,32.7329
2006-05-03,32.4848
2006-05-04,32.1049
2006-05-05,32.8027
2006-05-08,32.6554
2006-05-09,32.5779
2006-05-10,32.5391
2006-05-11,32.229
2006-05-12,32.0274
2006-05-15,32.1825
2006-05-16,32.1049
2006-05-17,31.8181
2006-05-18,31.7405
2006-05-19,32.1359
2006-05-22,31.694
2006-05-23,33.3221
2006-05-24,33.0585
2006-05-25,33.1748
2006-05-26,33.2756
2006-05-30,32.7407
2006-05-31,32.7949
2006-06-01,32.857
2006-06-02,33.0973
2006-06-05,32.9422
2006-06-06,32.5546
2006-06-07,32.6089
2006-06-08,31.632
2006-06-09,31.7328
2006-06-12,31.632
2006-06-13,31.1203
2006-06-14,31.0118
2006-06-15,31.4304
2006-06-16,31.8646
2006-06-19,31.8568
2006-06-20,32.0584
2006-06-21,31.8939
2006-06-22,31.5264
2006-06-23,31.2528
2006-06-26,31.3075
2006-06-27,31.3857
2006-06-28,31.3935
2006-06-29,31.9799
2006-06-30,32.2693
2006-07-03,32.3787
2006-07-05,32.6837
2006-07-06,32.6524
2006-07-07,32.4335
2006-07-10,32.496
2006-07-11,33.1137
2006-07-12,33.2701
2006-07-13,32.5273
2006-07-14,32.4804
2006-07-17,32.8166
2006-07-18,32.973
2006-07-19,33.3405
2006-07-20,33.1372
2006-07-21,32.8479
2006-07-24,32.8166
2006-07-25,32.84
2006-07-26,32.7306
2006-07-27,32.5742
2006-07-28,33.2388
2006-07-31,32.8166
2006-08-01,32.5195
2006-08-02,32.9651
2006-08-03,32.973
2006-08-04,32.6837
2006-08-07,32.8791
2006-08-08,33.0746
2006-08-09,32.668
2006-08-10,32.8244
2006-08-11,32.1598
2006-08-14,32.2302
2006-08-15,32.0581
2006-08-16,32.1363
2006-08-17,31.761
2006-08-18,32.1285
2006-08-21,32.3631
2006-08-22,32.3865
2006-08-23,32.2458
2006-08-24,32.2849
2006-08-25,32.3553
2006-08-28,32.6993
2006-08-29,32.8009
2006-08-30,32.84
2006-08-31,32.6915
2006-09-01,32.7619
2006-09-05,32.8009
2006-09-06,33.0355
2006-09-07,32.9104
2006-09-08,32.6367
2006-09-11,32.6758
2006-09-12,32.5351
2006-09-13,32.4491
2006-09-14,32.1911
2006-09-15,32.2927
2006-09-18,32.2223
2006-09-19,32.3553
2006-09-20,32.7258
2006-09-21,32.8598
2006-09-22,32.8677
2006-09-25,33.2068
2006-09-26,33.4276
2006-09-27,33.2778
2006-09-28,33.2856
2006-09-29,33.057
2006-10-02,33.0491
2006-10-03,32.7731
2006-10-04,33.1122
2006-10-05,33.262
2006-10-06,32.9466
2006-10-09,33.2147
2006-10-10,33.3487
2006-10-11,33.1674
2006-10-12,32.9466
2006-10-13,32.8677
2006-10-16,32.781
2006-10-17,32.8046
2006-10-18,32.986
2006-10-19,32.9466
2006-10-20,32.7652
2006-10-23,32.5838
2006-10-24,32.4892
2006-10-25,32.9308
2006-10-26,33.0885
2006-10-27,33.1122
2006-10-30,33.1122
2006-10-31,33.2068
2006-11-01,33.1279
2006-11-02,33.3172
2006-11-03,33.1595
2006-11-06,33.3093
2006-11-07,33.3487
2006-11-08,34.0742
2006-11-09,33.7903
2006-11-10,33.8298
2006-11-13,34.1452
2006-11-14,34.2871
2006-11-15,34.5552
2006-11-16,34.6656
2006-11-17,34.6183
2006-11-20,34.3029
2006-11-21,34.5947
2006-11-22,35.0915
2006-11-24,34.3423
2006-11-27,34.4291
2006-11-28,34.3266
2006-11-29,34.6972
2006-11-30,35.0757
2006-12-01,35.0915
2006-12-04,35.4542
2006-12-05,35.5646
2006-12-06,35.4227
2006-12-07,35.604
2006-12-08,35.9116
2006-12-11,36.1718
2006-12-12,36.4872
2006-12-13,36.3532
2006-12-14,36.6371
2006-12-15,36.6528
2006-12-18,36.1482
2006-12-19,35.9826
2006-12-20,36.2684
2006-12-21,36.1969
2006-12-22,35.8711
2006-12-26,35.887
2006-12-27,35.879
2006-12-28,35.8631
2006-12-29,35.7439
2007-01-03,36.3399
2007-01-04,35.9903
2007-01-05,35.9585
2007-01-08,36.1174
2007-01-09,36.324
2007-01-10,36.5863
2007-01-11,36.7293
2007-01-12,36.5942
2007-01-16,36.9677
2007-01-17,36.9757
2007-01-18,37.071
2007-01-19,37.1425
2007-01-22,37.1902
2007-01-23,37.2617
2007-01-24,37.2379
2007-01-25,36.8803
2007-01-26,36.8644
2007-01-29,37.0631
2007-01-30,37.1425
2007-01-31,37.4604
2007-02-01,37.3889
2007-02-02,37.3253
2007-02-05,37.1425
2007-02-06,37.1266
2007-02-07,37.079
2007-02-08,37.1028
2007-02-09,37.079
2007-02-12,36.8882
2007-02-13,36.9916
2007-02-14,37.3094
2007-02-15,37.5875
2007-02-16,37.5796
2007-02-20,37.9134
2007-02-21,37.8577
2007-02-22,37.7624
2007-02-23,37.5081
2007-02-26,37.3889
2007-02-27,36.475
2007-02-28,36.4194
2007-03-01,36.3002
2007-03-02,35.9426
2007-03-05,35.9823
2007-03-06,35.9823
2007-03-07,35.6565
2007-03-08,36.0141
2007-03-09,36.0618
2007-03-12,36.1413
2007-03-13,35.2274
2007-03-14,35.8949
2007-03-15,36.4671
2007-03-16,36.5545
2007-03-19,36.8008
2007-03-20,36.9121
2007-03-21,37.4728
2007-03-22,37.6329
2007-03-23,37.689
2007-03-26,37.5288
2007-03-27,37.5929
2007-03-28,37.793
2007-03-29,37.6729
2007-03-30,37.697
2007-04-02,37.6569
2007-04-03,38.0413
2007-04-04,38.2735
2007-04-05,38.0172
2007-04-09,37.9932
2007-04-10,37.8891
2007-04-11,37.6729
2007-04-12,37.729
2007-04-13,37.8411
2007-04-16,37.9692
2007-04-17,37.8171
2007-04-18,37.5688
2007-04-19,38.5297
2007-04-20,38.5537
2007-04-23,38.1694
2007-04-24,37.8811
2007-04-25,38.1694
2007-04-26,37.6249
2007-04-27,37.4728
2007-04-30,37.737
2007-05-01,37.3206
2007-05-02,37.3607
2007-05-03,37.1445
2007-05-04,36.9763
2007-05-07,37.3767
2007-05-08,37.3607
2007-05-09,37.3767
2007-05-10,36.648
2007-05-11,36.624
2007-05-14,36.6721
2007-05-15,36.7601
2007-05-16,37.0484
2007-05-17,37.1445
2007-05-18,37.2165
2007-05-21,37.6329
2007-05-22,37.1685
2007-05-23,37.0964
2007-05-24,37.3687
2007-05-25,37.5769
2007-05-29,37.785
2007-05-30,38.0413
2007-05-31,38.1373
2007-06-01,38.4816
2007-06-04,38.5537
2007-06-05,38.1213
2007-06-06,37.785
2007-06-07,37.0164
2007-06-08,37.2486
2007-06-11,37.2005
2007-06-12,36.9043
2007-06-13,37.5128
2007-06-14,37.689
2007-06-15,37.9132
2007-06-18,37.745
2007-06-19,37.4247
2007-06-20,36.8242
2007-06-21,37.6157
2007-06-22,37.7207
2007-06-25,37.7933
2007-06-26,37.6399
2007-06-27,38.1082
2007-06-28,38.2697
2007-06-29,38.31
2007-07-02,38.528
2007-07-03,38.3181
2007-07-05,38.1163
2007-07-06,38.1889
2007-07-09,38.1163
2007-07-10,37.7449
2007-07-11,37.6641
2007-07-12,38.1163
2007-07-13,38.1809
2007-07-16,37.6157
2007-07-17,37.43
2007-07-18,37.3412
2007-07-19,37.5592
2007-07-20,37.1636
2007-07-23,37.3008
2007-07-24,36.55
2007-07-25,36.6226
2007-07-26,35.7668
2007-07-27,35.2259
2007-07-30,35.5165
2007-07-31,35.3389
2007-08-01,35.0725
2007-08-02,35.3389
2007-08-03,34.7172
2007-08-06,35.4681
2007-08-07,35.3631
2007-08-08,35.3227
2007-08-09,33.9906
2007-08-10,34.0955
2007-08-13,34.9029
2007-08-14,34.4266
2007-08-15,35.2339
2007-08-16,35.9929
2007-08-17,36.4612
2007-08-20,35.9283
2007-08-21,35.8718
2007-08-22,36.34
2007-08-23,36.4692
2007-08-24,36.6549
2007-08-27,36.7437
2007-08-28,35.7264
2007-08-29,36.1624
2007-08-30,36.1301
2007-08-31,36.3562
2007-09-04,36.6711
2007-09-05,36.332
2007-09-06,36.7357
2007-09-07,36.2512
2007-09-10,36.4127
2007-09-11,36.9294
2007-09-12,37.1151
2007-09-13,37.3573
2007-09-14,37.1797
2007-09-17,37.0828
2007-09-18,37.4542
2007-09-19,37.7798
2007-09-20,37.1286
2007-09-21,37.1204
2007-09-24,37.1611
2007-09-25,37.4786
2007-09-26,37.5193
2007-09-27,37.6414
2007-09-28,37.5763
2007-10-01,37.8612
2007-10-02,37.6902
2007-10-03,37.4542
2007-10-04,37.5274
2007-10-05,37.5193
2007-10-08,37.2588
2007-10-09,37.3809
2007-10-10,37.2995
2007-10-11,37.2181
2007-10-12,37.3076
2007-10-15,37.2507
2007-10-16,37.2507
2007-10-17,37.7065
2007-10-18,37.5356
2007-10-19,37.4542
2007-10-22,37.7472
2007-10-23,37.5193
2007-10-24,37.7228
2007-10-25,38.0077
2007-10-26,38.2682
2007-10-29,38.1298
2007-10-30,37.967
2007-10-31,38.1135
2007-11-01,37.1204
2007-11-02,37.096
2007-11-05,37.0064
2007-11-06,36.8111
2007-11-07,36.4203
2007-11-08,36.9088
2007-11-09,36.9739
2007-11-12,36.8843
2007-11-13,37.3239
2007-11-14,37.2344
2007-11-15,37.0797
2007-11-16,37.1611
2007-11-19,36.6238
2007-11-20,37.1611
2007-11-21,36.6483
2007-11-23,37.0227
2007-11-26,36.8436
2007-11-27,37.4867
2007-11-28,38.3822
2007-11-29,38.7485
2007-11-30,38.5206
2007-12-03,38.2601
2007-12-04,38.3171
2007-12-05,38.7811
2007-12-06,39.2858
2007-12-07,38.8543
2007-12-10,39.5544
2007-12-11,38.7404
2007-12-12,38.4799
2007-12-13,38.3333
2007-12-14,37.6577
2007-12-17,37.3972
2007-12-18,37.6984
2007-12-19,37.9204
2007-12-20,37.9532
2007-12-21,38.6591
2007-12-24,38.7904
2007-12-26,38.5688
2007-12-27,38.3472
2007-12-28,38.4457
2007-12-31,38.339
2008-01-02,37.3951
2008-01-03,37.313
2008-01-04,37.0996
2008-01-07,37.8465
2008-01-08,37.7973
2008-01-09,37.904
2008-01-10,38.5524
2008-01-11,38.1092
2008-01-14,37.8794
2008-01-15,37.1981
2008-01-16,37.0339
2008-01-17,36.4922
2008-01-18,35.7617
2008-01-22,35.2692
2008-01-23,35.7453
2008-01-24,35.5237
2008-01-25,35.2282
2008-01-28,35.8028
2008-01-29,35.5155
2008-01-30,35.1297
2008-01-31,34.9656
2008-02-01,35.2857
2008-02-04,35.2857
2008-02-05,34.432
2008-02-06,34.3992
2008-02-07,34.5716
2008-02-08,34.5141
2008-02-11,34.9491
2008-02-12,35.179
2008-02-13,35.3103
2008-02-14,35.1872
2008-02-15,36.9437
2008-02-19,37.1488
2008-02-20,37.272
2008-02-21,36.8452
2008-02-22,37.1571
2008-02-25,37.6742
2008-02-26,37.469
2008-02-27,37.1406
2008-02-28,36.837
2008-02-29,36.1967
2008-03-03,35.9998
2008-03-04,36.09
2008-03-05,36.1639
2008-03-06,35.9341
2008-03-07,36.0244
2008-03-10,36.4594
2008-03-11,37.0586
2008-03-12,37.551
2008-03-13,37.4854
2008-03-14,37.0011
2008-03-17,36.5004
2008-03-18,37.1488
2008-03-19,36.9662
2008-03-20,37.3387
2008-03-24,37.4794
2008-03-25,37.7608
2008-03-26,37.976
2008-03-27,38.2078
2008-03-28,38.7706
2008-03-31,38.8368
2008-04-01,39.4411
2008-04-02,39.4576
2008-04-03,39.2176
2008-04-04,39.7722
2008-04-07,39.1928
2008-04-08,38.5389
2008-04-09,38.7375
2008-04-10,38.7789
2008-04-11,38.6879
2008-04-14,38.7706
2008-04-15,39.1348
2008-04-16,39.0272
2008-04-17,39.0769
2008-04-18,39.5073
2008-04-21,39.3335
2008-04-22,38.9031
2008-04-23,39.1928
2008-04-24,38.9196
2008-04-25,38.6465
2008-04-28,38.7789
2008-04-29,38.9279
2008-04-30,38.9693
2008-05-01,39.5321
2008-05-02,39.259
2008-05-05,39.4163
2008-05-06,39.4576
2008-05-07,38.8865
2008-05-08,39.3666
2008-05-09,39.5321
2008-05-12,40.1943
2008-05-13,39.9295
2008-05-14,40.1695
2008-05-15,40.0702
2008-05-16,40.3102
2008-05-19,40.0122
2008-05-20,39.9791
2008-05-21,39.4245
2008-05-22,39.0272
2008-05-23,38.572
2008-05-27,38.812
2008-05-28,39.3914
2008-05-29,40.7323
2008-05-30,41.3449
2008-06-02,41.1462
2008-06-03,41.2124
2008-06-04,41.4028
2008-06-05,41.6677
2008-06-06,41.1296
2008-06-09,41.4856
2008-06-10,41.7008
2008-06-11,41.1959
2008-06-12,41.0469
2008-06-13,41.8663
2008-06-16,41.7422
2008-06-17,41.7091
2008-06-18,41.229
2008-06-19,41.2538
2008-06-20,41.208
2008-06-23,41.4167
2008-06-24,41.3416
2008-06-25,41.8007
2008-06-26,40.6488
2008-06-27,40.2398
2008-06-30,39.8809
2008-07-01,39.5387
2008-07-02,39.3968
2008-07-03,39.6138
2008-07-07,39.8893
2008-07-08,40.3233
2008-07-09,41.2164
2008-07-10,41.4751
2008-07-11,40.991
2008-07-14,40.8825
2008-07-15,40.8992
2008-07-16,40.9326
2008-07-17,40.9076
2008-07-18,40.9159
2008-07-21,40.7156
2008-07-22,41.1079
2008-07-23,41.4668
2008-07-24,41.4334
2008-07-25,41.0244
2008-07-28,41.2581
2008-07-29,41.784
2008-07-30,42.6771
2008-07-31,42.0093
2008-08-01,42.1512
2008-08-04,42.5602
2008-08-05,42.6687
2008-08-06,43.253
2008-08-07,41.9926
2008-08-08,42.7689
2008-08-11,42.9609
2008-08-12,42.8273
2008-08-13,43.2113
2008-08-14,43.2363
2008-08-15,43.4116
2008-08-18,43.4617
2008-08-19,43.1946
2008-08-20,43.2113
2008-08-21,43.4032
2008-08-22,43.4867
2008-08-25,42.8273
2008-08-26,42.4267
2008-08-27,43.1362
2008-08-28,43.0443
2008-08-29,42.0344
2008-09-02,43.3866
2008-09-03,43.036
2008-09-04,43.0193
2008-09-05,43.1445
2008-09-08,43.7789
2008-09-09,43.687
2008-09-10,43.6954
2008-09-11,43.7622
2008-09-12,43.8456
2008-09-15,43.4366
2008-09-16,43.2196
2008-09-17,42.6103
2008-09-18,41.7393
2008-09-19,42.0675
2008-09-22,42.0928
2008-09-23,42.5977
2008-09-24,42.4714
2008-09-25,43.1783
2008-09-26,42.9763
2008-09-29,41.9749
2008-09-30,42.0002
2008-10-01,42.0759
2008-10-02,42.4967
2008-10-03,42.7576
2008-10-06,42.2863
2008-10-07,41.6215
2008-10-08,39.7028
2008-10-09,36.9595
2008-10-10,35.4111
2008-10-13,38.247
2008-10-14,37.4307
2008-10-15,35.2933
2008-10-16,34.4602
2008-10-17,35.5626
2008-10-20,37.0352
2008-10-21,36.8417
2008-10-22,35.1671
2008-10-23,34.8557
2008-10-24,33.4504
2008-10-27,33.3157
2008-10-28,36.665
2008-10-29,35.8739
2008-10-30,36.7744
2008-10-31,36.6986
2008-11-03,37.0941
2008-11-04,38.55
2008-11-05,36.4798
2008-11-06,35.1671
2008-11-07,35.7225
2008-11-10,35.7645
2008-11-11,34.6621
2008-11-12,33.9384
2008-11-13,35.6215
2008-11-14,34.578
2008-11-17,33.9889
2008-11-18,34.5696
2008-11-19,34.0394
2008-11-20,32.0198
2008-11-21,33.3494
2008-11-24,33.0633
2008-11-25,32.2133
2008-11-26,32.146
2008-11-28,32.6846
2008-12-01,30.808
2008-12-02,31.4644
2008-12-03,31.7084
2008-12-04,30.8332
2008-12-05,30.6313
2008-12-08,31.01
2008-12-09,30.1264
2008-12-10,30.8332
2008-12-11,30.4293
2008-12-12,30.9342
2008-12-15,30.7743
2008-12-16,32.4237
2008-12-17,33.0969
2008-12-18,32.5063
2008-12-19,31.7578
2008-12-22,31.9364
2008-12-23,31.5282
2008-12-24,31.7068
2008-12-26,31.6728
2008-12-29,31.5367
2008-12-30,32.2086
2008-12-31,32.0215
2009-01-02,33.0591
2009-01-05,32.9145
2009-01-06,32.5403
2009-01-07,31.7663
2009-01-08,31.1965
2009-01-09,30.9243
2009-01-12,30.6692
2009-01-13,30.9498
2009-01-14,29.8357
2009-01-15,29.8102
2009-01-16,30.7117
2009-01-20,30.1163
2009-01-21,30.8818
2009-01-22,30.6692
2009-01-23,29.7932
2009-01-26,30.6522
2009-01-27,31.3411
2009-01-28,31.3921
2009-01-29,31.6132
2009-01-30,30.9839
2009-02-02,31.3326
2009-02-03,32.3787
2009-02-04,31.8854
2009-02-05,31.4346
2009-02-06,31.4431
2009-02-09,31.4431
2009-02-10,29.7421
2009-02-11,29.7591
2009-02-12,29.7336
2009-02-13,29.3594
2009-02-17,28.1262
2009-02-18,27.7349
2009-02-19,27.9986
2009-02-20,27.6754
2009-02-23,27.1566
2009-02-24,28.7896
2009-02-25,28.9086
2009-02-26,27.7349
2009-02-27,27.8455
2009-03-02,27.2331
2009-03-03,27.029
2009-03-04,27.2416
2009-03-05,26.5527
2009-03-06,26.5442
2009-03-09,26.119
2009-03-10,27.1481
2009-03-11,26.7228
2009-03-12,27.5989
2009-03-13,27.871
2009-03-16,28.5684
2009-03-17,28.9086
2009-03-18,28.0921
2009-03-19,28.4238
2009-03-20,28.5489
2009-03-23,29.7891
2009-03-24,29.6513
2009-03-25,29.8407
2009-03-26,29.8149
2009-03-27,29.0226
2009-03-30,28.592
2009-03-31,28.5059
2009-04-01,29.0226
2009-04-02,29.5135
2009-04-03,29.6857
2009-04-06,29.2207
2009-04-07,28.7384
2009-04-08,28.9968
2009-04-09,29.2121
2009-04-13,29.1776
2009-04-14,28.8934
2009-04-15,29.436
2009-04-16,29.6168
2009-04-17,29.6427
2009-04-20,29.281
2009-04-21,29.4187
2009-04-22,28.8762
2009-04-23,28.8245
2009-04-24,28.6609
2009-04-27,28.8331
2009-04-28,28.9709
2009-04-29,29.2293
2009-04-30,29.6599
2009-05-01,29.858
2009-05-04,30.2541
2009-05-05,30.323
2009-05-06,30.2197
2009-05-07,30.168
2009-05-08,30.4866
2009-05-11,30.7278
2009-05-12,31.2014
2009-05-13,30.7106
2009-05-14,30.5211
2009-05-15,30.2455
2009-05-18,30.6589
2009-05-19,30.7106
2009-05-20,30.5986
2009-05-21,30.5039
2009-05-22,30.9948
2009-05-26,31.2445
2009-05-27,31.2703
2009-05-28,31.1498
2009-05-29,31.4598
2009-06-01,31.899
2009-06-02,32.1315
2009-06-03,31.7182
2009-06-04,31.4942
2009-06-05,31.6407
2009-06-08,31.5459
2009-06-09,31.2014
2009-06-10,30.9775
2009-06-11,31.0464
2009-06-12,31.2617
2009-06-15,30.6503
2009-06-16,30.4866
2009-06-17,31.0292
2009-06-18,31.589
2009-06-19,31.5029
2009-06-22,31.1365
2009-06-23,30.849
2009-06-24,30.788
2009-06-25,31.1539
2009-06-26,31.0668
2009-06-29,31.1016
2009-06-30,31.0842
2009-07-01,31.9989
2009-07-02,31.2584
2009-07-06,31.7376
2009-07-07,31.2497
2009-07-08,31.2149
2009-07-09,30.9884
2009-07-10,31.0668
2009-07-13,31.4762
2009-07-14,31.5808
2009-07-15,32.0948
2009-07-16,32.5217
2009-07-17,32.5217
2009-07-20,32.5042
2009-07-21,32.5129
2009-07-22,32.8092
2009-07-23,33.5322
2009-07-24,33.6019
2009-07-27,33.5322
2009-07-28,33.5845
2009-07-29,33.6542
2009-07-30,33.6716
2009-07-31,33.4887
2009-08-03,33.2883
2009-08-04,33.4277
2009-08-05,33.1315
2009-08-06,32.9485
2009-08-07,33.1838
2009-08-10,33.2883
2009-08-11,33.2099
2009-08-12,33.2447
2009-08-13,32.8876
2009-08-14,32.9311
2009-08-17,32.7133
2009-08-18,32.6523
2009-08-19,33.0269
2009-08-20,33.6629
2009-08-21,33.9853
2009-08-24,34.0201
2009-08-25,33.994
2009-08-26,33.9853
2009-08-27,33.7326
2009-08-28,33.4974
2009-08-31,33.5148
2009-09-01,33.1489
2009-09-02,32.905
2009-09-03,32.8876
2009-09-04,32.9137
2009-09-08,34.6125
2009-09-09,34.7258
2009-09-10,34.778
2009-09-11,34.7519
2009-09-14,34.7432
2009-09-15,34.5864
2009-09-16,34.7955
2009-09-17,34.8042
2009-09-18,34.9541
2009-09-21,34.9013
2009-09-22,34.8397
2009-09-23,35.1654
2009-09-24,34.9541
2009-09-25,34.9629
2009-09-28,35.2359
2009-09-29,35.0422
2009-09-30,34.9806
2009-10-01,34.3026
2009-10-02,34.1881
2009-10-05,34.5579
2009-10-06,34.7957
2009-10-07,34.8133
2009-10-08,34.9541
2009-10-09,34.9894
2009-10-12,35.3415
2009-10-13,35.2623
2009-10-14,35.3503
2009-10-15,35.7025
2009-10-16,35.7906
2009-10-19,36.1604
2009-10-20,36.1251
2009-10-21,36.0987
2009-10-22,36.178
2009-10-23,35.6497
2009-10-26,35.5352
2009-10-27,35.4912
2009-10-28,35.3063
2009-10-29,35.8258
2009-10-30,35.4736
2009-11-02,35.4824
2009-11-03,35.1831
2009-11-04,35.5705
2009-11-05,36.0195
2009-11-06,36.0723
2009-11-09,36.8911
2009-11-10,36.8999
2009-11-11,37.0672
2009-11-12,36.7239
2009-11-13,36.8207
2009-11-16,37.1817
2009-11-17,37.2873
2009-11-18,37.4106
2009-11-19,36.988
2009-11-20,37.1641
2009-11-23,37.9917
2009-11-24,38.071
2009-11-25,38.159
2009-11-27,37.349
2009-11-30,37.393
2009-12-01,37.9653
2009-12-02,38.2118
2009-12-03,37.9741
2009-12-04,38.159
2009-12-07,38.1414
2009-12-08,37.798
2009-12-09,37.7188
2009-12-10,37.5867
2009-12-11,37.7276
2009-12-14,37.8773
2009-12-15,37.8949
2009-12-16,37.8861
2009-12-17,37.3842
2009-12-18,37.34
2009-12-21,37.5712
2009-12-22,37.8914
2009-12-23,38.0781
2009-12-24,38.2471
2009-12-28,38.336
2009-12-29,38.3271
2009-12-30,38.416
2009-12-31,38.0514
2010-01-04,38.0692
2010-01-05,37.8825
2010-01-06,37.9002
2010-01-07,37.8558
2010-01-08,37.6957
2010-01-11,37.6957
2010-01-12,37.7224
2010-01-13,38.2204
2010-01-14,38.2471
2010-01-15,37.9002
2010-01-19,38.3093
2010-01-20,37.838
2010-01-21,37.42
2010-01-22,37.2689
2010-01-25,37.8024
2010-01-26,38.087
2010-01-27,38.745
2010-01-28,39.3942
2010-01-29,38.8162
2010-02-01,39.0474
2010-02-02,39.4831
2010-02-03,39.1363
2010-02-04,38.1403
2010-02-05,38.4516
2010-02-08,38.3893
2010-02-09,38.7895
2010-02-10,38.8429
2010-02-11,39.0385
2010-02-12,38.8695
2010-02-16,39.6076
2010-02-17,40.0078
2010-02-18,40.6303
2010-02-19,40.9148
2010-02-22,40.8437
2010-02-23,40.5769
2010-02-24,40.7814
2010-02-25,40.5858
2010-02-26,40.8704
2010-03-01,40.8882
2010-03-02,41.0927
2010-03-03,41.0215
2010-03-04,41.0215
2010-03-05,41.235
2010-03-08,41.0749
2010-03-09,41.1372
2010-03-10,41.2172
2010-03-11,41.2172
2010-03-12,41.2439
2010-03-15,41.5373
2010-03-16,42.0976
2010-03-17,42.2843
2010-03-18,42.2309
2010-03-19,42.1064
2010-03-22,42.0615
2010-03-23,42.0256
2010-03-24,42.3576
2010-03-25,41.6847
2010-03-26,40.8951
2010-03-29,40.931
2010-03-30,41.0297
2010-03-31,40.931
2010-04-01,41.1015
2010-04-05,41.0387
2010-04-06,41.1463
2010-04-07,41.1374
2010-04-08,40.8951
2010-04-09,41.1194
2010-04-12,41.2899
2010-04-13,41.263
2010-04-14,41.4963
2010-04-15,41.2809
2010-04-16,41.4155
2010-04-19,41.5591
2010-04-20,41.7744
2010-04-21,41.8641
2010-04-22,41.8641
2010-04-23,41.6488
2010-04-26,41.5949
2010-04-27,40.7874
2010-04-28,41.0835
2010-04-29,42.1243
2010-04-30,42.0615
2010-05-03,42.0884
2010-05-04,41.7744
2010-05-05,42.0166
2010-05-06,40.608
2010-05-07,40.3927
2010-05-10,41.6219
2010-05-11,41.7385
2010-05-12,42.2679
2010-05-13,42.1512
2010-05-14,41.3437
2010-05-17,41.9449
2010-05-18,41.7654
2010-05-19,41.891
2010-05-20,41.1104
2010-05-21,41.1104
2010-05-24,41.0925
2010-05-25,40.0428
2010-05-26,39.7287
2010-05-27,40.1235
2010-05-28,39.6839
2010-06-01,39.5493
2010-06-02,40.303
2010-06-03,40.3209
2010-06-04,39.307
2010-06-07,39.4955
2010-06-08,40.2132
2010-06-09,40.2401
2010-06-10,40.8951
2010-06-11,40.3837
2010-06-14,40.7964
2010-06-15,41.4065
2010-06-16,41.4693
2010-06-17,41.8462
2010-06-18,41.4963
2010-06-21,41.2809
2010-06-22,40.9004
2010-06-23,40.8007
2010-06-24,40.5198
2010-06-25,40.0215
2010-06-28,40.4111
2010-06-29,39.7406
2010-06-30,39.1517
2010-07-01,39.206
2010-07-02,39.1335
2010-07-06,39.3872
2010-07-07,40.2389
2010-07-08,40.7282
2010-07-09,40.7373
2010-07-12,40.5742
2010-07-13,40.9548
2010-07-14,41.0091
2010-07-15,40.9457
2010-07-16,40.547
2010-07-19,40.6104
2010-07-20,41.2447
2010-07-21,40.7373
2010-07-22,41.1722
2010-07-23,41.435
2010-07-26,41.6434
2010-07-27,41.6615
2010-07-28,41.1994
2010-07-29,40.4383
2010-07-30,40.3296
2010-08-02,40.7192
2010-08-03,41.0454
2010-08-04,41.6162
2010-08-05,41.1269
2010-08-06,41.0816
2010-08-09,41.3625
2010-08-10,41.3806
2010-08-11,41.0544
2010-08-12,41.0816
2010-08-13,41.3715
2010-08-16,41.3534
2010-08-17,42.0964
2010-08-18,42.5948
2010-08-19,42.2233
2010-08-20,42.7216
2010-08-23,42.4679
2010-08-24,41.9877
2010-08-25,42.0602
2010-08-26,41.888
2010-08-27,42.486
2010-08-30,41.8065
2010-08-31,41.9424
2010-09-01,41.9605
2010-09-02,42.3048
2010-09-03,42.0602
2010-09-07,42.033
2010-09-08,42.0511
2010-09-09,42.5041
2010-09-10,42.477
2010-09-13,42.3592
2010-09-14,42.3501
2010-09-15,42.8938
2010-09-16,43.0206
2010-09-17,43.4465
2010-09-20,43.913
2010-09-21,43.3094
2010-09-22,43.4466
2010-09-23,42.9801
2010-09-24,43.6478
2010-09-27,43.8856
2010-09-28,43.849
2010-09-29,43.7301
2010-09-30,43.346
2010-10-01,43.4191
2010-10-04,43.3002
2010-10-05,43.7027
2010-10-06,44.032
2010-10-07,43.785
2010-10-08,43.6935
2010-10-11,43.8673
2010-10-12,44.1051
2010-10-13,44.8826
2010-10-14,44.8552
2010-10-15,44.8826
2010-10-18,45.0564
2010-10-19,44.4436
2010-10-20,45.0289
2010-10-21,45.1844
2010-10-22,45.2942
2010-10-25,45.4771
2010-10-26,44.9009
2010-10-27,44.7454
2010-10-28,45.1753
2010-10-29,44.9283
2010-11-01,44.9009
2010-11-02,45.1753
2010-11-03,45.2485
2010-11-04,45.4863
2010-11-05,45.0564
2010-11-08,44.6265
2010-11-09,44.3978
2010-11-10,44.4161
2010-11-11,44.1966
2010-11-12,44.032
2010-11-15,44.1051
2010-11-16,43.6112
2010-11-17,43.7027
2010-11-18,44.0868
2010-11-19,43.913
2010-11-22,44.4984
2010-11-23,44.0502
2010-11-24,44.4161
2010-11-26,44.4618
2010-11-29,44.3064
2010-11-30,44.1783
2010-12-01,44.4801
2010-12-02,44.599
2010-12-03,44.6448
2010-12-06,44.6173
2010-12-07,44.8186
2010-12-08,45.0198
2010-12-09,45.157
2010-12-10,45.5594
2010-12-13,45.5503
2010-12-14,45.9985
2010-12-15,45.9619
2010-12-16,46.282
2010-12-17,46.4284
2010-12-20,46.0132
2010-12-21,45.8101
2010-12-22,45.9117
2010-12-23,45.8471
2010-12-27,45.7179
2010-12-28,45.6902
2010-12-29,45.7271
2010-12-30,45.5702
2010-12-31,45.6256
2011-01-03,45.7732
2011-01-04,45.4964
2011-01-05,45.2103
2011-01-06,44.6658
2011-01-07,44.7489
2011-01-10,44.6935
2011-01-11,44.6104
2011-01-12,44.9242
2011-01-13,45.0257
2011-01-14,44.8781
2011-01-18,44.8781
2011-01-19,44.8596
2011-01-20,45.2934
2011-01-21,45.4041
2011-01-24,45.4226
2011-01-25,45.4133
2011-01-26,44.8781
2011-01-27,44.4351
2011-01-28,43.9368
2011-01-31,43.8076
2011-02-01,43.7799
2011-02-02,43.623
2011-02-03,44.3336
2011-02-04,44.4997
2011-02-07,44.3244
2011-02-08,44.5182
2011-02-09,44.6474
2011-02-10,44.2967
2011-02-11,44.2967
2011-02-14,44.4259
2011-02-15,44.3797
2011-02-16,44.7858
2011-02-17,44.6658
2011-02-18,44.0752
2011-02-22,44.0383
2011-02-23,45.1272
2011-02-24,45.7732
2011-02-25,46.1701
2011-02-28,46.2993
2011-03-01,45.4318
2011-03-02,45.2103
2011-03-03,45.7825
2011-03-04,45.3118
2011-03-07,44.8227
2011-03-08,45.764
2011-03-09,45.9855
2011-03-10,45.9301
2011-03-11,46.0778
2011-03-14,45.4595
2011-03-15,45.0073
2011-03-16,44.6104
2011-03-17,44.8596
2011-03-18,45.1918
2011-03-21,45.2841
2011-03-22,45.2095
2011-03-23,45.0604
2011-03-24,45.2001
2011-03-25,45.3026
2011-03-28,45.3305
2011-03-29,45.5075
2011-03-30,45.3678
2011-03-31,45.4609
2011-04-01,45.6193
2011-04-04,45.6845
2011-04-05,45.7403
2011-04-06,45.9266
2011-04-07,45.8428
2011-04-08,45.8428
2011-04-11,46.2526
2011-04-12,46.3644
2011-04-13,46.1502
2011-04-14,46.7462
2011-04-15,47.2678
2011-04-18,46.9046
2011-04-19,46.858
2011-04-20,47.2026
2011-04-21,47.1281
2011-04-25,46.9046
2011-04-26,47.51
2011-04-27,47.7242
2011-04-28,47.7894
2011-04-29,47.7242
2011-05-02,47.7894
2011-05-03,48.0502
2011-05-04,47.957
2011-05-05,47.6031
2011-05-06,47.6683
2011-05-09,47.7708
2011-05-10,48.0781
2011-05-11,47.985
2011-05-12,48.8791
2011-05-13,48.8791
2011-05-16,48.8605
2011-05-17,49.2424
2011-05-18,49.708
2011-05-19,50.1551
2011-05-20,50.1924
2011-05-23,49.708
2011-05-24,49.7732
2011-05-25,49.7174
2011-05-26,50.1272
2011-05-27,50.9747
2011-05-31,51.161
2011-06-01,50.0713
2011-06-02,49.9502
2011-06-03,49.5497
2011-06-06,49.2424
2011-06-07,49.3821
2011-06-08,49.5218
2011-06-09,49.885
2011-06-10,49.2144
2011-06-13,49.6894
2011-06-14,50.0154
2011-06-15,49.3634
2011-06-16,49.6894
2011-06-17,50.0713
2011-06-20,50.36
2011-06-21,50.3973
2011-06-22,50.1531
2011-06-23,49.3825
2011-06-24,49.796
2011-06-27,49.9558
2011-06-28,49.9276
2011-06-29,49.8806
2011-06-30,50.0873
2011-07-01,50.3974
2011-07-05,50.2377
2011-07-06,50.6606
2011-07-07,50.7075
2011-07-08,50.2565
2011-07-11,50.0873
2011-07-12,50.3786
2011-07-13,50.2377
2011-07-14,50.0309
2011-07-15,50.2001
2011-07-18,49.9088
2011-07-19,50.5854
2011-07-20,50.3974
2011-07-21,50.8673
2011-07-22,50.7169
2011-07-25,50.388
2011-07-26,50.0497
2011-07-27,49.6269
2011-07-28,49.5893
2011-07-29,49.5329
2011-08-01,49.1758
2011-08-02,48.4616
2011-08-03,48.5838
2011-08-04,47.2118
2011-08-05,48.0293
2011-08-08,46.272
2011-08-09,47.146
2011-08-10,45.7646
2011-08-11,47.3151
2011-08-12,47.879
2011-08-15,48.7153
2011-08-16,48.6589
2011-08-17,49.1194
2011-08-18,48.8845
2011-08-19,48.7341
2011-08-22,48.8751
2011-08-23,48.3206
2011-08-24,48.3582
2011-08-25,47.691
2011-08-26,48.0105
2011-08-29,49.0536
2011-08-30,49.2698
2011-08-31,49.3637
2011-09-01,49.1194
2011-09-02,48.5838
2011-09-06,48.0951
2011-09-07,49.5611
2011-09-08,49.204
2011-09-09,47.5783
2011-09-12,47.0802
2011-09-13,47.1366
2011-09-14,47.9354
2011-09-15,47.9635
2011-09-16,48.3864
2011-09-19,48.0199
2011-09-20,48.0103
2011-09-21,47.2039
2011-09-22,46.8814
2011-09-23,47.1565
2011-09-26,48.1336
2011-09-27,49.0158
2011-09-28,48.4182
2011-09-29,48.7123
2011-09-30,47.9439
2011-10-03,47.0901
2011-10-04,46.9573
2011-10-05,47.185
2011-10-06,47.887
2011-10-07,47.7257
2011-10-10,48.3897
2011-10-11,48.3328
2011-10-12,48.5131
2011-10-13,49.0443
2011-10-14,49.566
2011-10-17,49.0822
2011-10-18,49.8316
2011-10-19,49.566
2011-10-20,49.7558
2011-10-21,50.5526
2011-10-24,50.2775
2011-10-25,49.8981
2011-10-26,50.4862
2011-10-27,51.3305
2011-10-28,51.1502
2011-10-31,50.7328
2011-11-01,49.9265
2011-11-02,50.2585
2011-11-03,50.3724
2011-11-04,49.8791
2011-11-07,50.7044
2011-11-08,51.0649
2011-11-09,49.8981
2011-11-10,50.3819
2011-11-11,50.9131
2011-11-14,50.8277
2011-11-15,51.0459
2011-11-16,50.0309
2011-11-17,50.0214
2011-11-18,48.4846
2011-11-21,48.0198
2011-11-22,48.1051
2011-11-23,47.4126
2011-11-25,47.3557
2011-11-28,48.1715
2011-11-29,48.532
2011-11-30,49.9834
2011-12-01,49.8411
2011-12-02,49.7273
2011-12-05,49.7652
2011-12-06,49.8601
2011-12-07,49.8886
2011-12-08,49.4996
2011-12-09,50.3439
2011-12-12,49.8127
2011-12-13,49.8696
2011-12-14,49.8981
2011-12-15,50.2016
2011-12-16,50.2396
2011-12-19,50.1826
2011-12-20,50.757
2011-12-21,51.4559
2011-12-22,51.4942
2011-12-23,51.8388
2011-12-27,52.0016
2011-12-28,51.6282
2011-12-29,51.9824
2011-12-30,51.7622
2012-01-03,51.2166
2012-01-04,51.0155
2012-01-05,50.9868
2012-01-06,50.7283
2012-01-09,51.006
2012-01-10,50.8432
2012-01-11,50.556
2012-01-12,50.7092
2012-01-13,50.4699
2012-01-17,50.757
2012-01-18,51.2166
2012-01-19,51.1591
2012-01-20,49.7231
2012-01-23,49.4455
2012-01-24,49.7136
2012-01-25,50.0965
2012-01-26,49.8093
2012-01-27,49.57
2012-01-30,49.7136
2012-01-31,49.6466
2012-02-01,49.8284
2012-02-02,49.9912
2012-02-03,49.7423
2012-02-06,49.9146
2012-02-07,49.6657
2012-02-08,49.637
2012-02-09,49.8763
2012-02-10,49.6466
2012-02-13,49.8093
2012-02-14,49.5413
2012-02-15,49.5413
2012-02-16,49.8189
2012-02-17,52.0207
2012-02-21,51.3123
2012-02-22,51.3123
2012-02-23,51.4942
2012-02-24,51.14
2012-02-27,50.9677
2012-02-28,50.5752
2012-02-29,50.4603
2012-03-01,50.6709
2012-03-02,50.7188
2012-03-05,50.8432
2012-03-06,50.3071
2012-03-07,50.3837
2012-03-08,50.7188
2012-03-09,50.8145
2012-03-12,50.9198
2012-03-13,50.9772
2012-03-14,50.5847
2012-03-15,50.9868
2012-03-16,51.1304
2012-03-19,51.14
2012-03-20,50.8145
2012-03-21,50.9885
2012-03-22,51.1237
2012-03-23,51.0078
2012-03-26,51.3942
2012-03-27,51.3556
2012-03-28,51.2686
2012-03-29,51.5102
2012-03-30,51.6937
2012-04-02,51.7323
2012-04-03,51.6937
2012-04-04,51.4812
2012-04-05,51.4522
2012-04-09,51.2107
2012-04-10,50.8339
2012-04-11,50.9402
2012-04-12,51.0658
2012-04-13,50.8726
2012-04-16,50.8339
2012-04-17,51.172
2012-04-18,51.0658
2012-04-19,51.2107
2012-04-20,51.4812
2012-04-23,50.206
2012-04-24,50.5731
2012-04-25,50.5731
2012-04-26,51.0947
2012-04-27,51.3652
2012-04-30,51.5102
2012-05-01,51.6551
2012-05-02,51.6261
2012-05-03,51.5488
2012-05-04,51.5102
2012-05-07,51.9545
2012-05-08,52.2444
2012-05-09,52.1284
2012-05-10,52.9496
2012-05-11,52.9786
2012-05-14,53.0462
2012-05-15,53.0365
2012-05-16,53.4036
2012-05-17,52.8916
2012-05-18,52.2347
2012-05-21,52.1381
2012-05-22,52.2057
2012-05-23,52.0318
2012-05-24,51.7323
2012-05-25,51.6744
2012-05-29,51.7034
2012-05-30,51.3846
2012-05-31,51.288
2012-06-01,50.747
2012-06-04,50.8532
2012-06-05,50.9788
2012-06-06,51.6164
2012-06-07,51.6261
2012-06-08,51.7227
2012-06-11,51.5971
2012-06-12,51.713
2012-06-13,51.8676
2012-06-14,52.4376
2012-06-15,52.737
2012-06-18,53.0848
2012-06-19,53.3167
2012-06-20,52.7364
2012-06-21,52.0928
2012-06-22,52.2878
2012-06-25,51.8978
2012-06-26,51.693
2012-06-27,51.7612
2012-06-28,51.966
2012-06-29,52.9997
2012-07-02,53.3215
2012-07-03,53.536
2012-07-05,53.341
2012-07-06,53.5165
2012-07-09,52.9997
2012-07-10,53.7213
2012-07-11,53.692
2012-07-12,53.302
2012-07-13,53.8383
2012-07-16,53.5848
2012-07-17,53.7701
2012-07-18,53.8383
2012-07-19,53.8773
2012-07-20,53.6043
2012-07-23,53.3995
2012-07-24,52.9997
2012-07-25,53.0094
2012-07-26,53.692
2012-07-27,53.8481
2012-07-30,54.1016
2012-07-31,53.8578
2012-08-01,53.6725
2012-08-02,53.3215
2012-08-03,54.1601
2012-08-06,54.0333
2012-08-07,53.9846
2012-08-08,53.8773
2012-08-09,53.7993
2012-08-10,53.692
2012-08-13,53.6823
2012-08-14,54.1114
2012-08-15,54.3941
2012-08-16,54.1406
2012-08-17,54.2186
2012-08-20,54.2479
2012-08-21,54.1114
2012-08-22,54.1211
2012-08-23,54.1309
2012-08-24,54.8232
2012-08-27,55.0475
2012-08-28,55.9446
2012-08-29,54.6867
2012-08-30,54.4917
2012-08-31,54.4137
2012-09-04,54.5502
2012-09-05,54.0919
2012-09-06,54.8427
2012-09-07,54.3454
2012-09-10,54.7257
2012-09-11,54.6867
2012-09-12,54.8525
2012-09-13,55.694
2012-09-14,55.2511
2012-09-17,55.2216
2012-09-18,55.2511
2012-09-19,55.6054
2012-09-20,55.566
2012-09-21,55.32
2012-09-24,55.4479
2012-09-25,54.9263
2012-09-26,54.9952
2012-09-27,54.9952
2012-09-28,55.0542
2012-10-01,55.3495
2012-10-02,55.4676
2012-10-03,55.6448
2012-10-04,55.8514
2012-10-05,56.1171
2012-10-08,56.1171
2012-10-09,55.8022
2012-10-10,55.566
2012-10-11,55.7333
2012-10-12,55.4578
2012-10-15,56.1171
2012-10-16,56.314
2012-10-17,56.6388
2012-10-18,57.4556
2012-10-19,56.8258
2012-10-22,56.7765
2012-10-23,56.2057
2012-10-24,56.0187
2012-10-25,56.4813
2012-10-26,56.2648
2012-10-31,56.6289
2012-11-01,56.7372
2012-11-02,56.3632
2012-11-05,56.2845
2012-11-06,57.1112
2012-11-07,56.8356
2012-11-08,56.4222
2012-11-09,56.4813
2012-11-12,56.7372
2012-11-13,57.1604
2012-11-14,56.7962
2012-11-15,57.0521
2012-11-16,57.18
2012-11-19,57.7705
2012-11-20,56.4911
2012-11-21,56.688
2012-11-23,56.7076
2012-11-26,56.6289
2012-11-27,56.8848
2012-11-28,57.18
2012-11-29,57.554
2012-11-30,57.6328
2012-12-03,57.4458
2012-12-04,57.554
2012-12-05,57.5147
2012-12-06,57.6426
2012-12-07,57.7866
2012-12-10,57.7369
2012-12-11,58.1142
2012-12-12,58.2135
2012-12-13,58.422
2012-12-14,58.6504
2012-12-17,59.4249
2012-12-18,59.2561
2012-12-19,58.6107
2012-12-20,59.0376
2012-12-21,58.283
2012-12-24,57.9454
2012-12-26,57.4887
2012-12-27,57.4391
2012-12-28,56.8731
2012-12-31,57.2504
2013-01-02,58.3823
2013-01-03,58.1043
2013-01-04,58.2036
2013-01-07,57.8859
2013-01-08,57.6178
2013-01-09,57.8064
2013-01-10,58.1142
2013-01-11,58.0447
2013-01-14,58.4717
2013-01-15,58.7695
2013-01-16,58.7398
2013-01-17,59.0972
2013-01-18,59.5738
2013-01-22,59.6731
2013-01-23,59.8518
2013-01-24,60.2092
2013-01-25,60.249
2013-01-28,60.1894
2013-01-29,60.3582
2013-01-30,60.0901
2013-01-31,60.2241
2013-02-01,60.4178
2013-02-04,60.1298
2013-02-05,60.4376
2013-02-06,60.3284
2013-02-07,60.5468
2013-02-08,60.4475
2013-02-11,60.527
2013-02-12,60.4376
2013-02-13,60.0504
2013-02-14,71.985
2013-02-15,71.7566
2013-02-19,71.6375
2013-02-20,71.6077
2013-02-21,71.7368
2013-02-22,72.1637
2013-02-25,71.8361
2013-02-26,72.0644
2013-02-27,71.99
2013-02-28,71.9651
2013-03-01,71.9552
2013-03-04,71.985
2013-03-05,71.9453
2013-03-06,71.9751
2013-03-07,71.9354
2013-03-08,71.9949
2013-03-11,71.985
2013-03-12,71.9949
2013-03-13,72.0247
2013-03-14,71.9949
2013-03-15,71.9751
2013-03-18,71.9751
2013-03-19,72.0247
2013-03-20,71.985
2013-03-21,72.0
2013-03-22,71.96
2013-03-25,72.0
2013-03-26,72.04
2013-03-27,72.08
2013-03-28,72.25
2013-04-01,72.26
2013-04-02,72.27
2013-04-03,72.24
2013-04-04,72.26
2013-04-05,72.3
2013-04-08,72.29
2013-04-09,72.34
2013-04-10,72.33
2013-04-11,72.32
2013-04-12,72.32
2013-04-15,72.3
2013-04-16,72.34
2013-04-17,72.32
2013-04-18,72.3
2013-04-19,72.44
2013-04-22,72.44
2013-04-23,72.45
2013-04-24,72.41
2013-04-25,72.47
2013-04-26,72.47
2013-04-29,72.45
2013-04-30,72.44
2013-05-01,72.4
2013-05-02,72.39
2013-05-03,72.41
2013-05-06,72.42
2013-05-07,72.38
2013-05-08,72.44
2013-05-09,72.43
2013-05-10,72.44
2013-05-13,72.43
2013-05-14,72.45
2013-05-15,72.44
2013-05-16,72.43
2013-05-17,72.46
2013-05-20,72.46
2013-05-21,72.46
2013-05-22,72.44
2013-05-23,72.41
2013-05-24,72.47
2013-05-28,72.46
2013-05-29,72.43
2013-05-30,72.43
2013-05-31,72.39
2013-06-03,72.46
2013-06-04,72.45
2013-06-05,72.45
2013-06-06,72.46
2013-06-07,72.49
