date,close_price
2000-06-13,18.0
2000-06-14,18.0
2000-06-15,18.26
2000-06-16,18.26
2000-06-19,18.0
2000-06-20,18.76
2000-06-21,22.0
2000-06-22,19.76
2000-06-23,20.76
2000-06-26,19.76
2000-06-27,19.0
2000-06-28,19.26
2000-06-29,18.06
2000-06-30,18.88
2000-07-03,19.26
2000-07-05,20.0
2000-07-06,19.5
2000-07-07,20.88
2000-07-10,25.5
2000-07-11,25.76
2000-07-12,30.38
2000-07-13,33.38
2000-07-14,31.0
2000-07-17,31.26
2000-07-18,29.0
2000-07-19,28.0
2000-07-20,31.76
2000-07-21,34.12
2000-07-24,33.0
2000-07-25,32.26
2000-07-26,34.76
2000-07-27,34.26
2000-07-28,32.5
2000-07-31,38.0
2000-08-01,34.88
2000-08-02,34.12
2000-08-03,35.12
2000-08-04,34.12
2000-08-07,32.88
2000-08-08,31.5
2000-08-09,29.38
2000-08-10,29.5
2000-08-11,28.12
2000-08-14,28.0
2000-08-15,25.26
2000-08-16,27.76
2000-08-17,29.0
2000-08-18,28.0
2000-08-21,27.12
2000-08-22,26.5
2000-08-23,26.12
2000-08-24,25.76
2000-08-25,29.26
2000-08-28,28.76
2000-08-29,28.76
2000-08-30,30.0
2000-08-31,29.12
2000-09-01,27.76
2000-09-05,27.88
2000-09-06,27.4
2000-09-07,27.76
2000-09-08,28.0
2000-09-11,28.26
2000-09-12,29.88
2000-09-13,28.26
2000-09-14,29.12
2000-09-15,26.76
2000-09-18,26.0
2000-09-19,25.5
2000-09-20,23.26
2000-09-21,22.0
2000-09-22,23.88
2000-09-25,23.76
2000-09-26,23.76
2000-09-27,23.26
2000-09-28,23.5
2000-09-29,23.5
2000-10-02,23.88
2000-10-03,23.38
2000-10-04,23.0
2000-10-05,22.12
2000-10-06,20.76
2000-10-09,20.26
2000-10-10,18.88
2000-10-11,19.5
2000-10-12,19.5
2000-10-13,19.0
2000-10-16,20.5
2000-10-17,21.0
2000-10-18,19.0
2000-10-19,19.0
2000-10-20,20.0
2000-10-23,20.26
2000-10-24,21.0
2000-10-25,23.26
2000-10-26,24.76
2000-10-27,27.38
2000-10-30,29.26
2000-10-31,27.26
2000-11-01,25.5
2000-11-02,25.0
2000-11-03,27.26
2000-11-06,26.0
2000-11-07,26.0
2000-11-08,25.26
2000-11-09,27.76
2000-11-10,27.76
2000-11-13,26.5
2000-11-14,26.76
2000-11-15,26.5
2000-11-16,27.26
2000-11-17,27.0
2000-11-20,25.62
2000-11-21,26.5
2000-11-22,22.5
2000-11-24,20.5
2000-11-27,23.88
2000-11-28,21.5
2000-11-29,21.0
2000-11-30,23.5
2000-12-01,23.5
2000-12-04,21.26
2000-12-05,21.12
2000-12-06,18.0
2000-12-07,18.26
2000-12-08,19.12
2000-12-11,16.5
2000-12-12,17.0
2000-12-13,15.12
2000-12-14,15.12
2000-12-15,14.26
2000-12-18,14.0
2000-12-19,12.0
2000-12-20,12.0
2000-12-21,12.12
2000-12-22,12.76
2000-12-26,12.5
2000-12-27,13.0
2000-12-28,14.76
2000-12-29,17.0
2001-01-02,16.32
2001-01-03,17.5
2001-01-04,16.0
2001-01-05,15.5
2001-01-08,15.0
2001-01-09,15.62
2001-01-10,13.62
2001-01-11,16.26
2001-01-12,15.5
2001-01-16,16.0
2001-01-17,15.76
2001-01-18,16.0
2001-01-19,16.12
2001-01-22,14.5
2001-01-23,15.76
2001-01-24,16.12
2001-01-25,16.0
2001-01-26,15.88
2001-01-29,16.0
2001-01-30,15.62
2001-01-31,16.76
2001-02-01,17.26
2001-02-02,16.76
2001-02-05,16.76
2001-02-06,17.26
2001-02-07,16.88
2001-02-08,18.12
2001-02-09,15.38
2001-02-12,14.76
2001-02-13,14.12
2001-02-14,16.0
2001-02-15,16.82
2001-02-16,16.0
2001-02-20,16.88
2001-02-21,17.38
2001-02-22,17.26
2001-02-23,16.0
2001-02-26,16.0
2001-02-27,15.0
2001-02-28,14.5
2001-03-01,14.38
2001-03-02,14.5
2001-03-05,15.76
2001-03-06,15.5
2001-03-07,15.76
2001-03-08,15.5
2001-03-09,15.56
2001-03-12,13.88
2001-03-13,13.5
2001-03-14,14.0
2001-03-15,15.0
2001-03-16,15.0
2001-03-19,14.76
2001-03-20,14.06
2001-03-21,13.0
2001-03-22,11.38
2001-03-23,11.82
2001-03-26,12.0
2001-03-27,11.88
2001-03-28,10.76
2001-03-29,10.0
2001-03-30,9.76
2001-04-02,8.12
2001-04-03,8.5
2001-04-04,8.88
2001-04-05,9.0
2001-04-06,8.76
2001-04-09,7.84
2001-04-10,7.2
2001-04-11,6.7
2001-04-12,7.42
2001-04-16,8.1
2001-04-17,8.9
2001-04-18,9.9
2001-04-19,10.16
2001-04-20,10.5
2001-04-23,11.8
2001-04-24,13.9
2001-04-25,12.2
2001-04-26,13.22
2001-04-27,13.0
2001-04-30,13.2
2001-05-01,12.0
2001-05-02,11.1
2001-05-03,11.9
2001-05-04,11.86
2001-05-07,12.9
2001-05-08,12.4
2001-05-09,10.32
2001-05-10,11.34
2001-05-11,12.08
2001-05-14,12.14
2001-05-15,12.18
2001-05-16,12.5
2001-05-17,12.6
2001-05-18,12.44
2001-05-21,12.54
2001-05-22,12.54
2001-05-23,12.68
2001-05-24,12.58
2001-05-25,12.44
2001-05-29,12.6
2001-05-30,12.32
2001-05-31,12.9
2001-06-01,14.0
2001-06-04,16.4
2001-06-05,16.0
2001-06-06,16.0
2001-06-07,16.1
2001-06-08,17.6
2001-06-11,21.6
2001-06-12,22.36
2001-06-13,22.6
2001-06-14,22.22
2001-06-15,22.2
2001-06-18,21.84
2001-06-19,22.1
2001-06-20,24.2
2001-06-21,23.98
2001-06-22,21.5
2001-06-25,21.2
2001-06-26,22.48
2001-06-27,26.0
2001-06-28,26.86
2001-06-29,26.5
2001-07-02,26.6
2001-07-03,27.54
2001-07-05,26.7
2001-07-06,26.42
2001-07-09,27.92
2001-07-10,27.52
2001-07-11,25.88
2001-07-12,26.4
2001-07-13,28.0
2001-07-16,26.84
2001-07-17,27.0
2001-07-18,26.0
2001-07-19,24.4
2001-07-20,24.6
2001-07-23,24.56
2001-07-24,21.64
2001-07-25,21.9
2001-07-26,22.08
2001-07-27,18.06
2001-07-30,18.18
2001-07-31,18.32
2001-08-01,18.86
2001-08-02,18.16
2001-08-03,17.8
2001-08-06,17.6
2001-08-07,18.08
2001-08-08,18.08
2001-08-09,18.08
2001-08-10,18.2
2001-08-13,18.14
2001-08-14,18.7
2001-08-15,19.5
2001-08-16,18.2
2001-08-17,18.4
2001-08-20,18.5
2001-08-21,18.1
2001-08-22,18.46
2001-08-23,18.34
2001-08-24,18.32
2001-08-27,18.4
2001-08-28,18.58
2001-08-29,18.5
2001-08-30,18.34
2001-08-31,18.1
2001-09-04,18.0
2001-09-05,18.2
2001-09-06,16.76
2001-09-07,15.2
2001-09-10,13.12
2001-09-17,13.0
2001-09-18,13.1
2001-09-19,13.08
2001-09-20,11.8
2001-09-21,10.48
2001-09-24,10.8
2001-09-25,11.28
2001-09-26,11.12
2001-09-27,12.52
2001-09-28,12.9
2001-10-01,13.0
2001-10-02,12.9
2001-10-03,13.36
2001-10-04,16.0
2001-10-05,15.9
2001-10-08,16.0
2001-10-09,16.0
2001-10-10,16.3
2001-10-11,17.88
2001-10-12,18.04
2001-10-15,18.3
2001-10-16,18.44
2001-10-17,18.1
2001-10-18,18.02
2001-10-19,17.84
2001-10-22,17.96
2001-10-23,17.5
2001-10-24,18.0
2001-10-25,17.9
2001-10-26,18.74
2001-10-29,20.0
2001-10-30,18.4
2001-10-31,18.3
2001-11-01,17.52
2001-11-02,17.4
2001-11-05,17.0
2001-11-06,17.1
2001-11-07,17.54
2001-11-08,17.26
2001-11-09,18.52
2001-11-12,18.98
2001-11-13,19.74
2001-11-14,18.8
2001-11-15,17.42
2001-11-16,18.0
2001-11-19,18.12
2001-11-20,18.1
2001-11-21,18.02
2001-11-23,18.0
2001-11-26,18.26
2001-11-27,18.36
2001-11-28,18.08
2001-11-29,19.06
2001-11-30,19.1
2001-12-03,18.78
2001-12-04,18.38
2001-12-05,19.1
2001-12-06,19.7
2001-12-07,19.46
2001-12-10,19.34
2001-12-11,19.1
2001-12-12,18.7
2001-12-13,18.98
2001-12-14,18.88
2001-12-17,19.1
2001-12-18,19.0
2001-12-19,18.42
2001-12-20,18.1
2001-12-21,19.3
2001-12-24,18.5
2001-12-26,19.18
2001-12-27,20.1
2001-12-28,20.02
2001-12-31,20.0
2002-01-02,19.02
2002-01-03,18.4
2002-01-04,18.1
2002-01-07,17.74
2002-01-08,18.0
2002-01-09,18.0
2002-01-10,17.84
2002-01-11,17.6
2002-01-14,18.48
2002-01-15,17.94
2002-01-16,17.6
2002-01-17,17.4
2002-01-18,16.88
2002-01-22,17.48
2002-01-23,17.8
2002-01-24,17.48
2002-01-25,17.5
2002-01-28,17.6
2002-01-29,17.48
2002-01-30,17.04
2002-01-31,18.5
2002-02-01,20.18
2002-02-04,20.04
2002-02-05,20.02
2002-02-06,19.9
2002-02-07,19.08
2002-02-08,17.9
2002-02-11,17.2
2002-02-12,18.4
2002-02-13,19.7
2002-02-14,19.2
2002-02-15,18.08
2002-02-19,18.0
2002-02-20,17.92
2002-02-21,17.24
2002-02-22,18.6
2002-02-25,18.0
2002-02-26,18.7
2002-02-27,18.24
2002-02-28,18.4
2002-03-01,18.2
2002-03-04,18.3
2002-03-05,18.98
2002-03-06,18.6
2002-03-07,18.4
2002-03-08,18.28
2002-03-11,18.22
2002-03-12,18.54
2002-03-13,18.5
2002-03-14,18.6
2002-03-15,18.86
2002-03-18,19.2
2002-03-19,19.7
2002-03-20,20.0
2002-03-21,19.9
2002-03-22,19.18
2002-03-25,19.6
2002-03-26,18.8
2002-03-27,18.56
2002-03-28,19.0
2002-04-01,18.3
2002-04-02,18.7
2002-04-03,18.5
2002-04-04,18.8
2002-04-05,18.42
2002-04-08,18.5
2002-04-09,18.4
2002-04-10,18.3
2002-04-11,18.5
2002-04-12,18.92
2002-04-15,19.7
2002-04-16,20.02
2002-04-17,19.92
2002-04-18,19.9
2002-04-19,19.9
2002-04-22,19.3
2002-04-23,20.3
2002-04-24,22.04
2002-04-25,21.0
2002-04-26,20.4
2002-04-29,20.22
2002-04-30,20.3
2002-05-01,19.98
2002-05-02,19.84
2002-05-03,20.08
2002-05-06,19.2
2002-05-07,17.9
2002-05-08,18.78
2002-05-09,17.6
2002-05-10,17.2
2002-05-13,17.86
2002-05-14,17.96
2002-05-15,17.68
2002-05-16,18.02
2002-05-17,17.98
2002-05-20,17.9
2002-05-21,17.9
2002-05-22,18.04
2002-05-23,18.4
2002-05-24,18.0
2002-05-28,18.4
2002-05-29,18.3
2002-05-30,18.5
2002-05-31,19.0
2002-06-03,18.04
2002-06-04,18.0
2002-06-05,18.06
2002-06-06,17.86
2002-06-07,17.78
2002-06-10,17.5
2002-06-11,16.92
2002-06-12,15.84
2002-06-13,16.4
2002-06-14,16.6
2002-06-17,17.1
2002-06-18,16.98
2002-06-19,16.7
2002-06-20,16.4
2002-06-21,16.46
2002-06-24,17.18
2002-06-25,16.66
2002-06-26,16.3
2002-06-27,17.0
2002-06-28,17.0
2002-07-01,16.34
2002-07-02,15.8
2002-07-03,15.72
2002-07-05,16.2
2002-07-08,15.32
2002-07-09,15.8
2002-07-10,15.62
2002-07-11,15.9
2002-07-12,15.42
2002-07-15,14.2
2002-07-16,14.04
2002-07-17,14.3
2002-07-18,13.82
2002-07-19,13.3
2002-07-22,12.88
2002-07-23,11.54
2002-07-24,12.1
2002-07-25,12.4
2002-07-26,12.88
2002-07-29,12.4
2002-07-30,13.98
2002-07-31,14.32
2002-08-01,14.44
2002-08-02,15.48
2002-08-05,14.3
2002-08-06,15.58
2002-08-07,15.78
2002-08-08,15.94
2002-08-09,15.82
2002-08-12,15.6
2002-08-13,15.0
2002-08-14,15.0
2002-08-15,15.4
2002-08-16,15.8
2002-08-19,15.68
2002-08-20,15.04
2002-08-21,15.68
2002-08-22,14.92
2002-08-23,16.06
2002-08-26,16.62
2002-08-27,14.9
2002-08-28,14.72
2002-08-29,15.2
2002-08-30,15.6
2002-09-03,14.8
2002-09-04,15.48
2002-09-05,15.08
2002-09-06,15.82
2002-09-09,15.12
2002-09-10,15.2
2002-09-11,15.0
2002-09-12,15.32
2002-09-13,15.96
2002-09-16,15.6
2002-09-17,15.56
2002-09-18,15.54
2002-09-19,15.86
2002-09-20,15.26
2002-09-23,15.1
2002-09-24,15.2
2002-09-25,15.3
2002-09-26,15.8
2002-09-27,15.04
2002-09-30,15.28
2002-10-01,15.0
2002-10-02,15.16
2002-10-03,14.92
2002-10-04,14.62
2002-10-07,14.66
2002-10-08,14.74
2002-10-09,14.02
2002-10-10,12.04
2002-10-11,14.68
2002-10-14,14.92
2002-10-15,15.2
2002-10-16,14.62
2002-10-17,14.8
2002-10-18,15.4
2002-10-21,15.2
2002-10-22,15.44
2002-10-23,16.48
2002-10-24,15.74
2002-10-25,14.2
2002-10-28,13.82
2002-10-29,13.04
2002-10-30,13.2
2002-10-31,13.22
2002-11-01,13.44
2002-11-04,13.36
2002-11-05,13.4
2002-11-06,13.32
2002-11-07,12.92
2002-11-08,13.04
2002-11-11,13.04
2002-11-12,13.36
2002-11-13,13.38
2002-11-14,13.94
2002-11-15,13.82
2002-11-18,13.6
2002-11-19,13.6
2002-11-20,13.8
2002-11-21,14.0
2002-11-22,14.4
2002-11-25,14.9
2002-11-26,14.48
2002-11-27,14.78
2002-11-29,14.6
2002-12-02,14.78
2002-12-03,14.6
2002-12-04,14.72
2002-12-05,14.42
2002-12-06,14.42
2002-12-09,13.42
2002-12-10,14.12
2002-12-11,13.74
2002-12-12,13.88
2002-12-13,13.4
2002-12-16,13.3
2002-12-17,12.96
2002-12-18,12.46
2002-12-19,12.3
2002-12-20,12.4
2002-12-23,13.08
2002-12-24,13.0
2002-12-26,12.74
2002-12-27,12.78
2002-12-30,12.32
2002-12-31,12.42
2003-01-02,12.2
2003-01-03,12.38
2003-01-06,12.16
2003-01-07,11.88
2003-01-08,11.64
2003-01-09,11.7
2003-01-10,12.04
2003-01-13,11.68
2003-01-14,11.8
2003-01-15,11.62
2003-01-16,12.98
2003-01-17,13.0
2003-01-21,13.44
2003-01-22,13.02
2003-01-23,13.4
2003-01-24,13.16
2003-01-27,12.2
2003-01-28,12.24
2003-01-29,12.2
2003-01-30,13.0
2003-01-31,12.8
2003-02-03,11.52
2003-02-04,12.0
2003-02-05,11.76
2003-02-06,11.6
2003-02-07,11.88
2003-02-10,11.94
2003-02-11,10.64
2003-02-12,9.62
2003-02-13,9.26
2003-02-14,9.42
2003-02-18,9.28
2003-02-19,9.22
2003-02-20,9.0
2003-02-21,8.76
2003-02-24,8.3
2003-02-25,8.32
2003-02-26,8.02
2003-02-27,7.9
2003-02-28,7.86
2003-03-03,8.78
2003-03-04,9.12
2003-03-05,9.84
2003-03-06,8.88
2003-03-07,8.36
2003-03-10,9.62
2003-03-11,10.2
2003-03-12,9.66
2003-03-13,9.2
2003-03-14,8.68
2003-03-17,9.3
2003-03-18,9.6
2003-03-19,10.44
2003-03-20,10.52
2003-03-21,11.0
2003-03-24,10.92
2003-03-25,11.32
2003-03-26,11.7
2003-03-27,11.46
2003-03-28,13.6
2003-03-31,12.84
2003-04-01,13.64
2003-04-02,13.94
2003-04-03,13.7
2003-04-04,13.0
2003-04-07,13.7
2003-04-08,13.68
2003-04-09,13.4
2003-04-10,12.28
2003-04-11,12.7
2003-04-14,12.46
2003-04-15,12.34
2003-04-16,11.9
2003-04-17,10.98
2003-04-21,10.98
2003-04-22,11.82
2003-04-23,12.1
2003-04-24,12.02
2003-04-25,12.26
2003-04-28,12.64
2003-04-29,12.3
2003-04-30,12.48
2003-05-01,12.46
2003-05-02,12.3
2003-05-05,12.32
2003-05-06,12.38
2003-05-07,12.42
2003-05-08,12.44
2003-05-09,12.7
2003-05-12,12.7
2003-05-13,12.52
2003-05-14,12.62
2003-05-15,13.32
2003-05-16,14.06
2003-05-19,14.5
2003-05-20,13.6
2003-05-21,14.22
2003-05-22,16.66
2003-05-23,17.06
2003-05-27,17.08
2003-05-28,17.48
2003-05-29,17.6
2003-05-30,17.52
2003-06-02,17.0
2003-06-03,17.14
2003-06-04,17.4
2003-06-05,18.06
2003-06-06,17.3
2003-06-09,16.92
2003-06-10,16.74
2003-06-11,16.78
2003-06-12,16.7
2003-06-13,16.0
2003-06-16,15.5
2003-06-17,15.9
2003-06-18,16.38
2003-06-19,15.92
2003-06-20,16.2
2003-06-23,15.52
2003-06-24,15.42
2003-06-25,15.58
2003-06-26,16.38
2003-06-27,15.82
2003-06-30,14.84
2003-07-01,14.64
2003-07-02,15.15
2003-07-03,15.0
2003-07-07,14.08
2003-07-08,14.53
2003-07-09,14.52
2003-07-10,14.08
2003-07-11,13.63
2003-07-14,13.4
2003-07-15,12.64
2003-07-16,12.29
2003-07-17,12.22
2003-07-18,12.08
2003-07-21,12.6
2003-07-22,13.38
2003-07-23,14.3
2003-07-24,14.95
2003-07-25,13.79
2003-07-28,13.82
2003-07-29,14.29
2003-07-30,15.4
2003-07-31,15.21
2003-08-01,15.3
2003-08-04,15.42
2003-08-05,14.68
2003-08-06,14.63
2003-08-07,14.49
2003-08-08,15.24
2003-08-11,15.14
2003-08-12,15.19
2003-08-13,15.02
2003-08-14,14.83
2003-08-15,15.06
2003-08-18,15.1
2003-08-19,15.04
2003-08-20,15.15
2003-08-21,15.4
2003-08-22,14.92
2003-08-25,15.1
2003-08-26,15.26
2003-08-27,15.06
2003-08-28,15.0
2003-08-29,15.04
2003-09-02,15.15
2003-09-03,15.2
2003-09-04,15.1
2003-09-05,15.05
2003-09-08,15.21
2003-09-09,15.06
2003-09-10,15.2
2003-09-11,15.15
2003-09-12,15.0
2003-09-15,15.2
2003-09-16,15.27
2003-09-17,16.01
2003-09-18,17.04
2003-09-19,16.58
2003-09-22,17.0
2003-09-23,18.03
2003-09-24,17.71
2003-09-25,16.66
2003-09-26,16.88
2003-09-29,16.76
2003-09-30,16.68
2003-10-01,17.22
2003-10-02,17.19
2003-10-03,17.86
2003-10-06,17.35
2003-10-07,17.58
2003-10-08,17.54
2003-10-09,16.8
2003-10-10,16.8
2003-10-13,16.71
2003-10-14,16.76
2003-10-15,16.7
2003-10-16,16.76
2003-10-17,16.64
2003-10-20,16.17
2003-10-21,16.18
2003-10-22,15.86
2003-10-23,15.77
2003-10-24,16.63
2003-10-27,16.29
2003-10-28,16.25
2003-10-29,15.52
2003-10-30,15.13
2003-10-31,14.48
2003-11-03,15.26
2003-11-04,15.16
2003-11-05,15.11
2003-11-06,15.08
2003-11-07,15.05
2003-11-10,15.02
2003-11-11,14.67
2003-11-12,14.63
2003-11-13,14.75
2003-11-14,14.32
2003-11-17,14.29
2003-11-18,14.0
2003-11-19,13.98
2003-11-20,14.12
2003-11-21,13.9
2003-11-24,14.5
2003-11-25,14.44
2003-11-26,15.02
2003-11-28,15.27
2003-12-01,15.63
2003-12-02,15.76
2003-12-03,15.4
2003-12-04,15.15
2003-12-05,15.58
2003-12-08,15.65
2003-12-09,15.76
2003-12-10,15.35
2003-12-11,15.35
2003-12-12,15.85
2003-12-15,15.9
2003-12-16,16.8
2003-12-17,17.14
2003-12-18,17.14
2003-12-19,16.9
2003-12-22,16.87
2003-12-23,16.98
2003-12-24,16.5
2003-12-26,16.68
2003-12-29,17.05
2003-12-30,16.98
2003-12-31,16.88
2004-01-02,16.87
2004-01-05,16.97
2004-01-06,16.64
2004-01-07,16.92
2004-01-08,16.95
2004-01-09,16.96
2004-01-12,17.0
2004-01-13,16.94
2004-01-14,17.26
2004-01-15,17.09
2004-01-16,17.43
2004-01-20,18.5
2004-01-21,18.48
2004-01-22,18.41
2004-01-23,18.07
2004-01-26,18.18
2004-01-27,17.89
2004-01-28,17.59
2004-01-29,17.52
2004-01-30,17.63
2004-02-02,17.7
2004-02-03,17.9
2004-02-04,17.32
2004-02-05,17.41
2004-02-06,17.98
2004-02-09,18.3
2004-02-10,18.78
2004-02-11,18.6
2004-02-12,18.45
2004-02-13,18.28
2004-02-17,18.12
2004-02-18,17.91
2004-02-19,17.74
2004-02-20,17.51
2004-02-23,17.19
2004-02-24,16.94
2004-02-25,17.23
2004-02-26,17.99
2004-02-27,17.71
2004-03-01,18.0
2004-03-02,17.9
2004-03-03,17.9
2004-03-04,18.02
2004-03-05,18.24
2004-03-08,19.0
2004-03-09,18.77
2004-03-10,18.18
2004-03-11,17.9
2004-03-12,18.1
2004-03-15,17.65
2004-03-16,17.38
2004-03-17,17.64
2004-03-18,17.06
2004-03-19,17.28
2004-03-22,16.81
2004-03-23,16.69
2004-03-24,16.73
2004-03-25,16.55
2004-03-26,16.47
2004-03-29,16.65
2004-03-30,17.1
2004-03-31,16.94
2004-04-01,17.05
2004-04-02,17.3
2004-04-05,16.84
2004-04-06,16.55
2004-04-07,16.17
2004-04-08,16.66
2004-04-12,17.13
2004-04-13,16.1
2004-04-14,16.0
2004-04-15,15.79
2004-04-16,15.76
2004-04-19,15.74
2004-04-20,15.24
2004-04-21,15.4
2004-04-22,15.77
2004-04-23,15.58
2004-04-26,15.77
2004-04-27,15.57
2004-04-28,15.19
2004-04-29,15.17
2004-04-30,16.2
2004-05-03,16.5
2004-05-04,16.63
2004-05-05,16.49
2004-05-06,16.68
2004-05-07,16.6
2004-05-10,16.48
2004-05-11,16.81
2004-05-12,16.56
2004-05-13,16.75
2004-05-14,16.57
2004-05-17,15.72
2004-05-18,16.12
2004-05-19,16.28
2004-05-20,16.47
2004-05-21,16.03
2004-05-24,16.17
2004-05-25,16.45
2004-05-26,16.68
2004-05-27,16.56
2004-05-28,16.41
2004-06-01,16.6
2004-06-02,17.41
2004-06-03,17.05
2004-06-04,17.75
2004-06-07,17.95
2004-06-08,17.71
2004-06-09,17.79
2004-06-10,17.77
2004-06-14,17.59
2004-06-15,17.88
2004-06-16,17.88
2004-06-17,18.01
2004-06-18,17.88
2004-06-21,18.11
2004-06-22,18.3
2004-06-23,18.39
2004-06-24,18.66
2004-06-25,18.65
2004-06-28,18.76
2004-06-29,18.91
2004-06-30,19.0
2004-07-01,18.93
2004-07-02,18.51
2004-07-06,17.92
2004-07-07,18.1
2004-07-08,18.79
2004-07-09,19.49
2004-07-12,20.0
2004-07-13,20.14
2004-07-14,20.17
2004-07-15,20.33
2004-07-16,19.99
2004-07-19,19.56
2004-07-20,20.18
2004-07-21,19.21
2004-07-22,19.02
2004-07-23,18.88
2004-07-26,18.25
2004-07-27,22.94
2004-07-28,21.26
2004-07-29,22.5
2004-07-30,22.7
2004-08-02,22.6
2004-08-03,22.38
2004-08-04,21.88
2004-08-05,21.83
2004-08-06,21.25
2004-08-09,20.94
2004-08-10,21.55
2004-08-11,21.92
2004-08-12,21.5
2004-08-13,21.92
2004-08-16,22.99
2004-08-17,22.97
2004-08-18,24.8
2004-08-19,24.48
2004-08-20,24.77
2004-08-23,24.6
2004-08-24,24.43
2004-08-25,24.67
2004-08-26,24.86
2004-08-27,24.71
2004-08-30,23.69
2004-08-31,24.28
2004-09-01,24.97
2004-09-02,26.38
2004-09-03,26.85
2004-09-07,26.3
2004-09-08,25.23
2004-09-09,25.94
2004-09-10,26.83
2004-09-13,26.52
2004-09-14,26.89
2004-09-15,26.83
2004-09-16,26.52
2004-09-17,26.51
2004-09-20,26.44
2004-09-21,27.09
2004-09-22,27.36
2004-09-23,27.41
2004-09-24,26.06
2004-09-27,25.03
2004-09-28,24.99
2004-09-29,25.03
2004-09-30,24.76
2004-10-01,25.1
2004-10-04,26.42
2004-10-05,26.62
2004-10-06,26.99
2004-10-07,26.49
2004-10-08,26.32
2004-10-11,26.01
2004-10-12,26.11
2004-10-13,25.92
2004-10-14,25.1
2004-10-15,24.63
2004-10-18,25.24
2004-10-19,24.62
2004-10-20,23.51
2004-10-21,23.32
2004-10-22,22.1
2004-10-25,23.94
2004-10-26,24.78
2004-10-27,29.26
2004-10-28,29.21
2004-10-29,29.22
2004-11-01,29.8
2004-11-02,29.72
2004-11-03,30.87
2004-11-04,30.6
2004-11-05,30.87
2004-11-08,30.7
2004-11-09,30.85
2004-11-10,31.89
2004-11-11,32.0
2004-11-12,31.97
2004-11-15,31.77
2004-11-16,31.61
2004-11-17,32.94
2004-11-18,33.52
2004-11-19,32.44
2004-11-22,33.34
2004-11-23,34.15
2004-11-24,34.96
2004-11-26,35.4
2004-11-29,34.85
2004-11-30,36.0
2004-12-01,36.59
2004-12-02,36.62
2004-12-03,36.79
2004-12-06,35.72
2004-12-07,32.45
2004-12-08,34.13
2004-12-09,33.63
2004-12-10,33.91
2004-12-13,35.18
2004-12-14,35.45
2004-12-15,36.03
2004-12-16,36.12
2004-12-17,35.82
2004-12-20,35.96
2004-12-21,37.84
2004-12-22,38.54
2004-12-23,39.66
2004-12-27,39.66
2004-12-28,39.84
2004-12-29,39.93
2004-12-30,39.95
2004-12-31,40.03
2005-01-03,37.69
2005-01-04,36.43
2005-01-05,36.2
2005-01-06,36.82
2005-01-07,37.26
2005-01-10,40.61
2005-01-11,39.71
2005-01-12,40.13
2005-01-13,41.69
2005-01-14,40.8
2005-01-18,41.67
2005-01-19,41.0
2005-01-20,40.22
2005-01-21,40.59
2005-01-24,38.9
2005-01-25,38.79
2005-01-26,39.0
2005-01-27,39.01
2005-01-28,38.62
2005-01-31,39.83
2005-02-01,39.98
2005-02-02,40.13
2005-02-03,41.26
2005-02-04,41.68
2005-02-07,40.39
2005-02-08,41.13
2005-02-09,47.5
2005-02-10,47.9
2005-02-11,48.71
2005-02-14,47.52
2005-02-15,47.74
2005-02-16,48.73
2005-02-17,47.79
2005-02-18,47.52
2005-02-22,45.29
2005-02-23,46.1
2005-02-24,47.17
2005-02-25,47.97
2005-02-28,47.14
2005-03-01,48.0
2005-03-02,47.33
2005-03-03,46.81
2005-03-04,46.98
2005-03-07,46.6
2005-03-08,45.11
2005-03-09,44.12
2005-03-10,42.96
2005-03-11,45.09
2005-03-14,45.01
2005-03-15,44.4
2005-03-16,44.2
2005-03-17,44.68
2005-03-18,44.4
2005-03-21,44.3
2005-03-22,44.54
2005-03-23,45.25
2005-03-24,46.05
2005-03-28,46.06
2005-03-29,45.45
2005-03-30,45.89
2005-03-31,45.38
2005-04-01,46.63
2005-04-04,45.98
2005-04-05,48.1
2005-04-06,52.0
2005-04-07,52.04
2005-04-08,50.36
2005-04-11,50.7
2005-04-12,50.41
2005-04-13,49.59
2005-04-14,49.27
2005-04-15,47.81
2005-04-18,47.5
2005-04-19,50.36
2005-04-20,49.46
2005-04-21,51.75
2005-04-22,41.3
2005-04-25,43.5
2005-04-26,42.21
2005-04-27,42.54
2005-04-28,41.03
2005-04-29,42.93
2005-05-02,42.34
2005-05-03,42.64
2005-05-04,43.29
2005-05-05,42.98
2005-05-06,43.44
2005-05-09,42.98
2005-05-10,41.93
2005-05-11,42.84
2005-05-12,42.16
2005-05-13,41.82
2005-05-16,44.35
2005-05-17,43.5
2005-05-18,44.94
2005-05-19,47.07
2005-05-20,46.75
2005-05-23,48.15
2005-05-24,48.66
2005-05-25,47.46
2005-05-26,48.49
2005-05-27,49.6
2005-05-31,49.65
2005-06-01,48.23
2005-06-02,49.17
2005-06-03,49.25
2005-06-06,49.06
2005-06-07,48.7
2005-06-08,47.26
2005-06-09,48.42
2005-06-10,48.22
2005-06-13,48.63
2005-06-14,48.41
2005-06-15,48.2
2005-06-16,49.7
2005-06-17,50.29
2005-06-20,50.24
2005-06-21,49.18
2005-06-22,48.45
2005-06-23,47.5
2005-06-24,47.5
2005-06-27,45.97
2005-06-28,47.4
2005-06-29,46.97
2005-06-30,46.5
2005-07-01,46.73
2005-07-05,48.46
2005-07-06,49.0
2005-07-07,49.73
2005-07-08,51.71
2005-07-11,52.8
2005-07-12,53.5
2005-07-13,50.93
2005-07-14,50.5
2005-07-15,50.6
2005-07-18,51.51
2005-07-19,50.9
2005-07-20,50.5
2005-07-21,49.29
2005-07-22,50.15
2005-07-25,49.7
2005-07-26,51.3
2005-07-27,64.8
2005-07-28,72.16
2005-07-29,69.29
2005-08-01,67.37
2005-08-02,68.59
2005-08-03,71.33
2005-08-04,70.2
2005-08-05,69.35
2005-08-08,69.89
2005-08-09,74.76
2005-08-10,73.29
2005-08-11,74.77
2005-08-12,74.89
2005-08-15,76.14
2005-08-16,74.19
2005-08-17,75.45
2005-08-18,73.92
2005-08-19,74.65
2005-08-22,76.49
2005-08-23,78.28
2005-08-24,77.49
2005-08-25,76.31
2005-08-26,72.76
2005-08-29,72.54
2005-08-30,71.67
2005-08-31,74.37
2005-09-01,71.62
2005-09-02,71.16
2005-09-06,69.62
2005-09-07,71.97
2005-09-08,70.75
2005-09-09,70.26
2005-09-12,72.41
2005-09-13,72.98
2005-09-14,70.28
2005-09-15,69.48
2005-09-16,68.99
2005-09-19,69.73
2005-09-20,68.02
2005-09-21,69.67
2005-09-22,69.78
2005-09-23,71.28
2005-09-26,69.85
2005-09-27,74.3
2005-09-28,74.55
2005-09-29,75.4
2005-09-30,73.2
2005-10-03,73.89
2005-10-04,75.25
2005-10-05,72.82
2005-10-06,70.35
2005-10-07,70.49
2005-10-10,69.59
2005-10-11,68.49
2005-10-12,66.07
2005-10-13,65.86
2005-10-14,66.92
2005-10-17,67.5
2005-10-18,66.61
2005-10-19,68.54
2005-10-20,67.64
2005-10-21,69.72
2005-10-24,71.0
2005-10-25,72.07
2005-10-26,90.13
2005-10-27,87.81
2005-10-28,88.12
2005-10-31,88.57
2005-11-01,87.14
2005-11-02,92.82
2005-11-03,93.19
2005-11-04,92.19
2005-11-07,92.46
2005-11-08,92.12
2005-11-09,92.09
2005-11-10,98.52
2005-11-11,99.26
2005-11-14,104.66
2005-11-15,106.26
2005-11-16,103.25
2005-11-17,106.95
2005-11-18,108.05
2005-11-21,109.62
2005-11-22,115.36
2005-11-23,114.94
2005-11-25,115.65
2005-11-28,111.64
2005-11-29,111.3
2005-11-30,111.6
2005-12-01,115.36
2005-12-02,115.78
2005-12-05,116.55
2005-12-06,114.73
2005-12-07,113.01
2005-12-08,111.91
2005-12-09,116.43
2005-12-12,122.11
2005-12-13,118.25
2005-12-14,117.66
2005-12-15,115.12
2005-12-16,115.68
2005-12-19,115.0
2005-12-20,116.55
2005-12-21,119.46
2005-12-22,123.23
2005-12-23,122.31
2005-12-27,120.15
2005-12-28,119.8
2005-12-29,118.69
2005-12-30,117.41
2006-01-03,115.76
2006-01-04,122.0
2006-01-05,120.33
2006-01-06,120.28
2006-01-09,123.72
2006-01-10,128.22
2006-01-11,127.29
2006-01-12,130.84
2006-01-13,127.97
2006-01-17,131.08
2006-01-18,128.74
2006-01-19,132.71
2006-01-20,128.19
2006-01-23,129.58
2006-01-24,134.19
2006-01-25,131.95
2006-01-26,133.97
2006-01-27,135.69
2006-01-30,136.04
2006-01-31,137.1
2006-02-01,129.94
2006-02-02,127.5
2006-02-03,114.99
2006-02-06,106.64
2006-02-07,100.39
2006-02-08,98.08
2006-02-09,101.32
2006-02-10,103.22
2006-02-13,100.93
2006-02-14,102.16
2006-02-15,102.15
2006-02-16,100.81
2006-02-17,96.97
2006-02-21,92.0
2006-02-22,93.22
2006-02-23,90.86
2006-02-24,94.65
2006-02-27,94.13
2006-02-28,90.04
2006-03-01,92.43
2006-03-02,91.69
2006-03-03,90.45
2006-03-06,89.73
2006-03-07,87.93
2006-03-08,88.0
2006-03-09,89.0
2006-03-10,92.98
2006-03-13,94.12
2006-03-14,94.38
2006-03-15,94.75
2006-03-16,98.39
2006-03-17,104.28
2006-03-20,104.82
2006-03-21,103.36
2006-03-22,107.25
2006-03-23,109.07
2006-03-24,111.96
2006-03-27,119.17
2006-03-28,118.85
2006-03-29,116.63
2006-03-30,118.68
2006-03-31,117.98
2006-04-03,114.0
2006-04-04,112.05
2006-04-05,112.01
2006-04-06,111.53
2006-04-07,108.56
2006-04-10,110.9
2006-04-11,105.87
2006-04-12,106.1
2006-04-13,106.07
2006-04-17,104.18
2006-04-18,107.09
2006-04-19,106.4
2006-04-20,108.09
2006-04-21,106.91
2006-04-24,109.11
2006-04-25,107.44
2006-04-26,108.05
2006-04-27,103.0
2006-04-28,126.85
2006-05-01,125.9
2006-05-02,124.7
2006-05-03,122.91
2006-05-04,128.15
2006-05-05,127.77
2006-05-08,126.71
2006-05-09,128.32
2006-05-10,128.71
2006-05-11,124.75
2006-05-12,117.8
2006-05-15,120.81
2006-05-16,120.76
2006-05-17,115.44
2006-05-18,113.06
2006-05-19,116.0
2006-05-22,113.52
2006-05-23,109.69
2006-05-24,109.21
2006-05-25,110.6
2006-05-26,112.7
2006-05-30,108.11
2006-05-31,111.22
2006-06-01,113.65
2006-06-02,117.08
2006-06-05,109.68
2006-06-06,107.9
2006-06-07,113.0
2006-06-08,114.6
2006-06-09,111.49
2006-06-12,110.54
2006-06-13,106.5
2006-06-14,106.27
2006-06-15,107.85
2006-06-16,104.53
2006-06-19,99.99
2006-06-20,98.97
2006-06-21,102.06
2006-06-22,105.07
2006-06-23,107.4
2006-06-26,106.71
2006-06-27,106.88
2006-06-28,106.91
2006-06-29,114.89
2006-06-30,114.85
2006-07-03,116.5
2006-07-05,118.21
2006-07-06,117.9
2006-07-07,114.92
2006-07-10,110.75
2006-07-11,114.88
2006-07-12,112.21
2006-07-13,114.68
2006-07-14,116.41
2006-07-17,115.03
2006-07-18,116.17
2006-07-19,121.13
2006-07-20,119.13
2006-07-21,117.5
2006-07-24,121.85
2006-07-25,121.93
2006-07-26,111.54
2006-07-27,99.07
2006-07-28,101.19
2006-07-31,95.01
2006-08-01,96.56
2006-08-02,97.79
2006-08-03,98.05
2006-08-04,99.53
2006-08-07,97.09
2006-08-08,97.2
2006-08-09,95.85
2006-08-10,95.3
2006-08-11,94.25
2006-08-14,92.23
2006-08-15,95.41
2006-08-16,96.66
2006-08-17,96.88
2006-08-18,96.82
2006-08-21,96.57
2006-08-22,94.45
2006-08-23,91.85
2006-08-24,93.94
2006-08-25,92.0
2006-08-28,93.1
2006-08-29,92.31
2006-08-30,92.47
2006-08-31,94.37
2006-09-01,94.97
2006-09-05,96.08
2006-09-06,95.05
2006-09-07,94.7
2006-09-08,93.36
2006-09-11,93.93
2006-09-12,94.9
2006-09-13,99.91
2006-09-14,97.39
2006-09-15,99.3
2006-09-18,102.4
2006-09-19,102.44
2006-09-20,101.57
2006-09-21,103.29
2006-09-22,102.35
2006-09-25,104.09
2006-09-26,104.54
2006-09-27,108.97
2006-09-28,107.85
2006-09-29,105.49
2006-10-02,102.57
2006-10-03,102.62
2006-10-04,104.21
2006-10-05,106.45
2006-10-06,106.27
2006-10-09,108.29
2006-10-10,108.93
2006-10-11,109.9
2006-10-12,111.8
2006-10-13,111.84
2006-10-16,111.58
2006-10-17,108.17
2006-10-18,107.21
2006-10-19,108.02
2006-10-20,107.62
2006-10-23,110.28
2006-10-24,109.2
2006-10-25,107.18
2006-10-26,112.16
2006-10-27,100.74
2006-10-30,100.7
2006-10-31,99.08
2006-11-01,97.2
2006-11-02,97.31
2006-11-03,96.5
2006-11-06,99.92
2006-11-07,98.53
2006-11-08,97.89
2006-11-09,96.37
2006-11-10,97.22
2006-11-13,95.02
2006-11-14,95.24
2006-11-15,95.28
2006-11-16,94.64
2006-11-17,95.69
2006-11-20,99.44
2006-11-21,98.78
2006-11-22,98.24
2006-11-24,99.06
2006-11-27,99.3
2006-11-28,102.83
2006-11-29,102.09
2006-11-30,101.7
2006-12-01,101.57
2006-12-04,102.42
2006-12-05,101.76
2006-12-06,103.81
2006-12-07,105.45
2006-12-08,104.91
2006-12-11,106.54
2006-12-12,105.59
2006-12-13,103.94
2006-12-14,103.63
2006-12-15,103.7
2006-12-18,102.08
2006-12-19,101.57
2006-12-20,100.57
2006-12-21,99.04
2006-12-22,97.07
2006-12-26,96.44
2006-12-27,96.97
2006-12-28,96.84
2006-12-29,95.89
2007-01-03,94.32
2007-01-04,95.08
2007-01-05,94.03
2007-01-08,91.19
2007-01-09,89.39
2007-01-10,87.07
2007-01-11,91.26
2007-01-12,93.92
2007-01-16,93.03
2007-01-17,94.69
2007-01-18,93.65
2007-01-19,93.36
2007-01-22,97.02
2007-01-23,97.69
2007-01-24,96.75
2007-01-25,95.1
2007-01-26,94.89
2007-01-29,97.68
2007-01-30,98.19
2007-01-31,98.52
2007-02-01,99.65
2007-02-02,116.76
2007-02-05,115.05
2007-02-06,115.53
2007-02-07,114.68
2007-02-08,114.46
2007-02-09,111.94
2007-02-12,113.35
2007-02-13,113.12
2007-02-14,113.69
2007-02-15,112.41
2007-02-16,114.5
2007-02-20,114.92
2007-02-21,114.87
2007-02-22,113.62
2007-02-23,113.05
2007-02-26,113.25
2007-02-27,109.43
2007-02-28,111.23
2007-03-01,109.14
2007-03-02,107.33
2007-03-05,104.34
2007-03-06,108.51
2007-03-07,108.24
2007-03-08,109.78
2007-03-09,110.68
2007-03-12,110.22
2007-03-13,108.1
2007-03-14,108.93
2007-03-15,111.62
2007-03-16,111.86
2007-03-19,114.2
2007-03-20,115.51
2007-03-21,116.09
2007-03-22,120.44
2007-03-23,121.79
2007-03-26,123.3
2007-03-27,123.35
2007-03-28,122.29
2007-03-29,122.94
2007-03-30,121.66
2007-04-02,121.89
2007-04-03,123.1
2007-04-04,125.01
2007-04-05,124.56
2007-04-09,123.75
2007-04-10,122.96
2007-04-11,123.11
2007-04-12,123.22
2007-04-13,124.63
2007-04-16,125.39
2007-04-17,125.2
2007-04-18,122.72
2007-04-19,121.12
2007-04-20,131.96
2007-04-23,134.3
2007-04-24,133.4
2007-04-25,133.69
2007-04-26,133.79
2007-04-27,133.32
2007-04-30,129.61
2007-05-01,130.77
2007-05-02,134.1
2007-05-03,135.42
2007-05-04,134.06
2007-05-07,134.44
2007-05-08,134.28
2007-05-09,135.0
2007-05-10,130.7
2007-05-11,130.84
2007-05-14,130.04
2007-05-15,130.22
2007-05-16,129.35
2007-05-17,129.26
2007-05-18,132.67
2007-05-21,132.88
2007-05-22,133.55
2007-05-23,136.88
2007-05-24,136.54
2007-05-25,136.84
2007-05-29,136.53
2007-05-30,137.6
2007-05-31,137.67
2007-06-01,138.88
2007-06-04,143.38
2007-06-05,142.76
2007-06-06,140.74
2007-06-07,137.35
2007-06-08,139.0
2007-06-11,140.12
2007-06-12,137.9
2007-06-13,140.01
2007-06-14,141.38
2007-06-15,140.51
2007-06-18,140.85
2007-06-19,140.95
2007-06-20,138.7
2007-06-21,139.08
2007-06-22,137.7
2007-06-25,136.24
2007-06-26,135.79
2007-06-27,138.94
2007-06-28,138.5
2007-06-29,138.89
2007-07-02,142.08
2007-07-03,142.32
2007-07-05,142.79
2007-07-06,144.76
2007-07-09,147.25
2007-07-10,146.61
2007-07-11,147.29
2007-07-12,148.74
2007-07-13,148.27
2007-07-16,146.89
2007-07-17,148.87
2007-07-18,148.31
2007-07-19,150.41
2007-07-20,198.36
2007-07-23,207.57
2007-07-24,203.01
2007-07-25,200.16
2007-07-26,201.13
2007-07-27,202.72
2007-07-30,214.7
2007-07-31,213.03
2007-08-01,211.13
2007-08-02,211.41
2007-08-03,204.4
2007-08-06,208.26
2007-08-07,209.92
2007-08-08,210.7
2007-08-09,202.37
2007-08-10,197.83
2007-08-13,201.31
2007-08-14,197.01
2007-08-15,194.44
2007-08-16,190.2
2007-08-17,199.0
2007-08-20,198.64
2007-08-21,205.57
2007-08-22,211.3
2007-08-23,205.34
2007-08-24,211.1
2007-08-27,209.4
2007-08-28,206.26
2007-08-29,215.47
2007-08-30,217.07
2007-08-31,221.39
2007-09-04,226.35
2007-09-05,224.45
2007-09-06,229.52
2007-09-07,222.16
2007-09-10,223.08
2007-09-11,219.18
2007-09-12,222.55
2007-09-13,221.5
2007-09-14,213.89
2007-09-17,212.58
2007-09-18,225.01
2007-09-19,226.89
2007-09-20,224.87
2007-09-21,222.05
2007-09-24,223.56
2007-09-25,227.61
2007-09-26,231.15
2007-09-27,231.0
2007-09-28,230.0
2007-10-01,231.38
2007-10-02,233.0
2007-10-03,239.08
2007-10-04,239.36
2007-10-05,246.7
2007-10-08,256.13
2007-10-09,257.53
2007-10-10,258.75
2007-10-11,247.74
2007-10-12,249.09
2007-10-15,250.36
2007-10-16,244.63
2007-10-17,237.17
2007-10-18,256.75
2007-10-19,269.47
2007-10-22,286.15
2007-10-23,304.25
2007-10-24,317.05
2007-10-25,329.5
2007-10-26,329.13
2007-10-29,321.05
2007-10-30,323.94
2007-10-31,325.81
2007-11-01,322.39
2007-11-02,311.89
2007-11-05,309.33
2007-11-06,316.34
2007-11-07,309.06
2007-11-08,293.44
2007-11-09,283.29
2007-11-12,266.78
2007-11-13,275.11
2007-11-14,280.55
2007-11-15,282.6
2007-11-16,280.65
2007-11-19,284.53
2007-11-20,286.93
2007-11-21,279.83
2007-11-23,283.71
2007-11-26,283.41
2007-11-27,295.94
2007-11-28,324.93
2007-11-29,322.42
2007-11-30,326.79
2007-12-03,328.31
2007-12-04,324.77
2007-12-05,332.75
2007-12-06,344.02
2007-12-07,352.47
2007-12-10,347.87
2007-12-11,335.54
2007-12-12,335.29
2007-12-13,328.77
2007-12-14,323.54
2007-12-17,305.64
2007-12-18,308.27
2007-12-19,312.99
2007-12-20,320.04
2007-12-21,324.0
2007-12-24,333.0
2007-12-26,335.09
2007-12-27,330.04
2007-12-28,324.99
2007-12-31,324.16
2008-01-02,322.88
2008-01-03,321.6
2008-01-04,305.75
2008-01-07,300.44
2008-01-08,271.93
2008-01-09,263.34
2008-01-10,267.97
2008-01-11,262.45
2008-01-14,265.77
2008-01-15,255.72
2008-01-16,266.84
2008-01-17,261.29
2008-01-18,261.91
2008-01-22,262.62
2008-01-23,270.43
2008-01-24,269.75
2008-01-25,269.07
2008-01-28,277.25
2008-01-29,244.7
2008-01-30,234.96
2008-01-31,254.49
2008-02-01,306.0
2008-02-04,307.76
2008-02-05,308.6
2008-02-06,294.79
2008-02-07,298.2
2008-02-08,299.28
2008-02-11,302.17
2008-02-12,296.69
2008-02-13,307.4
2008-02-14,300.48
2008-02-15,303.05
2008-02-19,290.54
2008-02-20,290.87
2008-02-21,286.01
2008-02-22,291.66
2008-02-25,293.98
2008-02-26,295.55
2008-02-27,294.8
2008-02-28,289.49
2008-02-29,281.91
2008-03-03,283.7
2008-03-04,280.42
2008-03-05,285.99
2008-03-06,270.76
2008-03-07,264.02
2008-03-10,256.09
2008-03-11,267.17
2008-03-12,274.84
2008-03-13,284.66
2008-03-14,284.14
2008-03-17,280.06
2008-03-18,294.4
2008-03-19,292.6
2008-03-20,299.52
2008-03-24,327.0
2008-03-25,325.99
2008-03-26,323.35
2008-03-27,322.37
2008-03-28,322.89
2008-03-31,324.43
2008-04-01,346.57
2008-04-02,340.26
2008-04-03,336.94
2008-04-04,338.35
2008-04-07,345.72
2008-04-08,346.75
2008-04-09,335.61
2008-04-10,354.13
2008-04-11,333.93
2008-04-14,324.75
2008-04-15,338.72
2008-04-16,346.25
2008-04-17,349.05
2008-04-18,289.01
2008-04-21,291.0
2008-04-22,275.83
2008-04-23,282.19
2008-04-24,278.5
2008-04-25,279.72
2008-04-28,285.53
2008-04-29,291.34
2008-04-30,288.94
2008-05-01,294.26
2008-05-02,289.7
2008-05-05,295.2
2008-05-06,293.43
2008-05-07,288.41
2008-05-08,287.21
2008-05-09,288.72
2008-05-12,291.27
2008-05-13,289.91
2008-05-14,286.54
2008-05-15,292.95
2008-05-16,300.17
2008-05-19,298.89
2008-05-20,298.2
2008-05-21,288.5
2008-05-22,274.44
2008-05-23,284.73
2008-05-27,285.98
2008-05-28,288.73
2008-05-29,291.95
2008-05-30,293.84
2008-06-02,288.67
2008-06-03,284.35
2008-06-04,285.83
2008-06-05,291.28
2008-06-06,281.08
2008-06-09,274.91
2008-06-10,269.78
2008-06-11,266.13
2008-06-12,270.0
2008-06-13,280.63
2008-06-16,280.3
2008-06-17,282.05
2008-06-18,283.13
2008-06-19,287.22
2008-06-20,281.79
2008-06-23,280.05
2008-06-24,275.33
2008-06-25,278.87
2008-06-26,271.07
2008-06-27,269.21
2008-06-30,269.32
2008-07-01,259.8
2008-07-02,250.03
2008-07-03,252.47
2008-07-07,253.2
2008-07-08,264.17
2008-07-09,262.88
2008-07-10,265.33
2008-07-11,269.99
2008-07-14,271.93
2008-07-15,270.44
2008-07-16,280.63
2008-07-17,281.75
2008-07-18,288.93
2008-07-21,284.92
2008-07-22,279.3
2008-07-23,330.91
2008-07-24,323.67
2008-07-25,322.39
2008-07-28,308.57
2008-07-29,312.2
2008-07-30,312.65
2008-07-31,310.68
2008-08-01,300.23
2008-08-04,299.97
2008-08-05,308.25
2008-08-06,311.06
2008-08-07,303.02
2008-08-08,308.0
2008-08-11,308.01
2008-08-12,306.13
2008-08-13,304.2
2008-08-14,304.63
2008-08-15,298.85
2008-08-18,292.44
2008-08-19,301.51
2008-08-20,301.2
2008-08-21,300.77
2008-08-22,303.55
2008-08-25,298.56
2008-08-26,297.35
2008-08-27,298.58
2008-08-28,299.26
2008-08-29,295.12
2008-09-02,293.87
2008-09-03,290.49
2008-09-04,273.41
2008-09-05,269.23
2008-09-08,271.63
2008-09-09,268.23
2008-09-10,273.98
2008-09-11,277.62
2008-09-12,278.22
2008-09-15,269.77
2008-09-16,277.5
2008-09-17,274.08
2008-09-18,275.04
2008-09-19,290.27
2008-09-22,280.46
2008-09-23,279.29
2008-09-24,281.64
2008-09-25,281.5
2008-09-26,275.59
2008-09-29,252.96
2008-09-30,240.86
2008-10-01,236.66
2008-10-02,228.56
2008-10-03,226.0
2008-10-06,196.89
2008-10-07,184.8
2008-10-08,191.37
2008-10-09,174.08
2008-10-10,173.43
2008-10-13,211.07
2008-10-14,223.4
2008-10-15,191.24
2008-10-16,214.83
2008-10-17,188.61
2008-10-20,194.44
2008-10-21,180.24
2008-10-22,172.7
2008-10-23,173.88
2008-10-24,159.74
2008-10-27,155.01
2008-10-28,165.47
2008-10-29,168.72
2008-10-30,170.78
2008-10-31,171.64
2008-11-03,183.78
2008-11-04,203.05
2008-11-05,187.22
2008-11-06,175.01
2008-11-07,182.56
2008-11-10,176.27
2008-11-11,169.28
2008-11-12,162.42
2008-11-13,160.0
2008-11-14,148.78
2008-11-17,123.11
2008-11-18,123.25
2008-11-19,121.24
2008-11-20,111.53
2008-11-21,118.2
2008-11-24,124.85
2008-11-25,124.45
2008-11-26,134.02
2008-11-28,132.53
2008-12-01,119.19
2008-12-02,118.2
2008-12-03,133.14
2008-12-04,125.66
2008-12-05,136.99
2008-12-08,140.46
2008-12-09,132.63
2008-12-10,139.77
2008-12-11,137.07
2008-12-12,134.2
2008-12-15,128.14
2008-12-16,136.75
2008-12-17,132.26
2008-12-18,131.07
2008-12-19,125.34
2008-12-22,121.73
2008-12-23,120.09
2008-12-24,121.72
2008-12-26,121.98
2008-12-29,120.07
2008-12-30,124.25
2008-12-31,127.08
2009-01-02,132.19
2009-01-05,125.54
2009-01-06,122.11
2009-01-07,117.82
2009-01-08,110.38
2009-01-09,101.8
2009-01-12,100.87
2009-01-13,102.7
2009-01-14,99.4
2009-01-15,100.76
2009-01-16,100.2
2009-01-20,94.88
2009-01-21,96.95
2009-01-22,96.07
2009-01-23,93.52
2009-01-26,98.88
2009-01-27,101.57
2009-01-28,104.75
2009-01-29,102.21
2009-01-30,103.25
2009-02-02,103.09
2009-02-03,112.22
2009-02-04,108.28
2009-02-05,110.67
2009-02-06,114.89
2009-02-09,114.23
2009-02-10,108.04
2009-02-11,107.94
2009-02-12,111.92
2009-02-13,112.27
2009-02-17,107.5
2009-02-18,106.95
2009-02-19,107.38
2009-02-20,105.73
2009-02-23,100.55
2009-02-24,103.66
2009-02-25,101.33
2009-02-26,96.04
2009-02-27,91.37
2009-03-02,85.27
2009-03-03,87.6
2009-03-04,91.67
2009-03-05,90.45
2009-03-06,95.26
2009-03-09,97.0
2009-03-10,100.91
2009-03-11,97.56
2009-03-12,103.02
2009-03-13,103.02
2009-03-16,100.7
2009-03-17,104.98
2009-03-18,101.93
2009-03-19,96.92
2009-03-20,93.73
2009-03-23,97.2
2009-03-24,95.0
2009-03-25,96.55
2009-03-26,96.99
2009-03-27,96.24
2009-03-30,94.08
2009-03-31,95.73
2009-04-01,94.26
2009-04-02,98.1
2009-04-03,96.89
2009-04-06,99.03
2009-04-07,96.69
2009-04-08,101.41
2009-04-09,111.9
2009-04-13,115.07
2009-04-14,118.42
2009-04-15,117.4
2009-04-16,117.81
2009-04-17,130.42
2009-04-20,125.9
2009-04-21,129.06
2009-04-22,134.74
2009-04-23,136.03
2009-04-24,149.99
2009-04-27,144.74
2009-04-28,139.3
2009-04-29,146.12
2009-04-30,143.65
2009-05-01,142.94
2009-05-04,148.63
2009-05-05,152.87
2009-05-06,158.11
2009-05-07,158.98
2009-05-08,158.44
2009-05-11,158.93
2009-05-12,156.65
2009-05-13,151.8
2009-05-14,153.44
2009-05-15,150.0
2009-05-18,153.37
2009-05-19,155.1
2009-05-20,150.23
2009-05-21,142.25
2009-05-22,142.27
2009-05-26,147.17
2009-05-27,142.42
2009-05-28,140.48
2009-05-29,149.26
2009-06-01,149.04
2009-06-02,159.5
2009-06-03,156.37
2009-06-04,155.1
2009-06-05,156.43
2009-06-08,152.23
2009-06-09,156.89
2009-06-10,159.74
2009-06-11,166.26
2009-06-12,166.29
2009-06-15,159.13
2009-06-16,157.63
2009-06-17,157.78
2009-06-18,156.41
2009-06-19,161.38
2009-06-22,154.71
2009-06-23,153.52
2009-06-24,154.65
2009-06-25,158.59
2009-06-26,159.54
2009-06-29,163.18
2009-06-30,163.62
2009-07-01,162.81
2009-07-02,158.82
2009-07-06,155.78
2009-07-07,148.08
2009-07-08,145.24
2009-07-09,143.29
2009-07-10,142.5
2009-07-13,149.24
2009-07-14,151.23
2009-07-15,153.58
2009-07-16,156.74
2009-07-17,155.56
2009-07-20,164.3
2009-07-21,167.33
2009-07-22,169.93
2009-07-23,215.08
2009-07-24,223.01
2009-07-27,218.39
2009-07-28,223.99
2009-07-29,224.66
2009-07-30,226.44
2009-07-31,227.22
2009-08-03,234.23
2009-08-04,238.56
2009-08-05,236.02
2009-08-06,227.03
2009-08-07,229.58
2009-08-10,230.26
2009-08-11,226.19
2009-08-12,229.7
2009-08-13,228.0
2009-08-14,223.54
2009-08-17,217.51
2009-08-18,220.02
2009-08-19,222.65
2009-08-20,224.96
2009-08-21,230.72
2009-08-24,230.32
2009-08-25,229.26
2009-08-26,229.19
2009-08-27,225.64
2009-08-28,225.28
2009-08-31,223.07
2009-09-01,215.27
2009-09-02,215.46
2009-09-03,222.15
2009-09-04,227.76
2009-09-08,230.53
2009-09-09,242.55
2009-09-10,246.03
2009-09-11,239.88
2009-09-14,242.33
2009-09-15,243.55
2009-09-16,247.09
2009-09-17,244.8
2009-09-18,247.56
2009-09-21,246.34
2009-09-22,246.54
2009-09-23,245.01
2009-09-24,242.07
2009-09-25,258.17
2009-09-28,258.97
2009-09-29,256.56
2009-09-30,261.87
2009-10-01,252.46
2009-10-02,252.14
2009-10-05,255.32
2009-10-06,254.43
2009-10-07,255.14
2009-10-08,250.11
2009-10-09,253.87
2009-10-12,253.96
2009-10-13,250.02
2009-10-14,257.13
2009-10-15,258.95
2009-10-16,255.72
2009-10-19,264.88
2009-10-20,268.18
2009-10-21,251.87
2009-10-22,258.69
2009-10-23,263.25
2009-10-26,260.94
2009-10-27,257.78
2009-10-28,247.8
2009-10-29,253.92
2009-10-30,246.85
2009-11-02,246.32
2009-11-03,247.5
2009-11-04,251.49
2009-11-05,259.46
2009-11-06,256.7
2009-11-09,263.8
2009-11-10,266.29
2009-11-11,272.44
2009-11-12,269.33
2009-11-13,274.18
2009-11-16,280.14
2009-11-17,281.31
2009-11-18,279.52
2009-11-19,278.84
2009-11-20,276.58
2009-11-23,280.5
2009-11-24,278.84
2009-11-25,282.34
2009-11-27,280.11
2009-11-30,280.82
2009-12-01,284.86
2009-12-02,287.62
2009-12-03,288.88
2009-12-04,291.77
2009-12-07,288.25
2009-12-08,287.3
2009-12-09,287.27
2009-12-10,291.7
2009-12-11,292.1
2009-12-14,293.26
2009-12-15,292.11
2009-12-16,294.32
2009-12-17,292.62
2009-12-18,289.07
2009-12-21,290.71
2009-12-22,297.32
2009-12-23,302.36
2009-12-24,305.87
2009-12-28,306.65
2009-12-29,306.46
2009-12-30,305.94
2009-12-31,304.02
2010-01-04,308.91
2010-01-05,307.26
2010-01-06,312.08
2010-01-07,310.64
2010-01-08,309.16
2010-01-11,311.32
2010-01-12,304.47
2010-01-13,306.15
2010-01-14,308.32
2010-01-15,309.19
2010-01-19,311.0
2010-01-20,309.98
2010-01-21,304.34
2010-01-22,340.32
2010-01-25,338.7
2010-01-26,335.87
2010-01-27,339.44
2010-01-28,335.54
2010-01-29,328.09
2010-02-01,328.91
2010-02-02,335.2
2010-02-03,333.0
2010-02-04,321.72
2010-02-05,325.77
2010-02-08,324.27
2010-02-09,326.54
2010-02-10,322.42
2010-02-11,329.35
2010-02-12,331.55
2010-02-16,333.84
2010-02-17,340.69
2010-02-18,344.75
2010-02-19,346.5
2010-02-22,347.05
2010-02-23,342.64
2010-02-24,344.12
2010-02-25,343.3
2010-02-26,347.7
2010-03-01,358.41
2010-03-02,360.77
2010-03-03,362.78
2010-03-04,354.16
2010-03-05,358.4
2010-03-08,355.64
2010-03-09,355.76
2010-03-10,357.33
2010-03-11,358.28
2010-03-12,358.63
2010-03-15,356.33
2010-03-16,355.94
2010-03-17,356.28
2010-03-18,353.79
2010-03-19,349.75
2010-03-22,347.7
2010-03-23,349.24
2010-03-24,346.37
2010-03-25,341.62
2010-03-26,341.85
2010-03-29,348.03
2010-03-30,348.96
2010-03-31,347.61
2010-04-01,349.2
2010-04-05,345.9
2010-04-06,343.43
2010-04-07,333.12
2010-04-08,340.19
2010-04-09,350.97
2010-04-12,354.06
2010-04-13,367.39
2010-04-14,384.2
2010-04-15,387.33
2010-04-16,360.64
2010-04-19,361.95
2010-04-20,365.91
2010-04-21,365.92
2010-04-22,368.89
2010-04-23,364.96
2010-04-26,362.07
2010-04-27,358.06
2010-04-28,360.19
2010-04-29,368.34
2010-04-30,361.05
2010-05-03,371.92
2010-05-04,361.34
2010-05-05,347.03
2010-05-06,337.48
2010-05-07,324.5
2010-05-10,344.54
2010-05-11,344.46
2010-05-12,354.79
2010-05-13,350.89
2010-05-14,340.49
2010-05-17,340.52
2010-05-18,332.44
2010-05-19,328.82
2010-05-20,312.08
2010-05-21,320.89
2010-05-24,315.93
2010-05-25,319.13
2010-05-26,318.71
2010-05-27,330.44
2010-05-28,323.17
2010-06-01,324.96
2010-06-02,333.69
2010-06-03,337.73
2010-06-04,325.09
2010-06-07,321.1
2010-06-08,323.62
2010-06-09,321.33
2010-06-10,330.79
2010-06-11,336.83
2010-06-14,327.01
2010-06-15,333.05
2010-06-16,334.35
2010-06-17,340.95
2010-06-18,349.96
2010-06-21,351.17
2010-06-22,344.89
2010-06-23,337.82
2010-06-24,331.18
2010-06-25,337.1
2010-06-28,335.58
2010-06-29,325.25
2010-06-30,316.2
2010-07-01,312.0
2010-07-02,309.77
2010-07-06,314.81
2010-07-07,322.0
2010-07-08,321.12
2010-07-09,318.93
2010-07-12,317.38
2010-07-13,329.56
2010-07-14,337.5
2010-07-15,335.63
2010-07-16,324.78
2010-07-19,323.5
2010-07-20,325.97
2010-07-21,315.9
2010-07-22,316.78
2010-07-23,334.2
2010-07-26,340.47
2010-07-27,335.26
2010-07-28,330.34
2010-07-29,327.03
2010-07-30,328.96
2010-08-02,336.54
2010-08-03,334.1
2010-08-04,335.66
2010-08-05,334.72
2010-08-06,332.1
2010-08-09,331.55
2010-08-10,327.41
2010-08-11,316.84
2010-08-12,317.7
2010-08-13,316.17
2010-08-16,309.52
2010-08-17,316.86
2010-08-18,314.64
2010-08-19,306.58
2010-08-20,293.8
2010-08-23,282.74
2010-08-24,269.01
2010-08-25,276.2
2010-08-26,268.46
2010-08-27,273.29
2010-08-30,268.48
2010-08-31,264.74
2010-09-01,274.12
2010-09-02,277.47
2010-09-03,281.11
2010-09-07,277.93
2010-09-08,280.04
2010-09-09,282.95
2010-09-10,279.66
2010-09-13,279.89
2010-09-14,285.66
2010-09-15,294.21
2010-09-16,291.75
2010-09-17,296.15
2010-09-20,306.57
2010-09-21,305.28
2010-09-22,301.2
2010-09-23,298.94
2010-09-24,305.49
2010-09-27,290.36
2010-09-28,289.85
2010-09-29,286.32
2010-09-30,284.43
2010-10-01,289.61
2010-10-04,283.5
2010-10-05,293.03
2010-10-06,292.94
2010-10-07,287.42
2010-10-08,289.6
2010-10-11,290.51
2010-10-12,286.74
2010-10-13,275.82
2010-10-14,274.02
2010-10-15,279.62
2010-10-18,285.69
2010-10-19,278.72
2010-10-20,260.18
2010-10-21,256.72
2010-10-22,265.6
2010-10-25,266.03
2010-10-26,263.64
2010-10-27,261.08
2010-10-28,263.06
2010-10-29,263.59
2010-11-01,261.9
2010-11-02,266.31
2010-11-03,270.18
2010-11-04,275.72
2010-11-05,278.61
2010-11-08,277.06
2010-11-09,278.25
2010-11-10,277.35
2010-11-11,272.79
2010-11-12,267.5
2010-11-15,268.09
2010-11-16,262.28
2010-11-17,262.79
2010-11-18,259.66
2010-11-19,247.82
2010-11-22,254.95
2010-11-23,251.41
2010-11-24,257.36
2010-11-26,254.84
2010-11-29,254.48
2010-11-30,260.93
2010-12-01,266.49
2010-12-02,268.32
2010-12-03,271.52
2010-12-06,270.02
2010-12-07,260.52
2010-12-08,260.01
2010-12-09,260.43
2010-12-10,260.44
2010-12-13,254.99
2010-12-14,260.05
2010-12-15,256.38
2010-12-16,263.36
2010-12-17,266.17
2010-12-20,270.51
2010-12-21,266.77
2010-12-22,265.91
2010-12-23,262.89
2010-12-27,262.36
2010-12-28,260.64
2010-12-29,259.49
2010-12-30,257.12
2010-12-31,257.95
2011-01-03,268.84
2011-01-04,271.53
2011-01-05,274.02
2011-01-06,268.34
2011-01-07,267.26
2011-01-10,271.37
2011-01-11,281.3
2011-01-12,282.35
2011-01-13,279.39
2011-01-14,288.49
2011-01-18,296.42
2011-01-19,290.09
2011-01-20,289.89
2011-01-21,327.01
2011-01-24,327.65
2011-01-25,330.84
2011-01-26,338.0
2011-01-27,334.31
2011-01-28,327.67
2011-01-31,323.72
2011-02-01,332.02
2011-02-02,327.4
2011-02-03,330.33
2011-02-04,329.99
2011-02-07,333.06
2011-02-08,333.74
2011-02-09,333.11
2011-02-10,336.97
2011-02-11,345.17
2011-02-14,343.97
2011-02-15,341.25
2011-02-16,340.2
2011-02-17,340.7
2011-02-18,340.48
2011-02-22,330.35
2011-02-23,327.14
2011-02-24,328.16
2011-02-25,334.85
2011-02-28,328.51
2011-03-01,319.7
2011-03-02,322.95
2011-03-03,331.82
2011-03-04,331.77
2011-03-07,330.0
2011-03-08,331.94
2011-03-09,330.16
2011-03-10,325.06
2011-03-11,325.33
2011-03-14,328.11
2011-03-15,326.56
2011-03-16,319.49
2011-03-17,320.99
2011-03-18,316.8
2011-03-21,324.65
2011-03-22,323.84
2011-03-23,320.63
2011-03-24,330.14
2011-03-25,330.16
2011-03-28,330.3
2011-03-29,335.0
2011-03-30,337.69
2011-03-31,333.79
2011-04-01,344.5
2011-04-04,346.37
2011-04-05,351.91
2011-04-06,365.43
2011-04-07,371.93
2011-04-08,367.38
2011-04-11,371.53
2011-04-12,366.17
2011-04-13,362.0
2011-04-14,364.09
2011-04-15,360.81
2011-04-18,356.1
2011-04-19,364.16
2011-04-20,363.1
2011-04-21,356.62
2011-04-25,351.84
2011-04-26,352.86
2011-04-27,355.46
2011-04-28,355.57
2011-04-29,351.07
2011-05-02,354.22
2011-05-03,351.84
2011-05-04,345.57
2011-05-05,346.82
2011-05-06,349.11
2011-05-09,356.22
2011-05-10,360.33
2011-05-11,354.92
2011-05-12,360.56
2011-05-13,356.26
2011-05-16,349.05
2011-05-17,349.6
2011-05-18,352.86
2011-05-19,352.61
2011-05-20,348.56
2011-05-23,343.56
2011-05-24,342.12
2011-05-25,345.25
2011-05-26,345.15
2011-05-27,344.58
2011-05-31,348.65
2011-06-01,345.03
2011-06-02,344.65
2011-06-03,342.4
2011-06-06,339.81
2011-06-07,343.66
2011-06-08,344.17
2011-06-09,341.89
2011-06-10,338.31
2011-06-13,341.06
2011-06-14,346.33
2011-06-15,340.64
2011-06-16,340.91
2011-06-17,345.03
2011-06-20,351.8
2011-06-21,351.34
2011-06-22,352.5
2011-06-23,353.75
2011-06-24,347.7
2011-06-27,356.19
2011-06-28,365.99
2011-06-29,368.47
2011-06-30,371.98
2011-07-01,378.62
2011-07-05,381.64
2011-07-06,380.36
2011-07-07,367.99
2011-07-08,368.3
2011-07-11,361.95
2011-07-12,357.04
2011-07-13,359.36
2011-07-14,356.14
2011-07-15,359.32
2011-07-18,362.29
2011-07-19,374.0
2011-07-20,397.99
2011-07-21,414.0
2011-07-22,404.97
2011-07-25,400.93
2011-07-26,398.85
2011-07-27,393.75
2011-07-28,390.13
2011-07-29,400.74
2011-08-01,394.19
2011-08-02,382.61
2011-08-03,379.81
2011-08-04,359.19
2011-08-05,358.93
2011-08-08,332.51
2011-08-09,341.04
2011-08-10,328.13
2011-08-11,342.66
2011-08-12,346.61
2011-08-15,350.81
2011-08-16,349.72
2011-08-17,347.03
2011-08-18,334.7
2011-08-19,329.62
2011-08-22,320.83
2011-08-23,339.36
2011-08-24,349.61
2011-08-25,346.75
2011-08-26,357.15
2011-08-29,376.01
2011-08-30,378.73
2011-08-31,380.76
2011-09-01,379.03
2011-09-02,371.42
2011-09-06,377.27
2011-09-07,388.0
2011-09-08,380.28
2011-09-09,369.52
2011-09-12,371.74
2011-09-13,379.64
2011-09-14,385.47
2011-09-15,394.13
2011-09-16,390.44
2011-09-19,393.09
2011-09-20,389.01
2011-09-21,380.72
2011-09-22,368.78
2011-09-23,375.08
2011-09-26,376.56
2011-09-27,387.71
2011-09-28,377.95
2011-09-29,372.27
2011-09-30,364.73
2011-10-03,349.01
2011-10-04,363.34
2011-10-05,366.45
2011-10-06,372.9
2011-10-07,364.26
2011-10-10,378.72
2011-10-11,385.58
2011-10-12,383.12
2011-10-13,387.26
2011-10-14,392.02
2011-10-17,386.95
2011-10-18,381.6
2011-10-19,417.83
2011-10-20,419.25
2011-10-21,415.59
2011-10-24,422.14
2011-10-25,419.16
2011-10-26,420.39
2011-10-27,434.0
2011-10-28,436.43
2011-10-31,434.56
2011-11-01,426.19
2011-11-02,427.32
2011-11-03,437.18
2011-11-04,431.89
2011-11-07,431.19
2011-11-08,440.82
2011-11-09,429.72
2011-11-10,429.9
2011-11-11,439.64
2011-11-14,440.52
2011-11-15,448.41
2011-11-16,438.76
2011-11-17,428.56
2011-11-18,422.85
2011-11-21,421.3
2011-11-22,418.62
2011-11-23,417.61
2011-11-25,413.26
2011-11-28,425.03
2011-11-29,422.82
2011-11-30,432.25
2011-12-01,435.0
2011-12-02,434.57
2011-12-05,435.98
2011-12-06,440.0
2011-12-07,440.24
2011-12-08,429.95
2011-12-09,440.62
2011-12-12,434.62
2011-12-13,434.58
2011-12-14,423.06
2011-12-15,427.91
2011-12-16,432.32
2011-12-19,432.43
2011-12-20,443.34
2011-12-21,440.73
2011-12-22,447.78
2011-12-23,457.2
2011-12-27,463.5
2011-12-28,457.19
2011-12-29,465.68
2011-12-30,463.6
2012-01-03,471.16
2012-01-04,466.82
2012-01-05,472.4
2012-01-06,460.1
2012-01-09,452.1
2012-01-10,450.16
2012-01-11,457.06
2012-01-12,458.46
2012-01-13,459.51
2012-01-17,465.49
2012-01-18,470.3
2012-01-19,474.0
2012-01-20,445.18
2012-01-23,444.5
2012-01-24,440.23
2012-01-25,454.57
2012-01-26,456.97
2012-01-27,457.65
2012-01-30,456.02
2012-01-31,459.78
2012-02-01,463.07
2012-02-02,482.71
2012-02-03,492.23
2012-02-06,491.03
2012-02-07,493.56
2012-02-08,490.94
2012-02-09,492.52
2012-02-10,490.27
2012-02-13,503.1
2012-02-14,509.31
2012-02-15,505.4
2012-02-16,507.71
2012-02-17,506.07
2012-02-21,504.84
2012-02-22,504.05
2012-02-23,506.34
2012-02-24,512.1
2012-02-27,514.54
2012-02-28,516.0
2012-02-29,511.62
2012-03-01,521.1
2012-03-02,517.22
2012-03-05,513.59
2012-03-06,506.84
2012-03-07,508.33
2012-03-08,516.8
2012-03-09,523.49
2012-03-12,528.57
2012-03-13,531.43
2012-03-14,528.19
2012-03-15,528.68
2012-03-16,529.32
2012-03-19,529.18
2012-03-20,531.63
2012-03-21,533.29
2012-03-22,534.52
2012-03-23,533.47
2012-03-26,541.77
2012-03-27,546.07
2012-03-28,544.24
2012-03-29,543.56
2012-03-30,541.97
2012-04-02,545.02
2012-04-03,548.6
2012-04-04,544.17
2012-04-05,545.11
2012-04-09,539.44
2012-04-10,534.86
2012-04-11,539.79
2012-04-12,551.17
2012-04-13,546.45
2012-04-16,540.8
2012-04-17,546.9
2012-04-18,584.13
2012-04-19,579.56
2012-04-20,576.1
2012-04-23,567.08
2012-04-24,559.85
2012-04-25,575.54
2012-04-26,576.12
2012-04-27,585.43
2012-04-30,578.03
2012-05-01,587.64
2012-05-02,586.3
2012-05-03,578.66
2012-05-04,565.05
2012-05-07,564.74
2012-05-08,556.99
2012-05-09,549.0
2012-05-10,555.78
2012-05-11,559.34
2012-05-14,550.76
2012-05-15,547.23
2012-05-16,537.86
2012-05-17,519.51
2012-05-18,511.43
2012-05-21,526.73
2012-05-22,524.69
2012-05-23,531.02
2012-05-24,530.91
2012-05-25,526.71
2012-05-29,527.49
2012-05-30,532.69
2012-05-31,523.55
2012-06-01,503.41
2012-06-04,516.01
2012-06-05,523.0
2012-06-06,532.7
2012-06-07,530.0
2012-06-08,536.69
2012-06-11,519.98
2012-06-12,532.29
2012-06-13,526.02
2012-06-14,527.96
2012-06-15,532.21
2012-06-18,546.21
2012-06-19,548.01
2012-06-20,548.18
2012-06-21,537.08
2012-06-22,549.62
2012-06-25,539.53
2012-06-26,544.14
2012-06-27,544.55
2012-06-28,536.77
2012-06-29,553.09
2012-07-02,566.41
2012-07-03,564.6
2012-07-05,563.26
2012-07-06,552.05
2012-07-09,551.66
2012-07-10,531.55
2012-07-11,534.73
2012-07-12,534.91
2012-07-13,540.47
2012-07-16,535.9
2012-07-17,544.92
2012-07-18,548.91
2012-07-19,544.01
2012-07-20,497.96
2012-07-23,477.02
2012-07-24,473.61
2012-07-25,483.33
2012-07-26,489.57
2012-07-27,498.49
2012-07-30,490.88
2012-07-31,481.86
2012-08-01,477.0
2012-08-02,478.2
2012-08-03,492.88
2012-08-06,490.29
2012-08-07,496.94
2012-08-08,500.74
2012-08-09,497.42
2012-08-10,498.31
2012-08-13,508.25
2012-08-14,510.07
2012-08-15,516.92
2012-08-16,514.56
2012-08-17,512.08
2012-08-20,510.25
2012-08-21,506.95
2012-08-22,507.96
2012-08-23,503.51
2012-08-24,505.47
2012-08-27,500.26
2012-08-28,497.81
2012-08-29,496.94
2012-08-30,491.72
2012-08-31,493.08
2012-09-04,491.42
2012-09-05,487.88
2012-09-06,494.87
2012-09-07,500.9
2012-09-10,494.96
2012-09-11,487.36
2012-09-12,485.98
2012-09-13,489.18
2012-09-14,501.16
2012-09-17,510.36
2012-09-18,512.0
2012-09-19,509.93
2012-09-20,506.08
2012-09-21,517.33
2012-09-24,517.49
2012-09-25,511.28
2012-09-26,495.25
2012-09-27,499.46
2012-09-28,495.77
2012-10-01,499.75
2012-10-02,500.7
2012-10-03,511.16
2012-10-04,516.63
2012-10-05,511.12
2012-10-08,509.65
2012-10-09,494.78
2012-10-10,493.72
2012-10-11,494.52
2012-10-12,495.11
2012-10-15,512.94
2012-10-16,533.91
2012-10-17,532.15
2012-10-18,534.56
2012-10-19,538.87
2012-10-22,551.3
2012-10-23,547.4
2012-10-24,543.27
2012-10-25,545.71
2012-10-26,535.89
2012-10-31,543.06
2012-11-01,540.21
2012-11-02,542.4
2012-11-05,541.24
2012-11-06,544.19
2012-11-07,538.55
2012-11-08,531.44
2012-11-09,529.49
2012-11-12,533.5
2012-11-13,536.0
2012-11-14,525.65
2012-11-15,525.68
2012-11-16,535.06
2012-11-19,542.24
2012-11-20,536.33
2012-11-21,533.99
2012-11-23,537.5
2012-11-26,534.25
2012-11-27,524.54
2012-11-28,530.89
2012-11-29,535.01
2012-11-30,529.76
2012-12-03,524.67
2012-12-04,527.23
2012-12-05,516.1
2012-12-06,519.78
2012-12-07,518.2
2012-12-10,526.2
2012-12-11,535.68
2012-12-12,539.79
2012-12-13,535.67
2012-12-14,532.27
2012-12-17,551.51
2012-12-18,545.73
2012-12-19,515.01
2012-12-20,488.82
2012-12-21,496.78
2012-12-24,489.73
2012-12-26,480.35
2012-12-27,487.04
2012-12-28,480.82
2012-12-31,489.21
2013-01-02,497.03
2013-01-03,503.3
2013-01-04,500.25
2013-01-07,501.62
2013-01-08,504.24
2013-01-09,506.9
2013-01-10,507.87
2013-01-11,505.17
2013-01-14,512.15
2013-01-15,503.51
2013-01-16,497.96
2013-01-17,513.66
2013-01-18,507.56
2013-01-22,518.58
2013-01-23,566.6
2013-01-24,581.16
2013-01-25,577.54
2013-01-28,578.2
2013-01-29,574.48
2013-01-30,572.6
2013-01-31,574.56
2013-02-01,583.73
2013-02-04,574.02
2013-02-05,574.16
2013-02-06,571.552
2013-02-07,569.972
2013-02-08,578.32
2013-02-11,571.75
2013-02-12,571.52
2013-02-13,573.69
2013-02-14,571.5
2013-02-15,569.0
2013-02-19,582.28
2013-02-20,557.11
2013-02-21,561.65
2013-02-22,573.55
2013-02-25,567.64
2013-02-26,568.9
2013-02-27,574.13
2013-02-28,509.5
2013-03-01,553.41
2013-03-04,541.18
2013-03-05,525.0
2013-03-06,518.87
2013-03-07,513.35
2013-03-08,514.33
2013-03-11,516.92
2013-03-12,512.5
2013-03-13,509.26
2013-03-14,489.91
2013-03-15,458.21
2013-03-18,485.74
2013-03-19,483.29
2013-03-20,495.05
2013-03-21,486.78
2013-03-22,489.21
2013-03-25,489.09
2013-03-26,496.93
2013-03-27,490.26
2013-03-28,491.64
2013-04-01,484.07
2013-04-02,489.84
2013-04-03,498.44
2013-04-04,496.38
2013-04-05,489.38
2013-04-08,493.99
2013-04-09,496.57
2013-04-10,498.68
2013-04-11,512.29
2013-04-12,511.7
2013-04-15,510.2
2013-04-16,510.5
2013-04-17,509.06
2013-04-18,493.36
2013-04-19,484.64
2013-04-22,474.91
2013-04-23,471.23
2013-04-24,476.69
2013-04-25,483.86
2013-04-26,486.42
2013-04-29,489.02
2013-04-30,490.36
2013-05-01,490.36
2013-05-02,491.71
2013-05-03,503.23
2013-05-06,501.38
2013-05-07,490.91
2013-05-08,489.23
2013-05-09,506.12
2013-05-10,499.53
2013-05-13,485.68
2013-05-14,487.19
2013-05-15,484.8
2013-05-16,476.72
2013-05-17,484.0
2013-05-20,479.14
2013-05-21,486.75
2013-05-22,470.41
2013-05-23,479.11
2013-05-24,501.01
2013-05-28,501.5
2013-05-29,498.33
2013-05-30,504.91
2013-05-31,498.25
2013-06-03,499.98
2013-06-04,498.4
2013-06-05,501.8
2013-06-06,507.51
2013-06-07,513.13
2013-06-10,509.79
2013-06-11,499.67
2013-06-12,495.47
2013-06-13,505.02
2013-06-14,498.67
2013-06-17,499.3
2013-06-18,509.6
2013-06-19,509.94
2013-06-20,498.18
2013-06-21,502.68
2013-06-24,504.7
2013-06-25,501.79
2013-06-26,504.22
2013-06-27,502.75
2013-06-28,506.28
2013-07-01,501.25
2013-07-02,501.27
2013-07-03,499.72
2013-07-05,503.98
2013-07-08,499.18
2013-07-09,419.01
2013-07-10,422.01
2013-07-11,429.1
2013-07-12,428.1
2013-07-15,426.53
2013-07-16,422.94
2013-07-17,415.87
2013-07-18,421.95
2013-07-19,391.5
2013-07-22,395.87
2013-07-23,395.08
2013-07-24,383.81
2013-07-25,375.05
2013-07-26,382.06
2013-07-29,390.61
2013-07-30,386.75
2013-07-31,387.4
2013-08-01,392.6
2013-08-02,393.63
2013-08-05,393.58
2013-08-06,392.67
2013-08-07,390.13
2013-08-08,394.38
2013-08-09,391.57
