date,close_price
1998-01-02,22.0784
1998-01-05,22.1456
1998-01-06,21.8432
1998-01-07,21.5183
1998-01-08,20.7715
1998-01-09,20.0248
1998-01-12,19.9053
1998-01-13,19.6738
1998-01-14,20.8163
1998-01-15,20.443
1998-01-16,20.8873
1998-01-20,21.6341
1998-01-21,21.074
1998-01-22,20.9321
1998-01-23,20.9097
1998-01-26,20.9097
1998-01-27,21.074
1998-01-28,21.0964
1998-01-29,21.3764
1998-01-30,20.8387
1998-02-02,21.2607
1998-02-03,21.2831
1998-02-04,21.0516
1998-02-05,21.0254
1998-02-06,21.0964
1998-02-09,20.9097
1998-02-10,20.8387
1998-02-11,20.9806
1998-02-12,21.2831
1998-02-13,21.0964
1998-02-17,21.2121
1998-02-18,21.3055
1998-02-19,21.074
1998-02-20,21.3055
1998-02-23,21.2831
1998-02-24,21.2831
1998-02-25,21.705
1998-02-26,22.1232
1998-02-27,22.3584
1998-03-02,22.6833
1998-03-03,23.4076
1998-03-04,22.8924
1998-03-05,22.519
1998-03-06,23.1276
1998-03-09,22.9857
1998-03-10,23.0567
1998-03-11,22.9857
1998-03-12,23.1052
1998-03-13,23.3367
1998-03-16,23.5719
1998-03-17,23.2919
1998-03-18,23.1052
1998-03-19,23.0119
1998-03-20,23.1052
1998-03-23,23.0343
1998-03-24,23.5234
1998-03-25,23.9901
1998-03-26,23.9192
1998-03-27,23.661
1998-03-30,23.6834
1998-03-31,23.964
1998-04-01,24.0126
1998-04-02,24.4578
1998-04-03,24.3867
1998-04-06,23.964
1998-04-07,23.7545
1998-04-08,23.3804
1998-04-09,23.5675
1998-04-13,23.777
1998-04-14,24.5027
1998-04-15,24.1997
1998-04-16,23.777
1998-04-17,24.8543
1998-04-20,24.2221
1998-04-21,25.0638
1998-04-22,25.5314
1998-04-23,25.4603
1998-04-24,25.5314
1998-04-27,25.4155
1998-04-28,25.3444
1998-04-29,25.7185
1998-04-30,26.3731
1998-05-01,26.1861
1998-05-04,25.6736
1998-05-05,25.8606
1998-05-06,25.5539
1998-05-07,24.8992
1998-05-08,25.1349
1998-05-11,25.1349
1998-05-12,25.6025
1998-05-13,25.9541
1998-05-14,26.8632
1998-05-15,26.1861
1998-05-18,25.9055
1998-05-19,26.2085
1998-05-20,26.3282
1998-05-21,25.8344
1998-05-22,25.7185
1998-05-26,24.8992
1998-05-27,24.6897
1998-05-28,24.6673
1998-05-29,24.6897
1998-06-01,24.5027
1998-06-02,24.4092
1998-06-03,24.5962
1998-06-04,24.5251
1998-06-05,24.6448
1998-06-08,25.0189
1998-06-09,24.7608
1998-06-10,25.2284
1998-06-11,24.1997
1998-06-12,24.3381
1998-06-15,24.4578
1998-06-16,24.7384
1998-06-17,25.368
1998-06-18,25.4392
1998-06-19,24.922
1998-06-22,24.476
1998-06-23,24.7346
1998-06-24,24.5023
1998-06-25,24.0076
1998-06-26,24.3149
1998-06-29,24.5697
1998-06-30,25.0157
1998-07-01,25.6003
1998-07-02,25.3193
1998-07-06,25.4842
1998-07-07,25.2968
1998-07-08,25.3905
1998-07-09,24.9932
1998-07-10,25.2518
1998-07-13,24.8508
1998-07-14,25.2518
1998-07-15,25.5554
1998-07-16,25.6003
1998-07-17,25.2518
1998-07-20,24.3599
1998-07-21,23.4229
1998-07-22,22.9095
1998-07-23,22.5572
1998-07-24,22.3698
1998-07-27,22.04
1998-07-28,21.5978
1998-07-29,21.3617
1998-07-30,21.5978
1998-07-31,21.0094
1998-08-03,21.0094
1998-08-04,20.1924
1998-08-05,19.9339
1998-08-06,19.8851
1998-08-07,20.3798
1998-08-10,20.1662
1998-08-11,20.2374
1998-08-12,20.5672
1998-08-13,20.6122
1998-08-14,20.5185
1998-08-17,20.7059
1998-08-18,20.987
1998-08-19,21.3617
1998-08-20,21.4329
1998-08-21,21.4104
1998-08-24,21.9726
1998-08-25,21.8077
1998-08-26,21.0357
1998-08-27,19.6528
1998-08-28,19.4654
1998-08-31,18.2474
1998-09-01,18.3861
1998-09-02,18.3411
1998-09-03,17.9176
1998-09-04,17.5204
1998-09-08,17.9438
1998-09-09,17.9176
1998-09-10,17.2168
1998-09-11,17.0294
1998-09-14,18.2924
1998-09-15,18.0825
1998-09-16,18.4573
1998-09-17,18.4123
1998-09-18,18.7608
1998-09-21,18.8808
1998-09-22,20.1662
1998-09-23,21.5266
1998-09-24,20.7059
1998-09-25,20.05
1998-09-28,20.4596
1998-09-29,20.4596
1998-09-30,20.4822
1998-10-01,19.614
1998-10-02,19.5652
1998-10-05,19.9184
1998-10-06,19.614
1998-10-07,20.1289
1998-10-08,20.0124
1998-10-09,20.1064
1998-10-12,21.0948
1998-10-13,21.1399
1998-10-14,20.9294
1998-10-15,21.3766
1998-10-16,22.0343
1998-10-19,22.6206
1998-10-20,23.2783
1998-10-21,23.3497
1998-10-22,23.4436
1998-10-23,22.2448
1998-10-26,23.3234
1998-10-27,24.0299
1998-10-28,23.9585
1998-10-29,24.5936
1998-10-30,24.1239
1998-11-02,24.665
1998-11-03,24.6162
1998-11-04,24.8755
1998-11-05,24.7816
1998-11-06,24.4283
1998-11-09,23.7706
1998-11-10,24.1013
1998-11-11,23.9811
1998-11-12,24.5222
1998-11-13,23.7706
1998-11-16,24.169
1998-11-17,23.8646
1998-11-18,23.9134
1998-11-19,24.1953
1998-11-20,24.2892
1998-11-23,24.4771
1998-11-24,24.8755
1998-11-25,24.759
1998-11-27,24.6387
1998-11-30,23.8646
1998-12-01,24.2178
1998-12-02,23.8195
1998-12-03,23.1355
1998-12-04,23.2557
1998-12-07,22.925
1998-12-08,22.3838
1998-12-09,22.3387
1998-12-10,22.3162
1998-12-11,21.7975
1998-12-14,21.4706
1998-12-15,21.2338
1998-12-16,20.8129
1998-12-17,20.8805
1998-12-18,21.7975
1998-12-21,22.3838
1998-12-22,22.0343
1998-12-23,23.0904
1998-12-24,22.6431
1998-12-28,22.5266
1998-12-29,22.794
1998-12-30,22.6546
1998-12-31,23.7848
1999-01-04,22.9108
1999-01-05,23.1933
1999-01-06,23.3591
1999-01-07,23.7848
1999-01-08,24.2294
1999-01-11,24.0674
1999-01-12,23.9016
1999-01-13,23.6417
1999-01-14,23.2423
1999-01-15,23.9958
1999-01-19,23.9242
1999-01-20,23.5023
1999-01-21,22.9823
1999-01-22,22.6998
1999-01-25,23.0991
1999-01-26,22.9823
1999-01-27,22.6056
1999-01-28,21.9463
1999-01-29,22.7224
1999-02-01,23.2197
1999-02-02,23.3365
1999-02-03,24.2784
1999-02-04,24.512
1999-02-05,24.772
1999-02-08,24.561
1999-02-09,25.0093
1999-02-10,25.8796
1999-02-11,25.4539
1999-02-12,25.4803
1999-02-16,25.3597
1999-02-17,24.8435
1999-02-18,25.5744
1999-02-19,26.2564
1999-02-22,26.2338
1999-02-23,26.9157
1999-02-24,26.279
1999-02-25,25.8306
1999-02-26,25.857
1999-03-01,25.1713
1999-03-02,25.3861
1999-03-03,25.8306
1999-03-04,25.5971
1999-03-05,25.9738
1999-03-08,25.5481
1999-03-09,25.2919
1999-03-10,25.4803
1999-03-11,25.2429
1999-03-12,25.3597
1999-03-15,25.7139
1999-03-16,25.6197
1999-03-17,25.2919
1999-03-18,25.7139
1999-03-19,25.1261
1999-03-22,25.0319
1999-03-23,24.6062
1999-03-24,23.8527
1999-03-25,24.1126
1999-03-26,23.7585
1999-03-29,23.7699
1999-03-30,23.1808
1999-03-31,23.3696
1999-04-01,23.2978
1999-04-05,22.754
1999-04-06,23.0372
1999-04-07,23.0372
1999-04-08,23.2261
1999-04-09,23.0372
1999-04-12,23.5584
1999-04-13,24.0758
1999-04-14,25.3976
1999-04-15,27.4747
1999-04-16,27.4974
1999-04-19,29.7898
1999-04-20,27.9695
1999-04-21,27.1915
1999-04-22,26.7685
1999-04-23,27.1462
1999-04-26,27.2859
1999-04-27,28.0639
1999-04-28,28.7739
1999-04-29,29.8578
1999-04-30,28.9627
1999-05-03,29.1289
1999-05-04,28.6795
1999-05-05,29.0345
1999-05-06,29.1289
1999-05-07,30.2619
1999-05-10,29.6689
1999-05-11,29.7898
1999-05-12,28.3471
1999-05-13,28.4189
1999-05-14,28.3018
1999-05-17,28.4189
1999-05-18,28.0412
1999-05-19,28.6304
1999-05-20,28.3245
1999-05-21,28.2527
1999-05-24,28.4416
1999-05-25,27.4747
1999-05-26,28.5851
1999-05-27,28.1847
1999-05-28,29.1289
1999-06-01,29.3857
1999-06-02,29.9295
1999-06-03,30.1184
1999-06-04,30.4016
1999-06-07,30.5678
1999-06-08,30.4507
1999-06-09,30.3789
1999-06-10,29.9786
1999-06-11,29.4801
1999-06-14,29.3404
1999-06-15,29.9295
1999-06-16,29.3857
1999-06-17,29.5745
1999-06-18,30.3072
1999-06-21,29.9069
1999-06-22,29.6689
1999-06-23,29.9522
1999-06-24,28.8683
1999-06-25,28.8456
1999-06-28,29.1369
1999-06-29,29.4699
1999-06-30,30.9835
1999-07-01,30.5786
1999-07-02,30.4613
1999-07-06,30.5105
1999-07-07,30.5786
1999-07-08,30.4613
1999-07-09,30.484
1999-07-12,29.8937
1999-07-13,28.7585
1999-07-14,28.3801
1999-07-15,28.3082
1999-07-16,28.5693
1999-07-19,28.4028
1999-07-20,28.3574
1999-07-21,29.2807
1999-07-22,29.4207
1999-07-23,29.1369
1999-07-26,28.8304
1999-07-27,28.5466
1999-07-28,28.6412
1999-07-29,28.4028
1999-07-30,28.1909
1999-08-02,27.5779
1999-08-03,27.9298
1999-08-04,27.7671
1999-08-05,27.6233
1999-08-06,27.6233
1999-08-09,28.1455
1999-08-10,28.0017
1999-08-11,28.7585
1999-08-12,28.7131
1999-08-13,28.925
1999-08-16,29.1369
1999-08-17,29.871
1999-08-18,29.6818
1999-08-19,29.538
1999-08-20,29.7991
1999-08-23,30.1548
1999-08-24,30.0602
1999-08-25,30.2948
1999-08-26,30.1775
1999-08-27,29.7991
1999-08-30,29.2542
1999-08-31,29.4699
1999-09-01,29.5153
1999-09-02,29.538
1999-09-03,29.9883
1999-09-07,30.0602
1999-09-08,30.1548
1999-09-09,30.3894
1999-09-10,27.7406
1999-09-13,27.7671
1999-09-14,27.4114
1999-09-15,26.8665
1999-09-16,26.3216
1999-09-17,27.3395
1999-09-20,27.646
1999-09-21,28.3082
1999-09-22,28.4747
1999-09-23,27.8125
1999-09-24,28.0244
1999-09-27,27.979
1999-09-28,27.6682
1999-09-29,27.7137
1999-09-30,28.093
1999-10-01,27.7137
1999-10-04,27.9299
1999-10-05,27.8085
1999-10-06,28.093
1999-10-07,29.5648
1999-10-08,29.9441
1999-10-11,30.2059
1999-10-12,29.1362
1999-10-13,28.6392
1999-10-14,28.5444
1999-10-15,27.4785
1999-10-18,27.5506
1999-10-19,27.3344
1999-10-20,27.1712
1999-10-21,26.6705
1999-10-22,27.0043
1999-10-25,26.6971
1999-10-26,26.4353
1999-10-27,26.8147
1999-10-28,27.1712
1999-10-29,27.9033
1999-11-01,27.9527
1999-11-02,27.0992
1999-11-03,26.8147
1999-11-04,26.056
1999-11-05,25.2253
1999-11-08,25.3201
1999-11-09,24.918
1999-11-10,24.9901
1999-11-11,25.0584
1999-11-12,23.5676
1999-11-15,24.1366
1999-11-16,24.7056
1999-11-17,25.248
1999-11-18,25.1532
1999-11-19,25.5325
1999-11-22,25.5819
1999-11-23,25.415
1999-11-24,25.9839
1999-11-26,25.817
1999-11-29,24.9901
1999-11-30,24.6108
1999-12-01,25.0129
1999-12-02,24.9636
1999-12-03,25.5325
1999-12-06,25.9612
1999-12-07,25.7488
1999-12-08,25.415
1999-12-09,24.8004
1999-12-10,24.3263
1999-12-13,24.4211
1999-12-14,24.8004
1999-12-15,25.1305
1999-12-16,24.7284
1999-12-17,24.8232
1999-12-20,24.3718
1999-12-21,24.277
1999-12-22,24.1594
1999-12-23,24.2049
1999-12-27,24.4666
1999-12-28,25.1077
1999-12-29,25.0582
1999-12-30,24.9365
1999-12-31,25.6972
2000-01-03,24.4154
2000-01-04,23.2248
2000-01-05,23.4873
2000-01-06,23.3466
2000-01-07,24.8186
2000-01-10,25.1533
2000-01-11,25.0582
2000-01-12,24.7235
2000-01-13,25.9368
2000-01-14,25.6972
2000-01-18,24.5827
2000-01-19,24.4382
2000-01-20,23.9171
2000-01-21,23.7269
2000-01-24,23.3466
2000-01-25,22.7266
2000-01-26,22.9396
2000-01-27,22.7266
2000-01-28,21.8708
2000-01-31,22.2283
2000-02-01,22.5592
2000-02-02,22.5858
2000-02-03,22.9396
2000-02-04,22.9662
2000-02-07,23.0118
2000-02-08,22.7038
2000-02-09,22.5136
2000-02-10,21.5855
2000-02-11,21.2051
2000-02-14,20.7791
2000-02-15,22.2511
2000-02-16,22.0153
2000-02-17,21.8936
2000-02-18,21.5399
2000-02-22,22.0381
2000-02-23,22.5364
2000-02-24,21.4904
2000-02-25,19.9918
2000-02-28,19.8739
2000-02-29,19.6837
2000-03-01,20.1135
2000-03-02,20.1135
2000-03-03,20.9199
2000-03-06,20.4444
2000-03-07,19.969
2000-03-08,20.5889
2000-03-09,20.8019
2000-03-10,20.684
2000-03-13,20.6118
2000-03-14,20.6118
2000-03-15,22.2055
2000-03-16,24.4382
2000-03-17,24.7235
2000-03-20,23.7726
2000-03-21,23.5824
2000-03-22,23.2515
2000-03-23,23.0118
2000-03-24,22.6543
2000-03-27,22.1104
2000-03-28,21.7529
2000-03-29,21.8943
2000-03-30,22.2262
2000-03-31,21.9401
2000-04-03,22.6078
2000-04-04,22.894
2000-04-05,22.5849
2000-04-06,22.3445
2000-04-07,22.2033
2000-04-10,22.6307
2000-04-11,22.9436
2000-04-12,24.4202
2000-04-13,23.5846
2000-04-14,22.7986
2000-04-17,23.203
2000-04-18,22.7528
2000-04-19,23.1076
2000-04-20,23.0619
2000-04-24,23.5846
2000-04-25,24.2791
2000-04-26,23.8021
2000-04-27,23.9662
2000-04-28,24.4698
2000-05-01,24.4202
2000-05-02,24.5385
2000-05-03,24.0387
2000-05-04,23.8479
2000-05-05,24.3019
2000-05-08,24.1112
2000-05-09,23.9433
2000-05-10,23.9662
2000-05-11,24.3248
2000-05-12,23.9929
2000-05-15,23.9662
2000-05-16,24.6835
2000-05-17,24.6606
2000-05-18,24.1341
2000-05-19,23.9929
2000-05-22,23.3938
2000-05-23,23.4892
2000-05-24,24.4202
2000-05-25,23.3251
2000-05-26,22.7528
2000-05-30,22.4399
2000-05-31,22.1804
2000-06-01,22.3941
2000-06-02,22.562
2000-06-05,22.4666
2000-06-06,22.3216
2000-06-07,21.7722
2000-06-08,21.9629
2000-06-09,22.2987
2000-06-12,21.8447
2000-06-13,21.6768
2000-06-14,22.1537
2000-06-15,22.2033
2000-06-16,22.3216
2000-06-19,22.6574
2000-06-20,21.009
2000-06-21,21.0815
2000-06-22,21.5127
2000-06-23,21.1769
2000-06-26,20.9136
2000-06-27,21.7035
2000-06-28,22.1554
2000-06-29,21.4587
2000-06-30,21.6769
2000-07-03,22.3927
2000-07-05,22.1056
2000-07-06,22.1784
2000-07-07,21.987
2000-07-10,21.4128
2000-07-11,22.297
2000-07-12,22.3468
2000-07-13,22.3927
2000-07-14,22.7296
2000-07-17,21.8683
2000-07-18,21.3171
2000-07-19,21.4128
2000-07-20,21.2444
2000-07-21,21.1716
2000-07-24,21.2673
2000-07-25,21.5315
2000-07-26,21.6042
2000-07-27,21.9372
2000-07-28,21.6042
2000-07-31,21.8913
2000-08-01,21.987
2000-08-02,21.6999
2000-08-03,21.2941
2000-08-04,21.3171
2000-08-07,21.5085
2000-08-08,22.3468
2000-08-09,22.5382
2000-08-10,22.3927
2000-08-11,22.6798
2000-08-14,22.5611
2000-08-15,22.6798
2000-08-16,22.6339
2000-08-17,22.2243
2000-08-18,22.4654
2000-08-21,22.0827
2000-08-22,21.9372
2000-08-23,21.5544
2000-08-24,21.5085
2000-08-25,21.987
2000-08-28,21.5812
2000-08-29,21.7956
2000-08-30,21.6042
2000-08-31,21.4587
2000-09-01,21.4358
2000-09-05,21.6501
2000-09-06,21.7228
2000-09-07,21.6271
2000-09-08,21.1257
2000-09-11,21.1027
2000-09-12,21.8913
2000-09-13,21.9142
2000-09-14,22.0099
2000-09-15,21.3401
2000-09-18,19.9774
2000-09-19,20.0233
2000-09-20,20.4061
2000-09-21,20.3104
2000-09-22,20.5745
2000-09-25,20.4329
2000-09-26,20.5515
2000-09-27,20.6054
2000-09-28,21.566
2000-09-29,21.4699
2000-10-02,21.1817
2000-10-03,22.0693
2000-10-04,22.6456
2000-10-05,22.7878
2000-10-06,23.1028
2000-10-09,23.268
2000-10-10,23.2219
2000-10-11,22.9107
2000-10-12,22.3075
2000-10-13,22.4036
2000-10-16,22.5726
2000-10-17,22.1423
2000-10-18,22.1653
2000-10-19,21.2778
2000-10-20,20.7476
2000-10-23,20.3634
2000-10-24,20.4825
2000-10-25,19.8601
2000-10-26,19.8601
2000-10-27,19.618
2000-10-30,20.6285
2000-10-31,21.3969
2000-11-01,21.6851
2000-11-02,21.2048
2000-11-03,21.1318
2000-11-06,21.7581
2000-11-07,22.0923
2000-11-08,22.3805
2000-11-09,22.4535
2000-11-10,22.4996
2000-11-13,22.2844
2000-11-14,22.0693
2000-11-15,22.2844
2000-11-16,22.0462
2000-11-17,21.3969
2000-11-20,21.5391
2000-11-21,21.6121
2000-11-22,21.0357
2000-11-24,21.4699
2000-11-27,21.0588
2000-11-28,21.2778
2000-11-29,21.8541
2000-11-30,21.6351
2000-12-01,21.566
2000-12-04,22.4766
2000-12-05,23.1259
2000-12-06,23.0529
2000-12-07,22.7186
2000-12-08,22.7647
2000-12-11,23.318
2000-12-12,23.341
2000-12-13,22.5957
2000-12-14,21.4699
2000-12-15,21.7312
2000-12-18,22.0193
2000-12-19,21.7081
2000-12-20,21.347
2000-12-21,22.2114
2000-12-22,22.2383
2000-12-26,22.3075
2000-12-27,22.99
2000-12-28,22.9167
2000-12-29,23.0362
2001-01-02,22.7702
2001-01-03,23.3755
2001-01-04,24.3124
2001-01-05,24.3394
2001-01-08,24.3124
2001-01-09,23.977
2001-01-10,23.7341
2001-01-11,23.4218
2001-01-12,23.229
2001-01-16,24.0502
2001-01-17,24.4088
2001-01-18,23.9037
2001-01-19,23.8305
2001-01-22,23.977
2001-01-23,24.5052
2001-01-24,24.1697
2001-01-25,24.7712
2001-01-26,24.964
2001-01-29,24.9871
2001-01-30,24.9871
2001-01-31,25.2917
2001-02-01,25.8314
2001-02-02,25.0526
2001-02-05,25.0719
2001-02-06,24.9293
2001-02-07,24.9524
2001-02-08,24.9331
2001-02-09,24.6093
2001-02-12,24.9485
2001-02-13,25.1336
2001-02-14,24.9138
2001-02-15,25.2069
2001-02-16,24.6517
2001-02-20,24.59
2001-02-21,24.2893
2001-02-22,24.2122
2001-02-23,24.0271
2001-02-26,23.9885
2001-02-27,23.5105
2001-02-28,23.3563
2001-03-01,23.3216
2001-03-02,23.7264
2001-03-05,24.9717
2001-03-06,25.2685
2001-03-07,25.6001
2001-03-08,26.0165
2001-03-09,24.8869
2001-03-12,24.4126
2001-03-13,24.0579
2001-03-14,23.9269
2001-03-15,23.9269
2001-03-16,23.0748
2001-03-19,22.8126
2001-03-20,22.4618
2001-03-21,21.8603
2001-03-22,22.2613
2001-03-23,22.1456
2001-03-26,22.6353
2001-03-27,22.6083
2001-03-28,22.3607
2001-03-29,21.9119
2001-03-30,21.9583
2001-04-02,21.8771
2001-04-03,21.2852
2001-04-04,21.7997
2001-04-05,23.1422
2001-04-06,22.7862
2001-04-09,23.0029
2001-04-10,23.3008
2001-04-11,22.9255
2001-04-12,23.293
2001-04-16,23.4942
2001-04-17,23.56
2001-04-18,24.6006
2001-04-19,24.3027
2001-04-20,24.0435
2001-04-23,23.9855
2001-04-24,23.823
2001-04-25,23.9546
2001-04-26,24.4111
2001-04-27,24.6703
2001-04-30,24.5233
2001-05-01,24.5697
2001-05-02,24.4072
2001-05-03,24.3801
2001-05-04,24.7902
2001-05-07,24.7554
2001-05-08,24.856
2001-05-09,24.8482
2001-05-10,25.208
2001-05-11,25.2196
2001-05-14,25.4556
2001-05-15,25.7341
2001-05-16,26.887
2001-05-17,27.5408
2001-05-18,27.1152
2001-05-21,27.0882
2001-05-22,27.1501
2001-05-23,26.8986
2001-05-24,27.0224
2001-05-25,26.5968
2001-05-29,26.5465
2001-05-30,26.3763
2001-05-31,26.5079
2001-06-01,26.4846
2001-06-04,26.6703
2001-06-05,27.0147
2001-06-06,26.5001
2001-06-07,26.6355
2001-06-08,26.268
2001-06-11,25.9972
2001-06-12,25.7419
2001-06-13,25.6838
2001-06-14,25.3821
2001-06-15,25.9663
2001-06-18,25.6722
2001-06-19,25.2815
2001-06-20,25.5214
2001-06-21,25.6954
2001-06-22,25.4749
2001-06-25,25.297
2001-06-26,25.2931
2001-06-27,24.808
2001-06-28,24.9516
2001-06-29,24.6101
2001-07-02,25.2621
2001-07-03,25.5764
2001-07-05,25.685
2001-07-06,25.0215
2001-07-09,25.2815
2001-07-10,25.0525
2001-07-11,24.3734
2001-07-12,25.1457
2001-07-13,25.4173
2001-07-16,25.0215
2001-07-17,25.4561
2001-07-18,25.8131
2001-07-19,25.103
2001-07-20,24.94
2001-07-23,24.6489
2001-07-24,24.0591
2001-07-25,24.4278
2001-07-26,24.5364
2001-07-27,24.4472
2001-07-30,24.2182
2001-07-31,24.4472
2001-08-01,24.2958
2001-08-02,24.4239
2001-08-03,24.486
2001-08-06,23.9427
2001-08-07,24.0979
2001-08-08,23.6323
2001-08-09,23.6905
2001-08-10,24.4084
2001-08-13,24.1522
2001-08-14,24.257
2001-08-15,24.3773
2001-08-16,24.614
2001-08-17,24.3967
2001-08-20,24.5519
2001-08-21,24.5325
2001-08-22,24.6955
2001-08-23,24.5131
2001-08-24,24.9051
2001-08-27,24.8391
2001-08-28,24.6334
2001-08-29,24.2182
2001-08-30,23.834
2001-08-31,24.2493
2001-09-04,23.9699
2001-09-05,24.1755
2001-09-06,23.869
2001-09-07,23.2481
2001-09-10,23.2985
2001-09-17,21.335
2001-09-18,21.2108
2001-09-19,20.9159
2001-09-20,20.2795
2001-09-21,19.1309
2001-09-24,21.0711
2001-09-25,20.6792
2001-09-26,19.7561
2001-09-27,19.8379
2001-09-28,21.042
2001-10-01,20.9212
2001-10-02,20.8472
2001-10-03,21.1472
2001-10-04,21.1316
2001-10-05,21.3537
2001-10-08,21.1083
2001-10-09,21.042
2001-10-10,21.8213
2001-10-11,22.7994
2001-10-12,22.8579
2001-10-15,23.0488
2001-10-16,23.2865
2001-10-17,22.6085
2001-10-18,22.2266
2001-10-19,22.0474
2001-10-22,22.8618
2001-10-23,23.1267
2001-10-24,23.1267
2001-10-25,23.2865
2001-10-26,23.7853
2001-10-29,22.9981
2001-10-30,22.3825
2001-10-31,22.3903
2001-11-01,22.7604
2001-11-02,23.0839
2001-11-05,23.4385
2001-11-06,23.91
2001-11-07,23.8009
2001-11-08,23.6645
2001-11-09,23.7619
2001-11-12,23.4891
2001-11-13,24.5802
2001-11-14,25.0907
2001-11-15,24.9426
2001-11-16,24.5997
2001-11-19,24.6581
2001-11-20,24.4555
2001-11-21,24.0931
2001-11-23,24.2724
2001-11-26,24.2607
2001-11-27,24.0619
2001-11-28,23.8242
2001-11-29,23.7931
2001-11-30,23.91
2001-12-03,23.8203
2001-12-04,24.436
2001-12-05,25.2348
2001-12-06,24.9932
2001-12-07,24.8958
2001-12-10,24.51
2001-12-11,25.0244
2001-12-12,25.04
2001-12-13,24.6932
2001-12-14,24.3698
2001-12-17,25.0907
2001-12-18,25.6011
2001-12-19,26.1038
2001-12-20,26.3454
2001-12-21,26.4155
2001-12-24,26.4701
2001-12-26,26.7701
2001-12-27,26.7388
2001-12-28,26.645
2001-12-31,26.4847
2002-01-02,26.4417
2002-01-03,26.5824
2002-01-04,27.0828
2002-01-07,26.7622
2002-01-08,26.5003
2002-01-09,26.4573
2002-01-10,26.1759
2002-01-11,26.1563
2002-01-14,25.6794
2002-01-15,25.437
2002-01-16,24.9327
2002-01-17,25.3354
2002-01-18,25.5973
2002-01-22,25.3901
2002-01-23,25.7028
2002-01-24,26.0312
2002-01-25,26.7779
2002-01-28,27.1102
2002-01-29,26.8404
2002-01-30,27.3603
2002-01-31,27.9037
2002-02-01,27.3095
2002-02-04,26.555
2002-02-05,26.6059
2002-02-06,26.6684
2002-02-07,26.9655
2002-02-08,27.2431
2002-02-11,27.9545
2002-02-12,27.6809
2002-02-13,28.0249
2002-02-14,27.9389
2002-02-15,28.021
2002-02-19,27.7747
2002-02-20,28.4823
2002-02-21,28.8576
2002-02-22,29.5573
2002-02-25,29.1038
2002-02-26,28.9983
2002-02-27,28.967
2002-02-28,28.7676
2002-03-01,29.0452
2002-03-04,30.1984
2002-03-05,29.354
2002-03-06,29.999
2002-03-07,29.9482
2002-03-08,29.9404
2002-03-11,29.9091
2002-03-12,30.0499
2002-03-13,29.827
2002-03-14,29.5495
2002-03-15,29.6159
2002-03-18,29.526
2002-03-19,29.5808
2002-03-20,29.4283
2002-03-21,28.7246
2002-03-22,28.5331
2002-03-25,28.1422
2002-03-26,28.6049
2002-03-27,28.3735
2002-03-28,28.3853
2002-04-01,28.2088
2002-04-02,28.2284
2002-04-03,27.8755
2002-04-04,27.9618
2002-04-05,28.6755
2002-04-08,28.6245
2002-04-09,29.2989
2002-04-10,29.8008
2002-04-11,29.5656
2002-04-12,29.3224
2002-04-15,29.0166
2002-04-16,29.6636
2002-04-17,29.4832
2002-04-18,29.1342
2002-04-19,29.0009
2002-04-22,28.2324
2002-04-23,27.9893
2002-04-24,28.1853
2002-04-25,28.4598
2002-04-26,28.3578
2002-04-29,27.7422
2002-04-30,28.252
2002-05-01,27.9187
2002-05-02,28.5068
2002-05-03,28.6519
2002-05-06,27.4089
2002-05-07,27.4834
2002-05-08,28.3657
2002-05-09,27.8402
2002-05-10,27.5266
2002-05-13,27.6011
2002-05-14,28.3971
2002-05-15,28.9303
2002-05-16,28.6755
2002-05-17,28.601
2002-05-20,28.1422
2002-05-21,27.6716
2002-05-22,27.5069
2002-05-23,28.1932
2002-05-24,28.252
2002-05-28,28.0167
2002-05-29,27.8089
2002-05-30,27.3383
2002-05-31,27.8873
2002-06-03,27.1462
2002-06-04,26.7933
2002-06-05,27.1737
2002-06-06,26.4953
2002-06-07,26.5306
2002-06-10,26.7423
2002-06-11,26.4482
2002-06-12,26.9423
2002-06-13,26.4914
2002-06-14,26.5933
2002-06-17,27.5266
2002-06-18,27.6442
2002-06-19,27.0521
2002-06-20,27.009
2002-06-21,26.7619
2002-06-24,26.9031
2002-06-25,26.66
2002-06-26,26.4793
2002-06-27,27.1245
2002-06-28,27.1284
2002-07-01,26.4951
2002-07-02,26.1725
2002-07-03,26.1292
2002-07-05,26.9868
2002-07-08,26.5344
2002-07-09,26.7665
2002-07-10,25.7279
2002-07-11,25.6099
2002-07-12,25.6689
2002-07-15,25.2873
2002-07-16,23.9891
2002-07-17,24.3747
2002-07-18,23.698
2002-07-19,23.0765
2002-07-22,22.7067
2002-07-23,22.4588
2002-07-24,23.9577
2002-07-25,24.1032
2002-07-26,24.5635
2002-07-29,26.1764
2002-07-30,25.964
2002-07-31,25.8499
2002-08-01,25.3385
2002-08-02,24.0127
2002-08-05,23.7492
2002-08-06,24.4494
2002-08-07,25.0906
2002-08-08,25.7948
2002-08-09,25.9679
2002-08-12,25.8223
2002-08-13,25.5312
2002-08-14,26.1646
2002-08-15,25.9089
2002-08-16,25.846
2002-08-19,26.8098
2002-08-20,26.4557
2002-08-21,26.739
2002-08-22,27.211
2002-08-23,26.4636
2002-08-26,26.8766
2002-08-27,26.916
2002-08-28,26.7429
2002-08-29,26.6013
2002-08-30,26.9002
2002-09-03,25.8696
2002-09-04,25.905
2002-09-05,25.8066
2002-09-06,25.8027
2002-09-09,25.4211
2002-09-10,26.0466
2002-09-11,26.0741
2002-09-12,25.4919
2002-09-13,24.9018
2002-09-16,23.9734
2002-09-17,23.6272
2002-09-18,23.4463
2002-09-19,23.3086
2002-09-20,23.6626
2002-09-23,22.9506
2002-09-24,22.6437
2002-09-25,23.2456
2002-09-26,24.0747
2002-09-27,23.5139
2002-09-30,23.0597
2002-10-01,24.0904
2002-10-02,23.6047
2002-10-03,23.7587
2002-10-04,23.0597
2002-10-07,22.491
2002-10-08,23.0557
2002-10-09,22.0289
2002-10-10,23.0636
2002-10-11,23.6995
2002-10-14,23.3045
2002-10-15,24.6236
2002-10-16,23.1031
2002-10-17,23.7627
2002-10-18,24.3274
2002-10-21,25.2713
2002-10-22,24.4538
2002-10-23,24.5288
2002-10-24,24.5209
2002-10-25,24.6749
2002-10-28,24.1576
2002-10-29,24.1694
2002-10-30,24.4814
2002-10-31,24.2405
2002-11-01,24.6394
2002-11-04,24.8842
2002-11-05,25.3819
2002-11-06,25.5477
2002-11-07,24.7697
2002-11-08,24.9435
2002-11-11,24.2998
2002-11-12,25.0422
2002-11-13,24.6986
2002-11-14,25.5043
2002-11-15,25.7847
2002-11-18,25.3542
2002-11-19,25.2081
2002-11-20,25.3305
2002-11-21,25.9742
2002-11-22,26.1046
2002-11-25,25.919
2002-11-26,25.1962
2002-11-27,26.6101
2002-11-29,26.851
2002-12-02,27.1827
2002-12-03,26.5429
2002-12-04,26.6338
2002-12-05,26.302
2002-12-06,26.7878
2002-12-09,26.1401
2002-12-10,26.1243
2002-12-11,26.3376
2002-12-12,26.3336
2002-12-13,25.6978
2002-12-16,26.227
2002-12-17,25.9624
2002-12-18,25.6859
2002-12-19,25.4411
2002-12-20,26.0058
2002-12-23,26.1085
2002-12-24,26.0058
2002-12-26,26.0058
2002-12-27,25.5184
2002-12-30,25.7007
2002-12-31,25.6809
2003-01-02,26.8064
2003-01-03,26.4299
2003-01-06,26.9372
2003-01-07,26.422
2003-01-08,25.8553
2003-01-09,26.1842
2003-01-10,26.0336
2003-01-13,25.8355
2003-01-14,25.8275
2003-01-15,25.5897
2003-01-16,25.6888
2003-01-17,25.4074
2003-01-21,24.8922
2003-01-22,24.3136
2003-01-23,25.5303
2003-01-24,24.8486
2003-01-27,24.0758
2003-01-28,24.274
2003-01-29,24.8328
2003-01-30,23.8222
2003-01-31,24.0957
2003-02-03,24.381
2003-02-04,24.056
2003-02-05,23.9371
2003-02-06,23.6875
2003-02-07,23.3783
2003-02-10,23.3823
2003-02-11,23.3347
2003-02-12,23.1921
2003-02-13,22.6769
2003-02-14,22.986
2003-02-18,23.521
2003-02-19,23.3823
2003-02-20,23.2713
2003-02-21,23.632
2003-02-24,22.9979
2003-02-25,23.303
2003-02-26,23.1485
2003-02-27,23.3783
2003-02-28,23.6003
2003-03-03,23.624
2003-03-04,23.1485
2003-03-05,23.3704
2003-03-06,22.8473
2003-03-07,23.2317
2003-03-10,22.3915
2003-03-11,21.9714
2003-03-12,21.8367
2003-03-13,22.9899
2003-03-14,22.5897
2003-03-17,23.9173
2003-03-18,24.056
2003-03-19,23.9688
2003-03-20,24.0243
2003-03-21,24.8011
2003-03-24,23.8935
2003-03-25,23.9847
2003-03-26,23.8499
2003-03-27,23.7742
2003-03-28,23.2332
2003-03-31,23.1218
2003-04-01,23.3684
2003-04-02,24.5818
2003-04-03,24.5102
2003-04-04,24.5619
2003-04-07,24.725
2003-04-08,24.733
2003-04-09,24.4187
2003-04-10,24.6932
2003-04-11,24.6852
2003-04-14,25.3775
2003-04-15,25.2064
2003-04-16,25.0393
2003-04-17,25.2024
2003-04-21,25.087
2003-04-22,25.4889
2003-04-23,25.5963
2003-04-24,25.3616
2003-04-25,24.904
2003-04-28,25.7236
2003-04-29,25.6361
2003-04-30,25.4411
2003-05-01,25.3377
2003-05-02,25.648
2003-05-05,25.6281
2003-05-06,25.823
2003-05-07,25.5804
2003-05-08,25.3456
2003-05-09,25.7514
2003-05-12,26.3601
2003-05-13,26.0578
2003-05-14,25.7793
2003-05-15,26.2368
2003-05-16,26.006
2003-05-19,25.2621
2003-05-20,25.2263
2003-05-21,24.8643
2003-05-22,25.1905
2003-05-23,24.904
2003-05-27,25.2223
2003-05-28,24.912
2003-05-29,24.4664
2003-05-30,24.6773
2003-06-02,25.3178
2003-06-03,25.4769
2003-06-04,25.6201
2003-06-05,25.8509
2003-06-06,25.9662
2003-06-09,25.6599
2003-06-10,25.7435
2003-06-11,26.3203
2003-06-12,26.8375
2003-06-13,26.2646
2003-06-16,26.9608
2003-06-17,27.0802
2003-06-18,26.6147
2003-06-19,26.3283
2003-06-20,26.4954
2003-06-23,26.3442
2003-06-24,26.4158
2003-06-25,26.4078
2003-06-26,26.6552
2003-06-27,26.26
2003-06-30,26.256
2003-07-01,26.2001
2003-07-02,26.4756
2003-07-03,26.1962
2003-07-07,26.6033
2003-07-08,26.8149
2003-07-09,26.5435
2003-07-10,26.1882
2003-07-11,26.3758
2003-07-14,26.2041
2003-07-15,26.0045
2003-07-16,26.0405
2003-07-17,26.5834
2003-07-18,26.9706
2003-07-21,26.9107
2003-07-22,26.4516
2003-07-23,27.0065
2003-07-24,26.5395
2003-07-25,27.1982
2003-07-28,27.2261
2003-07-29,27.4856
2003-07-30,27.5455
2003-07-31,27.793
2003-08-01,27.6692
2003-08-04,27.6692
2003-08-05,27.4137
2003-08-06,27.2501
2003-08-07,27.1782
2003-08-08,27.282
2003-08-11,27.3698
2003-08-12,27.8329
2003-08-13,27.9527
2003-08-14,28.4437
2003-08-15,28.4836
2003-08-18,28.8349
2003-08-19,28.6992
2003-08-20,28.6233
2003-08-21,28.9866
2003-08-22,28.5675
2003-08-25,28.5635
2003-08-26,28.4557
2003-08-27,28.3319
2003-08-28,28.5235
2003-08-29,28.803
2003-09-02,29.5096
2003-09-03,29.2381
2003-09-04,29.2381
2003-09-05,28.9188
2003-09-08,29.0146
2003-09-09,28.783
2003-09-10,28.1483
2003-09-11,28.3958
2003-09-12,28.4916
2003-09-15,28.3519
2003-09-16,28.7391
2003-09-17,28.4317
2003-09-18,28.7311
2003-09-19,28.803
2003-09-22,28.2361
2003-09-23,28.1483
2003-09-24,27.5375
2003-09-25,27.2581
2003-09-26,27.0577
2003-09-29,27.1499
2003-09-30,26.561
2003-10-01,27.0818
2003-10-02,27.4904
2003-10-03,27.7148
2003-10-06,27.7588
2003-10-07,27.6787
2003-10-08,27.7108
2003-10-09,27.9031
2003-10-10,28.0913
2003-10-13,28.4439
2003-10-14,28.3758
2003-10-15,28.4639
2003-10-16,28.4639
2003-10-17,28.6322
2003-10-20,28.8445
2003-10-21,28.7323
2003-10-22,28.4239
2003-10-23,28.488
2003-10-24,28.3918
2003-10-27,28.6762
2003-10-28,28.4639
2003-10-29,28.8485
2003-10-30,29.3453
2003-10-31,29.3934
2003-11-03,29.7299
2003-11-04,29.7739
2003-11-05,29.8861
2003-11-06,30.3028
2003-11-07,30.2106
2003-11-10,30.0183
2003-11-11,30.1105
2003-11-12,30.5752
2003-11-13,30.5271
2003-11-14,30.3508
2003-11-17,30.2266
2003-11-18,29.9863
2003-11-19,30.1465
2003-11-20,29.8781
2003-11-21,29.7259
2003-11-24,30.1986
2003-11-25,31.3444
2003-11-26,31.1961
2003-11-28,31.2883
2003-12-01,32.0535
2003-12-02,31.9012
2003-12-03,32.2057
2003-12-04,32.4941
2003-12-05,32.5703
2003-12-08,32.7145
2003-12-09,33.1031
2003-12-10,32.6624
2003-12-11,32.7345
2003-12-12,32.6424
2003-12-15,32.7826
2003-12-16,32.7666
2003-12-17,32.7666
2003-12-18,33.4516
2003-12-19,33.1592
2003-12-22,33.5518
2003-12-23,33.6199
2003-12-24,33.3274
2003-12-26,33.5277
2003-12-29,33.7929
2003-12-30,33.6242
2003-12-31,33.6884
2004-01-02,33.1702
2004-01-05,33.7326
2004-01-06,33.7286
2004-01-07,33.5518
2004-01-08,33.6081
2004-01-09,33.1541
2004-01-12,33.5679
2004-01-13,33.6041
2004-01-14,33.9576
2004-01-15,34.042
2004-01-16,33.9496
2004-01-20,32.5796
2004-01-21,32.9452
2004-01-22,32.8327
2004-01-23,32.9934
2004-01-26,32.7925
2004-01-27,32.451
2004-01-28,31.9046
2004-01-29,31.1734
2004-01-30,31.4225
2004-02-02,31.2899
2004-02-03,31.3542
2004-02-04,30.9363
2004-02-05,31.4426
2004-02-06,31.9207
2004-02-09,31.5028
2004-02-10,31.6394
2004-02-11,32.1175
2004-02-12,32.1015
2004-02-13,31.6997
2004-02-17,31.8242
2004-02-18,31.6756
2004-02-19,31.7358
2004-02-20,31.8845
2004-02-23,31.9046
2004-02-24,31.551
2004-02-25,31.8644
2004-02-26,32.005
2004-02-27,31.9849
2004-03-01,32.1015
2004-03-02,31.8283
2004-03-03,31.8202
2004-03-04,31.6595
2004-03-05,31.6836
2004-03-08,31.0327
2004-03-09,30.6832
2004-03-10,30.0364
2004-03-11,29.4699
2004-03-12,30.3738
2004-03-15,30.5747
2004-03-16,30.9162
2004-03-17,31.3863
2004-03-18,31.2336
2004-03-19,30.9604
2004-03-22,30.4663
2004-03-23,30.3538
2004-03-24,30.2855
2004-03-25,31.0408
2004-03-26,31.0528
2004-03-29,31.46
2004-03-30,31.7381
2004-03-31,31.9235
2004-04-01,31.7905
2004-04-02,32.0928
2004-04-05,32.7053
2004-04-06,32.8182
2004-04-07,32.4152
2004-04-08,32.5119
2004-04-12,32.6368
2004-04-13,32.2137
2004-04-14,32.4635
2004-04-15,33.064
2004-04-16,33.4993
2004-04-19,33.5436
2004-04-20,33.7371
2004-04-21,34.4746
2004-04-22,35.9457
2004-04-23,35.5386
2004-04-26,35.0912
2004-04-27,35.5023
2004-04-28,34.7446
2004-04-29,34.7245
2004-04-30,34.7205
2004-05-03,35.2565
2004-05-04,35.2847
2004-05-05,35.3008
2004-05-06,35.0792
2004-05-07,34.5633
2004-05-10,33.7572
2004-05-11,33.9426
2004-05-12,34.4988
2004-05-13,34.0111
2004-05-14,34.527
2004-05-17,34.1562
2004-05-18,34.4666
2004-05-19,34.523
2004-05-20,34.797
2004-05-21,35.1678
2004-05-24,35.6313
2004-05-25,36.3567
2004-05-26,36.1633
2004-05-27,36.2036
2004-05-28,36.2399
2004-06-01,36.7557
2004-06-02,37.5215
2004-06-03,37.4046
2004-06-04,37.2192
2004-06-07,37.8963
2004-06-08,37.989
2004-06-09,38.0615
2004-06-10,38.0373
2004-06-14,37.4409
2004-06-15,37.1386
2004-06-16,37.1305
2004-06-17,37.2756
2004-06-18,37.4248
2004-06-21,37.187
2004-06-22,37.4207
2004-06-23,38.0091
2004-06-24,38.2026
2004-06-25,38.4283
2004-06-28,38.4604
2004-06-29,38.6463
2004-06-30,38.7675
2004-07-01,38.2746
2004-07-02,37.8584
2004-07-06,37.4543
2004-07-07,37.418
2004-07-08,37.216
2004-07-09,37.7493
2004-07-12,37.519
2004-07-13,37.4907
2004-07-14,37.5271
2004-07-15,37.4948
2004-07-16,37.8705
2004-07-19,37.4301
2004-07-20,37.2321
2004-07-21,34.9897
2004-07-22,35.3291
2004-07-23,35.1069
2004-07-26,35.4948
2004-07-27,35.818
2004-07-28,36.214
2004-07-29,36.5049
2004-07-30,36.5857
2004-08-02,36.4806
2004-08-03,36.4564
2004-08-04,36.7998
2004-08-05,36.1331
2004-08-06,35.3978
2004-08-09,35.5271
2004-08-10,36.1049
2004-08-11,36.1938
2004-08-12,35.6806
2004-08-13,35.519
2004-08-16,36.1857
2004-08-17,36.319
2004-08-18,36.7352
2004-08-19,36.3715
2004-08-20,36.6624
2004-08-23,36.5655
2004-08-24,36.5897
2004-08-25,36.9978
2004-08-26,37.0705
2004-08-27,37.1554
2004-08-30,36.7958
2004-08-31,36.9089
2004-09-01,37.0544
2004-09-02,37.4422
2004-09-03,37.616
2004-09-07,37.4746
2004-09-08,37.0544
2004-09-09,36.2786
2004-09-10,35.9554
2004-09-13,36.1614
2004-09-14,35.717
2004-09-15,35.7533
2004-09-16,36.7392
2004-09-17,37.1432
2004-09-20,36.9533
2004-09-21,37.3937
2004-09-22,36.9816
2004-09-23,36.6422
2004-09-24,36.9291
2004-09-27,36.6422
2004-09-28,37.0639
2004-09-29,37.5016
2004-09-30,37.8096
2004-10-01,38.3932
2004-10-04,38.2554
2004-10-05,38.0771
2004-10-06,38.604
2004-10-07,38.2311
2004-10-08,37.8096
2004-10-11,37.838
2004-10-12,37.534
2004-10-13,36.8936
2004-10-14,36.6383
2004-10-15,36.9788
2004-10-18,36.7518
2004-10-19,36.0344
2004-10-20,36.0993
2004-10-21,36.383
2004-10-22,36.1398
2004-10-25,36.2209
2004-10-26,36.5735
2004-10-27,36.841
2004-10-28,36.8936
2004-10-29,37.4529
2004-11-01,37.1652
2004-11-02,36.8774
2004-11-03,37.4084
2004-11-04,38.3405
2004-11-05,38.377
2004-11-08,38.3446
2004-11-09,38.2797
2004-11-10,38.0933
2004-11-11,38.7094
2004-11-12,38.8877
2004-11-15,38.7418
2004-11-16,38.1987
2004-11-17,38.3324
2004-11-18,38.8107
2004-11-19,38.4743
2004-11-22,38.9039
2004-11-23,38.681
2004-11-24,38.758
2004-11-26,38.7945
2004-11-29,38.5797
2004-11-30,38.223
2004-12-01,38.7215
2004-12-02,38.531
2004-12-03,38.531
2004-12-06,38.454
2004-12-07,38.1541
2004-12-08,38.3
2004-12-09,38.3243
2004-12-10,38.0001
2004-12-13,38.0568
2004-12-14,37.8744
2004-12-15,37.3557
2004-12-16,37.2219
2004-12-17,37.1855
2004-12-20,37.5786
2004-12-21,37.761
2004-12-22,37.8177
2004-12-23,38.0122
2004-12-27,37.7934
2004-12-28,37.838
2004-12-29,37.8217
2004-12-30,37.7891
2004-12-31,37.6713
2005-01-03,37.4355
2005-01-04,37.216
2005-01-05,37.4802
2005-01-06,37.0737
2005-01-07,36.9883
2005-01-10,37.0574
2005-01-11,36.9477
2005-01-12,36.9843
2005-01-13,36.6794
2005-01-14,37.2404
2005-01-18,37.1469
2005-01-19,37.094
2005-01-20,36.3257
2005-01-21,35.6672
2005-01-24,35.5208
2005-01-25,35.5696
2005-01-26,35.3785
2005-01-27,35.0615
2005-01-28,35.2037
2005-01-31,35.3298
2005-02-01,35.6468
2005-02-02,35.5737
2005-02-03,35.4233
2005-02-04,35.4924
2005-02-07,35.4802
2005-02-08,35.7363
2005-02-09,35.3257
2005-02-10,35.846
2005-02-11,36.2078
2005-02-14,36.0818
2005-02-15,35.8989
2005-02-16,36.1021
2005-02-17,37.09
2005-02-18,37.1753
2005-02-22,36.3867
2005-02-23,36.6387
2005-02-24,36.5778
2005-02-25,36.8176
2005-02-28,36.5412
2005-03-01,37.1021
2005-03-02,36.8989
2005-03-03,37.1347
2005-03-04,38.0574
2005-03-07,37.8664
2005-03-08,37.7444
2005-03-09,37.533
2005-03-10,37.8867
2005-03-11,37.8461
2005-03-14,37.781
2005-03-15,38.3664
2005-03-16,37.9924
2005-03-17,37.8501
2005-03-18,37.7241
2005-03-21,37.5005
2005-03-22,37.3379
2005-03-23,37.3948
2005-03-24,37.2363
2005-03-28,36.907
2005-03-29,36.1201
2005-03-30,36.5564
2005-03-31,36.4341
2005-04-01,36.377
2005-04-04,36.43
2005-04-05,36.8989
2005-04-06,36.7521
2005-04-07,37.1966
2005-04-08,36.8786
2005-04-11,36.7807
2005-04-12,37.2252
2005-04-13,36.3485
2005-04-14,35.5574
2005-04-15,34.697
2005-04-18,35.1904
2005-04-19,35.7817
2005-04-20,35.117
2005-04-21,35.2719
2005-04-22,34.7378
2005-04-25,34.9947
2005-04-26,34.2892
2005-04-27,34.4605
2005-04-28,33.7265
2005-04-29,34.1547
2005-05-02,34.277
2005-05-03,34.3626
2005-05-04,34.8683
2005-05-05,34.6603
2005-05-06,34.7418
2005-05-09,34.7011
2005-05-10,34.171
2005-05-11,34.4768
2005-05-12,34.1017
2005-05-13,33.4451
2005-05-16,33.9834
2005-05-17,34.4564
2005-05-18,34.7459
2005-05-19,34.4727
2005-05-20,34.1832
2005-05-23,34.7989
2005-05-24,34.6603
2005-05-25,34.538
2005-05-26,34.6929
2005-05-27,34.8886
2005-05-31,34.4605
2005-06-01,34.962
2005-06-02,34.905
2005-06-03,34.7459
2005-06-06,34.6521
2005-06-07,34.909
2005-06-08,34.2933
2005-06-09,33.6409
2005-06-10,33.2331
2005-06-13,33.6409
2005-06-14,33.6368
2005-06-15,33.6409
2005-06-16,33.7836
2005-06-17,34.069
2005-06-20,34.1384
2005-06-21,34.0405
2005-06-22,33.6164
2005-06-23,33.3636
2005-06-24,32.915
2005-06-27,32.6622
2005-06-28,33.2148
2005-06-29,33.1411
2005-06-30,32.5928
2005-07-01,32.8178
2005-07-05,33.2884
2005-07-06,32.9651
2005-07-07,33.0429
2005-07-08,33.7263
2005-07-11,33.6853
2005-07-12,33.3784
2005-07-13,33.6772
2005-07-14,33.9636
2005-07-15,33.9677
2005-07-18,33.7181
2005-07-19,34.07
2005-07-20,34.7288
2005-07-21,34.471
2005-07-22,35.0889
2005-07-25,35.0357
2005-07-26,35.1298
2005-07-27,35.1912
2005-07-28,35.3631
2005-07-29,35.0684
2005-08-01,35.0193
2005-08-02,35.3344
2005-08-03,35.4367
2005-08-04,35.228
2005-08-05,35.2894
2005-08-08,35.1257
2005-08-09,35.2117
2005-08-10,35.1707
2005-08-11,35.3917
2005-08-12,35.5636
2005-08-15,35.6822
2005-08-16,35.3631
2005-08-17,35.3794
2005-08-18,35.1585
2005-08-19,35.1053
2005-08-22,35.003
2005-08-23,34.8147
2005-08-24,34.6142
2005-08-25,34.426
2005-08-26,34.3073
2005-08-29,34.5569
2005-08-30,33.9718
2005-08-31,34.4587
2005-09-01,34.9907
2005-09-02,35.0562
2005-09-06,35.3631
2005-09-07,35.1953
2005-09-08,34.6142
2005-09-09,34.647
2005-09-12,34.4219
2005-09-13,34.0004
2005-09-14,33.6935
2005-09-15,33.628
2005-09-16,33.4275
2005-09-19,33.0429
2005-09-20,32.871
2005-09-21,32.2613
2005-09-22,32.5437
2005-09-23,32.8342
2005-09-26,32.4045
2005-09-27,32.7728
2005-09-28,32.9618
2005-09-29,33.4877
2005-09-30,33.7959
2005-10-03,33.6808
2005-10-04,33.2535
2005-10-05,32.8714
2005-10-06,32.7851
2005-10-07,32.8591
2005-10-10,32.8262
2005-10-11,32.8714
2005-10-12,33.007
2005-10-13,32.9618
2005-10-14,33.3727
2005-10-17,33.348
2005-10-18,33.3891
2005-10-19,33.8822
2005-10-20,33.2576
2005-10-21,32.9536
2005-10-24,33.2617
2005-10-25,33.3357
2005-10-26,33.9192
2005-10-27,33.763
2005-10-28,34.5725
2005-10-31,34.8231
2005-11-01,34.515
2005-11-02,34.7163
2005-11-03,34.8889
2005-11-04,34.5971
2005-11-07,34.9423
2005-11-08,34.9423
2005-11-09,34.782
2005-11-10,35.0245
2005-11-11,35.3244
2005-11-14,35.2751
2005-11-15,35.8134
2005-11-16,35.6038
2005-11-17,35.8175
2005-11-18,35.8257
2005-11-21,35.8545
2005-11-22,35.8421
2005-11-23,35.9901
2005-11-25,35.8462
2005-11-28,36.1873
2005-11-29,36.0024
2005-11-30,36.2859
2005-12-01,36.8283
2005-12-02,36.8242
2005-12-05,36.5653
2005-12-06,36.3229
2005-12-07,35.9531
2005-12-08,35.649
2005-12-09,36.1133
2005-12-12,36.4133
2005-12-13,36.5283
2005-12-14,37.083
2005-12-15,36.857
2005-12-16,36.968
2005-12-19,36.7091
2005-12-20,36.6228
2005-12-21,37.0666
2005-12-22,37.0954
2005-12-23,37.2762
2005-12-27,36.6228
2005-12-28,36.8787
2005-12-29,36.7591
2005-12-30,36.3137
2006-01-03,36.9034
2006-01-04,37.0271
2006-01-05,36.6642
2006-01-06,37.1839
2006-01-09,37.056
2006-01-10,36.8787
2006-01-11,37.0766
2006-01-12,37.1962
2006-01-13,36.9117
2006-01-17,37.0601
2006-01-18,37.0395
2006-01-19,36.8745
2006-01-20,35.7074
2006-01-23,36.1157
2006-01-24,36.0909
2006-01-25,35.8187
2006-01-26,35.5878
2006-01-27,36.1611
2006-01-30,36.4745
2006-01-31,34.7836
2006-02-01,34.6433
2006-02-02,35.2826
2006-02-03,34.8908
2006-02-06,34.965
2006-02-07,34.8619
2006-02-08,34.9815
2006-02-09,35.0764
2006-02-10,35.1341
2006-02-13,35.4641
2006-02-14,36.0744
2006-02-15,36.4539
2006-02-16,36.3301
2006-02-17,36.5034
2006-02-21,36.2064
2006-02-22,36.3219
2006-02-23,35.8682
2006-02-24,35.7156
2006-02-27,35.7858
2006-02-28,35.4269
2006-03-01,36.3879
2006-03-02,36.5364
2006-03-03,36.7302
2006-03-06,37.0766
2006-03-07,37.4354
2006-03-08,37.0395
2006-03-09,37.0849
2006-03-10,37.7571
2006-03-13,38.1201
2006-03-14,38.7263
2006-03-15,39.877
2006-03-16,40.376
2006-03-17,40.2811
2006-03-20,39.7821
2006-03-21,39.4151
2006-03-22,40.5451
2006-03-23,40.3677
2006-03-24,40.145
2006-03-27,39.9306
2006-03-28,39.943
2006-03-29,39.5416
2006-03-30,39.4754
2006-03-31,39.852
2006-04-03,39.9141
2006-04-04,39.9927
2006-04-05,40.5389
2006-04-06,39.5209
2006-04-07,39.554
2006-04-10,39.6658
2006-04-11,39.3637
2006-04-12,39.6078
2006-04-13,39.5706
2006-04-17,39.8644
2006-04-18,40.7624
2006-04-19,41.019
2006-04-20,42.0163
2006-04-21,42.4715
2006-04-24,42.7571
2006-04-25,42.4633
2006-04-26,43.1668
2006-04-27,42.6867
2006-04-28,42.5171
2006-05-01,42.4964
2006-05-02,42.6371
2006-05-03,43.175
2006-05-04,43.0385
2006-05-05,43.8082
2006-05-08,44.1144
2006-05-09,43.8372
2006-05-10,43.8082
2006-05-11,43.7048
2006-05-12,42.5626
2006-05-15,42.277
2006-05-16,42.5253
2006-05-17,41.4618
2006-05-18,41.1349
2006-05-19,41.3832
2006-05-22,40.8493
2006-05-23,41.0976
2006-05-24,41.11
2006-05-25,41.6397
2006-05-26,41.6397
2006-05-30,40.7376
2006-05-31,41.1183
2006-06-01,41.6977
2006-06-02,41.4411
2006-06-05,40.7624
2006-06-06,40.7045
2006-06-07,40.1499
2006-06-08,39.7527
2006-06-09,40.2824
2006-06-12,39.612
2006-06-13,39.1816
2006-06-14,39.0988
2006-06-15,40.4893
2006-06-16,39.8768
2006-06-19,39.2312
2006-06-20,39.405
2006-06-21,39.6202
2006-06-22,39.314
2006-06-23,39.4133
2006-06-26,39.4381
2006-06-27,38.9084
2006-06-28,38.846
2006-06-29,39.6434
2006-06-30,39.4939
2006-07-03,39.4607
2006-07-05,38.954
2006-07-06,38.5802
2006-07-07,37.8327
2006-07-10,37.9988
2006-07-11,37.9656
2006-07-12,37.5503
2006-07-13,36.9772
2006-07-14,36.7198
2006-07-17,35.9805
2006-07-18,35.6815
2006-07-19,36.7447
2006-07-20,36.3211
2006-07-21,35.9639
2006-07-24,36.4789
2006-07-25,37.0271
2006-07-26,36.9025
2006-07-27,37.7081
2006-07-28,37.8826
2006-07-31,38.0155
2006-08-01,37.4008
2006-08-02,37.7829
2006-08-03,38.5304
2006-08-04,38.5553
2006-08-07,38.5387
2006-08-08,37.5503
2006-08-09,36.5703
2006-08-10,37.0271
2006-08-11,36.7779
2006-08-14,36.7115
2006-08-15,37.2679
2006-08-16,37.6583
2006-08-17,37.6168
2006-08-18,37.351
2006-08-21,36.8443
2006-08-22,36.7198
2006-08-23,36.6118
2006-08-24,36.3377
2006-08-25,36.155
2006-08-28,36.3128
2006-08-29,36.454
2006-08-30,36.4457
2006-08-31,36.4291
2006-09-01,36.6699
2006-09-05,36.6782
2006-09-06,36.0304
2006-09-07,36.1384
2006-09-08,36.4789
2006-09-11,36.3709
2006-09-12,36.2796
2006-09-13,36.4623
2006-09-14,37.0769
2006-09-15,36.1384
2006-09-18,36.5038
2006-09-19,37.0188
2006-09-20,37.2264
2006-09-21,36.4706
2006-09-22,36.5536
2006-09-25,36.9772
2006-09-26,37.6749
2006-09-27,37.8084
2006-09-28,37.8752
2006-09-29,37.458
2006-10-02,37.7584
2006-10-03,37.9086
2006-10-04,38.4676
2006-10-05,39.6025
2006-10-06,39.8361
2006-10-09,39.7777
2006-10-10,40.2617
2006-10-11,40.5287
2006-10-12,40.8541
2006-10-13,41.0544
2006-10-16,41.6802
2006-10-17,41.3214
2006-10-18,39.4106
2006-10-19,38.9099
2006-10-20,38.7096
2006-10-23,39.227
2006-10-24,39.2353
2006-10-25,38.9266
2006-10-26,39.6859
2006-10-27,39.227
2006-10-30,39.9446
2006-10-31,39.9446
2006-11-01,39.7944
2006-11-02,39.3772
2006-11-03,39.0434
2006-11-06,39.3355
2006-11-07,39.7026
2006-11-08,39.9863
2006-11-09,39.227
2006-11-10,39.0768
2006-11-13,39.2687
2006-11-14,39.2437
2006-11-15,39.3688
2006-11-16,39.4189
2006-11-17,39.3021
2006-11-20,38.8014
2006-11-21,39.252
2006-11-22,39.6776
2006-11-24,38.9099
2006-11-27,39.1102
2006-11-28,38.9433
2006-11-29,39.2687
2006-11-30,39.4273
2006-12-01,39.0601
2006-12-04,39.4773
2006-12-05,39.6275
2006-12-06,39.5357
2006-12-07,39.4857
2006-12-08,39.6359
2006-12-11,38.985
2006-12-12,39.1018
2006-12-13,38.96
2006-12-14,40.0114
2006-12-15,39.1185
2006-12-18,39.4106
2006-12-19,39.1352
2006-12-20,38.9016
2006-12-21,38.5511
2006-12-22,38.4843
2006-12-26,38.6512
2006-12-27,39.1209
2006-12-28,38.9701
2006-12-29,38.6767
2007-01-03,38.4755
2007-01-04,38.7437
2007-01-05,38.5509
2007-01-08,38.7186
2007-01-09,38.9784
2007-01-10,39.2467
2007-01-11,39.8418
2007-01-12,39.8251
2007-01-16,40.0095
2007-01-17,39.9173
2007-01-18,39.7245
2007-01-19,39.8251
2007-01-22,39.4478
2007-01-23,39.7915
2007-01-24,39.7245
2007-01-25,39.4562
2007-01-26,39.3724
2007-01-29,39.364
2007-01-30,42.038
2007-01-31,42.7589
2007-02-01,43.4379
2007-02-02,43.178
2007-02-05,43.4128
2007-02-06,43.505
2007-02-07,43.6055
2007-02-08,43.4211
2007-02-09,43.0355
2007-02-12,43.287
2007-02-13,43.5469
2007-02-14,44.251
2007-02-15,44.536
2007-02-16,44.0498
2007-02-20,44.7288
2007-02-21,44.7539
2007-02-22,44.3013
2007-02-23,44.2594
2007-02-26,44.1085
2007-02-27,43.2283
2007-02-28,43.287
2007-03-01,43.1697
2007-03-02,42.7002
2007-03-05,42.0296
2007-03-06,42.3817
2007-03-07,42.5913
2007-03-08,42.8511
2007-03-09,42.6751
2007-03-12,42.7338
2007-03-13,41.5351
2007-03-14,41.4932
2007-03-15,41.8368
2007-03-16,42.2224
2007-03-19,42.9601
2007-03-20,42.9098
2007-03-21,44.1169
2007-03-22,44.1504
2007-03-23,44.36
2007-03-26,43.966
2007-03-27,43.6391
2007-03-28,43.252
2007-03-29,43.4119
2007-03-30,43.4035
2007-04-02,43.5381
2007-04-03,43.9
2007-04-04,44.1189
2007-04-05,44.0515
2007-04-09,44.1525
2007-04-10,44.4134
2007-04-11,43.9674
2007-04-12,43.6139
2007-04-13,44.0094
2007-04-16,44.5986
2007-04-17,45.0278
2007-04-18,43.5213
2007-04-19,43.151
2007-04-20,43.5129
2007-04-23,43.496
2007-04-24,43.2351
2007-04-25,43.5129
2007-04-26,43.2772
2007-04-27,43.7738
2007-04-30,43.151
2007-05-01,43.353
2007-05-02,44.102
2007-05-03,44.2451
2007-05-04,44.6575
2007-05-07,44.3714
2007-05-08,44.2451
2007-05-09,44.3629
2007-05-10,43.6391
2007-05-11,44.0263
2007-05-14,44.102
2007-05-15,43.7738
2007-05-16,43.6812
2007-05-17,43.4203
2007-05-18,43.2941
2007-05-21,43.6812
2007-05-22,45.2467
2007-05-23,44.7753
2007-05-24,44.1525
2007-05-25,44.405
2007-05-29,44.3966
2007-05-30,44.4387
2007-05-31,44.4134
2007-06-01,44.2114
2007-06-04,44.0347
2007-06-05,43.4792
2007-06-06,43.5381
2007-06-07,43.1257
2007-06-08,43.757
2007-06-11,44.2619
2007-06-12,44.5229
2007-06-13,46.6522
2007-06-14,46.6943
2007-06-15,46.526
2007-06-18,46.5175
2007-06-19,46.5849
2007-06-20,46.5933
2007-06-21,46.972
2007-06-22,46.425
2007-06-25,46.1641
2007-06-26,45.6254
2007-06-27,46.2931
2007-06-28,45.972
2007-06-29,45.7354
2007-07-02,46.9606
2007-07-03,47.0451
2007-07-05,46.9014
2007-07-06,47.1211
2007-07-09,47.89
2007-07-10,46.724
2007-07-11,47.5605
2007-07-12,48.5659
2007-07-13,48.9039
2007-07-16,48.9715
2007-07-17,49.208
2007-07-18,48.9799
2007-07-19,48.963
2007-07-20,48.2195
2007-07-23,48.1519
2007-07-24,47.9153
2007-07-25,47.4422
2007-07-26,46.9352
2007-07-27,46.2339
2007-07-30,46.6648
2007-07-31,46.5043
2007-08-01,47.2816
2007-08-02,47.3408
2007-08-03,46.2508
2007-08-06,46.5297
2007-08-07,46.3269
2007-08-08,46.8592
2007-08-09,45.9805
2007-08-10,46.2339
2007-08-13,45.7608
2007-08-14,45.4313
2007-08-15,43.902
2007-08-16,44.5694
2007-08-17,44.6793
2007-08-20,46.1579
2007-08-21,46.3438
2007-08-22,48.4392
2007-08-23,47.7717
2007-08-24,48.0843
2007-08-27,49.1574
2007-08-28,47.3323
2007-08-29,48.6419
2007-08-30,48.7518
2007-08-31,49.1236
2007-09-04,49.3179
2007-09-05,48.7602
2007-09-06,48.5828
2007-09-07,47.966
2007-09-10,47.4506
2007-09-11,47.8139
2007-09-12,47.1549
2007-09-13,47.1464
2007-09-14,47.9491
2007-09-17,48.2871
2007-09-18,48.8447
2007-09-19,49.0053
2007-09-20,48.7602
2007-09-21,48.8701
2007-09-24,48.7264
2007-09-25,48.9123
2007-09-26,49.8633
2007-09-27,50.5425
2007-09-28,50.6784
2007-10-01,49.6171
2007-10-02,49.4982
2007-10-03,49.4133
2007-10-04,49.6256
2007-10-05,50.6699
2007-10-08,50.5595
2007-10-09,50.6869
2007-10-10,50.3472
2007-10-11,50.6784
2007-10-12,50.9161
2007-10-15,50.6104
2007-10-16,49.668
2007-10-17,48.8954
2007-10-18,48.6492
2007-10-19,47.8087
2007-10-22,47.953
2007-10-23,48.0549
2007-10-24,47.9869
2007-10-25,48.1652
2007-10-26,48.2841
2007-10-29,48.403
2007-10-30,48.0379
2007-10-31,48.6237
2007-11-01,48.0549
2007-11-02,48.0973
2007-11-05,48.0294
2007-11-06,48.4879
2007-11-07,47.6813
2007-11-08,47.7832
2007-11-09,46.9511
2007-11-12,46.5351
2007-11-13,47.2568
2007-11-14,47.0615
2007-11-15,46.4672
2007-11-16,46.1785
2007-11-19,45.8814
2007-11-20,45.7625
2007-11-21,45.8474
2007-11-23,46.1021
2007-11-26,45.8474
2007-11-27,47.1125
2007-11-28,48.1483
2007-11-29,47.5285
2007-11-30,47.0955
2007-12-03,46.2889
2007-12-04,46.2719
2007-12-05,47.2058
2007-12-06,48.2501
2007-12-07,48.1652
2007-12-10,48.8699
2007-12-11,47.503
2007-12-12,47.4351
2007-12-13,48.0039
2007-12-14,47.5115
2007-12-17,44.5824
2007-12-18,44.0135
2007-12-19,44.5144
2007-12-20,44.6757
2007-12-21,46.0172
2007-12-24,46.3568
2007-12-26,46.7898
2007-12-27,46.0648
2007-12-28,46.1501
2007-12-31,45.7063
2008-01-02,44.614
2008-01-03,44.1105
2008-01-04,43.0353
2008-01-07,42.3611
2008-01-08,40.4155
2008-01-09,40.5264
2008-01-10,41.8662
2008-01-11,40.8763
2008-01-14,41.3968
2008-01-15,40.7056
2008-01-16,40.7568
2008-01-17,39.7669
2008-01-18,40.2448
2008-01-22,41.2006
2008-01-23,42.2929
2008-01-24,42.8732
2008-01-25,42.694
2008-01-28,42.7366
2008-01-29,43.206
2008-01-30,42.2331
2008-01-31,43.0353
2008-02-01,43.462
2008-02-04,43.5047
2008-02-05,42.3611
2008-02-06,42.0881
2008-02-07,41.7297
2008-02-08,41.4395
2008-02-11,41.4566
2008-02-12,41.8065
2008-02-13,42.6769
2008-02-14,41.7809
2008-02-15,41.7553
2008-02-19,41.6187
2008-02-20,42.0027
2008-02-21,41.2432
2008-02-22,41.3627
2008-02-25,41.7809
2008-02-26,42.0539
2008-02-27,42.2587
2008-02-28,42.6684
2008-02-29,41.8235
2008-03-03,41.9174
2008-03-04,41.3371
2008-03-05,41.2091
2008-03-06,40.7568
2008-03-07,40.1851
2008-03-10,39.417
2008-03-11,40.7141
2008-03-12,40.552
2008-03-13,40.7568
2008-03-14,39.9376
2008-03-17,40.6885
2008-03-18,41.8235
2008-03-19,40.8592
2008-03-20,41.2944
2008-03-24,42.1222
2008-03-25,42.6001
2008-03-26,41.8491
2008-03-27,41.5315
2008-03-28,41.0852
2008-03-31,41.4628
2008-04-01,43.2308
2008-04-02,43.2394
2008-04-03,42.9733
2008-04-04,43.6342
2008-04-07,43.6256
2008-04-08,42.8017
2008-04-09,42.5013
2008-04-10,43.5741
2008-04-11,42.7159
2008-04-14,42.9133
2008-04-15,43.4025
2008-04-16,45.016
2008-04-17,43.8402
2008-04-18,44.9473
2008-04-21,45.2306
2008-04-22,44.8529
2008-04-23,44.1663
2008-04-24,44.6298
2008-04-25,44.8701
2008-04-28,45.0503
2008-04-29,45.1877
2008-04-30,44.9302
2008-05-01,45.8829
2008-05-02,45.6168
2008-05-05,45.4194
2008-05-06,46.0116
2008-05-07,45.5224
2008-05-08,45.325
2008-05-09,45.5396
2008-05-12,46.0373
2008-05-13,46.9814
2008-05-14,47.3762
2008-05-15,47.2303
2008-05-16,46.8784
2008-05-19,47.1102
2008-05-20,46.5523
2008-05-21,45.591
2008-05-22,45.7198
2008-05-23,44.9817
2008-05-27,44.8873
2008-05-28,45.222
2008-05-29,45.1533
2008-05-30,46.0116
2008-06-02,44.8186
2008-06-03,44.2693
2008-06-04,44.0204
2008-06-05,44.2092
2008-06-06,43.0592
2008-06-09,43.2823
2008-06-10,43.0506
2008-06-11,41.9177
2008-06-12,42.4927
2008-06-13,42.6043
2008-06-16,42.4927
2008-06-17,42.5013
2008-06-18,42.0893
2008-06-19,42.5013
2008-06-20,41.6945
2008-06-23,41.4971
2008-06-24,41.0508
2008-06-25,41.7203
2008-06-26,40.477
2008-06-27,40.0109
2008-06-30,41.0813
2008-07-01,40.9173
2008-07-02,39.9159
2008-07-03,40.7014
2008-07-07,40.382
2008-07-08,41.0726
2008-07-09,39.8555
2008-07-10,39.9677
2008-07-11,39.3807
2008-07-14,39.6656
2008-07-15,38.8282
2008-07-16,40.1058
2008-07-17,40.5633
2008-07-18,40.3734
2008-07-21,40.4338
2008-07-22,41.2108
2008-07-23,41.2798
2008-07-24,39.7433
2008-07-25,40.1403
2008-07-28,39.7691
2008-07-29,40.3993
2008-07-30,41.1762
2008-07-31,40.4166
2008-08-01,40.4425
2008-08-04,40.4079
2008-08-05,41.3143
2008-08-06,42.0136
2008-08-07,41.5474
2008-08-08,43.1012
2008-08-11,43.1358
2008-08-12,43.1789
2008-08-13,42.2725
2008-08-14,42.6264
2008-08-15,42.7214
2008-08-18,42.2639
2008-08-19,41.392
2008-08-20,41.3057
2008-08-21,41.651
2008-08-22,42.2898
2008-08-25,41.5042
2008-08-26,41.6769
2008-08-27,41.979
2008-08-28,42.9113
2008-08-29,42.6869
2008-09-02,42.7214
2008-09-03,42.7818
2008-09-04,41.3834
2008-09-05,41.3834
2008-09-08,42.497
2008-09-09,41.4783
2008-09-10,41.5301
2008-09-11,41.3834
2008-09-12,41.1762
2008-09-15,40.1403
2008-09-16,40.4943
2008-09-17,38.9404
2008-09-18,40.5461
2008-09-19,42.0826
2008-09-22,40.6928
2008-09-23,39.726
2008-09-24,39.1908
2008-09-25,38.9232
2008-09-26,38.9233
2008-09-29,37.3326
2008-09-30,38.5843
2008-10-01,36.9675
2008-10-02,36.5329
2008-10-03,35.1509
2008-10-06,34.1339
2008-10-07,31.5437
2008-10-08,30.9004
2008-10-09,30.3789
2008-10-10,29.1446
2008-10-13,32.0826
2008-10-14,32.4129
2008-10-15,29.4576
2008-10-16,30.7266
2008-10-17,29.5705
2008-10-20,29.9965
2008-10-21,30.3876
2008-10-22,27.9973
2008-10-23,27.7626
2008-10-24,26.6587
2008-10-27,25.0767
2008-10-28,27.8321
2008-10-29,28.1972
2008-10-30,28.7709
2008-10-31,29.0577
2008-11-03,29.0664
2008-11-04,30.1703
2008-11-05,28.9969
2008-11-06,27.6757
2008-11-07,28.5623
2008-11-10,28.7883
2008-11-11,28.0929
2008-11-12,26.9368
2008-11-13,29.3359
2008-11-14,27.7626
2008-11-17,28.032
2008-11-18,28.5275
2008-11-19,26.8847
2008-11-20,25.1637
2008-11-21,26.5805
2008-11-24,28.0668
2008-11-25,27.9104
2008-11-26,29.0577
2008-11-28,29.6575
2008-12-01,26.7369
2008-12-02,28.3971
2008-12-03,28.1885
2008-12-04,27.6757
2008-12-05,28.1711
2008-12-08,28.5101
2008-12-09,27.9886
2008-12-10,28.258
2008-12-11,27.0411
2008-12-12,27.1455
2008-12-15,27.1715
2008-12-16,28.7709
2008-12-17,28.71
2008-12-18,28.3623
2008-12-19,29.049
2008-12-22,28.9534
2008-12-23,28.4753
2008-12-24,29.0056
2008-12-26,29.5966
2008-12-29,29.4208
2008-12-30,30.7366
2008-12-31,30.8418
2009-01-02,32.2015
2009-01-05,31.7892
2009-01-06,32.4295
2009-01-07,31.491
2009-01-08,32.3945
2009-01-09,31.798
2009-01-12,31.2366
2009-01-13,30.8681
2009-01-14,30.2278
2009-01-15,30.7892
2009-01-16,30.3769
2009-01-20,29.3243
2009-01-21,30.2278
2009-01-22,29.5348
2009-01-23,29.0261
2009-01-26,29.1313
2009-01-27,30.2453
2009-01-28,30.5699
2009-01-29,29.6927
2009-01-30,28.6489
2009-02-02,28.4734
2009-02-03,29.8331
2009-02-04,30.3418
2009-02-05,31.219
2009-02-06,31.4383
2009-02-09,31.5348
2009-02-10,29.991
2009-02-11,30.7366
2009-02-12,30.5173
2009-02-13,30.8594
2009-02-17,28.9296
2009-02-18,28.7454
2009-02-19,27.5787
2009-02-20,26.9647
2009-02-23,25.7805
2009-02-24,26.2717
2009-02-25,25.7454
2009-02-26,25.0086
2009-02-27,24.4121
2009-03-02,23.1051
2009-03-03,24.2542
2009-03-04,24.9822
2009-03-05,22.991
2009-03-06,23.491
2009-03-09,23.0612
2009-03-10,24.4033
2009-03-11,24.6489
2009-03-12,24.8945
2009-03-13,24.4472
2009-03-16,23.6665
2009-03-17,23.9384
2009-03-18,24.3945
2009-03-19,25.1664
2009-03-20,24.3068
2009-03-23,26.0261
2009-03-24,26.5085
2009-03-25,27.0787
2009-03-26,28.4208
2009-03-27,28.1728
2009-03-30,26.9063
2009-03-31,27.3137
2009-04-01,27.5706
2009-04-02,28.7662
2009-04-03,28.7574
2009-04-06,28.4739
2009-04-07,27.2163
2009-04-08,27.0657
2009-04-09,28.7928
2009-04-13,28.5359
2009-04-14,27.9603
2009-04-15,27.6503
2009-04-16,29.3419
2009-04-17,28.4917
2009-04-20,27.6769
2009-04-21,28.1285
2009-04-22,29.1825
2009-04-23,29.4482
2009-04-24,29.9619
2009-04-27,29.3685
2009-04-28,28.7751
2009-04-29,29.4659
2009-04-30,29.0673
2009-05-01,29.4659
2009-05-04,30.3338
2009-05-05,30.1301
2009-05-06,30.573
2009-05-07,29.7316
2009-05-08,30.6792
2009-05-11,30.4135
2009-05-12,30.5552
2009-05-13,30.2453
2009-05-14,30.0947
2009-05-15,29.2533
2009-05-18,29.8024
2009-05-19,29.7493
2009-05-20,29.8379
2009-05-21,29.0319
2009-05-22,28.8194
2009-05-26,29.7847
2009-05-27,28.7396
2009-05-28,28.4562
2009-05-29,28.5625
2009-06-01,31.7509
2009-06-02,31.8306
2009-06-03,31.8217
2009-06-04,32.4151
2009-06-05,32.8048
2009-06-08,32.7251
2009-06-09,32.9997
2009-06-10,33.2919
2009-06-11,33.5045
2009-06-12,33.717
2009-06-15,32.6365
2009-06-16,32.4151
2009-06-17,32.548
2009-06-18,32.0609
2009-06-19,31.4675
2009-06-22,30.5464
2009-06-23,30.9449
2009-06-24,31.2195
2009-06-25,32.6365
2009-06-26,33.4497
2009-06-29,33.8695
2009-06-30,33.3515
2009-07-01,33.4765
2009-07-02,32.4315
2009-07-06,31.8688
2009-07-07,31.1364
2009-07-08,31.1453
2009-07-09,31.3061
2009-07-10,31.9134
2009-07-13,32.753
2009-07-14,33.2354
2009-07-15,34.1821
2009-07-16,34.4501
2009-07-17,34.5841
2009-07-20,35.638
2009-07-21,35.4415
2009-07-22,35.9149
2009-07-23,36.424
2009-07-24,36.5491
2009-07-27,36.29
2009-07-28,35.9506
2009-07-29,35.6737
2009-07-30,36.0489
2009-07-31,36.2632
2009-08-03,36.3526
2009-08-04,36.683
2009-08-05,36.0846
2009-08-06,36.0578
2009-08-07,36.6027
2009-08-10,35.7809
2009-08-11,35.6916
2009-08-12,36.5223
2009-08-13,37.478
2009-08-14,36.8438
2009-08-17,35.8881
2009-08-18,36.7188
2009-08-19,36.7098
2009-08-20,37.2458
2009-08-21,37.7191
2009-08-24,37.5584
2009-08-25,38.4694
2009-08-26,37.7281
2009-08-27,38.1032
2009-08-28,37.7549
2009-08-31,37.3261
2009-09-01,36.8527
2009-09-02,36.5401
2009-09-03,36.6562
2009-09-04,37.2636
2009-09-08,37.3619
2009-09-09,39.2375
2009-09-10,39.1214
2009-09-11,39.309
2009-09-14,39.5234
2009-09-15,39.2018
2009-09-16,39.2375
2009-09-17,39.6931
2009-09-18,39.5948
2009-09-21,39.1661
2009-09-22,39.2554
2009-09-23,38.4248
2009-09-24,37.8978
2009-09-25,37.7906
2009-09-28,38.7894
2009-09-29,38.7444
2009-09-30,38.4025
2009-10-01,37.3678
2009-10-02,37.5657
2009-10-05,38.1146
2009-10-06,38.9424
2009-10-07,39.7072
2009-10-08,40.445
2009-10-09,40.499
2009-10-12,40.67
2009-10-13,40.0671
2009-10-14,40.688
2009-10-15,40.7959
2009-10-16,40.7239
2009-10-19,41.5337
2009-10-20,43.7112
2009-10-21,43.1623
2009-10-22,43.9092
2009-10-23,43.0544
2009-10-26,42.3795
2009-10-27,42.3795
2009-10-28,41.5427
2009-10-29,42.2626
2009-10-30,41.3718
2009-11-02,41.7047
2009-11-03,42.2536
2009-11-04,41.8037
2009-11-05,43.4233
2009-11-06,43.5762
2009-11-09,44.755
2009-11-10,44.467
2009-11-11,44.2331
2009-11-12,43.4863
2009-11-13,44.0981
2009-11-16,45.8797
2009-11-17,45.5738
2009-11-18,45.5648
2009-11-19,44.683
2009-11-20,44.539
2009-11-23,44.8359
2009-11-24,44.404
2009-11-25,44.413
2009-11-27,43.7832
2009-11-30,43.7832
2009-12-01,43.8102
2009-12-02,43.8912
2009-12-03,43.4863
2009-12-04,43.6572
2009-12-07,43.6572
2009-12-08,42.8114
2009-12-09,43.0094
2009-12-10,42.9824
2009-12-11,43.1803
2009-12-14,44.3321
2009-12-15,43.9632
2009-12-16,43.6302
2009-12-17,42.8834
2009-12-18,42.7754
2009-12-21,42.8204
2009-12-22,42.8024
2009-12-23,42.8114
2009-12-24,43.1533
2009-12-28,43.3423
2009-12-29,43.9307
2009-12-30,44.0122
2009-12-31,43.4869
2010-01-04,43.9488
2010-01-05,43.9125
2010-01-06,43.7948
2010-01-07,44.0122
2010-01-08,44.4468
2010-01-11,45.1985
2010-01-12,44.0665
2010-01-13,44.0393
2010-01-14,43.9125
2010-01-15,43.3692
2010-01-19,44.0484
2010-01-20,43.7043
2010-01-21,41.5218
2010-01-22,41.0237
2010-01-25,41.1686
2010-01-26,40.8788
2010-01-27,39.8645
2010-01-28,39.8373
2010-01-29,39.4842
2010-02-01,39.5566
2010-02-02,39.8464
2010-02-03,39.6109
2010-02-04,38.5333
2010-02-05,38.5876
2010-02-08,38.2616
2010-02-09,39.2125
2010-02-10,38.9589
2010-02-11,39.774
2010-02-12,39.4932
2010-02-16,40.4803
2010-02-17,41.1686
2010-02-18,42.1828
2010-02-19,42.3368
2010-02-22,42.038
2010-02-23,41.2682
2010-02-24,41.1776
2010-02-25,40.9331
2010-02-26,41.2139
2010-03-01,41.7572
2010-03-02,41.7029
2010-03-03,41.8297
2010-03-04,42.1013
2010-03-05,42.7805
2010-03-08,42.2915
2010-03-09,42.2281
2010-03-10,42.3277
2010-03-11,42.2372
2010-03-12,42.2372
2010-03-15,41.1957
2010-03-16,41.4674
2010-03-17,41.8931
2010-03-18,42.7443
2010-03-19,42.3187
2010-03-22,42.4998
2010-03-23,43.0794
2010-03-24,42.4636
2010-03-25,42.3277
2010-03-26,42.7805
2010-03-29,43.0359
2010-03-30,43.2182
2010-03-31,43.1817
2010-04-01,43.4734
2010-04-05,43.6375
2010-04-06,43.4825
2010-04-07,43.0359
2010-04-08,43.045
2010-04-09,43.5372
2010-04-12,43.7013
2010-04-13,43.6557
2010-04-14,44.0842
2010-04-15,45.169
2010-04-16,44.6494
2010-04-19,44.5491
2010-04-20,46.2264
2010-04-21,46.5363
2010-04-22,47.7943
2010-04-23,47.7761
2010-04-26,47.8581
2010-04-27,46.5363
2010-04-28,46.6731
2010-04-29,47.6302
2010-04-30,46.5819
2010-05-03,47.3568
2010-05-04,45.9347
2010-05-05,45.406
2010-05-06,44.0477
2010-05-07,43.5372
2010-05-10,45.7615
2010-05-11,45.6886
2010-05-12,46.9648
2010-05-13,46.0441
2010-05-14,45.0049
2010-05-17,45.2966
2010-05-18,44.5035
2010-05-19,43.2911
2010-05-20,41.1489
2010-05-21,41.5226
2010-05-24,41.2947
2010-05-25,41.1398
2010-05-26,41.1489
2010-05-27,42.7806
2010-05-28,42.3248
2010-06-01,41.158
2010-06-02,42.3157
2010-06-03,42.6257
2010-06-04,40.3102
2010-06-07,39.4625
2010-06-08,39.5718
2010-06-09,39.9
2010-06-10,41.0486
2010-06-11,41.5135
2010-06-14,41.6047
2010-06-15,42.6439
2010-06-16,42.3339
2010-06-17,41.9967
2010-06-18,41.2765
2010-06-21,41.9967
2010-06-22,40.5837
2010-06-23,40.137
2010-06-24,39.4807
2010-06-25,40.292
2010-06-28,39.6588
2010-06-29,37.9237
2010-06-30,37.9421
2010-07-01,38.1257
2010-07-02,37.7769
2010-07-06,37.786
2010-07-07,38.9703
2010-07-08,39.5303
2010-07-09,39.8424
2010-07-12,39.31
2010-07-13,40.5585
2010-07-14,40.5309
2010-07-15,40.3749
2010-07-16,39.1723
2010-07-19,39.365
2010-07-20,39.1814
2010-07-21,38.5572
2010-07-22,38.7316
2010-07-23,39.7965
2010-07-26,39.9618
2010-07-27,39.9893
2010-07-28,39.7414
2010-07-29,39.7598
2010-07-30,39.9709
2010-08-02,41.1093
2010-08-03,41.247
2010-08-04,41.8437
2010-08-05,41.8437
2010-08-06,41.8529
2010-08-09,41.9539
2010-08-10,41.449
2010-08-11,40.026
2010-08-12,39.6496
2010-08-13,39.5119
2010-08-16,39.1355
2010-08-17,40.0168
2010-08-18,39.1723
2010-08-19,38.5755
2010-08-20,38.7041
2010-08-23,38.4195
2010-08-24,37.8595
2010-08-25,37.7769
2010-08-26,37.4555
2010-08-27,38.447
2010-08-30,37.8319
2010-08-31,37.8687
2010-09-01,39.2457
2010-09-02,40.5952
2010-09-03,41.2837
2010-09-07,41.3296
2010-09-08,41.5316
2010-09-09,41.4398
2010-09-10,41.9263
2010-09-13,42.7893
2010-09-14,42.9545
2010-09-15,43.1565
2010-09-16,43.0188
2010-09-17,42.5322
2010-09-20,43.2391
2010-09-21,43.4136
2010-09-22,42.6883
2010-09-23,41.8529
2010-09-24,43.184
2010-09-27,43.0831
2010-09-28,43.5361
2010-09-29,43.2309
2010-09-30,43.5084
2010-10-01,43.6933
2010-10-04,43.2402
2010-10-05,44.4516
2010-10-06,44.6088
2010-10-07,44.5903
2010-10-08,44.7845
2010-10-11,44.6088
2010-10-12,44.6828
2010-10-13,45.0804
2010-10-14,45.2746
2010-10-15,45.3023
2010-10-18,45.4318
2010-10-19,42.9165
2010-10-20,43.0645
2010-10-21,43.4806
2010-10-22,43.1755
2010-10-25,43.3604
2010-10-26,42.6484
2010-10-27,42.7871
2010-10-28,42.4819
2010-10-29,42.2507
2010-11-01,42.7316
2010-11-02,42.9813
2010-11-03,42.7871
2010-11-04,44.2851
2010-11-05,44.7197
2010-11-08,44.8862
2010-11-09,44.544
2010-11-10,44.4146
2010-11-11,44.3036
2010-11-12,43.8413
2010-11-15,44.3961
2010-11-16,43.5084
2010-11-17,43.3512
2010-11-18,43.6563
2010-11-19,43.721
2010-11-22,43.9152
2010-11-23,43.083
2010-11-24,44.017
2010-11-26,43.6563
2010-11-29,43.8413
2010-11-30,44.1002
2010-12-01,44.7197
2010-12-02,44.9602
2010-12-03,46.6154
2010-12-06,46.4952
2010-12-07,46.8004
2010-12-08,46.7541
2010-12-09,46.6247
2010-12-10,47.2073
2010-12-13,47.3182
2010-12-14,47.5124
2010-12-15,47.0686
2010-12-16,47.7436
2010-12-17,48.0395
2010-12-20,48.7146
2010-12-21,49.0845
2010-12-22,49.5746
2010-12-23,49.3989
2010-12-27,49.5191
2010-12-28,49.6855
2010-12-29,49.8623
2010-12-30,49.8623
2010-12-31,49.6669
2011-01-03,50.6255
2011-01-04,50.3277
2011-01-05,50.551
2011-01-06,50.4859
2011-01-07,50.2811
2011-01-10,50.5789
2011-01-11,50.6906
2011-01-12,51.5747
2011-01-13,51.8539
2011-01-14,52.0772
2011-01-18,52.254
2011-01-19,51.2117
2011-01-20,50.4766
2011-01-21,50.8953
2011-01-24,51.6026
2011-01-25,51.1001
2011-01-26,51.6119
2011-01-27,51.4444
2011-01-28,50.8953
2011-01-31,49.7414
2011-02-01,49.8437
2011-02-02,49.7972
2011-02-03,49.6297
2011-02-04,50.43
2011-02-07,51.3979
2011-02-08,51.4351
2011-02-09,51.0815
2011-02-10,51.798
2011-02-11,51.9004
2011-02-14,51.8259
2011-02-15,50.672
2011-02-16,51.007
2011-02-17,51.1001
2011-02-18,51.0908
2011-02-22,49.6018
2011-02-23,49.3691
2011-02-24,49.5273
2011-02-25,49.8717
2011-02-28,50.337
2011-03-01,49.76
2011-03-02,50.2811
2011-03-03,51.221
2011-03-04,51.0442
2011-03-07,50.9977
2011-03-08,51.8539
2011-03-09,51.9376
2011-03-10,50.6348
2011-03-11,50.8395
2011-03-14,50.5882
2011-03-15,50.2253
2011-03-16,49.397
2011-03-17,50.0205
2011-03-18,50.2346
2011-03-21,51.1838
2011-03-22,50.9326
2011-03-23,50.9139
2011-03-24,51.1652
2011-03-25,51.1931
2011-03-28,50.5138
2011-03-29,50.9353
2011-03-30,50.1299
2011-03-31,50.3359
2011-04-01,50.7105
2011-04-04,51.2443
2011-04-05,51.0383
2011-04-06,51.0195
2011-04-07,50.851
2011-04-08,50.9072
2011-04-11,50.8322
2011-04-12,50.2142
2011-04-13,49.9051
2011-04-14,49.8208
2011-04-15,49.9145
2011-04-18,49.259
2011-04-19,49.568
2011-04-20,50.4296
2011-04-21,50.6075
2011-04-25,50.954
2011-04-26,54.1006
2011-04-27,54.0163
2011-04-28,54.6437
2011-04-29,54.7093
2011-05-02,54.3347
2011-05-03,54.5688
2011-05-04,54.0912
2011-05-05,53.7634
2011-05-06,54.4564
2011-05-09,54.3534
2011-05-10,54.5875
2011-05-11,54.3909
2011-05-12,54.6156
2011-05-13,54.2972
2011-05-16,53.7541
2011-05-17,53.3046
2011-05-18,54.0631
2011-05-19,53.9507
2011-05-20,53.5106
2011-05-23,53.0049
2011-05-24,52.8925
2011-05-25,53.4076
2011-05-26,53.342
2011-05-27,53.3982
2011-05-31,53.6604
2011-06-01,52.7333
2011-06-02,52.9019
2011-06-03,52.5273
2011-06-06,52.2182
2011-06-07,52.1808
2011-06-08,51.647
2011-06-09,51.853
2011-06-10,51.1787
2011-06-13,51.0851
2011-06-14,52.0122
2011-06-15,50.851
2011-06-16,51.16
2011-06-17,51.4503
2011-06-20,51.1506
2011-06-21,52.0028
2011-06-22,51.8905
2011-06-23,51.4129
2011-06-24,50.9165
2011-06-27,51.263
2011-06-28,51.8001
2011-06-29,51.9603
2011-06-30,53.2796
2011-07-01,54.3161
2011-07-05,54.335
2011-07-06,54.7402
2011-07-07,55.6354
2011-07-08,55.5506
2011-07-11,54.7873
2011-07-12,54.2784
2011-07-13,54.3821
2011-07-14,53.5528
2011-07-15,53.7601
2011-07-18,53.0628
2011-07-19,53.3361
2011-07-20,53.2984
2011-07-21,53.6471
2011-07-22,53.6848
2011-07-25,53.6942
2011-07-26,49.3218
2011-07-27,47.8611
2011-07-28,46.9377
2011-07-29,46.9282
2011-08-01,47.0225
2011-08-02,45.5524
2011-08-03,46.0707
2011-08-04,43.8845
2011-08-05,43.7337
2011-08-08,40.4261
2011-08-09,41.7548
2011-08-10,39.8607
2011-08-11,42.2731
2011-08-12,42.471
2011-08-15,42.716
2011-08-16,42.16
2011-08-17,41.4815
2011-08-18,39.0315
2011-08-19,38.9561
2011-08-22,39.5686
2011-08-23,41.2742
2011-08-24,42.1412
2011-08-25,41.0104
2011-08-26,42.1694
2011-08-29,43.7997
2011-08-30,43.7808
2011-08-31,43.7526
2011-09-01,42.5841
2011-09-02,41.1235
2011-09-06,40.9444
2011-09-07,42.3862
2011-09-08,41.604
2011-09-09,40.068
2011-09-12,39.8796
2011-09-13,40.9067
2011-09-14,42.2448
2011-09-15,42.9139
2011-09-16,42.7348
2011-09-19,42.5087
2011-09-20,42.4239
2011-09-21,41.2271
2011-09-22,39.6817
2011-09-23,40.2
2011-09-26,41.5569
2011-09-27,42.3673
2011-09-28,40.8379
2011-09-29,40.9424
2011-09-30,39.546
2011-10-03,38.1591
2011-10-04,39.7835
2011-10-05,40.7334
2011-10-06,41.6074
2011-10-07,40.9614
2011-10-10,42.6713
2011-10-11,42.4623
2011-10-12,43.7447
2011-10-13,43.4123
2011-10-14,44.5142
2011-10-17,43.0703
2011-10-18,44.4097
2011-10-19,43.8587
2011-10-20,44.2007
2011-10-21,45.0082
2011-10-24,45.8156
2011-10-25,43.2983
2011-10-26,43.9537
2011-10-27,46.6991
2011-10-28,46.6611
2011-10-31,46.2241
2011-11-01,44.3052
2011-11-02,45.4641
2011-11-03,47.041
2011-11-04,46.6706
2011-11-07,47.2025
2011-11-08,46.5186
2011-11-09,43.8492
2011-11-10,43.8492
2011-11-11,44.5712
2011-11-14,44.0202
2011-11-15,43.9632
2011-11-16,43.0988
2011-11-17,42.0633
2011-11-18,42.6903
2011-11-21,41.7119
2011-11-22,41.8354
2011-11-23,40.4105
2011-11-25,40.6194
2011-11-28,41.5029
2011-11-29,41.2274
2011-11-30,43.1463
2011-12-01,42.8613
2011-12-02,43.7447
2011-12-05,44.6472
2011-12-06,44.8277
2011-12-07,45.1032
2011-12-08,43.9727
2011-12-09,44.8182
2011-12-12,44.4382
2011-12-13,44.1057
2011-12-14,43.5643
2011-12-15,43.4218
2011-12-16,43.7067
2011-12-19,43.3363
2011-12-20,44.8277
2011-12-21,44.3527
2011-12-22,44.5997
2011-12-23,45.3406
2011-12-27,45.5021
2011-12-28,44.3538
2011-12-29,44.9089
2011-12-30,44.7079
2012-01-03,45.9426
2012-01-04,46.2298
2012-01-05,46.335
2012-01-06,45.7225
2012-01-09,45.8086
2012-01-10,46.5935
2012-01-11,46.9285
2012-01-12,47.3879
2012-01-13,47.1869
2012-01-17,48.7853
2012-01-18,48.5652
2012-01-19,49.0055
2012-01-20,49.2352
2012-01-23,49.3309
2012-01-24,49.6946
2012-01-25,50.5752
2012-01-26,50.69
2012-01-27,50.5847
2012-01-30,50.9389
2012-01-31,50.824
2012-02-01,52.499
2012-02-02,52.6426
2012-02-03,53.236
2012-02-06,53.2073
2012-02-07,53.4274
2012-02-08,53.5901
2012-02-09,53.9347
2012-02-10,53.303
2012-02-13,53.504
2012-02-14,53.5614
2012-02-15,52.9776
2012-02-16,54.0113
2012-02-17,53.7816
2012-02-21,54.1453
2012-02-22,53.8007
2012-02-23,53.9251
2012-02-24,53.4944
2012-02-27,53.8964
2012-02-28,53.6476
2012-02-29,53.3221
2012-03-01,53.4849
2012-03-02,53.1116
2012-03-05,52.9584
2012-03-06,51.36
2012-03-07,51.8482
2012-03-08,52.633
2012-03-09,53.035
2012-03-12,53.2743
2012-03-13,54.241
2012-03-14,54.509
2012-03-15,55.3991
2012-03-16,55.38
2012-03-19,55.5523
2012-03-20,54.7483
2012-03-21,54.7291
2012-03-22,54.1453
2012-03-23,54.4803
2012-03-26,55.3226
2012-03-27,55.3034
2012-03-28,54.6291
2012-03-29,54.7254
2012-03-30,54.9758
2012-04-02,54.9566
2012-04-03,54.8217
2012-04-04,54.3401
2012-04-05,54.2342
2012-04-09,53.4733
2012-04-10,52.751
2012-04-11,53.3288
2012-04-12,54.5809
2012-04-13,52.7799
2012-04-16,53.1266
2012-04-17,53.7141
2012-04-18,53.8682
2012-04-19,53.3288
2012-04-20,53.7526
2012-04-23,53.194
2012-04-24,54.6002
2012-04-25,55.4478
2012-04-26,55.4766
2012-04-27,56.0064
2012-04-30,55.2551
2012-05-01,55.2455
2012-05-02,55.5441
2012-05-03,55.2455
2012-05-04,54.369
2012-05-07,54.6965
2012-05-08,54.4942
2012-05-09,53.7237
2012-05-10,54.2246
2012-05-11,54.3209
2012-05-14,53.6852
2012-05-15,53.3674
2012-05-16,52.8954
2012-05-17,51.8167
2012-05-18,51.5567
2012-05-21,52.4042
2012-05-22,52.6161
2012-05-23,53.0977
2012-05-24,53.666
2012-05-25,54.2053
2012-05-29,55.0047
2012-05-30,53.9549
2012-05-31,54.1571
2012-06-01,52.828
2012-06-04,52.385
2012-06-05,52.2212
2012-06-06,53.2036
2012-06-07,53.8586
2012-06-08,53.8008
2012-06-11,52.9436
2012-06-12,53.4637
2012-06-13,52.4524
2012-06-14,52.0864
2012-06-15,52.4524
2012-06-18,52.4139
2012-06-19,53.377
2012-06-20,52.8665
2012-06-21,51.1714
2012-06-22,51.7686
2012-06-25,50.3239
2012-06-26,50.0446
2012-06-27,49.9771
2012-06-28,49.4049
2012-06-29,51.238
2012-07-02,50.4621
2012-07-03,50.8694
2012-07-05,51.1119
2012-07-06,50.5494
2012-07-09,50.7142
2012-07-10,49.7347
2012-07-11,48.8812
2012-07-12,48.5127
2012-07-13,49.2594
2012-07-16,48.9782
2012-07-17,48.9879
2012-07-18,51.1313
2012-07-19,52.0139
2012-07-20,51.6453
2012-07-23,51.9654
2012-07-24,50.7336
2012-07-25,51.0731
2012-07-26,51.9848
2012-07-27,53.5366
2012-07-30,52.9352
2012-07-31,52.7413
2012-08-01,52.3533
2012-08-02,52.0721
2012-08-03,53.8857
2012-08-06,53.9245
2012-08-07,54.8168
2012-08-08,55.1756
2012-08-09,55.0592
2012-08-10,55.5733
2012-08-13,55.8545
2012-08-14,55.4278
2012-08-15,55.8351
2012-08-16,57.8525
2012-08-17,58.1919
2012-08-20,57.4936
2012-08-21,57.2802
2012-08-22,57.0378
2012-08-23,57.096
2012-08-24,57.8718
2012-08-27,58.2598
2012-08-28,57.5324
2012-08-29,57.5324
2012-08-30,57.1541
2012-08-31,57.5809
2012-09-04,57.1735
2012-09-05,56.6886
2012-09-06,57.9688
2012-09-07,58.7641
2012-09-10,58.5605
2012-09-11,58.5314
2012-09-12,59.2394
2012-09-13,59.443
2012-09-14,59.0939
2012-09-17,59.346
2012-09-18,59.4721
2012-09-19,59.4139
2012-09-20,59.1715
2012-09-21,58.7447
2012-09-24,58.7932
2012-09-25,57.9591
2012-09-26,57.2662
2012-09-27,57.7347
2012-09-28,58.0471
2012-10-01,58.1056
2012-10-02,57.3833
2012-10-03,58.4668
2012-10-04,59.111
2012-10-05,59.1403
2012-10-08,58.9255
2012-10-09,57.5688
2012-10-10,56.827
2012-10-11,57.071
2012-10-12,57.1881
2012-10-15,57.4712
2012-10-16,58.2032
2012-10-17,58.6913
2012-10-18,59.316
2012-10-19,59.3257
2012-10-22,59.0915
2012-10-23,59.316
2012-10-24,58.662
2012-10-25,58.9841
2012-10-26,58.8182
2012-10-31,59.8626
2012-11-01,60.5848
2012-11-02,60.5848
2012-11-05,60.8484
2012-11-06,61.4926
2012-11-07,60.253
2012-11-08,58.9743
2012-11-09,58.9841
2012-11-12,59.5014
2012-11-13,59.3745
2012-11-14,58.0568
2012-11-15,57.4321
2012-11-16,57.5493
2012-11-19,58.0763
2012-11-20,58.3399
2012-11-21,58.2911
2012-11-23,58.3399
2012-11-26,59.0524
2012-11-27,59.0915
2012-11-28,60.0382
2012-11-29,60.3506
2012-11-30,60.253
2012-12-03,59.6381
2012-12-04,59.6966
2012-12-05,60.1749
2012-12-06,60.0773
2012-12-07,59.6771
2012-12-10,60.4775
2012-12-11,60.3799
2012-12-12,60.5751
2012-12-13,60.5458
2012-12-14,58.6994
2012-12-17,59.1904
2012-12-18,60.6439
2012-12-19,60.2609
2012-12-20,60.7519
2012-12-21,60.1823
2012-12-24,59.9859
2012-12-26,59.8877
2012-12-27,59.9864
2012-12-28,59.3441
2012-12-31,60.0062
2013-01-02,61.1131
2013-01-03,61.4097
2013-01-04,61.6665
2013-01-07,61.5381
2013-01-08,61.4491
2013-01-09,61.1329
2013-01-10,61.9631
2013-01-11,61.8247
2013-01-14,62.0619
2013-01-15,61.8742
2013-01-16,61.5084
2013-01-17,62.6153
2013-01-18,62.892
2013-01-22,62.8624
2013-01-23,63.149
2013-01-24,64.0384
2013-01-25,64.1965
2013-01-28,64.7597
2013-01-29,63.3761
2013-01-30,62.7535
2013-01-31,62.1803
2013-02-01,62.1409
2013-02-04,61.039
2013-02-05,62.0618
2013-02-06,61.5479
2013-02-07,61.3206
2013-02-08,61.9432
2013-02-11,62.0815
2013-02-12,62.2297
2013-02-13,62.7931
2013-02-14,62.9413
2013-02-15,62.6053
2013-02-19,63.4356
2013-02-20,62.4077
2013-02-21,60.876
2013-02-22,60.7573
2013-02-25,59.0872
2013-02-26,59.4132
2013-02-27,60.7376
2013-02-28,60.8759
2013-03-01,60.8462
2013-03-04,60.7969
2013-03-05,61.5084
2013-03-06,61.8247
2013-03-07,61.459
2013-03-08,61.6963
2013-03-11,61.7357
2013-03-12,60.5103
2013-03-13,60.6092
2013-03-14,60.4511
2013-03-15,61.3009
2013-03-18,61.5184
2013-03-19,61.795
2013-03-20,62.4077
2013-03-21,61.8148
2013-03-22,61.5084
2013-03-25,60.6981
2013-03-26,60.6284
2013-03-27,60.2903
2013-03-28,60.6184
2013-04-01,60.5488
2013-04-02,60.4892
2013-04-03,60.7775
2013-04-04,61.3841
2013-04-05,61.2847
2013-04-08,61.5333
2013-04-09,61.8117
2013-04-10,62.2194
2013-04-11,63.2039
2013-04-12,63.0448
2013-04-15,61.2946
2013-04-16,62.468
2013-04-17,60.7775
2013-04-18,60.1113
2013-04-19,60.2008
2013-04-22,60.4295
2013-04-23,62.4183
2013-04-24,63.8303
2013-04-25,64.785
2013-04-26,64.059
2013-04-29,64.417
2013-04-30,64.1784
2013-05-01,63.542
2013-05-02,64.1386
2013-05-03,65.3219
2013-05-06,65.3518
2013-05-07,66.3959
2013-05-08,67.3604
2013-05-09,67.6886
2013-05-10,67.8875
2013-05-13,67.9173
2013-05-14,68.9316
2013-05-15,69.7669
2013-05-16,69.4586
2013-05-17,70.274
2013-05-20,70.6618
2013-05-21,70.7414
2013-05-22,70.3237
2013-05-23,69.916
2013-05-24,69.8265
2013-05-28,70.1298
2013-05-29,69.8265
2013-05-30,70.1945
2013-05-31,69.8763
2013-06-03,70.4828
2013-06-04,69.6476
2013-06-05,68.7725
2013-06-06,69.1901
2013-06-07,70.3635
2013-06-10,70.0652
2013-06-11,69.6774
2013-06-12,69.0509
2013-06-13,70.1547
2013-06-14,69.8862
2013-06-17,70.3337
2013-06-18,70.9204
2013-06-19,70.1348
2013-06-20,68.7128
2013-06-21,68.1858
2013-06-24,66.8235
2013-06-25,67.44
2013-06-26,68.41
2013-06-27,69.76
2013-06-28,69.21
2013-07-01,69.54
2013-07-02,69.21
2013-07-03,68.77
2013-07-05,69.92
2013-07-08,70.65
2013-07-09,71.17
2013-07-10,71.16
2013-07-11,72.28
2013-07-12,71.91
2013-07-15,72.03
2013-07-16,71.49
2013-07-17,71.63
2013-07-18,72.7
2013-07-19,73.36
2013-07-22,73.62
2013-07-23,71.6
2013-07-24,71.43
2013-07-25,72.26
2013-07-26,71.97
2013-07-29,71.55
2013-07-30,71.95
2013-07-31,72.11
2013-08-01,73.68
2013-08-02,74.22
2013-08-05,73.72
2013-08-06,73.46
2013-08-07,73.53
2013-08-08,73.55
2013-08-09,73.27
