date,close_price
1999-06-25,16.5217
1999-06-28,16.3334
1999-06-29,19.105
1999-06-30,24.7301
1999-07-01,24.2917
1999-07-02,23.7917
1999-07-06,23.2917
1999-07-07,22.625
1999-07-08,21.375
1999-07-09,21.6667
1999-07-12,21.3334
1999-07-13,20.9684
1999-07-14,22.0417
1999-07-15,24.8434
1999-07-16,23.8334
1999-07-19,22.5
1999-07-20,22.9584
1999-07-21,23.9067
1999-07-22,24.7084
1999-07-23,24.1667
1999-07-26,24.0834
1999-07-27,24.355
1999-07-28,23.9584
1999-07-29,24.2084
1999-07-30,26.9584
1999-08-02,26.9167
1999-08-03,25.8334
1999-08-04,25.7717
1999-08-05,26.2501
1999-08-06,26.5001
1999-08-09,27.1884
1999-08-10,28.4384
1999-08-11,30.8334
1999-08-12,32.5834
1999-08-13,35.6667
1999-08-16,34.0001
1999-08-17,36.2867
1999-08-18,34.6667
1999-08-19,34.5834
1999-08-20,34.0217
1999-08-23,37.8967
1999-08-24,36.8851
1999-08-25,36.0834
1999-08-26,35.9684
1999-08-27,36.3851
1999-08-30,34.8751
1999-08-31,34.1667
1999-09-01,30.0317
1999-09-02,33.1567
1999-09-03,32.3334
1999-09-07,32.2817
1999-09-08,32.2501
1999-09-09,32.0317
1999-09-10,31.9584
1999-09-13,30.0634
1999-09-14,30.2917
1999-09-15,30.6251
1999-09-16,30.5634
1999-09-17,30.5417
1999-09-20,30.5001
1999-09-21,31.0217
1999-09-22,31.6667
1999-09-23,30.4167
1999-09-24,33.1667
1999-09-27,34.5834
1999-09-28,32.9384
1999-09-29,31.9584
1999-09-30,30.3551
1999-10-01,30.8334
1999-10-04,30.3851
1999-10-05,30.7601
1999-10-06,31.7717
1999-10-07,32.7601
1999-10-08,35.3751
1999-10-11,40.6467
1999-10-12,37.0734
1999-10-13,36.4167
1999-10-14,36.9167
1999-10-15,36.2717
1999-10-18,38.1151
1999-10-19,39.3551
1999-10-20,41.3434
1999-10-21,43.1668
1999-10-22,43.5418
1999-10-25,42.9168
1999-10-26,42.0834
1999-10-27,41.5001
1999-10-28,44.3751
1999-10-29,45.8334
1999-11-01,44.8551
1999-11-02,44.2084
1999-11-03,46.6668
1999-11-04,46.3334
1999-11-05,45.4801
1999-11-08,48.2301
1999-11-09,44.5834
1999-11-10,44.4268
1999-11-11,43.6151
1999-11-12,47.7501
1999-11-15,47.2918
1999-11-16,54.6668
1999-11-17,51.0834
1999-11-18,50.6151
1999-11-19,51.3334
1999-11-22,50.5001
1999-11-23,49.0001
1999-11-24,49.8334
1999-11-26,50.5001
1999-11-29,49.0101
1999-11-30,46.1884
1999-12-01,45.3751
1999-12-02,50.1884
1999-12-03,50.4584
1999-12-06,48.1668
1999-12-07,55.3234
1999-12-08,58.0001
1999-12-09,58.5835
1999-12-10,58.7301
1999-12-13,56.5001
1999-12-14,55.2084
1999-12-15,52.8968
1999-12-16,52.6668
1999-12-17,50.7084
1999-12-20,49.8334
1999-12-21,55.6668
1999-12-22,53.7918
1999-12-23,53.7401
1999-12-27,57.8234
1999-12-28,57.1251
1999-12-29,56.1568
1999-12-30,56.1668
1999-12-31,56.6884
2000-01-03,57.4801
2000-01-04,54.7818
2000-01-05,54.3334
2000-01-06,52.0001
2000-01-07,54.1668
2000-01-10,54.2918
2000-01-11,54.0318
2000-01-12,51.1884
2000-01-13,52.4268
2000-01-14,56.7084
2000-01-18,59.22
2000-01-19,59.5
2000-01-20,58.5
2000-01-21,75.0
2000-01-24,70.815
2000-01-25,71.5
2000-01-26,71.875
2000-01-27,71.22
2000-01-28,70.44
2000-01-31,67.53
2000-02-01,69.625
2000-02-02,68.5
2000-02-03,77.5
2000-02-04,84.815
2000-02-07,87.0
2000-02-08,84.78
2000-02-09,93.125
2000-02-10,105.0
2000-02-11,107.985
2000-02-14,102.0
2000-02-15,106.5
2000-02-16,110.0
2000-02-17,120.69
2000-02-18,119.565
2000-02-22,115.065
2000-02-23,117.625
2000-02-24,114.44
2000-02-25,116.5
2000-02-28,114.405
2000-02-29,137.125
2000-03-01,135.875
2000-03-02,130.24
2000-03-03,130.875
2000-03-06,135.5
2000-03-07,139.19
2000-03-08,137.0
2000-03-09,137.69
2000-03-10,140.625
2000-03-13,132.155
2000-03-14,123.485
2000-03-15,114.75
2000-03-16,118.625
2000-03-17,124.51
2000-03-20,117.82
2000-03-21,128.5
2000-03-22,133.125
2000-03-23,135.0
2000-03-24,134.5
2000-03-27,138.0
2000-03-28,153.78
2000-03-29,144.565
2000-03-30,133.22
2000-03-31,131.76
2000-04-03,116.5
2000-04-04,106.0
2000-04-05,109.22
2000-04-06,120.095
2000-04-07,134.78
2000-04-10,118.25
2000-04-11,111.94
2000-04-12,103.0
2000-04-13,87.54
2000-04-14,79.095
2000-04-17,86.65
2000-04-18,99.0
2000-04-19,91.5
2000-04-20,92.69
2000-04-24,87.25
2000-04-25,95.915
2000-04-26,97.875
2000-04-27,104.36
2000-04-28,106.4
2000-05-01,109.5
2000-05-02,98.905
2000-05-03,97.345
2000-05-04,91.6
2000-05-05,96.845
2000-05-08,94.595
2000-05-09,88.5
2000-05-10,78.405
2000-05-11,74.0
2000-05-12,81.905
2000-05-15,84.53
2000-05-16,87.405
2000-05-17,84.25
2000-05-18,84.97
2000-05-19,81.625
2000-05-22,84.625
2000-05-23,75.53
2000-05-24,78.53
2000-05-25,77.905
2000-05-26,76.555
2000-05-30,87.155
2000-05-31,87.655
2000-06-01,95.095
2000-06-02,107.25
2000-06-05,106.875
2000-06-06,100.845
2000-06-07,112.07
2000-06-08,118.53
2000-06-09,112.5
2000-06-12,117.625
2000-06-13,118.5
2000-06-14,113.595
2000-06-15,115.5
2000-06-16,113.0
2000-06-19,125.38
2000-06-20,127.94
2000-06-21,131.44
2000-06-22,128.56
2000-06-23,122.63
2000-06-26,129.25
2000-06-27,126.52
2000-06-28,136.5
2000-06-29,148.0
2000-06-30,145.44
2000-07-03,145.06
2000-07-05,141.5
2000-07-06,140.95
2000-07-07,147.81
2000-07-10,148.0
2000-07-11,148.81
2000-07-12,152.0
2000-07-13,170.0
2000-07-14,174.69
2000-07-17,174.25
2000-07-18,162.75
2000-07-19,156.31
2000-07-20,168.88
2000-07-21,160.56
2000-07-24,149.66
2000-07-25,162.56
2000-07-26,159.75
2000-07-27,144.81
2000-07-28,133.88
2000-07-31,142.25
2000-08-01,138.44
2000-08-02,126.95
2000-08-03,139.75
2000-08-04,143.81
2000-08-07,152.25
2000-08-08,159.0
2000-08-09,165.69
2000-08-10,162.19
2000-08-11,160.23
2000-08-14,169.94
2000-08-15,169.94
2000-08-16,166.25
2000-08-17,172.25
2000-08-18,170.77
2000-08-21,173.88
2000-08-22,186.0
2000-08-23,187.28
2000-08-24,190.36
2000-08-25,190.38
2000-08-28,199.5
2000-08-29,196.17
2000-08-30,204.08
2000-08-31,213.56
2000-09-01,221.47
2000-09-05,220.56
2000-09-06,210.25
2000-09-07,214.75
2000-09-08,197.5
2000-09-11,182.94
2000-09-12,188.84
2000-09-13,198.19
2000-09-14,199.0
2000-09-15,201.5
2000-09-18,191.94
2000-09-19,209.94
2000-09-20,220.13
2000-09-21,210.8
2000-09-22,225.38
2000-09-25,228.88
2000-09-26,230.98
2000-09-27,225.69
2000-09-28,227.25
2000-09-29,219.0
2000-10-02,205.86
2000-10-03,201.0
2000-10-04,208.0
2000-10-05,197.0
2000-10-06,189.75
2000-10-09,200.0
2000-10-10,206.44
2000-10-11,206.25
2000-10-12,200.0
2000-10-13,228.5
2000-10-16,243.0
2000-10-17,229.5
2000-10-18,213.31
2000-10-19,233.19
2000-10-20,232.19
2000-10-23,224.69
2000-10-24,218.13
2000-10-25,195.58
2000-10-26,189.06
2000-10-27,181.83
2000-10-30,165.75
2000-10-31,196.06
2000-11-01,183.56
2000-11-02,194.94
2000-11-03,216.38
2000-11-06,218.88
2000-11-07,211.0
2000-11-08,188.44
2000-11-09,179.38
2000-11-10,171.0
2000-11-13,164.56
2000-11-14,183.63
2000-11-15,177.38
2000-11-16,162.13
2000-11-17,154.23
2000-11-20,121.75
2000-11-21,113.81
2000-11-22,119.02
2000-11-24,133.0
2000-11-27,123.56
2000-11-28,106.44
2000-11-29,115.94
2000-11-30,124.5
2000-12-01,131.5
2000-12-04,129.13
2000-12-05,156.19
2000-12-06,140.38
2000-12-07,148.56
2000-12-08,166.19
2000-12-11,163.94
2000-12-12,161.19
2000-12-13,154.86
2000-12-14,136.31
2000-12-15,129.02
2000-12-18,129.05
2000-12-19,113.75
2000-12-20,98.19
2000-12-21,93.56
2000-12-22,122.75
2000-12-26,116.88
2000-12-27,127.75
2000-12-28,138.75
2000-12-29,126.22
2001-01-02,102.44
2001-01-03,132.06
2001-01-04,125.81
2001-01-05,110.06
2001-01-08,115.5
2001-01-09,117.27
2001-01-10,119.2
2001-01-11,132.56
2001-01-12,131.44
2001-01-16,128.0
2001-01-17,136.19
2001-01-18,136.47
2001-01-19,134.38
2001-01-22,127.56
2001-01-23,135.5
2001-01-24,133.75
2001-01-25,126.38
2001-01-26,119.06
2001-01-29,116.0
2001-01-30,111.88
2001-01-31,105.94
2001-02-01,108.25
2001-02-02,101.0
2001-02-05,104.75
2001-02-06,102.19
2001-02-07,94.25
2001-02-08,92.95
2001-02-09,84.0
2001-02-12,79.83
2001-02-13,78.94
2001-02-14,89.13
2001-02-15,91.88
2001-02-16,80.5
2001-02-20,74.94
2001-02-21,74.88
2001-02-22,69.06
2001-02-23,74.63
2001-02-26,72.13
2001-02-27,62.7
2001-02-28,64.56
2001-03-01,61.63
2001-03-02,53.63
2001-03-05,58.63
2001-03-06,63.94
2001-03-07,60.81
2001-03-08,61.88
2001-03-09,54.94
2001-03-12,49.69
2001-03-13,58.56
2001-03-14,57.38
2001-03-15,55.56
2001-03-16,53.38
2001-03-19,58.38
2001-03-20,52.69
2001-03-21,52.88
2001-03-22,57.0
2001-03-23,55.69
2001-03-26,51.53
2001-03-27,52.76
2001-03-28,44.0
2001-03-29,39.49
2001-03-30,37.96
2001-04-02,35.84
2001-04-03,30.69
2001-04-04,29.15
2001-04-05,37.15
2001-04-06,33.84
2001-04-09,33.2
2001-04-10,40.53
2001-04-11,42.82
2001-04-12,50.45
2001-04-16,48.45
2001-04-17,50.86
2001-04-18,57.57
2001-04-19,65.6
2001-04-20,65.31
2001-04-23,59.33
2001-04-24,57.15
2001-04-25,57.91
2001-04-26,51.86
2001-04-27,55.03
2001-04-30,59.16
2001-05-01,63.17
2001-05-02,65.07
2001-05-03,60.75
2001-05-04,61.01
2001-05-07,57.01
2001-05-08,58.99
2001-05-09,57.42
2001-05-10,53.7
2001-05-11,54.3
2001-05-14,53.7
2001-05-15,53.2
2001-05-16,57.85
2001-05-17,53.32
2001-05-18,54.86
2001-05-21,56.5
2001-05-22,56.9
2001-05-23,53.32
2001-05-24,54.57
2001-05-25,52.27
2001-05-29,46.4
2001-05-30,40.21
2001-05-31,42.54
2001-06-01,42.72
2001-06-04,44.38
2001-06-05,46.53
2001-06-06,44.66
2001-06-07,46.63
2001-06-08,38.0
2001-06-11,35.31
2001-06-12,35.57
2001-06-13,33.23
2001-06-14,32.41
2001-06-15,31.11
2001-06-18,28.28
2001-06-19,28.54
2001-06-20,31.09
2001-06-21,29.9
2001-06-22,28.99
2001-06-25,30.51
2001-06-26,29.45
2001-06-27,30.12
2001-06-28,30.25
2001-06-29,30.99
2001-07-02,31.79
2001-07-03,31.37
2001-07-05,28.5
2001-07-06,26.65
2001-07-09,27.91
2001-07-10,25.11
2001-07-11,24.53
2001-07-12,28.32
2001-07-13,27.41
2001-07-16,25.2
2001-07-17,26.01
2001-07-18,24.08
2001-07-19,24.5
2001-07-20,24.82
2001-07-23,24.53
2001-07-24,24.93
2001-07-25,23.27
2001-07-26,25.0
2001-07-27,25.82
2001-07-30,25.25
2001-07-31,25.69
2001-08-01,27.48
2001-08-02,27.9
2001-08-03,27.62
2001-08-06,26.6
2001-08-07,25.91
2001-08-08,23.53
2001-08-09,23.69
2001-08-10,22.7
2001-08-13,22.85
2001-08-14,23.47
2001-08-15,22.06
2001-08-16,20.05
2001-08-17,18.53
2001-08-20,17.95
2001-08-21,17.16
2001-08-22,16.29
2001-08-23,16.24
2001-08-24,17.25
2001-08-27,17.18
2001-08-28,16.67
2001-08-29,15.54
2001-08-30,14.42
2001-08-31,13.98
2001-09-04,13.4
2001-09-05,12.71
2001-09-06,12.69
2001-09-07,12.78
2001-09-10,12.53
2001-09-17,11.43
2001-09-18,9.96
2001-09-19,10.72
2001-09-20,10.96
2001-09-21,11.09
2001-09-24,12.17
2001-09-25,11.03
2001-09-26,10.21
2001-09-27,9.7
2001-09-28,9.73
2001-10-01,9.3
2001-10-02,9.52
2001-10-03,12.01
2001-10-04,13.28
2001-10-05,15.08
2001-10-08,15.22
2001-10-09,14.78
2001-10-10,15.0
2001-10-11,16.75
2001-10-12,21.11
2001-10-15,20.54
2001-10-16,22.96
2001-10-17,21.17
2001-10-18,23.0
2001-10-19,23.65
2001-10-22,23.21
2001-10-23,23.99
2001-10-24,26.99
2001-10-25,26.34
2001-10-26,25.01
2001-10-29,24.01
2001-10-30,22.93
2001-10-31,22.1
2001-11-01,22.02
2001-11-02,19.6
2001-11-05,22.63
2001-11-06,22.47
2001-11-07,23.0
2001-11-08,22.5
2001-11-09,23.41
2001-11-12,23.98
2001-11-13,23.88
2001-11-14,25.25
2001-11-15,25.11
2001-11-16,25.62
2001-11-19,26.52
2001-11-20,25.03
2001-11-21,25.24
2001-11-23,25.8
2001-11-26,26.48
2001-11-27,26.58
2001-11-28,24.1
2001-11-29,24.68
2001-11-30,24.4
2001-12-03,23.25
2001-12-04,25.16
2001-12-05,25.64
2001-12-06,26.84
2001-12-07,25.58
2001-12-10,24.34
2001-12-11,24.54
2001-12-12,23.88
2001-12-13,21.13
2001-12-14,20.27
2001-12-17,21.1
2001-12-18,23.26
2001-12-19,22.85
2001-12-20,18.94
2001-12-21,19.95
2001-12-24,19.79
2001-12-26,19.21
2001-12-27,19.31
2001-12-28,19.38
2001-12-31,19.02
2002-01-02,20.77
2002-01-03,21.92
2002-01-04,21.51
2002-01-07,21.51
2002-01-08,21.25
2002-01-09,21.08
2002-01-10,20.45
2002-01-11,19.34
2002-01-14,18.05
2002-01-15,17.97
2002-01-16,16.94
2002-01-17,17.6
2002-01-18,16.91
2002-01-22,16.11
2002-01-23,16.91
2002-01-24,16.97
2002-01-25,16.86
2002-01-28,16.91
2002-01-29,16.5
2002-01-30,16.36
2002-01-31,15.33
2002-02-01,15.01
2002-02-04,13.97
2002-02-05,13.52
2002-02-06,13.82
2002-02-07,13.19
2002-02-08,13.89
2002-02-11,14.95
2002-02-12,13.81
2002-02-13,13.0
2002-02-14,10.94
2002-02-15,10.2
2002-02-19,10.13
2002-02-20,10.07
2002-02-21,9.62
2002-02-22,9.47
2002-02-25,9.91
2002-02-26,10.19
2002-02-27,9.52
2002-02-28,9.38
2002-03-01,9.82
2002-03-04,11.67
2002-03-05,12.05
2002-03-06,12.32
2002-03-07,12.59
2002-03-08,13.41
2002-03-11,14.78
2002-03-12,13.61
2002-03-13,12.97
2002-03-14,11.47
2002-03-15,11.45
2002-03-18,11.36
2002-03-19,11.33
2002-03-20,11.32
2002-03-21,11.91
2002-03-22,12.22
2002-03-25,11.56
2002-03-26,11.55
2002-03-27,11.92
2002-03-28,12.61
2002-04-01,13.22
2002-04-02,12.34
2002-04-03,11.9
2002-04-04,12.34
2002-04-05,11.39
2002-04-08,11.9
2002-04-09,11.01
2002-04-10,10.91
2002-04-11,10.42
2002-04-12,10.92
2002-04-15,11.02
2002-04-16,11.76
2002-04-17,12.36
2002-04-18,12.23
2002-04-19,12.06
2002-04-22,11.15
2002-04-23,10.57
2002-04-24,10.63
2002-04-25,10.5
2002-04-26,10.07
2002-04-29,9.76
2002-04-30,10.12
2002-05-01,9.76
2002-05-02,9.47
2002-05-03,9.06
2002-05-06,8.53
2002-05-07,8.43
2002-05-08,9.57
2002-05-09,9.02
2002-05-10,8.9
2002-05-13,9.28
2002-05-14,9.88
2002-05-15,9.65
2002-05-16,10.02
2002-05-17,9.81
2002-05-20,9.42
2002-05-21,9.73
2002-05-22,10.15
2002-05-23,10.22
2002-05-24,10.09
2002-05-28,10.31
2002-05-29,9.87
2002-05-30,9.59
2002-05-31,9.27
2002-06-03,8.62
2002-06-04,8.74
2002-06-05,8.77
2002-06-06,8.45
2002-06-07,8.07
2002-06-10,7.87
2002-06-11,7.36
2002-06-12,7.22
2002-06-13,7.18
2002-06-14,7.06
2002-06-17,7.71
2002-06-18,7.56
2002-06-19,7.07
2002-06-20,6.55
2002-06-21,6.53
2002-06-24,6.79
2002-06-25,6.24
2002-06-26,5.15
2002-06-27,5.45
2002-06-28,5.69
2002-07-01,5.65
2002-07-02,6.31
2002-07-03,6.73
2002-07-05,7.17
2002-07-08,7.25
2002-07-09,7.12
2002-07-10,7.16
2002-07-11,7.17
2002-07-12,7.56
2002-07-15,8.0
2002-07-16,8.38
2002-07-17,9.11
2002-07-18,8.95
2002-07-19,8.81
2002-07-22,8.16
2002-07-23,7.46
2002-07-24,7.85
2002-07-25,7.26
2002-07-26,7.01
2002-07-29,7.58
2002-07-30,8.47
2002-07-31,8.01
2002-08-01,7.27
2002-08-02,7.26
2002-08-05,6.71
2002-08-06,7.5
2002-08-07,7.35
2002-08-08,7.67
2002-08-09,7.48
2002-08-12,7.37
2002-08-13,7.25
2002-08-14,7.78
2002-08-15,7.74
2002-08-16,8.13
2002-08-19,8.59
2002-08-20,8.47
2002-08-21,8.39
2002-08-22,8.44
2002-08-23,7.78
2002-08-26,7.98
2002-08-27,7.51
2002-08-28,7.0
2002-08-29,7.4
2002-08-30,7.14
2002-09-03,6.92
2002-09-04,7.05
2002-09-05,7.02
2002-09-06,6.94
2002-09-09,7.17
2002-09-10,7.16
2002-09-11,7.21
2002-09-12,7.0
2002-09-13,6.62
2002-09-16,6.55
2002-09-17,6.05
2002-09-18,5.74
2002-09-19,5.6
2002-09-20,5.67
2002-09-23,5.39
2002-09-24,5.06
2002-09-25,5.12
2002-09-26,4.59
2002-09-27,4.65
2002-09-30,4.8
2002-10-01,5.29
2002-10-02,5.1
2002-10-03,4.73
2002-10-04,4.81
2002-10-07,4.45
2002-10-08,4.46
2002-10-09,4.62
2002-10-10,5.07
2002-10-11,4.7
2002-10-14,4.71
2002-10-15,5.17
2002-10-16,4.57
2002-10-17,4.72
2002-10-18,4.9
2002-10-21,4.99
2002-10-22,5.12
2002-10-23,5.35
2002-10-24,5.72
2002-10-25,5.58
2002-10-28,5.4
2002-10-29,5.03
2002-10-30,5.32
2002-10-31,5.82
2002-11-01,6.9
2002-11-04,7.02
2002-11-05,7.27
2002-11-06,7.69
2002-11-07,7.16
2002-11-08,6.62
2002-11-11,5.95
2002-11-12,6.36
2002-11-13,6.58
2002-11-14,6.95
2002-11-15,7.09
2002-11-18,7.35
2002-11-19,6.86
2002-11-20,7.32
2002-11-21,8.7
2002-11-22,8.75
2002-11-25,9.6
2002-11-26,8.9
2002-11-27,9.63
2002-11-29,9.75
2002-12-02,9.89
2002-12-03,8.91
2002-12-04,8.49
2002-12-05,8.58
2002-12-06,8.41
2002-12-09,7.74
2002-12-10,7.93
2002-12-11,8.08
2002-12-12,8.21
2002-12-13,8.05
2002-12-16,8.07
2002-12-17,8.0
2002-12-18,7.64
2002-12-19,7.45
2002-12-20,7.34
2002-12-23,7.49
2002-12-24,7.25
2002-12-26,7.1
2002-12-27,7.0
2002-12-30,6.74
2002-12-31,6.76
2003-01-02,7.37
2003-01-03,7.39
2003-01-06,8.05
2003-01-07,8.8
2003-01-08,8.33
2003-01-09,9.41
2003-01-10,9.24
2003-01-13,9.2
2003-01-14,9.73
2003-01-15,9.7
2003-01-16,9.33
2003-01-17,8.52
2003-01-21,8.96
2003-01-22,8.9
2003-01-23,9.13
2003-01-24,8.79
2003-01-27,8.83
2003-01-28,9.19
2003-01-29,9.34
2003-01-30,9.02
2003-01-31,8.77
2003-02-03,8.9
2003-02-04,8.61
2003-02-05,8.89
2003-02-06,8.96
2003-02-07,8.48
2003-02-10,8.74
2003-02-11,8.78
2003-02-12,8.55
2003-02-13,8.4
2003-02-14,8.69
2003-02-18,9.16
2003-02-19,9.09
2003-02-20,8.88
2003-02-21,9.12
2003-02-24,8.99
2003-02-25,8.69
2003-02-26,8.5
2003-02-27,8.53
2003-02-28,9.0
2003-03-03,8.92
2003-03-04,8.99
2003-03-05,8.96
2003-03-06,8.91
2003-03-07,8.88
2003-03-10,8.56
2003-03-11,8.17
2003-03-12,7.83
2003-03-13,8.63
2003-03-14,8.48
2003-03-17,9.08
2003-03-18,9.24
2003-03-19,9.18
2003-03-20,9.17
2003-03-21,9.09
2003-03-24,8.5
2003-03-25,8.49
2003-03-26,8.71
2003-03-27,8.46
2003-03-28,8.42
2003-03-31,8.17
2003-04-01,8.19
2003-04-02,8.53
2003-04-03,8.93
2003-04-04,8.78
2003-04-07,8.89
2003-04-08,8.73
2003-04-09,8.42
2003-04-10,8.37
2003-04-11,9.07
2003-04-14,9.39
2003-04-15,9.97
2003-04-16,9.93
2003-04-17,10.06
2003-04-21,10.28
2003-04-22,10.49
2003-04-23,10.2
2003-04-24,9.99
2003-04-25,9.67
2003-04-28,10.08
2003-04-29,10.36
2003-04-30,10.23
2003-05-01,10.22
2003-05-02,11.16
2003-05-05,12.0
2003-05-06,12.26
2003-05-07,12.19
2003-05-08,11.92
2003-05-09,11.99
2003-05-12,12.54
2003-05-13,12.5
2003-05-14,13.04
2003-05-15,13.04
2003-05-16,13.14
2003-05-19,12.63
2003-05-20,12.63
2003-05-21,12.69
2003-05-22,12.93
2003-05-23,12.8
2003-05-27,13.93
2003-05-28,13.93
2003-05-29,13.68
2003-05-30,13.73
2003-06-02,13.99
2003-06-03,13.86
2003-06-04,14.4
2003-06-05,14.35
2003-06-06,13.77
2003-06-09,13.42
2003-06-10,13.73
2003-06-11,13.55
2003-06-12,13.56
2003-06-13,12.86
2003-06-16,13.17
2003-06-17,13.18
2003-06-18,13.86
2003-06-19,13.4
2003-06-20,13.15
2003-06-23,12.54
2003-06-24,12.05
2003-06-25,12.53
2003-06-26,12.57
2003-06-27,12.45
2003-06-30,12.46
2003-07-01,12.56
2003-07-02,13.3
2003-07-03,13.32
2003-07-07,14.02
2003-07-08,14.82
2003-07-09,14.96
2003-07-10,14.1
2003-07-11,14.48
2003-07-14,15.02
2003-07-15,14.77
2003-07-16,14.62
2003-07-17,13.94
2003-07-18,13.82
2003-07-21,13.6
2003-07-22,13.96
2003-07-23,14.16
2003-07-24,14.16
2003-07-25,14.0
2003-07-28,14.58
2003-07-29,14.79
2003-07-30,14.12
2003-07-31,14.33
2003-08-01,14.33
2003-08-04,14.15
2003-08-05,13.6
2003-08-06,13.21
2003-08-07,13.11
2003-08-08,13.33
2003-08-11,13.2
2003-08-12,13.52
2003-08-13,13.64
2003-08-14,13.61
2003-08-15,13.6
2003-08-18,14.23
2003-08-19,14.68
2003-08-20,15.44
2003-08-21,15.59
2003-08-22,15.51
2003-08-25,15.91
2003-08-26,16.35
2003-08-27,16.98
2003-08-28,17.48
2003-08-29,17.25
2003-09-02,17.28
2003-09-03,17.63
2003-09-04,17.97
2003-09-05,17.35
2003-09-08,17.7
2003-09-09,17.46
2003-09-10,16.54
2003-09-11,16.79
2003-09-12,17.13
2003-09-15,16.41
2003-09-16,16.73
2003-09-17,16.75
2003-09-18,16.66
2003-09-19,16.44
2003-09-22,16.21
2003-09-23,16.05
2003-09-24,15.69
2003-09-25,15.31
2003-09-26,15.0
2003-09-29,15.36
2003-09-30,15.0
2003-10-01,15.19
2003-10-02,15.23
2003-10-03,16.64
2003-10-06,17.25
2003-10-07,18.02
2003-10-08,17.92
2003-10-09,18.4
2003-10-10,17.64
2003-10-13,17.59
2003-10-14,17.71
2003-10-15,17.11
2003-10-16,17.33
2003-10-17,17.07
2003-10-20,16.98
2003-10-21,17.07
2003-10-22,16.75
2003-10-23,16.53
2003-10-24,16.51
2003-10-27,16.8
2003-10-28,17.68
2003-10-29,17.96
2003-10-30,17.89
2003-10-31,18.0
2003-11-03,18.53
2003-11-04,18.53
2003-11-05,19.01
2003-11-06,19.01
2003-11-07,18.7
2003-11-10,18.32
2003-11-11,18.37
2003-11-12,18.59
2003-11-13,18.47
2003-11-14,17.76
2003-11-17,17.59
2003-11-18,17.3
2003-11-19,17.69
2003-11-20,17.42
2003-11-21,17.46
2003-11-24,18.27
2003-11-25,18.66
2003-11-26,18.63
2003-11-28,18.87
2003-12-01,18.93
2003-12-02,18.34
2003-12-03,17.96
2003-12-04,18.12
2003-12-05,17.91
2003-12-08,18.15
2003-12-09,17.48
2003-12-10,17.22
2003-12-11,17.87
2003-12-12,17.45
2003-12-15,17.11
2003-12-16,16.63
2003-12-17,17.02
2003-12-18,18.02
2003-12-19,18.04
2003-12-22,18.0
2003-12-23,18.26
2003-12-24,18.44
2003-12-26,18.62
2003-12-29,18.5
2003-12-30,18.51
2003-12-31,18.68
2004-01-02,19.63
2004-01-05,19.8
2004-01-06,20.14
2004-01-07,20.22
2004-01-08,21.3
2004-01-09,22.01
2004-01-12,23.74
2004-01-13,23.01
2004-01-14,22.74
2004-01-15,22.98
2004-01-16,29.89
2004-01-20,30.39
2004-01-21,29.61
2004-01-22,29.16
2004-01-23,27.96
2004-01-26,29.38
2004-01-27,28.75
2004-01-28,28.42
2004-01-29,28.14
2004-01-30,28.84
2004-02-02,28.57
2004-02-03,28.25
2004-02-04,28.32
2004-02-05,28.27
2004-02-06,29.49
2004-02-09,26.18
2004-02-10,27.37
2004-02-11,26.96
2004-02-12,26.61
2004-02-13,26.63
2004-02-17,26.49
2004-02-18,26.9
2004-02-19,25.93
2004-02-20,25.6
2004-02-23,24.71
2004-02-24,24.73
2004-02-25,25.22
2004-02-26,25.96
2004-02-27,25.73
2004-03-01,25.9
2004-03-02,25.79
2004-03-03,25.26
2004-03-04,25.35
2004-03-05,25.3
2004-03-08,24.45
2004-03-09,23.84
2004-03-10,24.26
2004-03-11,24.63
2004-03-12,25.81
2004-03-15,24.81
2004-03-16,24.52
2004-03-17,25.4
2004-03-18,25.38
2004-03-19,24.85
2004-03-22,23.52
2004-03-23,23.66
2004-03-24,23.95
2004-03-25,25.03
2004-03-26,25.41
2004-03-29,26.09
2004-03-30,26.53
2004-03-31,26.03
2004-04-01,26.32
2004-04-02,27.04
2004-04-05,27.51
2004-04-06,27.05
2004-04-07,27.14
2004-04-08,27.6
2004-04-12,27.54
2004-04-13,26.18
2004-04-14,26.03
2004-04-15,26.01
2004-04-16,25.06
2004-04-19,25.64
2004-04-20,24.9
2004-04-21,25.84
2004-04-22,26.64
2004-04-23,26.13
2004-04-26,25.21
2004-04-27,25.03
2004-04-28,24.12
2004-04-29,22.97
2004-04-30,21.9
2004-05-03,22.07
2004-05-04,23.35
2004-05-05,23.09
2004-05-06,22.79
2004-05-07,23.03
2004-05-10,22.24
2004-05-11,22.15
2004-05-12,22.24
2004-05-13,22.5
2004-05-14,20.87
2004-05-17,20.11
2004-05-18,20.59
2004-05-19,20.92
2004-05-20,20.32
2004-05-21,20.35
2004-05-24,20.47
2004-05-25,21.64
2004-05-26,21.31
2004-05-27,20.75
2004-05-28,20.87
2004-06-01,20.76
2004-06-02,20.97
2004-06-03,20.08
2004-06-04,19.93
2004-06-07,20.85
2004-06-08,21.44
2004-06-09,20.41
2004-06-10,20.79
2004-06-14,20.3
2004-06-15,20.81
2004-06-16,21.04
2004-06-17,20.64
2004-06-18,20.87
2004-06-21,20.32
2004-06-22,20.75
2004-06-23,23.3
2004-06-24,23.09
2004-06-25,23.8
2004-06-28,23.59
2004-06-29,24.1
2004-06-30,24.48
2004-07-01,23.71
2004-07-02,23.77
2004-07-06,22.48
2004-07-07,22.76
2004-07-08,22.67
2004-07-09,23.2
2004-07-12,22.26
2004-07-13,21.97
2004-07-14,24.55
2004-07-15,24.29
2004-07-16,24.1
2004-07-19,23.75
2004-07-20,24.24
2004-07-21,22.93
2004-07-22,23.18
2004-07-23,22.74
2004-07-26,21.83
2004-07-27,22.76
2004-07-28,22.15
2004-07-29,22.88
2004-07-30,23.02
2004-08-02,23.02
2004-08-03,22.4
2004-08-04,22.28
2004-08-05,21.82
2004-08-06,21.11
2004-08-09,20.92
2004-08-10,21.54
2004-08-11,20.69
2004-08-12,20.2
2004-08-13,20.3
2004-08-16,20.38
2004-08-17,21.03
2004-08-18,21.7
2004-08-19,21.74
2004-08-20,22.0
2004-08-23,22.0
2004-08-24,21.56
2004-08-25,22.6
2004-08-26,22.7
2004-08-27,22.97
2004-08-30,22.44
2004-08-31,22.84
2004-09-01,23.43
2004-09-02,23.63
2004-09-03,23.16
2004-09-07,23.35
2004-09-08,23.59
2004-09-09,23.98
2004-09-10,24.87
2004-09-13,24.24
2004-09-14,24.71
2004-09-15,24.21
2004-09-16,24.3
2004-09-17,24.16
2004-09-20,24.65
2004-09-21,25.71
2004-09-22,24.79
2004-09-23,25.08
2004-09-24,24.68
2004-09-27,24.15
2004-09-28,23.52
2004-09-29,23.39
2004-09-30,23.5
2004-10-01,23.94
2004-10-04,24.97
2004-10-05,25.03
2004-10-06,25.88
2004-10-07,25.19
2004-10-08,24.33
2004-10-11,24.49
2004-10-12,24.56
2004-10-13,24.67
2004-10-14,25.01
2004-10-15,23.58
2004-10-18,24.56
2004-10-19,24.26
2004-10-20,23.96
2004-10-21,24.58
2004-10-22,23.98
2004-10-25,23.67
2004-10-26,24.25
2004-10-27,25.81
2004-10-28,26.31
2004-10-29,26.67
2004-11-01,26.56
2004-11-02,26.81
2004-11-03,27.35
2004-11-04,27.23
2004-11-05,27.83
2004-11-08,27.35
2004-11-09,27.2
2004-11-10,27.1
2004-11-11,27.75
2004-11-12,28.45
2004-11-15,28.74
2004-11-16,28.74
2004-11-17,28.7
2004-11-18,28.77
2004-11-19,27.94
2004-11-22,28.21
2004-11-23,28.51
2004-11-24,28.62
2004-11-26,28.2
2004-11-29,28.09
2004-11-30,27.57
2004-12-01,28.18
2004-12-02,28.6
2004-12-03,28.45
2004-12-06,29.13
2004-12-07,28.77
2004-12-08,28.99
2004-12-09,28.38
2004-12-10,28.16
2004-12-13,27.92
2004-12-14,27.32
2004-12-15,27.55
2004-12-16,26.75
2004-12-17,26.59
2004-12-20,26.36
2004-12-21,26.91
2004-12-22,27.0
2004-12-23,26.94
2004-12-27,26.87
2004-12-28,27.0
2004-12-29,27.09
2004-12-30,27.16
2004-12-31,27.19
2005-01-03,26.85
2005-01-04,25.87
2005-01-05,25.64
2005-01-06,25.17
2005-01-07,25.46
2005-01-10,25.87
2005-01-11,25.59
2005-01-12,26.26
2005-01-13,26.41
2005-01-14,26.58
2005-01-18,26.51
2005-01-19,25.8
2005-01-20,25.44
2005-01-21,24.98
2005-01-24,24.06
2005-01-25,24.49
2005-01-26,24.55
2005-01-27,25.0
2005-01-28,24.55
2005-01-31,25.02
2005-02-01,24.95
2005-02-02,24.51
2005-02-03,23.35
2005-02-04,22.99
2005-02-07,23.14
2005-02-08,23.61
2005-02-09,23.36
2005-02-10,23.28
2005-02-11,23.59
2005-02-14,23.57
2005-02-15,23.18
2005-02-16,22.95
2005-02-17,22.47
2005-02-18,21.95
2005-02-22,21.47
2005-02-23,21.52
2005-02-24,21.66
2005-02-25,21.64
2005-02-28,21.46
2005-03-01,21.55
2005-03-02,21.77
2005-03-03,21.31
2005-03-04,21.31
2005-03-07,22.99
2005-03-08,22.56
2005-03-09,23.36
2005-03-10,23.05
2005-03-11,22.41
2005-03-14,22.31
2005-03-15,21.97
2005-03-16,21.42
2005-03-17,21.85
2005-03-18,21.4
2005-03-21,21.26
2005-03-22,20.75
2005-03-23,20.95
2005-03-24,21.54
2005-03-28,21.27
2005-03-29,21.25
2005-03-30,22.15
2005-03-31,22.03
2005-04-01,21.55
2005-04-04,22.01
2005-04-05,21.95
2005-04-06,21.82
2005-04-07,21.94
2005-04-08,21.72
2005-04-11,21.76
2005-04-12,21.63
2005-04-13,21.17
2005-04-14,20.73
2005-04-15,19.77
2005-04-18,20.3
2005-04-19,21.27
2005-04-20,22.64
2005-04-21,22.78
2005-04-22,22.67
2005-04-25,22.95
2005-04-26,22.28
2005-04-27,22.88
2005-04-28,22.4
2005-04-29,22.53
2005-05-02,22.73
2005-05-03,22.92
2005-05-04,23.1
2005-05-05,22.63
2005-05-06,22.91
2005-05-09,23.15
2005-05-10,23.05
2005-05-11,23.52
2005-05-12,23.65
2005-05-13,24.24
2005-05-16,24.19
2005-05-17,24.01
2005-05-18,24.67
2005-05-19,25.1
2005-05-20,25.71
2005-05-23,25.7
2005-05-24,25.78
2005-05-25,25.35
2005-05-26,25.88
2005-05-27,25.82
2005-05-31,25.71
2005-06-01,25.69
2005-06-02,25.64
2005-06-03,25.24
2005-06-06,25.04
2005-06-07,24.77
2005-06-08,24.58
2005-06-09,24.82
2005-06-10,25.15
2005-06-13,25.17
2005-06-14,24.98
2005-06-15,25.44
2005-06-16,26.24
2005-06-17,26.2
2005-06-20,26.02
2005-06-21,27.12
2005-06-22,27.1
2005-06-23,26.78
2005-06-24,25.65
2005-06-27,25.26
2005-06-28,25.22
2005-06-29,25.25
2005-06-30,25.21
2005-07-01,24.88
2005-07-05,24.73
2005-07-06,24.99
2005-07-07,24.88
2005-07-08,25.27
2005-07-11,25.5
2005-07-12,25.94
2005-07-13,26.18
2005-07-14,26.26
2005-07-15,26.09
2005-07-18,26.11
2005-07-19,26.52
2005-07-20,24.97
2005-07-21,23.86
2005-07-22,23.83
2005-07-25,23.04
2005-07-26,23.09
2005-07-27,24.13
2005-07-28,24.0
2005-07-29,24.01
2005-08-01,24.13
2005-08-02,24.19
2005-08-03,24.43
2005-08-04,23.75
2005-08-05,23.64
2005-08-08,23.11
2005-08-09,23.33
2005-08-10,23.55
2005-08-11,23.77
2005-08-12,23.53
2005-08-15,23.5
2005-08-16,23.61
2005-08-17,23.47
2005-08-18,23.35
2005-08-19,23.35
2005-08-22,23.57
2005-08-23,23.62
2005-08-24,23.52
2005-08-25,23.32
2005-08-26,22.97
2005-08-29,22.83
2005-08-30,22.6
2005-08-31,22.72
2005-09-01,23.01
2005-09-02,23.15
2005-09-06,23.35
2005-09-07,23.77
2005-09-08,24.08
2005-09-09,24.03
2005-09-12,24.01
2005-09-13,24.0
2005-09-14,23.52
2005-09-15,23.39
2005-09-16,23.57
2005-09-19,23.29
2005-09-20,23.17
2005-09-21,22.72
2005-09-22,22.44
2005-09-23,22.37
2005-09-26,22.44
2005-09-27,22.57
2005-09-28,23.48
2005-09-29,23.65
2005-09-30,23.79
2005-10-03,23.07
2005-10-04,22.61
2005-10-05,22.09
2005-10-06,22.32
2005-10-07,22.4
2005-10-10,22.17
2005-10-11,21.55
2005-10-12,21.41
2005-10-13,21.91
2005-10-14,21.6
2005-10-17,21.83
2005-10-18,21.33
2005-10-19,21.98
2005-10-20,22.81
2005-10-21,23.23
2005-10-24,23.22
2005-10-25,22.93
2005-10-26,22.84
2005-10-27,22.47
2005-10-28,22.71
2005-10-31,23.28
2005-11-01,23.72
2005-11-02,24.09
2005-11-03,24.18
2005-11-04,23.96
2005-11-07,24.49
2005-11-08,24.4
2005-11-09,24.58
2005-11-10,24.43
2005-11-11,23.99
2005-11-14,23.61
2005-11-15,23.29
2005-11-16,22.98
2005-11-17,23.36
2005-11-18,23.4
2005-11-21,23.38
2005-11-22,23.59
2005-11-23,24.06
2005-11-25,23.84
2005-11-28,23.82
2005-11-29,23.31
2005-11-30,22.53
2005-12-01,22.87
2005-12-02,22.83
2005-12-05,23.44
2005-12-06,22.97
2005-12-07,22.73
2005-12-08,22.3
2005-12-09,22.54
2005-12-12,22.46
2005-12-13,22.25
2005-12-14,21.8
2005-12-15,21.55
2005-12-16,21.8
2005-12-19,21.89
2005-12-20,22.01
2005-12-21,22.15
2005-12-22,22.13
2005-12-23,22.31
2005-12-27,22.12
2005-12-28,22.67
2005-12-29,22.31
2005-12-30,22.26
2006-01-03,21.2
2006-01-04,21.35
2006-01-05,21.5
2006-01-06,22.03
2006-01-09,21.07
2006-01-10,22.22
2006-01-11,22.1
2006-01-12,21.64
2006-01-13,21.9
2006-01-17,21.75
2006-01-18,22.27
2006-01-19,22.39
2006-01-20,21.63
2006-01-23,21.21
2006-01-24,21.34
2006-01-25,21.52
2006-01-26,17.06
2006-01-27,17.45
2006-01-30,18.33
2006-01-31,18.05
2006-02-01,18.31
2006-02-02,18.05
2006-02-03,18.4
2006-02-06,18.66
2006-02-07,18.85
2006-02-08,18.96
2006-02-09,18.81
2006-02-10,19.21
2006-02-13,18.6
2006-02-14,19.03
2006-02-15,19.11
2006-02-16,18.61
2006-02-17,17.97
2006-02-21,17.45
2006-02-22,17.8
2006-02-23,17.8
2006-02-24,17.63
2006-02-27,17.89
2006-02-28,18.46
2006-03-01,19.6
2006-03-02,19.58
2006-03-03,19.59
2006-03-06,19.66
2006-03-07,19.61
2006-03-08,19.38
2006-03-09,19.13
2006-03-10,18.89
2006-03-13,18.97
2006-03-14,20.21
2006-03-15,20.24
2006-03-16,19.6
2006-03-17,19.45
2006-03-20,19.53
2006-03-21,19.37
2006-03-22,18.98
2006-03-23,19.01
2006-03-24,19.24
2006-03-27,19.33
2006-03-28,19.1
2006-03-29,19.41
2006-03-30,19.16
2006-03-31,19.08
2006-04-03,18.86
2006-04-04,18.88
2006-04-05,18.94
2006-04-06,18.94
2006-04-07,19.04
2006-04-10,18.76
2006-04-11,18.83
2006-04-12,19.08
2006-04-13,19.33
2006-04-17,19.42
2006-04-18,19.77
2006-04-19,20.26
2006-04-20,18.29
2006-04-21,17.82
2006-04-24,17.61
2006-04-25,18.14
2006-04-26,18.51
2006-04-27,18.22
2006-04-28,18.47
2006-05-01,18.05
2006-05-02,18.21
2006-05-03,18.13
2006-05-04,18.02
2006-05-05,17.86
2006-05-08,17.96
2006-05-09,17.97
2006-05-10,17.69
2006-05-11,17.15
2006-05-12,16.89
2006-05-15,16.94
2006-05-16,16.57
2006-05-17,16.87
2006-05-18,16.05
2006-05-19,15.03
2006-05-22,15.47
2006-05-23,15.06
2006-05-24,14.58
2006-05-25,15.31
2006-05-26,15.7
2006-05-30,15.84
2006-05-31,15.89
2006-06-01,17.03
2006-06-02,16.97
2006-06-05,16.78
2006-06-06,16.8
2006-06-07,17.01
2006-06-08,17.0
2006-06-09,16.74
2006-06-12,16.4
2006-06-13,16.09
2006-06-14,15.99
2006-06-15,16.67
2006-06-16,16.72
2006-06-19,15.89
2006-06-20,15.93
2006-06-21,15.86
2006-06-22,15.75
2006-06-23,15.86
2006-06-26,15.82
2006-06-27,15.44
2006-06-28,15.58
2006-06-29,16.0
2006-06-30,15.99
2006-07-03,16.18
2006-07-05,15.92
2006-07-06,16.01
2006-07-07,15.73
2006-07-10,15.41
2006-07-11,15.12
2006-07-12,14.47
2006-07-13,14.35
2006-07-14,14.09
2006-07-17,14.25
2006-07-18,14.29
2006-07-19,14.12
2006-07-20,14.07
2006-07-21,13.65
2006-07-24,13.77
2006-07-25,13.69
2006-07-26,13.39
2006-07-27,13.33
2006-07-28,13.67
2006-07-31,13.47
2006-08-01,13.3
2006-08-02,13.24
2006-08-03,13.2
2006-08-04,13.1
2006-08-07,12.99
2006-08-08,12.93
2006-08-09,13.41
2006-08-10,12.87
2006-08-11,12.2
2006-08-14,12.43
2006-08-15,13.45
2006-08-16,13.76
2006-08-17,13.81
2006-08-18,14.0
2006-08-21,13.99
2006-08-22,13.95
2006-08-23,13.49
2006-08-24,13.45
2006-08-25,13.75
2006-08-28,13.75
2006-08-29,13.83
2006-08-30,14.25
2006-08-31,14.65
2006-09-01,14.42
2006-09-05,15.03
2006-09-06,14.76
2006-09-07,14.36
2006-09-08,14.36
2006-09-11,14.25
2006-09-12,14.51
2006-09-13,15.2
2006-09-14,15.39
2006-09-15,15.31
2006-09-18,15.58
2006-09-19,15.92
2006-09-20,16.25
2006-09-21,16.55
2006-09-22,16.23
2006-09-25,16.86
2006-09-26,17.21
2006-09-27,17.27
2006-09-28,17.33
2006-09-29,17.3
2006-10-02,16.8
2006-10-03,17.1
2006-10-04,17.72
2006-10-05,18.2
2006-10-06,18.09
2006-10-09,17.88
2006-10-10,17.29
2006-10-11,16.83
2006-10-12,17.47
2006-10-13,17.49
2006-10-16,17.76
2006-10-17,17.29
2006-10-18,17.62
2006-10-19,18.56
2006-10-20,17.96
2006-10-23,17.58
2006-10-24,17.02
2006-10-25,16.95
2006-10-26,17.19
2006-10-27,16.91
2006-10-30,17.1
2006-10-31,17.24
2006-11-01,17.12
2006-11-02,16.94
2006-11-03,16.82
2006-11-06,17.72
2006-11-07,18.08
2006-11-08,18.73
2006-11-09,19.65
2006-11-10,19.44
2006-11-13,19.32
2006-11-14,19.61
2006-11-15,19.94
2006-11-16,20.0
2006-11-17,20.29
2006-11-20,20.49
2006-11-21,21.44
2006-11-22,21.53
2006-11-24,21.31
2006-11-27,20.33
2006-11-28,20.66
2006-11-29,20.88
2006-11-30,21.26
2006-12-01,20.75
2006-12-04,20.71
2006-12-05,20.61
2006-12-06,20.11
2006-12-07,20.02
2006-12-08,19.99
2006-12-11,20.34
2006-12-12,20.09
2006-12-13,19.68
2006-12-14,20.37
2006-12-15,19.8
2006-12-18,19.55
2006-12-19,19.25
2006-12-20,19.19
2006-12-21,19.36
2006-12-22,18.78
2006-12-26,18.86
2006-12-27,18.82
2006-12-28,19.03
2006-12-29,18.94
2007-01-03,19.23
2007-01-04,19.47
2007-01-05,19.92
2007-01-08,20.22
2007-01-09,20.04
2007-01-10,20.29
2007-01-11,20.67
2007-01-12,20.61
2007-01-16,20.77
2007-01-17,20.07
2007-01-18,19.53
2007-01-19,19.52
2007-01-22,19.1
2007-01-23,18.7
2007-01-24,18.98
2007-01-25,18.48
2007-01-26,18.98
2007-01-29,19.5
2007-01-30,19.86
2007-01-31,18.09
2007-02-01,17.95
2007-02-02,18.24
2007-02-05,18.47
2007-02-06,18.64
2007-02-07,19.23
2007-02-08,20.07
2007-02-09,19.23
2007-02-12,19.3
2007-02-13,19.15
2007-02-14,19.64
2007-02-15,19.85
2007-02-16,19.7
2007-02-20,19.96
2007-02-21,19.55
2007-02-22,19.48
2007-02-23,19.78
2007-02-26,19.59
2007-02-27,18.6
2007-02-28,18.91
2007-03-01,18.69
2007-03-02,18.42
2007-03-05,17.97
2007-03-06,18.51
2007-03-07,18.11
2007-03-08,18.4
2007-03-09,18.32
2007-03-12,18.42
2007-03-13,17.75
2007-03-14,18.1
2007-03-15,18.35
2007-03-16,18.01
2007-03-19,17.95
2007-03-20,18.73
2007-03-21,19.21
2007-03-22,19.31
2007-03-23,18.95
2007-03-26,19.58
2007-03-27,19.47
2007-03-28,19.64
2007-03-29,19.87
2007-03-30,19.68
2007-04-02,20.07
2007-04-03,20.53
2007-04-04,20.63
2007-04-05,20.56
2007-04-09,20.82
2007-04-10,20.98
2007-04-11,20.52
2007-04-12,20.5
2007-04-13,20.58
2007-04-16,20.93
2007-04-17,20.84
2007-04-18,20.94
2007-04-19,20.56
2007-04-20,20.54
2007-04-23,21.12
2007-04-24,20.86
2007-04-25,21.59
2007-04-26,22.27
2007-04-27,22.7
2007-04-30,22.34
2007-05-01,22.73
2007-05-02,22.95
2007-05-03,23.26
2007-05-04,22.93
2007-05-07,23.02
2007-05-08,23.64
2007-05-09,23.7
2007-05-10,23.25
2007-05-11,23.9
2007-05-14,23.42
2007-05-15,23.54
2007-05-16,23.99
2007-05-17,23.69
2007-05-18,23.26
2007-05-21,23.74
2007-05-22,23.83
2007-05-23,23.71
2007-05-24,23.53
2007-05-25,23.23
2007-05-29,24.08
2007-05-30,24.43
2007-05-31,24.39
2007-06-01,24.68
2007-06-04,24.97
2007-06-05,24.62
2007-06-06,24.47
2007-06-07,23.94
2007-06-08,24.48
2007-06-11,24.95
2007-06-12,24.86
2007-06-13,25.37
2007-06-14,25.41
2007-06-15,25.48
2007-06-18,25.31
2007-06-19,25.49
2007-06-20,24.78
2007-06-21,25.34
2007-06-22,25.09
2007-06-25,24.92
2007-06-26,25.03
2007-06-27,25.49
2007-06-28,25.33
2007-06-29,25.18
2007-07-02,25.8
2007-07-03,26.49
2007-07-05,26.94
2007-07-06,27.02
2007-07-09,26.86
2007-07-10,26.58
2007-07-11,27.21
2007-07-12,27.87
2007-07-13,27.84
2007-07-16,26.99
2007-07-17,27.09
2007-07-18,26.72
2007-07-19,30.07
2007-07-20,30.44
2007-07-23,30.99
2007-07-24,30.25
2007-07-25,31.84
2007-07-26,30.73
2007-07-27,30.0
2007-07-30,30.63
2007-07-31,29.98
2007-08-01,31.36
2007-08-02,32.51
2007-08-03,31.29
2007-08-06,33.41
2007-08-07,33.35
2007-08-08,34.32
2007-08-09,33.68
2007-08-10,32.15
2007-08-13,33.16
2007-08-14,31.57
2007-08-15,29.95
2007-08-16,30.18
2007-08-17,31.67
2007-08-20,31.65
2007-08-21,32.04
2007-08-22,32.69
2007-08-23,32.18
2007-08-24,32.6
2007-08-27,32.89
2007-08-28,32.32
2007-08-29,32.55
2007-08-30,32.81
2007-08-31,32.91
2007-09-04,33.87
2007-09-05,34.61
2007-09-06,35.01
2007-09-07,34.58
2007-09-10,35.18
2007-09-11,36.18
2007-09-12,37.07
2007-09-13,36.04
2007-09-14,35.63
2007-09-17,35.0
2007-09-18,36.4
2007-09-19,35.95
2007-09-20,36.0
2007-09-21,35.89
2007-09-24,35.57
2007-09-25,35.69
2007-09-26,35.19
2007-09-27,36.3
2007-09-28,36.59
2007-10-01,36.47
2007-10-02,36.64
2007-10-03,35.81
2007-10-04,35.98
2007-10-05,37.05
2007-10-08,36.96
2007-10-09,37.65
2007-10-10,37.66
2007-10-11,36.4
2007-10-12,37.1
2007-10-15,36.64
2007-10-16,36.64
2007-10-17,36.83
2007-10-18,36.99
2007-10-19,35.7
2007-10-22,35.86
2007-10-23,37.09
2007-10-24,34.06
2007-10-25,33.58
2007-10-26,33.93
2007-10-29,35.9
2007-10-30,35.91
2007-10-31,35.96
2007-11-01,34.77
2007-11-02,35.39
2007-11-05,35.17
2007-11-06,35.26
2007-11-07,34.1
2007-11-08,32.81
2007-11-09,31.25
2007-11-12,29.72
2007-11-13,31.18
2007-11-14,30.73
2007-11-15,29.95
2007-11-16,30.64
2007-11-19,29.76
2007-11-20,28.68
2007-11-21,29.13
2007-11-23,29.7
2007-11-26,28.61
2007-11-27,29.06
2007-11-28,30.56
2007-11-29,29.83
2007-11-30,29.77
2007-12-03,30.41
2007-12-04,30.4
2007-12-05,31.3
2007-12-06,31.23
2007-12-07,30.9
2007-12-10,31.39
2007-12-11,32.6
2007-12-12,33.44
2007-12-13,33.2
2007-12-14,33.16
2007-12-17,31.94
2007-12-18,32.26
2007-12-19,33.75
2007-12-20,34.05
2007-12-21,34.73
2007-12-24,34.48
2007-12-26,34.49
2007-12-27,33.56
2007-12-28,33.89
2007-12-31,33.17
2008-01-02,32.11
2008-01-03,32.41
2008-01-04,31.12
2008-01-07,30.65
2008-01-08,30.38
2008-01-09,30.87
2008-01-10,30.73
2008-01-11,26.57
2008-01-14,28.2
2008-01-15,27.6
2008-01-16,27.38
2008-01-17,26.6
2008-01-18,26.51
2008-01-22,25.66
2008-01-23,24.15
2008-01-24,26.42
2008-01-25,26.03
2008-01-28,27.18
2008-01-29,26.76
2008-01-30,26.85
2008-01-31,27.16
2008-02-01,27.24
2008-02-04,26.36
2008-02-05,25.54
2008-02-06,25.15
2008-02-07,24.66
2008-02-08,25.47
2008-02-11,25.82
2008-02-12,25.95
2008-02-13,27.46
2008-02-14,26.81
2008-02-15,26.16
2008-02-19,26.14
2008-02-20,26.04
2008-02-21,25.64
2008-02-22,26.2
2008-02-25,27.6
2008-02-26,27.51
2008-02-27,29.3
2008-02-28,28.62
2008-02-29,26.83
2008-03-03,25.92
2008-03-04,26.27
2008-03-05,27.23
2008-03-06,25.82
2008-03-07,24.88
2008-03-10,24.65
2008-03-11,25.75
2008-03-12,25.52
2008-03-13,25.56
2008-03-14,24.7
2008-03-17,24.34
2008-03-18,25.48
2008-03-19,24.51
2008-03-20,25.09
2008-03-24,25.5
2008-03-25,26.54
2008-03-26,26.23
2008-03-27,24.91
2008-03-28,24.28
2008-03-31,25.0
2008-04-01,25.76
2008-04-02,24.53
2008-04-03,24.37
2008-04-04,24.05
2008-04-07,23.45
2008-04-08,23.4
2008-04-09,22.96
2008-04-10,23.28
2008-04-11,22.84
2008-04-14,23.11
2008-04-15,22.74
2008-04-16,23.6
2008-04-17,23.3
2008-04-18,24.42
2008-04-21,25.11
2008-04-22,24.32
2008-04-23,25.4
2008-04-24,25.72
2008-04-25,26.71
2008-04-28,27.05
2008-04-29,27.38
2008-04-30,27.62
2008-05-01,28.63
2008-05-02,28.77
2008-05-05,28.52
2008-05-06,28.81
2008-05-07,28.03
2008-05-08,27.66
2008-05-09,27.35
2008-05-12,27.69
2008-05-13,27.23
2008-05-14,27.22
2008-05-15,28.1
2008-05-16,28.95
2008-05-19,29.07
2008-05-20,28.08
2008-05-21,27.56
2008-05-22,27.54
2008-05-23,27.33
2008-05-27,28.0
2008-05-28,27.98
2008-05-29,27.63
2008-05-30,27.48
2008-06-02,27.04
2008-06-03,26.63
2008-06-04,26.96
2008-06-05,26.82
2008-06-06,26.65
2008-06-09,26.81
2008-06-10,26.46
2008-06-11,25.08
2008-06-12,24.65
2008-06-13,24.15
2008-06-16,24.12
2008-06-17,23.6
2008-06-18,22.6
2008-06-19,23.32
2008-06-20,22.71
2008-06-23,22.98
2008-06-24,23.07
2008-06-25,23.32
2008-06-26,22.37
2008-06-27,22.58
2008-06-30,22.18
2008-07-01,21.69
2008-07-02,21.9
2008-07-03,22.85
2008-07-07,23.2
2008-07-08,23.33
2008-07-09,21.99
2008-07-10,22.0
2008-07-11,21.82
2008-07-14,21.71
2008-07-15,21.97
2008-07-16,22.61
2008-07-17,23.16
2008-07-18,22.57
2008-07-21,23.51
2008-07-22,22.36
2008-07-23,22.9
2008-07-24,22.64
2008-07-25,26.59
2008-07-28,25.57
2008-07-29,25.5
2008-07-30,25.96
2008-07-31,26.01
2008-08-01,26.18
2008-08-04,25.02
2008-08-05,25.94
2008-08-06,26.28
2008-08-07,25.81
2008-08-08,26.78
2008-08-11,26.43
2008-08-12,25.88
2008-08-13,26.09
2008-08-14,27.02
2008-08-15,26.98
2008-08-18,26.43
2008-08-19,25.76
2008-08-20,25.66
2008-08-21,25.54
2008-08-22,25.85
2008-08-25,25.42
2008-08-26,25.14
2008-08-27,25.27
2008-08-28,25.99
2008-08-29,25.73
2008-09-02,24.99
2008-09-03,25.25
2008-09-04,23.63
2008-09-05,24.19
2008-09-08,24.97
2008-09-09,24.85
2008-09-10,25.32
2008-09-11,25.81
2008-09-12,25.79
2008-09-15,25.21
2008-09-16,25.34
2008-09-17,24.28
2008-09-18,25.82
2008-09-19,26.82
2008-09-22,25.37
2008-09-23,24.24
2008-09-24,23.24
2008-09-25,23.16
2008-09-26,23.04
2008-09-29,21.21
2008-09-30,20.99
2008-10-01,19.96
2008-10-02,18.56
2008-10-03,18.58
2008-10-06,18.93
2008-10-07,17.05
2008-10-08,17.36
2008-10-09,16.86
2008-10-10,16.46
2008-10-13,18.78
2008-10-14,17.87
2008-10-15,16.34
2008-10-16,16.79
2008-10-17,18.05
2008-10-20,20.01
2008-10-21,18.43
2008-10-22,18.94
2008-10-23,17.92
2008-10-24,16.48
2008-10-27,16.82
2008-10-28,18.7
2008-10-29,18.7
2008-10-30,18.81
2008-10-31,18.74
2008-11-03,18.12
2008-11-04,18.77
2008-11-05,17.2
2008-11-06,16.91
2008-11-07,17.32
2008-11-10,17.24
2008-11-11,16.28
2008-11-12,15.2
2008-11-13,16.08
2008-11-14,15.02
2008-11-17,14.71
2008-11-18,14.64
2008-11-19,14.05
2008-11-20,13.86
2008-11-21,14.88
2008-11-24,16.51
2008-11-25,16.72
2008-11-26,17.51
2008-11-28,17.38
2008-12-01,15.3
2008-12-02,16.27
2008-12-03,16.67
2008-12-04,15.59
2008-12-05,16.31
2008-12-08,17.05
2008-12-09,17.91
2008-12-10,17.78
2008-12-11,17.16
2008-12-12,17.46
2008-12-15,16.98
2008-12-16,17.73
2008-12-17,17.34
2008-12-18,17.1
2008-12-19,16.93
2008-12-22,16.63
2008-12-23,16.85
2008-12-24,17.03
2008-12-26,16.9
2008-12-29,17.11
2008-12-30,17.42
2008-12-31,17.59
2009-01-02,18.38
2009-01-05,18.47
2009-01-06,18.72
2009-01-07,17.83
2009-01-08,18.19
2009-01-09,17.67
2009-01-12,17.09
2009-01-13,16.9
2009-01-14,16.12
2009-01-15,16.38
2009-01-16,16.42
2009-01-20,15.46
2009-01-21,16.98
2009-01-22,17.33
2009-01-23,17.73
2009-01-26,17.7
2009-01-27,17.83
2009-01-28,18.33
2009-01-29,16.99
2009-01-30,14.17
2009-02-02,14.45
2009-02-03,14.29
2009-02-04,14.65
2009-02-05,16.0
2009-02-06,16.31
2009-02-09,15.91
2009-02-10,15.69
2009-02-11,15.57
2009-02-12,15.43
2009-02-13,15.47
2009-02-17,14.93
2009-02-18,14.7
2009-02-19,14.83
2009-02-20,14.68
2009-02-23,14.38
2009-02-24,14.93
2009-02-25,14.71
2009-02-26,14.29
2009-02-27,14.31
2009-03-02,13.56
2009-03-03,13.38
2009-03-04,13.79
2009-03-05,13.34
2009-03-06,12.66
2009-03-09,12.68
2009-03-10,13.75
2009-03-11,14.29
2009-03-12,14.75
2009-03-13,14.71
2009-03-16,14.64
2009-03-17,15.34
2009-03-18,15.55
2009-03-19,15.6
2009-03-20,15.1
2009-03-23,16.44
2009-03-24,15.96
2009-03-25,15.65
2009-03-26,16.29
2009-03-27,15.79
2009-03-30,15.14
2009-03-31,15.04
2009-04-01,15.74
2009-04-02,16.94
2009-04-03,16.99
2009-04-06,16.01
2009-04-07,15.64
2009-04-08,17.5
2009-04-09,18.32
2009-04-13,18.07
2009-04-14,18.17
2009-04-15,18.4
2009-04-16,19.16
2009-04-17,18.5
2009-04-20,17.66
2009-04-21,18.25
2009-04-22,18.76
2009-04-23,19.31
2009-04-24,22.3
2009-04-27,21.39
2009-04-28,20.91
2009-04-29,21.18
2009-04-30,21.59
2009-05-01,22.14
2009-05-04,22.31
2009-05-05,23.03
2009-05-06,22.93
2009-05-07,21.3
2009-05-08,21.78
2009-05-11,21.24
2009-05-12,21.75
2009-05-13,21.29
2009-05-14,21.51
2009-05-15,21.61
2009-05-18,22.2
2009-05-19,22.58
2009-05-20,22.87
2009-05-21,23.31
2009-05-22,23.25
2009-05-26,23.99
2009-05-27,24.17
2009-05-28,24.95
2009-05-29,24.72
2009-06-01,25.35
2009-06-02,23.87
2009-06-03,23.92
2009-06-04,24.07
2009-06-05,24.09
2009-06-08,23.66
2009-06-09,24.2
2009-06-10,23.8
2009-06-11,23.89
2009-06-12,23.88
2009-06-15,23.65
2009-06-16,23.09
2009-06-17,22.86
2009-06-18,22.37
2009-06-19,22.46
2009-06-22,21.48
2009-06-23,21.88
2009-06-24,22.61
2009-06-25,23.04
2009-06-26,22.7
2009-06-29,23.62
2009-06-30,23.59
2009-07-01,24.43
2009-07-02,23.51
2009-07-06,23.67
2009-07-07,22.94
2009-07-08,22.98
2009-07-09,23.11
2009-07-10,23.23
2009-07-13,23.19
2009-07-14,23.44
2009-07-15,25.2
2009-07-16,25.03
2009-07-17,25.15
2009-07-20,25.7
2009-07-21,25.87
2009-07-22,25.48
2009-07-23,26.58
2009-07-24,26.89
2009-07-27,26.59
2009-07-28,25.97
2009-07-29,25.73
2009-07-30,25.99
2009-07-31,26.13
2009-08-03,26.23
2009-08-04,26.08
2009-08-05,25.73
2009-08-06,25.14
2009-08-07,25.39
2009-08-10,24.97
2009-08-11,25.06
2009-08-12,25.34
2009-08-13,25.19
2009-08-14,24.59
2009-08-17,23.7
2009-08-18,24.0
2009-08-19,23.68
2009-08-20,24.62
2009-08-21,24.6
2009-08-24,23.92
2009-08-25,23.62
2009-08-26,23.19
2009-08-27,23.7
2009-08-28,23.56
2009-08-31,23.08
2009-09-01,22.7
2009-09-02,23.03
2009-09-03,23.42
2009-09-04,23.76
2009-09-08,24.32
2009-09-09,26.13
2009-09-10,26.56
2009-09-11,26.44
2009-09-14,26.46
2009-09-15,26.93
2009-09-16,27.4
2009-09-17,27.41
2009-09-18,27.65
2009-09-21,27.72
2009-09-22,27.67
2009-09-23,26.86
2009-09-24,26.59
2009-09-25,26.36
2009-09-28,27.23
2009-09-29,26.54
2009-09-30,26.98
2009-10-01,26.26
2009-10-02,25.84
2009-10-05,26.38
2009-10-06,26.9
2009-10-07,26.5
2009-10-08,27.1
2009-10-09,27.51
2009-10-12,27.94
2009-10-13,27.33
2009-10-14,27.19
2009-10-15,27.3
2009-10-16,26.53
2009-10-19,27.22
2009-10-20,27.75
2009-10-21,27.78
2009-10-22,28.19
2009-10-23,27.34
2009-10-26,26.21
2009-10-27,25.88
2009-10-28,25.19
2009-10-29,26.33
2009-10-30,25.53
2009-11-02,25.63
2009-11-03,25.61
2009-11-04,25.55
2009-11-05,25.99
2009-11-06,25.33
2009-11-09,25.39
2009-11-10,24.92
2009-11-11,25.34
2009-11-12,24.72
2009-11-13,26.12
2009-11-16,25.93
2009-11-17,25.83
2009-11-18,25.61
2009-11-19,25.29
2009-11-20,25.22
2009-11-23,26.05
2009-11-24,26.02
2009-11-25,26.22
2009-11-27,25.67
2009-11-30,26.1
2009-12-01,26.76
2009-12-02,26.8
2009-12-03,26.93
2009-12-04,27.32
2009-12-07,27.33
2009-12-08,27.2
2009-12-09,27.28
2009-12-10,26.99
2009-12-11,26.77
2009-12-14,26.75
2009-12-15,26.5
2009-12-16,26.37
2009-12-17,25.53
2009-12-18,26.05
2009-12-21,26.41
2009-12-22,26.4
2009-12-23,26.21
2009-12-24,26.43
2009-12-28,26.79
2009-12-29,26.86
2009-12-30,27.13
2009-12-31,26.7
2010-01-04,27.15
2010-01-05,26.75
2010-01-06,26.0
2010-01-07,26.14
2010-01-08,26.19
2010-01-11,26.21
2010-01-12,25.88
2010-01-13,26.43
2010-01-14,26.37
2010-01-15,26.58
2010-01-19,26.83
2010-01-20,26.05
2010-01-21,26.03
2010-01-22,24.98
2010-01-25,25.4
2010-01-26,24.87
2010-01-27,25.0
2010-01-28,24.49
2010-01-29,24.83
2010-02-01,25.08
2010-02-02,25.2
2010-02-03,25.3
2010-02-04,24.88
2010-02-05,24.96
2010-02-08,24.89
2010-02-09,25.13
2010-02-10,25.06
2010-02-11,25.26
2010-02-12,24.78
2010-02-16,25.48
2010-02-17,25.64
2010-02-18,25.9
2010-02-19,27.43
2010-02-22,27.23
2010-02-23,26.88
2010-02-24,27.95
2010-02-25,27.99
2010-02-26,28.03
2010-03-01,28.51
2010-03-02,28.59
2010-03-03,28.76
2010-03-04,28.67
2010-03-05,29.07
2010-03-08,29.56
2010-03-09,29.87
2010-03-10,30.42
2010-03-11,30.45
2010-03-12,29.95
2010-03-15,30.09
2010-03-16,30.37
2010-03-17,30.68
2010-03-18,30.23
2010-03-19,29.88
2010-03-22,30.13
2010-03-23,30.9
2010-03-24,30.45
2010-03-25,30.74
2010-03-26,30.49
2010-03-29,30.63
2010-03-30,30.89
2010-03-31,30.65
2010-04-01,30.41
2010-04-05,30.83
2010-04-06,31.61
2010-04-07,31.5
2010-04-08,31.25
2010-04-09,31.64
2010-04-12,31.53
2010-04-13,31.23
2010-04-14,31.83
2010-04-15,31.96
2010-04-16,31.18
2010-04-19,31.17
2010-04-20,31.53
2010-04-21,29.73
2010-04-22,29.71
2010-04-23,30.05
2010-04-26,29.72
2010-04-27,29.36
2010-04-28,29.01
2010-04-29,29.33
2010-04-30,28.44
2010-05-03,28.91
2010-05-04,28.15
2010-05-05,28.39
2010-05-06,27.63
2010-05-07,26.74
2010-05-10,28.18
2010-05-11,27.93
2010-05-12,28.94
2010-05-13,28.07
2010-05-14,27.5
2010-05-17,27.96
2010-05-18,27.2
2010-05-19,26.85
2010-05-20,25.61
2010-05-21,26.38
2010-05-24,26.13
2010-05-25,26.27
2010-05-26,26.03
2010-05-27,27.25
2010-05-28,26.67
2010-06-01,24.82
2010-06-02,25.27
2010-06-03,25.79
2010-06-04,24.64
2010-06-07,24.29
2010-06-08,24.34
2010-06-09,23.99
2010-06-10,24.54
2010-06-11,24.98
2010-06-14,24.86
2010-06-15,25.54
2010-06-16,25.15
2010-06-17,25.26
2010-06-18,25.5
2010-06-21,24.92
2010-06-22,24.45
2010-06-23,24.4
2010-06-24,23.64
2010-06-25,23.72
2010-06-28,24.2
2010-06-29,23.24
2010-06-30,22.86
2010-07-01,23.03
2010-07-02,24.09
2010-07-06,24.07
2010-07-07,25.45
2010-07-08,25.45
2010-07-09,25.76
2010-07-12,26.0
2010-07-13,26.72
2010-07-14,27.08
2010-07-15,26.89
2010-07-16,25.89
2010-07-19,26.59
2010-07-20,26.71
2010-07-21,26.47
2010-07-22,27.47
2010-07-23,28.08
2010-07-26,28.81
2010-07-27,28.07
2010-07-28,27.75
2010-07-29,27.57
2010-07-30,27.78
2010-08-02,28.07
2010-08-03,28.0
2010-08-04,28.48
2010-08-05,28.29
2010-08-06,27.96
2010-08-09,28.54
2010-08-10,28.67
2010-08-11,27.69
2010-08-12,25.77
2010-08-13,25.63
2010-08-16,25.88
2010-08-17,26.21
2010-08-18,26.49
2010-08-19,26.71
2010-08-20,27.27
2010-08-23,27.17
2010-08-24,26.76
2010-08-25,26.81
2010-08-26,26.81
2010-08-27,27.27
2010-08-30,26.95
2010-08-31,27.2
2010-09-01,27.62
2010-09-02,28.25
2010-09-03,28.99
2010-09-07,28.59
2010-09-08,28.83
2010-09-09,28.29
2010-09-10,28.26
2010-09-13,29.24
2010-09-14,29.31
2010-09-15,29.48
2010-09-16,29.7
2010-09-17,30.0
2010-09-20,30.38
2010-09-21,30.26
2010-09-22,29.56
2010-09-23,29.45
2010-09-24,29.79
2010-09-27,31.0
2010-09-28,31.27
2010-09-29,30.9
2010-09-30,30.36
2010-10-01,30.28
2010-10-04,30.76
2010-10-05,32.54
2010-10-06,31.18
2010-10-07,31.32
2010-10-08,31.48
2010-10-11,31.68
2010-10-12,31.88
2010-10-13,31.67
2010-10-14,31.32
2010-10-15,31.92
2010-10-18,31.95
2010-10-19,30.51
2010-10-20,32.13
2010-10-21,31.67
2010-10-22,31.9
2010-10-25,31.98
2010-10-26,32.37
2010-10-27,32.1
2010-10-28,31.81
2010-10-29,32.42
2010-11-01,32.0
2010-11-02,32.2
2010-11-03,33.32
2010-11-04,33.86
2010-11-05,34.41
2010-11-08,34.18
2010-11-09,34.16
2010-11-10,34.54
2010-11-11,34.5
2010-11-12,35.85
2010-11-15,34.35
2010-11-16,33.68
2010-11-17,33.11
2010-11-18,34.4
2010-11-19,34.76
2010-11-22,34.56
2010-11-23,33.49
2010-11-24,34.52
2010-11-26,34.01
2010-11-29,33.93
2010-11-30,34.04
2010-12-01,34.81
2010-12-02,34.98
2010-12-03,34.36
2010-12-06,34.13
2010-12-07,34.06
2010-12-08,34.94
2010-12-09,35.72
2010-12-10,35.92
2010-12-13,36.17
2010-12-14,35.7
2010-12-15,35.98
2010-12-16,36.68
2010-12-17,36.54
2010-12-20,37.0
2010-12-21,37.59
2010-12-22,37.86
2010-12-23,37.01
2010-12-27,37.09
2010-12-28,37.04
2010-12-29,36.94
2010-12-30,37.18
2010-12-31,36.91
2011-01-03,37.26
2011-01-04,37.16
2011-01-05,37.86
2011-01-06,38.23
2011-01-07,37.59
2011-01-10,37.59
2011-01-11,37.86
2011-01-12,38.33
2011-01-13,38.2
2011-01-14,38.71
2011-01-18,37.96
2011-01-19,36.86
2011-01-20,35.05
2011-01-21,34.86
2011-01-24,34.89
2011-01-25,34.75
2011-01-26,37.12
2011-01-27,37.2
2011-01-28,36.32
2011-01-31,37.1
2011-02-01,37.37
2011-02-02,37.98
2011-02-03,38.48
2011-02-04,40.1
2011-02-07,40.1
2011-02-08,40.29
2011-02-09,40.32
2011-02-10,43.39
2011-02-11,43.29
2011-02-14,43.63
2011-02-15,44.4
2011-02-16,43.88
2011-02-17,44.21
2011-02-18,44.0
2011-02-22,42.4
2011-02-23,41.47
2011-02-24,43.2
2011-02-25,43.9
2011-02-28,43.98
2011-03-01,43.15
2011-03-02,43.21
2011-03-03,43.73
2011-03-04,44.09
2011-03-07,44.34
2011-03-08,44.49
2011-03-09,43.33
2011-03-10,41.35
2011-03-11,42.9
2011-03-14,43.02
2011-03-15,42.25
2011-03-16,41.99
2011-03-17,40.87
2011-03-18,40.28
2011-03-21,40.51
2011-03-22,39.11
2011-03-23,40.14
2011-03-24,40.83
2011-03-25,40.9
2011-03-28,40.04
2011-03-29,40.75
2011-03-30,41.88
2011-03-31,42.09
2011-04-01,41.24
2011-04-04,39.77
2011-04-05,39.38
2011-04-06,38.85
2011-04-07,38.85
2011-04-08,38.28
2011-04-11,38.55
2011-04-12,37.85
2011-04-13,38.3
2011-04-14,38.52
2011-04-15,38.38
2011-04-18,38.29
2011-04-19,38.47
2011-04-20,39.27
2011-04-21,40.08
2011-04-25,39.79
2011-04-26,39.04
2011-04-27,38.72
2011-04-28,38.48
2011-04-29,38.34
2011-05-02,37.59
2011-05-03,37.53
2011-05-04,37.29
2011-05-05,37.57
2011-05-06,37.14
2011-05-09,37.35
2011-05-10,37.81
2011-05-11,38.53
2011-05-12,39.83
2011-05-13,39.66
2011-05-16,39.13
2011-05-17,38.58
2011-05-18,38.9
2011-05-19,39.05
2011-05-20,38.88
2011-05-23,37.77
2011-05-24,36.55
2011-05-25,36.7
2011-05-26,36.97
2011-05-27,37.05
2011-05-31,36.57
2011-06-01,33.01
2011-06-02,33.6
2011-06-03,32.36
2011-06-06,31.46
2011-06-07,32.59
2011-06-08,32.14
2011-06-09,31.9
2011-06-10,30.73
2011-06-13,29.9
2011-06-14,30.44
2011-06-15,29.38
2011-06-16,29.51
2011-06-17,29.36
2011-06-20,29.54
2011-06-21,30.21
2011-06-22,29.5
2011-06-23,30.3
2011-06-24,30.01
2011-06-27,30.51
2011-06-28,30.47
2011-06-29,30.79
2011-06-30,31.53
2011-07-01,31.98
2011-07-05,31.76
2011-07-06,31.49
2011-07-07,32.8
2011-07-08,32.06
2011-07-11,31.46
2011-07-12,31.17
2011-07-13,31.06
2011-07-14,30.39
2011-07-15,30.61
2011-07-18,30.03
2011-07-19,31.53
2011-07-20,31.17
2011-07-21,30.29
2011-07-22,31.27
2011-07-25,30.68
2011-07-26,31.18
2011-07-27,24.66
2011-07-28,23.8
2011-07-29,23.42
2011-08-01,23.04
2011-08-02,22.78
2011-08-03,23.63
2011-08-04,22.16
2011-08-05,22.26
2011-08-08,20.18
2011-08-09,21.5
2011-08-10,20.62
2011-08-11,22.19
2011-08-12,22.17
2011-08-15,22.47
2011-08-16,22.08
2011-08-17,21.68
2011-08-18,19.94
2011-08-19,19.72
2011-08-22,19.7
2011-08-23,20.89
2011-08-24,21.02
2011-08-25,20.33
2011-08-26,20.88
2011-08-29,21.93
2011-08-30,21.87
2011-08-31,20.85
2011-09-01,21.2
2011-09-02,20.2
2011-09-06,19.98
2011-09-07,21.53
2011-09-08,21.59
2011-09-09,21.51
2011-09-12,21.73
2011-09-13,21.49
2011-09-14,21.62
2011-09-15,20.68
2011-09-16,20.13
2011-09-19,19.88
2011-09-20,20.17
2011-09-21,19.79
2011-09-22,19.14
2011-09-23,18.94
2011-09-26,19.12
2011-09-27,19.96
2011-09-28,18.86
2011-09-29,18.4
2011-09-30,17.27
2011-10-03,17.08
2011-10-04,17.8
2011-10-05,19.19
2011-10-06,19.42
2011-10-07,19.02
2011-10-10,19.66
2011-10-11,20.16
2011-10-12,20.01
2011-10-13,20.43
2011-10-14,21.57
2011-10-17,20.33
2011-10-18,21.5
2011-10-19,20.15
2011-10-20,20.55
2011-10-21,21.1
2011-10-24,22.49
2011-10-25,22.74
2011-10-26,23.24
2011-10-27,24.37
2011-10-28,24.82
2011-10-31,24.51
2011-11-01,23.3
2011-11-02,23.52
2011-11-03,23.94
2011-11-04,23.95
2011-11-07,23.7
2011-11-08,24.65
2011-11-09,23.33
2011-11-10,23.77
2011-11-11,24.87
2011-11-14,24.76
2011-11-15,24.61
2011-11-16,23.95
2011-11-17,22.67
2011-11-18,22.57
2011-11-21,21.87
2011-11-22,21.42
2011-11-23,20.57
2011-11-25,20.23
2011-11-28,21.16
2011-11-29,20.88
2011-11-30,22.74
2011-12-01,22.24
2011-12-02,22.63
2011-12-05,23.37
2011-12-06,22.76
2011-12-07,21.3
2011-12-08,20.07
2011-12-09,19.94
2011-12-12,19.83
2011-12-13,18.99
2011-12-14,18.9
2011-12-15,18.59
2011-12-16,18.33
2011-12-19,18.13
2011-12-20,19.75
2011-12-21,19.42
2011-12-22,20.75
2011-12-23,20.8
2011-12-27,20.82
2011-12-28,20.45
2011-12-29,20.5
2011-12-30,20.44
2012-01-03,21.03
2012-01-04,20.73
2012-01-05,20.64
2012-01-06,20.4
2012-01-09,21.52
2012-01-10,21.35
2012-01-11,21.31
2012-01-12,21.28
2012-01-13,21.01
2012-01-17,21.26
2012-01-18,22.55
2012-01-19,23.85
2012-01-20,22.94
2012-01-23,22.5
2012-01-24,23.16
2012-01-25,22.61
2012-01-26,22.31
2012-01-27,21.73
2012-01-30,21.06
2012-01-31,20.95
2012-02-01,21.67
2012-02-02,21.61
2012-02-03,22.59
2012-02-06,22.73
2012-02-07,23.03
2012-02-08,23.09
2012-02-09,23.2
2012-02-10,22.69
2012-02-13,22.43
2012-02-14,22.56
2012-02-15,24.16
2012-02-16,24.05
2012-02-17,24.2
2012-02-21,23.75
2012-02-22,23.78
2012-02-23,23.5
2012-02-24,23.69
2012-02-27,23.58
2012-02-28,23.75
2012-02-29,22.75
2012-03-01,22.31
2012-03-02,22.0
2012-03-05,21.33
2012-03-06,21.1
2012-03-07,21.43
2012-03-08,21.41
2012-03-09,21.42
2012-03-12,21.16
2012-03-13,21.29
2012-03-14,20.58
2012-03-15,21.34
2012-03-16,21.41
2012-03-19,21.66
2012-03-20,21.14
2012-03-21,21.2
2012-03-22,20.95
2012-03-23,21.13
2012-03-26,21.42
2012-03-27,22.24
2012-03-28,22.38
2012-03-29,22.9
2012-03-30,22.92
2012-04-02,22.67
2012-04-03,21.88
2012-04-04,21.63
2012-04-05,21.23
2012-04-09,20.9
2012-04-10,20.91
2012-04-11,21.76
2012-04-12,22.03
2012-04-13,21.18
2012-04-16,20.87
2012-04-17,21.64
2012-04-18,21.19
2012-04-19,20.94
2012-04-20,20.57
2012-04-23,20.19
2012-04-24,21.58
2012-04-25,20.83
2012-04-26,21.31
2012-04-27,21.29
2012-04-30,21.43
2012-05-01,21.44
2012-05-02,21.0
2012-05-03,20.33
2012-05-04,19.73
2012-05-07,19.24
2012-05-08,18.92
2012-05-09,19.0
2012-05-10,18.07
2012-05-11,17.96
2012-05-14,17.57
2012-05-15,17.7
2012-05-16,17.29
2012-05-17,17.05
2012-05-18,17.5
2012-05-21,17.98
2012-05-22,17.99
2012-05-23,17.23
2012-05-24,17.0
2012-05-25,17.13
2012-05-29,17.41
2012-05-30,17.27
2012-05-31,17.2
2012-06-01,16.85
2012-06-04,16.73
2012-06-05,17.0
2012-06-06,17.44
2012-06-07,16.57
2012-06-08,16.9
2012-06-11,16.39
2012-06-12,16.58
2012-06-13,16.34
2012-06-14,16.16
2012-06-15,16.42
2012-06-18,16.35
2012-06-19,16.45
2012-06-20,16.75
2012-06-21,15.86
2012-06-22,16.02
2012-06-25,15.59
2012-06-26,15.45
2012-06-27,15.58
2012-06-28,15.55
2012-06-29,16.29
2012-07-02,15.86
2012-07-03,16.08
2012-07-05,16.15
2012-07-06,15.58
2012-07-09,15.2
2012-07-10,14.84
2012-07-11,14.67
2012-07-12,14.51
2012-07-13,14.48
2012-07-16,14.26
2012-07-17,14.25
2012-07-18,15.2
2012-07-19,15.86
2012-07-20,15.59
2012-07-23,15.2
2012-07-24,14.82
2012-07-25,16.5
2012-07-26,16.85
2012-07-27,17.78
2012-07-30,17.54
2012-07-31,17.55
2012-08-01,17.71
2012-08-02,17.61
2012-08-03,18.12
2012-08-06,18.6
2012-08-07,19.03
2012-08-08,18.74
2012-08-09,19.39
2012-08-10,19.23
2012-08-13,18.91
2012-08-14,18.05
2012-08-15,18.41
2012-08-16,18.58
2012-08-17,18.44
2012-08-20,18.34
2012-08-21,18.17
2012-08-22,18.27
2012-08-23,18.22
2012-08-24,17.73
2012-08-27,17.73
2012-08-28,18.32
2012-08-29,18.49
2012-08-30,17.75
2012-08-31,17.47
2012-09-04,17.7
2012-09-05,17.46
2012-09-06,18.2
2012-09-07,18.69
2012-09-10,18.22
2012-09-11,18.56
2012-09-12,19.36
2012-09-13,19.39
2012-09-14,19.29
2012-09-17,19.38
2012-09-18,18.94
2012-09-19,18.9
2012-09-20,18.56
2012-09-21,18.46
2012-09-24,18.29
2012-09-25,17.88
2012-09-26,17.39
2012-09-27,17.65
2012-09-28,17.1
2012-10-01,16.74
2012-10-02,16.73
2012-10-03,16.61
2012-10-04,16.7
2012-10-05,16.63
2012-10-08,16.6
2012-10-09,16.57
2012-10-10,16.36
2012-10-11,16.36
2012-10-12,16.33
2012-10-15,16.81
2012-10-16,17.49
2012-10-17,17.29
2012-10-18,18.2
2012-10-19,17.79
2012-10-22,17.71
2012-10-23,17.6
2012-10-24,15.99
2012-10-25,16.05
2012-10-26,16.58
2012-10-31,16.59
2012-11-01,17.28
2012-11-02,17.14
2012-11-05,17.45
2012-11-06,17.54
2012-11-07,17.79
2012-11-08,17.63
2012-11-09,17.66
2012-11-12,17.82
2012-11-13,17.37
2012-11-14,17.54
2012-11-15,16.9
2012-11-16,16.33
2012-11-19,16.35
2012-11-20,16.15
2012-11-21,16.2
2012-11-23,16.21
2012-11-26,16.78
2012-11-27,17.1
2012-11-28,17.83
2012-11-29,18.04
2012-11-30,17.99
2012-12-03,17.9
2012-12-04,18.04
2012-12-05,18.33
2012-12-06,19.13
2012-12-07,19.26
2012-12-10,19.29
2012-12-11,19.18
2012-12-12,18.94
2012-12-13,19.34
2012-12-14,19.58
2012-12-17,19.8
2012-12-18,20.28
2012-12-19,20.16
2012-12-20,20.37
2012-12-21,20.15
2012-12-24,20.01
2012-12-26,19.9
2012-12-27,19.8
2012-12-28,19.38
2012-12-31,19.64
2013-01-02,20.51
2013-01-03,20.11
2013-01-04,20.37
2013-01-07,20.13
2013-01-08,19.7
2013-01-09,19.94
2013-01-10,20.3
2013-01-11,20.65
2013-01-14,20.81
2013-01-15,21.01
2013-01-16,20.95
2013-01-17,21.31
2013-01-18,21.47
2013-01-22,21.48
2013-01-23,21.26
2013-01-24,21.46
2013-01-25,22.55
2013-01-28,22.205
2013-01-29,21.58
2013-01-30,21.58
2013-01-31,22.37
2013-02-01,22.3
2013-02-04,22.24
2013-02-05,22.38
2013-02-06,22.385
2013-02-07,22.36
2013-02-08,21.81
2013-02-11,21.7
2013-02-12,21.59
2013-02-13,21.6899
2013-02-14,21.665
2013-02-15,21.87
2013-02-19,22.22
2013-02-20,21.73
2013-02-21,21.32
2013-02-22,21.44
2013-02-25,20.73
2013-02-26,20.48
2013-02-27,20.72
2013-02-28,20.69
2013-03-01,20.46
2013-03-04,20.1
2013-03-05,19.95
2013-03-06,20.11
2013-03-07,21.14
2013-03-08,20.67
2013-03-11,20.88
2013-03-12,20.76
2013-03-13,20.55
2013-03-14,20.5
2013-03-15,20.18
2013-03-18,20.21
2013-03-19,19.15
2013-03-20,19.28
2013-03-21,18.89
2013-03-22,18.7
2013-03-25,18.98
2013-03-26,18.63
2013-03-27,18.67
2013-03-28,18.52
2013-04-01,18.54
2013-04-02,18.27
2013-04-03,18.27
2013-04-04,18.11
2013-04-05,17.55
2013-04-08,17.84
2013-04-09,17.99
2013-04-10,18.86
2013-04-11,18.56
2013-04-12,18.71
2013-04-15,18.12
2013-04-16,18.13
2013-04-17,17.72
2013-04-18,17.32
2013-04-19,17.1
2013-04-22,17.12
2013-04-23,17.34
2013-04-24,15.66
2013-04-25,15.9
2013-04-26,15.78
2013-04-29,16.04
2013-04-30,16.55
2013-05-01,16.31
2013-05-02,16.31
2013-05-03,16.49
2013-05-06,16.92
2013-05-07,16.8
2013-05-08,17.26
2013-05-09,17.34
2013-05-10,17.35
2013-05-13,17.29
2013-05-14,17.09
2013-05-15,17.06
2013-05-16,17.76
2013-05-17,17.6
2013-05-20,17.59
2013-05-21,17.64
2013-05-22,17.42
2013-05-23,17.26
2013-05-24,17.34
2013-05-28,17.475
2013-05-29,18.0
2013-05-30,18.02
2013-05-31,17.77
2013-06-03,17.46
2013-06-04,17.38
2013-06-05,18.56
2013-06-06,18.48
2013-06-07,19.05
2013-06-10,19.03
2013-06-11,18.27
2013-06-12,18.36
2013-06-13,19.28
2013-06-14,19.05
2013-06-17,19.05
2013-06-18,19.13
2013-06-19,19.15
2013-06-20,19.18
2013-06-21,18.79
2013-06-24,18.51
2013-06-25,18.41
2013-06-26,18.47
2013-06-27,19.05
2013-06-28,19.33
2013-07-01,19.47
2013-07-02,19.14
2013-07-03,19.25
2013-07-05,19.59
2013-07-08,19.32
2013-07-09,19.67
2013-07-10,19.7
2013-07-11,20.18
2013-07-12,20.34
2013-07-15,20.45
2013-07-16,20.53
2013-07-17,20.72
2013-07-18,21.02
2013-07-19,21.04
2013-07-22,20.73
2013-07-23,21.35
2013-07-24,21.66
2013-07-25,22.08
2013-07-26,21.53
2013-07-29,21.5
2013-07-30,21.95
2013-07-31,21.67
2013-08-01,21.99
2013-08-02,21.78
2013-08-05,22.01
2013-08-06,21.98
2013-08-07,22.0
2013-08-08,22.18
2013-08-09,20.94
