date,close_price
1998-01-02,11.1559
1998-01-05,11.2992
1998-01-06,11.4177
1998-01-07,10.9036
1998-01-08,11.1673
1998-01-09,11.1081
1998-01-12,10.8692
1998-01-13,10.1278
1998-01-14,9.74561
1998-01-15,9.47044
1998-01-16,8.55129
1998-01-20,8.95832
1998-01-21,9.10163
1998-01-22,9.37489
1998-01-23,9.53159
1998-01-26,9.31566
1998-01-27,9.39974
1998-01-28,9.38827
1998-01-29,9.49528
1998-01-30,9.72268
1998-02-02,9.67491
1998-02-03,9.79338
1998-02-04,9.78192
1998-02-05,10.1641
1998-02-06,10.51
1998-02-09,9.98447
1998-02-10,10.2233
1998-02-11,10.2711
1998-02-12,10.8922
1998-02-13,10.7125
1998-02-17,10.8081
1998-02-18,10.7374
1998-02-19,10.487
1998-02-20,10.3189
1998-02-23,10.2959
1998-02-24,11.0718
1998-02-25,10.7519
1998-02-26,11.0622
1998-02-27,10.9913
1998-03-02,11.7575
1998-03-03,11.9242
1998-03-04,12.0449
1998-03-05,11.8533
1998-03-06,12.3801
1998-03-09,12.4988
1998-03-10,12.3322
1998-03-11,11.8533
1998-03-12,11.8533
1998-03-13,11.5526
1998-03-16,11.7805
1998-03-17,11.4453
1998-03-18,11.3189
1998-03-19,11.3016
1998-03-20,11.4817
1998-03-23,11.3859
1998-03-24,11.6618
1998-03-25,11.8533
1998-03-26,11.769
1998-03-27,11.8648
1998-03-30,12.0449
1998-03-31,12.223
1998-04-01,12.0679
1998-04-02,12.5582
1998-04-03,12.5831
1998-04-06,12.5103
1998-04-07,11.9721
1998-04-08,11.6139
1998-04-09,11.7805
1998-04-13,11.9491
1998-04-14,11.8648
1998-04-15,11.997
1998-04-16,12.1157
1998-04-17,12.02
1998-04-20,12.1885
1998-04-21,12.6195
1998-04-22,12.4146
1998-04-23,12.4759
1998-04-24,12.4759
1998-04-27,12.3801
1998-04-28,12.1157
1998-04-29,12.3322
1998-04-30,12.5716
1998-05-01,12.3801
1998-05-04,12.7977
1998-05-05,12.7019
1998-05-06,12.3073
1998-05-07,12.5103
1998-05-08,12.6425
1998-05-11,12.2709
1998-05-12,13.0141
1998-05-13,13.1214
1998-05-14,13.1942
1998-05-15,12.859
1998-05-18,12.9183
1998-05-19,13.0026
1998-05-20,13.9125
1998-05-21,14.2956
1998-05-22,14.1041
1998-05-26,13.9834
1998-05-27,13.6252
1998-05-28,13.7959
1998-05-29,13.8554
1998-06-01,14.1549
1998-06-02,13.9994
1998-06-03,13.7115
1998-06-04,14.0359
1998-06-05,14.3948
1998-06-08,14.6117
1998-06-09,14.2508
1998-06-10,13.9188
1998-06-11,13.771
1998-06-12,13.6213
1998-06-15,13.1472
1998-06-16,13.3276
1998-06-17,13.723
1998-06-18,13.6386
1998-06-19,13.604
1998-06-22,13.675
1998-06-23,13.5311
1998-06-24,13.9149
1998-06-25,14.1798
1998-06-26,14.3948
1998-06-29,14.7671
1998-06-30,14.8151
1998-07-01,14.7786
1998-07-02,14.7786
1998-07-06,15.0665
1998-07-07,14.9706
1998-07-08,15.0205
1998-07-09,14.4178
1998-07-10,13.9879
1998-07-13,13.9648
1998-07-14,14.1798
1998-07-15,13.723
1998-07-16,14.3948
1998-07-17,14.2988
1998-07-20,14.0109
1998-07-21,13.3622
1998-07-22,13.3891
1998-07-23,12.1991
1998-07-24,11.9726
1998-07-27,12.5254
1998-07-28,12.4755
1998-07-29,11.8536
1998-07-30,12.1415
1998-07-31,11.9726
1998-08-03,11.9496
1998-08-04,10.9631
1998-08-05,11.6617
1998-08-06,11.7845
1998-08-07,11.8997
1998-08-10,12.3066
1998-08-11,11.8997
1998-08-12,12.3795
1998-08-13,13.4351
1998-08-14,13.6501
1998-08-17,14.0608
1998-08-18,14.9245
1998-08-19,14.6366
1998-08-20,14.7326
1998-08-21,14.5867
1998-08-24,14.3948
1998-08-25,14.4178
1998-08-26,13.4582
1998-08-27,12.8887
1998-08-28,12.504
1998-08-31,11.5422
1998-09-01,10.4841
1998-09-02,10.7265
1998-09-03,10.5072
1998-09-04,10.0994
1998-09-08,10.942
1998-09-09,10.4841
1998-09-10,10.0032
1998-09-11,10.3418
1998-09-14,11.1574
1998-09-15,11.7845
1998-09-16,11.8807
1998-09-17,11.3998
1998-09-18,11.5422
1998-09-21,11.2074
1998-09-22,10.6534
1998-09-23,10.3148
1998-09-24,9.79929
1998-09-25,9.88393
1998-09-28,9.61846
1998-09-29,8.48733
1998-09-30,9.4992
1998-10-01,9.21064
1998-10-02,9.95703
1998-10-05,9.86085
1998-10-06,10.1494
1998-10-07,9.76467
1998-10-08,9.23373
1998-10-09,9.25681
1998-10-12,9.76467
1998-10-13,9.78775
1998-10-14,9.76467
1998-10-15,10.6534
1998-10-16,11.1343
1998-10-19,11.1343
1998-10-20,10.3533
1998-10-21,10.4841
1998-10-22,10.3418
1998-10-23,10.0532
1998-10-26,10.2687
1998-10-27,9.73773
1998-10-28,9.64155
1998-10-29,10.461
1998-10-30,10.5341
1998-11-02,10.8227
1998-11-03,10.5803
1998-11-04,11.6614
1998-11-05,11.3498
1998-11-06,11.7845
1998-11-09,12.1424
1998-11-10,11.5422
1998-11-11,11.8807
1998-11-12,12.9849
1998-11-13,13.2966
1998-11-16,13.1542
1998-11-17,13.1773
1998-11-18,13.1773
1998-11-19,12.9618
1998-11-20,13.7544
1998-11-23,14.9586
1998-11-24,14.1622
1998-11-25,14.8447
1998-11-27,14.436
1998-11-30,14.4128
1998-12-01,14.2663
1998-12-02,13.9039
1998-12-03,12.8705
1998-12-04,13.3024
1998-12-07,13.3988
1998-12-08,12.5081
1998-12-09,13.5183
1998-12-10,13.206
1998-12-11,13.4219
1998-12-14,12.6276
1998-12-15,13.3988
1998-12-16,13.4219
1998-12-17,13.0865
1998-12-18,12.8436
1998-12-21,13.1096
1998-12-22,12.6508
1998-12-23,13.4952
1998-12-24,12.7973
1998-12-28,13.2561
1998-12-29,13.688
1998-12-30,13.206
1998-12-31,13.4219
1999-01-04,13.206
1999-01-05,13.9039
1999-01-06,14.4591
1999-01-07,14.0735
1999-01-08,13.9039
1999-01-11,14.4128
1999-01-12,13.7111
1999-01-13,13.1443
1999-01-14,13.3988
1999-01-15,13.9039
1999-01-19,14.0735
1999-01-20,14.1931
1999-01-21,13.206
1999-01-22,14.2663
1999-01-25,14.4591
1999-01-26,14.8447
1999-01-27,14.7252
1999-01-28,15.6158
1999-01-29,15.9783
1999-02-01,16.1942
1999-02-02,15.6158
1999-02-03,17.0618
1999-02-04,15.8086
1999-02-05,15.6158
1999-02-08,16.0978
1999-02-09,15.477
1999-02-10,15.5426
1999-02-11,15.905
1999-02-12,15.2534
1999-02-16,15.6158
1999-02-17,15.6158
1999-02-18,15.7122
1999-02-19,15.8588
1999-02-22,16.9191
1999-02-23,16.0515
1999-02-24,15.4527
1999-02-25,15.3098
1999-02-26,15.5725
1999-03-01,16.1056
1999-03-02,15.5493
1999-03-03,16.1288
1999-03-04,16.094
1999-03-05,15.3561
1999-03-08,15.3098
1999-03-09,14.9698
1999-03-10,14.7767
1999-03-11,14.4406
1999-03-12,14.6337
1999-03-15,15.4527
1999-03-16,14.9235
1999-03-17,14.6801
1999-03-18,15.3098
1999-03-19,14.8964
1999-03-22,14.7998
1999-03-23,14.8269
1999-03-24,14.7535
1999-03-25,14.9466
1999-03-26,14.5835
1999-03-29,15.5029
1999-03-30,15.8158
1999-03-31,15.7927
1999-04-01,15.8158
1999-04-05,15.7927
1999-04-06,15.8274
1999-04-07,15.6459
1999-04-08,16.2022
1999-04-09,16.3451
1999-04-12,16.9014
1999-04-13,16.3721
1999-04-14,14.4869
1999-04-15,14.8269
1999-04-16,15.163
1999-04-19,14.7767
1999-04-20,14.6801
1999-04-21,14.7998
1999-04-22,14.7767
1999-04-23,14.4406
1999-04-26,14.5835
1999-04-27,13.8611
1999-04-28,13.6911
1999-04-29,13.5211
1999-04-30,13.5713
1999-05-03,14.174
1999-05-04,13.7143
1999-05-05,14.1972
1999-05-06,13.185
1999-05-07,14.004
1999-05-10,13.4979
1999-05-11,13.8109
1999-05-12,13.5713
1999-05-13,13.7645
1999-05-14,12.509
1999-05-17,12.9416
1999-05-18,13.2314
1999-05-19,12.5553
1999-05-20,12.509
1999-05-21,12.7987
1999-05-24,13.2314
1999-05-25,12.8451
1999-05-26,13.6507
1999-05-27,13.1898
1999-05-28,13.7242
1999-06-01,13.3602
1999-06-02,14.1851
1999-06-03,13.6274
1999-06-04,13.5074
1999-06-07,13.5539
1999-06-08,13.0698
1999-06-09,13.457
1999-06-10,13.2402
1999-06-11,12.8994
1999-06-14,12.7793
1999-06-15,12.7329
1999-06-16,12.973
1999-06-17,13.1898
1999-06-18,13.4803
1999-06-21,13.3835
1999-06-22,13.0698
1999-06-23,12.8529
1999-06-24,12.7561
1999-06-25,12.8529
1999-06-28,12.7561
1999-06-29,12.9962
1999-06-30,12.9962
1999-07-01,13.7242
1999-07-02,13.701
1999-07-06,13.5771
1999-07-07,13.6042
1999-07-08,13.5074
1999-07-09,13.7707
1999-07-12,14.1115
1999-07-13,14.3516
1999-07-14,14.522
1999-07-15,14.8357
1999-07-16,15.0293
1999-07-19,14.3284
1999-07-20,14.158
1999-07-21,13.6739
1999-07-22,12.8297
1999-07-23,11.908
1999-07-26,12.3921
1999-07-27,12.6825
1999-07-28,12.4889
1999-07-29,12.2488
1999-07-30,12.1752
1999-08-02,12.3689
1999-08-03,11.9816
1999-08-04,11.4472
1999-08-05,11.424
1999-08-06,11.2303
1999-08-09,10.9902
1999-08-10,10.8431
1999-08-11,11.2303
1999-08-12,11.544
1999-08-13,12.152
1999-08-16,12.1752
1999-08-17,11.9816
1999-08-18,12.0281
1999-08-19,11.7144
1999-08-20,11.9816
1999-08-23,12.2953
1999-08-24,12.1752
1999-08-25,12.0353
1999-08-26,11.6005
1999-08-27,11.3093
1999-08-30,11.2355
1999-08-31,10.9909
1999-09-01,10.8939
1999-09-02,10.6532
1999-09-03,10.6998
1999-09-07,10.5794
1999-09-08,10.3853
1999-09-09,10.4824
1999-09-10,10.3853
1999-09-13,10.6765
1999-09-14,10.6299
1999-09-15,10.5056
1999-09-16,10.3853
1999-09-17,10.6027
1999-09-20,10.3853
1999-09-21,10.5056
1999-09-22,10.5794
1999-09-23,10.4358
1999-09-24,10.362
1999-09-27,10.6299
1999-09-28,10.4824
1999-09-29,10.5328
1999-09-30,10.3853
1999-10-01,10.3853
1999-10-04,10.9211
1999-10-05,10.6532
1999-10-06,10.8473
1999-10-07,10.9444
1999-10-08,11.3093
1999-10-11,11.5034
1999-10-12,10.7735
1999-10-13,10.2145
1999-10-14,10.3115
1999-10-15,10.0475
1999-10-18,9.70588
1999-10-19,9.56223
1999-10-20,9.56223
1999-10-21,9.36812
1999-10-22,9.19729
1999-10-25,9.02647
1999-10-26,9.12353
1999-10-27,9.04976
1999-10-28,9.34094
1999-10-29,9.70588
1999-11-01,9.36812
1999-11-02,9.65929
1999-11-03,8.92941
1999-11-04,9.07694
1999-11-05,9.04976
1999-11-08,8.9527
1999-11-09,8.54117
1999-11-10,8.54117
1999-11-11,8.56447
1999-11-12,8.56447
1999-11-15,8.73529
1999-11-16,8.46741
1999-11-17,8.712
1999-11-18,9.04976
1999-11-19,9.438
1999-11-22,9.48847
1999-11-23,10.5561
1999-11-24,10.1912
1999-11-26,10.3198
1999-11-29,10.5885
1999-11-30,10.8805
1999-12-01,10.8572
1999-12-02,10.3198
1999-12-03,10.3938
1999-12-06,10.0043
1999-12-07,9.78625
1999-12-08,9.80961
1999-12-09,9.68889
1999-12-10,9.68889
1999-12-13,9.49418
1999-12-14,9.68889
1999-12-15,9.39682
1999-12-16,9.3462
1999-12-17,9.73562
1999-12-20,9.29947
1999-12-21,9.85634
1999-12-22,9.85634
1999-12-23,9.9537
1999-12-27,10.0277
1999-12-28,10.1017
1999-12-29,9.9537
1999-12-30,9.98096
1999-12-31,10.2458
2000-01-03,10.0277
2000-01-04,9.63827
2000-01-05,9.46692
2000-01-06,9.90697
2000-01-07,9.90697
2000-01-10,9.78625
2000-01-11,9.73562
2000-01-12,9.29947
2000-01-13,8.91004
2000-01-14,9.03076
2000-01-18,8.7387
2000-01-19,9.05413
2000-01-20,8.85942
2000-01-21,8.68807
2000-01-24,8.52062
2000-01-25,8.56735
2000-01-26,8.91004
2000-01-27,8.78543
2000-01-28,8.52062
2000-01-31,8.54398
2000-02-01,8.61797
2000-02-02,8.64134
2000-02-03,8.7387
2000-02-04,8.93341
2000-02-07,8.81269
2000-02-08,9.22548
2000-02-09,8.93341
2000-02-10,8.93341
2000-02-11,8.56735
2000-02-14,8.20129
2000-02-15,7.95985
2000-02-16,7.59379
2000-02-17,7.66778
2000-02-18,8.20129
2000-02-22,8.3259
2000-02-23,8.17792
2000-02-24,7.83912
2000-02-25,7.96835
2000-02-28,7.99181
2000-02-29,8.33197
2000-03-01,8.35934
2000-03-02,8.40626
2000-03-03,8.82071
2000-03-06,8.62521
2000-03-07,8.35934
2000-03-08,8.52747
2000-03-09,8.6995
2000-03-10,8.65258
2000-03-13,8.45709
2000-03-14,8.26159
2000-03-15,9.06703
2000-03-16,9.7278
2000-03-17,9.38373
2000-03-20,9.43456
2000-03-21,9.7278
2000-03-22,9.63006
2000-03-23,10.6779
2000-03-24,10.9711
2000-03-27,11.2918
2000-03-28,10.9985
2000-03-29,10.7757
2000-03-30,10.9985
2000-03-31,11.5107
2000-04-03,11.804
2000-04-04,12.0737
2000-04-05,12.758
2000-04-06,12.4882
2000-04-07,12.367
2000-04-10,12.4647
2000-04-11,12.5351
2000-04-12,13.1959
2000-04-13,13.0981
2000-04-14,11.4873
2000-04-17,10.9477
2000-04-18,11.6827
2000-04-19,11.9252
2000-04-20,11.6085
2000-04-24,12.1441
2000-04-25,12.7071
2000-04-26,12.0464
2000-04-27,11.0454
2000-04-28,10.9008
2000-05-01,11.5107
2000-05-02,11.413
2000-05-03,10.4824
2000-05-04,10.4824
2000-05-05,10.803
2000-05-08,10.8499
2000-05-09,10.9477
2000-05-10,10.6075
2000-05-11,10.459
2000-05-12,9.87247
2000-05-15,9.94676
2000-05-16,10.1188
2000-05-17,9.79818
2000-05-18,9.99368
2000-05-19,9.63006
2000-05-22,9.77472
2000-05-23,9.7278
2000-05-24,9.38373
2000-05-25,9.40719
2000-05-26,9.19928
2000-05-30,9.49362
2000-05-31,9.86253
2000-06-01,9.34449
2000-06-02,9.61528
2000-06-05,9.37196
2000-06-06,8.80682
2000-06-07,10.0588
2000-06-08,9.56819
2000-06-09,9.49362
2000-06-12,9.41905
2000-06-13,9.34449
2000-06-14,9.88608
2000-06-15,9.93318
2000-06-16,9.49362
2000-06-19,9.59174
2000-06-20,9.34449
2000-06-21,9.17573
2000-06-22,9.29739
2000-06-23,9.54072
2000-06-26,9.51717
2000-06-27,9.93318
2000-06-28,9.86253
2000-06-29,9.41905
2000-06-30,9.51717
2000-07-03,9.24637
2000-07-05,9.27384
2000-07-06,8.83036
2000-07-07,9.07761
2000-07-10,9.86253
2000-07-11,9.81152
2000-07-12,9.61528
2000-07-13,9.19928
2000-07-14,9.47007
2000-07-17,9.39551
2000-07-18,9.47007
2000-07-19,9.07761
2000-07-20,8.9795
2000-07-21,8.73225
2000-07-24,8.4379
2000-07-25,8.51247
2000-07-26,8.7558
2000-07-27,8.68515
2000-07-28,7.08784
2000-07-31,6.89161
2000-08-01,7.08784
2000-08-02,7.35864
2000-08-03,7.13886
2000-08-04,7.18595
2000-08-07,7.26052
2000-08-08,7.23697
2000-08-09,7.23697
2000-08-10,6.96618
2000-08-11,7.13886
2000-08-14,7.16241
2000-08-15,7.04074
2000-08-16,7.06429
2000-08-17,6.84451
2000-08-18,7.16241
2000-08-21,7.35864
2000-08-22,7.4332
2000-08-23,7.53132
2000-08-24,7.4332
2000-08-25,7.60589
2000-08-28,7.4332
2000-08-29,7.37
2000-08-30,7.24776
2000-08-31,6.80217
2000-09-01,7.44492
2000-09-05,7.14918
2000-09-06,7.37
2000-09-07,7.27142
2000-09-08,7.34634
2000-09-11,7.29508
2000-09-12,7.1965
2000-09-13,7.09791
2000-09-14,6.97567
2000-09-15,6.99933
2000-09-18,6.77851
2000-09-19,6.70359
2000-09-20,6.50642
2000-09-21,6.50642
2000-09-22,6.38418
2000-09-25,6.21067
2000-09-26,5.89127
2000-09-27,5.89127
2000-09-28,5.96619
2000-09-29,6.18702
2000-10-02,5.89127
2000-10-03,5.89127
2000-10-04,6.03717
2000-10-05,6.4591
2000-10-06,5.86761
2000-10-09,6.21067
2000-10-10,6.16336
2000-10-11,5.74142
2000-10-12,5.64284
2000-10-13,5.86761
2000-10-16,6.16336
2000-10-17,5.93859
2000-10-18,5.86761
2000-10-19,6.13575
2000-10-20,5.98985
2000-10-23,5.98985
2000-10-24,6.06477
2000-10-25,5.86761
2000-10-26,5.76903
2000-10-27,5.96619
2000-10-30,6.21067
2000-10-31,6.48276
2000-11-01,6.38418
2000-11-02,6.80217
2000-11-03,6.67993
2000-11-06,7.02299
2000-11-07,7.1965
2000-11-08,7.46858
2000-11-09,7.27142
2000-11-10,6.92441
2000-11-13,7.09791
2000-11-14,7.1965
2000-11-15,7.14918
2000-11-16,6.77851
2000-11-17,6.87709
2000-11-20,6.65627
2000-11-21,6.33292
2000-11-22,6.16336
2000-11-24,6.21067
2000-11-27,6.58134
2000-11-28,6.49453
2000-11-29,6.44299
2000-11-30,6.39541
2000-12-01,6.34386
2000-12-04,6.76414
2000-12-05,6.71657
2000-12-06,6.66502
2000-12-07,6.51832
2000-12-08,6.64123
2000-12-11,6.46677
2000-12-12,6.54211
2000-12-13,6.39541
2000-12-14,6.24474
2000-12-15,6.22095
2000-12-18,6.44299
2000-12-19,6.09804
2000-12-20,6.26853
2000-12-21,6.32007
2000-12-22,6.59365
2000-12-26,6.44299
2000-12-27,7.25976
2000-12-28,7.41043
2000-12-29,7.18839
2001-01-02,7.28751
2001-01-03,7.78313
2001-01-04,8.05274
2001-01-05,7.458
2001-01-08,7.33509
2001-01-09,7.38664
2001-01-10,7.33509
2001-01-11,7.33509
2001-01-12,7.48576
2001-01-16,7.458
2001-01-17,7.43421
2001-01-18,7.18839
2001-01-19,6.96239
2001-01-22,7.3113
2001-01-23,7.28751
2001-01-24,7.3113
2001-01-25,7.55713
2001-01-26,7.55713
2001-01-29,7.77123
2001-01-30,7.73951
2001-01-31,8.12807
2001-02-01,8.04878
2001-02-02,7.91
2001-02-05,7.67211
2001-02-06,7.72365
2001-02-07,8.00913
2001-02-08,7.51351
2001-02-09,7.2439
2001-02-12,7.59678
2001-02-13,7.66814
2001-02-14,7.73158
2001-02-15,7.99327
2001-02-16,8.13204
2001-02-20,8.33029
2001-02-21,7.70779
2001-02-22,7.49369
2001-02-23,7.50955
2001-02-26,7.62914
2001-02-27,7.56938
2001-02-28,7.35824
2001-03-01,7.14311
2001-03-02,7.05944
2001-03-05,7.0714
2001-03-06,7.16701
2001-03-07,7.25466
2001-03-08,7.29051
2001-03-09,7.27856
2001-03-12,7.03953
2001-03-13,6.90407
2001-03-14,6.83635
2001-03-15,7.06741
2001-03-16,6.78456
2001-03-19,6.93196
2001-03-20,7.02359
2001-03-21,6.90806
2001-03-22,6.49373
2001-03-23,6.53357
2001-03-26,6.54552
2001-03-27,6.45788
2001-03-28,6.4021
2001-03-29,6.48178
2001-03-30,6.49373
2001-04-02,6.55349
2001-04-03,6.31446
2001-04-04,6.34235
2001-04-05,6.69691
2001-04-06,6.61723
2001-04-09,6.71683
2001-04-10,6.87619
2001-04-11,6.69293
2001-04-12,6.61325
2001-04-16,6.53756
2001-04-17,6.5774
2001-04-18,7.01164
2001-04-19,7.13514
2001-04-20,6.96782
2001-04-23,7.09928
2001-04-24,6.84432
2001-04-25,6.78456
2001-04-26,6.9957
2001-04-27,7.23075
2001-04-30,7.32238
2001-05-01,7.33035
2001-05-02,7.41003
2001-05-03,7.32238
2001-05-04,7.4897
2001-05-07,7.29051
2001-05-08,7.17099
2001-05-09,7.13912
2001-05-10,7.29051
2001-05-11,7.29051
2001-05-14,7.16701
2001-05-15,7.17099
2001-05-16,7.23075
2001-05-17,7.39011
2001-05-18,7.42995
2001-05-21,7.54946
2001-05-22,7.58133
2001-05-23,7.32637
2001-05-24,7.39808
2001-05-25,7.39808
2001-05-29,7.47418
2001-05-30,7.36609
2001-05-31,7.41813
2001-06-01,7.24599
2001-06-04,7.18194
2001-06-05,7.38611
2001-06-06,7.35008
2001-06-07,7.24999
2001-06-08,7.35408
2001-06-11,7.38611
2001-06-12,7.36209
2001-06-13,7.37009
2001-06-14,7.22197
2001-06-15,7.17393
2001-06-18,7.21797
2001-06-19,7.18194
2001-06-20,7.22998
2001-06-21,7.32205
2001-06-22,7.258
2001-06-25,7.19795
2001-06-26,7.20996
2001-06-27,7.09787
2001-06-28,7.262
2001-06-29,7.48219
2001-07-02,7.22998
2001-07-03,7.23398
2001-07-05,7.08586
2001-07-06,6.80563
2001-07-09,6.85767
2001-07-10,7.10587
2001-07-11,7.28602
2001-07-12,7.56225
2001-07-13,7.66233
2001-07-16,7.71037
2001-07-17,7.70637
2001-07-18,7.99461
2001-07-19,8.18677
2001-07-20,8.42697
2001-07-23,8.471
2001-07-24,8.66716
2001-07-25,8.96341
2001-07-26,8.64715
2001-07-27,8.72721
2001-07-30,8.78726
2001-07-31,9.00344
2001-08-01,8.93939
2001-08-02,9.03547
2001-08-03,9.17959
2001-08-06,8.95941
2001-08-07,8.76324
2001-08-08,8.63514
2001-08-09,8.57109
2001-08-10,8.48702
2001-08-13,8.50303
2001-08-14,8.50703
2001-08-15,8.62313
2001-08-16,8.56308
2001-08-17,8.33089
2001-08-20,8.40295
2001-08-21,8.00662
2001-08-22,8.09469
2001-08-23,7.93856
2001-08-24,8.36692
2001-08-27,8.15874
2001-08-28,7.99061
2001-08-29,7.97051
2001-08-30,7.65684
2001-08-31,8.0429
2001-09-04,8.31636
2001-09-05,8.18365
2001-09-06,7.94236
2001-09-07,7.71314
2001-09-10,7.65282
2001-09-17,6.56301
2001-09-18,6.47454
2001-09-19,6.29357
2001-09-20,5.96783
2001-09-21,5.98392
2001-09-24,6.47856
2001-09-25,6.41421
2001-09-26,6.02011
2001-09-27,5.81904
2001-09-28,5.83915
2001-10-01,5.73057
2001-10-02,6.03218
2001-10-03,6.16086
2001-10-04,6.30161
2001-10-05,6.41824
2001-10-08,6.2051
2001-10-09,6.1126
2001-10-10,6.38204
2001-10-11,6.57507
2001-10-12,6.38606
2001-10-15,6.374
2001-10-16,6.49866
2001-10-17,6.19303
2001-10-18,6.04022
2001-10-19,6.30966
2001-10-22,6.0925
2001-10-23,6.02011
2001-10-24,5.89947
2001-10-25,6.02815
2001-10-26,6.24933
2001-10-29,6.01207
2001-10-30,5.67427
2001-10-31,5.68633
2001-11-01,5.85523
2001-11-02,5.8874
2001-11-05,6.24531
2001-11-06,6.34585
2001-11-07,6.43432
2001-11-08,6.28955
2001-11-09,6.34585
2001-11-12,6.32172
2001-11-13,6.56301
2001-11-14,6.95711
2001-11-15,7.17025
2001-11-16,7.96247
2001-11-19,8.07507
2001-11-20,8.11127
2001-11-21,8.07507
2001-11-23,8.13539
2001-11-26,8.08312
2001-11-27,8.0429
2001-11-28,7.8611
2001-11-29,7.71972
2001-11-30,7.66316
2001-12-03,7.52581
2001-12-04,7.647
2001-12-05,7.98229
2001-12-06,7.95401
2001-12-07,7.85302
2001-12-10,7.79647
2001-12-11,7.69144
2001-12-12,7.63488
2001-12-13,7.47734
2001-12-14,7.53793
2001-12-17,7.59449
2001-12-18,7.63084
2001-12-19,7.63488
2001-12-20,7.78031
2001-12-21,7.78839
2001-12-24,7.9015
2001-12-26,8.04288
2001-12-27,8.0752
2001-12-28,8.21659
2001-12-31,8.17619
2002-01-02,8.04288
2002-01-03,8.3095
2002-01-04,8.51956
2002-01-07,8.41453
2002-01-08,9.02047
2002-01-09,8.73366
2002-01-10,8.84677
2002-01-11,8.64479
2002-01-14,8.46301
2002-01-15,8.44281
2002-01-16,8.34586
2002-01-17,8.42261
2002-01-18,8.68922
2002-01-22,8.80637
2002-01-23,8.97604
2002-01-24,9.77992
2002-01-25,9.69913
2002-01-28,10.1354
2002-01-29,10.0304
2002-01-30,10.1071
2002-01-31,10.1354
2002-02-01,10.0829
2002-02-04,9.90111
2002-02-05,9.82436
2002-02-06,9.73952
2002-02-07,9.52139
2002-02-08,9.3194
2002-02-11,9.44059
2002-02-12,9.53754
2002-02-13,10.2
2002-02-14,9.96574
2002-02-15,10.0587
2002-02-19,9.86475
2002-02-20,10.1394
2002-02-21,10.2526
2002-02-22,10.1314
2002-02-25,10.2445
2002-02-26,10.4715
2002-02-27,10.3742
2002-02-28,10.3296
2002-03-01,10.5039
2002-03-04,10.6256
2002-03-05,10.2769
2002-03-06,10.4634
2002-03-07,10.3093
2002-03-08,10.3256
2002-03-11,10.4188
2002-03-12,10.6012
2002-03-13,10.431
2002-03-14,10.4918
2002-03-15,10.5242
2002-03-18,10.5161
2002-03-19,10.4107
2002-03-20,10.208
2002-03-21,10.0256
2002-03-22,10.0337
2002-03-25,9.68908
2002-03-26,9.93637
2002-03-27,9.82692
2002-03-28,9.93232
2002-04-01,9.54314
2002-04-02,9.07287
2002-04-03,9.08909
2002-04-04,9.48638
2002-04-05,9.56746
2002-04-08,9.76611
2002-04-09,9.89178
2002-04-10,10.212
2002-04-11,9.81881
2002-04-12,9.9161
2002-04-15,9.78638
2002-04-16,9.92421
2002-04-17,9.95259
2002-04-18,10.0742
2002-04-19,10.1026
2002-04-22,9.84313
2002-04-23,9.92421
2002-04-24,9.6607
2002-04-25,9.55935
2002-04-26,9.53908
2002-04-29,9.44584
2002-04-30,9.52287
2002-05-01,9.52692
2002-05-02,9.50665
2002-05-03,9.27557
2002-05-06,9.12557
2002-05-07,9.33233
2002-05-08,9.35665
2002-05-09,9.608
2002-05-10,9.80259
2002-05-13,9.91205
2002-05-14,10.4391
2002-05-15,10.6864
2002-05-16,10.6296
2002-05-17,10.5647
2002-05-20,10.4147
2002-05-21,10.135
2002-05-22,10.0458
2002-05-23,10.2688
2002-05-24,10.1796
2002-05-28,9.95664
2002-05-29,9.859
2002-05-30,9.64335
2002-05-31,10.0014
2002-06-03,9.80204
2002-06-04,9.4806
2002-06-05,9.87121
2002-06-06,9.81425
2002-06-07,9.94038
2002-06-10,9.97294
2002-06-11,9.8468
2002-06-12,9.98514
2002-06-13,9.57011
2002-06-14,9.52535
2002-06-17,9.89156
2002-06-18,9.67997
2002-06-19,9.67183
2002-06-20,9.50094
2002-06-21,9.28122
2002-06-24,9.3097
2002-06-25,9.1266
2002-06-26,9.05336
2002-06-27,9.15101
2002-06-28,9.23646
2002-07-01,8.90281
2002-07-02,8.56509
2002-07-03,8.58543
2002-07-05,9.04929
2002-07-08,9.08998
2002-07-09,8.97605
2002-07-10,8.67088
2002-07-11,8.46743
2002-07-12,8.11344
2002-07-15,7.73096
2002-07-16,7.64958
2002-07-17,7.62923
2002-07-18,7.64551
2002-07-19,7.27524
2002-07-22,7.0311
2002-07-23,7.1491
2002-07-24,7.71061
2002-07-25,7.48682
2002-07-26,7.5682
2002-07-29,8.11751
2002-07-30,7.98323
2002-07-31,7.69841
2002-08-01,7.31593
2002-08-02,6.93345
2002-08-05,6.7829
2002-08-06,7.18979
2002-08-07,7.03517
2002-08-08,7.09214
2002-08-09,7.1491
2002-08-12,7.07179
2002-08-13,7.01483
2002-08-14,7.49496
2002-08-15,8.39012
2002-08-16,8.39012
2002-08-19,8.52847
2002-08-20,8.45523
2002-08-21,8.38199
2002-08-22,8.44709
2002-08-23,8.19888
2002-08-26,8.18668
2002-08-27,7.7513
2002-08-28,7.75104
2002-08-29,7.74695
2002-08-30,7.91056
2002-09-03,7.83285
2002-09-04,8.14371
2002-09-05,7.89829
2002-09-06,8.62636
2002-09-09,8.72861
2002-09-10,8.81451
2002-09-11,8.76134
2002-09-12,8.55273
2002-09-13,8.68362
2002-09-16,8.58954
2002-09-17,8.53228
2002-09-18,8.41775
2002-09-19,8.38503
2002-09-20,8.40957
2002-09-23,7.99237
2002-09-24,7.84921
2002-09-25,8.07417
2002-09-26,8.25005
2002-09-27,7.91465
2002-09-30,7.32974
2002-10-01,7.2643
2002-10-02,7.27657
2002-10-03,6.94935
2002-10-04,6.95344
2002-10-07,6.40126
2002-10-08,6.62213
2002-10-09,6.33172
2002-10-10,6.90436
2002-10-11,7.60788
2002-10-14,7.49336
2002-10-15,7.90647
2002-10-16,7.46472
2002-10-17,7.73468
2002-10-18,7.86148
2002-10-21,7.94328
2002-10-22,7.92692
2002-10-23,8.21324
2002-10-24,8.23369
2002-10-25,8.58136
2002-10-28,8.12735
2002-10-29,8.29096
2002-10-30,8.21324
2002-10-31,8.15189
2002-11-01,8.47093
2002-11-04,8.14371
2002-11-05,8.58954
2002-11-06,8.72043
2002-11-07,8.98221
2002-11-08,8.97812
2002-11-11,8.7327
2002-11-12,9.03129
2002-11-13,7.79194
2002-11-14,8.23778
2002-11-15,8.22142
2002-11-18,7.95964
2002-11-19,7.7674
2002-11-20,8.23369
2002-11-21,8.18052
2002-11-22,8.13144
2002-11-25,8.13962
2002-11-26,7.97927
2002-11-27,8.31226
2002-11-29,8.22182
2002-12-02,8.21771
2002-12-03,8.03683
2002-12-04,8.3287
2002-12-05,8.14371
2002-12-06,8.14371
2002-12-09,7.89295
2002-12-10,8.02038
2002-12-11,8.04094
2002-12-12,7.85595
2002-12-13,7.67096
2002-12-16,7.92994
2002-12-17,7.72851
2002-12-18,7.50652
2002-12-19,7.44486
2002-12-20,7.77373
2002-12-23,7.66685
2002-12-24,7.72029
2002-12-26,7.79428
2002-12-27,7.72851
2002-12-30,7.83539
2002-12-31,7.79839
2003-01-02,8.03272
2003-01-03,7.83539
2003-01-06,7.84361
2003-01-07,7.85595
2003-01-08,7.71207
2003-01-09,7.96694
2003-01-10,7.89706
2003-01-13,7.7614
2003-01-14,7.87239
2003-01-15,7.88472
2003-01-16,7.82306
2003-01-17,7.72029
2003-01-21,7.48185
2003-01-22,7.49008
2003-01-23,7.65862
2003-01-24,7.47774
2003-01-27,7.42841
2003-01-28,7.53119
2003-01-29,7.49419
2003-01-30,7.38319
2003-01-31,7.43252
2003-02-03,7.4613
2003-02-04,7.29686
2003-02-05,7.21465
2003-02-06,7.12832
2003-02-07,6.93099
2003-02-10,7.05843
2003-02-11,7.09954
2003-02-12,7.06254
2003-02-13,6.98855
2003-02-14,7.11187
2003-02-18,7.22287
2003-02-19,7.06665
2003-02-20,7.02554
2003-02-21,7.09543
2003-02-24,6.81589
2003-02-25,6.96799
2003-02-26,6.84794
2003-02-27,6.93479
2003-02-28,7.0423
2003-03-03,7.00095
2003-03-04,6.91411
2003-03-05,6.88516
2003-03-06,6.9596
2003-03-07,7.00922
2003-03-10,6.95546
2003-03-11,6.80246
2003-03-12,6.76524
2003-03-13,6.98854
2003-03-14,7.09606
2003-03-17,7.48477
2003-03-18,7.48477
2003-03-19,7.50545
2003-03-20,7.54266
2003-03-21,7.62537
2003-03-24,7.31523
2003-03-25,7.3938
2003-03-26,7.38553
2003-03-27,7.22425
2003-03-28,7.15809
2003-03-31,6.71562
2003-04-01,6.61637
2003-04-02,6.74043
2003-04-03,6.80246
2003-04-04,6.8314
2003-04-07,6.84381
2003-04-08,6.76111
2003-04-09,6.64118
2003-04-10,6.8314
2003-04-11,6.80246
2003-04-14,6.95133
2003-04-15,7.0299
2003-04-16,6.88103
2003-04-17,7.05057
2003-04-21,6.98441
2003-04-22,7.13741
2003-04-23,7.1126
2003-04-24,7.0299
2003-04-25,6.95133
2003-04-28,7.06711
2003-04-29,7.13741
2003-04-30,7.14568
2003-05-01,6.98854
2003-05-02,7.12914
2003-05-05,7.17049
2003-05-06,7.29869
2003-05-07,7.30282
2003-05-08,6.67013
2003-05-09,6.64118
2003-05-12,6.79832
2003-05-13,7.03403
2003-05-14,7.00095
2003-05-15,6.87276
2003-05-16,6.61637
2003-05-19,6.55021
2003-05-20,7.13328
2003-05-21,7.06298
2003-05-22,7.24079
2003-05-23,7.18703
2003-05-27,7.3938
2003-05-28,7.57259
2003-05-29,7.46447
2003-05-30,7.7514
2003-06-02,7.79299
2003-06-03,7.88447
2003-06-04,7.93438
2003-06-05,8.16725
2003-06-06,8.1423
2003-06-09,7.90111
2003-06-10,8.02586
2003-06-11,8.07576
2003-06-12,8.10903
2003-06-13,7.93438
2003-06-16,8.1423
2003-06-17,8.13398
2003-06-18,8.06745
2003-06-19,7.95517
2003-06-20,8.03418
2003-06-23,7.98844
2003-06-24,8.02171
2003-06-25,8.06329
2003-06-26,8.14646
2003-06-27,8.06745
2003-06-30,8.11735
2003-07-01,8.21715
2003-07-02,8.1922
2003-07-03,8.11319
2003-07-07,8.2629
2003-07-08,8.51656
2003-07-09,8.4833
2003-07-10,8.64963
2003-07-11,8.72865
2003-07-14,8.82013
2003-07-15,8.99895
2003-07-16,8.89914
2003-07-17,8.73696
2003-07-18,8.80766
2003-07-21,8.72449
2003-07-22,8.85756
2003-07-23,8.89499
2003-07-24,8.72449
2003-07-25,8.85756
2003-07-28,8.89914
2003-07-29,8.79934
2003-07-30,8.78686
2003-07-31,8.78271
2003-08-01,8.7536
2003-08-04,8.94489
2003-08-05,8.84508
2003-08-06,9.04469
2003-08-07,9.09459
2003-08-08,9.15697
2003-08-11,9.35658
2003-08-12,9.55618
2003-08-13,9.55618
2003-08-14,9.68094
2003-08-15,9.735
2003-08-18,9.86391
2003-08-19,9.85559
2003-08-20,9.85144
2003-08-21,9.98867
2003-08-22,10.4419
2003-08-25,10.2798
2003-08-26,10.3006
2003-08-27,10.4175
2003-08-28,10.7348
2003-08-29,10.8851
2003-09-02,10.9728
2003-09-03,10.9603
2003-09-04,10.7056
2003-09-05,10.6471
2003-09-08,10.5344
2003-09-09,10.4801
2003-09-10,10.4718
2003-09-11,10.5636
2003-09-12,10.405
2003-09-15,10.4676
2003-09-16,10.7473
2003-09-17,10.8976
2003-09-18,10.835
2003-09-19,10.7766
2003-09-22,10.5803
2003-09-23,10.7807
2003-09-24,10.6805
2003-09-25,10.6555
2003-09-26,10.3966
2003-09-29,10.4718
2003-09-30,10.359
2003-10-01,10.8183
2003-10-02,10.7933
2003-10-03,11.0146
2003-10-06,11.0897
2003-10-07,11.2692
2003-10-08,11.2609
2003-10-09,11.7578
2003-10-10,11.7494
2003-10-13,12.0375
2003-10-14,11.9415
2003-10-15,11.9123
2003-10-16,11.9331
2003-10-17,11.9749
2003-10-20,12.2964
2003-10-21,12.4383
2003-10-22,12.1753
2003-10-23,12.526
2003-10-24,12.4049
2003-10-27,12.4509
2003-10-28,12.6638
2003-10-29,12.8893
2003-10-30,12.739
2003-10-31,12.7348
2003-11-03,12.8768
2003-11-04,12.7765
2003-11-05,12.6262
2003-11-06,12.7682
2003-11-07,12.7724
2003-11-10,12.7431
2003-11-11,13.0104
2003-11-12,13.2567
2003-11-13,13.1941
2003-11-14,13.0187
2003-11-17,12.5219
2003-11-18,12.4717
2003-11-19,12.7181
2003-11-20,13.382
2003-11-21,14.5719
2003-11-24,14.6095
2003-11-25,14.7604
2003-11-26,14.4337
2003-11-28,14.4505
2003-12-01,14.4505
2003-12-02,14.3458
2003-12-03,14.4463
2003-12-04,14.3374
2003-12-05,14.1154
2003-12-08,14.2243
2003-12-09,14.2034
2003-12-10,14.0986
2003-12-11,14.2788
2003-12-12,14.1615
2003-12-15,13.7007
2003-12-16,13.4033
2003-12-17,13.4871
2003-12-18,13.751
2003-12-19,13.6714
2003-12-22,13.7426
2003-12-23,13.952
2003-12-24,13.9311
2003-12-26,14.174
2003-12-29,14.3039
2003-12-30,14.2746
2003-12-31,14.3416
2004-01-02,13.9227
2004-01-05,14.1657
2004-01-06,14.5761
2004-01-07,14.6515
2004-01-08,15.1081
2004-01-09,15.0411
2004-01-12,15.2296
2004-01-13,15.2798
2004-01-14,15.5772
2004-01-15,15.7908
2004-01-16,16.0714
2004-01-20,15.8495
2004-01-21,15.8076
2004-01-22,16.0505
2004-01-23,16.5992
2004-01-26,16.9133
2004-01-27,16.5448
2004-01-28,16.172
2004-01-29,16.4903
2004-01-30,16.4526
2004-02-02,16.7332
2004-02-03,16.7584
2004-02-04,16.7416
2004-02-05,16.7374
2004-02-06,16.8254
2004-02-09,16.838
2004-02-10,16.7709
2004-02-11,16.75
2004-02-12,16.7416
2004-02-13,16.5699
2004-02-17,16.7877
2004-02-18,17.0055
2004-02-19,16.6997
2004-02-20,16.4191
2004-02-23,16.218
2004-02-24,16.4484
2004-02-25,16.4526
2004-02-26,16.2972
2004-02-27,16.4442
2004-03-01,16.5492
2004-03-02,16.6962
2004-03-03,16.6164
2004-03-04,16.7592
2004-03-05,16.6542
2004-03-08,16.5702
2004-03-09,16.335
2004-03-10,16.0493
2004-03-11,15.8477
2004-03-12,16.2552
2004-03-15,15.7595
2004-03-16,15.7511
2004-03-17,15.8435
2004-03-18,15.8141
2004-03-19,15.6839
2004-03-22,15.5537
2004-03-23,15.7217
2004-03-24,15.7385
2004-03-25,16.1711
2004-03-26,15.8477
2004-03-29,16.2425
2004-03-30,16.7466
2004-03-31,16.7802
2004-04-01,16.6836
2004-04-02,16.7382
2004-04-05,16.86
2004-04-06,16.8306
2004-04-07,16.7928
2004-04-08,16.4862
2004-04-12,16.4862
2004-04-13,15.9485
2004-04-14,15.6251
2004-04-15,15.8687
2004-04-16,15.7217
2004-04-19,15.8225
2004-04-20,15.6923
2004-04-21,15.8897
2004-04-22,16.1081
2004-04-23,16.0661
2004-04-26,15.9905
2004-04-27,16.272
2004-04-28,15.7595
2004-04-29,15.2261
2004-04-30,14.9615
2004-05-03,15.1799
2004-05-04,15.3647
2004-05-05,15.7259
2004-05-06,15.3899
2004-05-07,14.9237
2004-05-10,14.8943
2004-05-11,15.1673
2004-05-12,15.2597
2004-05-13,15.3731
2004-05-14,15.2177
2004-05-17,14.9237
2004-05-18,15.4949
2004-05-19,15.6797
2004-05-20,15.6335
2004-05-21,16.7634
2004-05-24,16.734
2004-05-25,16.839
2004-05-26,16.9316
2004-05-27,17.1338
2004-05-28,17.1043
2004-06-01,17.2812
2004-06-02,17.4244
2004-06-03,17.1759
2004-06-04,17.1254
2004-06-07,17.2812
2004-06-08,17.3739
2004-06-09,17.2559
2004-06-10,17.3949
2004-06-14,17.1043
2004-06-15,17.3444
2004-06-16,17.3191
2004-06-17,17.4286
2004-06-18,17.5802
2004-06-21,17.7908
2004-06-22,17.8456
2004-06-23,18.4353
2004-06-24,18.629
2004-06-25,18.5026
2004-06-28,18.6543
2004-06-29,17.9551
2004-06-30,17.9509
2004-07-01,18.1446
2004-07-02,17.8835
2004-07-06,17.9972
2004-07-07,18.2963
2004-07-08,17.3739
2004-07-09,17.5171
2004-07-12,17.7614
2004-07-13,17.8877
2004-07-14,17.5592
2004-07-15,17.5297
2004-07-16,17.2349
2004-07-19,17.1043
2004-07-20,17.9593
2004-07-21,17.8077
2004-07-22,18.1994
2004-07-23,18.052
2004-07-26,17.9003
2004-07-27,18.5237
2004-07-28,18.9533
2004-07-29,19.1218
2004-07-30,18.4395
2004-08-02,18.5532
2004-08-03,18.2878
2004-08-04,18.1025
2004-08-05,17.1506
2004-08-06,16.8137
2004-08-09,17.1212
2004-08-10,17.4876
2004-08-11,17.2307
2004-08-12,16.4852
2004-08-13,16.6494
2004-08-16,16.9737
2004-08-17,17.1675
2004-08-18,17.0706
2004-08-19,17.0664
2004-08-20,15.5291
2004-08-23,15.3564
2004-08-24,15.4069
2004-08-25,15.3943
2004-08-26,15.6765
2004-08-27,15.8666
2004-08-30,15.6511
2004-08-31,15.6722
2004-09-01,15.8117
2004-09-02,16.3316
2004-09-03,16.4753
2004-09-07,16.8388
2004-09-08,16.5302
2004-09-09,16.3569
2004-09-10,16.7669
2004-09-13,16.9106
2004-09-14,17.0205
2004-09-15,16.8007
2004-09-16,16.8261
2004-09-17,16.7373
2004-09-20,16.6697
2004-09-21,16.9994
2004-09-22,16.6739
2004-09-23,16.6359
2004-09-24,16.7077
2004-09-27,16.3738
2004-09-28,16.3442
2004-09-29,16.2386
2004-09-30,16.1625
2004-10-01,16.171
2004-10-04,16.619
2004-10-05,16.2935
2004-10-06,16.5006
2004-10-07,17.0839
2004-10-08,16.8007
2004-10-11,17.0501
2004-10-12,16.8937
2004-10-13,16.8261
2004-10-14,16.657
2004-10-15,16.7035
2004-10-18,17.0078
2004-10-19,17.0459
2004-10-20,16.9909
2004-10-21,17.3755
2004-10-22,17.3502
2004-10-25,17.2022
2004-10-26,17.6968
2004-10-27,18.0095
2004-10-28,18.4153
2004-10-29,18.2589
2004-11-01,18.111
2004-11-02,18.3434
2004-11-03,18.504
2004-11-04,19.0112
2004-11-05,19.0324
2004-11-08,19.0408
2004-11-09,18.876
2004-11-10,19.1465
2004-11-11,19.0873
2004-11-12,19.3198
2004-11-15,19.4635
2004-11-16,18.9182
2004-11-17,19.2944
2004-11-18,19.0239
2004-11-19,18.745
2004-11-22,19.0366
2004-11-23,19.2057
2004-11-24,19.1042
2004-11-26,19.1297
2004-11-29,18.9432
2004-11-30,18.5871
2004-12-01,18.922
2004-12-02,18.3371
2004-12-03,18.4388
2004-12-06,18.6083
2004-12-07,18.6295
2004-12-08,19.1
2004-12-09,19.1806
2004-12-10,19.0746
2004-12-13,19.2526
2004-12-14,19.6002
2004-12-15,19.6553
2004-12-16,19.5748
2004-12-17,19.3247
2004-12-20,19.2569
2004-12-21,19.7189
2004-12-22,19.7019
2004-12-23,19.6511
2004-12-27,19.6638
2004-12-28,19.8715
2004-12-29,19.9139
2004-12-30,19.9181
2004-12-31,19.8079
2005-01-03,19.6002
2005-01-04,19.3332
2005-01-05,19.9478
2005-01-06,20.1936
2005-01-07,20.2742
2005-01-10,20.3886
2005-01-11,20.4353
2005-01-12,20.3462
2005-01-13,20.3462
2005-01-14,20.643
2005-01-18,20.6302
2005-01-19,20.4014
2005-01-20,20.3886
2005-01-21,20.075
2005-01-24,19.7528
2005-01-25,20.2699
2005-01-26,20.2276
2005-01-27,20.1936
2005-01-28,20.164
2005-01-31,20.4734
2005-02-01,20.7405
2005-02-02,21.0753
2005-02-03,21.478
2005-02-04,21.283
2005-02-07,21.4865
2005-02-08,21.2618
2005-02-09,20.9778
2005-02-10,21.0075
2005-02-11,21.3763
2005-02-14,21.4992
2005-02-15,21.8468
2005-02-16,22.1647
2005-02-17,22.7581
2005-02-18,22.3173
2005-02-22,22.0884
2005-02-23,22.046
2005-02-24,22.284
2005-02-25,22.5007
2005-02-28,22.8321
2005-03-01,23.0616
2005-03-02,22.9086
2005-03-03,22.8916
2005-03-04,22.9129
2005-03-07,23.3081
2005-03-08,23.0744
2005-03-09,22.9214
2005-03-10,22.9171
2005-03-11,22.8066
2005-03-14,22.8151
2005-03-15,23.2188
2005-03-16,23.3463
2005-03-17,23.0744
2005-03-18,22.5177
2005-03-21,22.2245
2005-03-22,22.1947
2005-03-23,22.182
2005-03-24,22.1012
2005-03-28,22.4667
2005-03-29,22.2585
2005-03-30,22.8916
2005-03-31,23.5163
2005-04-01,23.0659
2005-04-04,23.1423
2005-04-05,23.444
2005-04-06,23.3718
2005-04-07,23.869
2005-04-08,23.2613
2005-04-11,23.3208
2005-04-12,23.5205
2005-04-13,23.3293
2005-04-14,22.8534
2005-04-15,22.301
2005-04-18,22.6792
2005-04-19,23.0701
2005-04-20,22.6452
2005-04-21,22.9724
2005-04-22,22.5474
2005-04-25,22.7514
2005-04-26,23.0659
2005-04-27,23.0786
2005-04-28,22.3732
2005-04-29,21.5743
2005-05-02,21.6508
2005-05-03,21.6168
2005-05-04,21.944
2005-05-05,22.9086
2005-05-06,23.3973
2005-05-09,23.7203
2005-05-10,23.4101
2005-05-11,23.4271
2005-05-12,23.1636
2005-05-13,23.1211
2005-05-16,23.5928
2005-05-17,24.3492
2005-05-18,24.9356
2005-05-19,25.4328
2005-05-20,25.4455
2005-05-23,25.3988
2005-05-24,25.3775
2005-05-25,25.3095
2005-05-26,25.6291
2005-05-27,25.6632
2005-05-31,26.0169
2005-06-01,26.1363
2005-06-02,27.2656
2005-06-03,26.8906
2005-06-06,27.2826
2005-06-07,27.679
2005-06-08,27.4957
2005-06-09,27.99
2005-06-10,28.2202
2005-06-13,28.1009
2005-06-14,28.9191
2005-06-15,29.2003
2005-06-16,29.1535
2005-06-17,29.4134
2005-06-20,29.341
2005-06-21,29.7373
2005-06-22,29.5924
2005-06-23,28.723
2005-06-24,27.8963
2005-06-27,28.0199
2005-06-28,28.8381
2005-06-29,29.1236
2005-06-30,28.966
2005-07-01,28.9787
2005-07-05,29.8481
2005-07-06,29.7288
2005-07-07,30.2828
2005-07-08,30.3254
2005-07-11,30.189
2005-07-12,30.5811
2005-07-13,30.5811
2005-07-14,30.4873
2005-07-15,30.6748
2005-07-18,30.8368
2005-07-19,31.5186
2005-07-20,31.4419
2005-07-21,31.0328
2005-07-22,31.5613
2005-07-25,30.8283
2005-07-26,30.5385
2005-07-27,31.3226
2005-07-28,31.8596
2005-07-29,31.5442
2005-08-01,31.3993
2005-08-02,31.5016
2005-08-03,31.0584
2005-08-04,28.4929
2005-08-05,27.2571
2005-08-08,27.1548
2005-08-09,27.7173
2005-08-10,27.5128
2005-08-11,27.1463
2005-08-12,27.6065
2005-08-15,27.7258
2005-08-16,26.4729
2005-08-17,29.3026
2005-08-18,28.9958
2005-08-19,28.5781
2005-08-22,28.2628
2005-08-23,28.3225
2005-08-24,28.4844
2005-08-25,28.7316
2005-08-26,27.99
2005-08-29,28.3104
2005-08-30,28.2079
2005-08-31,28.7035
2005-09-01,28.0455
2005-09-02,28.319
2005-09-06,29.9169
2005-09-07,31.1304
2005-09-08,31.7114
2005-09-09,31.4978
2005-09-12,31.4807
2005-09-13,31.3953
2005-09-14,31.2329
2005-09-15,31.3611
2005-09-16,30.7116
2005-09-19,29.7631
2005-09-20,28.8317
2005-09-21,28.2079
2005-09-22,28.9684
2005-09-23,29.3529
2005-09-26,29.0026
2005-09-27,29.182
2005-09-28,28.5668
2005-09-29,28.9086
2005-09-30,29.3273
2005-10-03,29.8486
2005-10-04,28.5241
2005-10-05,28.3532
2005-10-06,27.9942
2005-10-07,28.4044
2005-10-10,27.5499
2005-10-11,27.1141
2005-10-12,26.6185
2005-10-13,26.9603
2005-10-14,28.1139
2005-10-17,28.0284
2005-10-18,27.3277
2005-10-19,28.6693
2005-10-20,28.7035
2005-10-21,28.789
2005-10-24,29.259
2005-10-25,28.7975
2005-10-26,28.4301
2005-10-27,27.1654
2005-10-28,27.9857
2005-10-31,29.5751
2005-11-01,30.1391
2005-11-02,30.5578
2005-11-03,31.2414
2005-11-04,31.7285
2005-11-07,31.8482
2005-11-08,30.9936
2005-11-09,31.1475
2005-11-10,32.2669
2005-11-11,32.1216
2005-11-14,32.9249
2005-11-15,31.5149
2005-11-16,32.3181
2005-11-17,32.8565
2005-11-18,32.096
2005-11-21,31.9507
2005-11-22,32.5318
2005-11-23,32.4634
2005-11-25,32.6429
2005-11-28,32.2017
2005-11-29,31.9619
2005-11-30,31.6193
2005-12-01,31.2339
2005-12-02,31.371
2005-12-05,30.8486
2005-12-06,31.037
2005-12-07,31.3196
2005-12-08,31.902
2005-12-09,32.1674
2005-12-12,31.8677
2005-12-13,31.7564
2005-12-14,31.5765
2005-12-15,31.7478
2005-12-16,31.174
2005-12-19,31.6793
2005-12-20,32.2531
2005-12-21,32.3216
2005-12-22,31.979
2005-12-23,32.1418
2005-12-27,31.5251
2005-12-28,32.1931
2005-12-29,32.0904
2005-12-30,32.0732
2006-01-03,32.2959
2006-01-04,32.2531
2006-01-05,33.9831
2006-01-06,33.8289
2006-01-09,34.3513
2006-01-10,34.7025
2006-01-11,35.2849
2006-01-12,34.4113
2006-01-13,34.2914
2006-01-17,33.8289
2006-01-18,34.0002
2006-01-19,34.4455
2006-01-20,33.7433
2006-01-23,34.3856
2006-01-24,34.3342
2006-01-25,35.242
2006-01-26,35.7131
2006-01-27,36.1841
2006-01-30,36.3982
2006-01-31,35.7644
2006-02-01,35.97
2006-02-02,36.0642
2006-02-03,36.1413
2006-02-06,35.3962
2006-02-07,35.2249
2006-02-08,35.5675
2006-02-09,35.2078
2006-02-10,35.0365
2006-02-13,34.6939
2006-02-14,34.3685
2006-02-15,34.7196
2006-02-16,34.7282
2006-02-17,34.2571
2006-02-21,34.1629
2006-02-22,34.5055
2006-02-23,34.3685
2006-02-24,32.8701
2006-02-27,32.5438
2006-02-28,32.6125
2006-03-01,33.8748
2006-03-02,33.7717
2006-03-03,34.0293
2006-03-06,34.1324
2006-03-07,33.8318
2006-03-08,34.7678
2006-03-09,34.4758
2006-03-10,35.3517
2006-03-13,35.1799
2006-03-14,35.2229
2006-03-15,35.2916
2006-03-16,35.2486
2006-03-17,35.4118
2006-03-20,35.3603
2006-03-21,34.9137
2006-03-22,34.8622
2006-03-23,34.9481
2006-03-24,34.6905
2006-03-27,34.5531
2006-03-28,33.7459
2006-03-29,34.1753
2006-03-30,34.0808
2006-03-31,33.6429
2006-04-03,32.8272
2006-04-04,33.2307
2006-04-05,33.351
2006-04-06,34.9481
2006-04-07,34.2354
2006-04-10,33.7116
2006-04-11,33.3166
2006-04-12,33.5656
2006-04-13,34.1495
2006-04-17,33.1621
2006-04-18,33.6601
2006-04-19,33.6
2006-04-20,33.6171
2006-04-21,33.1706
2006-04-24,32.8358
2006-04-25,32.4494
2006-04-26,32.5953
2006-04-27,33.0161
2006-04-28,32.9302
2006-05-01,33.1019
2006-05-02,32.5438
2006-05-03,33.1621
2006-05-04,32.561
2006-05-05,33.1535
2006-05-08,33.7288
2006-05-09,33.7202
2006-05-10,33.6858
2006-05-11,32.8873
2006-05-12,31.522
2006-05-15,31.6078
2006-05-16,30.8866
2006-05-17,30.3284
2006-05-18,30.4744
2006-05-19,30.3284
2006-05-22,29.7188
2006-05-23,29.7789
2006-05-24,29.5127
2006-05-25,30.878
2006-05-26,31.0459
2006-05-30,30.5378
2006-05-31,31.7176
2006-06-01,31.9846
2006-06-02,31.8899
2006-06-05,31.0631
2006-06-06,31.3215
2006-06-07,31.8124
2006-06-08,30.9167
2006-06-09,31.2698
2006-06-12,29.9178
2006-06-13,29.4355
2006-06-14,29.978
2006-06-15,31.4679
2006-06-16,30.9081
2006-06-19,30.5034
2006-06-20,31.1579
2006-06-21,31.7779
2006-06-22,31.8554
2006-06-23,31.7176
2006-06-26,31.287
2006-06-27,30.8737
2006-06-28,30.5034
2006-06-29,31.089
2006-06-30,31.4851
2006-07-03,31.4334
2006-07-05,30.7962
2006-07-06,31.9502
2006-07-07,31.8468
2006-07-10,31.8813
2006-07-11,32.2085
2006-07-12,31.0287
2006-07-13,29.4527
2006-07-14,28.824
2006-07-17,28.9102
2006-07-18,27.8164
2006-07-19,29.0824
2006-07-20,28.1093
2006-07-21,27.9456
2006-07-24,28.7293
2006-07-25,29.0135
2006-07-26,28.626
2006-07-27,28.4279
2006-07-28,29.1513
2006-07-31,29.5044
2006-08-01,29.2374
2006-08-02,28.781
2006-08-03,30.6153
2006-08-04,30.0555
2006-08-07,29.7111
2006-08-08,29.358
2006-08-09,28.936
2006-08-10,29.2374
2006-08-11,29.5561
2006-08-14,30.0125
2006-08-15,31.0545
2006-08-16,31.4765
2006-08-17,31.4334
2006-08-18,31.5712
2006-08-21,31.0373
2006-08-22,31.3645
2006-08-23,30.7789
2006-08-24,29.4527
2006-08-25,29.3321
2006-08-28,29.8489
2006-08-29,30.1469
2006-08-30,30.4838
2006-08-31,32.3064
2006-09-01,32.7556
2006-09-05,32.5224
2006-09-06,32.6951
2006-09-07,33.2566
2006-09-08,34.1377
2006-09-11,34.3018
2006-09-12,35.3384
2006-09-13,36.6341
2006-09-14,36.2626
2006-09-15,35.9085
2006-09-18,36.1935
2006-09-19,36.6341
2006-09-20,37.5152
2006-09-21,36.7205
2006-09-22,36.7809
2006-09-25,37.7484
2006-09-26,37.3165
2006-09-27,37.6361
2006-09-28,37.8089
2006-09-29,36.4959
2006-10-02,37.0401
2006-10-03,38.0248
2006-10-04,39.0096
2006-10-05,39.2341
2006-10-06,38.6208
2006-10-09,39.3983
2006-10-10,39.5019
2006-10-11,39.476
2006-10-12,40.8754
2006-10-13,40.6594
2006-10-16,40.9445
2006-10-17,40.573
2006-10-18,41.1086
2006-10-19,40.9186
2006-10-20,40.7804
2006-10-23,41.6701
2006-10-24,42.2229
2006-10-25,41.1
2006-10-26,41.7996
2006-10-27,40.4953
2006-10-30,41.7996
2006-10-31,40.8495
2006-11-01,40.0548
2006-11-02,40.3398
2006-11-03,39.7092
2006-11-06,40.3053
2006-11-07,40.7285
2006-11-08,40.4521
2006-11-09,39.3551
2006-11-10,40.3916
2006-11-13,40.0807
2006-11-14,41.29
2006-11-15,41.6355
2006-11-16,41.3677
2006-11-17,41.506
2006-11-20,40.9618
2006-11-21,42.9053
2006-11-22,43.6914
2006-11-24,43.8987
2006-11-27,42.7844
2006-11-28,42.6935
2006-11-29,43.6197
2006-11-30,42.4424
2006-12-01,41.421
2006-12-04,41.8971
2006-12-05,42.6069
2006-12-06,42.9272
2006-12-07,42.4857
2006-12-08,42.0702
2006-12-11,42.9878
2006-12-12,42.503
2006-12-13,43.109
2006-12-14,43.8015
2006-12-15,43.5158
2006-12-18,42.9878
2006-12-19,42.9791
2006-12-20,42.4165
2006-12-21,41.6807
2006-12-22,42.278
2006-12-26,41.8105
2006-12-27,41.9923
2006-12-28,42.0702
2006-12-29,42.6761
2007-01-03,44.4247
2007-01-04,45.299
2007-01-05,44.3901
2007-01-08,44.5632
2007-01-09,45.1259
2007-01-10,45.3337
2007-01-11,46.3551
2007-01-12,47.4199
2007-01-16,47.5584
2007-01-17,47.2381
2007-01-18,48.1124
2007-01-19,47.5843
2007-01-22,46.8572
2007-01-23,46.7014
2007-01-24,47.6103
2007-01-25,46.4157
2007-01-26,46.4244
2007-01-29,47.1775
2007-01-30,47.1342
2007-01-31,48.173
2007-02-01,49.2896
2007-02-02,49.0473
2007-02-05,48.8655
2007-02-06,49.0819
2007-02-07,49.1598
2007-02-08,49.2723
2007-02-09,49.1944
2007-02-12,49.1425
2007-02-13,49.8523
2007-02-14,50.7612
2007-02-15,50.7872
2007-02-16,50.5795
2007-02-20,51.1335
2007-02-21,51.2287
2007-02-22,51.6529
2007-02-23,50.4063
2007-02-26,49.196
2007-02-27,45.4911
2007-02-28,45.9857
2007-03-01,46.5149
2007-03-02,45.4304
2007-03-05,43.7124
2007-03-06,44.3458
2007-03-07,43.7384
2007-03-08,45.7254
2007-03-09,44.6842
2007-03-12,45.9162
2007-03-13,45.3523
2007-03-14,44.233
2007-03-15,44.3545
2007-03-16,44.2243
2007-03-19,44.5193
2007-03-20,45.0659
2007-03-21,45.7861
2007-03-22,46.0117
2007-03-23,46.3501
2007-03-26,45.8642
2007-03-27,45.2915
2007-03-28,44.5801
2007-03-29,45.1961
2007-03-30,45.9076
2007-04-02,46.619
2007-04-03,46.9835
2007-04-04,46.888
2007-04-05,46.9314
2007-04-09,47.3218
2007-04-10,47.5908
2007-04-11,47.5474
2007-04-12,48.2676
2007-04-13,47.6863
2007-04-16,48.0941
2007-04-17,48.4238
2007-04-18,48.2329
2007-04-19,48.3977
2007-04-20,49.1873
2007-04-23,49.196
2007-04-24,48.7188
2007-04-25,48.4672
2007-04-26,48.7622
2007-04-27,48.8402
2007-04-30,47.6516
2007-05-01,47.8685
2007-05-02,48.5539
2007-05-03,48.1201
2007-05-04,48.1982
2007-05-07,48.0767
2007-05-08,47.7123
2007-05-09,48.3891
2007-05-10,47.0095
2007-05-11,46.8013
2007-05-14,46.9661
2007-05-15,46.4195
2007-05-16,45.5171
2007-05-17,46.2026
2007-05-18,46.2199
2007-05-21,45.682
2007-05-22,45.0833
2007-05-23,44.8577
2007-05-24,44.6929
2007-05-25,44.9098
2007-05-29,44.4356
2007-05-30,44.6618
2007-05-31,45.2272
2007-06-01,46.4103
2007-06-04,46.5408
2007-06-05,46.0624
2007-06-06,46.0885
2007-06-07,44.7575
2007-06-08,45.9928
2007-06-11,45.6535
2007-06-12,44.714
2007-06-13,45.4273
2007-06-14,46.1059
2007-06-15,46.045
2007-06-18,45.2968
2007-06-19,44.7836
2007-06-20,44.2181
2007-06-21,44.5139
2007-06-22,44.4182
2007-06-25,44.0354
2007-06-26,43.6875
2007-06-27,43.6353
2007-06-28,43.8354
2007-06-29,44.4095
2007-07-02,43.905
2007-07-03,43.2699
2007-07-05,43.1394
2007-07-06,43.1307
2007-07-09,42.6958
2007-07-10,41.3909
2007-07-11,41.9128
2007-07-12,42.5044
2007-07-13,43.0002
2007-07-16,42.0781
2007-07-17,41.6258
2007-07-18,41.3996
2007-07-19,42.3043
2007-07-20,41.2865
2007-07-23,40.7993
2007-07-24,39.277
2007-07-25,38.7724
2007-07-26,37.8503
2007-07-27,38.2157
2007-07-30,40.9124
2007-07-31,41.4257
2007-08-01,41.4692
2007-08-02,41.9302
2007-08-03,40.1469
2007-08-06,41.4953
2007-08-07,42.3739
2007-08-08,44.4704
2007-08-09,44.2703
2007-08-10,42.3478
2007-08-13,42.2695
2007-08-14,40.8863
2007-08-15,40.1295
2007-08-16,40.1904
2007-08-17,40.8602
2007-08-20,39.6336
2007-08-21,39.6249
2007-08-22,41.0168
2007-08-23,40.9559
2007-08-24,42.4957
2007-08-27,41.7215
2007-08-28,40.808
2007-08-29,42.0164
2007-08-30,41.4493
2007-08-31,42.0774
2007-09-04,40.9433
2007-09-05,41.1875
2007-09-06,41.964
2007-09-07,40.9956
2007-09-10,40.5943
2007-09-11,41.3097
2007-09-12,40.9084
2007-09-13,42.3304
2007-09-14,43.0982
2007-09-17,42.4962
2007-09-18,44.7994
2007-09-19,45.288
2007-09-20,44.2498
2007-09-21,44.3806
2007-09-24,44.18
2007-09-25,42.1996
2007-09-26,42.0949
2007-09-27,41.2312
2007-09-28,40.8298
2007-10-01,41.2224
2007-10-02,42.5398
2007-10-03,43.1331
2007-10-04,42.5224
2007-10-05,43.5867
2007-10-08,42.976
2007-10-09,42.7143
2007-10-10,42.4962
2007-10-11,39.1461
2007-10-12,38.1515
2007-10-15,36.7207
2007-10-16,35.9181
2007-10-17,35.5953
2007-10-18,34.8973
2007-10-19,33.641
2007-10-22,34.1557
2007-10-23,33.5887
2007-10-24,33.2659
2007-10-25,33.3706
2007-10-26,33.8766
2007-10-29,34.0685
2007-10-30,34.6181
2007-10-31,34.3739
2007-11-01,32.978
2007-11-02,31.8438
2007-11-05,30.0989
2007-11-06,29.1131
2007-11-07,29.4621
2007-11-08,28.5286
2007-11-09,28.293
2007-11-12,28.8077
2007-11-13,30.1077
2007-11-14,30.2036
2007-11-15,29.209
2007-11-16,28.3715
2007-11-19,26.679
2007-11-20,29.7238
2007-11-21,30.5177
2007-11-23,31.1633
2007-11-26,30.5177
2007-11-27,29.9157
2007-11-28,30.7345
2007-11-29,29.4995
2007-11-30,29.3506
2007-12-03,29.8411
2007-12-04,31.9957
2007-12-05,32.1797
2007-12-06,33.7037
2007-12-07,33.7738
2007-12-10,33.73
2007-12-11,32.5563
2007-12-12,32.8366
2007-12-13,31.8381
2007-12-14,30.3141
2007-12-17,30.7345
2007-12-18,30.8571
2007-12-19,30.9184
2007-12-20,30.7345
2007-12-21,31.8381
2007-12-24,33.1519
2007-12-26,32.0308
2007-12-27,31.5928
2007-12-28,32.3286
2007-12-31,32.1622
2008-01-02,31.0673
2008-01-03,29.4557
2008-01-04,27.6164
2008-01-07,29.0002
2008-01-08,27.6164
2008-01-09,28.3521
2008-01-10,29.0265
2008-01-11,27.5901
2008-01-14,27.8791
2008-01-15,26.4514
2008-01-16,26.2675
2008-01-17,25.3741
2008-01-18,26.1887
2008-01-22,28.5535
2008-01-23,31.768
2008-01-24,30.9885
2008-01-25,30.6469
2008-01-28,32.3461
2008-01-29,33.4409
2008-01-30,32.1884
2008-01-31,34.019
2008-02-01,34.6847
2008-02-04,34.6234
2008-02-05,32.3373
2008-02-06,31.7505
2008-02-07,32.968
2008-02-08,32.4512
2008-02-11,33.2833
2008-02-12,33.1344
2008-02-13,33.3008
2008-02-14,31.6279
2008-02-15,31.7417
2008-02-19,30.4717
2008-02-20,31.5053
2008-02-21,30.8834
2008-02-22,31.549
2008-02-25,32.3111
2008-02-26,33.7825
2008-02-27,33.9236
2008-02-28,33.4311
2008-02-29,32.4988
2008-03-03,32.7451
2008-03-04,33.4663
2008-03-05,32.8682
2008-03-06,30.7837
2008-03-07,28.8136
2008-03-10,28.8399
2008-03-11,29.913
2008-03-12,29.6403
2008-03-13,29.4732
2008-03-14,29.139
2008-03-17,28.5497
2008-03-18,29.4996
2008-03-19,29.5612
2008-03-20,30.9508
2008-03-24,32.9825
2008-03-25,32.5428
2008-03-26,30.3176
2008-03-27,30.4055
2008-03-28,28.6376
2008-03-31,28.664
2008-04-01,30.0977
2008-04-02,30.5111
2008-04-03,30.1329
2008-04-04,29.8954
2008-04-07,29.7283
2008-04-08,29.9218
2008-04-09,29.2357
2008-04-10,30.2472
2008-04-11,29.7722
2008-04-14,29.913
2008-04-15,30.2824
2008-04-16,29.9042
2008-04-17,30.256
2008-04-18,31.8831
2008-04-21,31.8567
2008-04-22,30.4671
2008-04-23,30.1417
2008-04-24,31.329
2008-04-25,32.2525
2008-04-28,32.5252
2008-04-29,33.5103
2008-04-30,30.986
2008-05-01,31.2499
2008-05-02,32.147
2008-05-05,30.9508
2008-05-06,31.7336
2008-05-07,31.1531
2008-05-08,30.4143
2008-05-09,30.2296
2008-05-12,31.4082
2008-05-13,31.1707
2008-05-14,31.8304
2008-05-15,32.7715
2008-05-16,33.8181
2008-05-19,33.0177
2008-05-20,32.5252
2008-05-21,31.03
2008-05-22,30.4759
2008-05-23,29.1126
2008-05-27,29.394
2008-05-28,30.269
2008-05-29,31.6123
2008-05-30,30.8788
2008-06-02,30.7462
2008-06-03,30.7639
2008-06-04,31.1969
2008-06-05,31.6565
2008-06-06,30.0215
2008-06-09,29.6238
2008-06-10,29.889
2008-06-11,29.0317
2008-06-12,29.4117
2008-06-13,30.7197
2008-06-16,30.7727
2008-06-17,30.9672
2008-06-18,30.0569
2008-06-19,30.9053
2008-06-20,29.9155
2008-06-23,29.288
2008-06-24,28.9875
2008-06-25,29.2703
2008-06-26,27.9712
2008-06-27,27.4586
2008-06-30,26.7781
2008-07-01,27.1405
2008-07-02,26.9637
2008-07-03,27.273
2008-07-07,27.7591
2008-07-08,28.7401
2008-07-09,27.5912
2008-07-10,25.1785
2008-07-11,24.224
2008-07-14,24.1533
2008-07-15,23.6407
2008-07-16,25.2315
2008-07-17,26.3804
2008-07-18,26.513
2008-07-21,25.4083
2008-07-22,25.8325
2008-07-23,27.0521
2008-07-24,25.7971
2008-07-25,25.5762
2008-07-28,24.9134
2008-07-29,25.6557
2008-07-30,25.7618
2008-07-31,25.3464
2008-08-01,25.4967
2008-08-04,24.9752
2008-08-05,25.806
2008-08-06,25.585
2008-08-07,24.7455
2008-08-08,26.0976
2008-08-11,28.1656
2008-08-12,27.3172
2008-08-13,26.3097
2008-08-14,26.7516
2008-08-15,27.8298
2008-08-18,27.4233
2008-08-19,26.133
2008-08-20,25.5408
2008-08-21,25.6911
2008-08-22,26.4158
2008-08-25,25.6734
2008-08-26,26.0269
2008-08-27,26.1604
2008-08-28,27.2267
2008-08-29,27.6355
2008-09-02,28.0531
2008-09-03,29.5993
2008-09-04,28.4352
2008-09-05,28.9773
2008-09-08,30.6745
2008-09-09,30.4168
2008-09-10,30.9766
2008-09-11,31.572
2008-09-12,30.2746
2008-09-15,28.8528
2008-09-16,29.3505
2008-09-17,27.7865
2008-09-18,29.7148
2008-09-19,30.0969
2008-09-22,28.9328
2008-09-23,28.1597
2008-09-24,26.4892
2008-09-25,26.2137
2008-09-26,25.9738
2008-09-29,24.6675
2008-09-30,25.6095
2008-10-01,24.3654
2008-10-02,22.6504
2008-10-03,21.0332
2008-10-06,21.6108
2008-10-07,19.4603
2008-10-08,19.1049
2008-10-09,16.99
2008-10-10,16.2436
2008-10-13,16.9811
2008-10-14,16.7945
2008-10-15,14.733
2008-10-16,14.7952
2008-10-17,14.8929
2008-10-20,15.6394
2008-10-21,16.0126
2008-10-22,15.8171
2008-10-23,15.0707
2008-10-24,13.6311
2008-10-27,13.0358
2008-10-28,13.4267
2008-10-29,13.8088
2008-10-30,14.2087
2008-10-31,16.057
2008-11-03,14.5375
2008-11-04,15.044
2008-11-05,14.262
2008-11-06,13.4889
2008-11-07,13.7555
2008-11-10,12.4582
2008-11-11,11.8273
2008-11-12,11.2141
2008-11-13,11.4985
2008-11-14,10.4411
2008-11-17,9.62354
2008-11-18,9.19701
2008-11-19,8.00629
2008-11-20,7.47313
2008-11-21,6.84222
2008-11-24,8.61942
2008-11-25,9.007
2008-11-26,10.5338
2008-11-28,10.2718
2008-12-01,9.76586
2008-12-02,9.93751
2008-12-03,9.83813
2008-12-04,10.868
2008-12-05,11.5636
2008-12-08,12.0334
2008-12-09,11.2836
2008-12-10,11.6992
2008-12-11,11.4101
2008-12-12,11.383
2008-12-15,10.9584
2008-12-16,11.8798
2008-12-17,12.6206
2008-12-18,12.0967
2008-12-19,11.5456
2008-12-22,10.7596
2008-12-23,10.4705
2008-12-24,10.7777
2008-12-26,10.7325
2008-12-29,10.3531
2008-12-30,11.0939
2008-12-31,12.0967
2009-01-02,13.1627
2009-01-05,13.7589
2009-01-06,14.4004
2009-01-07,13.4156
2009-01-08,13.1085
2009-01-09,12.5664
2009-01-12,12.0876
2009-01-13,11.7985
2009-01-14,10.8409
2009-01-15,11.5185
2009-01-16,11.7263
2009-01-20,10.859
2009-01-21,11.7624
2009-01-22,11.7985
2009-01-23,12.0334
2009-01-26,12.0605
2009-01-27,12.0876
2009-01-28,12.7832
2009-01-29,12.2412
2009-01-30,11.4823
2009-02-02,11.3107
2009-02-03,11.9069
2009-02-04,11.2926
2009-02-05,11.8166
2009-02-06,12.7832
2009-02-09,12.5213
2009-02-10,11.934
2009-02-11,12.0334
2009-02-12,12.44
2009-02-13,11.934
2009-02-17,11.3107
2009-02-18,10.8409
2009-02-19,10.6964
2009-02-20,10.7235
2009-02-23,10.2537
2009-02-24,12.3135
2009-02-25,12.0843
2009-02-26,11.8649
2009-02-27,12.3585
2009-03-02,11.7644
2009-03-03,11.8466
2009-03-04,12.4134
2009-03-05,11.1794
2009-03-06,11.1245
2009-03-09,11.289
2009-03-10,12.6602
2009-03-11,13.1995
2009-03-12,13.9308
2009-03-13,14.1776
2009-03-16,13.7571
2009-03-17,14.3238
2009-03-18,14.2598
2009-03-19,13.9491
2009-03-20,13.1355
2009-03-23,14.4518
2009-03-24,15.1191
2009-03-25,14.9089
2009-03-26,16.2069
2009-03-27,16.2434
2009-03-30,15.3568
2009-03-31,15.3019
2009-04-01,15.6584
2009-04-02,16.7645
2009-04-03,17.77
2009-04-06,17.1667
2009-04-07,15.4939
2009-04-08,17.0661
2009-04-09,20.0003
2009-04-13,20.3386
2009-04-14,19.2325
2009-04-15,18.2727
2009-04-16,19.3879
2009-04-17,20.2929
2009-04-20,18.9857
2009-04-21,19.3513
2009-04-22,19.5616
2009-04-23,19.3331
2009-04-24,20.494
2009-04-27,19.8907
2009-04-28,19.7444
2009-04-29,19.7901
2009-04-30,20.7133
2009-05-01,20.5854
2009-05-04,21.9108
2009-05-05,21.8103
2009-05-06,21.7006
2009-05-07,21.2801
2009-05-08,21.0241
2009-05-11,20.4483
2009-05-12,20.1192
2009-05-13,18.5652
2009-05-14,19.1777
2009-05-15,20.6494
2009-05-18,20.9601
2009-05-19,20.951
2009-05-20,20.2929
2009-05-21,19.1045
2009-05-22,18.9857
2009-05-26,19.4976
2009-05-27,19.2211
2009-05-28,17.9685
2009-05-29,18.0883
2009-06-01,20.6947
2009-06-02,21.2197
2009-06-03,21.017
2009-06-04,19.5342
2009-06-05,19.4053
2009-06-08,19.4513
2009-06-09,19.6724
2009-06-10,19.0922
2009-06-11,18.8895
2009-06-12,19.0922
2009-06-15,18.7698
2009-06-16,17.4988
2009-06-17,17.5817
2009-06-18,17.4896
2009-06-19,17.683
2009-06-22,17.416
2009-06-23,16.8541
2009-06-24,17.5909
2009-06-25,18.0791
2009-06-26,18.0054
2009-06-29,18.1067
2009-06-30,18.3001
2009-07-01,18.4843
2009-07-02,17.2318
2009-07-06,17.683
2009-07-07,16.8449
2009-07-08,17.462
2009-07-09,18.1067
2009-07-10,17.9778
2009-07-13,18.429
2009-07-14,18.4751
2009-07-15,19.9211
2009-07-16,20.0684
2009-07-17,20.2618
2009-07-20,21.6065
2009-07-21,21.4499
2009-07-22,22.3801
2009-07-23,23.78
2009-07-24,24.5629
2009-07-27,24.1024
2009-07-28,23.7708
2009-07-29,23.255
2009-07-30,23.4761
2009-07-31,24.3602
2009-08-03,25.2904
2009-08-04,24.9589
2009-08-05,25.7141
2009-08-06,25.8338
2009-08-07,27.9613
2009-08-10,27.0127
2009-08-11,27.0587
2009-08-12,27.0772
2009-08-13,27.51
2009-08-14,25.622
2009-08-17,24.8391
2009-08-18,24.7839
2009-08-19,25.4931
2009-08-20,25.6404
2009-08-21,25.9167
2009-08-24,25.9075
2009-08-25,26.7917
2009-08-26,26.4693
2009-08-27,26.3394
2009-08-28,26.4968
2009-08-31,25.9689
2009-09-01,25.5151
2009-09-02,25.1632
2009-09-03,27.4137
2009-09-04,27.1081
2009-09-08,26.9969
2009-09-09,27.5248
2009-09-10,27.6823
2009-09-11,27.1266
2009-09-14,27.5063
2009-09-15,28.2102
2009-09-16,29.0715
2009-09-17,29.2845
2009-09-18,29.5623
2009-09-21,29.2104
2009-09-22,29.8587
2009-09-23,28.9048
2009-09-24,28.3861
2009-09-25,28.0064
2009-09-28,28.3213
2009-09-29,28.4973
2009-09-30,28.2657
2009-10-01,27.1822
2009-10-02,26.7747
2009-10-05,29.3308
2009-10-06,29.7476
2009-10-07,29.8772
2009-10-08,31.0627
2009-10-09,30.7848
2009-10-12,31.1275
2009-10-13,31.4517
2009-10-14,32.1833
2009-10-15,31.7943
2009-10-16,31.8314
2009-10-19,33.2021
2009-10-20,32.5908
2009-10-21,31.3127
2009-10-22,31.7758
2009-10-23,31.1553
2009-10-26,30.9701
2009-10-27,29.5531
2009-10-28,28.4232
2009-10-29,29.8124
2009-10-30,29.4697
2009-11-02,29.9143
2009-11-03,30.2014
2009-11-04,30.1088
2009-11-05,31.3405
2009-11-06,31.3776
2009-11-09,32.5908
2009-11-10,32.8501
2009-11-11,32.313
2009-11-12,31.9518
2009-11-13,31.4887
2009-11-16,32.4426
2009-11-17,32.2389
2009-11-18,32.313
2009-11-19,31.6832
2009-11-20,31.4053
2009-11-23,31.4887
2009-11-24,31.285
2009-11-25,32.3827
2009-11-27,31.7872
2009-11-30,31.1265
2009-12-01,31.9547
2009-12-02,32.3176
2009-12-03,32.5037
2009-12-04,32.7735
2009-12-07,32.8294
2009-12-08,32.6619
2009-12-09,32.2804
2009-12-10,33.0062
2009-12-11,33.5087
2009-12-14,34.2345
2009-12-15,33.4063
2009-12-16,33.5645
2009-12-17,32.7363
2009-12-18,33.1737
2009-12-21,34.2345
2009-12-22,34.1321
2009-12-23,34.8766
2009-12-24,34.7742
2009-12-28,35.1185
2009-12-29,35.7792
2009-12-30,35.5652
2009-12-31,34.9882
2010-01-04,35.2116
2010-01-05,34.7463
2010-01-06,34.8207
2010-01-07,36.1886
2010-01-08,35.1557
2010-01-11,35.6582
2010-01-12,34.2438
2010-01-13,34.6905
2010-01-14,34.1321
2010-01-15,33.4994
2010-01-19,33.611
2010-01-20,33.1737
2010-01-21,32.3269
2010-01-22,31.7313
2010-01-25,31.9733
2010-01-26,32.5781
2010-01-27,32.3083
2010-01-28,32.392
2010-01-29,32.1873
2010-02-01,32.7456
2010-02-02,33.8437
2010-02-03,33.611
2010-02-04,32.6247
2010-02-05,31.5638
2010-02-08,31.6662
2010-02-09,31.6755
2010-02-10,31.2568
2010-02-11,31.4243
2010-02-12,31.7779
2010-02-16,32.6247
2010-02-17,32.634
2010-02-18,32.5781
2010-02-19,33.2202
2010-02-22,33.5831
2010-02-23,33.732
2010-02-24,34.2183
2010-02-25,34.4519
2010-02-26,34.508
2010-03-01,35.1343
2010-03-02,35.2184
2010-03-03,35.3118
2010-03-04,35.7885
2010-03-05,36.4521
2010-03-08,36.7606
2010-03-09,36.5923
2010-03-10,36.5923
2010-03-11,36.4054
2010-03-12,37.1905
2010-03-15,37.3681
2010-03-16,37.1251
2010-03-17,37.3027
2010-03-18,37.6579
2010-03-19,37.8074
2010-03-22,38.6019
2010-03-23,38.7701
2010-03-24,38.2374
2010-03-25,38.5178
2010-03-26,39.0225
2010-03-29,39.0505
2010-03-30,38.6112
2010-03-31,38.1813
2010-04-01,38.7982
2010-04-05,39.9665
2010-04-06,40.546
2010-04-07,39.3309
2010-04-08,38.7327
2010-04-09,39.7609
2010-04-12,39.2748
2010-04-13,39.1066
2010-04-14,40.1815
2010-04-15,40.6395
2010-04-16,40.1441
2010-04-19,39.4431
2010-04-20,40.0413
2010-04-21,40.9105
2010-04-22,42.4247
2010-04-23,42.864
2010-04-26,41.705
2010-04-27,40.0226
2010-04-28,39.6394
2010-04-29,40.0506
2010-04-30,38.7047
2010-05-03,40.7984
2010-05-04,38.9757
2010-05-05,38.8075
2010-05-06,38.0037
2010-05-07,37.5177
2010-05-10,40.3778
2010-05-11,39.2748
2010-05-12,40.2562
2010-05-13,38.5645
2010-05-14,37.1438
2010-05-17,36.6484
2010-05-18,35.6016
2010-05-19,35.9474
2010-05-20,34.8538
2010-05-21,35.6016
2010-05-24,35.1156
2010-05-25,35.8166
2010-05-26,35.4407
2010-05-27,37.4702
2010-05-28,37.3856
2010-06-01,36.9252
2010-06-02,37.7802
2010-06-03,36.1736
2010-06-04,34.2192
2010-06-07,33.6555
2010-06-08,33.881
2010-06-09,34.1441
2010-06-10,35.4501
2010-06-11,35.6004
2010-06-14,36.4742
2010-06-15,37.8366
2010-06-16,37.5641
2010-06-17,36.7185
2010-06-18,36.3145
2010-06-21,35.4031
2010-06-22,34.6233
2010-06-23,34.5481
2010-06-24,33.2045
2010-06-25,33.4112
2010-06-28,32.8193
2010-06-29,30.5549
2010-06-30,30.2355
2010-07-01,30.8086
2010-07-02,30.273
2010-07-06,29.9724
2010-07-07,31.6824
2010-07-08,31.6448
2010-07-09,32.4716
2010-07-12,32.0958
2010-07-13,32.5562
2010-07-14,32.2461
2010-07-15,32.1334
2010-07-16,30.273
2010-07-19,29.6341
2010-07-20,30.9495
2010-07-21,30.1227
2010-07-22,31.5133
2010-07-23,31.9737
2010-07-26,32.7911
2010-07-27,32.3777
2010-07-28,31.5696
2010-07-29,31.4663
2010-07-30,31.9549
2010-08-02,33.336
2010-08-03,31.9455
2010-08-04,32.6502
2010-08-05,32.0582
2010-08-06,31.8985
2010-08-09,33.026
2010-08-10,32.3025
2010-08-11,31.5039
2010-08-12,31.4381
2010-08-13,29.1831
2010-08-16,28.2624
2010-08-17,29.0892
2010-08-18,29.8126
2010-08-19,29.3053
2010-08-20,29.869
2010-08-23,29.2959
2010-08-24,28.5254
2010-08-25,29.2395
2010-08-26,28.3845
2010-08-27,28.6495
2010-08-30,27.1929
2010-08-31,27.3347
2010-09-01,28.7157
2010-09-02,30.9951
2010-09-03,31.6667
2010-09-07,30.8343
2010-09-08,31.2127
2010-09-09,31.2221
2010-09-10,31.4302
2010-09-13,32.4707
2010-09-14,33.407
2010-09-15,34.0975
2010-09-16,34.1732
2010-09-17,34.1353
2010-09-20,34.4002
2010-09-21,34.0029
2010-09-22,33.653
2010-09-23,33.3597
2010-09-24,34.4758
2010-09-27,34.9015
2010-09-28,36.254
2010-09-29,35.5635
2010-09-30,35.223
2010-10-01,35.0528
2010-10-04,35.1474
2010-10-05,35.7243
2010-10-06,35.4784
2010-10-07,36.3297
2010-10-08,36.9634
2010-10-11,36.9634
2010-10-12,36.9066
2010-10-13,36.2918
2010-10-14,36.1216
2010-10-15,36.708
2010-10-18,36.7458
2010-10-19,35.2703
2010-10-20,34.9771
2010-10-21,34.1353
2010-10-22,34.8636
2010-10-25,35.4595
2010-10-26,36.0081
2010-10-27,36.1973
2010-10-28,36.6134
2010-10-29,36.481
2010-11-01,36.5283
2010-11-02,37.1053
2010-11-03,37.162
2010-11-04,39.6874
2010-11-05,40.1887
2010-11-08,40.4062
2010-11-09,39.5834
2010-11-10,40.0941
2010-11-11,40.0563
2010-11-12,39.1577
2010-11-15,39.5361
2010-11-16,38.3443
2010-11-17,39.1388
2010-11-18,39.6496
2010-11-19,39.8955
2010-11-22,40.3779
2010-11-23,40.5197
2010-11-24,41.5223
2010-11-26,41.3323
2010-11-29,40.4391
2010-11-30,40.6957
2010-12-01,41.2467
2010-12-02,40.0495
2010-12-03,39.7455
2010-12-06,40.4961
2010-12-07,40.1826
2010-12-08,39.812
2010-12-09,39.9165
2010-12-10,40.097
2010-12-13,39.565
2010-12-14,39.6695
2010-12-15,39.565
2010-12-16,40.2016
2010-12-17,40.2016
2010-12-20,40.6101
2010-12-21,41.0187
2010-12-22,40.7147
2010-12-23,40.6196
2010-12-27,40.0115
2010-12-28,40.0305
2010-12-29,40.0875
2010-12-30,40.3536
2010-12-31,40.2681
2011-01-03,41.2277
2011-01-04,40.4391
2011-01-05,40.7337
2011-01-06,40.8477
2011-01-07,40.2491
2011-01-10,40.04
2011-01-11,39.5364
2011-01-12,39.6125
2011-01-13,39.5174
2011-01-14,39.9735
2011-01-18,40.1256
2011-01-19,38.8523
2011-01-20,39.1659
2011-01-21,39.3179
2011-01-24,40.0685
2011-01-25,39.4604
2011-01-26,39.4509
2011-01-27,39.8975
2011-01-28,38.8808
2011-01-31,39.1279
2011-02-01,38.9093
2011-02-02,38.1017
2011-02-03,39.964
2011-02-04,41.5413
2011-02-07,42.3679
2011-02-08,42.691
2011-02-09,42.729
2011-02-10,43.2326
2011-02-11,43.8407
2011-02-14,43.4226
2011-02-15,43.5652
2011-02-16,44.3823
2011-02-17,44.1068
2011-02-18,44.5723
2011-02-22,43.3371
2011-02-23,42.3774
2011-02-24,42.7575
2011-02-25,43.2611
2011-02-28,43.0046
2011-03-01,41.9974
2011-03-02,42.1978
2011-03-03,42.6181
2011-03-04,42.0832
2011-03-07,41.2809
2011-03-08,41.7871
2011-03-09,42.3411
2011-03-10,42.3698
2011-03-11,42.5035
2011-03-14,41.0326
2011-03-15,40.9084
2011-03-16,39.619
2011-03-17,39.8291
2011-03-18,39.4375
2011-03-21,40.4022
2011-03-22,40.7365
2011-03-23,40.3162
2011-03-24,41.6439
2011-03-25,41.6534
2011-03-28,41.0039
2011-03-29,42.0259
2011-03-30,42.9046
2011-03-31,42.8855
2011-04-01,43.0288
2011-04-04,43.0861
2011-04-05,43.6114
2011-04-06,43.8789
2011-04-07,44.5284
2011-04-08,44.0604
2011-04-11,43.8693
2011-04-12,43.8025
2011-04-13,43.8884
2011-04-14,43.9839
2011-04-15,44.089
2011-04-18,43.3345
2011-04-19,43.7547
2011-04-20,44.9104
2011-04-21,45.1779
2011-04-25,45.3116
2011-04-26,46.3527
2011-04-27,45.9706
2011-04-28,45.7509
2011-04-29,45.3975
2011-05-02,45.5886
2011-05-03,45.9706
2011-05-04,45.8369
2011-05-05,45.3498
2011-05-06,45.2734
2011-05-09,45.1779
2011-05-10,46.0852
2011-05-11,46.5246
2011-05-12,46.964
2011-05-13,45.4931
2011-05-16,44.1559
2011-05-17,43.7738
2011-05-18,44.1081
2011-05-19,44.3564
2011-05-20,43.5828
2011-05-23,43.5541
2011-05-24,43.4682
2011-05-25,43.5541
2011-05-26,44.2645
2011-05-27,44.5429
2011-05-31,44.9461
2011-06-01,43.2853
2011-06-02,42.6902
2011-06-03,41.7878
2011-06-06,41.183
2011-06-07,40.8566
2011-06-08,40.5014
2011-06-09,40.9334
2011-06-10,40.4342
2011-06-13,40.8854
2011-06-14,42.431
2011-06-15,41.7686
2011-06-16,41.6438
2011-06-17,42.0374
2011-06-20,43.1222
2011-06-21,44.2549
2011-06-22,43.4869
2011-06-23,44.0053
2011-06-24,43.1222
2011-06-27,43.6981
2011-06-28,44.4181
2011-06-29,44.1781
2011-06-30,45.1093
2011-07-01,46.2997
2011-07-05,46.4821
2011-07-06,46.5013
2011-07-07,48.4884
2011-07-08,48.2388
2011-07-11,47.778
2011-07-12,47.4036
2011-07-13,47.6244
2011-07-14,47.9604
2011-07-15,48.4116
2011-07-18,47.9796
2011-07-19,49.6884
2011-07-20,49.1316
2011-07-21,49.3332
2011-07-22,49.41
2011-07-25,49.0068
2011-07-26,48.8436
2011-07-27,47.2789
2011-07-28,48.1524
2011-07-29,48.258
2011-08-01,47.97
2011-08-02,45.2053
2011-08-03,45.8197
2011-08-04,41.5094
2011-08-05,42.6038
2011-08-08,38.2647
2011-08-09,39.8774
2011-08-10,38.4855
2011-08-11,40.7606
2011-08-12,42.527
2011-08-15,42.8534
2011-08-16,41.2406
2011-08-17,39.7238
2011-08-18,36.7863
2011-08-19,35.9031
2011-08-22,36.2391
2011-08-23,38.3223
2011-08-24,39.407
2011-08-25,38.3223
2011-08-26,40.3286
2011-08-29,42.9398
2011-08-30,43.7845
2011-08-31,43.5733
2011-09-01,43.1291
2011-09-02,41.7397
2011-09-06,42.2994
2011-09-07,44.2773
2011-09-08,43.5923
2011-09-09,42.5406
2011-09-12,43.8914
2011-09-13,44.0361
2011-09-14,44.3063
2011-09-15,45.329
2011-09-16,46.1492
2011-09-19,46.3132
2011-09-20,45.8983
2011-09-21,44.6247
2011-09-22,43.2642
2011-09-23,43.8914
2011-09-26,46.4097
2011-09-27,45.6764
2011-09-28,45.3483
2011-09-29,44.9624
2011-09-30,44.094
2011-10-03,43.8238
2011-10-04,46.8149
2011-10-05,46.4676
2011-10-06,46.3614
2011-10-07,46.9596
2011-10-10,48.8411
2011-10-11,47.4807
2011-10-12,48.4648
2011-10-13,47.7605
2011-10-14,48.9472
2011-10-17,48.1464
2011-10-18,50.0665
2011-10-19,49.4876
2011-10-20,48.7832
2011-10-21,49.777
2011-10-24,50.877
2011-10-25,48.7832
2011-10-26,48.6481
2011-10-27,50.2402
2011-10-28,49.3911
2011-10-31,48.9183
2011-11-01,48.3973
2011-11-02,48.7832
2011-11-03,49.2753
2011-11-04,48.5516
2011-11-07,48.8508
2011-11-08,49.449
2011-11-09,47.2298
2011-11-10,47.9052
2011-11-11,47.7412
2011-11-14,47.3745
2011-11-15,47.5964
2011-11-16,46.4
2011-11-17,45.2518
2011-11-18,45.2904
2011-11-21,44.7405
2011-11-22,44.1037
2011-11-23,43.216
2011-11-25,42.9362
2011-11-28,43.7907
2011-11-29,43.3349
2011-11-30,43.8974
2011-12-01,45.6917
2011-12-02,45.8178
2011-12-05,46.5549
2011-12-06,45.9342
2011-12-07,45.6917
2011-12-08,45.9439
2011-12-09,46.7974
2011-12-12,46.9817
2011-12-13,45.5753
2011-12-14,45.7693
2011-12-15,45.876
2011-12-16,45.6141
2011-12-19,45.4687
2011-12-20,47.36
2011-12-21,48.0486
2011-12-22,47.6703
2011-12-23,48.3298
2011-12-27,48.5335
2011-12-28,48.3977
2011-12-29,48.5141
2011-12-30,48.2232
2012-01-03,48.2329
2012-01-04,48.6305
2012-01-05,49.0864
2012-01-06,48.2038
2012-01-09,48.1747
2012-01-10,47.8546
2012-01-11,47.4957
2012-01-12,47.3987
2012-01-13,47.0011
2012-01-17,47.5636
2012-01-18,48.1456
2012-01-19,48.8536
2012-01-20,48.5044
2012-01-23,47.8934
2012-01-24,48.0971
2012-01-25,47.3018
2012-01-26,46.9914
2012-01-27,47.1466
2012-01-30,48.0583
2012-01-31,47.9128
2012-02-01,48.0195
2012-02-02,47.68
2012-02-03,48.776
2012-02-06,48.3105
2012-02-07,49.0767
2012-02-08,49.4549
2012-02-09,49.6295
2012-02-10,49.2221
2012-02-13,48.9797
2012-02-14,49.1543
2012-02-15,49.4258
2012-02-16,50.5606
2012-02-17,49.6295
2012-02-21,51.2395
2012-02-22,51.0553
2012-02-23,51.6663
2012-02-24,51.5693
2012-02-27,52.2967
2012-02-28,52.4236
2012-02-29,52.2676
2012-03-01,52.3943
2012-03-02,52.2091
2012-03-05,52.0824
2012-03-06,51.0784
2012-03-07,51.8679
2012-03-08,52.3261
2012-03-09,52.6965
2012-03-12,52.3456
2012-03-13,53.4763
2012-03-14,53.2521
2012-03-15,53.642
2012-03-16,53.4763
2012-03-19,53.0182
2012-03-20,53.3691
2012-03-21,53.8662
2012-03-22,53.6031
2012-03-23,53.1741
2012-03-26,53.876
2012-03-27,53.9637
2012-03-28,53.2911
2012-03-29,53.9052
2012-03-30,54.3244
2012-04-02,54.7046
2012-04-03,53.9442
2012-04-04,54.1587
2012-04-05,54.763
2012-04-09,54.3926
2012-04-10,52.2384
2012-04-11,53.2131
2012-04-12,53.6713
2012-04-13,53.6615
2012-04-16,54.1684
2012-04-17,54.5778
2012-04-18,54.3536
2012-04-19,54.1392
2012-04-20,53.7103
2012-04-23,53.2619
2012-04-24,52.5893
2012-04-25,53.798
2012-04-26,54.1782
2012-04-27,54.6656
2012-04-30,54.4316
2012-05-01,54.3926
2012-05-02,55.7281
2012-05-03,55.4941
2012-05-04,54.5291
2012-05-07,53.8467
2012-05-08,52.638
2012-05-09,52.5698
2012-05-10,52.0629
2012-05-11,49.7039
2012-05-14,48.9241
2012-05-15,49.392
2012-05-16,48.8461
2012-05-17,47.3645
2012-05-18,47.6374
2012-05-21,48.31
2012-05-22,48.3587
2012-05-23,48.9339
2012-05-24,49.1386
2012-05-25,49.4408
2012-05-29,50.0482
2012-05-30,49.3034
2012-05-31,46.4517
2012-06-01,45.9029
2012-06-04,46.5301
2012-06-05,46.1675
2012-06-06,46.8437
2012-06-07,46.7359
2012-06-08,47.7551
2012-06-11,46.7849
2012-06-12,47.8922
2012-06-13,46.4125
2012-06-14,47.1769
2012-06-15,48.1764
2012-06-18,47.9902
2012-06-19,50.0384
2012-06-20,49.813
2012-06-21,47.7551
2012-06-22,47.9314
2012-06-25,46.9809
2012-06-26,47.7158
2012-06-27,46.8437
2012-06-28,47.2553
2012-06-29,48.6076
2012-07-02,49.4896
2012-07-03,49.2152
2012-07-05,50.5284
2012-07-06,50.8714
2012-07-09,50.6852
2012-07-10,50.7636
2012-07-11,49.7052
2012-07-12,49.3524
2012-07-13,50.8518
2012-07-16,50.7832
2012-07-17,51.4104
2012-07-18,51.8318
2012-07-19,52.2238
2012-07-20,51.3614
2012-07-23,51.0674
2012-07-24,50.7244
2012-07-25,51.3516
2012-07-26,52.263
2012-07-27,53.243
2012-07-30,53.4194
2012-07-31,53.1058
2012-08-01,52.0082
2012-08-02,52.1748
2012-08-03,53.2822
2012-08-06,53.3508
2012-08-07,54.1348
2012-08-08,54.3112
2012-08-09,53.978
2012-08-10,54.9874
2012-08-13,54.8992
2012-08-14,55.2912
2012-08-15,55.3892
2012-08-16,55.4186
2012-08-17,56.0752
2012-08-20,55.4676
2012-08-21,55.4186
2012-08-22,56.5456
2012-08-23,55.9478
2012-08-24,56.7416
2012-08-27,56.4868
2012-08-28,56.3104
2012-08-29,56.8396
2012-08-30,56.7312
2012-08-31,56.997
2012-09-04,56.8001
2012-09-05,56.1995
2012-09-06,57.0265
2012-09-07,56.6622
2012-09-10,56.9773
2012-09-11,56.9281
2012-09-12,57.0561
2012-09-13,56.741
2012-09-14,56.5933
2012-09-17,56.5244
2012-09-18,55.4512
2012-09-19,55.9927
2012-09-20,55.6875
2012-09-21,55.1755
2012-09-24,54.3288
2012-09-25,54.1122
2012-09-26,54.0433
2012-09-27,54.2205
2012-09-28,54.3288
2012-10-01,54.8211
2012-10-02,54.762
2012-10-03,55.0278
2012-10-04,55.1066
2012-10-05,55.2543
2012-10-08,55.6383
2012-10-09,55.1558
2012-10-10,54.4469
2012-10-11,54.5454
2012-10-12,54.1417
2012-10-15,54.8309
2012-10-16,55.7761
2012-10-17,56.7508
2012-10-18,56.2192
2012-10-19,55.5398
2012-10-22,55.0672
2012-10-23,54.634
2012-10-24,54.0925
2012-10-25,54.2205
2012-10-26,54.9097
2012-10-31,55.8943
2012-11-01,56.3472
2012-11-02,55.6777
2012-11-05,56.6918
2012-11-06,57.2628
2012-11-07,56.4752
2012-11-08,54.5257
2012-11-09,53.935
2012-11-12,53.8857
2012-11-13,54.0827
2012-11-14,53.2556
2012-11-15,53.4131
2012-11-16,54.1023
2012-11-19,55.5497
2012-11-20,54.8408
2012-11-21,54.6832
2012-11-23,55.6777
2012-11-26,53.3541
2012-11-27,53.2556
2012-11-28,54.69
2012-11-29,53.7797
2012-11-30,53.5917
2012-12-03,53.186
2012-12-04,52.6912
2012-12-05,52.0876
2012-12-06,52.4043
2012-12-07,52.2064
2012-12-10,51.7215
2012-12-11,51.2564
2012-12-12,51.5335
2012-12-13,51.6127
2012-12-14,51.583
2012-12-17,51.7413
2012-12-18,51.86
2012-12-19,52.2657
2012-12-20,51.5533
2012-12-21,51.9095
2012-12-24,51.8798
2012-12-26,50.9002
2012-12-27,51.2861
2012-12-28,51.672
2012-12-31,52.9089
2013-01-02,52.998
2013-01-03,54.6208
2013-01-04,54.1558
2013-01-07,53.8292
2013-01-08,53.3147
2013-01-09,53.5027
2013-01-10,54.2547
2013-01-11,53.2355
2013-01-14,53.186
2013-01-15,54.8088
2013-01-16,55.3036
2013-01-17,55.1057
2013-01-18,54.8978
2013-01-22,54.7297
2013-01-23,54.7495
2013-01-24,55.0759
2013-01-25,55.452
2013-01-28,54.9869
2013-01-29,55.1155
2013-01-30,54.9671
2013-01-31,54.6999
2013-02-01,54.4971
2013-02-04,53.8786
2013-02-05,54.502
2013-02-06,54.6109
2013-02-07,54.3239
2013-02-08,55.2343
2013-02-11,54.7791
2013-02-12,54.3734
2013-02-13,54.6505
2013-02-14,54.6356
2013-02-15,54.7891
2013-02-19,55.8478
2013-02-20,54.5812
2013-02-21,53.8985
2013-02-22,53.3542
2013-02-25,52.1668
2013-02-26,52.0579
2013-02-27,53.3344
2013-02-28,53.7203
2013-03-01,53.4235
2013-03-04,53.2553
2013-03-05,53.7798
2013-03-06,53.7996
2013-03-07,53.7199
2013-03-08,54.4363
2013-03-11,54.0084
2013-03-12,53.6801
2013-03-13,54.0084
2013-03-14,53.9487
2013-03-15,53.69
2013-03-18,53.2323
2013-03-19,52.1776
2013-03-20,52.8841
2013-03-21,52.6453
2013-03-22,52.9637
2013-03-25,53.6204
2013-03-26,53.9686
2013-03-27,54.2074
2013-03-28,54.9636
2013-04-01,54.1477
2013-04-02,54.695
2013-04-03,54.4661
2013-04-04,55.1925
2013-04-05,55.2024
2013-04-08,54.9935
2013-04-09,54.5457
2013-04-10,55.5009
2013-04-11,56.7049
2013-04-12,56.5258
2013-04-15,54.9636
2013-04-16,55.9288
2013-04-17,55.1825
2013-04-18,54.5258
2013-04-19,54.6154
2013-04-22,54.8542
2013-04-23,54.884
2013-04-24,55.0034
2013-04-25,56.1477
2013-04-26,56.4362
2013-04-29,56.2272
2013-04-30,56.277
2013-05-01,55.8492
2013-05-02,56.6949
2013-05-03,57.9187
2013-05-06,57.8292
2013-05-07,58.267
2013-05-08,58.5854
2013-05-09,58.1575
2013-05-10,58.864
2013-05-13,60.1973
2013-05-14,60.9037
2013-05-15,61.1425
2013-05-16,60.9137
2013-05-17,60.3366
2013-05-20,60.1575
2013-05-21,60.4162
2013-05-22,59.8689
2013-05-23,59.8391
2013-05-24,59.5008
2013-05-28,59.6898
2013-05-29,59.33
2013-05-30,59.13
2013-05-31,58.93
2013-06-03,59.29
2013-06-04,59.39
2013-06-05,58.02
2013-06-06,58.42
2013-06-07,59.56
2013-06-10,59.36
2013-06-11,58.95
2013-06-12,58.27
2013-06-13,59.44
2013-06-14,58.92
2013-06-17,59.09
2013-06-18,59.63
2013-06-19,58.96
2013-06-20,57.83
2013-06-21,58.23
2013-06-24,57.51
2013-06-25,58.73
2013-06-26,59.47
2013-06-27,59.58
2013-06-28,60.02
2013-07-01,61.23
2013-07-02,60.72
2013-07-03,61.03
2013-07-05,61.97
2013-07-08,62.7
2013-07-09,62.66
2013-07-10,62.56
2013-07-11,62.68
2013-07-12,62.26
2013-07-15,62.1
2013-07-16,62.01
2013-07-17,61.64
2013-07-18,61.59
2013-07-19,61.55
2013-07-22,62.07
2013-07-23,61.5
2013-07-24,61.46
2013-07-25,61.41
2013-07-26,61.5
2013-07-29,61.58
2013-07-30,61.28
2013-07-31,61.21
2013-08-01,62.16
2013-08-02,61.97
2013-08-05,62.04
2013-08-06,59.8
2013-08-07,58.87
2013-08-08,59.6
2013-08-09,58.83
