date,close_price
1998-01-02,4.75
1998-01-05,4.69
1998-01-06,4.62
1998-01-07,4.25
1998-01-08,3.91
1998-01-09,3.78
1998-01-12,3.97
1998-01-13,3.87
1998-01-14,3.84
1998-01-15,3.66
1998-01-16,3.75
1998-01-20,3.695
1998-01-21,3.5602
1998-01-22,3.47
1998-01-23,3.41
1998-01-26,3.5
1998-01-27,3.87
1998-01-28,4.0
1998-01-29,3.9951
1998-01-30,3.84
1998-02-02,3.9651
1998-02-03,4.0
1998-02-04,4.0
1998-02-05,4.53
1998-02-06,4.4751
1998-02-09,4.78
1998-02-10,4.91
1998-02-11,4.72
1998-02-12,4.78
1998-02-13,4.69
1998-02-17,4.59
1998-02-18,4.5
1998-02-19,4.595
1998-02-20,4.59
1998-02-23,4.5
1998-02-24,4.565
1998-02-25,4.53
1998-02-26,4.565
1998-02-27,4.62
1998-03-02,4.94
1998-03-03,4.905
1998-03-04,5.19
1998-03-05,4.97
1998-03-06,5.0
1998-03-09,5.0
1998-03-10,5.435
1998-03-11,5.41
1998-03-12,5.41
1998-03-13,5.565
1998-03-16,5.75
1998-03-17,5.84
1998-03-18,5.815
1998-03-19,5.88
1998-03-20,5.78
1998-03-23,5.945
1998-03-24,5.875
1998-03-25,5.835
1998-03-26,5.78
1998-03-27,5.69
1998-03-30,5.69
1998-03-31,5.815
1998-04-01,5.965
1998-04-02,6.03
1998-04-03,6.12
1998-04-06,6.15
1998-04-07,6.19
1998-04-08,6.28
1998-04-09,6.31
1998-04-13,6.34
1998-04-14,6.41
1998-04-15,6.41
1998-04-16,6.345
1998-04-17,6.38
1998-04-20,6.345
1998-04-21,6.47
1998-04-22,6.69
1998-04-23,6.44
1998-04-24,6.25
1998-04-27,5.97
1998-04-28,6.12
1998-04-29,6.315
1998-04-30,6.38
1998-05-01,6.34
1998-05-04,6.25
1998-05-05,6.34
1998-05-06,6.03
1998-05-07,5.815
1998-05-08,5.495
1998-05-11,5.495
1998-05-12,5.47
1998-05-13,5.41
1998-05-14,5.19
1998-05-15,5.03
1998-05-18,4.97
1998-05-19,5.0
1998-05-20,4.94
1998-05-21,4.75
1998-05-22,4.56
1998-05-26,4.65
1998-05-27,4.72
1998-05-28,4.78
1998-05-29,4.8649
1998-06-01,4.6552
1998-06-02,4.53
1998-06-03,4.405
1998-06-04,4.315
1998-06-05,4.8694
1998-06-08,4.815
1998-06-09,4.69
1998-06-10,4.41
1998-06-11,4.47
1998-06-12,4.445
1998-06-15,4.38
1998-06-16,4.41
1998-06-17,4.59
1998-06-18,4.28
1998-06-19,4.155
1998-06-22,4.22
1998-06-23,4.12
1998-06-24,4.19
1998-06-25,4.41
1998-06-26,4.28
1998-06-29,4.62
1998-06-30,5.084
1998-07-01,5.25
1998-07-02,5.315
1998-07-06,5.38
1998-07-07,5.315
1998-07-08,5.185
1998-07-09,4.78
1998-07-10,4.7251
1998-07-13,4.565
1998-07-14,4.53
1998-07-15,4.56
1998-07-16,4.4651
1998-07-17,4.34
1998-07-20,4.22
1998-07-21,4.5
1998-07-22,4.565
1998-07-23,4.44
1998-07-24,4.47
1998-07-27,4.315
1998-07-28,4.2499
1998-07-29,4.34
1998-07-30,4.315
1998-07-31,4.31
1998-08-03,4.335
1998-08-04,4.31
1998-08-05,4.315
1998-08-06,4.22
1998-08-07,4.22
1998-08-10,4.19
1998-08-11,4.09
1998-08-12,4.065
1998-08-13,3.87
1998-08-14,3.66
1998-08-17,3.62
1998-08-18,3.63
1998-08-19,3.5
1998-08-20,3.4651
1998-08-21,3.405
1998-08-24,3.5
1998-08-25,3.5
1998-08-26,3.5
1998-08-27,3.25
1998-08-28,3.2751
1998-08-31,2.8101
1998-09-01,3.75
1998-09-02,3.66
1998-09-03,3.66
1998-09-04,3.75
1998-09-08,3.8729
1998-09-09,3.94
1998-09-10,3.94
1998-09-11,3.87
1998-09-14,3.565
1998-09-15,3.41
1998-09-16,3.38
1998-09-17,3.2451
1998-09-18,3.28
1998-09-21,3.03
1998-09-22,3.125
1998-09-23,2.97
1998-09-24,3.0
1998-09-25,2.97
1998-09-28,2.945
1998-09-29,3.0
1998-09-30,2.8799
1998-10-01,2.78
1998-10-02,2.66
1998-10-05,2.53
1998-10-06,2.37
1998-10-07,2.195
1998-10-08,2.1551
1998-10-09,2.09
1998-10-12,1.9353
1998-10-13,2.0
1998-10-14,1.97
1998-10-15,1.97
1998-10-16,1.84
1998-10-19,1.94
1998-10-20,2.22
1998-10-21,2.3346
1998-10-22,2.69
1998-10-23,2.845
1998-10-26,3.315
1998-10-27,3.22
1998-10-28,3.12
1998-10-29,3.03
1998-10-30,3.0251
1998-11-02,3.0
1998-11-03,2.62
1998-11-04,2.62
1998-11-05,2.625
1998-11-06,2.6499
1998-11-09,2.6548
1998-11-10,2.8699
1998-11-11,2.72
1998-11-12,2.88
1998-11-13,2.78
1998-11-16,2.8499
1998-11-17,2.815
1998-11-18,2.78
1998-11-19,2.84
1998-11-20,2.815
1998-11-23,2.81
1998-11-24,2.78
1998-11-25,2.84
1998-11-27,2.81
1998-11-30,2.7487
1998-12-01,2.69
1998-12-02,2.72
1998-12-03,2.815
1998-12-04,2.78
1998-12-07,2.69
1998-12-08,2.53
1998-12-09,2.47
1998-12-10,2.3101
1998-12-11,2.41
1998-12-14,2.22
1998-12-15,2.0603
1998-12-16,2.06
1998-12-17,2.16
1998-12-18,2.25
1998-12-21,2.16
1998-12-22,2.065
1998-12-23,2.2446
1998-12-24,2.62
1998-12-28,2.5
1998-12-29,2.34
1998-12-30,2.31
1998-12-31,2.69
1999-01-04,2.75
1999-01-05,2.78
1999-01-06,2.75
1999-01-07,2.66
1999-01-08,2.6499
1999-01-11,2.53
1999-01-12,2.44
1999-01-13,2.4451
1999-01-14,2.41
1999-01-15,2.47
1999-01-19,2.4937
1999-01-20,2.44
1999-01-21,2.41
1999-01-22,2.44
1999-01-25,2.37
1999-01-26,2.41
1999-01-27,2.44
1999-01-28,2.5
1999-01-29,2.44
1999-02-01,2.25
1999-02-02,2.22
1999-02-03,2.25
1999-02-04,2.3699
1999-02-05,2.41
1999-02-08,2.44
1999-02-09,2.44
1999-02-10,2.28
1999-02-11,2.2751
1999-02-12,2.22
1999-02-16,2.1551
1999-02-17,2.09
1999-02-18,2.0899
1999-02-19,2.1248
1999-02-22,2.19
1999-02-23,2.22
1999-02-24,2.25
1999-02-25,2.22
1999-02-26,2.25
1999-03-01,2.22
1999-03-02,2.22
1999-03-03,2.13
1999-03-04,2.195
1999-03-05,2.25
1999-03-08,2.16
1999-03-09,2.09
1999-03-10,2.0251
1999-03-11,2.0
1999-03-12,2.03
1999-03-15,2.13
1999-03-16,2.1248
1999-03-17,2.09
1999-03-18,2.065
1999-03-19,1.9952
1999-03-22,2.03
1999-03-23,1.91
1999-03-24,1.97
1999-03-25,1.97
1999-03-26,1.97
1999-03-29,1.905
1999-03-30,1.94
1999-03-31,1.97
1999-04-01,1.97
1999-04-05,1.97
1999-04-06,1.97
1999-04-07,1.91
1999-04-08,1.88
1999-04-09,2.03
1999-04-12,1.94
1999-04-13,1.91
1999-04-14,1.97
1999-04-15,2.03
1999-04-16,2.03
1999-04-19,2.065
1999-04-20,1.97
1999-04-21,2.0
1999-04-22,1.97
1999-04-23,1.94
1999-04-26,1.94
1999-04-27,2.03
1999-04-28,2.1897
1999-04-29,2.34
1999-04-30,2.28
1999-05-03,2.31
1999-05-04,2.47
1999-05-05,2.47
1999-05-06,2.44
1999-05-07,2.25
1999-05-10,2.5
1999-05-11,2.5
1999-05-12,2.5
1999-05-13,2.47
1999-05-14,2.44
1999-05-17,2.5
1999-05-18,2.66
1999-05-19,2.59
1999-05-20,2.62
1999-05-21,2.62
1999-05-24,2.53
1999-05-25,2.34
1999-05-26,2.41
1999-05-27,2.41
1999-05-28,2.44
1999-06-01,2.44
1999-06-02,2.44
1999-06-03,2.69
1999-06-04,2.78
1999-06-07,2.945
1999-06-08,3.09
1999-06-09,3.28
1999-06-10,3.03
1999-06-11,3.0
1999-06-14,3.0
1999-06-15,3.06
1999-06-16,3.03
1999-06-17,3.03
1999-06-18,2.91
1999-06-21,2.9051
1999-06-22,2.9099
1999-06-23,2.94
1999-06-24,2.91
1999-06-25,2.88
1999-06-28,2.5604
1999-06-29,2.69
1999-06-30,2.69
1999-07-01,2.66
1999-07-02,2.66
1999-07-06,2.66
1999-07-07,2.5
1999-07-08,2.47
1999-07-09,2.19
1999-07-12,2.16
1999-07-13,2.13
1999-07-14,2.16
1999-07-15,2.3047
1999-07-16,2.28
1999-07-19,2.195
1999-07-20,2.22
1999-07-21,2.09
1999-07-22,2.0
1999-07-23,1.9952
1999-07-26,2.0
1999-07-27,2.03
1999-07-28,2.03
1999-07-29,2.0
1999-07-30,2.0
1999-08-02,1.97
1999-08-03,1.97
1999-08-04,1.94
1999-08-05,1.91
1999-08-06,1.91
1999-08-09,1.815
1999-08-10,1.81
1999-08-11,1.81
1999-08-12,1.84
1999-08-13,1.815
1999-08-16,1.815
1999-08-17,1.84
1999-08-18,1.84
1999-08-19,1.84
1999-08-20,1.84
1999-08-23,1.84
1999-08-24,1.84
1999-08-25,1.75
1999-08-26,1.72
1999-08-27,1.72
1999-08-30,1.72
1999-08-31,1.72
1999-09-01,1.72
1999-09-02,1.655
1999-09-03,1.69
1999-09-07,1.84
1999-09-08,2.0
1999-09-09,1.91
1999-09-10,1.94
1999-09-13,1.88
1999-09-14,1.84
1999-09-15,1.81
1999-09-16,1.88
1999-09-17,1.88
1999-09-20,1.9101
1999-09-21,1.815
1999-09-22,1.72
1999-09-23,1.69
1999-09-24,1.69
1999-09-27,1.72
1999-09-28,1.66
1999-09-29,1.66
1999-09-30,1.69
1999-10-01,1.69
1999-10-04,1.66
1999-10-05,1.66
1999-10-06,1.62
1999-10-07,1.56
1999-10-08,1.59
1999-10-11,1.53
1999-10-12,1.5
1999-10-13,1.5
1999-10-14,1.56
1999-10-15,1.5
1999-10-18,1.5
1999-10-19,1.5
1999-10-20,1.5
1999-10-21,1.47
1999-10-22,1.47
1999-10-25,1.4452
1999-10-26,1.1459
1999-10-27,0.91
1999-10-28,1.3699
1999-10-29,1.3799
1999-11-01,1.445
1999-11-02,1.445
1999-11-03,1.3752
1999-11-04,1.5
1999-11-05,1.47
1999-11-08,1.445
1999-11-09,1.3752
1999-11-10,1.41
1999-11-11,1.47
1999-11-12,1.34
1999-11-15,1.34
1999-11-16,1.41
1999-11-17,1.34
1999-11-18,1.38
1999-11-19,1.4743
1999-11-22,1.3748
1999-11-23,1.315
1999-11-24,1.31
1999-11-26,1.38
1999-11-29,1.22
1999-11-30,1.19
1999-12-01,1.47
1999-12-02,1.5899
1999-12-03,1.47
1999-12-06,1.4649
1999-12-07,1.3499
1999-12-08,1.28
1999-12-09,1.315
1999-12-10,1.28
1999-12-13,1.22
1999-12-14,1.19
1999-12-15,1.1199
1999-12-16,1.095
1999-12-17,1.06
1999-12-20,1.065
1999-12-21,1.1445
1999-12-22,1.125
1999-12-23,1.22
1999-12-27,1.25
1999-12-28,1.1952
1999-12-29,1.19
1999-12-30,1.19
1999-12-31,1.16
2000-01-03,1.12
2000-01-04,1.09
2000-01-05,1.06
2000-01-06,1.1147
2000-01-07,1.19
2000-01-10,1.22
2000-01-11,1.16
2000-01-12,1.1199
2000-01-13,1.03
2000-01-14,1.0
2000-01-18,1.03
2000-01-19,1.0
2000-01-20,0.72
2000-01-21,0.78
2000-01-24,0.78
2000-01-25,0.78
2000-01-26,0.78
2000-01-27,0.78
2000-01-28,0.75
2000-01-31,0.78
2000-02-01,0.84
2000-02-02,0.8698
2000-02-03,0.8398
2000-02-04,0.8698
2000-02-07,0.87
2000-02-08,0.84
2000-02-09,0.81
2000-02-10,0.78
2000-02-11,0.75
2000-02-14,0.75
2000-02-15,0.78
2000-02-16,0.75
2000-02-17,0.75
2000-02-18,0.81
2000-02-22,0.81
2000-02-23,0.7752
2000-02-24,0.7752
2000-02-25,0.81
2000-02-28,0.81
2000-02-29,0.81
2000-03-01,0.81
2000-03-02,0.84
2000-03-03,0.81
2000-03-06,1.03
2000-03-07,1.22
2000-03-08,1.315
2000-03-09,1.28
2000-03-10,1.25
2000-03-13,1.25
2000-03-14,1.19
2000-03-15,1.095
2000-03-16,1.12
2000-03-17,1.12
2000-03-20,1.16
2000-03-21,1.09
2000-03-22,1.16
2000-03-23,1.345
2000-03-24,1.445
2000-03-27,1.6242
2000-03-28,1.94
2000-03-29,1.94
2000-03-30,1.75
2000-03-31,1.66
2000-04-03,1.91
2000-04-04,1.88
2000-04-05,1.84
2000-04-06,1.72
2000-04-07,1.5
2000-04-10,1.56
2000-04-11,1.47
2000-04-12,1.315
2000-04-13,1.23
2000-04-14,1.25
2000-04-17,1.09
2000-04-18,1.1299
2000-04-19,1.09
2000-04-20,1.12
2000-04-24,1.1499
2000-04-25,1.19
2000-04-26,1.16
2000-04-27,1.16
2000-04-28,1.28
2000-05-01,1.2751
2000-05-02,1.3499
2000-05-03,1.38
2000-05-04,1.4948
2000-05-05,1.5
2000-05-08,1.3699
2000-05-09,1.28
2000-05-10,1.22
2000-05-11,1.25
2000-05-12,1.315
2000-05-15,1.1855
2000-05-16,1.19
2000-05-17,1.22
2000-05-18,1.25
2000-05-19,1.22
2000-05-22,1.19
2000-05-23,1.22
2000-05-24,1.22
2000-05-25,1.22
2000-05-26,1.25
2000-05-30,1.3748
2000-05-31,1.3349
2000-06-01,1.3699
2000-06-02,1.3101
2000-06-05,1.47
2000-06-06,1.6299
2000-06-07,1.69
2000-06-08,1.62
2000-06-09,1.5901
2000-06-12,1.565
2000-06-13,1.62
2000-06-14,1.69
2000-06-15,1.69
2000-06-16,1.66
2000-06-19,1.62
2000-06-20,1.565
2000-06-21,1.5601
2000-06-22,1.565
2000-06-23,1.5849
2000-06-26,1.5849
2000-06-27,1.56
2000-06-28,1.5251
2000-06-29,1.565
2000-06-30,1.655
2000-07-03,1.62
2000-07-05,1.66
2000-07-06,1.69
2000-07-07,1.66
2000-07-10,1.69
2000-07-11,1.6951
2000-07-12,1.69
2000-07-13,1.6951
2000-07-14,1.66
2000-07-17,1.69
2000-07-18,1.69
2000-07-19,1.66
2000-07-20,1.66
2000-07-21,1.66
2000-07-24,1.66
2000-07-25,1.66
2000-07-26,1.66
2000-07-27,1.66
2000-07-28,1.62
2000-07-31,1.66
2000-08-01,1.8799
2000-08-02,2.0
2000-08-03,2.0
2000-08-04,1.94
2000-08-07,1.91
2000-08-08,2.22
2000-08-09,2.16
2000-08-10,2.09
2000-08-11,2.1499
2000-08-14,2.28
2000-08-15,2.315
2000-08-16,2.25
2000-08-17,2.25
2000-08-18,2.22
2000-08-21,2.19
2000-08-22,2.19
2000-08-23,2.28
2000-08-24,2.28
2000-08-25,2.34
2000-08-28,2.2751
2000-08-29,2.3999
2000-08-30,2.3166
2000-08-31,2.34
2000-09-01,2.31
2000-09-05,2.3349
2000-09-06,2.41
2000-09-07,2.66
2000-09-08,2.5
2000-09-11,2.3199
2000-09-12,2.315
2000-09-13,2.34
2000-09-14,2.4451
2000-09-15,2.405
2000-09-18,2.41
2000-09-19,2.375
2000-09-20,2.38
2000-09-21,2.28
2000-09-22,2.19
2000-09-25,2.16
2000-09-26,2.0
2000-09-27,1.94
2000-09-28,2.065
2000-09-29,2.28
2000-10-02,2.44
2000-10-03,2.3101
2000-10-04,2.3349
2000-10-05,2.34
2000-10-06,2.315
2000-10-09,2.19
2000-10-10,2.1299
2000-10-11,2.0551
2000-10-12,2.0251
2000-10-13,2.28
2000-10-16,2.1553
2000-10-17,2.12
2000-10-18,2.1548
2000-10-19,2.16
2000-10-20,2.12
2000-10-23,2.09
2000-10-24,2.0
2000-10-25,1.97
2000-10-26,1.84
2000-10-27,1.84
2000-10-30,1.75
2000-10-31,1.84
2000-11-01,1.9945
2000-11-02,2.03
2000-11-03,2.03
2000-11-06,2.03
2000-11-07,2.25
2000-11-08,2.12
2000-11-09,2.12
2000-11-10,2.0
2000-11-13,2.25
2000-11-14,2.28
2000-11-15,2.19
2000-11-16,2.16
2000-11-17,2.16
2000-11-20,2.09
2000-11-21,2.12
2000-11-22,2.03
2000-11-24,2.065
2000-11-27,2.0251
2000-11-28,2.03
2000-11-29,2.065
2000-11-30,2.0
2000-12-01,1.97
2000-12-04,1.94
2000-12-05,1.94
2000-12-06,2.0
2000-12-07,1.94
2000-12-08,2.0
2000-12-11,2.03
2000-12-12,2.0
2000-12-13,1.97
2000-12-14,1.94
2000-12-15,1.91
2000-12-18,1.91
2000-12-19,2.09
2000-12-20,1.97
2000-12-21,1.97
2000-12-22,1.91
2000-12-26,1.91
2000-12-27,2.0
2000-12-28,2.0
2000-12-29,1.97
2001-01-02,2.0
2001-01-03,2.16
2001-01-04,2.28
2001-01-05,2.155
2001-01-08,2.065
2001-01-09,2.1498
2001-01-10,2.22
2001-01-11,2.315
2001-01-12,2.34
2001-01-16,2.5
2001-01-17,2.66
2001-01-18,2.59
2001-01-19,2.565
2001-01-22,2.5
2001-01-23,2.62
2001-01-24,2.53
2001-01-25,2.4053
2001-01-26,2.34
2001-01-29,2.22
2001-01-30,2.39
2001-01-31,2.42
2001-02-01,2.37
2001-02-02,2.4
2001-02-05,2.52
2001-02-06,2.52
2001-02-07,2.59
2001-02-08,2.6
2001-02-09,2.53
2001-02-12,2.55
2001-02-13,2.705
2001-02-14,2.62
2001-02-15,2.62
2001-02-16,2.59
2001-02-20,2.49
2001-02-21,2.62
2001-02-22,2.62
2001-02-23,2.6
2001-02-26,2.62
2001-02-27,2.57
2001-02-28,2.58
2001-03-01,2.53
2001-03-02,2.6
2001-03-05,2.55
2001-03-06,2.78
2001-03-07,3.0
2001-03-08,2.845
2001-03-09,2.93
2001-03-12,2.7
2001-03-13,2.77
2001-03-14,2.7
2001-03-15,2.7
2001-03-16,2.6
2001-03-19,2.675
2001-03-20,2.845
2001-03-21,2.79
2001-03-22,2.85
2001-03-23,3.01
2001-03-26,3.35
2001-03-27,3.8301
2001-03-28,4.0
2001-03-29,3.8701
2001-03-30,3.77
2001-04-02,3.82
2001-04-03,3.845
2001-04-04,3.85
2001-04-05,3.85
2001-04-06,3.835
2001-04-09,3.77
2001-04-10,3.8
2001-04-11,3.8
2001-04-12,3.995
2001-04-16,3.99
2001-04-17,4.185
2001-04-18,4.02
2001-04-19,4.02
2001-04-20,4.19
2001-04-23,4.675
2001-04-24,5.105
2001-04-25,4.95
2001-04-26,4.91
2001-04-27,5.295
2001-04-30,5.025
2001-05-01,5.03
2001-05-02,5.15
2001-05-03,5.475
2001-05-04,5.409
2001-05-07,5.474
2001-05-08,6.24
2001-05-09,6.28
2001-05-10,5.84
2001-05-11,6.505
2001-05-14,7.225
2001-05-15,7.5
2001-05-16,7.075
2001-05-17,6.78
2001-05-18,6.88
2001-05-21,6.795
2001-05-22,6.785
2001-05-23,6.97
2001-05-24,7.49
2001-05-25,7.5
2001-05-29,7.45
2001-05-30,7.05
2001-05-31,7.425
2001-06-01,7.7
2001-06-04,8.275
2001-06-05,8.235
2001-06-06,7.535
2001-06-07,7.375
2001-06-08,7.465
2001-06-11,7.305
2001-06-12,7.475
2001-06-13,7.325
2001-06-14,7.01
2001-06-15,6.505
2001-06-18,6.45
2001-06-19,6.56
2001-06-20,6.8
2001-06-21,7.24
2001-06-22,7.3
2001-06-25,7.475
2001-06-26,7.525
2001-06-27,7.45
2001-06-28,7.72
2001-06-29,8.015
2001-07-02,8.1
2001-07-03,8.25
2001-07-05,8.295
2001-07-06,7.855
2001-07-09,8.125
2001-07-10,7.85
2001-07-11,7.66
2001-07-12,7.77
2001-07-13,7.725
2001-07-16,7.885
2001-07-17,8.545
2001-07-18,9.765
2001-07-19,9.445
2001-07-20,9.255
2001-07-23,9.05
2001-07-24,8.615
2001-07-25,8.375
2001-07-26,7.75
2001-07-27,7.83
2001-07-30,7.725
2001-07-31,7.875
2001-08-01,8.0
2001-08-02,8.6
2001-08-03,8.875
2001-08-06,8.925
2001-08-07,8.65
2001-08-08,8.32
2001-08-09,7.62
2001-08-10,7.915
2001-08-13,8.05
2001-08-14,8.27
2001-08-15,8.55
2001-08-16,8.48
2001-08-17,7.67
2001-08-20,8.125
2001-08-21,8.12
2001-08-22,8.26
2001-08-23,7.95
2001-08-24,7.65
2001-08-27,7.47
2001-08-28,6.805
2001-08-29,6.87
2001-08-30,7.225
2001-08-31,7.45
2001-09-04,7.25
2001-09-05,6.895
2001-09-06,6.965
2001-09-07,6.75
2001-09-10,6.25
2001-09-17,5.135
2001-09-18,4.945
2001-09-19,5.2
2001-09-20,5.305
2001-09-21,4.725
2001-09-24,5.505
2001-09-25,5.175
2001-09-26,5.0
2001-09-27,4.73
2001-09-28,5.52
2001-10-01,5.95
2001-10-02,6.2
2001-10-03,7.13
2001-10-04,7.235
2001-10-05,7.5
2001-10-08,7.475
2001-10-09,7.425
2001-10-10,7.72
2001-10-11,7.795
2001-10-12,7.995
2001-10-15,8.06
2001-10-16,8.015
2001-10-17,8.005
2001-10-18,8.63
2001-10-19,9.035
2001-10-22,9.03
2001-10-23,9.045
2001-10-24,8.8
2001-10-25,8.68
2001-10-26,9.02
2001-10-29,8.455
2001-10-30,8.655
2001-10-31,9.01
2001-11-01,9.345
2001-11-02,9.3
2001-11-05,9.425
2001-11-06,9.94
2001-11-07,9.955
2001-11-08,9.22
2001-11-09,9.375
2001-11-12,9.59
2001-11-13,9.495
2001-11-14,9.75
2001-11-15,9.68
2001-11-16,9.23
2001-11-19,9.61
2001-11-20,9.245
2001-11-21,9.1
2001-11-23,9.49
2001-11-26,9.75
2001-11-27,9.82
2001-11-28,9.625
2001-11-29,10.25
2001-11-30,9.97
2001-12-03,10.0
2001-12-04,10.505
2001-12-05,10.93
2001-12-06,11.0
2001-12-07,11.0
2001-12-10,10.78
2001-12-11,10.85
2001-12-12,10.93
2001-12-13,11.05
2001-12-14,11.55
2001-12-17,11.6
2001-12-18,11.295
2001-12-19,11.5
2001-12-20,11.22
2001-12-21,11.09
2001-12-24,10.96
2001-12-26,11.35
2001-12-27,11.635
2001-12-28,11.58
2001-12-31,11.4
2002-01-02,11.22
2002-01-03,11.055
2002-01-04,10.28
2002-01-07,10.65
2002-01-08,10.72
2002-01-09,10.39
2002-01-10,10.11
2002-01-11,10.0
2002-01-14,9.9
2002-01-15,10.355
2002-01-16,10.365
2002-01-17,10.45
2002-01-18,10.65
2002-01-22,10.085
2002-01-23,10.255
2002-01-24,10.79
2002-01-25,10.585
2002-01-28,10.26
2002-01-29,10.11
2002-01-30,10.365
2002-01-31,10.575
2002-02-01,10.48
2002-02-04,10.555
2002-02-05,10.28
2002-02-06,12.195
2002-02-07,12.195
2002-02-08,12.175
2002-02-11,12.795
2002-02-12,12.57
2002-02-13,12.91
2002-02-14,12.545
2002-02-15,12.595
2002-02-19,12.56
2002-02-20,13.42
2002-02-21,14.28
2002-02-22,13.05
2002-02-25,13.4
2002-02-26,13.31
2002-02-27,13.505
2002-02-28,13.36
2002-03-01,13.28
2002-03-04,13.255
2002-03-05,13.3
2002-03-06,13.835
2002-03-07,14.195
2002-03-08,14.505
2002-03-11,14.205
2002-03-12,14.04
2002-03-13,14.3
2002-03-14,14.475
2002-03-15,14.465
2002-03-18,14.725
2002-03-19,14.39
2002-03-20,13.48
2002-03-21,13.115
2002-03-22,13.055
2002-03-25,12.505
2002-03-26,12.6
2002-03-27,12.69
2002-03-28,12.93
2002-04-01,13.255
2002-04-02,12.475
2002-04-03,12.685
2002-04-04,12.875
2002-04-05,13.515
2002-04-08,14.4
2002-04-09,14.695
2002-04-10,15.01
2002-04-11,14.845
2002-04-12,15.4
2002-04-15,15.02
2002-04-16,15.08
2002-04-17,14.45
2002-04-18,14.24
2002-04-19,14.44
2002-04-22,13.98
2002-04-23,13.59
2002-04-24,13.815
2002-04-25,14.255
2002-04-26,14.705
2002-04-29,14.29
2002-04-30,14.75
2002-05-01,14.75
2002-05-02,15.84
2002-05-03,16.08
2002-05-06,16.11
2002-05-07,16.02
2002-05-08,16.04
2002-05-09,16.58
2002-05-10,16.11
2002-05-13,16.27
2002-05-14,15.14
2002-05-15,15.7
2002-05-16,14.97
2002-05-17,14.69
2002-05-20,14.275
2002-05-21,14.025
2002-05-22,14.02
2002-05-23,14.245
2002-05-24,14.095
2002-05-28,13.28
2002-05-29,13.21
2002-05-30,12.795
2002-05-31,13.235
2002-06-03,12.48
2002-06-04,12.305
2002-06-05,12.595
2002-06-06,12.175
2002-06-07,11.775
2002-06-10,12.395
2002-06-11,11.9
2002-06-12,11.83
2002-06-13,11.555
2002-06-14,11.305
2002-06-17,11.645
2002-06-18,11.71
2002-06-19,11.8
2002-06-20,11.325
2002-06-21,11.18
2002-06-24,10.945
2002-06-25,10.62
2002-06-26,10.57
2002-06-27,10.88
2002-06-28,11.025
2002-07-01,10.22
2002-07-02,9.68
2002-07-03,9.77
2002-07-05,10.18
2002-07-08,10.045
2002-07-09,10.115
2002-07-10,9.49
2002-07-11,9.28
2002-07-12,9.255
2002-07-15,9.05
2002-07-16,9.02
2002-07-17,8.94
2002-07-18,8.56
2002-07-19,8.275
2002-07-22,7.745
2002-07-23,7.645
2002-07-24,8.59
2002-07-25,8.285
2002-07-26,8.45
2002-07-29,9.55
2002-07-30,9.25
2002-07-31,8.85
2002-08-01,8.13
2002-08-02,7.6
2002-08-05,6.83
2002-08-06,7.04
2002-08-07,7.09
2002-08-08,7.06
2002-08-09,7.355
2002-08-12,7.24
2002-08-13,7.35
2002-08-14,7.295
2002-08-15,7.555
2002-08-16,7.625
2002-08-19,7.9
2002-08-20,8.25
2002-08-21,8.525
2002-08-22,8.335
2002-08-23,8.235
2002-08-26,8.4
2002-08-27,8.03
2002-08-28,7.725
2002-08-29,7.93
2002-08-30,7.97
2002-09-03,8.16
2002-09-04,8.5
2002-09-05,8.505
2002-09-06,9.5
2002-09-09,10.215
2002-09-10,10.55
2002-09-11,10.11
2002-09-12,9.44
2002-09-13,9.25
2002-09-16,9.425
2002-09-17,9.08
2002-09-18,8.295
2002-09-19,8.205
2002-09-20,8.375
2002-09-23,7.765
2002-09-24,7.65
2002-09-25,8.23
2002-09-26,7.995
2002-09-27,7.675
2002-09-30,7.96
2002-10-01,8.13
2002-10-02,7.955
2002-10-03,7.905
2002-10-04,7.64
2002-10-07,7.275
2002-10-08,7.02
2002-10-09,6.925
2002-10-10,7.185
2002-10-11,7.255
2002-10-14,7.385
2002-10-15,7.9
2002-10-16,7.475
2002-10-17,7.485
2002-10-18,7.85
2002-10-21,8.73
2002-10-22,8.93
2002-10-23,8.99
2002-10-24,8.68
2002-10-25,8.585
2002-10-28,8.665
2002-10-29,8.68
2002-10-30,8.21
2002-10-31,8.125
2002-11-01,8.08
2002-11-04,8.805
2002-11-05,8.59
2002-11-06,8.475
2002-11-07,8.0
2002-11-08,8.125
2002-11-11,7.975
2002-11-12,8.08
2002-11-13,7.895
2002-11-14,8.03
2002-11-15,8.215
2002-11-18,8.475
2002-11-19,8.025
2002-11-20,8.49
2002-11-21,9.25
2002-11-22,9.7
2002-11-25,9.565
2002-11-26,9.15
2002-11-27,9.725
2002-11-29,9.85
2002-12-02,9.72
2002-12-03,9.575
2002-12-04,9.885
2002-12-05,10.125
2002-12-06,10.11
2002-12-09,9.625
2002-12-10,9.74
2002-12-11,9.785
2002-12-12,9.6
2002-12-13,9.125
2002-12-16,9.435
2002-12-17,8.81
2002-12-18,8.66
2002-12-19,8.735
2002-12-20,8.565
2002-12-23,8.975
2002-12-24,8.855
2002-12-26,8.915
2002-12-27,8.76
2002-12-30,8.91
2002-12-31,8.92
2003-01-02,8.955
2003-01-03,8.73
2003-01-06,8.675
2003-01-07,8.635
2003-01-08,8.595
2003-01-09,8.755
2003-01-10,8.88
2003-01-13,8.69
2003-01-14,8.82
2003-01-15,9.52
2003-01-16,9.495
2003-01-17,9.075
2003-01-21,8.525
2003-01-22,8.145
2003-01-23,7.92
2003-01-24,7.955
2003-01-27,7.955
2003-01-28,8.17
2003-01-29,8.125
2003-01-30,8.065
2003-01-31,8.105
2003-02-03,8.48
2003-02-04,8.345
2003-02-05,8.28
2003-02-06,7.775
2003-02-07,7.5
2003-02-10,7.5
2003-02-11,7.445
2003-02-12,7.2
2003-02-13,7.095
2003-02-14,7.315
2003-02-18,7.57
2003-02-19,7.285
2003-02-20,7.06
2003-02-21,7.0
2003-02-24,6.765
2003-02-25,7.185
2003-02-26,7.155
2003-02-27,7.385
2003-02-28,7.535
2003-03-03,7.36
2003-03-04,7.015
2003-03-05,6.875
2003-03-06,6.55
2003-03-07,6.87
2003-03-10,6.59
2003-03-11,6.355
2003-03-12,6.32
2003-03-13,6.585
2003-03-14,6.615
2003-03-17,7.075
2003-03-18,7.135
2003-03-19,7.04
2003-03-20,7.265
2003-03-21,7.595
2003-03-24,7.49
2003-03-25,7.47
2003-03-26,7.39
2003-03-27,7.205
2003-03-28,7.1
2003-03-31,7.27
2003-04-01,7.145
2003-04-02,7.8
2003-04-03,8.25
2003-04-04,8.605
2003-04-07,8.595
2003-04-08,8.495
2003-04-09,8.55
2003-04-10,8.595
2003-04-11,8.565
2003-04-14,8.87
2003-04-15,8.99
2003-04-16,8.945
2003-04-17,9.09
2003-04-21,9.175
2003-04-22,9.615
2003-04-23,9.775
2003-04-24,9.34
2003-04-25,9.38
2003-04-28,9.865
2003-04-29,10.495
2003-04-30,10.555
2003-05-01,10.505
2003-05-02,10.95
2003-05-05,11.315
2003-05-06,11.02
2003-05-07,10.695
2003-05-08,10.805
2003-05-09,10.825
2003-05-12,11.375
2003-05-13,11.41
2003-05-14,11.27
2003-05-15,11.0
2003-05-16,10.67
2003-05-19,10.56
2003-05-20,10.445
2003-05-21,10.505
2003-05-22,10.76
2003-05-23,11.15
2003-05-27,11.5
2003-05-28,11.98
2003-05-29,11.86
2003-05-30,11.615
2003-06-02,11.715
2003-06-03,11.81
2003-06-04,12.37
2003-06-05,14.65
2003-06-06,14.695
2003-06-09,13.665
2003-06-10,14.725
2003-06-11,14.935
2003-06-12,15.49
2003-06-13,15.16
2003-06-16,15.79
2003-06-17,15.255
2003-06-18,15.39
2003-06-19,14.855
2003-06-20,14.76
2003-06-23,14.4
2003-06-24,13.995
2003-06-25,14.68
2003-06-26,14.88
2003-06-27,15.325
2003-06-30,14.995
2003-07-01,15.02
2003-07-02,15.13
2003-07-03,15.23
2003-07-07,15.545
2003-07-08,16.07
2003-07-09,16.22
2003-07-10,15.84
2003-07-11,17.25
2003-07-14,17.76
2003-07-15,17.7
2003-07-16,17.5
2003-07-17,17.325
2003-07-18,17.5
2003-07-21,17.3
2003-07-22,17.535
2003-07-23,17.5
2003-07-24,18.14
2003-07-25,18.27
2003-07-28,18.055
2003-07-29,18.01
2003-07-30,17.22
2003-07-31,17.78
2003-08-01,17.405
2003-08-04,17.39
2003-08-05,16.985
2003-08-06,16.91
2003-08-07,16.68
2003-08-08,16.89
2003-08-11,17.045
2003-08-12,17.385
2003-08-13,17.49
2003-08-14,17.575
2003-08-15,17.7
2003-08-18,18.015
2003-08-19,18.045
2003-08-20,18.215
2003-08-21,18.355
2003-08-22,18.11
2003-08-25,18.45
2003-08-26,18.445
2003-08-27,18.49
2003-08-28,19.14
2003-08-29,19.275
2003-09-02,19.55
2003-09-03,18.77
2003-09-04,18.87
2003-09-05,17.75
2003-09-08,17.42
2003-09-09,17.205
2003-09-10,16.505
2003-09-11,17.0
2003-09-12,17.255
2003-09-15,17.475
2003-09-16,18.0
2003-09-17,17.83
2003-09-18,18.445
2003-09-19,17.93
2003-09-22,17.645
2003-09-23,17.97
2003-09-24,17.155
2003-09-25,16.96
2003-09-26,16.455
2003-09-29,16.84
2003-09-30,16.36
2003-10-01,17.07
2003-10-02,17.23
2003-10-03,17.69
2003-10-06,18.3
2003-10-07,18.475
2003-10-08,18.495
2003-10-09,19.01
2003-10-10,18.985
2003-10-13,19.29
2003-10-14,19.6
2003-10-15,16.12
2003-10-16,16.75
2003-10-17,16.4
2003-10-20,16.16
2003-10-21,15.55
2003-10-22,15.26
2003-10-23,15.62
2003-10-24,15.45
2003-10-27,15.845
2003-10-28,15.98
2003-10-29,15.395
2003-10-30,15.555
2003-10-31,15.76
2003-11-03,15.98
2003-11-04,15.98
2003-11-05,16.02
2003-11-06,16.07
2003-11-07,16.335
2003-11-10,15.84
2003-11-11,16.055
2003-11-12,16.54
2003-11-13,17.025
2003-11-14,16.625
2003-11-17,16.49
2003-11-18,15.77
2003-11-19,15.81
2003-11-20,15.735
2003-11-21,16.0
2003-11-24,16.7
2003-11-25,16.8
2003-11-26,16.54
2003-11-28,16.47
2003-12-01,16.85
2003-12-02,16.715
2003-12-03,16.555
2003-12-04,15.605
2003-12-05,15.4
2003-12-08,15.435
2003-12-09,15.45
2003-12-10,15.0
2003-12-11,14.955
2003-12-12,14.57
2003-12-15,14.755
2003-12-16,14.835
2003-12-17,14.98
2003-12-18,15.695
2003-12-19,15.79
2003-12-22,15.675
2003-12-23,15.755
2003-12-24,15.605
2003-12-26,15.645
2003-12-29,15.775
2003-12-30,15.425
2003-12-31,15.43
2004-01-02,15.25
2004-01-05,15.53
2004-01-06,15.815
2004-01-07,16.085
2004-01-08,15.6
2004-01-09,15.12
2004-01-12,14.85
2004-01-13,14.54
2004-01-14,14.725
2004-01-15,14.71
2004-01-16,16.545
2004-01-20,16.675
2004-01-21,17.555
2004-01-22,17.65
2004-01-23,17.315
2004-01-26,17.325
2004-01-27,16.78
2004-01-28,16.46
2004-01-29,16.33
2004-01-30,16.705
2004-02-02,16.57
2004-02-03,16.49
2004-02-04,16.455
2004-02-05,16.605
2004-02-06,17.06
2004-02-09,17.01
2004-02-10,16.98
2004-02-11,17.015
2004-02-12,16.965
2004-02-13,17.1
2004-02-17,17.46
2004-02-18,17.53
2004-02-19,17.515
2004-02-20,17.35
2004-02-23,16.99
2004-02-24,16.605
2004-02-25,16.695
2004-02-26,16.615
2004-02-27,17.05
2004-03-01,17.7
2004-03-02,17.38
2004-03-03,17.055
2004-03-04,16.51
2004-03-05,16.865
2004-03-08,16.755
2004-03-09,16.605
2004-03-10,16.06
2004-03-11,15.85
2004-03-12,15.395
2004-03-15,14.68
2004-03-16,14.53
2004-03-17,14.4
2004-03-18,14.255
2004-03-19,14.12
2004-03-22,13.81
2004-03-23,13.615
2004-03-24,13.675
2004-03-25,14.25
2004-03-26,14.31
2004-03-29,14.36
2004-03-30,14.265
2004-03-31,14.58
2004-04-01,14.73
2004-04-02,14.48
2004-04-05,15.075
2004-04-06,15.095
2004-04-07,14.885
2004-04-08,14.62
2004-04-12,14.88
2004-04-13,14.705
2004-04-14,14.825
2004-04-15,14.65
2004-04-16,14.23
2004-04-19,13.965
2004-04-20,13.875
2004-04-21,14.09
2004-04-22,14.055
2004-04-23,13.685
2004-04-26,13.74
2004-04-27,13.635
2004-04-28,13.275
2004-04-29,12.85
2004-04-30,12.95
2004-05-03,13.12
2004-05-04,12.97
2004-05-05,13.15
2004-05-06,12.83
2004-05-07,12.45
2004-05-10,12.155
2004-05-11,12.495
2004-05-12,10.915
2004-05-13,10.86
2004-05-14,11.1
2004-05-17,10.805
2004-05-18,11.215
2004-05-19,11.245
2004-05-20,11.05
2004-05-21,11.18
2004-05-24,11.395
2004-05-25,11.855
2004-05-26,11.615
2004-05-27,11.545
2004-05-28,11.445
2004-06-01,11.34
2004-06-02,10.975
2004-06-03,10.855
2004-06-04,10.85
2004-06-07,11.015
2004-06-08,11.225
2004-06-09,11.615
2004-06-10,11.28
2004-06-14,11.215
2004-06-15,11.17
2004-06-16,10.815
2004-06-17,10.77
2004-06-18,10.695
2004-06-21,10.675
2004-06-22,10.64
2004-06-23,10.61
2004-06-24,10.63
2004-06-25,10.53
2004-06-28,10.755
2004-06-29,10.715
2004-06-30,10.925
2004-07-01,10.505
2004-07-02,10.275
2004-07-06,10.045
2004-07-07,9.985
2004-07-08,9.69
2004-07-09,9.93
2004-07-12,9.93
2004-07-13,9.935
2004-07-14,9.52
2004-07-15,9.41
2004-07-16,9.24
2004-07-19,9.37
2004-07-20,9.37
2004-07-21,9.4
2004-07-22,9.575
2004-07-23,9.71
2004-07-26,9.705
2004-07-27,10.38
2004-07-28,10.195
2004-07-29,10.3
2004-07-30,10.38
2004-08-02,10.2
2004-08-03,9.655
2004-08-04,9.815
2004-08-05,9.62
2004-08-06,9.47
2004-08-09,9.405
2004-08-10,9.74
2004-08-11,9.74
2004-08-12,9.435
2004-08-13,9.38
2004-08-16,9.835
2004-08-17,9.73
2004-08-18,10.095
2004-08-19,9.825
2004-08-20,9.7
2004-08-23,9.55
2004-08-24,9.545
2004-08-25,9.7
2004-08-26,9.69
2004-08-27,9.73
2004-08-30,9.755
2004-08-31,9.77
2004-09-01,9.71
2004-09-02,10.375
2004-09-03,10.25
2004-09-07,10.64
2004-09-08,10.685
2004-09-09,10.435
2004-09-10,10.375
2004-09-13,10.595
2004-09-14,10.495
2004-09-15,10.46
2004-09-16,10.545
2004-09-17,10.735
2004-09-20,10.43
2004-09-21,10.545
2004-09-22,10.36
2004-09-23,10.375
2004-09-24,10.475
2004-09-27,10.24
2004-09-28,10.32
2004-09-29,10.405
2004-09-30,10.775
2004-10-01,11.445
2004-10-04,11.695
2004-10-05,11.51
2004-10-06,11.445
2004-10-07,11.445
2004-10-08,11.3
2004-10-11,11.495
2004-10-12,11.38
2004-10-13,11.56
2004-10-14,11.09
2004-10-15,11.405
2004-10-18,12.025
2004-10-19,12.25
2004-10-20,12.28
2004-10-21,12.355
2004-10-22,12.32
2004-10-25,12.605
2004-10-26,12.94
2004-10-27,13.1
2004-10-28,13.055
2004-10-29,13.15
2004-11-01,13.14
2004-11-02,12.855
2004-11-03,12.885
2004-11-04,13.25
2004-11-05,13.62
2004-11-08,13.24
2004-11-09,13.12
2004-11-10,13.19
2004-11-11,13.22
2004-11-12,13.565
2004-11-15,13.63
2004-11-16,14.52
2004-11-17,14.735
2004-11-18,14.66
2004-11-19,14.3
2004-11-22,14.385
2004-11-23,14.33
2004-11-24,14.44
2004-11-26,14.455
2004-11-29,14.345
2004-11-30,13.93
2004-12-01,13.92
2004-12-02,13.785
2004-12-03,14.05
2004-12-06,13.525
2004-12-07,13.28
2004-12-08,13.255
2004-12-09,13.335
2004-12-10,13.255
2004-12-13,13.515
2004-12-14,13.73
2004-12-15,13.675
2004-12-16,13.725
2004-12-17,15.0
2004-12-20,15.02
2004-12-21,15.315
2004-12-22,15.3
2004-12-23,15.245
2004-12-27,15.2
2004-12-28,15.25
2004-12-29,15.25
2004-12-30,15.5
2004-12-31,15.52
2005-01-03,15.11
2005-01-04,15.0
2005-01-05,14.93
2005-01-06,14.775
2005-01-07,14.945
2005-01-10,14.92
2005-01-11,14.92
2005-01-12,15.405
2005-01-13,15.09
2005-01-14,15.18
2005-01-18,15.16
2005-01-19,15.05
2005-01-20,14.945
2005-01-21,14.93
2005-01-24,14.375
2005-01-25,14.395
2005-01-26,14.26
2005-01-27,14.235
2005-01-28,14.175
2005-01-31,14.455
2005-02-01,14.625
2005-02-02,14.74
2005-02-03,16.73
2005-02-04,16.475
2005-02-07,16.31
2005-02-08,16.49
2005-02-09,16.27
2005-02-10,16.24
2005-02-11,16.28
2005-02-14,16.29
2005-02-15,16.275
2005-02-16,16.3
2005-02-17,15.99
2005-02-18,15.785
2005-02-22,15.465
2005-02-23,16.43
2005-02-24,16.53
2005-02-25,16.475
2005-02-28,16.48
2005-03-01,16.6
2005-03-02,16.54
2005-03-03,16.61
2005-03-04,16.725
2005-03-07,16.785
2005-03-08,16.67
2005-03-09,16.42
2005-03-10,16.25
2005-03-11,16.06
2005-03-14,16.21
2005-03-15,16.18
2005-03-16,16.01
2005-03-17,16.52
2005-03-18,16.335
2005-03-21,16.585
2005-03-22,16.51
2005-03-23,15.99
2005-03-24,16.16
2005-03-28,16.43
2005-03-29,16.6
2005-03-30,16.1
2005-03-31,15.735
2005-04-01,15.315
2005-04-04,15.225
2005-04-05,15.475
2005-04-06,15.66
2005-04-07,15.75
2005-04-08,15.555
2005-04-11,15.24
2005-04-12,15.265
2005-04-13,15.025
2005-04-14,14.645
2005-04-15,14.155
2005-04-18,14.425
2005-04-19,14.575
2005-04-20,14.12
2005-04-21,14.535
2005-04-22,14.08
2005-04-25,14.465
2005-04-26,14.285
2005-04-27,14.055
2005-04-28,13.84
2005-04-29,13.65
2005-05-02,13.935
2005-05-03,13.99
2005-05-04,14.505
2005-05-05,14.325
2005-05-06,14.245
2005-05-09,14.56
2005-05-10,14.085
2005-05-11,13.83
2005-05-12,13.635
2005-05-13,13.395
2005-05-16,13.74
2005-05-17,13.855
2005-05-18,14.18
2005-05-19,14.195
2005-05-20,13.25
2005-05-23,13.42
2005-05-24,13.07
2005-05-25,12.555
2005-05-26,12.615
2005-05-27,12.595
2005-05-31,12.795
2005-06-01,12.625
2005-06-02,12.93
2005-06-03,13.07
2005-06-06,13.135
2005-06-07,13.13
2005-06-08,12.95
2005-06-09,12.35
2005-06-10,12.535
2005-06-13,12.5
2005-06-14,12.47
2005-06-15,12.445
2005-06-16,12.565
2005-06-17,12.86
2005-06-20,13.24
2005-06-21,13.3
2005-06-22,13.275
2005-06-23,13.06
2005-06-24,13.015
2005-06-27,12.715
2005-06-28,13.075
2005-06-29,13.33
2005-06-30,13.36
2005-07-01,13.38
2005-07-05,13.72
2005-07-06,13.06
2005-07-07,12.98
2005-07-08,13.23
2005-07-11,13.645
2005-07-12,13.59
2005-07-13,13.735
2005-07-14,13.62
2005-07-15,13.655
2005-07-18,13.56
2005-07-19,13.755
2005-07-20,13.66
2005-07-21,13.63
2005-07-22,13.58
2005-07-25,13.265
2005-07-26,13.325
2005-07-27,13.71
2005-07-28,15.0
2005-07-29,14.605
2005-08-01,14.535
2005-08-02,14.375
2005-08-03,14.535
2005-08-04,14.585
2005-08-05,14.735
2005-08-08,14.7
2005-08-09,14.685
2005-08-10,14.85
2005-08-11,15.01
2005-08-12,15.175
2005-08-15,14.99
2005-08-16,14.755
2005-08-17,14.755
2005-08-18,14.695
2005-08-19,14.505
2005-08-22,14.34
2005-08-23,16.03
2005-08-24,15.93
2005-08-25,15.875
2005-08-26,15.675
2005-08-29,15.955
2005-08-30,15.85
2005-08-31,15.915
2005-09-01,15.305
2005-09-02,15.24
2005-09-06,15.37
2005-09-07,15.5
2005-09-08,15.335
2005-09-09,15.535
2005-09-12,15.64
2005-09-13,15.95
2005-09-14,15.635
2005-09-15,15.35
2005-09-16,15.345
2005-09-19,15.31
2005-09-20,14.975
2005-09-21,15.635
2005-09-22,15.855
2005-09-23,15.725
2005-09-26,15.62
2005-09-27,15.57
2005-09-28,15.295
2005-09-29,15.54
2005-09-30,15.615
2005-10-03,15.58
2005-10-04,15.21
2005-10-05,14.885
2005-10-06,14.835
2005-10-07,14.37
2005-10-10,13.65
2005-10-11,13.4
2005-10-12,13.395
2005-10-13,13.665
2005-10-14,13.5
2005-10-17,13.62
2005-10-18,13.44
2005-10-19,13.55
2005-10-20,13.305
2005-10-21,13.795
2005-10-24,14.02
2005-10-25,13.915
2005-10-26,13.66
2005-10-27,13.225
2005-10-28,13.255
2005-10-31,13.43
2005-11-01,13.355
2005-11-02,13.51
2005-11-03,13.575
2005-11-04,13.585
2005-11-07,13.64
2005-11-08,13.65
2005-11-09,13.635
2005-11-10,13.86
2005-11-11,14.17
2005-11-14,13.825
2005-11-15,13.93
2005-11-16,14.09
2005-11-17,14.255
2005-11-18,14.37
2005-11-21,14.66
2005-11-22,14.59
2005-11-23,14.555
2005-11-25,14.735
2005-11-28,14.27
2005-11-29,14.085
2005-11-30,13.715
2005-12-01,13.65
2005-12-02,13.82
2005-12-05,13.39
2005-12-06,13.325
2005-12-07,13.42
2005-12-08,13.4
2005-12-09,13.505
2005-12-12,13.29
2005-12-13,13.35
2005-12-14,13.55
2005-12-15,13.59
2005-12-16,13.695
2005-12-19,13.535
2005-12-20,13.755
2005-12-21,14.105
2005-12-22,14.145
2005-12-23,14.17
2005-12-27,13.985
2005-12-28,13.925
2005-12-29,13.975
2005-12-30,13.83
2006-01-03,14.27
2006-01-04,14.685
2006-01-05,14.43
2006-01-06,14.315
2006-01-09,14.69
2006-01-10,14.995
2006-01-11,14.76
2006-01-12,14.93
2006-01-13,14.81
2006-01-17,14.505
2006-01-18,14.4
2006-01-19,14.5
2006-01-20,14.285
2006-01-23,14.41
2006-01-24,14.5
2006-01-25,14.6
2006-01-26,14.61
2006-01-27,14.72
2006-01-30,15.1
2006-01-31,14.925
2006-02-01,15.41
2006-02-02,15.19
2006-02-03,15.075
2006-02-06,14.79
2006-02-07,14.815
2006-02-08,14.75
2006-02-09,14.66
2006-02-10,14.665
2006-02-13,14.67
2006-02-14,14.73
2006-02-15,14.9
2006-02-16,15.33
2006-02-17,15.65
2006-02-21,15.6
2006-02-22,15.775
2006-02-23,15.885
2006-02-24,15.71
2006-02-27,15.81
2006-02-28,15.705
2006-03-01,15.79
2006-03-02,15.705
2006-03-03,15.655
2006-03-06,15.63
2006-03-07,15.39
2006-03-08,15.37
2006-03-09,15.27
2006-03-10,15.57
2006-03-13,17.635
2006-03-14,18.01
2006-03-15,17.7
2006-03-16,17.3
2006-03-17,17.385
2006-03-20,17.295
2006-03-21,17.16
2006-03-22,17.45
2006-03-23,17.55
2006-03-24,17.64
2006-03-27,17.645
2006-03-28,17.635
2006-03-29,17.885
2006-03-30,16.765
2006-03-31,16.35
2006-04-03,15.965
2006-04-04,16.3
2006-04-05,16.48
2006-04-06,16.625
2006-04-07,16.63
2006-04-10,16.605
2006-04-11,16.455
2006-04-12,16.565
2006-04-13,16.735
2006-04-17,16.615
2006-04-18,17.385
2006-04-19,17.31
2006-04-20,17.425
2006-04-21,17.705
2006-04-24,17.645
2006-04-25,17.7
2006-04-26,17.795
2006-04-27,17.72
2006-04-28,17.625
2006-05-01,17.21
2006-05-02,17.125
2006-05-03,16.83
2006-05-04,16.985
2006-05-05,16.985
2006-05-08,17.0
2006-05-09,17.0
2006-05-10,17.01
2006-05-11,16.63
2006-05-12,16.325
2006-05-15,16.26
2006-05-16,16.35
2006-05-17,16.295
2006-05-18,16.25
2006-05-19,16.52
2006-05-22,16.335
2006-05-23,16.205
2006-05-24,15.81
2006-05-25,15.87
2006-05-26,15.765
2006-05-30,15.955
2006-05-31,15.95
2006-06-01,15.845
2006-06-02,15.905
2006-06-05,15.52
2006-06-06,15.495
2006-06-07,15.4
2006-06-08,15.305
2006-06-09,15.295
2006-06-12,14.94
2006-06-13,14.915
2006-06-14,15.225
2006-06-15,15.625
2006-06-16,15.755
2006-06-19,16.965
2006-06-20,17.075
2006-06-21,17.38
2006-06-22,17.365
2006-06-23,17.61
2006-06-26,17.89
2006-06-27,17.555
2006-06-28,17.62
2006-06-29,17.955
2006-06-30,17.745
2006-07-03,17.835
2006-07-05,17.685
2006-07-06,17.49
2006-07-07,17.33
2006-07-10,17.345
2006-07-11,16.95
2006-07-12,16.835
2006-07-13,16.735
2006-07-14,16.25
2006-07-17,16.625
2006-07-18,16.665
2006-07-19,16.945
2006-07-20,16.885
2006-07-21,16.54
2006-07-24,17.06
2006-07-25,17.37
2006-07-26,17.185
2006-07-27,16.9
2006-07-28,17.15
2006-07-31,17.405
2006-08-01,17.215
2006-08-02,17.43
2006-08-03,17.84
2006-08-04,17.725
2006-08-07,17.48
2006-08-08,17.495
2006-08-09,17.425
2006-08-10,17.545
2006-08-11,17.485
2006-08-14,17.43
2006-08-15,17.805
2006-08-16,18.33
2006-08-17,18.58
2006-08-18,18.555
2006-08-21,18.15
2006-08-22,18.255
2006-08-23,18.14
2006-08-24,17.925
2006-08-25,17.8
2006-08-28,17.88
2006-08-29,17.855
2006-08-30,18.215
2006-08-31,18.84
2006-09-01,18.8
2006-09-05,18.97
2006-09-06,18.98
2006-09-07,19.135
2006-09-08,19.59
2006-09-11,19.515
2006-09-12,20.225
2006-09-13,20.65
2006-09-14,20.075
2006-09-15,20.265
2006-09-18,20.15
2006-09-19,20.11
2006-09-20,21.715
2006-09-21,20.705
2006-09-22,20.905
2006-09-25,21.02
2006-09-26,21.075
2006-09-27,21.03
2006-09-28,21.05
2006-09-29,20.825
2006-10-02,20.595
2006-10-03,20.8
2006-10-04,21.055
2006-10-05,21.51
2006-10-06,21.255
2006-10-09,21.34
2006-10-10,21.44
2006-10-11,21.685
2006-10-12,22.14
2006-10-13,22.12
2006-10-16,21.97
2006-10-17,21.905
2006-10-18,21.875
2006-10-19,22.135
2006-10-20,22.015
2006-10-23,22.175
2006-10-24,22.215
2006-10-25,22.075
2006-10-26,22.32
2006-10-27,22.125
2006-10-30,22.35
2006-10-31,22.145
2006-11-01,21.42
2006-11-02,21.675
2006-11-03,21.635
2006-11-06,22.4
2006-11-07,21.895
2006-11-08,23.145
2006-11-09,23.425
2006-11-10,23.535
2006-11-13,23.51
2006-11-14,23.655
2006-11-15,23.7
2006-11-16,23.665
2006-11-17,23.365
2006-11-20,23.045
2006-11-21,23.065
2006-11-22,23.175
2006-11-24,23.035
2006-11-27,22.48
2006-11-28,22.665
2006-11-29,23.15
2006-11-30,23.065
2006-12-01,23.375
2006-12-04,23.735
2006-12-05,24.46
2006-12-06,24.56
2006-12-07,24.205
2006-12-08,24.53
2006-12-11,24.7
2006-12-12,24.35
2006-12-13,24.455
2006-12-14,24.545
2006-12-15,24.425
2006-12-18,24.24
2006-12-19,24.285
2006-12-20,26.39
2006-12-21,26.82
2006-12-22,26.775
2006-12-26,27.04
2006-12-27,27.215
2006-12-28,27.025
2006-12-29,26.79
2007-01-03,27.61
2007-01-04,27.715
2007-01-05,28.125
2007-01-08,27.73
2007-01-09,27.83
2007-01-10,27.875
2007-01-11,28.415
2007-01-12,28.48
2007-01-16,28.745
2007-01-17,28.67
2007-01-18,28.59
2007-01-19,28.775
2007-01-22,28.475
2007-01-23,28.975
2007-01-24,29.23
2007-01-25,28.56
2007-01-26,28.54
2007-01-29,29.175
2007-01-30,28.82
2007-01-31,28.71
2007-02-01,28.985
2007-02-02,28.79
2007-02-05,28.58
2007-02-06,28.72
2007-02-07,28.065
2007-02-08,27.98
2007-02-09,27.42
2007-02-12,27.26
2007-02-13,27.595
2007-02-14,28.255
2007-02-15,28.205
2007-02-16,28.135
2007-02-20,27.95
2007-02-21,27.79
2007-02-22,27.995
2007-02-23,28.35
2007-02-26,27.955
2007-02-27,26.625
2007-02-28,26.31
2007-03-01,25.84
2007-03-02,24.935
2007-03-05,24.255
2007-03-06,25.67
2007-03-07,26.315
2007-03-08,26.715
2007-03-09,26.485
2007-03-12,26.085
2007-03-13,25.425
2007-03-14,24.61
2007-03-15,25.18
2007-03-16,25.505
2007-03-19,27.045
2007-03-20,26.925
2007-03-21,27.31
2007-03-22,26.95
2007-03-23,26.77
2007-03-26,26.875
2007-03-27,27.37
2007-03-28,27.06
2007-03-29,24.64
2007-03-30,24.54
2007-04-02,24.99
2007-04-03,25.0
2007-04-04,25.09
2007-04-05,24.95
2007-04-09,24.94
2007-04-10,24.94
2007-04-11,24.76
2007-04-12,24.54
2007-04-13,24.41
2007-04-16,24.63
2007-04-17,24.9
2007-04-18,25.02
2007-04-19,24.77
2007-04-20,25.11
2007-04-23,25.35
2007-04-24,25.14
2007-04-25,25.82
2007-04-26,25.82
2007-04-27,25.36
2007-04-30,24.97
2007-05-01,24.54
2007-05-02,25.06
2007-05-03,24.85
2007-05-04,24.87
2007-05-07,25.67
2007-05-08,25.23
2007-05-09,25.49
2007-05-10,24.99
2007-05-11,25.1
2007-05-14,24.78
2007-05-15,24.62
2007-05-16,24.52
2007-05-17,24.66
2007-05-18,24.57
2007-05-21,23.58
2007-05-22,23.42
2007-05-23,23.58
2007-05-24,22.82
2007-05-25,22.91
2007-05-29,23.03
2007-05-30,23.69
2007-05-31,24.01
2007-06-01,24.26
2007-06-04,23.95
2007-06-05,23.86
2007-06-06,23.4
2007-06-07,23.16
2007-06-08,23.76
2007-06-11,23.66
2007-06-12,23.07
2007-06-13,23.34
2007-06-14,23.18
2007-06-15,23.29
2007-06-18,23.15
2007-06-19,23.2
2007-06-20,25.64
2007-06-21,26.46
2007-06-22,26.01
2007-06-25,25.57
2007-06-26,25.19
2007-06-27,25.67
2007-06-28,25.71
2007-06-29,25.46
2007-07-02,25.61
2007-07-03,26.3
2007-07-05,26.76
2007-07-06,27.38
2007-07-09,26.8
2007-07-10,26.0
2007-07-11,25.78
2007-07-12,25.88
2007-07-13,26.05
2007-07-16,26.2
2007-07-17,25.45
2007-07-18,25.25
2007-07-19,25.46
2007-07-20,25.23
2007-07-23,25.52
2007-07-24,25.05
2007-07-25,24.18
2007-07-26,23.71
2007-07-27,23.46
2007-07-30,23.43
2007-07-31,24.0
2007-08-01,24.02
2007-08-02,23.97
2007-08-03,24.03
2007-08-06,23.47
2007-08-07,24.22
2007-08-08,25.05
2007-08-09,24.08
2007-08-10,23.21
2007-08-13,22.99
2007-08-14,21.92
2007-08-15,21.79
2007-08-16,21.36
2007-08-17,22.31
2007-08-20,22.92
2007-08-21,23.48
2007-08-22,23.77
2007-08-23,23.41
2007-08-24,23.57
2007-08-27,23.04
2007-08-28,22.44
2007-08-29,22.97
2007-08-30,22.25
2007-08-31,22.66
2007-09-04,23.57
2007-09-05,22.93
2007-09-06,23.28
2007-09-07,22.57
2007-09-10,23.01
2007-09-11,23.77
2007-09-12,23.24
2007-09-13,23.83
2007-09-14,23.49
2007-09-17,23.83
2007-09-18,25.01
2007-09-19,21.4
2007-09-20,22.1
2007-09-21,21.8
2007-09-24,20.8
2007-09-25,20.31
2007-09-26,20.88
2007-09-27,20.58
2007-09-28,20.33
2007-10-01,20.43
2007-10-02,21.15
2007-10-03,21.69
2007-10-04,21.4
2007-10-05,22.07
2007-10-08,21.8
2007-10-09,21.84
2007-10-10,21.98
2007-10-11,21.85
2007-10-12,21.8
2007-10-15,21.59
2007-10-16,21.0
2007-10-17,21.47
2007-10-18,21.28
2007-10-19,20.36
2007-10-22,20.83
2007-10-23,21.13
2007-10-24,20.9
2007-10-25,20.5
2007-10-26,20.34
2007-10-29,20.44
2007-10-30,20.44
2007-10-31,20.84
2007-11-01,19.82
2007-11-02,19.68
2007-11-05,19.15
2007-11-06,19.86
2007-11-07,18.91
2007-11-08,19.46
2007-11-09,19.98
2007-11-12,20.16
2007-11-13,21.29
2007-11-14,21.48
2007-11-15,23.08
2007-11-16,22.21
2007-11-19,21.52
2007-11-20,20.88
2007-11-21,20.67
2007-11-23,20.59
2007-11-26,21.0
2007-11-27,21.22
2007-11-28,22.44
2007-11-29,22.43
2007-11-30,22.84
2007-12-03,22.91
2007-12-04,23.05
2007-12-05,22.24
2007-12-06,22.18
2007-12-07,22.23
2007-12-10,23.17
2007-12-11,22.38
2007-12-12,22.6
2007-12-13,21.95
2007-12-14,21.44
2007-12-17,21.26
2007-12-18,21.48
2007-12-19,20.18
2007-12-20,19.19
2007-12-21,19.05
2007-12-24,19.35
2007-12-26,19.13
2007-12-27,19.24
2007-12-28,19.25
2007-12-31,19.66
2008-01-02,19.85
2008-01-03,19.73
2008-01-04,19.25
2008-01-07,19.18
2008-01-08,18.87
2008-01-09,19.03
2008-01-10,19.05
2008-01-11,18.0
2008-01-14,17.77
2008-01-15,17.24
2008-01-16,17.08
2008-01-17,16.65
2008-01-18,16.57
2008-01-22,17.86
2008-01-23,19.88
2008-01-24,20.1
2008-01-25,20.93
2008-01-28,20.98
2008-01-29,21.61
2008-01-30,21.4
2008-01-31,22.16
2008-02-01,22.7
2008-02-04,22.47
2008-02-05,20.46
2008-02-06,19.94
2008-02-07,19.86
2008-02-08,19.7
2008-02-11,19.79
2008-02-12,19.26
2008-02-13,19.2
2008-02-14,18.75
2008-02-15,18.78
2008-02-19,18.85
2008-02-20,19.55
2008-02-21,19.42
2008-02-22,19.45
2008-02-25,20.2
2008-02-26,20.8
2008-02-27,20.03
2008-02-28,19.07
2008-02-29,18.28
2008-03-03,18.8
2008-03-04,18.5
2008-03-05,18.71
2008-03-06,18.42
2008-03-07,17.85
2008-03-10,17.39
2008-03-11,18.4
2008-03-12,18.53
2008-03-13,18.69
2008-03-14,19.28
2008-03-17,18.26
2008-03-18,20.37
2008-03-19,19.48
2008-03-20,20.54
2008-03-24,21.27
2008-03-25,21.37
2008-03-26,19.75
2008-03-27,19.17
2008-03-28,19.12
2008-03-31,19.45
2008-04-01,19.38
2008-04-02,20.12
2008-04-03,20.42
2008-04-04,20.35
2008-04-07,19.56
2008-04-08,19.4
2008-04-09,18.78
2008-04-10,18.87
2008-04-11,18.61
2008-04-14,18.64
2008-04-15,18.9
2008-04-16,20.27
2008-04-17,20.63
2008-04-18,21.18
2008-04-21,20.33
2008-04-22,20.13
2008-04-23,20.21
2008-04-24,20.62
2008-04-25,21.0
2008-04-28,21.11
2008-04-29,21.81
2008-04-30,20.66
2008-05-01,20.76
2008-05-02,21.12
2008-05-05,21.5
2008-05-06,21.11
2008-05-07,20.5
2008-05-08,20.71
2008-05-09,20.52
2008-05-12,20.64
2008-05-13,20.86
2008-05-14,20.96
2008-05-15,21.17
2008-05-16,21.24
2008-05-19,21.27
2008-05-20,21.37
2008-05-21,20.59
2008-05-22,20.0
2008-05-23,19.54
2008-05-27,19.7
2008-05-28,19.72
2008-05-29,19.83
2008-05-30,19.6
2008-06-02,19.63
2008-06-03,19.33
2008-06-04,19.15
2008-06-05,19.08
2008-06-06,18.57
2008-06-09,18.43
2008-06-10,18.2
2008-06-11,17.8
2008-06-12,17.52
2008-06-13,17.87
2008-06-16,18.21
2008-06-17,18.28
2008-06-18,15.95
2008-06-19,15.92
2008-06-20,15.54
2008-06-23,15.08
2008-06-24,15.03
2008-06-25,15.47
2008-06-26,14.92
2008-06-27,14.87
2008-06-30,14.16
2008-07-01,14.15
2008-07-02,13.5
2008-07-03,13.15
2008-07-07,13.02
2008-07-08,13.6
2008-07-09,13.39
2008-07-10,13.02
2008-07-11,12.0
2008-07-14,11.75
2008-07-15,11.78
2008-07-16,12.29
2008-07-17,13.9
2008-07-18,13.61
2008-07-21,12.94
2008-07-22,13.83
2008-07-23,14.18
2008-07-24,13.31
2008-07-25,13.67
2008-07-28,12.85
2008-07-29,13.64
2008-07-30,13.6
2008-07-31,13.4
2008-08-01,14.1
2008-08-04,14.31
2008-08-05,15.52
2008-08-06,14.92
2008-08-07,14.57
2008-08-08,14.92
2008-08-11,15.55
2008-08-12,15.05
2008-08-13,14.95
2008-08-14,15.02
2008-08-15,15.24
2008-08-18,15.18
2008-08-19,14.93
2008-08-20,14.9
2008-08-21,14.83
2008-08-22,14.96
2008-08-25,14.56
2008-08-26,14.93
2008-08-27,14.95
2008-08-28,15.0
2008-08-29,14.81
2008-09-02,15.3
2008-09-03,15.82
2008-09-04,15.89
2008-09-05,15.42
2008-09-08,16.45
2008-09-09,15.99
2008-09-10,15.52
2008-09-11,15.93
2008-09-12,15.55
2008-09-15,15.13
2008-09-16,15.21
2008-09-17,15.28
2008-09-18,15.26
2008-09-19,16.02
2008-09-22,15.35
2008-09-23,14.25
2008-09-24,14.7
2008-09-25,14.74
2008-09-26,14.43
2008-09-29,13.91
2008-09-30,14.05
2008-10-01,13.32
2008-10-02,12.29
2008-10-03,11.97
2008-10-06,10.99
2008-10-07,10.09
2008-10-08,9.83
2008-10-09,9.8
2008-10-10,11.11
2008-10-13,10.76
2008-10-14,10.39
2008-10-15,9.56
2008-10-16,9.52
2008-10-17,9.58
2008-10-20,10.44
2008-10-21,10.0
2008-10-22,9.6
2008-10-23,9.76
2008-10-24,9.35
2008-10-27,9.26
2008-10-28,9.96
2008-10-29,9.81
2008-10-30,10.24
2008-10-31,10.56
2008-11-03,9.94
2008-11-04,10.29
2008-11-05,9.36
2008-11-06,8.94
2008-11-07,9.14
2008-11-10,8.52
2008-11-11,8.41
2008-11-12,8.28
2008-11-13,9.08
2008-11-14,8.33
2008-11-17,8.13
2008-11-18,8.02
2008-11-19,7.14
2008-11-20,6.23
2008-11-21,6.5
2008-11-24,7.22
2008-11-25,7.62
2008-11-26,7.85
2008-11-28,7.3
2008-12-01,6.79
2008-12-02,7.14
2008-12-03,7.35
2008-12-04,7.53
2008-12-05,8.21
2008-12-08,8.56
2008-12-09,8.13
2008-12-10,8.56
2008-12-11,8.56
2008-12-12,8.4
2008-12-15,7.6
2008-12-16,7.86
2008-12-17,8.08
2008-12-18,8.04
2008-12-19,7.67
2008-12-22,7.49
2008-12-23,7.6
2008-12-24,7.43
2008-12-26,7.54
2008-12-29,7.41
2008-12-30,7.89
2008-12-31,7.93
2009-01-02,8.33
2009-01-05,8.21
2009-01-06,8.49
2009-01-07,8.09
2009-01-08,8.4
2009-01-09,8.15
2009-01-12,7.85
2009-01-13,7.79
2009-01-14,7.42
2009-01-15,7.71
2009-01-16,8.12
2009-01-20,7.29
2009-01-21,7.25
2009-01-22,7.27
2009-01-23,7.53
2009-01-26,7.88
2009-01-27,8.29
2009-01-28,9.16
2009-01-29,8.83
2009-01-30,8.22
2009-02-02,8.12
2009-02-03,8.05
2009-02-04,8.12
2009-02-05,8.76
2009-02-06,9.26
2009-02-09,9.45
2009-02-10,8.59
2009-02-11,8.62
2009-02-12,8.66
2009-02-13,8.92
2009-02-17,8.79
2009-02-18,9.02
2009-02-19,8.66
2009-02-20,8.7
2009-02-23,8.65
2009-02-24,9.83
2009-02-25,9.77
2009-02-26,9.52
2009-02-27,9.4
2009-03-02,8.6
2009-03-03,8.84
2009-03-04,9.38
2009-03-05,8.92
2009-03-06,8.65
2009-03-09,8.99
2009-03-10,10.66
2009-03-11,10.79
2009-03-12,10.9
2009-03-13,11.33
2009-03-16,11.14
2009-03-17,11.79
2009-03-18,12.17
2009-03-19,11.49
2009-03-20,10.92
2009-03-23,12.18
2009-03-24,12.51
2009-03-25,12.6
2009-03-26,13.51
2009-03-27,13.3
2009-03-30,12.52
2009-03-31,12.45
2009-04-01,12.48
2009-04-02,13.24
2009-04-03,12.14
2009-04-06,11.76
2009-04-07,11.38
2009-04-08,11.46
2009-04-09,12.2
2009-04-13,11.69
2009-04-14,11.44
2009-04-15,11.09
2009-04-16,11.95
2009-04-17,12.8
2009-04-20,12.05
2009-04-21,12.1
2009-04-22,12.63
2009-04-23,12.73
2009-04-24,12.95
2009-04-27,12.65
2009-04-28,12.5
2009-04-29,12.55
2009-04-30,12.75
2009-05-01,12.28
2009-05-04,12.89
2009-05-05,13.49
2009-05-06,13.04
2009-05-07,12.32
2009-05-08,12.58
2009-05-11,12.32
2009-05-12,11.7
2009-05-13,10.65
2009-05-14,10.35
2009-05-15,10.53
2009-05-18,10.69
2009-05-19,10.55
2009-05-20,10.31
2009-05-21,9.93
2009-05-22,9.89
2009-05-26,10.63
2009-05-27,10.08
2009-05-28,11.07
2009-05-29,11.2
2009-06-01,12.47
2009-06-02,12.85
2009-06-03,12.67
2009-06-04,12.43
2009-06-05,12.46
2009-06-08,13.64
2009-06-09,13.6
2009-06-10,13.29
2009-06-11,13.57
2009-06-12,13.8
2009-06-15,13.05
2009-06-16,12.7
2009-06-17,12.59
2009-06-18,13.12
2009-06-19,15.25
2009-06-22,14.03
2009-06-23,13.84
2009-06-24,13.47
2009-06-25,14.29
2009-06-26,14.44
2009-06-29,14.54
2009-06-30,14.68
2009-07-01,14.7
2009-07-02,13.88
2009-07-06,13.88
2009-07-07,13.41
2009-07-08,13.49
2009-07-09,13.51
2009-07-10,13.54
2009-07-13,14.0
2009-07-14,14.42
2009-07-15,15.26
2009-07-16,15.37
2009-07-17,15.04
2009-07-20,15.21
2009-07-21,15.34
2009-07-22,15.79
2009-07-23,16.5
2009-07-24,16.36
2009-07-27,15.91
2009-07-28,15.96
2009-07-29,15.73
2009-07-30,15.99
2009-07-31,16.15
2009-08-03,16.62
2009-08-04,16.55
2009-08-05,16.33
2009-08-06,16.32
2009-08-07,17.39
2009-08-10,17.32
2009-08-11,16.98
2009-08-12,17.02
2009-08-13,17.31
2009-08-14,16.65
2009-08-17,16.0
2009-08-18,16.35
2009-08-19,16.55
2009-08-20,16.66
2009-08-21,17.13
2009-08-24,16.56
2009-08-25,17.19
2009-08-26,17.02
2009-08-27,17.1
2009-08-28,17.54
2009-08-31,17.33
2009-09-01,16.87
2009-09-02,17.0
2009-09-03,17.28
2009-09-04,17.29
2009-09-08,17.67
2009-09-09,17.86
2009-09-10,18.05
2009-09-11,17.92
2009-09-14,17.95
2009-09-15,19.39
2009-09-16,19.55
2009-09-17,18.84
2009-09-18,19.05
2009-09-21,19.36
2009-09-22,21.14
2009-09-23,20.56
2009-09-24,20.29
2009-09-25,20.34
2009-09-28,21.01
2009-09-29,20.85
2009-09-30,20.96
2009-10-01,19.53
2009-10-02,19.35
2009-10-05,19.78
2009-10-06,20.38
2009-10-07,20.35
2009-10-08,20.45
2009-10-09,20.42
2009-10-12,20.49
2009-10-13,20.69
2009-10-14,21.48
2009-10-15,21.62
2009-10-16,21.87
2009-10-19,21.97
2009-10-20,22.22
2009-10-21,22.25
2009-10-22,22.76
2009-10-23,22.32
2009-10-26,22.23
2009-10-27,21.11
2009-10-28,19.96
2009-10-29,20.65
2009-10-30,19.69
2009-11-02,19.71
2009-11-03,19.91
2009-11-04,20.26
2009-11-05,20.85
2009-11-06,20.93
2009-11-09,21.2
2009-11-10,21.21
2009-11-11,21.07
2009-11-12,20.79
2009-11-13,20.96
2009-11-16,21.28
2009-11-17,20.92
2009-11-18,20.59
2009-11-19,20.14
2009-11-20,20.07
2009-11-23,20.23
2009-11-24,20.0
2009-11-25,20.34
2009-11-27,19.99
2009-11-30,19.86
2009-12-01,20.12
2009-12-02,20.17
2009-12-03,19.61
2009-12-04,19.98
2009-12-07,20.31
2009-12-08,20.33
2009-12-09,20.32
2009-12-10,20.59
2009-12-11,21.0
2009-12-14,21.48
2009-12-15,21.13
2009-12-16,21.8
2009-12-17,21.84
2009-12-18,23.37
2009-12-21,24.02
2009-12-22,24.01
2009-12-23,24.29
2009-12-24,24.28
2009-12-28,24.49
2009-12-29,24.41
2009-12-30,24.48
2009-12-31,24.26
2010-01-04,23.97
2010-01-05,24.08
2010-01-06,24.42
2010-01-07,24.2
2010-01-08,24.28
2010-01-11,23.94
2010-01-12,23.33
2010-01-13,23.46
2010-01-14,22.88
2010-01-15,22.58
2010-01-19,22.84
2010-01-20,22.42
2010-01-21,21.67
2010-01-22,21.3
2010-01-25,21.59
2010-01-26,21.41
2010-01-27,21.35
2010-01-28,21.09
2010-01-29,20.64
2010-02-01,21.07
2010-02-02,21.68
2010-02-03,21.5
2010-02-04,20.71
2010-02-05,20.25
2010-02-08,20.35
2010-02-09,20.75
2010-02-10,20.8
2010-02-11,21.22
2010-02-12,20.97
2010-02-16,21.15
2010-02-17,21.19
2010-02-18,21.11
2010-02-19,20.77
2010-02-22,20.52
2010-02-23,20.17
2010-02-24,20.45
2010-02-25,20.34
2010-02-26,20.18
2010-03-01,21.44
2010-03-02,21.71
2010-03-03,22.24
2010-03-04,22.54
2010-03-05,23.21
2010-03-08,23.22
2010-03-09,22.96
2010-03-10,23.28
2010-03-11,23.27
2010-03-12,23.38
2010-03-15,23.24
2010-03-16,23.38
2010-03-17,24.25
2010-03-18,23.94
2010-03-19,23.62
2010-03-22,24.0
2010-03-23,24.73
2010-03-24,24.48
2010-03-25,24.52
2010-03-26,25.0
2010-03-29,25.77
2010-03-30,25.94
2010-03-31,25.1
2010-04-01,26.0
2010-04-05,25.68
2010-04-06,25.48
2010-04-07,25.0
2010-04-08,24.65
2010-04-09,24.59
2010-04-12,24.29
2010-04-13,24.57
2010-04-14,25.76
2010-04-15,25.69
2010-04-16,25.18
2010-04-19,24.91
2010-04-20,25.07
2010-04-21,25.01
2010-04-22,25.51
2010-04-23,26.18
2010-04-26,25.65
2010-04-27,25.06
2010-04-28,24.69
2010-04-29,25.42
2010-04-30,24.59
2010-05-03,24.67
2010-05-04,24.0
2010-05-05,24.0
2010-05-06,22.75
2010-05-07,22.28
2010-05-10,23.73
2010-05-11,23.95
2010-05-12,24.62
2010-05-13,24.05
2010-05-14,23.2
2010-05-17,23.63
2010-05-18,22.82
2010-05-19,22.79
2010-05-20,21.81
2010-05-21,21.88
2010-05-24,21.69
2010-05-25,21.8
2010-05-26,21.46
2010-05-27,22.29
2010-05-28,21.76
2010-06-01,21.13
2010-06-02,21.88
2010-06-03,22.42
2010-06-04,20.89
2010-06-07,20.14
2010-06-08,19.7
2010-06-09,19.21
2010-06-10,19.78
2010-06-11,20.05
2010-06-14,20.8
2010-06-15,21.25
2010-06-16,21.58
2010-06-17,20.81
2010-06-18,20.67
2010-06-21,20.37
2010-06-22,20.0
2010-06-23,21.9
2010-06-24,21.32
2010-06-25,21.41
2010-06-28,20.91
2010-06-29,19.93
2010-06-30,19.92
2010-07-01,20.15
2010-07-02,19.75
2010-07-06,19.4
2010-07-07,20.11
2010-07-08,19.27
2010-07-09,19.36
2010-07-12,18.85
2010-07-13,19.61
2010-07-14,19.16
2010-07-15,19.65
2010-07-16,18.67
2010-07-19,19.16
2010-07-20,19.65
2010-07-21,19.48
2010-07-22,20.12
2010-07-23,20.99
2010-07-26,21.49
2010-07-27,21.09
2010-07-28,21.0
2010-07-29,20.89
2010-07-30,21.13
2010-08-02,21.7
2010-08-03,21.24
2010-08-04,21.43
2010-08-05,21.09
2010-08-06,20.78
2010-08-09,21.81
2010-08-10,21.55
2010-08-11,20.93
2010-08-12,20.89
2010-08-13,20.84
2010-08-16,20.81
2010-08-17,21.06
2010-08-18,21.66
2010-08-19,21.19
2010-08-20,21.59
2010-08-23,20.84
2010-08-24,20.66
2010-08-25,20.8
2010-08-26,20.5
2010-08-27,20.85
2010-08-30,20.27
2010-08-31,19.92
2010-09-01,20.75
2010-09-02,21.41
2010-09-03,21.69
2010-09-07,21.28
2010-09-08,22.27
2010-09-09,22.01
2010-09-10,22.37
2010-09-13,23.08
2010-09-14,23.52
2010-09-15,23.76
2010-09-16,23.47
2010-09-17,23.66
2010-09-20,23.9
2010-09-21,24.14
2010-09-22,26.15
2010-09-23,26.92
2010-09-24,27.33
2010-09-27,27.41
2010-09-28,27.52
2010-09-29,27.63
2010-09-30,27.89
2010-10-01,27.79
2010-10-04,27.73
2010-10-05,27.78
2010-10-06,27.84
2010-10-07,28.05
2010-10-08,29.67
2010-10-11,29.67
2010-10-12,29.41
2010-10-13,29.47
2010-10-14,29.46
2010-10-15,29.64
2010-10-18,29.34
2010-10-19,29.51
2010-10-20,29.71
2010-10-21,29.26
2010-10-22,29.49
2010-10-25,29.8
2010-10-26,29.9
2010-10-27,29.63
2010-10-28,29.49
2010-10-29,30.98
2010-11-01,30.5
2010-11-02,30.97
2010-11-03,31.43
2010-11-04,32.01
2010-11-05,32.35
2010-11-08,32.83
2010-11-09,32.28
2010-11-10,33.7
2010-11-11,33.74
2010-11-12,33.01
2010-11-15,32.9
2010-11-16,32.01
2010-11-17,32.25
2010-11-18,32.49
2010-11-19,32.56
2010-11-22,33.15
2010-11-23,32.83
2010-11-24,33.36
2010-11-26,33.05
2010-11-29,32.8
2010-11-30,32.9
2010-12-01,33.55
2010-12-02,33.62
2010-12-03,34.54
2010-12-06,34.42
2010-12-07,34.49
2010-12-08,34.51
2010-12-09,34.6
2010-12-10,34.5
2010-12-13,34.62
2010-12-14,34.51
2010-12-15,34.74
2010-12-16,35.04
2010-12-17,35.52
2010-12-20,35.88
2010-12-21,33.08
2010-12-22,32.27
2010-12-23,32.53
2010-12-27,32.16
2010-12-28,31.83
2010-12-29,32.35
2010-12-30,32.25
2010-12-31,31.9
2011-01-03,32.39
2011-01-04,31.43
2011-01-05,32.25
2011-01-06,31.7
2011-01-07,31.52
2011-01-10,32.4
2011-01-11,32.38
2011-01-12,32.37
2011-01-13,32.38
2011-01-14,32.45
2011-01-18,32.01
2011-01-19,32.0
2011-01-20,31.88
2011-01-21,32.45
2011-01-24,32.26
2011-01-25,32.04
2011-01-26,32.2
2011-01-27,32.94
2011-01-28,32.54
2011-01-31,32.62
2011-02-01,33.22
2011-02-02,32.6
2011-02-03,33.29
2011-02-04,34.0
2011-02-07,34.26
2011-02-08,34.4
2011-02-09,34.68
2011-02-10,34.79
2011-02-11,35.44
2011-02-14,35.41
2011-02-15,35.66
2011-02-16,36.6
2011-02-17,36.43
2011-02-18,36.82
2011-02-22,35.68
2011-02-23,34.61
2011-02-24,34.0
2011-02-25,35.31
2011-02-28,35.41
2011-03-01,34.61
2011-03-02,34.83
2011-03-03,35.33
2011-03-04,35.13
2011-03-07,34.38
2011-03-08,34.98
2011-03-09,35.23
2011-03-10,33.43
2011-03-11,33.42
2011-03-14,32.84
2011-03-15,33.08
2011-03-16,32.74
2011-03-17,32.85
2011-03-18,33.08
2011-03-21,33.82
2011-03-22,32.63
2011-03-23,32.26
2011-03-24,32.44
2011-03-25,33.0
2011-03-28,33.0
2011-03-29,33.94
2011-03-30,34.59
2011-03-31,32.19
2011-04-01,32.52
2011-04-04,32.0
2011-04-05,32.61
2011-04-06,32.49
2011-04-07,32.3
2011-04-08,32.31
2011-04-11,31.79
2011-04-12,31.87
2011-04-13,32.31
2011-04-14,32.25
2011-04-15,33.21
2011-04-18,32.83
2011-04-19,32.34
2011-04-20,33.46
2011-04-21,33.51
2011-04-25,33.22
2011-04-26,32.96
2011-04-27,33.23
2011-04-28,33.57
2011-04-29,34.7
2011-05-02,34.3
2011-05-03,34.5
2011-05-04,34.5
2011-05-05,33.83
2011-05-06,31.81
2011-05-09,31.8
2011-05-10,31.93
2011-05-11,31.64
2011-05-12,31.28
2011-05-13,30.92
2011-05-16,30.66
2011-05-17,30.18
2011-05-18,30.21
2011-05-19,29.97
2011-05-20,29.4
2011-05-23,28.8
2011-05-24,28.85
2011-05-25,28.85
2011-05-26,29.18
2011-05-27,29.48
2011-05-31,29.64
2011-06-01,28.76
2011-06-02,28.03
2011-06-03,27.94
2011-06-06,27.43
2011-06-07,27.37
2011-06-08,26.6
2011-06-09,27.11
2011-06-10,26.85
2011-06-13,27.03
2011-06-14,28.44
2011-06-15,27.96
2011-06-16,28.77
2011-06-17,29.19
2011-06-20,29.3
2011-06-21,30.52
2011-06-22,32.59
2011-06-23,32.53
2011-06-24,31.87
2011-06-27,32.21
2011-06-28,32.82
2011-06-29,32.83
2011-06-30,33.11
2011-07-01,33.69
2011-07-05,33.67
2011-07-06,33.86
2011-07-07,34.74
2011-07-08,34.41
2011-07-11,33.5
2011-07-12,33.04
2011-07-13,32.79
2011-07-14,32.44
2011-07-15,32.47
2011-07-18,32.12
2011-07-19,32.14
2011-07-20,32.05
2011-07-21,32.39
2011-07-22,32.47
2011-07-25,32.48
2011-07-26,33.15
2011-07-27,32.72
2011-07-28,32.26
2011-07-29,32.04
2011-08-01,31.33
2011-08-02,30.09
2011-08-03,30.21
2011-08-04,28.38
2011-08-05,28.97
2011-08-08,26.44
2011-08-09,27.29
2011-08-10,26.42
2011-08-11,27.64
2011-08-12,27.96
2011-08-15,28.12
2011-08-16,27.23
2011-08-17,27.03
2011-08-18,25.91
2011-08-19,25.45
2011-08-22,25.62
2011-08-23,26.43
2011-08-24,26.68
2011-08-25,25.93
2011-08-26,26.11
2011-08-29,27.58
2011-08-30,27.78
2011-08-31,28.05
2011-09-01,27.43
2011-09-02,26.46
2011-09-06,26.56
2011-09-07,27.47
2011-09-08,26.94
2011-09-09,26.3
2011-09-12,26.73
2011-09-13,26.93
2011-09-14,27.74
2011-09-15,28.51
2011-09-16,29.36
2011-09-19,28.7
2011-09-20,28.12
2011-09-21,27.53
2011-09-22,24.36
2011-09-23,24.06
2011-09-26,25.05
2011-09-27,25.55
2011-09-28,23.98
2011-09-29,24.01
2011-09-30,23.88
2011-10-03,23.43
2011-10-04,24.29
2011-10-05,24.07
2011-10-06,25.06
2011-10-07,25.6
2011-10-10,26.84
2011-10-11,27.84
2011-10-12,28.18
2011-10-13,27.7
2011-10-14,28.21
2011-10-17,27.21
2011-10-18,28.05
2011-10-19,27.88
2011-10-20,27.96
2011-10-21,29.57
2011-10-24,31.39
2011-10-25,30.69
2011-10-26,30.29
2011-10-27,31.3
2011-10-28,30.79
2011-10-31,30.05
2011-11-01,29.54
2011-11-02,30.21
2011-11-03,30.73
2011-11-04,29.85
2011-11-07,29.83
2011-11-08,29.57
2011-11-09,28.5
2011-11-10,28.37
2011-11-11,28.43
2011-11-14,28.02
2011-11-15,28.41
2011-11-16,28.18
2011-11-17,27.79
2011-11-18,27.62
2011-11-21,27.34
2011-11-22,27.57
2011-11-23,26.85
2011-11-25,27.1
2011-11-28,28.21
2011-11-29,28.49
2011-11-30,28.75
2011-12-01,29.16
2011-12-02,29.42
2011-12-05,31.22
2011-12-06,31.36
2011-12-07,31.3
2011-12-08,30.62
2011-12-09,31.15
2011-12-12,30.99
2011-12-13,30.44
2011-12-14,29.84
2011-12-15,30.03
2011-12-16,30.37
2011-12-19,30.12
2011-12-20,31.07
2011-12-21,29.35
2011-12-22,29.78
2011-12-23,30.29
2011-12-27,30.21
2011-12-28,30.02
2011-12-29,30.83
2011-12-30,30.51
2012-01-03,30.52
2012-01-04,30.74
2012-01-05,30.95
2012-01-06,30.31
2012-01-09,30.14
2012-01-10,30.91
2012-01-11,31.73
2012-01-12,31.95
2012-01-13,32.6
2012-01-17,32.44
2012-01-18,33.01
2012-01-19,33.26
2012-01-20,32.43
2012-01-23,32.72
2012-01-24,32.54
2012-01-25,32.38
2012-01-26,31.73
2012-01-27,31.45
2012-01-30,31.27
2012-01-31,30.41
2012-02-01,30.5
2012-02-02,30.57
2012-02-03,29.71
2012-02-06,30.32
2012-02-07,30.38
2012-02-08,29.92
2012-02-09,30.42
2012-02-10,29.9
2012-02-13,29.6
2012-02-14,29.7
2012-02-15,29.05
2012-02-16,29.7
2012-02-17,30.2
2012-02-21,29.94
2012-02-22,30.41
2012-02-23,30.21
2012-02-24,30.16
2012-02-27,30.68
2012-02-28,31.09
2012-02-29,30.68
2012-03-01,31.14
2012-03-02,32.25
2012-03-05,32.09
2012-03-06,32.11
2012-03-07,32.67
2012-03-08,33.6
2012-03-09,33.65
2012-03-12,33.37
2012-03-13,34.05
2012-03-14,34.26
2012-03-15,34.47
2012-03-16,34.19
2012-03-19,34.53
2012-03-20,34.54
2012-03-21,34.49
2012-03-22,34.21
2012-03-23,34.21
2012-03-26,34.98
2012-03-27,34.8
2012-03-28,34.12
2012-03-29,34.19
2012-03-30,34.65
2012-04-02,34.47
2012-04-03,34.62
2012-04-04,34.93
2012-04-05,33.23
2012-04-09,32.76
2012-04-10,31.37
2012-04-11,31.76
2012-04-12,31.79
2012-04-13,31.31
2012-04-16,31.65
2012-04-17,32.27
2012-04-18,31.76
2012-04-19,31.26
2012-04-20,31.49
2012-04-23,31.18
2012-04-24,31.01
2012-04-25,31.33
2012-04-26,31.3
2012-04-27,31.37
2012-04-30,30.92
2012-05-01,31.08
2012-05-02,31.59
2012-05-03,30.45
2012-05-04,29.86
2012-05-07,29.82
2012-05-08,29.77
2012-05-09,29.43
2012-05-10,30.03
2012-05-11,29.59
2012-05-14,28.7
2012-05-15,28.5
2012-05-16,28.69
2012-05-17,28.1
2012-05-18,27.96
2012-05-21,28.46
2012-05-22,28.46
2012-05-23,28.82
2012-05-24,29.0
2012-05-25,29.08
2012-05-29,29.42
2012-05-30,28.15
2012-05-31,28.24
2012-06-01,27.31
2012-06-04,27.39
2012-06-05,27.63
2012-06-06,28.4
2012-06-07,27.87
2012-06-08,28.21
2012-06-11,27.43
2012-06-12,27.53
2012-06-13,26.88
2012-06-14,27.37
2012-06-15,27.73
2012-06-18,27.66
2012-06-19,28.52
2012-06-20,28.0
2012-06-21,25.84
2012-06-22,25.83
2012-06-25,25.34
2012-06-26,25.56
2012-06-27,25.39
2012-06-28,25.3
2012-06-29,26.02
2012-07-02,26.19
2012-07-03,26.22
2012-07-05,26.81
2012-07-06,26.61
2012-07-09,26.39
2012-07-10,26.61
2012-07-11,26.18
2012-07-12,26.08
2012-07-13,26.35
2012-07-16,26.04
2012-07-17,26.29
2012-07-18,26.75
2012-07-19,27.39
2012-07-20,26.94
2012-07-23,27.22
2012-07-24,27.0
2012-07-25,26.71
2012-07-26,27.02
2012-07-27,27.94
2012-07-30,27.95
2012-07-31,27.86
2012-08-01,27.66
2012-08-02,26.95
2012-08-03,27.88
2012-08-06,28.43
2012-08-07,28.95
2012-08-08,28.84
2012-08-09,29.02
2012-08-10,28.97
2012-08-13,28.85
2012-08-14,28.77
2012-08-15,29.29
2012-08-16,29.78
2012-08-17,29.95
2012-08-20,29.7
2012-08-21,29.79
2012-08-22,29.92
2012-08-23,29.54
2012-08-24,29.76
2012-08-27,29.67
2012-08-28,29.69
2012-08-29,30.32
2012-08-30,30.26
2012-08-31,30.64
2012-09-04,30.64
2012-09-05,31.62
2012-09-06,32.73
2012-09-07,32.23
2012-09-10,32.21
2012-09-11,32.24
2012-09-12,32.72
2012-09-13,33.29
2012-09-14,32.27
2012-09-17,31.87
2012-09-18,31.35
2012-09-19,31.89
2012-09-20,29.93
2012-09-21,29.26
2012-09-24,28.94
2012-09-25,28.46
2012-09-26,28.39
2012-09-27,28.36
2012-09-28,28.26
2012-10-01,28.39
2012-10-02,28.69
2012-10-03,28.34
2012-10-04,28.85
2012-10-05,29.2
2012-10-08,31.85
2012-10-09,31.58
2012-10-10,31.3
2012-10-11,31.27
2012-10-12,32.6
2012-10-15,32.98
2012-10-16,33.21
2012-10-17,33.56
2012-10-18,33.39
2012-10-19,33.29
2012-10-22,33.17
2012-10-23,33.09
2012-10-24,32.67
2012-10-25,32.75
2012-10-26,33.58
2012-10-31,33.75
2012-11-01,34.95
2012-11-02,34.7
2012-11-05,34.52
2012-11-06,34.68
2012-11-07,34.12
2012-11-08,33.96
2012-11-09,34.04
2012-11-12,33.91
2012-11-13,33.71
2012-11-14,33.03
2012-11-15,33.36
2012-11-16,33.33
2012-11-19,34.19
2012-11-20,34.22
2012-11-21,34.6
2012-11-23,35.14
2012-11-26,34.84
2012-11-27,35.23
2012-11-28,35.88
2012-11-29,36.25
2012-11-30,36.3
2012-12-03,35.96
2012-12-04,35.88
2012-12-05,35.36
2012-12-06,35.85
2012-12-07,36.24
2012-12-10,36.22
2012-12-11,35.56
2012-12-12,35.22
2012-12-13,35.15
2012-12-14,35.06
2012-12-17,34.81
2012-12-18,35.07
2012-12-19,35.0
2012-12-20,37.99
2012-12-21,37.76
2012-12-24,37.49
2012-12-26,37.46
2012-12-27,37.32
2012-12-28,36.7
2012-12-31,37.49
2013-01-02,37.67
2013-01-03,37.86
2013-01-04,37.79
2013-01-07,37.19
2013-01-08,37.26
2013-01-09,37.63
2013-01-10,37.72
2013-01-11,37.45
2013-01-14,37.45
2013-01-15,37.9
2013-01-16,37.79
2013-01-17,38.31
2013-01-18,38.49
2013-01-22,38.52
2013-01-23,38.52
2013-01-24,38.73
2013-01-25,39.64
2013-01-28,39.77
2013-01-29,39.99
2013-01-30,39.13
2013-01-31,39.4436
2013-02-01,39.23
2013-02-04,38.81
2013-02-05,39.74
2013-02-06,40.1101
2013-02-07,39.4
2013-02-08,39.745
2013-02-11,39.62
2013-02-12,39.6
2013-02-13,39.41
2013-02-14,39.73
2013-02-15,39.33
2013-02-19,40.01
2013-02-20,39.47
2013-02-21,38.48
2013-02-22,38.87
2013-02-25,38.26
2013-02-26,38.32
2013-02-27,38.6
2013-02-28,38.45
2013-03-01,38.34
2013-03-04,39.4
2013-03-05,40.18
2013-03-06,40.64
2013-03-07,40.95
2013-03-08,41.42
2013-03-11,41.34
2013-03-12,41.2
2013-03-13,41.32
2013-03-14,41.41
2013-03-15,41.64
2013-03-18,41.55
2013-03-19,41.04
2013-03-20,41.06
2013-03-21,40.19
2013-03-22,40.33
2013-03-25,40.35
2013-03-26,40.81
2013-03-27,41.13
2013-03-28,41.7
2013-04-01,41.17
2013-04-02,41.46
2013-04-03,40.71
2013-04-04,41.1
2013-04-05,41.37
2013-04-08,42.36
2013-04-09,41.62
2013-04-10,43.3
2013-04-11,45.16
2013-04-12,43.99
2013-04-15,42.15
2013-04-16,42.46
2013-04-17,41.66
2013-04-18,41.19
2013-04-19,42.76
2013-04-22,43.39
2013-04-23,44.1
2013-04-24,44.45
2013-04-25,44.93
2013-04-26,44.8
2013-04-29,45.08
2013-04-30,45.95
2013-05-01,45.24
2013-05-02,45.95
2013-05-03,46.23
2013-05-06,46.24
2013-05-07,46.8
2013-05-08,47.11
2013-05-09,47.1
2013-05-10,46.96
2013-05-13,47.06
2013-05-14,48.05
2013-05-15,48.43
2013-05-16,47.74
2013-05-17,48.66
2013-05-20,47.83
2013-05-21,48.28
2013-05-22,47.43
2013-05-23,47.04
2013-05-24,46.67
2013-05-28,46.96
2013-05-29,46.69
2013-05-30,46.94
2013-05-31,46.82
2013-06-03,46.85
2013-06-04,46.15
2013-06-05,45.54
2013-06-06,46.5
2013-06-07,47.24
2013-06-10,47.04
2013-06-11,46.59
2013-06-12,45.92
2013-06-13,46.98
2013-06-14,46.41
2013-06-17,47.12
2013-06-18,48.18
2013-06-19,47.54
2013-06-20,44.73
2013-06-21,44.5
2013-06-24,44.04
2013-06-25,44.38
2013-06-26,45.92
2013-06-27,46.71
2013-06-28,46.26
2013-07-01,46.69
2013-07-02,46.51
2013-07-03,46.8
2013-07-05,47.29
2013-07-08,48.08
2013-07-09,48.71
2013-07-10,48.54
2013-07-11,48.45
2013-07-12,47.96
2013-07-15,47.71
2013-07-16,47.59
2013-07-17,47.89
2013-07-18,48.0
2013-07-19,47.84
2013-07-22,48.39
2013-07-23,47.99
2013-07-24,47.14
2013-07-25,46.72
2013-07-26,47.76
2013-07-29,47.64
2013-07-30,48.29
2013-07-31,49.03
2013-08-01,49.73
2013-08-02,49.49
2013-08-05,49.39
2013-08-06,49.22
2013-08-07,48.39
2013-08-08,49.3
2013-08-09,49.42
