date,close_price
1998-05-19,10.9835
1998-05-20,12.0642
1998-05-21,11.5486
1998-05-22,11.7548
1998-05-26,11.5486
1998-05-27,11.5238
1998-05-28,11.6022
1998-05-29,11.5486
1998-06-01,11.4991
1998-06-02,11.4207
1998-06-03,11.264
1998-06-04,11.3176
1998-06-05,11.5733
1998-06-08,11.3671
1998-06-09,11.4207
1998-06-10,11.7796
1998-06-11,11.7796
1998-06-12,11.961
1998-06-15,11.8579
1998-06-16,11.5733
1998-06-17,11.5486
1998-06-18,11.7301
1998-06-19,11.9116
1998-06-22,11.7301
1998-06-23,11.9363
1998-06-24,11.8084
1998-06-25,12.0147
1998-06-26,12.1178
1998-06-29,12.7076
1998-06-30,13.483
1998-07-01,13.6108
1998-07-02,13.9738
1998-07-06,14.9513
1998-07-07,14.6172
1998-07-08,14.642
1998-07-09,14.4357
1998-07-10,14.7451
1998-07-13,14.9018
1998-07-14,15.0544
1998-07-15,15.4916
1998-07-16,16.2134
1998-07-17,15.9329
1998-07-20,15.9329
1998-07-21,15.9329
1998-07-22,15.6483
1998-07-23,14.8482
1998-07-24,14.8482
1998-07-27,14.0769
1998-07-28,13.5077
1998-07-29,13.7676
1998-07-30,14.1264
1998-07-31,14.2831
1998-08-03,14.411
1998-08-04,14.3079
1998-08-05,13.9738
1998-08-06,13.6356
1998-08-07,13.9202
1998-08-10,13.9449
1998-08-11,13.4582
1998-08-12,13.5077
1998-08-13,13.4046
1998-08-14,13.4582
1998-08-17,14.0769
1998-08-18,13.9449
1998-08-19,13.8418
1998-08-20,14.4894
1998-08-21,14.5636
1998-08-24,14.4357
1998-08-25,14.4894
1998-08-26,14.2543
1998-08-27,13.6356
1998-08-28,13.6645
1998-08-31,13.3551
1998-09-01,13.0169
1998-09-02,12.8643
1998-09-03,12.9427
1998-09-04,12.9138
1998-09-08,12.9922
1998-09-09,13.0953
1998-09-10,12.9922
1998-09-11,13.1736
1998-09-14,13.8418
1998-09-15,13.9449
1998-09-16,14.4357
1998-09-17,14.5141
1998-09-18,15.3885
1998-09-21,15.0297
1998-09-22,14.9761
1998-09-23,15.4174
1998-09-24,15.5205
1998-09-25,15.7515
1998-09-28,16.1887
1998-09-29,16.0608
1998-09-30,16.3701
1998-10-01,15.9824
1998-10-02,15.9329
1998-10-05,15.6731
1998-10-06,15.108
1998-10-07,15.0049
1998-10-08,14.411
1998-10-09,15.3638
1998-10-12,16.2423
1998-10-13,16.0855
1998-10-14,15.9824
1998-10-15,16.036
1998-10-16,16.0072
1998-10-19,15.7762
1998-10-20,15.5452
1998-10-21,15.5947
1998-10-22,15.2606
1998-10-23,15.0297
1998-10-26,16.3949
1998-10-27,16.0608
1998-10-28,15.7267
1998-10-29,16.3949
1998-10-30,17.7353
1998-11-02,18.0447
1998-11-03,18.585
1998-11-04,18.9479
1998-11-05,19.2325
1998-11-06,19.6945
1998-11-09,18.9727
1998-11-10,19.2037
1998-11-11,19.5666
1998-11-12,19.876
1998-11-13,19.0758
1998-11-16,18.9727
1998-11-17,18.9232
1998-11-18,18.1725
1998-11-19,18.9232
1998-11-20,18.9974
1998-11-23,19.1789
1998-11-24,19.0758
1998-11-25,19.1006
1998-11-27,19.0263
1998-11-30,19.1542
1998-12-01,19.7976
1998-12-02,19.1789
1998-12-03,18.7665
1998-12-04,18.8696
1998-12-07,18.4076
1998-12-08,18.4571
1998-12-09,19.0263
1998-12-10,19.4388
1998-12-11,19.4635
1998-12-14,19.1789
1998-12-15,19.1006
1998-12-16,19.3851
1998-12-17,19.3356
1998-12-18,19.1789
1998-12-21,18.7912
1998-12-22,18.6634
1998-12-23,18.6139
1998-12-24,18.6881
1998-12-28,18.6634
1998-12-29,18.4076
1998-12-30,18.717
1998-12-31,19.2325
1999-01-04,19.0758
1999-01-05,17.8921
1999-01-06,16.9104
1999-01-07,17.2981
1999-01-08,17.2198
1999-01-11,16.9641
1999-01-12,16.7578
1999-01-13,16.7042
1999-01-14,17.2981
1999-01-15,16.8321
1999-01-19,16.7042
1999-01-20,17.3229
1999-01-21,16.6011
1999-01-22,16.498
1999-01-25,16.4196
1999-01-26,16.7578
1999-01-27,16.6795
1999-01-28,16.6547
1999-01-29,16.6011
1999-02-01,17.2198
1999-02-02,17.426
1999-02-03,17.8632
1999-02-04,17.2198
1999-02-05,17.0136
1999-02-08,16.8609
1999-02-09,16.1392
1999-02-10,16.3949
1999-02-11,17.3229
1999-02-12,16.7578
1999-02-16,16.6011
1999-02-17,17.1167
1999-02-18,17.1703
1999-02-19,17.0383
1999-02-22,17.8385
1999-02-23,17.7601
1999-02-24,17.7353
1999-02-25,17.7353
1999-02-26,17.6858
1999-03-01,18.2014
1999-03-02,18.0983
1999-03-03,18.123
1999-03-04,18.354
1999-03-05,18.2509
1999-03-08,18.354
1999-03-09,18.5602
1999-03-10,19.2325
1999-03-11,19.7976
1999-03-12,19.3604
1999-03-15,19.0263
1999-03-16,18.9974
1999-03-17,19.0263
1999-03-18,19.0263
1999-03-19,18.6634
1999-03-22,18.5602
1999-03-23,18.5355
1999-03-24,18.2014
1999-03-25,18.1478
1999-03-26,18.2509
1999-03-29,17.9168
1999-03-30,18.0447
1999-03-31,18.9974
1999-04-01,18.4571
1999-04-05,18.5107
1999-04-06,18.3293
1999-04-07,18.5107
1999-04-08,19.0263
1999-04-09,19.3851
1999-04-12,19.6697
1999-04-13,19.6945
1999-04-14,20.1317
1999-04-15,20.21
1999-04-16,19.6697
1999-04-19,19.2573
1999-04-20,19.2325
1999-04-21,19.4388
1999-04-22,19.645
1999-04-23,20.0574
1999-04-26,20.1605
1999-04-27,20.3132
1999-04-28,20.21
1999-04-29,20.2348
1999-04-30,20.1853
1999-05-03,20.1317
1999-05-04,20.0038
1999-05-05,19.6697
1999-05-06,19.513
1999-05-07,20.1069
1999-05-10,20.1853
1999-05-11,20.3668
1999-05-12,20.441
1999-05-13,20.9566
1999-05-14,21.0349
1999-05-17,21.1917
1999-05-18,21.369
1999-05-19,21.5505
1999-05-20,21.6536
1999-05-21,21.8103
1999-05-24,21.0886
1999-05-25,20.4163
1999-05-26,20.573
1999-05-27,20.3915
1999-05-28,20.3668
1999-06-01,20.3668
1999-06-02,20.0822
1999-06-03,19.6945
1999-06-04,18.8696
1999-06-07,19.1006
1999-06-08,19.2325
1999-06-09,19.2573
1999-06-10,18.9727
1999-06-11,19.1542
1999-06-14,19.1789
1999-06-15,19.3851
1999-06-16,19.5914
1999-06-17,19.8512
1999-06-18,20.2637
1999-06-21,20.3915
1999-06-22,20.21
1999-06-23,20.0038
1999-06-24,19.8223
1999-06-25,19.6945
1999-06-28,19.7976
1999-06-29,19.9543
1999-06-30,19.9255
1999-07-01,19.9007
1999-07-02,19.8223
1999-07-06,19.9791
1999-07-07,19.3851
1999-07-08,19.4099
1999-07-09,19.5666
1999-07-12,19.5419
1999-07-13,19.3068
1999-07-14,19.1789
1999-07-15,19.0758
1999-07-16,19.3604
1999-07-19,19.9255
1999-07-20,19.1006
1999-07-21,18.9727
1999-07-22,18.6139
1999-07-23,18.2757
1999-07-26,17.8921
1999-07-27,17.6858
1999-07-28,17.5539
1999-07-29,17.1414
1999-07-30,17.7106
1999-08-02,17.6075
1999-08-03,17.5539
1999-08-04,16.9641
1999-08-05,16.6547
1999-08-06,16.4196
1999-08-09,16.036
1999-08-10,15.8793
1999-08-11,16.3949
1999-08-12,16.267
1999-08-13,16.6011
1999-08-16,16.6259
1999-08-17,16.7042
1999-08-18,16.7578
1999-08-19,16.9641
1999-08-20,16.8857
1999-08-23,16.9104
1999-08-24,17.2198
1999-08-25,17.4508
1999-08-26,17.1703
1999-08-27,16.6547
1999-08-30,16.498
1999-08-31,16.4196
1999-09-01,16.4732
1999-09-02,16.6547
1999-09-03,17.2734
1999-09-07,17.2445
1999-09-08,17.1167
1999-09-09,16.6011
1999-09-10,16.5227
1999-09-13,16.4732
1999-09-14,16.2918
1999-09-15,16.3165
1999-09-16,16.1639
1999-09-17,16.0855
1999-09-20,15.3638
1999-09-21,14.9513
1999-09-22,15.3638
1999-09-23,15.6978
1999-09-24,15.4421
1999-09-27,15.6731
1999-09-28,15.7762
1999-09-29,15.5947
1999-09-30,15.4916
1999-10-01,15.2854
1999-10-04,15.4669
1999-10-05,15.3143
1999-10-06,15.57
1999-10-07,15.5452
1999-10-08,15.3638
1999-10-11,16.3701
1999-10-12,15.8793
1999-10-13,15.5205
1999-10-14,14.9761
1999-10-15,14.8482
1999-10-18,14.3574
1999-10-19,14.5389
1999-10-20,14.4357
1999-10-21,14.4357
1999-10-22,14.9266
1999-10-25,15.7762
1999-10-26,16.729
1999-10-27,16.7578
1999-10-28,17.2981
1999-10-29,17.3765
1999-11-01,16.9352
1999-11-02,16.7826
1999-11-03,17.0919
1999-11-04,17.2981
1999-11-05,16.8857
1999-11-08,16.3165
1999-11-09,16.3454
1999-11-10,16.498
1999-11-11,16.6011
1999-11-12,16.4732
1999-11-15,16.4485
1999-11-16,16.7042
1999-11-17,17.4013
1999-11-18,18.2014
1999-11-19,18.1725
1999-11-22,18.123
1999-11-23,17.5044
1999-11-24,17.5291
1999-11-26,17.5291
1999-11-29,17.2445
1999-11-30,17.0136
1999-12-01,16.8609
1999-12-02,16.6547
1999-12-03,16.498
1999-12-06,16.729
1999-12-07,16.6795
1999-12-08,16.2423
1999-12-09,16.036
1999-12-10,15.4421
1999-12-13,15.2359
1999-12-14,15.6483
1999-12-15,15.2606
1999-12-16,15.4669
1999-12-17,15.6731
1999-12-20,15.8298
1999-12-21,15.9329
1999-12-22,17.789
1999-12-23,18.585
1999-12-27,17.7601
1999-12-28,16.9104
1999-12-29,16.8073
1999-12-30,16.8321
1999-12-31,17.1703
2000-01-03,16.4732
2000-01-04,16.1392
2000-01-05,16.4732
2000-01-06,16.4485
2000-01-07,16.2918
2000-01-10,16.498
2000-01-11,15.9329
2000-01-12,16.036
2000-01-13,15.3638
2000-01-14,16.0608
2000-01-18,15.7762
2000-01-19,15.5452
2000-01-20,15.2854
2000-01-21,14.8729
2000-01-24,14.9761
2000-01-25,14.7203
2000-01-26,15.5205
2000-01-27,16.267
2000-01-28,16.8073
2000-01-31,16.5227
2000-02-01,16.8609
2000-02-02,17.8137
2000-02-03,18.0199
2000-02-04,18.1725
2000-02-07,18.5355
2000-02-08,18.9479
2000-02-09,18.8943
2000-02-10,18.717
2000-02-11,18.5107
2000-02-14,18.0694
2000-02-15,18.123
2000-02-16,18.1478
2000-02-17,18.0983
2000-02-18,17.5827
2000-02-22,17.7106
2000-02-23,17.6858
2000-02-24,17.7106
2000-02-25,17.8137
2000-02-28,17.2981
2000-02-29,17.5539
2000-03-01,17.8921
2000-03-02,18.0983
2000-03-03,18.2014
2000-03-06,18.2262
2000-03-07,19.4883
2000-03-08,17.5827
2000-03-09,18.0447
2000-03-10,18.4076
2000-03-13,18.1478
2000-03-14,18.123
2000-03-15,18.2014
2000-03-16,19.2037
2000-03-17,19.6697
2000-03-20,20.3668
2000-03-21,20.1317
2000-03-22,20.573
2000-03-23,20.573
2000-03-24,20.441
2000-03-27,20.0038
2000-03-28,19.2037
2000-03-29,19.1542
2000-03-30,19.0263
2000-03-31,20.7256
2000-04-03,19.0758
2000-04-04,18.8943
2000-04-05,19.3604
2000-04-06,20.6225
2000-04-07,20.6761
2000-04-10,20.0574
2000-04-11,19.7976
2000-04-12,19.3356
2000-04-13,19.3604
2000-04-14,18.5602
2000-04-17,19.7976
2000-04-18,20.6472
2000-04-19,20.5441
2000-04-20,20.7009
2000-04-24,20.6225
2000-04-25,21.8103
2000-04-26,22.2228
2000-04-27,21.8846
2000-04-28,21.963
2000-05-01,22.297
2000-05-02,21.1381
2000-05-03,21.0349
2000-05-04,21.6536
2000-05-05,21.9382
2000-05-08,22.0413
2000-05-09,21.732
2000-05-10,22.0908
2000-05-11,23.5344
2000-05-12,23.8973
2000-05-15,23.9221
2000-05-16,23.5344
2000-05-17,23.4601
2000-05-18,23.2539
2000-05-19,22.3507
2000-05-22,21.5258
2000-05-23,22.8662
2000-05-24,23.4601
2000-05-25,23.357
2000-05-26,22.4002
2000-05-30,22.891
2000-05-31,23.4065
2000-06-01,23.3818
2000-06-02,23.6911
2000-06-05,24.0252
2000-06-06,24.0788
2000-06-07,23.7695
2000-06-08,23.4065
2000-06-09,23.5344
2000-06-12,23.2003
2000-06-13,23.2539
2000-06-14,23.7942
2000-06-15,24.1531
2000-06-16,24.3098
2000-06-19,23.9757
2000-06-20,24.1036
2000-06-21,23.9221
2000-06-22,22.7879
2000-06-23,21.1917
2000-06-26,20.4163
2000-06-27,21.6784
2000-06-28,22.0166
2000-06-29,22.6847
2000-06-30,23.5344
2000-07-03,23.8726
2000-07-05,23.225
2000-07-06,23.6375
2000-07-07,23.7695
2000-07-10,23.4065
2000-07-11,23.1756
2000-07-12,23.819
2000-07-13,23.4313
2000-07-14,23.5096
2000-07-17,23.4849
2000-07-18,23.2539
2000-07-19,23.4313
2000-07-20,23.4313
2000-07-21,23.2787
2000-07-24,23.0972
2000-07-25,23.819
2000-07-26,24.285
2000-07-27,24.3882
2000-07-28,23.9221
2000-07-31,24.1819
2000-08-01,24.7717
2000-08-02,25.8812
2000-08-03,24.9285
2000-08-04,25.4935
2000-08-07,26.2937
2000-08-08,25.6997
2000-08-09,25.5471
2000-08-10,25.5719
2000-08-11,25.0068
2000-08-14,25.675
2000-08-15,26.2442
2000-08-16,26.0875
2000-08-17,25.906
2000-08-18,25.9843
2000-08-21,25.8029
2000-08-22,25.906
2000-08-23,25.3657
2000-08-24,25.5224
2000-08-25,25.906
2000-08-28,25.1842
2000-08-29,25.0316
2000-08-30,24.3098
2000-08-31,24.5408
2000-09-01,25.0316
2000-09-05,24.5408
2000-09-06,24.4377
2000-09-07,25.1594
2000-09-08,24.5408
2000-09-11,24.1531
2000-09-12,24.6439
2000-09-13,24.1283
2000-09-14,24.1819
2000-09-15,23.7159
2000-09-18,22.9941
2000-09-19,23.0972
2000-09-20,22.6847
2000-09-21,23.3282
2000-09-22,22.9446
2000-09-25,23.357
2000-09-26,23.0724
2000-09-27,21.732
2000-09-28,22.7879
2000-09-29,23.4065
2000-10-02,23.6664
2000-10-03,23.7406
2000-10-04,24.285
2000-10-05,23.5096
2000-10-06,23.6375
2000-10-09,24.3345
2000-10-10,24.7717
2000-10-11,25.0316
2000-10-12,24.7222
2000-10-13,26.372
2000-10-16,26.7845
2000-10-17,27.1722
2000-10-18,26.8629
2000-10-19,26.5783
2000-10-20,27.2217
2000-10-23,26.1658
2000-10-24,25.9843
2000-10-25,25.7781
2000-10-26,26.4752
2000-10-27,26.1658
2000-10-30,26.2689
2000-10-31,27.2217
2000-11-01,27.0938
2000-11-02,28.3807
2000-11-03,27.7909
2000-11-06,28.1744
2000-11-07,27.6094
2000-11-08,27.7125
2000-11-09,28.2281
2000-11-10,28.125
2000-11-13,28.1744
2000-11-14,28.459
2000-11-15,29.053
2000-11-16,27.5063
2000-11-17,27.3248
2000-11-20,28.1744
2000-11-21,27.8156
2000-11-22,27.3248
2000-11-24,27.7909
2000-11-27,27.4032
2000-11-28,26.7845
2000-11-29,26.834
2000-11-30,26.6566
2000-12-01,27.0691
2000-12-04,27.1433
2000-12-05,27.8651
2000-12-06,27.7909
2000-12-07,28.0713
2000-12-08,28.3559
2000-12-11,29.1808
2000-12-12,29.0282
2000-12-13,29.3087
2000-12-14,29.4407
2000-12-15,28.9499
2000-12-18,28.6653
2000-12-19,28.3312
2000-12-20,27.1722
2000-12-21,28.2281
2000-12-22,29.2056
2000-12-26,29.9562
2000-12-27,31.3214
2000-12-28,31.9649
2000-12-29,31.5277
2001-01-02,31.0905
2001-01-03,31.0368
2001-01-04,29.9026
2001-01-05,28.8962
2001-01-08,26.8092
2001-01-09,29.75
2001-01-10,29.6964
2001-01-11,30.546
2001-01-12,30.5749
2001-01-16,29.8779
2001-01-17,29.8779
2001-01-18,30.1625
2001-01-19,30.1872
2001-01-22,30.0841
2001-01-23,31.3998
2001-01-24,31.6555
2001-01-25,31.3998
2001-01-26,31.6803
2001-01-29,33.0579
2001-01-30,32.5835
2001-01-31,32.963
2001-02-01,33.3919
2001-02-02,33.4126
2001-02-05,32.8681
2001-02-06,32.5629
2001-02-07,32.5299
2001-02-08,33.4703
2001-02-09,34.4849
2001-02-12,34.6087
2001-02-13,35.3634
2001-02-14,34.8355
2001-02-15,36.4028
2001-02-16,35.0376
2001-02-20,35.1036
2001-02-21,36.2007
2001-02-22,35.4707
2001-02-23,35.2067
2001-02-26,35.4831
2001-02-27,34.1096
2001-02-28,33.8209
2001-03-01,34.3777
2001-03-02,33.7219
2001-03-05,34.2045
2001-03-06,35.7182
2001-03-07,36.9555
2001-03-08,36.7699
2001-03-09,37.1659
2001-03-12,35.8254
2001-03-13,35.7759
2001-03-14,34.5633
2001-03-15,33.9199
2001-03-16,32.2371
2001-03-19,33.8003
2001-03-20,32.732
2001-03-21,32.233
2001-03-22,31.8452
2001-03-23,30.9544
2001-03-26,30.843
2001-03-27,32.0309
2001-03-28,31.4905
2001-03-29,31.903
2001-03-30,32.5629
2001-04-02,32.666
2001-04-03,32.996
2001-04-04,32.6372
2001-04-05,34.2581
2001-04-06,34.089
2001-04-09,34.9263
2001-04-10,35.7099
2001-04-11,34.1508
2001-04-12,35.747
2001-04-16,34.2746
2001-04-17,35.8708
2001-04-18,35.0995
2001-04-19,35.8213
2001-04-20,34.6045
2001-04-23,33.0414
2001-04-24,33.0455
2001-04-25,33.1692
2001-04-26,33.0166
2001-04-27,32.4804
2001-04-30,31.9649
2001-05-01,32.5052
2001-05-02,32.7279
2001-05-03,32.0886
2001-05-04,31.7421
2001-05-07,31.3833
2001-05-08,32.7073
2001-05-09,33.6353
2001-05-10,33.8085
2001-05-11,34.2416
2001-05-14,33.924
2001-05-15,34.3694
2001-05-16,35.2232
2001-05-17,36.0275
2001-05-18,35.7965
2001-05-21,36.6462
2001-05-22,36.3987
2001-05-23,35.1407
2001-05-24,34.155
2001-05-25,34.7489
2001-05-29,34.8933
2001-05-30,34.2622
2001-05-31,35.5532
2001-06-01,35.7594
2001-06-04,35.6769
2001-06-05,36.5431
2001-06-06,36.0894
2001-06-07,36.3987
2001-06-08,35.4088
2001-06-11,35.6522
2001-06-12,35.615
2001-06-13,35.0211
2001-06-14,34.1632
2001-06-15,33.9199
2001-06-18,33.8498
2001-06-19,33.3053
2001-06-20,33.3259
2001-06-21,33.0785
2001-06-22,32.9547
2001-06-25,32.6413
2001-06-26,32.9135
2001-06-27,32.5877
2001-06-28,32.6042
2001-06-29,31.5524
2001-07-02,31.7751
2001-07-03,31.9855
2001-07-05,31.8617
2001-07-06,31.3544
2001-07-09,31.0368
2001-07-10,28.9952
2001-07-11,28.0053
2001-07-12,29.8614
2001-07-13,31.3049
2001-07-16,31.6019
2001-07-17,31.7793
2001-07-18,32.5175
2001-07-19,32.0886
2001-07-20,32.0267
2001-07-23,31.738
2001-07-24,31.074
2001-07-25,30.179
2001-07-26,30.5254
2001-07-27,30.9296
2001-07-30,31.5483
2001-07-31,30.7358
2001-08-01,30.4842
2001-08-02,30.1295
2001-08-03,30.3357
2001-08-06,30.1047
2001-08-07,29.7789
2001-08-08,29.2839
2001-08-09,29.119
2001-08-10,29.4984
2001-08-13,29.6964
2001-08-14,29.651
2001-08-15,29.0282
2001-08-16,28.0837
2001-08-17,27.5723
2001-08-20,28.2116
2001-08-21,28.2528
2001-08-22,27.9393
2001-08-23,27.8239
2001-08-24,28.8096
2001-08-27,29.2427
2001-08-28,28.8632
2001-08-29,28.8674
2001-08-30,27.9229
2001-08-31,27.696
2001-09-04,27.1846
2001-09-05,27.1186
2001-09-06,25.7575
2001-09-07,25.7864
2001-09-10,25.8194
2001-09-17,35.9161
2001-09-18,33.0414
2001-09-19,34.0271
2001-09-20,35.8419
2001-09-21,35.3511
2001-09-24,35.3469
2001-09-25,34.6375
2001-09-26,34.7489
2001-09-27,35.8419
2001-09-28,36.0687
2001-10-01,36.3781
2001-10-02,36.9596
2001-10-03,38.6012
2001-10-04,39.29
2001-10-05,39.9004
2001-10-08,39.7189
2001-10-09,39.6777
2001-10-10,39.0879
2001-10-11,38.1929
2001-10-12,37.8216
2001-10-15,38.7703
2001-10-16,38.5558
2001-10-17,36.7534
2001-10-18,35.4418
2001-10-19,35.681
2001-10-22,36.1389
2001-10-23,34.8273
2001-10-24,36.0234
2001-10-25,37.6195
2001-10-26,37.4298
2001-10-29,36.0894
2001-10-30,35.4913
2001-10-31,35.8295
2001-11-01,36.9555
2001-11-02,37.3308
2001-11-05,37.7887
2001-11-06,37.4958
2001-11-07,37.4216
2001-11-08,36.4812
2001-11-09,36.5802
2001-11-12,36.6503
2001-11-13,35.1201
2001-11-14,35.0995
2001-11-15,32.7444
2001-11-16,33.5404
2001-11-19,34.3158
2001-11-20,34.8561
2001-11-21,34.819
2001-11-23,34.852
2001-11-26,35.2232
2001-11-27,34.6087
2001-11-28,34.2498
2001-11-29,34.2292
2001-11-30,34.3942
2001-12-03,34.72
2001-12-04,35.215
2001-12-05,35.1696
2001-12-06,34.7489
2001-12-07,34.4066
2001-12-10,34.3983
2001-12-11,34.0519
2001-12-12,35.3469
2001-12-13,35.2067
2001-12-14,35.2645
2001-12-17,36.4771
2001-12-18,35.8625
2001-12-19,36.1925
2001-12-20,35.5738
2001-12-21,35.8955
2001-12-24,35.8584
2001-12-26,36.3162
2001-12-27,36.6627
2001-12-28,36.6668
2001-12-31,37.203
2002-01-02,36.3904
2002-01-03,37.2607
2002-01-04,37.6072
2002-01-07,37.7845
2002-01-08,37.6154
2002-01-09,37.4669
2002-01-10,37.2855
2002-01-11,36.7122
2002-01-14,36.3492
2002-01-15,37.1205
2002-01-16,36.9349
2002-01-17,37.8794
2002-01-18,38.6259
2002-01-22,37.8918
2002-01-23,38.1557
2002-01-24,39.7189
2002-01-25,39.8839
2002-01-28,41.2409
2002-01-29,40.1025
2002-01-30,40.9563
2002-01-31,42.8948
2002-02-01,43.5135
2002-02-04,42.7958
2002-02-05,41.4553
2002-02-06,42.8618
2002-02-07,41.8018
2002-02-08,42.3173
2002-02-11,44.1486
2002-02-12,43.8517
2002-02-13,43.5547
2002-02-14,44.194
2002-02-15,45.254
2002-02-19,45.1014
2002-02-20,46.05
2002-02-21,46.116
2002-02-22,45.6582
2002-02-25,44.8457
2002-02-26,45.2499
2002-02-27,46.2686
2002-02-28,45.287
2002-03-01,45.8562
2002-03-04,48.071
2002-03-05,47.0976
2002-03-06,47.9267
2002-03-07,46.6398
2002-03-08,46.3594
2002-03-11,45.0395
2002-03-12,45.7531
2002-03-13,46.3841
2002-03-14,47.1059
2002-03-15,47.3286
2002-03-18,47.9762
2002-03-19,46.7058
2002-03-20,46.2315
2002-03-21,45.8892
2002-03-22,45.221
2002-03-25,44.359
2002-03-26,44.7384
2002-03-27,46.3305
2002-03-28,46.2562
2002-04-01,48.5825
2002-04-02,49.0485
2002-04-03,48.5288
2002-04-04,49.7497
2002-04-05,49.7208
2002-04-08,49.9724
2002-04-09,49.7167
2002-04-10,51.0695
2002-04-11,50.4921
2002-04-12,51.8862
2002-04-15,50.9664
2002-04-16,51.4737
2002-04-17,50.1044
2002-04-18,51.0572
2002-04-19,50.4385
2002-04-22,50.2281
2002-04-23,51.4242
2002-04-24,49.8074
2002-04-25,50.9953
2002-04-26,50.6365
2002-04-29,50.4962
2002-04-30,52.6946
2002-05-01,54.1423
2002-05-02,53.7133
2002-05-03,53.2803
2002-05-06,52.2203
2002-05-07,52.4636
2002-05-08,53.0905
2002-05-09,54.4228
2002-05-10,53.7876
2002-05-13,54.2165
2002-05-14,54.3815
2002-05-15,53.2679
2002-05-16,53.4123
2002-05-17,52.5461
2002-05-20,51.8284
2002-05-21,52.1831
2002-05-22,52.7771
2002-05-23,52.5791
2002-05-24,52.4059
2002-05-28,50.987
2002-05-29,51.482
2002-05-30,51.3005
2002-05-31,52.0759
2002-06-03,49.2465
2002-06-04,46.6068
2002-06-05,45.9469
2002-06-06,48.8753
2002-06-07,48.1576
2002-06-10,49.2135
2002-06-11,48.4216
2002-06-12,47.5225
2002-06-13,45.1055
2002-06-14,43.0598
2002-06-17,45.9139
2002-06-18,48.4299
2002-06-19,48.1329
2002-06-20,47.7204
2002-06-21,47.1018
2002-06-24,46.8213
2002-06-25,44.9983
2002-06-26,42.3173
2002-06-27,45.2127
2002-06-28,44.2971
2002-07-01,42.9525
2002-07-02,42.3668
2002-07-03,40.6511
2002-07-05,42.0864
2002-07-08,40.4613
2002-07-09,38.5146
2002-07-10,36.4193
2002-07-11,36.7575
2002-07-12,37.0462
2002-07-15,36.2131
2002-07-16,38.6053
2002-07-17,39.1085
2002-07-18,37.8959
2002-07-19,35.2645
2002-07-22,35.3057
2002-07-23,36.3863
2002-07-24,38.1516
2002-07-25,37.9454
2002-07-26,36.6255
2002-07-29,36.8318
2002-07-30,37.7227
2002-07-31,38.1681
2002-08-01,37.5329
2002-08-02,36.3286
2002-08-05,34.7778
2002-08-06,36.0729
2002-08-07,38.3578
2002-08-08,39.6034
2002-08-09,39.422
2002-08-12,38.6465
2002-08-13,37.6072
2002-08-14,38.7703
2002-08-15,38.7538
2002-08-16,40.75
2002-08-19,41.5749
2002-08-20,40.5686
2002-08-21,42.0286
2002-08-22,42.5318
2002-08-23,41.5502
2002-08-26,41.5007
2002-08-27,41.0388
2002-08-28,40.5851
2002-08-29,42.3173
2002-08-30,42.0204
2002-09-03,40.2551
2002-09-04,41.4842
2002-09-05,42.2266
2002-09-06,43.53
2002-09-09,45.3282
2002-09-10,45.419
2002-09-11,46.0459
2002-09-12,45.9799
2002-09-13,47.011
2002-09-16,47.5555
2002-09-17,44.4373
2002-09-18,45.8727
2002-09-19,44.5198
2002-09-20,45.2292
2002-09-23,46.2191
2002-09-24,46.8378
2002-09-25,46.8131
2002-09-26,46.3264
2002-09-27,45.287
2002-09-30,43.464
2002-10-01,44.3796
2002-10-02,43.1587
2002-10-03,43.2825
2002-10-04,41.5089
2002-10-07,41.2862
2002-10-08,38.1764
2002-10-09,37.4752
2002-10-10,38.3331
2002-10-11,40.0571
2002-10-14,40.6346
2002-10-15,39.5622
2002-10-16,39.9004
2002-10-17,37.2937
2002-10-18,38.6548
2002-10-21,38.4321
2002-10-22,38.6218
2002-10-23,40.1479
2002-10-24,39.6117
2002-10-25,38.828
2002-10-28,37.9454
2002-10-29,38.4733
2002-10-30,37.8629
2002-10-31,38.7208
2002-11-01,38.2011
2002-11-04,35.5779
2002-11-05,36.8648
2002-11-06,38.7538
2002-11-07,37.368
2002-11-08,37.9041
2002-11-11,37.038
2002-11-12,37.3844
2002-11-13,36.675
2002-11-14,35.4707
2002-11-15,35.3882
2002-11-18,34.621
2002-11-19,35.7182
2002-11-20,35.6769
2002-11-21,36.7905
2002-11-22,36.6255
2002-11-25,37.5742
2002-11-26,36.7493
2002-11-27,37.9866
2002-11-29,37.071
2002-12-02,37.7227
2002-12-03,36.5018
2002-12-04,35.9079
2002-12-05,35.5202
2002-12-06,35.9326
2002-12-09,35.2975
2002-12-10,35.7676
2002-12-11,35.7182
2002-12-12,35.5202
2002-12-13,34.4231
2002-12-16,35.1985
2002-12-17,34.0271
2002-12-18,35.4212
2002-12-19,37.1452
2002-12-20,37.4587
2002-12-23,38.1351
2002-12-24,38.4651
2002-12-26,37.5164
2002-12-27,37.7474
2002-12-30,37.4009
2002-12-31,36.972
2003-01-02,38.2341
2003-01-03,38.7703
2003-01-06,39.4137
2003-01-07,38.6795
2003-01-08,38.5641
2003-01-09,37.7309
2003-01-10,38.5063
2003-01-13,37.9536
2003-01-14,38.0279
2003-01-15,37.2937
2003-01-16,37.5164
2003-01-17,36.8318
2003-01-21,36.5678
2003-01-22,35.215
2003-01-23,34.951
2003-01-24,35.3552
2003-01-27,34.7943
2003-01-28,34.8933
2003-01-29,36.6668
2003-01-30,35.9821
2003-01-31,36.9308
2003-02-03,35.6439
2003-02-04,35.4459
2003-02-05,35.149
2003-02-06,34.522
2003-02-07,34.2333
2003-02-10,34.2911
2003-02-11,33.9859
2003-02-12,33.4992
2003-02-13,32.1628
2003-02-14,32.4598
2003-02-18,30.777
2003-02-19,31.5194
2003-02-20,30.7193
2003-02-21,30.8018
2003-02-24,29.9934
2003-02-25,30.2738
2003-02-26,29.7871
2003-02-27,29.9521
2003-02-28,29.8284
2003-03-03,29.3582
2003-03-04,29.8366
2003-03-05,29.6881
2003-03-06,29.6551
2003-03-07,30.1748
2003-03-10,29.6964
2003-03-11,29.6386
2003-03-12,30.612
2003-03-13,31.4122
2003-03-14,32.4515
2003-03-17,34.2168
2003-03-18,34.3158
2003-03-19,35.1902
2003-03-20,33.26
2003-03-21,33.0207
2003-03-24,33.3259
2003-03-25,32.7073
2003-03-26,33.3919
2003-03-27,33.8704
2003-03-28,34.3158
2003-03-31,33.029
2003-04-01,33.227
2003-04-02,32.7238
2003-04-03,32.0886
2003-04-04,32.2536
2003-04-07,31.5772
2003-04-08,31.2224
2003-04-09,30.8347
2003-04-10,30.0923
2003-04-11,29.8366
2003-04-14,30.3811
2003-04-15,31.4947
2003-04-16,31.6102
2003-04-17,32.2948
2003-04-21,33.1445
2003-04-22,35.3057
2003-04-23,36.8153
2003-04-24,36.6833
2003-04-25,36.2956
2003-04-28,36.2461
2003-04-29,36.4771
2003-04-30,36.6503
2003-05-01,35.6357
2003-05-02,36.873
2003-05-05,37.1205
2003-05-06,37.4257
2003-05-07,37.2855
2003-05-08,36.8565
2003-05-09,37.2855
2003-05-12,36.8648
2003-05-13,36.8565
2003-05-14,36.8235
2003-05-15,36.972
2003-05-16,36.8318
2003-05-19,35.7099
2003-05-20,34.6375
2003-05-21,34.555
2003-05-22,35.1077
2003-05-23,35.0087
2003-05-27,35.3552
2003-05-28,35.215
2003-05-29,35.6192
2003-05-30,35.7924
2003-06-02,35.6439
2003-06-03,35.0252
2003-06-04,34.9675
2003-06-05,35.9574
2003-06-06,36.1389
2003-06-09,35.116
2003-06-10,35.1985
2003-06-11,35.4294
2003-06-12,36.2378
2003-06-13,36.3863
2003-06-16,36.6998
2003-06-17,36.5266
2003-06-18,37.8794
2003-06-19,38.1269
2003-06-20,37.5412
2003-06-23,36.9143
2003-06-24,36.5018
2003-06-25,35.8089
2003-06-26,36.2213
2003-06-27,36.1059
2003-06-30,35.8666
2003-07-01,36.8483
2003-07-02,36.6338
2003-07-03,36.5513
2003-07-07,36.4111
2003-07-08,37.1535
2003-07-09,37.4504
2003-07-10,37.2525
2003-07-11,37.2525
2003-07-14,36.708
2003-07-15,36.972
2003-07-16,36.6668
2003-07-17,36.3286
2003-07-18,37.269
2003-07-21,37.2607
2003-07-22,38.5146
2003-07-23,38.3166
2003-07-24,37.6814
2003-07-25,39.1332
2003-07-28,40.8325
2003-07-29,41.1872
2003-07-30,40.4531
2003-07-31,40.5438
2003-08-01,41.1295
2003-08-04,40.9068
2003-08-05,39.6034
2003-08-06,39.6364
2003-08-07,39.7107
2003-08-08,39.4302
2003-08-11,39.5044
2003-08-12,40.2469
2003-08-13,40.2056
2003-08-14,40.816
2003-08-15,40.4943
2003-08-18,40.9975
2003-08-19,41.3357
2003-08-20,41.014
2003-08-21,41.377
2003-08-22,40.7665
2003-08-25,40.7335
2003-08-26,41.3522
2003-08-27,41.278
2003-08-28,41.9296
2003-08-29,42.0946
2003-09-02,41.8472
2003-09-03,41.3935
2003-09-04,40.717
2003-09-05,39.7189
2003-09-08,40.0406
2003-09-09,39.7684
2003-09-10,38.2671
2003-09-11,38.729
2003-09-12,38.3413
2003-09-15,38.7785
2003-09-16,39.5209
2003-09-17,39.7024
2003-09-18,39.6117
2003-09-19,39.422
2003-09-22,38.828
2003-09-23,36.84
2003-09-24,36.7163
2003-09-25,34.7613
2003-09-26,35.1077
2003-09-29,35.6274
2003-09-30,35.6192
2003-10-01,35.9491
2003-10-02,36.2543
2003-10-03,36.6255
2003-10-06,36.4853
2003-10-07,36.6503
2003-10-08,36.6915
2003-10-09,36.5018
2003-10-10,36.708
2003-10-13,36.8318
2003-10-14,37.4587
2003-10-15,37.5247
2003-10-16,37.4339
2003-10-17,37.071
2003-10-20,36.8813
2003-10-21,37.4504
2003-10-22,37.0545
2003-10-23,37.4669
2003-10-24,37.6979
2003-10-27,37.6402
2003-10-28,38.3908
2003-10-29,38.5228
2003-10-30,38.2671
2003-10-31,38.5558
2003-11-03,39.2405
2003-11-04,39.2735
2003-11-05,39.4714
2003-11-06,39.7189
2003-11-07,39.7602
2003-11-10,39.1662
2003-11-11,39.1167
2003-11-12,39.6777
2003-11-13,39.4302
2003-11-14,37.7804
2003-11-17,37.9041
2003-11-18,37.7309
2003-11-19,38.1764
2003-11-20,38.0279
2003-11-21,38.3908
2003-11-24,38.8693
2003-11-25,38.8528
2003-11-26,38.8528
2003-11-28,38.8115
2003-12-01,39.5457
2003-12-02,38.993
2003-12-03,38.9105
2003-12-04,39.7932
2003-12-05,38.8363
2003-12-08,39.5127
2003-12-09,38.9023
2003-12-10,39.3725
2003-12-11,39.7932
2003-12-12,40.0159
2003-12-15,39.9664
2003-12-16,39.6034
2003-12-17,39.4467
2003-12-18,40.1561
2003-12-19,39.9664
2003-12-22,40.5356
2003-12-23,40.9975
2003-12-24,41.2945
2003-12-26,41.5089
2003-12-29,42.1936
2003-12-30,42.5648
2003-12-31,42.3833
2004-01-02,42.2019
2004-01-05,42.9113
2004-01-06,42.9195
2004-01-07,43.167
2004-01-08,42.6556
2004-01-09,42.0616
2004-01-12,41.7977
2004-01-13,41.0718
2004-01-14,41.3687
2004-01-15,41.245
2004-01-16,41.1955
2004-01-20,42.0121
2004-01-21,42.4246
2004-01-22,43.563
2004-01-23,43.9424
2004-01-26,43.6372
2004-01-27,43.7939
2004-01-28,44.3384
2004-01-29,43.9259
2004-01-30,44.0991
2004-02-02,44.3549
2004-02-03,44.4456
2004-02-04,44.7426
2004-02-05,45.2375
2004-02-06,45.7819
2004-02-09,46.2686
2004-02-10,46.1119
2004-02-11,45.8809
2004-02-12,45.633
2004-02-13,45.476
2004-02-17,46.2941
2004-02-18,45.8478
2004-02-19,45.8148
2004-02-20,45.2941
2004-02-23,44.2198
2004-02-24,43.5835
2004-02-25,44.6082
2004-02-26,44.7405
2004-02-27,44.2281
2004-03-01,45.038
2004-03-02,44.6744
2004-03-03,44.4099
2004-03-04,43.8976
2004-03-05,44.9388
2004-03-08,44.8975
2004-03-09,44.6661
2004-03-10,44.2942
2004-03-11,43.5422
2004-03-12,44.005
2004-03-15,43.8893
2004-03-16,43.7653
2004-03-17,44.4595
2004-03-18,44.9801
2004-03-19,45.4512
2004-03-22,45.2115
2004-03-23,46.2032
2004-03-24,46.7982
2004-03-25,47.0709
2004-03-26,47.8312
2004-03-29,48.327
2004-03-30,48.9468
2004-03-31,49.112
2004-04-01,49.9467
2004-04-02,49.5831
2004-04-05,50.8888
2004-04-06,50.4921
2004-04-07,51.3681
2004-04-08,50.4095
2004-04-12,50.5665
2004-04-13,50.55
2004-04-14,50.5747
2004-04-15,50.4012
2004-04-16,50.8144
2004-04-19,50.707
2004-04-20,49.3434
2004-04-21,49.8558
2004-04-22,50.6904
2004-04-23,50.4921
2004-04-26,50.2277
2004-04-27,51.2193
2004-04-28,51.4424
2004-04-29,51.4424
2004-04-30,50.9549
2004-05-03,50.7318
2004-05-04,50.8061
2004-05-05,52.0705
2004-05-06,51.0293
2004-05-07,50.3599
2004-05-10,49.4261
2004-05-11,49.707
2004-05-12,50.4838
2004-05-13,49.863
2004-05-14,49.6809
2004-05-17,49.6644
2004-05-18,50.0038
2004-05-19,50.2604
2004-05-20,50.3845
2004-05-21,50.6825
2004-05-24,51.3861
2004-05-25,52.4704
2004-05-26,52.5449
2004-05-27,52.5118
2004-05-28,52.6939
2004-06-01,52.7601
2004-06-02,53.4885
2004-06-03,53.3396
2004-06-04,54.159
2004-06-07,54.9867
2004-06-08,54.5563
2004-06-09,53.7038
2004-06-10,53.861
2004-06-14,53.1906
2004-06-15,52.8926
2004-06-16,53.1409
2004-06-17,52.7684
2004-06-18,52.7767
2004-06-21,52.8098
2004-06-22,53.4223
2004-06-23,54.0431
2004-06-24,53.9604
2004-06-25,54.3659
2004-06-28,53.8114
2004-06-29,54.2749
2004-06-30,55.3096
2004-07-01,54.01
2004-07-02,53.5465
2004-07-06,52.9671
2004-07-07,49.921
2004-07-08,50.608
2004-07-09,50.4673
2004-07-12,50.6908
2004-07-13,51.0633
2004-07-14,50.07
2004-07-15,50.0286
2004-07-16,49.8299
2004-07-19,50.0038
2004-07-20,50.4425
2004-07-21,49.8299
2004-07-22,48.878
2004-07-23,48.7953
2004-07-26,47.0818
2004-07-27,49.9458
2004-07-28,49.9541
2004-07-29,50.7487
2004-07-30,50.7404
2004-08-02,51.4192
2004-08-03,49.9955
2004-08-04,49.921
2004-08-05,48.9111
2004-08-06,48.7042
2004-08-09,48.9774
2004-08-10,50.3349
2004-08-11,50.0286
2004-08-12,48.9856
2004-08-13,48.4219
2004-08-16,48.994
2004-08-17,49.0271
2004-08-18,49.4915
2004-08-19,48.6043
2004-08-20,49.2344
2004-08-23,49.5412
2004-08-24,49.7651
2004-08-25,50.8347
2004-08-26,51.1829
2004-08-27,51.8214
2004-08-30,51.4482
2004-08-31,51.9291
2004-09-01,52.9739
2004-09-02,52.9739
2004-09-03,52.7749
2004-09-07,52.8412
2004-09-08,52.5676
2004-09-09,52.8246
2004-09-10,53.2806
2004-09-13,53.5708
2004-09-14,53.347
2004-09-15,53.0568
2004-09-16,53.6289
2004-09-17,54.2176
2004-09-20,53.9025
2004-09-21,53.8859
2004-09-22,53.1397
2004-09-23,53.3055
2004-09-24,54.2424
2004-09-27,54.4746
2004-09-28,55.1877
2004-09-29,55.0053
2004-09-30,55.4945
2004-10-01,56.6635
2004-10-04,56.3402
2004-10-05,55.7847
2004-10-06,55.9754
2004-10-07,54.9389
2004-10-08,54.0103
2004-10-11,53.6869
2004-10-12,54.1181
2004-10-13,52.9573
2004-10-14,52.8495
2004-10-15,52.609
2004-10-18,52.0204
2004-10-19,52.2608
2004-10-20,51.8794
2004-10-21,51.8545
2004-10-22,52.0452
2004-10-25,53.0816
2004-10-26,53.6538
2004-10-27,54.7316
2004-10-28,55.0301
2004-10-29,54.6902
2004-11-01,55.3203
2004-11-02,54.8643
2004-11-03,55.9754
2004-11-04,56.647
2004-11-05,57.0947
2004-11-08,57.2439
2004-11-09,56.9123
2004-11-10,56.4811
2004-11-11,58.2969
2004-11-12,59.8557
2004-11-15,59.3245
2004-11-16,58.1621
2004-11-17,58.6436
2004-11-18,58.9259
2004-11-19,57.7054
2004-11-22,57.8548
2004-11-23,58.5357
2004-11-24,59.5652
2004-11-26,59.7064
2004-11-29,60.545
2004-11-30,61.807
2004-12-01,61.9399
2004-12-02,61.9067
2004-12-03,61.9648
2004-12-06,62.3882
2004-12-07,61.7323
2004-12-08,61.176
2004-12-09,61.0515
2004-12-10,61.3753
2004-12-13,62.1973
2004-12-14,62.2637
2004-12-15,61.8569
2004-12-16,61.9814
2004-12-17,62.9279
2004-12-20,62.7038
2004-12-21,62.6622
2004-12-22,63.8828
2004-12-23,63.1023
2004-12-27,62.0063
2004-12-28,62.3882
2004-12-29,61.4002
2004-12-30,60.8771
2004-12-31,60.7941
2005-01-03,59.3743
2005-01-04,56.543
2005-01-05,57.2487
2005-01-06,57.5227
2005-01-07,57.3152
2005-01-10,57.1989
2005-01-11,57.2985
2005-01-12,58.3945
2005-01-13,58.0458
2005-01-14,58.2119
2005-01-18,58.8595
2005-01-19,58.2451
2005-01-20,57.7967
2005-01-21,57.7967
2005-01-24,56.7921
2005-01-25,57.1574
2005-01-26,57.7303
2005-01-27,58.8263
2005-01-28,58.9342
2005-01-31,59.1999
2005-02-01,59.2165
2005-02-02,59.5652
2005-02-03,59.0754
2005-02-04,59.3743
2005-02-07,61.0266
2005-02-08,61.8818
2005-02-09,61.4749
2005-02-10,61.4334
2005-02-11,61.8984
2005-02-14,61.1428
2005-02-15,60.8356
2005-02-16,60.8273
2005-02-17,61.1474
2005-02-18,60.3822
2005-02-22,58.985
2005-02-23,58.9101
2005-02-24,59.0349
2005-02-25,60.0412
2005-02-28,59.9165
2005-03-01,60.0995
2005-03-02,60.0163
2005-03-03,59.825
2005-03-04,60.7565
2005-03-07,62.4199
2005-03-08,63.7091
2005-03-09,63.0604
2005-03-10,62.6029
2005-03-11,62.1954
2005-03-14,62.9772
2005-03-15,62.5613
2005-03-16,62.0457
2005-03-17,62.3285
2005-03-18,62.3784
2005-03-21,58.3695
2005-03-22,59.5921
2005-03-23,59.9997
2005-03-24,59.7585
2005-03-28,58.7687
2005-03-29,57.8372
2005-03-30,58.8436
2005-03-31,59.0266
2005-04-01,58.9101
2005-04-04,59.1347
2005-04-05,59.5422
2005-04-06,60.191
2005-04-07,61.1724
2005-04-08,60.7149
2005-04-11,60.4405
2005-04-12,61.2888
2005-04-13,60.0412
2005-04-14,59.5589
2005-04-15,58.4943
2005-04-18,58.2115
2005-04-19,58.2198
2005-04-20,57.7374
2005-04-21,59.1929
2005-04-22,59.0016
2005-04-25,58.3612
2005-04-26,58.0202
2005-04-27,58.8519
2005-04-28,58.3529
2005-04-29,59.0349
2005-05-02,58.8103
2005-05-03,58.802
2005-05-04,58.802
2005-05-05,58.5442
2005-05-06,58.2863
2005-05-09,58.1948
2005-05-10,56.5647
2005-05-11,56.5148
2005-05-12,54.9013
2005-05-13,54.3222
2005-05-16,56.522
2005-05-17,56.347
2005-05-18,57.072
2005-05-19,56.7637
2005-05-20,58.3469
2005-05-23,58.5803
2005-05-24,58.3303
2005-05-25,56.1637
2005-05-26,55.9387
2005-05-27,57.3887
2005-05-31,58.9969
2005-06-01,58.5303
2005-06-02,59.1886
2005-06-03,61.7134
2005-06-06,61.4051
2005-06-07,61.8884
2005-06-08,61.6218
2005-06-09,62.6384
2005-06-10,62.755
2005-06-13,62.855
2005-06-14,62.7634
2005-06-15,62.5384
2005-06-16,62.7384
2005-06-17,63.4967
2005-06-20,63.405
2005-06-21,62.955
2005-06-22,63.2217
2005-06-23,62.9967
2005-06-24,62.4967
2005-06-27,63.1884
2005-06-28,63.93
2005-06-29,63.9633
2005-06-30,63.7467
2005-07-01,63.3883
2005-07-05,63.33
2005-07-06,62.1301
2005-07-07,62.805
2005-07-08,63.08
2005-07-11,63.38
2005-07-12,62.5634
2005-07-13,62.0967
2005-07-14,62.3467
2005-07-15,63.355
2005-07-18,62.6967
2005-07-19,62.3134
2005-07-20,62.9134
2005-07-21,62.83
2005-07-22,64.5799
2005-07-25,65.2799
2005-07-26,65.2216
2005-07-27,65.0883
2005-07-28,65.7966
2005-07-29,65.1966
2005-08-01,64.9133
2005-08-02,65.7049
2005-08-03,66.0132
2005-08-04,65.7216
2005-08-05,64.9383
2005-08-08,64.4716
2005-08-09,65.2049
2005-08-10,64.7799
2005-08-11,65.3716
2005-08-12,65.0799
2005-08-15,66.069
2005-08-16,66.3778
2005-08-17,66.7116
2005-08-18,66.2025
2005-08-19,66.2776
2005-08-22,66.9203
2005-08-23,67.613
2005-08-24,67.8551
2005-08-25,67.6631
2005-08-26,67.2458
2005-08-29,67.8551
2005-08-30,67.0538
2005-08-31,68.3141
2005-09-01,68.1722
2005-09-02,68.1055
2005-09-06,69.3658
2005-09-07,70.5843
2005-09-08,69.2823
2005-09-09,69.733
2005-09-12,69.4409
2005-09-13,69.1321
2005-09-14,68.8566
2005-09-15,68.4059
2005-09-16,68.2807
2005-09-19,67.4962
2005-09-20,67.1707
2005-09-21,65.9354
2005-09-22,66.9871
2005-09-23,67.2625
2005-09-26,67.5546
2005-09-27,66.8452
2005-09-28,66.4529
2005-09-29,66.0189
2005-09-30,66.0189
2005-10-03,66.0857
2005-10-04,65.9772
2005-10-05,65.7268
2005-10-06,65.3011
2005-10-07,65.4263
2005-10-10,65.5766
2005-10-11,66.1691
2005-10-12,65.9021
2005-10-13,65.3846
2005-10-14,66.1525
2005-10-17,66.5781
2005-10-18,66.7283
2005-10-19,67.9636
2005-10-20,67.4378
2005-10-21,67.0038
2005-10-24,68.4393
2005-10-25,67.7215
2005-10-26,65.7268
2005-10-27,63.6569
2005-10-28,64.5917
2005-10-31,65.0507
2005-11-01,64.5917
2005-11-02,65.7101
2005-11-03,65.1843
2005-11-04,64.3413
2005-11-07,64.8087
2005-11-08,64.0075
2005-11-09,63.7237
2005-11-10,64.5416
2005-11-11,63.8155
2005-11-14,63.0894
2005-11-15,62.5084
2005-11-16,62.7592
2005-11-17,62.5585
2005-11-18,61.9733
2005-11-21,61.8479
2005-11-22,62.2659
2005-11-23,62.5084
2005-11-25,62.6171
2005-11-28,61.3547
2005-11-29,61.7142
2005-11-30,62.291
2005-12-01,62.9849
2005-12-02,63.1605
2005-12-05,62.709
2005-12-06,61.9482
2005-12-07,61.6222
2005-12-08,61.6556
2005-12-09,61.756
2005-12-12,61.2293
2005-12-13,61.1875
2005-12-14,61.5888
2005-12-15,61.1624
2005-12-16,60.3849
2005-12-19,59.1225
2005-12-20,60.7695
2005-12-21,62.0736
2005-12-22,63.0936
2005-12-23,63.3193
2005-12-27,62.8679
2005-12-28,62.7759
2005-12-29,62.6589
2005-12-30,62.1155
2006-01-03,62.9515
2006-01-04,63.4614
2006-01-05,62.9765
2006-01-06,63.6537
2006-01-09,64.2974
2006-01-10,63.4865
2006-01-11,63.5534
2006-01-12,63.1855
2006-01-13,63.127
2006-01-17,62.7007
2006-01-18,62.6421
2006-01-19,62.3746
2006-01-20,62.174
2006-01-23,63.1187
2006-01-24,64.3727
2006-01-25,63.7122
2006-01-26,65.0833
2006-01-27,65.5682
2006-01-30,65.8775
2006-01-31,67.8003
2006-02-01,69.3971
2006-02-02,68.2601
2006-02-03,67.9592
2006-02-06,68.8035
2006-02-07,68.6363
2006-02-08,68.0595
2006-02-09,67.9842
2006-02-10,68.5109
2006-02-13,68.419
2006-02-14,69.3887
2006-02-15,69.7816
2006-02-16,70.0742
2006-02-17,69.3101
2006-02-21,68.7487
2006-02-22,69.7961
2006-02-23,69.5028
2006-02-24,69.5447
2006-02-27,70.8015
2006-02-28,69.5782
2006-03-01,70.8602
2006-03-02,70.6759
2006-03-03,70.5502
2006-03-06,69.5698
2006-03-07,70.0474
2006-03-08,69.6704
2006-03-09,69.905
2006-03-10,70.4915
2006-03-13,70.3072
2006-03-14,71.8405
2006-03-15,71.5054
2006-03-16,72.536
2006-03-17,72.846
2006-03-20,72.5192
2006-03-21,72.3349
2006-03-22,72.6533
2006-03-23,72.67
2006-03-24,71.9746
2006-03-27,71.6897
2006-03-28,71.4551
2006-03-29,72.4941
2006-03-30,71.807
2006-03-31,71.8573
2006-04-03,71.4467
2006-04-04,71.2289
2006-04-05,70.8937
2006-04-06,70.1061
2006-04-07,70.1312
2006-04-10,70.3491
2006-04-11,68.3633
2006-04-12,68.4303
2006-04-13,68.8074
2006-04-17,68.6482
2006-04-18,70.1983
2006-04-19,70.6926
2006-04-20,71.2624
2006-04-21,71.2205
2006-04-24,71.5137
2006-04-25,70.3575
2006-04-26,70.3994
2006-04-27,69.7123
2006-04-28,68.4219
2006-05-01,69.8715
2006-05-02,70.2904
2006-05-03,69.7961
2006-05-04,70.0474
2006-05-05,71.3294
2006-05-08,71.3043
2006-05-09,71.4048
2006-05-10,70.9189
2006-05-11,70.9021
2006-05-12,69.6285
2006-05-15,69.9794
2006-05-16,69.8367
2006-05-17,68.0395
2006-05-18,67.2585
2006-05-19,68.0731
2006-05-22,67.67
2006-05-23,65.3522
2006-05-24,65.0331
2006-05-25,65.5957
2006-05-26,65.7217
2006-05-30,65.411
2006-05-31,61.296
2006-06-01,63.1268
2006-06-02,63.1856
2006-06-05,62.5053
2006-06-06,61.6991
2006-06-07,64.6468
2006-06-08,65.243
2006-06-09,64.462
2006-06-12,61.6404
2006-06-13,61.2205
2006-06-14,61.5564
2006-06-15,63.5047
2006-06-16,63.0344
2006-06-19,62.7489
2006-06-20,62.2702
2006-06-21,62.7321
2006-06-22,62.9252
2006-06-23,63.0848
2006-06-26,61.8923
2006-06-27,61.3128
2006-06-28,61.2624
2006-06-29,62.7153
2006-06-30,63.3871
2006-07-03,63.0848
2006-07-05,62.1442
2006-07-06,62.0015
2006-07-07,61.4136
2006-07-10,61.2624
2006-07-11,62.4046
2006-07-12,62.5809
2006-07-13,62.329
2006-07-14,62.371
2006-07-17,62.2618
2006-07-18,62.4969
2006-07-19,63.891
2006-07-20,63.194
2006-07-21,63.236
2006-07-24,64.0253
2006-07-25,64.4788
2006-07-26,63.9918
2006-07-27,61.9595
2006-07-28,62.6061
2006-07-31,61.8083
2006-08-01,60.6578
2006-08-02,60.683
2006-08-03,60.7082
2006-08-04,60.0448
2006-08-07,59.4821
2006-08-08,58.4408
2006-08-09,56.0642
2006-08-10,58.5835
2006-08-11,57.8697
2006-08-14,57.4582
2006-08-15,58.3491
2006-08-16,58.6185
2006-08-17,59.8733
2006-08-18,61.608
2006-08-21,61.3722
2006-08-22,61.709
2006-08-23,61.389
2006-08-24,62.3153
2006-08-25,62.6606
2006-08-28,63.0901
2006-08-29,63.5532
2006-08-30,64.5132
2006-08-31,63.5364
2006-09-01,63.8059
2006-09-05,64.0922
2006-09-06,63.9659
2006-09-07,62.9974
2006-09-08,63.3764
2006-09-11,63.8648
2006-09-12,64.1595
2006-09-13,63.9322
2006-09-14,63.6459
2006-09-15,64.2353
2006-09-18,63.8311
2006-09-19,63.3848
2006-09-20,64.589
2006-09-21,64.9343
2006-09-22,64.8669
2006-09-25,65.709
2006-09-26,65.6753
2006-09-27,66.6185
2006-09-28,66.0374
2006-09-29,65.9869
2006-10-02,65.6416
2006-10-03,65.7258
2006-10-04,66.3069
2006-10-05,66.0122
2006-10-06,66.4501
2006-10-09,65.7848
2006-10-10,65.9195
2006-10-11,65.8437
2006-10-12,66.0879
2006-10-13,66.3069
2006-10-16,65.7764
2006-10-17,65.8858
2006-10-18,65.709
2006-10-19,64.8922
2006-10-20,65.3974
2006-10-23,65.3974
2006-10-24,64.5301
2006-10-25,63.4353
2006-10-26,66.509
2006-10-27,66.189
2006-10-30,68.21
2006-10-31,67.7132
2006-11-01,67.5785
2006-11-02,66.8795
2006-11-03,67.1911
2006-11-06,67.6879
2006-11-07,69.0353
2006-11-08,67.789
2006-11-09,66.6774
2006-11-10,66.5427
2006-11-13,67.0732
2006-11-14,67.57
2006-11-15,68.7925
2006-11-16,68.7588
2006-11-17,68.7503
2006-11-20,68.7335
2006-11-21,68.8094
2006-11-22,68.9698
2006-11-24,68.5731
2006-11-27,68.1595
2006-11-28,68.0582
2006-11-29,68.6913
2006-11-30,69.4003
2006-12-01,68.2523
2006-12-04,70.7508
2006-12-05,70.2781
2006-12-06,70.4807
2006-12-07,70.3035
2006-12-08,69.8392
2006-12-11,69.4678
2006-12-12,68.9529
2006-12-13,69.2315
2006-12-14,70.7339
2006-12-15,70.5651
2006-12-18,66.6233
2006-12-19,67.594
2006-12-20,68.303
2006-12-21,68.6406
2006-12-22,68.3114
2006-12-26,68.5984
2006-12-27,68.8854
2006-12-28,69.3328
2006-12-29,68.9782
2007-01-03,68.9276
2007-01-04,67.653
2007-01-05,68.4887
2007-01-08,68.5309
2007-01-09,68.1257
2007-01-10,68.6913
2007-01-11,69.3412
2007-01-12,69.6451
2007-01-16,70.2022
2007-01-17,69.4256
2007-01-18,69.2061
2007-01-19,69.4425
2007-01-22,68.6322
2007-01-23,69.4594
2007-01-24,68.7841
2007-01-25,67.9231
2007-01-26,67.5433
2007-01-29,67.5855
2007-01-30,68.9192
2007-01-31,69.5269
2007-02-01,72.3292
2007-02-02,72.9454
2007-02-05,72.5234
2007-02-06,72.4727
2007-02-07,73.5194
2007-02-08,73.2408
2007-02-09,72.5656
2007-02-12,72.0338
2007-02-13,72.5487
2007-02-14,73.9246
2007-02-15,74.1187
2007-02-16,74.3557
2007-02-20,75.253
2007-02-21,75.0837
2007-02-22,74.889
2007-02-23,73.6785
2007-02-26,72.5104
2007-02-27,71.5115
2007-02-28,73.6023
2007-03-01,73.1791
2007-03-02,72.1802
2007-03-05,71.8416
2007-03-06,72.358
2007-03-07,71.8755
2007-03-08,72.3749
2007-03-09,72.1125
2007-03-12,72.1464
2007-03-13,69.9709
2007-03-14,69.8778
2007-03-15,70.4703
2007-03-16,70.9782
2007-03-19,72.0533
2007-03-20,71.8586
2007-03-21,72.8828
2007-03-22,72.3157
2007-03-23,73.0098
2007-03-26,73.2045
2007-03-27,73.8986
2007-03-28,73.0183
2007-03-29,74.2372
2007-03-30,74.051
2007-04-02,74.3303
2007-04-03,74.7959
2007-04-04,75.6085
2007-04-05,76.345
2007-04-09,75.4561
2007-04-10,75.6508
2007-04-11,75.126
2007-04-12,75.4561
2007-04-13,76.1418
2007-04-16,76.3958
2007-04-17,76.5481
2007-04-18,77.4793
2007-04-19,77.1322
2007-04-20,78.275
2007-04-23,77.5131
2007-04-24,76.0656
2007-04-25,76.946
2007-04-26,76.1418
2007-04-27,76.6243
2007-04-30,76.1926
2007-05-01,77.0306
2007-05-02,76.946
2007-05-03,77.5808
2007-05-04,78.2411
2007-05-07,79.35
2007-05-08,79.5447
2007-05-09,80.8229
2007-05-10,80.0103
2007-05-11,80.1457
2007-05-14,79.5345
2007-05-15,79.2205
2007-05-16,79.9928
2007-05-17,80.3917
2007-05-18,79.9843
2007-05-21,80.1795
2007-05-22,80.3747
2007-05-23,79.6024
2007-05-24,78.7876
2007-05-25,79.1271
2007-05-29,79.5939
2007-05-30,80.0098
2007-05-31,80.85
2007-06-01,81.2659
2007-06-04,81.0537
2007-06-05,81.1641
2007-06-06,81.0707
2007-06-07,80.1965
2007-06-08,80.8246
2007-06-11,80.6888
2007-06-12,80.2559
2007-06-13,82.0298
2007-06-14,83.3368
2007-06-15,83.6508
2007-06-18,83.2519
2007-06-19,83.9818
2007-06-20,83.4047
2007-06-21,84.1686
2007-06-22,82.573
2007-06-25,82.5645
2007-06-26,82.573
2007-06-27,83.6254
2007-06-28,82.0977
2007-06-29,82.5645
2007-07-02,83.1161
2007-07-03,83.2944
2007-07-05,84.3807
2007-07-06,83.9564
2007-07-09,83.7018
2007-07-10,83.0482
2007-07-11,83.549
2007-07-12,84.9664
2007-07-13,84.9918
2007-07-16,84.7712
2007-07-17,85.3992
2007-07-18,85.1531
2007-07-19,85.2974
2007-07-20,84.7966
2007-07-23,86.3158
2007-07-24,85.1955
2007-07-25,85.6963
2007-07-26,82.7427
2007-07-27,83.0143
2007-07-30,84.177
2007-07-31,82.8106
2007-08-01,84.5505
2007-08-02,84.7202
2007-08-03,83.897
2007-08-06,84.4911
2007-08-07,86.2819
2007-08-08,84.9664
2007-08-09,83.3538
2007-08-10,84.5335
2007-08-13,83.1671
2007-08-14,81.3378
2007-08-15,78.5638
2007-08-16,78.4617
2007-08-17,79.0914
2007-08-20,82.7077
2007-08-21,82.5801
2007-08-22,83.2778
2007-08-23,83.1076
2007-08-24,85.0137
2007-08-27,83.9671
2007-08-28,82.1036
2007-08-29,83.3034
2007-08-30,83.5161
2007-08-31,83.7543
2007-09-04,84.2989
2007-09-05,83.3884
2007-09-06,83.2012
2007-09-07,82.5801
2007-09-10,82.7928
2007-09-11,83.916
2007-09-12,83.0991
2007-09-13,83.5501
2007-09-14,83.6522
2007-09-17,82.6311
2007-09-18,85.0477
2007-09-19,85.0562
2007-09-20,84.0862
2007-09-21,84.4436
2007-09-24,84.4691
2007-09-25,85.9922
2007-09-26,87.2515
2007-09-27,87.3366
2007-09-28,86.8686
2007-10-01,88.8342
2007-10-02,88.647
2007-10-03,88.596
2007-10-04,88.7491
2007-10-05,88.9619
2007-10-08,90.7147
2007-10-09,91.472
2007-10-10,90.9445
2007-10-11,89.583
2007-10-12,89.3107
2007-10-15,89.1916
2007-10-16,89.4043
2007-10-17,89.2767
2007-10-18,90.7573
2007-10-19,88.5194
2007-10-22,88.196
2007-10-23,88.3747
2007-10-24,90.1446
2007-10-25,90.936
2007-10-26,90.9019
2007-10-29,91.9145
2007-10-30,92.1442
2007-10-31,93.0972
2007-11-01,91.8464
2007-11-02,93.5397
2007-11-05,94.5608
2007-11-06,96.4243
2007-11-07,94.2715
2007-11-08,96.5604
2007-11-09,95.0288
2007-11-12,93.846
2007-11-13,96.0073
2007-11-14,94.4377
2007-11-15,94.9238
2007-11-16,95.1626
2007-11-19,92.7322
2007-11-20,92.0244
2007-11-21,91.2398
2007-11-23,92.3484
2007-11-26,91.2057
2007-11-27,92.7322
2007-11-28,95.1882
2007-11-29,95.0262
2007-11-30,94.3525
2007-12-03,95.8107
2007-12-04,96.0154
2007-12-05,97.8148
2007-12-06,96.4588
2007-12-07,93.0818
2007-12-10,93.3121
2007-12-11,91.5724
2007-12-12,93.0818
2007-12-13,93.8749
2007-12-14,92.843
2007-12-17,91.598
2007-12-18,92.0585
2007-12-19,91.5212
2007-12-20,91.5468
2007-12-21,91.615
2007-12-24,92.5019
2007-12-26,91.8964
2007-12-27,90.7111
2007-12-28,90.8901
2007-12-31,90.3017
2008-01-02,89.2272
2008-01-03,89.918
2008-01-04,89.5001
2008-01-07,88.8435
2008-01-08,88.6899
2008-01-09,91.0607
2008-01-10,91.0692
2008-01-11,90.1653
2008-01-14,91.8026
2008-01-15,91.2995
2008-01-16,90.0971
2008-01-17,87.5984
2008-01-18,88.0759
2008-01-22,87.0867
2008-01-23,89.6962
2008-01-24,90.4893
2008-01-25,91.2739
2008-01-28,90.4893
2008-01-29,92.4507
2008-01-30,91.5894
2008-01-31,94.1393
2008-02-01,93.4485
2008-02-04,93.1586
2008-02-05,90.9754
2008-02-06,89.9606
2008-02-07,90.1823
2008-02-08,89.7645
2008-02-11,90.5917
2008-02-12,90.08
2008-02-13,91.615
2008-02-14,91.7515
2008-02-15,90.1695
2008-02-19,90.5628
2008-02-20,90.922
2008-02-21,89.7675
2008-02-22,91.3154
2008-02-25,93.5901
2008-02-26,94.2743
2008-02-27,93.8125
2008-02-28,94.2743
2008-02-29,90.8365
2008-03-03,91.5976
2008-03-04,90.7082
2008-03-05,91.2042
2008-03-06,90.2379
2008-03-07,90.1524
2008-03-10,88.9808
2008-03-11,90.5372
2008-03-12,91.6061
2008-03-13,93.3764
2008-03-14,91.6831
2008-03-17,91.9055
2008-03-18,93.7441
2008-03-19,92.4784
2008-03-20,91.5206
2008-03-24,92.1278
2008-03-25,92.5981
2008-03-26,91.7601
2008-03-27,91.2983
2008-03-28,93.4875
2008-03-31,93.3764
2008-04-01,95.5998
2008-04-02,96.0787
2008-04-03,95.5228
2008-04-04,95.7195
2008-04-07,95.4117
2008-04-08,95.309
2008-04-09,95.6255
2008-04-10,95.0781
2008-04-11,93.7441
2008-04-14,93.8724
2008-04-15,93.077
2008-04-16,95.7195
2008-04-17,95.8735
2008-04-18,97.9002
2008-04-21,97.1733
2008-04-22,96.4208
2008-04-23,97.447
2008-04-24,97.0792
2008-04-25,95.7537
2008-04-28,96.2839
2008-04-29,96.4208
2008-04-30,95.1979
2008-05-01,96.3267
2008-05-02,95.557
2008-05-05,94.1032
2008-05-06,94.1802
2008-05-07,93.3507
2008-05-08,93.8552
2008-05-09,91.9397
2008-05-12,93.0257
2008-05-13,94.2914
2008-05-14,94.4975
2008-05-15,95.072
2008-05-16,94.5575
2008-05-19,94.7462
2008-05-20,93.4342
2008-05-21,91.7878
2008-05-22,91.5391
2008-05-23,91.2218
2008-05-27,91.9678
2008-05-28,92.5681
2008-05-29,92.3966
2008-05-30,91.9678
2008-06-02,90.5615
2008-06-03,88.0919
2008-06-04,87.2773
2008-06-05,86.1453
2008-06-06,84.0101
2008-06-09,82.8868
2008-06-10,83.4956
2008-06-11,83.5385
2008-06-12,83.65
2008-06-13,84.0273
2008-06-16,83.8644
2008-06-17,82.5438
2008-06-18,81.4462
2008-06-19,82.4924
2008-06-20,81.3947
2008-06-23,80.966
2008-06-24,81.4205
2008-06-25,80.5201
2008-06-26,77.8361
2008-06-27,77.9133
2008-06-30,77.9476
2008-07-01,76.0782
2008-07-02,75.2464
2008-07-03,76.3526
2008-07-07,77.716
2008-07-08,80.1428
2008-07-09,78.7965
2008-07-10,78.7793
2008-07-11,78.1448
2008-07-14,77.939
2008-07-15,77.3816
2008-07-16,78.5135
2008-07-17,76.2325
2008-07-18,78.8565
2008-07-21,79.1223
2008-07-22,79.8512
2008-07-23,81.935
2008-07-24,79.3367
2008-07-25,81.0346
2008-07-28,80.2886
2008-07-29,82.5352
2008-07-30,83.9844
2008-07-31,84.4475
2008-08-01,84.1988
2008-08-04,84.5161
2008-08-05,85.7766
2008-08-06,86.1711
2008-08-07,85.0906
2008-08-08,87.423
2008-08-11,87.7918
2008-08-12,88.8894
2008-08-13,89.8412
2008-08-14,89.222
2008-08-15,90.9849
2008-08-18,91.1483
2008-08-19,89.3854
2008-08-20,89.437
2008-08-21,89.437
2008-08-22,90.0734
2008-08-25,89.179
2008-08-26,89.3424
2008-08-27,89.4456
2008-08-28,90.7441
2008-08-29,89.5144
2008-09-02,89.2994
2008-09-03,88.9296
2008-09-04,86.1089
2008-09-05,88.104
2008-09-08,90.3829
2008-09-09,90.7355
2008-09-10,88.018
2008-09-11,88.1126
2008-09-12,88.7318
2008-09-15,86.2465
2008-09-16,86.4357
2008-09-17,84.8619
2008-09-18,88.104
2008-09-19,87.2871
2008-09-22,85.9971
2008-09-23,85.7391
2008-09-24,85.1285
2008-09-25,86.2809
2008-09-26,85.9971
2008-09-29,83.9848
2008-09-30,84.0708
2008-10-01,83.3054
2008-10-02,81.0351
2008-10-03,80.6653
2008-10-06,78.8335
2008-10-07,76.0214
2008-10-08,77.2512
2008-10-09,73.9575
2008-10-10,69.9844
2008-10-13,73.8715
2008-10-14,73.7167
2008-10-15,68.5483
2008-10-16,72.1774
2008-10-17,71.1884
2008-10-20,74.2413
2008-10-21,70.6724
2008-10-22,68.7117
2008-10-23,70.1736
2008-10-24,65.848
2008-10-27,62.8725
2008-10-28,66.5016
2008-10-29,64.7902
2008-10-30,67.0777
2008-10-31,69.4857
2008-11-03,69.0471
2008-11-04,71.24
2008-11-05,68.1183
2008-11-06,64.4376
2008-11-07,65.1256
2008-11-10,64.8504
2008-11-11,63.6379
2008-11-12,61.5739
2008-11-13,61.1854
2008-11-14,59.8727
2008-11-17,59.13
2008-11-18,59.5186
2008-11-19,56.1852
2008-11-20,51.1764
2008-11-21,55.1661
2008-11-24,55.1489
2008-11-25,54.5616
2008-11-26,56.997
2008-11-28,58.0074
2008-12-01,55.477
2008-12-02,57.0229
2008-12-03,59.0005
2008-12-04,57.4201
2008-12-05,59.4841
2008-12-08,60.3563
2008-12-09,59.8382
2008-12-10,60.3045
2008-12-11,59.6568
2008-12-12,59.2596
2008-12-15,58.3614
2008-12-16,60.2786
2008-12-17,60.5722
2008-12-18,60.9954
2008-12-19,62.6621
2008-12-22,61.954
2008-12-23,61.4272
2008-12-24,61.574
2008-12-26,62.1267
2008-12-29,60.4081
2008-12-30,62.3339
2008-12-31,63.9661
2009-01-02,65.4083
2009-01-05,66.8073
2009-01-06,67.6537
2009-01-07,66.3842
2009-01-08,66.6174
2009-01-09,66.3237
2009-01-12,65.8919
2009-01-13,66.0128
2009-01-14,65.4342
2009-01-15,65.676
2009-01-16,68.1114
2009-01-20,66.4705
2009-01-21,67.8005
2009-01-22,68.6641
2009-01-23,67.8523
2009-01-26,68.6382
2009-01-27,68.4654
2009-01-28,68.9059
2009-01-29,67.8437
2009-01-30,68.0941
2009-02-02,68.0423
2009-02-03,67.2219
2009-02-04,67.8005
2009-02-05,68.7504
2009-02-06,67.9214
2009-02-09,68.4654
2009-02-10,66.8333
2009-02-11,66.4792
2009-02-12,66.6605
2009-02-13,67.6105
2009-02-17,65.7719
2009-02-18,65.6938
2009-02-19,66.0755
2009-02-20,65.4596
2009-02-23,62.7878
2009-02-24,64.1931
2009-02-25,62.354
2009-02-26,61.2523
2009-02-27,58.8061
2009-03-02,55.206
2009-03-03,53.7747
2009-03-04,54.434
2009-03-05,51.7361
2009-03-06,50.7906
2009-03-09,49.9752
2009-03-10,50.9207
2009-03-11,50.7559
2009-03-12,51.6147
2009-03-13,52.274
2009-03-16,53.1675
2009-03-17,54.7203
2009-03-18,54.9632
2009-03-19,55.102
2009-03-20,55.0412
2009-03-23,57.7998
2009-03-24,57.8171
2009-03-25,59.3786
2009-03-26,61.2697
2009-03-27,60.2547
2009-03-30,58.5718
2009-03-31,58.7887
2009-04-01,58.5892
2009-04-02,59.8037
2009-04-03,59.4306
2009-04-06,62.8919
2009-04-07,61.3391
2009-04-08,61.5993
2009-04-09,61.9984
2009-04-13,61.1829
2009-04-14,61.0875
2009-04-15,61.8162
2009-04-16,64.2711
2009-04-17,63.1608
2009-04-20,62.1025
2009-04-21,63.074
2009-04-22,63.8981
2009-04-23,65.0606
2009-04-24,65.7632
2009-04-27,66.7174
2009-04-28,65.8239
2009-04-29,67.2206
2009-04-30,66.0495
2009-05-01,67.2639
2009-05-04,67.9492
2009-05-05,68.1661
2009-05-06,68.5651
2009-05-07,66.8996
2009-05-08,69.0076
2009-05-11,67.1685
2009-05-12,66.7435
2009-05-13,65.208
2009-05-14,65.3477
2009-05-15,64.9817
2009-05-18,64.511
2009-05-19,64.5721
2009-05-20,63.718
2009-05-21,62.1753
2009-05-22,62.646
2009-05-26,64.2845
2009-05-27,63.1427
2009-05-28,63.6482
2009-05-29,63.9097
2009-06-01,65.6876
2009-06-02,65.156
2009-06-03,63.9271
2009-06-04,64.0753
2009-06-05,64.8597
2009-06-08,65.3303
2009-06-09,64.7202
2009-06-10,64.5633
2009-06-11,64.1014
2009-06-12,64.7289
2009-06-15,63.3693
2009-06-16,62.5327
2009-06-17,62.1928
2009-06-18,62.8464
2009-06-19,62.4455
2009-06-22,61.7831
2009-06-23,61.0075
2009-06-24,59.5869
2009-06-25,60.5891
2009-06-26,60.0226
2009-06-29,60.9203
2009-06-30,60.4846
2009-07-01,59.7873
2009-07-02,57.5562
2009-07-06,57.5301
2009-07-07,55.7783
2009-07-08,55.7521
2009-07-09,56.3971
2009-07-10,56.7631
2009-07-13,57.7741
2009-07-14,59.6043
2009-07-15,60.746
2009-07-16,61.94
2009-07-17,61.6698
2009-07-20,62.2799
2009-07-21,62.2451
2009-07-22,62.3409
2009-07-23,63.9794
2009-07-24,63.4303
2009-07-27,63.7702
2009-07-28,64.1799
2009-07-29,64.3455
2009-07-30,65.7922
2009-07-31,65.8358
2009-08-03,66.106
2009-08-04,66.2541
2009-08-05,65.8968
2009-08-06,65.5046
2009-08-07,66.2541
2009-08-10,65.4087
2009-08-11,64.389
2009-08-12,65.6615
2009-08-13,65.6531
2009-08-14,65.2153
2009-08-17,63.9369
2009-08-18,63.9107
2009-08-19,64.795
2009-08-20,65.0315
2009-08-21,65.3554
2009-08-24,65.5305
2009-08-25,65.5043
2009-08-26,64.9964
2009-08-27,65.6006
2009-08-28,65.049
2009-08-31,65.1716
2009-09-01,65.5393
2009-09-02,65.6619
2009-09-03,66.0034
2009-09-04,66.949
2009-09-08,67.2117
2009-09-09,67.2292
2009-09-10,68.0348
2009-09-11,68.315
2009-09-14,68.2012
2009-09-15,69.4095
2009-09-16,69.8561
2009-09-17,71.4672
2009-09-18,72.0451
2009-09-21,71.3096
2009-09-22,71.0119
2009-09-23,70.2676
2009-09-24,69.1643
2009-09-25,69.1293
2009-09-28,69.9611
2009-09-29,71.0469
2009-09-30,70.2588
2009-10-01,68.1224
2009-10-02,66.844
2009-10-05,67.4832
2009-10-06,68.8929
2009-10-07,68.1749
2009-10-08,66.7827
2009-10-09,67.1942
2009-10-12,66.3711
2009-10-13,65.9596
2009-10-14,66.6513
2009-10-15,66.5287
2009-10-16,66.9578
2009-10-19,67.4394
2009-10-20,66.4062
2009-10-21,65.1103
2009-10-22,66.3098
2009-10-23,65.2241
2009-10-26,64.9351
2009-10-27,64.7162
2009-10-28,64.0158
2009-10-29,64.4098
2009-10-30,63.3415
2009-11-02,64.3047
2009-11-03,64.6637
2009-11-04,64.5761
2009-11-05,66.52
2009-11-06,66.844
2009-11-09,67.6233
2009-11-10,67.3606
2009-11-11,67.8947
2009-11-12,67.6583
2009-11-13,68.3794
2009-11-16,69.558
2009-11-17,69.7691
2009-11-18,68.8456
2009-11-19,67.9396
2009-11-20,68.2035
2009-11-23,68.8368
2009-11-24,69.3293
2009-11-25,70.3672
2009-11-27,69.0039
2009-11-30,68.9687
2009-12-01,68.9071
2009-12-02,69.2062
2009-12-03,69.0215
2009-12-04,70.9742
2009-12-07,73.2259
2009-12-08,72.2408
2009-12-09,71.5107
2009-12-10,72.0561
2009-12-11,73.5953
2009-12-14,74.8092
2009-12-15,75.4689
2009-12-16,75.0467
2009-12-17,74.3606
2009-12-18,74.1495
2009-12-21,75.117
2009-12-22,75.3018
2009-12-23,74.818
2009-12-24,75.3193
2009-12-28,76.3485
2009-12-29,76.7355
2009-12-30,77.8438
2009-12-31,76.5508
2010-01-04,77.3512
2010-01-05,76.9466
2010-01-06,77.0082
2010-01-07,77.1049
2010-01-08,77.2281
2010-01-11,77.9581
2010-01-12,77.4831
2010-01-13,78.2308
2010-01-14,79.2951
2010-01-15,78.697
2010-01-19,78.8377
2010-01-20,77.4831
2010-01-21,76.0934
2010-01-22,74.6772
2010-01-25,75.3018
2010-01-26,74.8268
2010-01-27,75.1962
2010-01-28,74.255
2010-01-29,73.3139
2010-02-01,74.4925
2010-02-02,76.6211
2010-02-03,76.4012
2010-02-04,74.431
2010-02-05,74.0439
2010-02-08,74.431
2010-02-09,75.6624
2010-02-10,75.6624
2010-02-11,76.542
2010-02-12,76.4804
2010-02-16,76.973
2010-02-17,77.4128
2010-02-18,79.0576
2010-02-19,79.383
2010-02-22,80.3418
2010-02-23,79.2599
2010-02-24,80.3858
2010-02-25,80.4214
2010-02-26,80.8808
2010-03-01,81.2342
2010-03-02,81.5875
2010-03-03,81.8084
2010-03-04,81.6406
2010-03-05,82.259
2010-03-08,81.7024
2010-03-09,81.4639
2010-03-10,81.7201
2010-03-11,81.6759
2010-03-12,81.5257
2010-03-15,81.6229
2010-03-16,82.1618
2010-03-17,83.0011
2010-03-18,83.1954
2010-03-19,83.1159
2010-03-22,83.1866
2010-03-23,83.6018
2010-03-24,82.6654
2010-03-25,82.0823
2010-03-26,82.418
2010-03-29,82.6919
2010-03-30,82.153
2010-03-31,80.9426
2010-04-01,81.7554
2010-04-05,81.9851
2010-04-06,82.1971
2010-04-07,81.8791
2010-04-08,81.7554
2010-04-09,82.9746
2010-04-12,83.381
2010-04-13,84.0612
2010-04-14,84.4676
2010-04-15,84.8829
2010-04-16,83.7874
2010-04-19,84.1407
2010-04-20,85.2451
2010-04-21,86.2081
2010-04-22,85.3776
2010-04-23,85.519
2010-04-26,84.9447
2010-04-27,82.8067
2010-04-28,83.0364
2010-04-29,84.3174
2010-04-30,82.6919
2010-05-03,84.2203
2010-05-04,81.7642
2010-05-05,81.7289
2010-05-06,79.0697
2010-05-07,76.5077
2010-05-10,78.946
2010-05-11,79.4142
2010-05-12,80.227
2010-05-13,79.6944
2010-05-14,78.3633
2010-05-17,78.3899
2010-05-18,77.7067
2010-05-19,76.4644
2010-05-20,73.2344
2010-05-21,74.175
2010-05-24,73.6692
2010-05-25,73.3675
2010-05-26,72.6842
2010-05-27,74.2992
2010-05-28,73.4118
2010-06-01,72.5688
2010-06-02,72.9859
2010-06-03,74.0241
2010-06-04,71.9299
2010-06-07,70.5279
2010-06-08,70.4746
2010-06-09,70.2972
2010-06-10,70.8828
2010-06-11,70.5811
2010-06-14,71.2023
2010-06-15,73.1012
2010-06-16,72.8883
2010-06-17,73.119
2010-06-18,72.3559
2010-06-21,72.1251
2010-06-22,69.8801
2010-06-23,69.0105
2010-06-24,66.6678
2010-06-25,66.4726
2010-06-28,66.2419
2010-06-29,63.5354
2010-06-30,62.8965
2010-07-01,62.4795
2010-07-02,62.5061
2010-07-06,62.3641
2010-07-07,64.5914
2010-07-08,65.6651
2010-07-09,64.9996
2010-07-12,63.7484
2010-07-13,65.0528
2010-07-14,66.0733
2010-07-15,65.4255
2010-07-16,63.4733
2010-07-19,64.1122
2010-07-20,64.8487
2010-07-21,64.13
2010-07-22,65.8515
2010-07-23,66.6501
2010-07-26,67.9456
2010-07-27,64.7777
2010-07-28,65.7095
2010-07-29,65.1682
2010-07-30,64.8487
2010-08-02,65.8426
2010-08-03,66.0289
2010-08-04,66.4105
2010-08-05,66.304
2010-08-06,65.9846
2010-08-09,66.1088
2010-08-10,65.6829
2010-08-11,63.4378
2010-08-12,62.3819
2010-08-13,62.7836
2010-08-16,62.5694
2010-08-17,63.6225
2010-08-18,63.8099
2010-08-19,62.4623
2010-08-20,61.8911
2010-08-23,61.4003
2010-08-24,60.5525
2010-08-25,60.6506
2010-08-26,60.6239
2010-08-27,61.3021
2010-08-30,59.8296
2010-08-31,59.4369
2010-09-01,61.8019
2010-09-02,62.3641
2010-09-03,63.0513
2010-09-07,61.9268
2010-09-08,61.4092
2010-09-09,60.9005
2010-09-10,61.1147
2010-09-13,61.8465
2010-09-14,61.7127
2010-09-15,61.3378
2010-09-16,61.5163
2010-09-17,63.1227
2010-09-20,63.8634
2010-09-21,63.7474
2010-09-22,63.3637
2010-09-23,62.15
2010-09-24,63.917
2010-09-27,63.6046
2010-09-28,64.4078
2010-09-29,64.5685
2010-09-30,64.4435
2010-10-01,63.9348
2010-10-04,62.4088
2010-10-05,63.0692
2010-10-06,63.1852
2010-10-07,62.6943
2010-10-08,63.1673
2010-10-11,62.6408
2010-10-12,62.498
2010-10-13,63.5957
2010-10-14,63.2566
2010-10-15,63.3905
2010-10-18,63.1406
2010-10-19,61.3557
2010-10-20,62.2124
2010-10-21,62.4891
2010-10-22,62.2749
2010-10-25,62.9175
2010-10-26,63.6493
2010-10-27,63.5154
2010-10-28,63.6225
2010-10-29,64.4168
2010-11-01,64.8541
2010-11-02,65.2289
2010-11-03,65.3628
2010-11-04,65.5234
2010-11-05,65.925
2010-11-08,65.6305
2010-11-09,65.22
2010-11-10,64.6577
2010-11-11,63.676
2010-11-12,63.0156
2010-11-15,63.3925
2010-11-16,62.7104
2010-11-17,62.9886
2010-11-18,64.1465
2010-11-19,63.94
2010-11-22,63.6259
2010-11-23,63.6708
2010-11-24,65.2145
2010-11-26,64.308
2010-11-29,63.6438
2010-11-30,63.1951
2010-12-01,64.7119
2010-12-02,66.121
2010-12-03,65.753
2010-12-06,65.0978
2010-12-07,65.044
2010-12-08,65.0171
2010-12-09,64.0208
2010-12-10,64.0836
2010-12-13,63.3477
2010-12-14,63.6169
2010-12-15,62.8002
2010-12-16,63.5631
2010-12-17,63.1861
2010-12-20,63.0784
2010-12-21,62.8809
2010-12-22,63.581
2010-12-23,64.317
2010-12-27,64.2901
2010-12-28,64.6132
2010-12-29,63.4195
2010-12-30,63.4374
2010-12-31,63.2758
2011-01-03,63.59
2011-01-04,63.949
2011-01-05,65.2055
2011-01-06,66.48
2011-01-07,70.3125
2011-01-10,67.8622
2011-01-11,67.3327
2011-01-12,68.6072
2011-01-13,67.7186
2011-01-14,68.0687
2011-01-18,69.3611
2011-01-19,68.688
2011-01-20,69.9983
2011-01-21,69.6034
2011-01-24,69.2265
2011-01-25,70.7164
2011-01-26,69.4868
2011-01-27,70.3125
2011-01-28,68.5354
2011-01-31,70.2497
2011-02-01,70.8061
2011-02-02,70.3484
2011-02-03,70.2317
2011-02-04,70.5099
2011-02-07,71.1472
2011-02-08,72.0357
2011-02-09,71.8921
2011-02-10,71.8114
2011-02-11,71.8473
2011-02-14,71.2369
2011-02-15,71.8742
2011-02-16,71.5331
2011-02-17,72.1165
2011-02-18,72.5473
2011-02-22,71.1562
2011-02-23,71.3446
2011-02-24,71.9909
2011-02-25,72.1716
2011-02-28,71.5307
2011-03-01,70.6733
2011-03-02,71.1426
2011-03-03,72.8034
2011-03-04,71.5217
2011-03-07,70.7635
2011-03-08,72.4063
2011-03-09,72.668
2011-03-10,71.7654
2011-03-11,71.973
2011-03-14,71.5398
2011-03-15,70.6101
2011-03-16,69.2111
2011-03-17,69.9692
2011-03-18,70.9441
2011-03-21,71.9459
2011-03-22,72.0272
2011-03-23,71.6932
2011-03-24,71.7744
2011-03-25,71.9189
2011-03-28,70.9531
2011-03-29,71.0524
2011-03-30,71.0253
2011-03-31,70.6733
2011-04-01,71.3953
2011-04-04,70.6913
2011-04-05,71.1697
2011-04-06,72.0723
2011-04-07,72.2618
2011-04-08,71.7383
2011-04-11,71.5849
2011-04-12,70.8899
2011-04-13,69.4999
2011-04-14,68.128
2011-04-15,68.7237
2011-04-18,67.6676
2011-04-19,68.2904
2011-04-20,69.4999
2011-04-21,70.1046
2011-04-25,70.9892
2011-04-26,72.2438
2011-04-27,72.2618
2011-04-28,72.5416
2011-04-29,72.3792
2011-05-02,73.1103
2011-05-03,74.049
2011-05-04,73.4262
2011-05-05,74.5274
2011-05-06,74.9516
2011-05-09,75.1231
2011-05-10,75.6646
2011-05-11,75.0238
2011-05-12,75.5292
2011-05-13,75.7378
2011-05-16,76.491
2011-05-17,76.2822
2011-05-18,76.8086
2011-05-19,76.6361
2011-05-20,75.8285
2011-05-23,75.1025
2011-05-24,75.0118
2011-05-25,74.2223
2011-05-26,73.7595
2011-05-27,73.9954
2011-05-31,74.0045
2011-06-01,72.9609
2011-06-02,72.8974
2011-06-03,72.126
2011-06-06,72.008
2011-06-07,72.2531
2011-06-08,71.9717
2011-06-09,72.7159
2011-06-10,71.5724
2011-06-13,72.607
2011-06-14,73.6052
2011-06-15,73.5054
2011-06-16,74.2314
2011-06-17,74.3039
2011-06-20,74.7577
2011-06-21,74.7395
2011-06-22,78.2696
2011-06-23,77.0717
2011-06-24,76.7087
2011-06-27,76.7904
2011-06-28,77.7977
2011-06-29,78.9139
2011-06-30,79.3858
2011-07-01,80.1208
2011-07-05,78.7506
2011-07-06,78.3876
2011-07-07,78.3513
2011-07-08,77.3984
2011-07-11,76.491
2011-07-12,76.4456
2011-07-13,76.2006
2011-07-14,74.7668
2011-07-15,74.4038
2011-07-18,73.4872
2011-07-19,73.95
2011-07-20,74.558
2011-07-21,75.8557
2011-07-22,75.2386
2011-07-25,74.5127
2011-07-26,73.3965
2011-07-27,71.8719
2011-07-28,72.4981
2011-07-29,71.8175
2011-08-01,69.5034
2011-08-02,67.3799
2011-08-03,66.4271
2011-08-04,63.8408
2011-08-05,63.5595
2011-08-08,59.503
2011-08-09,61.8716
2011-08-10,58.2689
2011-08-11,61.1819
2011-08-12,62.5612
2011-08-15,63.5749
2011-08-16,61.7663
2011-08-17,61.6659
2011-08-18,58.752
2011-08-19,57.5737
2011-08-22,58.2222
2011-08-23,58.5328
2011-08-24,59.6928
2011-08-25,58.1309
2011-08-26,59.0352
2011-08-29,60.0948
2011-08-30,61.4375
2011-08-31,61.8577
2011-09-01,60.9077
2011-09-02,59.0443
2011-09-06,58.5967
2011-09-07,60.4145
2011-09-08,59.638
2011-09-09,58.3684
2011-09-12,58.7703
2011-09-13,59.0078
2011-09-14,59.5741
2011-09-15,60.3323
2011-09-16,61.2457
2011-09-19,59.8664
2011-09-20,58.8342
2011-09-21,55.8016
2011-09-22,53.9382
2011-09-23,54.9156
2011-09-26,57.2997
2011-09-27,58.2131
2011-09-28,56.8064
2011-09-29,57.8112
2011-09-30,56.6511
2011-10-03,54.8882
2011-10-04,56.9434
2011-10-05,58.3775
2011-10-06,59.1082
2011-10-07,59.0626
2011-10-10,61.6019
2011-10-11,61.474
2011-10-12,62.5976
2011-10-13,62.2596
2011-10-14,63.0634
2011-10-17,62.3966
2011-10-18,63.1456
2011-10-19,62.9812
2011-10-20,62.8442
2011-10-21,64.2417
2011-10-24,63.8033
2011-10-25,62.7528
2011-10-26,61.9399
2011-10-27,63.0177
2011-10-28,63.6846
2011-10-31,61.949
2011-11-01,60.3048
2011-11-02,60.4784
2011-11-03,62.9447
2011-11-04,62.5793
2011-11-07,64.4153
2011-11-08,64.8537
2011-11-09,62.7346
2011-11-10,62.4697
2011-11-11,63.6206
2011-11-14,63.0726
2011-11-15,63.3298
2011-11-16,62.5483
2011-11-17,61.2979
2011-11-18,61.353
2011-11-21,59.9371
2011-11-22,58.6867
2011-11-23,57.6018
2011-11-25,58.3649
2011-11-28,59.3487
2011-11-29,59.5602
2011-11-30,60.9485
2011-12-01,60.6635
2011-12-02,60.9853
2011-12-05,61.8679
2011-12-06,61.6289
2011-12-07,61.6564
2011-12-08,59.4682
2011-12-09,60.8657
2011-12-12,59.9095
2011-12-13,59.9555
2011-12-14,59.459
2011-12-15,60.3141
2011-12-16,59.3671
2011-12-19,58.8982
2011-12-20,60.3968
2011-12-21,60.6267
2011-12-22,61.4358
2011-12-23,61.9966
2011-12-27,61.8128
2011-12-28,61.2887
2011-12-29,61.6381
2011-12-30,61.3714
2012-01-03,62.0702
2012-01-04,62.0334
2012-01-05,62.0518
2012-01-06,61.6381
2012-01-09,61.5369
2012-01-10,62.4471
2012-01-11,63.624
2012-01-12,64.2676
2012-01-13,63.6516
2012-01-17,64.4515
2012-01-18,64.4607
2012-01-19,64.9388
2012-01-20,64.8376
2012-01-23,64.7273
2012-01-24,64.7457
2012-01-25,64.8928
2012-01-26,64.3595
2012-01-27,64.3044
2012-01-30,63.8815
2012-01-31,65.0951
2012-02-01,64.6262
2012-02-02,64.1113
2012-02-03,64.9756
2012-02-06,64.4423
2012-02-07,64.663
2012-02-08,65.0123
2012-02-09,64.8009
2012-02-10,64.4791
2012-02-13,64.9664
2012-02-14,65.0675
2012-02-15,64.7457
2012-02-16,65.0491
2012-02-17,65.2514
2012-02-21,65.0399
2012-02-22,64.7365
2012-02-23,64.856
2012-02-24,64.617
2012-02-27,64.6721
2012-02-28,65.1358
2012-02-29,65.071
2012-03-01,64.4413
2012-03-02,63.7746
2012-03-05,63.6634
2012-03-06,62.7282
2012-03-07,62.7467
2012-03-08,63.1171
2012-03-09,63.0893
2012-03-12,63.5338
2012-03-13,64.8209
2012-03-14,65.358
2012-03-15,65.5155
2012-03-16,65.7562
2012-03-19,65.321
2012-03-20,64.9043
2012-03-21,64.5802
2012-03-22,64.4413
2012-03-23,64.4876
2012-03-26,65.4414
2012-03-27,66.0803
2012-03-28,65.7007
2012-03-29,65.6821
2012-03-30,65.5247
2012-04-02,66.2933
2012-04-03,65.7007
2012-04-04,64.9043
2012-04-05,63.8764
2012-04-09,63.3949
2012-04-10,62.4781
2012-04-11,63.1726
2012-04-12,64.4042
2012-04-13,63.8949
2012-04-16,64.0246
2012-04-17,65.108
2012-04-18,64.7561
2012-04-19,64.3116
2012-04-20,64.7469
2012-04-23,64.2931
2012-04-24,64.7006
2012-04-25,65.0247
2012-04-26,68.0713
2012-04-27,68.0898
2012-04-30,68.0713
2012-05-01,68.3213
2012-05-02,67.5897
2012-05-03,66.9786
2012-05-04,66.673
2012-05-07,66.1266
2012-05-08,65.8859
2012-05-09,65.2654
2012-05-10,65.6914
2012-05-11,65.3395
2012-05-14,65.1543
2012-05-15,64.8652
2012-05-16,63.8766
2012-05-17,63.4103
2012-05-18,63.0
2012-05-21,63.4943
2012-05-22,63.6994
2012-05-23,63.4103
2012-05-24,63.0466
2012-05-25,62.6362
2012-05-29,63.2984
2012-05-30,63.1025
2012-05-31,63.5782
2012-06-01,62.6082
2012-06-04,62.7202
2012-06-05,62.8787
2012-06-06,64.6414
2012-06-07,65.0238
2012-06-08,64.8932
2012-06-11,64.5015
2012-06-12,65.5181
2012-06-13,64.8373
2012-06-14,66.5533
2012-06-15,66.8891
2012-06-18,68.1854
2012-06-19,68.3253
2012-06-20,68.5025
2012-06-21,67.5046
2012-06-22,68.3999
2012-06-25,66.9917
2012-06-26,66.544
2012-06-27,67.0756
2012-06-28,66.6186
2012-06-29,69.0062
2012-07-02,69.0808
2012-07-03,69.4725
2012-07-05,68.9875
2012-07-06,67.8683
2012-07-09,67.5139
2012-07-10,66.7772
2012-07-11,66.7585
2012-07-12,66.5253
2012-07-13,67.43
2012-07-16,66.9917
2012-07-17,67.6352
2012-07-18,69.1588
2012-07-19,69.5575
2012-07-20,68.6239
2012-07-23,66.825
2012-07-24,66.3776
2012-07-25,67.6515
2012-07-26,67.6029
2012-07-27,67.8557
2012-07-30,68.41
2012-07-31,68.9837
2012-08-01,67.9627
2012-08-02,66.6596
2012-08-03,67.846
2012-08-06,66.8736
2012-08-07,67.4376
2012-08-08,67.7779
2012-08-09,68.4392
2012-08-10,68.4489
2012-08-13,67.2528
2012-08-14,67.3501
2012-08-15,67.3499
2012-08-16,67.5457
2012-08-17,67.7514
2012-08-20,67.9963
2012-08-21,68.1824
2012-08-22,68.1628
2012-08-23,68.2902
2012-08-24,68.5057
2012-08-27,68.1334
2012-08-28,68.1139
2012-08-29,68.6134
2012-08-30,68.4763
2012-08-31,68.9072
2012-09-04,67.6731
2012-09-05,67.9865
2012-09-06,69.446
2012-09-07,69.9063
2012-09-10,69.9847
2012-09-11,70.0435
2012-09-12,70.6018
2012-09-13,71.0523
2012-09-14,71.4931
2012-09-17,71.5127
2012-09-18,70.9348
2012-09-19,70.8662
2012-09-20,70.6703
2012-09-21,70.9054
2012-09-24,70.7487
2012-09-25,70.543
2012-09-26,70.7095
2012-09-27,70.9936
2012-09-28,70.2296
2012-10-01,71.9143
2012-10-02,71.6694
2012-10-03,71.5519
2012-10-04,71.689
2012-10-05,71.8457
2012-10-08,71.7282
2012-10-09,71.2286
2012-10-10,70.6018
2012-10-11,70.6703
2012-10-12,70.876
2012-10-15,71.258
2012-10-16,72.1396
2012-10-17,72.8742
2012-10-18,73.266
2012-10-19,72.0612
2012-10-22,71.7478
2012-10-23,71.1503
2012-10-24,71.5813
2012-10-25,72.2669
2012-10-26,71.8947
2012-10-31,72.3061
2012-11-01,73.315
2012-11-02,74.3434
2012-11-05,74.2455
2012-11-06,75.7931
2012-11-07,72.9525
2012-11-08,72.3061
2012-11-09,72.9721
2012-11-12,72.8252
2012-11-13,72.8938
2012-11-14,71.2384
2012-11-15,71.367
2012-11-16,72.9845
2012-11-19,73.7538
2012-11-20,74.3357
2012-11-21,74.5428
2012-11-23,75.2825
2012-11-26,75.6672
2012-11-27,75.3812
2012-11-28,76.1406
2012-11-29,76.3872
2012-11-30,75.8447
2012-12-03,75.4009
2012-12-04,74.9965
2012-12-05,75.0656
2012-12-06,75.1642
2012-12-07,75.6179
2012-12-10,75.5982
2012-12-11,75.539
2012-12-12,75.0162
2012-12-13,74.5034
2012-12-14,74.2075
2012-12-17,74.8091
2012-12-18,75.9433
2012-12-19,75.2332
2012-12-20,76.831
2012-12-21,76.6041
2012-12-24,76.5252
2012-12-26,75.9927
2012-12-27,75.756
2012-12-28,74.7204
2012-12-31,75.4897
2013-01-02,76.3573
2013-01-03,76.239
2013-01-04,76.594
2013-01-07,76.1305
2013-01-08,75.657
2013-01-09,76.7814
2013-01-10,77.3337
2013-01-11,76.7814
2013-01-14,76.7124
2013-01-15,77.7874
2013-01-16,77.2646
2013-01-17,78.3495
2013-01-18,77.7184
2013-01-22,77.738
2013-01-23,77.7775
2013-01-24,77.6493
2013-01-25,77.6197
2013-01-28,76.6831
2013-01-29,76.7521
2013-01-30,76.9691
2013-01-31,74.8782
2013-02-01,74.1187
2013-02-04,73.8524
2013-02-05,74.7105
2013-02-06,75.0557
2013-02-07,75.9039
2013-02-08,76.5548
2013-02-11,77.0676
2013-02-12,77.2847
2013-02-13,76.9691
2013-02-14,76.6535
2013-02-15,76.4562
2013-02-19,76.4756
2013-02-20,75.9332
2013-02-21,75.3809
2013-02-22,75.7655
2013-02-25,74.3456
2013-02-26,74.9176
2013-02-27,75.9311
2013-02-28,75.7821
2013-03-01,75.9212
2013-03-04,75.2853
2013-03-05,76.2192
2013-03-06,75.8218
2013-03-07,76.2391
2013-03-08,76.6663
2013-03-11,76.7954
2013-03-12,76.9445
2013-03-13,78.2459
2013-03-14,79.1897
2013-03-15,80.4613
2013-03-18,80.1136
2013-03-19,80.5309
2013-03-20,80.6501
2013-03-21,79.8057
2013-03-22,79.8553
2013-03-25,79.3685
2013-03-26,79.5473
2013-03-27,79.607
2013-03-28,80.362
2013-04-01,79.8752
2013-04-02,79.5175
2013-04-03,80.5508
2013-04-04,80.7097
2013-04-05,81.8423
2013-04-08,81.2561
2013-04-09,81.2661
2013-04-10,82.796
2013-04-11,82.7563
2013-04-12,81.9019
2013-04-15,81.2263
2013-04-16,82.1503
2013-04-17,79.8653
2013-04-18,79.6566
2013-04-19,80.8488
2013-04-22,80.66
2013-04-23,80.7197
2013-04-24,82.1105
2013-04-25,81.7727
2013-04-26,80.819
2013-04-29,80.511
2013-04-30,80.7693
2013-05-01,80.511
2013-05-02,81.7032
2013-05-03,82.8357
2013-05-06,82.9252
2013-05-07,83.2927
2013-05-08,83.8491
2013-05-09,83.4815
2013-05-10,83.2232
2013-05-13,83.2729
2013-05-14,83.71
2013-05-15,85.09
2013-05-16,84.74
2013-05-17,85.44
2013-05-20,86.75
2013-05-21,87.33
2013-05-22,85.75
2013-05-23,85.02
2013-05-24,85.16
2013-05-28,85.53
2013-05-29,84.69
2013-05-30,86.64
2013-05-31,85.2
2013-06-03,86.52
2013-06-04,85.75
2013-06-05,84.38
2013-06-06,85.14
2013-06-07,86.85
2013-06-10,86.46
2013-06-11,86.06
2013-06-12,86.03
2013-06-13,85.9
2013-06-14,86.04
2013-06-17,86.43
2013-06-18,86.8
2013-06-19,85.37
2013-06-20,84.23
2013-06-21,84.08
2013-06-24,82.91
2013-06-25,83.16
2013-06-26,84.65
2013-06-27,86.01
2013-06-28,85.88
2013-07-01,86.63
2013-07-02,85.05
2013-07-03,85.6
2013-07-05,86.99
2013-07-08,87.1
2013-07-09,88.56
2013-07-10,89.82
2013-07-11,90.22
2013-07-12,90.2
2013-07-15,90.87
2013-07-16,90.25
2013-07-17,91.16
2013-07-18,91.83
2013-07-19,92.36
2013-07-22,92.39
2013-07-23,93.03
2013-07-24,92.59
2013-07-25,91.98
2013-07-26,92.15
2013-07-29,91.92
2013-07-30,92.57
2013-07-31,93.15
2013-08-01,93.49
2013-08-02,94.25
2013-08-05,93.54
2013-08-06,93.0
2013-08-07,93.24
2013-08-08,93.53
2013-08-09,92.84
