date,close_price
1998-01-02,10.625
1998-01-05,10.94
1998-01-06,11.155
1998-01-07,10.565
1998-01-08,10.655
1998-01-09,10.0
1998-01-12,9.875
1998-01-13,11.065
1998-01-14,10.905
1998-01-15,11.0
1998-01-16,10.75
1998-01-20,11.125
1998-01-21,11.095
1998-01-22,11.03
1998-01-23,11.44
1998-01-26,11.22
1998-01-27,11.47
1998-01-28,12.065
1998-01-29,11.875
1998-01-30,12.03
1998-02-02,12.5
1998-02-03,13.44
1998-02-04,13.03
1998-02-05,12.565
1998-02-06,12.5
1998-02-09,12.44
1998-02-10,13.53
1998-02-11,13.03
1998-02-12,12.815
1998-02-13,12.625
1998-02-17,12.565
1998-02-18,12.565
1998-02-19,12.72
1998-02-20,12.47
1998-02-23,12.22
1998-02-24,11.97
1998-02-25,12.345
1998-02-26,12.22
1998-02-27,11.875
1998-03-02,11.595
1998-03-03,11.315
1998-03-04,11.845
1998-03-05,11.125
1998-03-06,11.095
1998-03-09,10.845
1998-03-10,10.5
1998-03-11,11.095
1998-03-12,11.565
1998-03-13,11.53
1998-03-16,11.405
1998-03-17,11.28
1998-03-18,11.25
1998-03-19,11.28
1998-03-20,11.03
1998-03-23,11.44
1998-03-24,11.595
1998-03-25,11.75
1998-03-26,11.75
1998-03-27,12.565
1998-03-30,12.345
1998-03-31,12.565
1998-04-01,13.78
1998-04-02,13.44
1998-04-03,13.47
1998-04-06,13.125
1998-04-07,12.69
1998-04-08,12.815
1998-04-09,12.69
1998-04-13,12.565
1998-04-14,12.905
1998-04-15,13.25
1998-04-16,13.125
1998-04-17,12.94
1998-04-20,13.5
1998-04-21,13.405
1998-04-22,14.47
1998-04-23,14.22
1998-04-24,14.065
1998-04-27,13.28
1998-04-28,13.28
1998-04-29,13.315
1998-04-30,13.595
1998-05-01,13.44
1998-05-04,13.25
1998-05-05,13.28
1998-05-06,12.97
1998-05-07,12.5
1998-05-08,12.53
1998-05-11,12.19
1998-05-12,12.47
1998-05-13,12.19
1998-05-14,11.875
1998-05-15,11.47
1998-05-18,11.595
1998-05-19,11.625
1998-05-20,11.375
1998-05-21,11.065
1998-05-22,10.845
1998-05-26,10.69
1998-05-27,11.125
1998-05-28,11.095
1998-05-29,10.69
1998-06-01,10.69
1998-06-02,10.875
1998-06-03,10.5
1998-06-04,11.97
1998-06-05,12.155
1998-06-08,11.905
1998-06-09,12.47
1998-06-10,11.815
1998-06-11,11.595
1998-06-12,11.47
1998-06-15,11.565
1998-06-16,12.095
1998-06-17,11.875
1998-06-18,12.25
1998-06-19,11.78
1998-06-22,11.625
1998-06-23,11.625
1998-06-24,11.625
1998-06-25,11.875
1998-06-26,11.595
1998-06-29,11.69
1998-06-30,11.53
1998-07-01,11.815
1998-07-02,11.655
1998-07-06,11.47
1998-07-07,12.065
1998-07-08,12.25
1998-07-09,11.94
1998-07-10,11.69
1998-07-13,11.97
1998-07-14,11.75
1998-07-15,12.065
1998-07-16,11.78
1998-07-17,11.405
1998-07-20,10.75
1998-07-21,10.845
1998-07-22,10.53
1998-07-23,10.155
1998-07-24,10.315
1998-07-27,10.19
1998-07-28,10.405
1998-07-29,10.155
1998-07-30,10.44
1998-07-31,10.405
1998-08-03,10.0
1998-08-04,9.595
1998-08-05,9.44
1998-08-06,9.845
1998-08-07,10.095
1998-08-10,9.845
1998-08-11,9.565
1998-08-12,9.72
1998-08-13,9.47
1998-08-14,9.47
1998-08-17,9.47
1998-08-18,9.155
1998-08-19,7.94
1998-08-20,7.595
1998-08-21,7.5
1998-08-24,7.28
1998-08-25,7.065
1998-08-26,6.78
1998-08-27,6.47
1998-08-28,6.375
1998-08-31,6.065
1998-09-01,6.095
1998-09-02,6.125
1998-09-03,5.815
1998-09-04,5.905
1998-09-08,6.345
1998-09-09,6.125
1998-09-10,6.0
1998-09-11,5.905
1998-09-14,6.03
1998-09-15,6.03
1998-09-16,6.315
1998-09-17,6.345
1998-09-18,6.345
1998-09-21,6.875
1998-09-22,6.78
1998-09-23,6.97
1998-09-24,6.595
1998-09-25,6.625
1998-09-28,6.595
1998-09-29,6.405
1998-09-30,6.315
1998-10-01,5.94
1998-10-02,5.97
1998-10-05,5.815
1998-10-06,6.0
1998-10-07,5.72
1998-10-08,5.565
1998-10-09,5.75
1998-10-12,6.22
1998-10-13,6.065
1998-10-14,5.97
1998-10-15,5.655
1998-10-16,5.595
1998-10-19,5.845
1998-10-20,6.03
1998-10-21,6.0
1998-10-22,6.125
1998-10-23,6.565
1998-10-26,6.655
1998-10-27,6.44
1998-10-28,6.47
1998-10-29,7.19
1998-10-30,7.53
1998-11-02,7.405
1998-11-03,7.28
1998-11-04,7.75
1998-11-05,8.375
1998-11-06,8.25
1998-11-09,8.125
1998-11-10,8.03
1998-11-11,8.375
1998-11-12,8.595
1998-11-13,8.155
1998-11-16,8.19
1998-11-17,8.5
1998-11-18,8.53
1998-11-19,8.72
1998-11-20,8.565
1998-11-23,8.405
1998-11-24,8.25
1998-11-25,8.125
1998-11-27,8.22
1998-11-30,7.815
1998-12-01,8.0
1998-12-02,8.75
1998-12-03,9.53
1998-12-04,9.875
1998-12-07,10.03
1998-12-08,9.97
1998-12-09,9.72
1998-12-10,9.22
1998-12-11,8.94
1998-12-14,8.595
1998-12-15,8.595
1998-12-16,8.595
1998-12-17,8.94
1998-12-18,8.72
1998-12-21,8.625
1998-12-22,8.28
1998-12-23,8.19
1998-12-24,8.405
1998-12-28,7.905
1998-12-29,7.845
1998-12-30,8.125
1998-12-31,8.03
1999-01-04,8.095
1999-01-05,9.69
1999-01-06,9.405
1999-01-07,9.97
1999-01-08,9.69
1999-01-11,9.845
1999-01-12,9.565
1999-01-13,10.72
1999-01-14,10.44
1999-01-15,10.375
1999-01-19,10.815
1999-01-20,11.19
1999-01-21,10.625
1999-01-22,10.565
1999-01-25,11.75
1999-01-26,11.94
1999-01-27,11.655
1999-01-28,11.845
1999-01-29,13.905
1999-02-01,13.565
1999-02-02,13.03
1999-02-03,13.03
1999-02-04,12.065
1999-02-05,11.905
1999-02-08,13.47
1999-02-09,12.94
1999-02-10,12.595
1999-02-11,13.53
1999-02-12,13.53
1999-02-16,13.5
1999-02-17,12.78
1999-02-18,13.25
1999-02-19,13.565
1999-02-22,14.065
1999-02-23,14.78
1999-02-24,14.595
1999-02-25,13.905
1999-02-26,13.0
1999-03-01,12.565
1999-03-02,13.125
1999-03-03,13.375
1999-03-04,13.405
1999-03-05,14.03
1999-03-08,14.22
1999-03-09,13.375
1999-03-10,13.25
1999-03-11,13.155
1999-03-12,12.97
1999-03-15,12.315
1999-03-16,13.53
1999-03-17,13.625
1999-03-18,13.94
1999-03-19,13.875
1999-03-22,13.595
1999-03-23,12.655
1999-03-24,12.94
1999-03-25,13.315
1999-03-26,13.94
1999-03-29,14.25
1999-03-30,13.69
1999-03-31,15.53
1999-04-01,15.94
1999-04-05,16.25
1999-04-06,17.905
1999-04-07,17.315
1999-04-08,17.94
1999-04-09,19.0
1999-04-12,17.315
1999-04-13,17.19
1999-04-14,17.94
1999-04-15,18.345
1999-04-16,18.095
1999-04-19,16.0
1999-04-20,17.94
1999-04-21,18.625
1999-04-22,18.375
1999-04-23,17.565
1999-04-26,18.0
1999-04-27,17.405
1999-04-28,16.94
1999-04-29,17.095
1999-04-30,16.875
1999-05-03,17.375
1999-05-04,18.22
1999-05-05,18.655
1999-05-06,18.625
1999-05-07,18.44
1999-05-10,18.065
1999-05-11,18.75
1999-05-12,19.53
1999-05-13,19.0
1999-05-14,18.815
1999-05-17,18.69
1999-05-18,20.0
1999-05-19,20.345
1999-05-20,19.875
1999-05-21,19.0
1999-05-24,18.5
1999-05-25,17.5
1999-05-26,18.03
1999-05-27,18.565
1999-05-28,18.625
1999-06-01,18.78
1999-06-02,19.155
1999-06-03,18.69
1999-06-04,19.625
1999-06-07,19.75
1999-06-08,19.75
1999-06-09,20.47
1999-06-10,21.22
1999-06-11,22.125
1999-06-14,21.875
1999-06-15,22.065
1999-06-16,22.5
1999-06-17,22.065
1999-06-18,21.875
1999-06-21,22.345
1999-06-22,22.72
1999-06-23,23.065
1999-06-24,22.03
1999-06-25,22.655
1999-06-28,22.595
1999-06-29,23.095
1999-06-30,23.19
1999-07-01,23.345
1999-07-02,23.69
1999-07-06,23.19
1999-07-07,23.25
1999-07-08,24.375
1999-07-09,24.905
1999-07-12,24.78
1999-07-13,23.94
1999-07-14,24.625
1999-07-15,24.345
1999-07-16,24.875
1999-07-19,25.97
1999-07-20,25.0
1999-07-21,24.815
1999-07-22,24.405
1999-07-23,24.53
1999-07-26,24.565
1999-07-27,25.75
1999-07-28,26.095
1999-07-29,25.25
1999-07-30,25.125
1999-08-02,24.75
1999-08-03,23.5
1999-08-04,23.815
1999-08-05,25.75
1999-08-06,26.625
1999-08-09,27.125
1999-08-10,26.655
1999-08-11,28.065
1999-08-12,27.655
1999-08-13,29.315
1999-08-16,29.28
1999-08-17,28.28
1999-08-18,27.75
1999-08-19,28.315
1999-08-20,28.0
1999-08-23,28.28
1999-08-24,29.25
1999-08-25,28.53
1999-08-26,27.78
1999-08-27,27.5
1999-08-30,27.595
1999-08-31,28.375
1999-09-01,28.655
1999-09-02,28.315
1999-09-03,29.345
1999-09-07,29.47
1999-09-08,28.875
1999-09-09,28.5
1999-09-10,29.28
1999-09-13,29.125
1999-09-14,30.875
1999-09-15,29.19
1999-09-16,29.905
1999-09-17,29.625
1999-09-20,29.155
1999-09-21,28.25
1999-09-22,28.5
1999-09-23,26.19
1999-09-24,26.375
1999-09-27,27.22
1999-09-28,27.815
1999-09-29,28.19
1999-09-30,25.75
1999-10-01,26.53
1999-10-04,27.75
1999-10-05,29.25
1999-10-06,29.19
1999-10-07,27.53
1999-10-08,25.72
1999-10-11,26.125
1999-10-12,25.405
1999-10-13,24.22
1999-10-14,24.19
1999-10-15,24.19
1999-10-18,23.5
1999-10-19,22.125
1999-10-20,23.28
1999-10-21,24.28
1999-10-22,24.095
1999-10-25,23.69
1999-10-26,23.0
1999-10-27,22.94
1999-10-28,24.345
1999-10-29,26.53
1999-11-01,27.0
1999-11-02,28.065
1999-11-03,29.065
1999-11-04,28.625
1999-11-05,29.0
1999-11-08,28.625
1999-11-09,28.655
1999-11-10,30.5
1999-11-11,32.565
1999-11-12,32.72
1999-11-15,31.815
1999-11-16,32.0
1999-11-17,30.845
1999-11-18,32.25
1999-11-19,33.0
1999-11-22,32.125
1999-11-23,30.53
1999-11-24,30.875
1999-11-26,31.67
1999-11-29,30.69
1999-11-30,30.03
1999-12-01,30.69
1999-12-02,32.595
1999-12-03,32.375
1999-12-06,35.565
1999-12-07,34.315
1999-12-08,33.155
1999-12-09,30.875
1999-12-10,30.22
1999-12-13,30.19
1999-12-14,27.845
1999-12-15,27.47
1999-12-16,29.155
1999-12-17,29.94
1999-12-20,29.815
1999-12-21,32.44
1999-12-22,33.345
1999-12-23,32.065
1999-12-27,32.0
1999-12-28,31.405
1999-12-29,31.72
1999-12-30,32.845
1999-12-31,33.75
2000-01-03,33.44
2000-01-04,31.69
2000-01-05,29.94
2000-01-06,29.53
2000-01-07,30.565
2000-01-10,32.97
2000-01-11,32.75
2000-01-12,35.065
2000-01-13,34.22
2000-01-14,36.94
2000-01-18,39.595
2000-01-19,39.19
2000-01-20,39.28
2000-01-21,40.905
2000-01-24,38.94
2000-01-25,41.5
2000-01-26,43.19
2000-01-27,40.5
2000-01-28,38.53
2000-01-31,40.47
2000-02-01,41.815
2000-02-02,41.625
2000-02-03,44.625
2000-02-04,45.875
2000-02-07,49.565
2000-02-08,50.065
2000-02-09,49.375
2000-02-10,53.0
2000-02-11,51.345
2000-02-14,52.03
2000-02-15,49.25
2000-02-16,51.97
2000-02-17,52.44
2000-02-18,50.94
2000-02-22,52.38
2000-02-23,58.38
2000-02-24,57.63
2000-02-25,58.25
2000-02-28,57.25
2000-02-29,64.13
2000-03-01,69.19
2000-03-02,65.88
2000-03-03,72.75
2000-03-06,76.0
2000-03-07,71.38
2000-03-08,74.38
2000-03-09,82.69
2000-03-10,88.19
2000-03-13,84.94
2000-03-14,74.88
2000-03-15,74.0
2000-03-16,75.38
2000-03-17,77.25
2000-03-20,78.75
2000-03-21,81.13
2000-03-22,84.13
2000-03-23,84.94
2000-03-24,82.13
2000-03-27,83.31
2000-03-28,77.88
2000-03-29,71.13
2000-03-30,65.5
2000-03-31,71.88
2000-04-03,64.69
2000-04-04,66.38
2000-04-05,66.94
2000-04-06,72.0
2000-04-07,74.75
2000-04-10,69.06
2000-04-11,67.88
2000-04-12,60.69
2000-04-13,60.0
2000-04-14,50.56
2000-04-17,56.81
2000-04-18,57.88
2000-04-19,54.88
2000-04-20,56.63
2000-04-24,54.25
2000-04-25,62.19
2000-04-26,54.56
2000-04-27,59.94
2000-04-28,62.5
2000-05-01,61.5
2000-05-02,56.75
2000-05-03,55.5
2000-05-04,55.31
2000-05-05,54.88
2000-05-08,52.38
2000-05-09,49.31
2000-05-10,43.94
2000-05-11,47.81
2000-05-12,49.56
2000-05-15,52.69
2000-05-16,52.25
2000-05-17,51.44
2000-05-18,48.44
2000-05-19,46.19
2000-05-22,44.75
2000-05-23,42.25
2000-05-24,45.63
2000-05-25,47.38
2000-05-26,45.81
2000-05-30,51.0
2000-05-31,52.5
2000-06-01,58.38
2000-06-02,62.31
2000-06-05,63.88
2000-06-06,59.0
2000-06-07,61.13
2000-06-08,63.25
2000-06-09,61.81
2000-06-12,58.44
2000-06-13,59.63
2000-06-14,57.56
2000-06-15,60.69
2000-06-16,60.06
2000-06-19,66.75
2000-06-20,69.38
2000-06-21,69.0
2000-06-22,65.0
2000-06-23,65.75
2000-06-26,63.69
2000-06-27,61.38
2000-06-28,57.94
2000-06-29,53.75
2000-06-30,54.63
2000-07-03,57.44
2000-07-05,50.88
2000-07-06,52.75
2000-07-07,56.44
2000-07-10,54.69
2000-07-11,51.31
2000-07-12,52.19
2000-07-13,55.75
2000-07-14,59.06
2000-07-17,59.88
2000-07-18,55.88
2000-07-19,52.0
2000-07-20,49.94
2000-07-21,47.56
2000-07-24,45.81
2000-07-25,48.38
2000-07-26,32.25
2000-07-27,34.06
2000-07-28,33.25
2000-07-31,33.69
2000-08-01,32.56
2000-08-02,32.13
2000-08-03,31.0
2000-08-04,31.0
2000-08-07,32.13
2000-08-08,31.88
2000-08-09,33.25
2000-08-10,33.0
2000-08-11,33.44
2000-08-14,35.81
2000-08-15,36.94
2000-08-16,40.0
2000-08-17,39.06
2000-08-18,40.13
2000-08-21,39.0
2000-08-22,38.19
2000-08-23,39.31
2000-08-24,38.94
2000-08-25,37.56
2000-08-28,37.88
2000-08-29,37.63
2000-08-30,36.44
2000-08-31,35.88
2000-09-01,36.06
2000-09-05,36.88
2000-09-06,35.75
2000-09-07,37.13
2000-09-08,35.56
2000-09-11,34.81
2000-09-12,33.94
2000-09-13,33.63
2000-09-14,34.69
2000-09-15,33.56
2000-09-18,32.13
2000-09-19,35.88
2000-09-20,36.13
2000-09-21,36.5
2000-09-22,33.5
2000-09-25,33.19
2000-09-26,32.06
2000-09-27,28.63
2000-09-28,30.19
2000-09-29,29.25
2000-10-02,27.81
2000-10-03,28.19
2000-10-04,29.56
2000-10-05,27.75
2000-10-06,26.5
2000-10-09,28.0
2000-10-10,25.69
2000-10-11,26.13
2000-10-12,26.13
2000-10-13,29.25
2000-10-16,27.31
2000-10-17,25.56
2000-10-18,22.88
2000-10-19,28.44
2000-10-20,30.13
2000-10-23,32.0
2000-10-24,28.75
2000-10-25,28.19
2000-10-26,30.13
2000-10-27,29.63
2000-10-30,30.63
2000-10-31,32.5
2000-11-01,31.0
2000-11-02,31.94
2000-11-03,31.69
2000-11-06,31.69
2000-11-07,30.19
2000-11-08,28.19
2000-11-09,27.06
2000-11-10,26.56
2000-11-13,27.31
2000-11-14,28.63
2000-11-15,31.31
2000-11-16,29.25
2000-11-17,29.0
2000-11-20,28.75
2000-11-21,23.06
2000-11-22,21.88
2000-11-24,22.44
2000-11-27,21.06
2000-11-28,20.38
2000-11-29,19.38
2000-11-30,17.88
2000-12-01,17.81
2000-12-04,18.2
2000-12-05,20.84
2000-12-06,20.12
2000-12-07,19.46
2000-12-08,21.85
2000-12-11,23.2
2000-12-12,22.08
2000-12-13,21.59
2000-12-14,20.97
2000-12-15,20.15
2000-12-18,19.75
2000-12-19,19.6
2000-12-20,18.7
2000-12-21,16.4
2000-12-22,18.14
2000-12-26,18.11
2000-12-27,18.5
2000-12-28,17.7
2000-12-29,16.98
2001-01-02,17.1
2001-01-03,20.2
2001-01-04,20.59
2001-01-05,19.69
2001-01-08,19.59
2001-01-09,20.0
2001-01-10,21.1
2001-01-11,21.76
2001-01-12,22.21
2001-01-16,21.22
2001-01-17,22.85
2001-01-18,24.95
2001-01-19,24.95
2001-01-22,24.79
2001-01-23,23.86
2001-01-24,22.63
2001-01-25,22.53
2001-01-26,22.6
2001-01-29,23.41
2001-01-30,23.59
2001-01-31,24.5
2001-02-01,23.69
2001-02-02,23.01
2001-02-05,21.85
2001-02-06,22.05
2001-02-07,20.53
2001-02-08,20.45
2001-02-09,19.79
2001-02-12,20.18
2001-02-13,20.04
2001-02-14,20.77
2001-02-15,22.39
2001-02-16,20.62
2001-02-20,19.21
2001-02-21,18.73
2001-02-22,18.26
2001-02-23,18.75
2001-02-26,18.8
2001-02-27,18.18
2001-02-28,16.12
2001-03-01,15.96
2001-03-02,16.26
2001-03-05,16.85
2001-03-06,18.13
2001-03-07,18.05
2001-03-08,17.76
2001-03-09,16.61
2001-03-12,16.1
2001-03-13,17.5
2001-03-14,17.35
2001-03-15,16.94
2001-03-16,16.25
2001-03-19,17.16
2001-03-20,17.97
2001-03-21,18.45
2001-03-22,19.96
2001-03-23,20.71
2001-03-26,18.0
2001-03-27,18.24
2001-03-28,16.7
2001-03-29,16.47
2001-03-30,15.74
2001-04-02,14.91
2001-04-03,14.28
2001-04-04,13.93
2001-04-05,16.13
2001-04-06,15.17
2001-04-09,14.8
2001-04-10,16.58
2001-04-11,17.71
2001-04-12,18.49
2001-04-16,17.71
2001-04-17,17.85
2001-04-18,20.66
2001-04-19,20.74
2001-04-20,21.64
2001-04-23,19.6
2001-04-24,19.5
2001-04-25,20.4
2001-04-26,19.64
2001-04-27,19.83
2001-04-30,20.45
2001-05-01,20.74
2001-05-02,21.3
2001-05-03,20.92
2001-05-04,20.99
2001-05-07,20.58
2001-05-08,20.57
2001-05-09,19.79
2001-05-10,19.85
2001-05-11,19.8
2001-05-14,19.48
2001-05-15,19.75
2001-05-16,20.47
2001-05-17,20.65
2001-05-18,20.18
2001-05-21,21.49
2001-05-22,21.51
2001-05-23,20.54
2001-05-24,20.1
2001-05-25,19.77
2001-05-29,18.89
2001-05-30,17.71
2001-05-31,18.3
2001-06-01,19.19
2001-06-04,19.01
2001-06-05,20.27
2001-06-06,20.61
2001-06-07,22.65
2001-06-08,22.23
2001-06-11,21.2
2001-06-12,20.94
2001-06-13,20.2
2001-06-14,19.1
2001-06-15,18.9
2001-06-18,18.5
2001-06-19,18.37
2001-06-20,18.0
2001-06-21,18.0
2001-06-22,17.6
2001-06-25,17.79
2001-06-26,17.72
2001-06-27,17.9
2001-06-28,18.64
2001-06-29,19.3
2001-07-02,19.89
2001-07-03,19.91
2001-07-05,19.45
2001-07-06,18.16
2001-07-09,18.21
2001-07-10,17.4
2001-07-11,17.51
2001-07-12,19.5
2001-07-13,19.24
2001-07-16,18.62
2001-07-17,19.1
2001-07-18,18.16
2001-07-19,18.99
2001-07-20,18.59
2001-07-23,18.23
2001-07-24,17.85
2001-07-25,18.22
2001-07-26,19.15
2001-07-27,20.84
2001-07-30,21.45
2001-07-31,21.8
2001-08-01,23.47
2001-08-02,24.84
2001-08-03,23.98
2001-08-06,23.22
2001-08-07,22.17
2001-08-08,21.4
2001-08-09,21.1
2001-08-10,21.91
2001-08-13,22.66
2001-08-14,22.82
2001-08-15,21.69
2001-08-16,22.1
2001-08-17,21.16
2001-08-20,21.22
2001-08-21,19.9
2001-08-22,20.9
2001-08-23,21.14
2001-08-24,22.11
2001-08-27,22.71
2001-08-28,21.65
2001-08-29,21.5
2001-08-30,20.58
2001-08-31,20.32
2001-09-04,19.17
2001-09-05,18.6
2001-09-06,17.8
2001-09-07,17.78
2001-09-10,17.63
2001-09-17,16.2
2001-09-18,14.46
2001-09-19,12.65
2001-09-20,11.99
2001-09-21,11.35
2001-09-24,12.01
2001-09-25,12.21
2001-09-26,11.03
2001-09-27,10.83
2001-09-28,11.74
2001-10-01,11.38
2001-10-02,11.17
2001-10-03,12.18
2001-10-04,13.18
2001-10-05,12.89
2001-10-08,13.2
2001-10-09,12.67
2001-10-10,14.18
2001-10-11,16.32
2001-10-12,16.32
2001-10-15,15.82
2001-10-16,16.54
2001-10-17,15.76
2001-10-18,15.68
2001-10-19,15.88
2001-10-22,16.82
2001-10-23,17.61
2001-10-24,18.68
2001-10-25,17.85
2001-10-26,17.7
2001-10-29,16.71
2001-10-30,16.13
2001-10-31,16.99
2001-11-01,17.6
2001-11-02,17.88
2001-11-05,18.47
2001-11-06,19.04
2001-11-07,18.76
2001-11-08,18.39
2001-11-09,18.44
2001-11-12,18.76
2001-11-13,19.24
2001-11-14,19.12
2001-11-15,18.65
2001-11-16,18.41
2001-11-19,17.23
2001-11-20,15.96
2001-11-21,16.07
2001-11-23,16.6
2001-11-26,16.75
2001-11-27,16.66
2001-11-28,15.62
2001-11-29,16.44
2001-11-30,16.17
2001-12-03,15.85
2001-12-04,16.47
2001-12-05,17.7
2001-12-06,17.57
2001-12-07,17.0
2001-12-10,16.66
2001-12-11,16.29
2001-12-12,16.27
2001-12-13,15.29
2001-12-14,15.55
2001-12-17,16.58
2001-12-18,16.47
2001-12-19,15.7
2001-12-20,14.99
2001-12-21,15.44
2001-12-24,15.27
2001-12-26,15.5
2001-12-27,15.74
2001-12-28,15.97
2001-12-31,15.54
2002-01-02,15.86
2002-01-03,17.08
2002-01-04,17.37
2002-01-07,16.76
2002-01-08,16.26
2002-01-09,16.53
2002-01-10,15.82
2002-01-11,15.83
2002-01-14,15.4
2002-01-15,15.48
2002-01-16,15.31
2002-01-17,15.34
2002-01-18,14.83
2002-01-22,13.93
2002-01-23,14.25
2002-01-24,15.59
2002-01-25,15.63
2002-01-28,16.19
2002-01-29,16.22
2002-01-30,16.29
2002-01-31,16.57
2002-02-01,16.26
2002-02-04,15.87
2002-02-05,15.74
2002-02-06,15.61
2002-02-07,15.51
2002-02-08,15.46
2002-02-11,16.48
2002-02-12,16.41
2002-02-13,16.96
2002-02-14,16.57
2002-02-15,16.51
2002-02-19,15.91
2002-02-20,16.03
2002-02-21,15.03
2002-02-22,15.08
2002-02-25,15.91
2002-02-26,15.59
2002-02-27,15.5
2002-02-28,14.99
2002-03-01,16.27
2002-03-04,17.25
2002-03-05,17.6
2002-03-06,17.73
2002-03-07,17.88
2002-03-08,18.57
2002-03-11,17.99
2002-03-12,17.27
2002-03-13,16.92
2002-03-14,16.96
2002-03-15,17.03
2002-03-18,17.2
2002-03-19,17.48
2002-03-20,16.86
2002-03-21,17.43
2002-03-22,17.15
2002-03-25,16.58
2002-03-26,16.88
2002-03-27,16.91
2002-03-28,17.02
2002-04-01,17.3
2002-04-02,16.72
2002-04-03,15.99
2002-04-04,16.0
2002-04-05,15.87
2002-04-08,15.69
2002-04-09,15.23
2002-04-10,15.5
2002-04-11,15.1
2002-04-12,15.35
2002-04-15,15.85
2002-04-16,16.7
2002-04-17,16.83
2002-04-18,16.39
2002-04-19,16.23
2002-04-22,15.84
2002-04-23,15.23
2002-04-24,15.09
2002-04-25,14.0
2002-04-26,13.05
2002-04-29,12.87
2002-04-30,12.88
2002-05-01,12.81
2002-05-02,12.38
2002-05-03,11.6
2002-05-06,11.09
2002-05-07,10.67
2002-05-08,12.5
2002-05-09,12.17
2002-05-10,11.53
2002-05-13,12.26
2002-05-14,13.01
2002-05-15,12.55
2002-05-16,12.45
2002-05-17,12.95
2002-05-20,12.83
2002-05-21,12.39
2002-05-22,12.11
2002-05-23,12.48
2002-05-24,12.03
2002-05-28,12.02
2002-05-29,11.45
2002-05-30,11.59
2002-05-31,11.45
2002-06-03,10.87
2002-06-04,11.0
2002-06-05,10.85
2002-06-06,10.47
2002-06-07,10.2
2002-06-10,10.44
2002-06-11,10.0
2002-06-12,9.9
2002-06-13,9.36
2002-06-14,9.32
2002-06-17,9.87
2002-06-18,9.8
2002-06-19,9.25
2002-06-20,8.65
2002-06-21,8.25
2002-06-24,8.54
2002-06-25,7.93
2002-06-26,8.34
2002-06-27,8.85
2002-06-28,8.61
2002-07-01,7.98
2002-07-02,7.48
2002-07-03,7.53
2002-07-05,8.41
2002-07-08,7.89
2002-07-09,7.7
2002-07-10,7.39
2002-07-11,7.2
2002-07-12,7.4
2002-07-15,7.66
2002-07-16,8.09
2002-07-17,7.72
2002-07-18,7.5
2002-07-19,7.24
2002-07-22,6.97
2002-07-23,6.78
2002-07-24,6.83
2002-07-25,6.68
2002-07-26,6.86
2002-07-29,7.44
2002-07-30,7.71
2002-07-31,7.78
2002-08-01,7.41
2002-08-02,7.1
2002-08-05,6.35
2002-08-06,6.65
2002-08-07,6.54
2002-08-08,7.0
2002-08-09,6.91
2002-08-12,6.75
2002-08-13,6.27
2002-08-14,7.3
2002-08-15,7.81
2002-08-16,8.21
2002-08-19,8.65
2002-08-20,8.4
2002-08-21,8.75
2002-08-22,8.55
2002-08-23,8.08
2002-08-26,8.18
2002-08-27,7.76
2002-08-28,7.46
2002-08-29,7.37
2002-08-30,7.29
2002-09-03,6.91
2002-09-04,7.66
2002-09-05,7.37
2002-09-06,7.66
2002-09-09,7.72
2002-09-10,8.02
2002-09-11,8.27
2002-09-12,7.85
2002-09-13,7.54
2002-09-16,7.26
2002-09-17,7.03
2002-09-18,7.08
2002-09-19,6.66
2002-09-20,6.64
2002-09-23,6.37
2002-09-24,6.29
2002-09-25,6.65
2002-09-26,6.52
2002-09-27,6.46
2002-09-30,6.27
2002-10-01,6.41
2002-10-02,6.3
2002-10-03,5.9
2002-10-04,5.59
2002-10-07,5.27
2002-10-08,4.25
2002-10-09,4.21
2002-10-10,4.19
2002-10-11,4.17
2002-10-14,4.22
2002-10-15,4.99
2002-10-16,4.35
2002-10-17,4.64
2002-10-18,4.5
2002-10-21,5.0
2002-10-22,4.6
2002-10-23,5.07
2002-10-24,5.77
2002-10-25,5.99
2002-10-28,5.98
2002-10-29,5.64
2002-10-30,6.02
2002-10-31,5.92
2002-11-01,6.42
2002-11-04,6.65
2002-11-05,6.65
2002-11-06,7.09
2002-11-07,6.34
2002-11-08,6.46
2002-11-11,6.07
2002-11-12,6.2
2002-11-13,6.16
2002-11-14,6.68
2002-11-15,6.46
2002-11-18,6.5
2002-11-19,6.11
2002-11-20,6.8
2002-11-21,7.46
2002-11-22,7.62
2002-11-25,8.03
2002-11-26,7.58
2002-11-27,8.03
2002-11-29,8.54
2002-12-02,8.09
2002-12-03,7.62
2002-12-04,7.04
2002-12-05,6.85
2002-12-06,6.7
2002-12-09,6.05
2002-12-10,6.33
2002-12-11,6.43
2002-12-12,6.41
2002-12-13,6.16
2002-12-16,6.33
2002-12-17,6.2
2002-12-18,5.82
2002-12-19,5.67
2002-12-20,5.7
2002-12-23,5.87
2002-12-24,5.69
2002-12-26,5.75
2002-12-27,5.76
2002-12-30,5.48
2002-12-31,5.75
2003-01-02,6.03
2003-01-03,5.93
2003-01-06,5.97
2003-01-07,6.26
2003-01-08,6.0
2003-01-09,6.0
2003-01-10,6.13
2003-01-13,6.33
2003-01-14,6.29
2003-01-15,6.28
2003-01-16,6.15
2003-01-17,6.02
2003-01-21,5.85
2003-01-22,5.92
2003-01-23,4.92
2003-01-24,4.81
2003-01-27,4.58
2003-01-28,4.73
2003-01-29,4.67
2003-01-30,4.4
2003-01-31,4.4
2003-02-03,4.32
2003-02-04,4.27
2003-02-05,4.19
2003-02-06,4.16
2003-02-07,4.03
2003-02-10,4.12
2003-02-11,4.02
2003-02-12,3.99
2003-02-13,4.02
2003-02-14,4.24
2003-02-18,4.58
2003-02-19,4.41
2003-02-20,4.35
2003-02-21,4.27
2003-02-24,4.28
2003-02-25,4.45
2003-02-26,4.28
2003-02-27,4.33
2003-02-28,4.45
2003-03-03,4.33
2003-03-04,4.34
2003-03-05,4.33
2003-03-06,4.23
2003-03-07,4.2
2003-03-10,4.12
2003-03-11,4.1
2003-03-12,4.15
2003-03-13,4.44
2003-03-14,4.22
2003-03-17,4.76
2003-03-18,4.99
2003-03-19,4.99
2003-03-20,5.12
2003-03-21,5.22
2003-03-24,4.91
2003-03-25,5.01
2003-03-26,4.8
2003-03-27,4.71
2003-03-28,4.71
2003-03-31,4.51
2003-04-01,4.6
2003-04-02,4.84
2003-04-03,4.77
2003-04-04,4.7
2003-04-07,4.75
2003-04-08,4.61
2003-04-09,4.51
2003-04-10,4.48
2003-04-11,4.44
2003-04-14,4.48
2003-04-15,4.64
2003-04-16,4.64
2003-04-17,4.86
2003-04-21,5.02
2003-04-22,5.18
2003-04-23,5.41
2003-04-24,5.3
2003-04-25,5.06
2003-04-28,5.16
2003-04-29,5.39
2003-04-30,5.37
2003-05-01,5.4
2003-05-02,5.38
2003-05-05,5.38
2003-05-06,5.28
2003-05-07,5.16
2003-05-08,5.1
2003-05-09,5.48
2003-05-12,5.71
2003-05-13,5.58
2003-05-14,5.64
2003-05-15,5.82
2003-05-16,5.8
2003-05-19,5.56
2003-05-20,5.46
2003-05-21,5.44
2003-05-22,5.65
2003-05-23,5.72
2003-05-27,5.96
2003-05-28,6.03
2003-05-29,6.19
2003-05-30,6.4
2003-06-02,6.24
2003-06-03,6.44
2003-06-04,6.72
2003-06-05,6.97
2003-06-06,6.62
2003-06-09,6.56
2003-06-10,6.73
2003-06-11,7.15
2003-06-12,7.27
2003-06-13,6.96
2003-06-16,7.1
2003-06-17,7.37
2003-06-18,7.52
2003-06-19,7.71
2003-06-20,7.72
2003-06-23,7.36
2003-06-24,6.95
2003-06-25,6.99
2003-06-26,7.27
2003-06-27,7.06
2003-06-30,7.04
2003-07-01,7.48
2003-07-02,7.87
2003-07-03,7.85
2003-07-07,8.39
2003-07-08,8.71
2003-07-09,8.69
2003-07-10,8.28
2003-07-11,8.5
2003-07-14,8.77
2003-07-15,8.76
2003-07-16,8.49
2003-07-17,7.95
2003-07-18,8.1
2003-07-21,7.88
2003-07-22,8.4
2003-07-23,8.65
2003-07-24,8.97
2003-07-25,9.03
2003-07-28,9.5
2003-07-29,9.4
2003-07-30,9.14
2003-07-31,9.31
2003-08-01,9.42
2003-08-04,9.41
2003-08-05,9.08
2003-08-06,9.23
2003-08-07,9.07
2003-08-08,8.69
2003-08-11,8.87
2003-08-12,9.19
2003-08-13,9.49
2003-08-14,9.5
2003-08-15,9.5
2003-08-18,10.27
2003-08-19,10.48
2003-08-20,10.78
2003-08-21,11.34
2003-08-22,11.32
2003-08-25,11.08
2003-08-26,11.02
2003-08-27,11.3
2003-08-28,11.48
2003-08-29,11.53
2003-09-02,11.28
2003-09-03,11.0
2003-09-04,11.07
2003-09-05,11.28
2003-09-08,11.59
2003-09-09,11.61
2003-09-10,11.03
2003-09-11,11.07
2003-09-12,11.29
2003-09-15,11.2
2003-09-16,11.54
2003-09-17,11.52
2003-09-18,11.75
2003-09-19,11.99
2003-09-22,11.38
2003-09-23,11.42
2003-09-24,10.86
2003-09-25,10.22
2003-09-26,9.79
2003-09-29,9.89
2003-09-30,8.94
2003-10-01,8.97
2003-10-02,9.0
2003-10-03,9.34
2003-10-06,9.44
2003-10-07,9.5
2003-10-08,9.29
2003-10-09,9.41
2003-10-10,9.37
2003-10-13,9.42
2003-10-14,9.81
2003-10-15,9.78
2003-10-16,9.69
2003-10-17,9.4
2003-10-20,9.38
2003-10-21,9.6
2003-10-22,9.0
2003-10-23,8.6
2003-10-24,8.5
2003-10-27,8.68
2003-10-28,9.16
2003-10-29,9.24
2003-10-30,9.4
2003-10-31,9.21
2003-11-03,9.49
2003-11-04,9.48
2003-11-05,9.44
2003-11-06,9.42
2003-11-07,9.38
2003-11-10,8.99
2003-11-11,8.86
2003-11-12,9.2
2003-11-13,10.16
2003-11-14,9.78
2003-11-17,9.62
2003-11-18,9.26
2003-11-19,9.34
2003-11-20,9.12
2003-11-21,8.97
2003-11-24,9.27
2003-11-25,9.35
2003-11-26,9.34
2003-11-28,9.37
2003-12-01,9.42
2003-12-02,9.28
2003-12-03,9.01
2003-12-04,9.02
2003-12-05,8.77
2003-12-08,8.65
2003-12-09,8.34
2003-12-10,8.3
2003-12-11,8.73
2003-12-12,8.7
2003-12-15,8.75
2003-12-16,8.3
2003-12-17,8.36
2003-12-18,8.68
2003-12-19,8.58
2003-12-22,8.55
2003-12-23,8.8
2003-12-24,8.7
2003-12-26,8.77
2003-12-29,8.9
2003-12-30,8.88
2003-12-31,8.83
2004-01-02,8.93
2004-01-05,9.43
2004-01-06,9.63
2004-01-07,9.74
2004-01-08,10.56
2004-01-09,10.43
2004-01-12,10.87
2004-01-13,10.54
2004-01-14,10.42
2004-01-15,10.79
2004-01-16,11.24
2004-01-20,11.42
2004-01-21,11.12
2004-01-22,10.66
2004-01-23,10.53
2004-01-26,10.79
2004-01-27,10.53
2004-01-28,10.73
2004-01-29,10.19
2004-01-30,10.28
2004-02-02,10.28
2004-02-03,10.33
2004-02-04,10.01
2004-02-05,10.11
2004-02-06,10.65
2004-02-09,10.65
2004-02-10,10.68
2004-02-11,10.9
2004-02-12,10.7
2004-02-13,10.5
2004-02-17,10.72
2004-02-18,10.65
2004-02-19,10.45
2004-02-20,10.4
2004-02-23,10.15
2004-02-24,10.15
2004-02-25,10.3
2004-02-26,10.28
2004-02-27,10.12
2004-03-01,10.46
2004-03-02,10.41
2004-03-03,10.24
2004-03-04,10.34
2004-03-05,10.3
2004-03-08,9.86
2004-03-09,9.72
2004-03-10,9.43
2004-03-11,9.31
2004-03-12,9.41
2004-03-15,9.17
2004-03-16,9.1
2004-03-17,9.34
2004-03-18,9.09
2004-03-19,8.92
2004-03-22,8.63
2004-03-23,8.84
2004-03-24,9.05
2004-03-25,9.5
2004-03-26,9.47
2004-03-29,9.63
2004-03-30,9.45
2004-03-31,9.41
2004-04-01,9.49
2004-04-02,9.82
2004-04-05,9.91
2004-04-06,9.74
2004-04-07,9.75
2004-04-08,9.75
2004-04-12,9.77
2004-04-13,9.45
2004-04-14,9.39
2004-04-15,9.03
2004-04-16,8.85
2004-04-19,8.95
2004-04-20,8.6
2004-04-21,8.81
2004-04-22,8.67
2004-04-23,8.96
2004-04-26,9.01
2004-04-27,8.84
2004-04-28,8.4
2004-04-29,7.56
2004-04-30,7.45
2004-05-03,7.34
2004-05-04,7.61
2004-05-05,7.68
2004-05-06,7.52
2004-05-07,7.47
2004-05-10,7.31
2004-05-11,7.56
2004-05-12,7.53
2004-05-13,7.36
2004-05-14,7.31
2004-05-17,7.18
2004-05-18,7.21
2004-05-19,7.46
2004-05-20,7.39
2004-05-21,7.4
2004-05-24,7.4
2004-05-25,7.75
2004-05-26,7.86
2004-05-27,8.09
2004-05-28,8.2
2004-06-01,8.13
2004-06-02,7.91
2004-06-03,7.57
2004-06-04,7.63
2004-06-07,7.92
2004-06-08,8.15
2004-06-09,7.75
2004-06-10,7.87
2004-06-14,7.61
2004-06-15,7.71
2004-06-16,7.69
2004-06-17,7.32
2004-06-18,7.4
2004-06-21,7.35
2004-06-22,7.57
2004-06-23,7.54
2004-06-24,7.45
2004-06-25,7.54
2004-06-28,7.42
2004-06-29,7.5
2004-06-30,7.6
2004-07-01,7.25
2004-07-02,7.22
2004-07-06,6.82
2004-07-07,6.83
2004-07-08,6.62
2004-07-09,6.74
2004-07-12,6.46
2004-07-13,6.7
2004-07-14,6.45
2004-07-15,6.37
2004-07-16,6.39
2004-07-19,6.34
2004-07-20,6.56
2004-07-21,6.1
2004-07-22,6.37
2004-07-23,6.11
2004-07-26,5.87
2004-07-27,5.85
2004-07-28,5.07
2004-07-29,5.19
2004-07-30,5.11
2004-08-02,5.02
2004-08-03,4.95
2004-08-04,4.97
2004-08-05,4.93
2004-08-06,4.7
2004-08-09,4.72
2004-08-10,4.85
2004-08-11,4.61
2004-08-12,4.5
2004-08-13,4.52
2004-08-16,4.62
2004-08-17,4.75
2004-08-18,5.05
2004-08-19,4.9
2004-08-20,5.05
2004-08-23,5.19
2004-08-24,5.05
2004-08-25,5.15
2004-08-26,4.97
2004-08-27,5.01
2004-08-30,4.88
2004-08-31,4.85
2004-09-01,4.72
2004-09-02,4.73
2004-09-03,4.59
2004-09-07,4.65
2004-09-08,4.62
2004-09-09,4.97
2004-09-10,5.2
2004-09-13,5.25
2004-09-14,4.73
2004-09-15,4.54
2004-09-16,4.5
2004-09-17,4.41
2004-09-20,4.38
2004-09-21,4.43
2004-09-22,4.3
2004-09-23,4.31
2004-09-24,4.22
2004-09-27,4.12
2004-09-28,4.03
2004-09-29,4.15
2004-09-30,4.34
2004-10-01,4.4
2004-10-04,4.51
2004-10-05,4.5
2004-10-06,4.5
2004-10-07,4.5
2004-10-08,4.35
2004-10-11,4.39
2004-10-12,4.31
2004-10-13,4.42
2004-10-14,4.25
2004-10-15,4.28
2004-10-18,4.3
2004-10-19,4.38
2004-10-20,4.52
2004-10-21,4.77
2004-10-22,4.71
2004-10-25,4.65
2004-10-26,4.64
2004-10-27,4.77
2004-10-28,4.44
2004-10-29,4.54
2004-11-01,4.5
2004-11-02,4.51
2004-11-03,4.56
2004-11-04,4.61
2004-11-05,4.79
2004-11-08,4.87
2004-11-09,4.84
2004-11-10,4.75
2004-11-11,4.85
2004-11-12,4.86
2004-11-15,5.28
2004-11-16,5.48
2004-11-17,5.66
2004-11-18,5.81
2004-11-19,5.68
2004-11-22,5.72
2004-11-23,5.59
2004-11-24,5.5
2004-11-26,5.43
2004-11-29,5.5
2004-11-30,5.29
2004-12-01,5.43
2004-12-02,5.55
2004-12-03,5.39
2004-12-06,5.52
2004-12-07,5.4
2004-12-08,5.28
2004-12-09,5.14
2004-12-10,5.08
2004-12-13,5.09
2004-12-14,5.18
2004-12-15,5.36
2004-12-16,5.33
2004-12-17,5.26
2004-12-20,5.12
2004-12-21,5.15
2004-12-22,5.23
2004-12-23,5.32
2004-12-27,5.3
2004-12-28,5.36
2004-12-29,5.46
2004-12-30,5.46
2004-12-31,5.51
2005-01-03,5.27
2005-01-04,5.01
2005-01-05,5.7
2005-01-06,5.56
2005-01-07,5.81
2005-01-10,5.84
2005-01-11,5.55
2005-01-12,5.63
2005-01-13,5.54
2005-01-14,5.56
2005-01-18,5.69
2005-01-19,5.59
2005-01-20,5.52
2005-01-21,5.46
2005-01-24,5.24
2005-01-25,5.29
2005-01-26,5.39
2005-01-27,5.91
2005-01-28,5.81
2005-01-31,6.11
2005-02-01,6.03
2005-02-02,5.9
2005-02-03,5.79
2005-02-04,6.02
2005-02-07,6.06
2005-02-08,6.35
2005-02-09,6.03
2005-02-10,6.22
2005-02-11,6.38
2005-02-14,6.37
2005-02-15,6.47
2005-02-16,6.38
2005-02-17,6.26
2005-02-18,6.25
2005-02-22,6.06
2005-02-23,6.07
2005-02-24,6.34
2005-02-25,6.38
2005-02-28,6.37
2005-03-01,6.41
2005-03-02,6.26
2005-03-03,6.4
2005-03-04,6.37
2005-03-07,6.4
2005-03-08,6.26
2005-03-09,6.24
2005-03-10,6.07
2005-03-11,6.08
2005-03-14,6.24
2005-03-15,6.05
2005-03-16,6.06
2005-03-17,6.07
2005-03-18,6.02
2005-03-21,5.95
2005-03-22,5.81
2005-03-23,5.87
2005-03-24,5.96
2005-03-28,5.86
2005-03-29,5.68
2005-03-30,5.64
2005-03-31,5.6
2005-04-01,5.5
2005-04-04,5.5
2005-04-05,5.34
2005-04-06,5.46
2005-04-07,5.54
2005-04-08,5.56
2005-04-11,5.52
2005-04-12,5.52
2005-04-13,5.4
2005-04-14,5.36
2005-04-15,5.1
2005-04-18,5.1
2005-04-19,5.27
2005-04-20,5.19
2005-04-21,5.39
2005-04-22,5.3
2005-04-25,5.35
2005-04-26,5.24
2005-04-27,5.5
2005-04-28,5.4
2005-04-29,5.38
2005-05-02,5.44
2005-05-03,5.33
2005-05-04,5.64
2005-05-05,5.62
2005-05-06,5.68
2005-05-09,5.8
2005-05-10,5.8
2005-05-11,5.8
2005-05-12,5.89
2005-05-13,6.1
2005-05-16,6.06
2005-05-17,6.11
2005-05-18,6.24
2005-05-19,6.3
2005-05-20,6.18
2005-05-23,6.13
2005-05-24,6.44
2005-05-25,6.62
2005-05-26,6.73
2005-05-27,6.91
2005-05-31,7.31
2005-06-01,7.38
2005-06-02,7.49
2005-06-03,7.56
2005-06-06,7.45
2005-06-07,7.11
2005-06-08,7.07
2005-06-09,7.6
2005-06-10,7.91
2005-06-13,7.93
2005-06-14,7.92
2005-06-15,7.88
2005-06-16,8.04
2005-06-17,7.92
2005-06-20,7.77
2005-06-21,7.87
2005-06-22,7.93
2005-06-23,8.46
2005-06-24,8.44
2005-06-27,8.35
2005-06-28,8.63
2005-06-29,8.61
2005-06-30,8.48
2005-07-01,8.68
2005-07-05,9.2
2005-07-06,9.46
2005-07-07,9.48
2005-07-08,9.76
2005-07-11,10.1
2005-07-12,10.17
2005-07-13,10.49
2005-07-14,9.99
2005-07-15,10.1
2005-07-18,10.06
2005-07-19,10.45
2005-07-20,10.41
2005-07-21,10.41
2005-07-22,10.22
2005-07-25,9.9
2005-07-26,10.0
2005-07-27,9.91
2005-07-28,9.31
2005-07-29,9.75
2005-08-01,9.82
2005-08-02,9.93
2005-08-03,9.68
2005-08-04,9.44
2005-08-05,9.5
2005-08-08,9.18
2005-08-09,9.33
2005-08-10,9.31
2005-08-11,9.18
2005-08-12,9.14
2005-08-15,9.43
2005-08-16,9.49
2005-08-17,9.57
2005-08-18,9.74
2005-08-19,9.71
2005-08-22,9.8
2005-08-23,9.81
2005-08-24,9.78
2005-08-25,9.77
2005-08-26,9.63
2005-08-29,9.65
2005-08-30,9.5
2005-08-31,9.63
2005-09-01,9.79
2005-09-02,9.65
2005-09-06,9.73
2005-09-07,9.94
2005-09-08,9.8
2005-09-09,10.01
2005-09-12,10.0
2005-09-13,10.31
2005-09-14,9.9
2005-09-15,9.53
2005-09-16,9.52
2005-09-19,9.24
2005-09-20,9.25
2005-09-21,9.35
2005-09-22,9.37
2005-09-23,9.3
2005-09-26,9.34
2005-09-27,9.4
2005-09-28,9.35
2005-09-29,9.6
2005-09-30,9.82
2005-10-03,9.9
2005-10-04,9.32
2005-10-05,9.07
2005-10-06,8.92
2005-10-07,9.01
2005-10-10,8.26
2005-10-11,8.33
2005-10-12,8.37
2005-10-13,8.37
2005-10-14,8.53
2005-10-17,8.55
2005-10-18,8.44
2005-10-19,8.48
2005-10-20,8.39
2005-10-21,8.37
2005-10-24,8.73
2005-10-25,8.5
2005-10-26,8.38
2005-10-27,7.72
2005-10-28,7.9
2005-10-31,8.11
2005-11-01,8.08
2005-11-02,8.31
2005-11-03,8.42
2005-11-04,8.4
2005-11-07,8.27
2005-11-08,7.88
2005-11-09,7.9
2005-11-10,7.98
2005-11-11,7.88
2005-11-14,7.85
2005-11-15,7.83
2005-11-16,7.79
2005-11-17,7.92
2005-11-18,7.98
2005-11-21,7.91
2005-11-22,8.06
2005-11-23,8.08
2005-11-25,8.25
2005-11-28,8.17
2005-11-29,8.17
2005-11-30,8.2
2005-12-01,8.9
2005-12-02,8.74
2005-12-05,8.73
2005-12-06,8.73
2005-12-07,8.51
2005-12-08,8.48
2005-12-09,8.58
2005-12-12,8.49
2005-12-13,8.46
2005-12-14,8.56
2005-12-15,8.27
2005-12-16,8.16
2005-12-19,8.0
2005-12-20,8.03
2005-12-21,8.01
2005-12-22,8.16
2005-12-23,8.21
2005-12-27,8.08
2005-12-28,8.21
2005-12-29,8.07
2005-12-30,8.01
2006-01-03,8.17
2006-01-04,8.6
2006-01-05,9.18
2006-01-06,9.07
2006-01-09,9.29
2006-01-10,9.24
2006-01-11,9.24
2006-01-12,9.0
2006-01-13,8.86
2006-01-17,8.59
2006-01-18,8.64
2006-01-19,8.91
2006-01-20,8.62
2006-01-23,8.51
2006-01-24,8.73
2006-01-25,9.04
2006-01-26,9.54
2006-01-27,9.35
2006-01-30,9.31
2006-01-31,9.17
2006-02-01,9.37
2006-02-02,9.12
2006-02-03,9.09
2006-02-06,8.93
2006-02-07,8.81
2006-02-08,9.38
2006-02-09,9.31
2006-02-10,9.25
2006-02-13,9.13
2006-02-14,9.32
2006-02-15,9.42
2006-02-16,9.54
2006-02-17,9.5
2006-02-21,9.3
2006-02-22,9.44
2006-02-23,9.41
2006-02-24,9.55
2006-02-27,9.76
2006-02-28,9.75
2006-03-01,9.89
2006-03-02,9.79
2006-03-03,9.76
2006-03-06,9.62
2006-03-07,10.4
2006-03-08,10.31
2006-03-09,10.18
2006-03-10,10.31
2006-03-13,10.38
2006-03-14,10.69
2006-03-15,10.83
2006-03-16,11.0
2006-03-17,11.2
2006-03-20,11.19
2006-03-21,11.14
2006-03-22,10.98
2006-03-23,11.01
2006-03-24,10.99
2006-03-27,11.1
2006-03-28,11.06
2006-03-29,11.31
2006-03-30,11.54
2006-03-31,11.56
2006-04-03,11.67
2006-04-04,11.57
2006-04-05,11.65
2006-04-06,11.43
2006-04-07,11.36
2006-04-10,11.19
2006-04-11,10.98
2006-04-12,10.76
2006-04-13,11.22
2006-04-17,10.81
2006-04-18,11.15
2006-04-19,11.26
2006-04-20,10.18
2006-04-21,9.99
2006-04-24,9.65
2006-04-25,10.08
2006-04-26,10.03
2006-04-27,10.51
2006-04-28,10.61
2006-05-01,10.6
2006-05-02,10.52
2006-05-03,10.57
2006-05-04,10.99
2006-05-05,10.94
2006-05-08,10.99
2006-05-09,11.11
2006-05-10,10.98
2006-05-11,10.52
2006-05-12,10.33
2006-05-15,10.39
2006-05-16,10.38
2006-05-17,10.0
2006-05-18,9.76
2006-05-19,9.79
2006-05-22,9.65
2006-05-23,9.82
2006-05-24,9.8
2006-05-25,9.94
2006-05-26,10.1
2006-05-30,9.74
2006-05-31,9.73
2006-06-01,10.13
2006-06-02,9.96
2006-06-05,9.56
2006-06-06,9.44
2006-06-07,9.15
2006-06-08,9.02
2006-06-09,8.91
2006-06-12,8.66
2006-06-13,8.46
2006-06-14,8.5
2006-06-15,8.8
2006-06-16,8.84
2006-06-19,8.74
2006-06-20,8.6
2006-06-21,8.73
2006-06-22,8.52
2006-06-23,8.58
2006-06-26,8.82
2006-06-27,8.72
2006-06-28,8.64
2006-06-29,8.99
2006-06-30,8.95
2006-07-03,9.05
2006-07-05,9.0
2006-07-06,9.02
2006-07-07,8.82
2006-07-10,8.59
2006-07-11,8.77
2006-07-12,8.45
2006-07-13,8.28
2006-07-14,8.18
2006-07-17,8.07
2006-07-18,8.18
2006-07-19,8.27
2006-07-20,8.1
2006-07-21,7.72
2006-07-24,7.99
2006-07-25,7.95
2006-07-26,8.02
2006-07-27,7.77
2006-07-28,7.99
2006-07-31,8.21
2006-08-01,8.18
2006-08-02,8.26
2006-08-03,8.27
2006-08-04,8.44
2006-08-07,8.36
2006-08-08,8.19
2006-08-09,8.04
2006-08-10,7.97
2006-08-11,7.84
2006-08-14,7.86
2006-08-15,8.19
2006-08-16,8.25
2006-08-17,8.09
2006-08-18,8.05
2006-08-21,7.83
2006-08-22,7.76
2006-08-23,7.63
2006-08-24,7.62
2006-08-25,7.48
2006-08-28,7.64
2006-08-29,7.94
2006-08-30,7.9
2006-08-31,8.07
2006-09-01,8.02
2006-09-05,8.12
2006-09-06,8.0
2006-09-07,8.05
2006-09-08,8.07
2006-09-11,8.02
2006-09-12,8.16
2006-09-13,8.39
2006-09-14,8.43
2006-09-15,8.49
2006-09-18,8.63
2006-09-19,8.44
2006-09-20,8.52
2006-09-21,8.45
2006-09-22,8.25
2006-09-25,8.37
2006-09-26,8.31
2006-09-27,8.08
2006-09-28,8.04
2006-09-29,8.22
2006-10-02,8.35
2006-10-03,8.06
2006-10-04,8.18
2006-10-05,8.11
2006-10-06,8.1
2006-10-09,8.23
2006-10-10,8.4
2006-10-11,8.41
2006-10-12,8.47
2006-10-13,8.6
2006-10-16,8.86
2006-10-17,8.75
2006-10-18,8.64
2006-10-19,8.56
2006-10-20,8.44
2006-10-23,8.43
2006-10-24,8.28
2006-10-25,8.35
2006-10-26,9.52
2006-10-27,9.91
2006-10-30,9.86
2006-10-31,10.03
2006-11-01,9.57
2006-11-02,9.57
2006-11-03,9.6
2006-11-06,9.62
2006-11-07,9.69
2006-11-08,9.85
2006-11-09,9.9
2006-11-10,10.23
2006-11-13,10.44
2006-11-14,10.72
2006-11-15,10.53
2006-11-16,10.55
2006-11-17,10.96
2006-11-20,10.93
2006-11-21,10.7
2006-11-22,10.79
2006-11-24,10.84
2006-11-27,10.65
2006-11-28,10.75
2006-11-29,10.55
2006-11-30,10.65
2006-12-01,10.57
2006-12-04,9.11
2006-12-05,9.27
2006-12-06,9.2
2006-12-07,9.15
2006-12-08,9.35
2006-12-11,9.4
2006-12-12,9.29
2006-12-13,9.1
2006-12-14,9.36
2006-12-15,9.43
2006-12-18,9.55
2006-12-19,9.46
2006-12-20,9.36
2006-12-21,9.34
2006-12-22,9.23
2006-12-26,9.26
2006-12-27,9.3
2006-12-28,9.17
2006-12-29,9.03
2007-01-03,9.07
2007-01-04,9.31
2007-01-05,9.2
2007-01-08,9.19
2007-01-09,9.16
2007-01-10,9.42
2007-01-11,9.81
2007-01-12,10.42
2007-01-16,10.32
2007-01-17,10.26
2007-01-18,10.14
2007-01-19,10.27
2007-01-22,10.14
2007-01-23,9.98
2007-01-24,10.46
2007-01-25,9.7
2007-01-26,9.75
2007-01-29,9.3
2007-01-30,9.33
2007-01-31,9.39
2007-02-01,9.44
2007-02-02,9.29
2007-02-05,9.13
2007-02-06,9.35
2007-02-07,9.36
2007-02-08,9.23
2007-02-09,9.18
2007-02-12,8.91
2007-02-13,8.85
2007-02-14,9.09
2007-02-15,9.3
2007-02-16,9.35
2007-02-20,9.35
2007-02-21,9.35
2007-02-22,9.75
2007-02-23,9.77
2007-02-26,10.13
2007-02-27,10.02
2007-02-28,10.17
2007-03-01,10.05
2007-03-02,9.96
2007-03-05,9.7
2007-03-06,9.89
2007-03-07,9.85
2007-03-08,9.73
2007-03-09,9.79
2007-03-12,10.01
2007-03-13,9.75
2007-03-14,9.91
2007-03-15,10.2
2007-03-16,10.09
2007-03-19,10.15
2007-03-20,10.15
2007-03-21,10.17
2007-03-22,10.16
2007-03-23,10.28
2007-03-26,10.2
2007-03-27,10.09
2007-03-28,9.97
2007-03-29,10.04
2007-03-30,10.46
2007-04-02,10.24
2007-04-03,10.19
2007-04-04,10.02
2007-04-05,9.93
2007-04-09,9.78
2007-04-10,9.71
2007-04-11,9.64
2007-04-12,9.71
2007-04-13,9.79
2007-04-16,9.85
2007-04-17,9.83
2007-04-18,9.74
2007-04-19,9.81
2007-04-20,9.83
2007-04-23,9.51
2007-04-24,9.86
2007-04-25,9.92
2007-04-26,8.94
2007-04-27,8.77
2007-04-30,8.51
2007-05-01,8.19
2007-05-02,8.39
2007-05-03,8.54
2007-05-04,8.4
2007-05-07,8.45
2007-05-08,8.47
2007-05-09,8.55
2007-05-10,8.4
2007-05-11,8.38
2007-05-14,8.33
2007-05-15,8.26
2007-05-16,8.21
2007-05-17,7.98
2007-05-18,8.22
2007-05-21,8.29
2007-05-22,8.21
2007-05-23,8.25
2007-05-24,8.1
2007-05-25,8.25
2007-05-29,8.31
2007-05-30,8.33
2007-05-31,8.66
2007-06-01,8.95
2007-06-04,8.89
2007-06-05,8.69
2007-06-06,8.37
2007-06-07,8.3
2007-06-08,8.36
2007-06-11,8.29
2007-06-12,8.17
2007-06-13,8.21
2007-06-14,8.15
2007-06-15,8.25
2007-06-18,8.35
2007-06-19,8.22
2007-06-20,8.16
2007-06-21,8.37
2007-06-22,8.37
2007-06-25,8.32
2007-06-26,8.44
2007-06-27,8.64
2007-06-28,7.63
2007-06-29,7.51
2007-07-02,7.56
2007-07-03,7.78
2007-07-05,7.86
2007-07-06,7.86
2007-07-09,7.75
2007-07-10,7.65
2007-07-11,7.63
2007-07-12,7.76
2007-07-13,7.78
2007-07-16,7.77
2007-07-17,8.26
2007-07-18,8.04
2007-07-19,7.99
2007-07-20,7.9
2007-07-23,7.99
2007-07-24,7.79
2007-07-25,7.72
2007-07-26,7.5
2007-07-27,7.53
2007-07-30,7.45
2007-07-31,7.21
2007-08-01,6.9
2007-08-02,6.84
2007-08-03,6.63
2007-08-06,6.25
2007-08-07,6.08
2007-08-08,6.17
2007-08-09,6.22
2007-08-10,6.57
2007-08-13,6.77
2007-08-14,6.67
2007-08-15,6.21
2007-08-16,6.14
2007-08-17,6.19
2007-08-20,6.17
2007-08-21,6.62
2007-08-22,6.51
2007-08-23,6.62
2007-08-24,6.81
2007-08-27,6.67
2007-08-28,6.39
2007-08-29,6.82
2007-08-30,6.78
2007-08-31,6.91
2007-09-04,7.05
2007-09-05,7.0
2007-09-06,7.13
2007-09-07,6.79
2007-09-10,6.73
2007-09-11,7.2
2007-09-12,7.15
2007-09-13,7.04
2007-09-14,7.12
2007-09-17,6.98
2007-09-18,6.98
2007-09-19,6.86
2007-09-20,6.78
2007-09-21,6.78
2007-09-24,6.82
2007-09-25,7.05
2007-09-26,7.29
2007-09-27,7.4
2007-09-28,7.42
2007-10-01,7.45
2007-10-02,7.44
2007-10-03,7.36
2007-10-04,7.36
2007-10-05,7.7
2007-10-08,7.62
2007-10-09,7.47
2007-10-10,7.6
2007-10-11,7.47
2007-10-12,7.46
2007-10-15,7.49
2007-10-16,7.28
2007-10-17,7.38
2007-10-18,7.31
2007-10-19,7.11
2007-10-22,7.1
2007-10-23,7.26
2007-10-24,7.06
2007-10-25,6.51
2007-10-26,6.54
2007-10-29,6.65
2007-10-30,6.54
2007-10-31,6.59
2007-11-01,6.49
2007-11-02,6.49
2007-11-05,6.5
2007-11-06,6.36
2007-11-07,6.2
2007-11-08,6.15
2007-11-09,6.21
2007-11-12,6.18
2007-11-13,6.2
2007-11-14,6.21
2007-11-15,6.0
2007-11-16,6.03
2007-11-19,5.91
2007-11-20,5.78
2007-11-21,5.68
2007-11-23,5.78
2007-11-26,5.55
2007-11-27,5.55
2007-11-28,5.77
2007-11-29,5.65
2007-11-30,5.56
2007-12-03,5.49
2007-12-04,5.32
2007-12-05,5.49
2007-12-06,5.68
2007-12-07,5.84
2007-12-10,5.95
2007-12-11,5.71
2007-12-12,5.79
2007-12-13,5.73
2007-12-14,5.61
2007-12-17,5.43
2007-12-18,5.43
2007-12-19,5.41
2007-12-20,5.36
2007-12-21,5.48
2007-12-24,5.58
2007-12-26,5.46
2007-12-27,5.36
2007-12-28,5.25
2007-12-31,5.3
2008-01-02,4.87
2008-01-03,4.74
2008-01-04,4.47
2008-01-07,4.41
2008-01-08,4.12
2008-01-09,4.19
2008-01-10,4.17
2008-01-11,4.04
2008-01-14,4.13
2008-01-15,3.9
2008-01-16,3.89
2008-01-17,3.95
2008-01-18,3.96
2008-01-22,3.97
2008-01-23,4.04
2008-01-24,4.86
2008-01-25,4.82
2008-01-28,4.9
2008-01-29,4.94
2008-01-30,5.24
2008-01-31,5.21
2008-02-01,5.53
2008-02-04,5.38
2008-02-05,5.08
2008-02-06,4.92
2008-02-07,4.77
2008-02-08,4.88
2008-02-11,4.96
2008-02-12,4.97
2008-02-13,5.27
2008-02-14,5.13
2008-02-15,5.0
2008-02-19,4.98
2008-02-20,5.05
2008-02-21,5.03
2008-02-22,5.04
2008-02-25,5.27
2008-02-26,5.34
2008-02-27,5.41
2008-02-28,5.29
2008-02-29,5.02
2008-03-03,5.03
2008-03-04,5.19
2008-03-05,5.22
2008-03-06,5.1
2008-03-07,4.97
2008-03-10,4.86
2008-03-11,5.25
2008-03-12,5.27
2008-03-13,5.24
2008-03-14,4.98
2008-03-17,4.96
2008-03-18,5.27
2008-03-19,4.94
2008-03-20,5.11
2008-03-24,5.39
2008-03-25,5.42
2008-03-26,5.09
2008-03-27,4.98
2008-03-28,4.99
2008-03-31,4.94
2008-04-01,5.1
2008-04-02,5.08
2008-04-03,5.43
2008-04-04,5.51
2008-04-07,5.46
2008-04-08,5.35
2008-04-09,5.34
2008-04-10,5.62
2008-04-11,5.46
2008-04-14,5.36
2008-04-15,5.37
2008-04-16,5.02
2008-04-17,4.87
2008-04-18,5.02
2008-04-21,5.0
2008-04-22,4.78
2008-04-23,5.01
2008-04-24,6.0
2008-04-25,6.19
2008-04-28,6.09
2008-04-29,6.12
2008-04-30,6.19
2008-05-01,6.46
2008-05-02,6.45
2008-05-05,6.48
2008-05-06,6.76
2008-05-07,6.66
2008-05-08,6.63
2008-05-09,6.69
2008-05-12,6.69
2008-05-13,6.7
2008-05-14,6.84
2008-05-15,7.02
2008-05-16,6.93
2008-05-19,6.98
2008-05-20,6.87
2008-05-21,6.74
2008-05-22,6.74
2008-05-23,6.74
2008-05-27,6.94
2008-05-28,7.07
2008-05-29,7.17
2008-05-30,7.26
2008-06-02,7.03
2008-06-03,7.17
2008-06-04,7.32
2008-06-05,7.52
2008-06-06,7.24
2008-06-09,7.27
2008-06-10,7.1
2008-06-11,6.82
2008-06-12,6.84
2008-06-13,7.01
2008-06-16,7.32
2008-06-17,7.08
2008-06-18,6.8
2008-06-19,7.18
2008-06-20,7.03
2008-06-23,6.79
2008-06-24,6.75
2008-06-25,6.76
2008-06-26,6.38
2008-06-27,6.35
2008-06-30,6.18
2008-07-01,6.1
2008-07-02,5.9
2008-07-03,5.85
2008-07-07,5.98
2008-07-08,5.91
2008-07-09,5.82
2008-07-10,6.01
2008-07-11,5.84
2008-07-14,5.87
2008-07-15,5.75
2008-07-16,6.12
2008-07-17,6.46
2008-07-18,6.43
2008-07-21,6.46
2008-07-22,6.6
2008-07-23,6.84
2008-07-24,7.14
2008-07-25,6.96
2008-07-28,6.85
2008-07-29,7.14
2008-07-30,6.99
2008-07-31,6.94
2008-08-01,6.92
2008-08-04,7.0
2008-08-05,6.83
2008-08-06,6.98
2008-08-07,7.02
2008-08-08,7.24
2008-08-11,7.54
2008-08-12,7.61
2008-08-13,7.61
2008-08-14,7.73
2008-08-15,7.65
2008-08-18,7.45
2008-08-19,7.28
2008-08-20,7.37
2008-08-21,7.3
2008-08-22,7.38
2008-08-25,7.19
2008-08-26,7.01
2008-08-27,7.12
2008-08-28,7.04
2008-08-29,6.68
2008-09-02,6.62
2008-09-03,6.5
2008-09-04,6.1
2008-09-05,6.48
2008-09-08,6.48
2008-09-09,6.33
2008-09-10,6.25
2008-09-11,6.34
2008-09-12,6.4
2008-09-15,6.08
2008-09-16,5.93
2008-09-17,5.38
2008-09-18,5.88
2008-09-19,5.98
2008-09-22,5.54
2008-09-23,5.45
2008-09-24,5.24
2008-09-25,5.58
2008-09-26,5.72
2008-09-29,5.1
2008-09-30,5.35
2008-10-01,5.46
2008-10-02,5.12
2008-10-03,5.07
2008-10-06,4.84
2008-10-07,4.46
2008-10-08,4.42
2008-10-09,4.38
2008-10-10,3.99
2008-10-13,4.55
2008-10-14,4.31
2008-10-15,4.0
2008-10-16,4.32
2008-10-17,4.07
2008-10-20,4.14
2008-10-21,3.9
2008-10-22,3.83
2008-10-23,3.58
2008-10-24,3.51
2008-10-27,3.21
2008-10-28,3.55
2008-10-29,3.57
2008-10-30,3.8
2008-10-31,3.85
2008-11-03,3.96
2008-11-04,4.18
2008-11-05,3.96
2008-11-06,3.56
2008-11-07,3.7
2008-11-10,3.5
2008-11-11,3.52
2008-11-12,3.15
2008-11-13,3.27
2008-11-14,3.11
2008-11-17,3.01
2008-11-18,2.82
2008-11-19,2.55
2008-11-20,2.44
2008-11-21,2.49
2008-11-24,2.7
2008-11-25,2.75
2008-11-26,2.84
2008-11-28,2.7
2008-12-01,2.52
2008-12-02,2.6
2008-12-03,3.1
2008-12-04,2.83
2008-12-05,3.15
2008-12-08,2.86
2008-12-09,3.24
2008-12-10,3.27
2008-12-11,3.07
2008-12-12,3.37
2008-12-15,3.37
2008-12-16,3.65
2008-12-17,3.76
2008-12-18,3.44
2008-12-19,3.91
2008-12-22,3.16
2008-12-23,3.08
2008-12-24,3.18
2008-12-26,3.16
2008-12-29,3.13
2008-12-30,3.38
2008-12-31,3.31
2009-01-02,3.6
2009-01-05,3.27
2009-01-06,3.88
2009-01-07,3.65
2009-01-08,3.79
2009-01-09,3.45
2009-01-12,3.29
2009-01-13,3.28
2009-01-14,3.05
2009-01-15,3.18
2009-01-16,3.29
2009-01-20,2.98
2009-01-21,3.24
2009-01-22,3.11
2009-01-23,3.27
2009-01-26,3.27
2009-01-27,3.41
2009-01-28,3.59
2009-01-29,3.23
2009-01-30,3.18
2009-02-02,3.21
2009-02-03,3.2
2009-02-04,3.36
2009-02-05,3.57
2009-02-06,3.66
2009-02-09,3.53
2009-02-10,3.17
2009-02-11,3.2
2009-02-12,3.21
2009-02-13,3.16
2009-02-17,3.07
2009-02-18,2.96
2009-02-19,2.67
2009-02-20,2.63
2009-02-23,2.52
2009-02-24,2.78
2009-02-25,2.79
2009-02-26,2.86
2009-02-27,2.9
2009-03-02,2.52
2009-03-03,2.61
2009-03-04,2.91
2009-03-05,2.73
2009-03-06,2.61
2009-03-09,2.44
2009-03-10,2.85
2009-03-11,2.88
2009-03-12,2.9
2009-03-13,3.12
2009-03-16,3.05
2009-03-17,3.03
2009-03-18,3.14
2009-03-19,3.24
2009-03-20,3.1
2009-03-23,3.39
2009-03-24,3.21
2009-03-25,3.11
2009-03-26,3.33
2009-03-27,3.28
2009-03-30,3.05
2009-03-31,3.03
2009-04-01,3.28
2009-04-02,3.56
2009-04-03,3.66
2009-04-06,3.47
2009-04-07,3.43
2009-04-08,3.58
2009-04-09,3.79
2009-04-13,3.65
2009-04-14,3.59
2009-04-15,3.62
2009-04-16,3.85
2009-04-17,3.85
2009-04-20,3.66
2009-04-21,3.7
2009-04-22,3.74
2009-04-23,3.86
2009-04-24,3.88
2009-04-27,3.78
2009-04-28,3.75
2009-04-29,3.95
2009-04-30,3.82
2009-05-01,4.0
2009-05-04,4.28
2009-05-05,4.33
2009-05-06,4.32
2009-05-07,4.24
2009-05-08,4.15
2009-05-11,4.12
2009-05-12,4.06
2009-05-13,3.89
2009-05-14,3.97
2009-05-15,3.78
2009-05-18,3.89
2009-05-19,4.08
2009-05-20,4.05
2009-05-21,4.11
2009-05-22,4.06
2009-05-26,4.27
2009-05-27,4.39
2009-05-28,4.39
2009-05-29,4.44
2009-06-01,4.5
2009-06-02,4.24
2009-06-03,4.12
2009-06-04,4.3
2009-06-05,4.19
2009-06-08,4.18
2009-06-09,4.64
2009-06-10,4.82
2009-06-11,4.98
2009-06-12,4.86
2009-06-15,4.62
2009-06-16,4.52
2009-06-17,4.67
2009-06-18,4.51
2009-06-19,4.56
2009-06-22,4.5
2009-06-23,4.53
2009-06-24,4.63
2009-06-25,4.61
2009-06-26,4.64
2009-06-29,4.51
2009-06-30,4.54
2009-07-01,4.73
2009-07-02,4.8
2009-07-06,4.54
2009-07-07,4.66
2009-07-08,4.46
2009-07-09,4.59
2009-07-10,4.57
2009-07-13,4.56
2009-07-14,4.66
2009-07-15,4.98
2009-07-16,5.21
2009-07-17,5.26
2009-07-20,5.42
2009-07-21,5.42
2009-07-22,5.38
2009-07-23,5.34
2009-07-24,5.17
2009-07-27,5.2
2009-07-28,5.18
2009-07-29,5.24
2009-07-30,5.21
2009-07-31,5.17
2009-08-03,5.31
2009-08-04,5.4
2009-08-05,5.29
2009-08-06,5.1
2009-08-07,5.15
2009-08-10,5.07
2009-08-11,4.92
2009-08-12,5.04
2009-08-13,5.02
2009-08-14,5.09
2009-08-17,4.96
2009-08-18,5.03
2009-08-19,5.04
2009-08-20,4.96
2009-08-21,5.06
2009-08-24,5.08
2009-08-25,5.08
2009-08-26,5.09
2009-08-27,5.21
2009-08-28,5.28
2009-08-31,5.21
2009-09-01,5.06
2009-09-02,4.93
2009-09-03,5.01
2009-09-04,5.15
2009-09-08,5.38
2009-09-09,5.39
2009-09-10,5.53
2009-09-11,5.47
2009-09-14,5.59
2009-09-15,5.68
2009-09-16,5.51
2009-09-17,5.48
2009-09-18,5.45
2009-09-21,5.33
2009-09-22,5.47
2009-09-23,5.46
2009-09-24,5.29
2009-09-25,5.6
2009-09-28,5.64
2009-09-29,5.46
2009-09-30,5.49
2009-10-01,5.3
2009-10-02,5.22
2009-10-05,5.46
2009-10-06,5.54
2009-10-07,5.58
2009-10-08,5.43
2009-10-09,5.67
2009-10-12,5.7
2009-10-13,5.8
2009-10-14,5.93
2009-10-15,5.74
2009-10-16,5.63
2009-10-19,5.75
2009-10-20,5.68
2009-10-21,5.51
2009-10-22,5.45
2009-10-23,5.35
2009-10-26,5.33
2009-10-27,5.12
2009-10-28,4.98
2009-10-29,5.31
2009-10-30,5.13
2009-11-02,5.14
2009-11-03,4.99
2009-11-04,5.09
2009-11-05,5.18
2009-11-06,5.22
2009-11-09,5.47
2009-11-10,5.49
2009-11-11,5.55
2009-11-12,5.54
2009-11-13,5.59
2009-11-16,5.78
2009-11-17,5.84
2009-11-18,5.7
2009-11-19,5.51
2009-11-20,5.47
2009-11-23,5.5
2009-11-24,5.46
2009-11-25,5.54
2009-11-27,5.42
2009-11-30,5.3
2009-12-01,5.57
2009-12-02,5.62
2009-12-03,5.62
2009-12-04,5.76
2009-12-07,5.68
2009-12-08,5.55
2009-12-09,5.59
2009-12-10,5.58
2009-12-11,5.56
2009-12-14,5.63
2009-12-15,5.53
2009-12-16,5.61
2009-12-17,5.47
2009-12-18,5.62
2009-12-21,5.96
2009-12-22,5.9
2009-12-23,6.01
2009-12-24,6.03
2009-12-28,6.0
2009-12-29,5.96
2009-12-30,5.99
2009-12-31,6.0
2010-01-04,6.07
2010-01-05,6.11
2010-01-06,6.0
2010-01-07,5.94
2010-01-08,6.02
2010-01-11,6.14
2010-01-12,5.94
2010-01-13,6.02
2010-01-14,5.99
2010-01-15,5.86
2010-01-19,5.96
2010-01-20,5.87
2010-01-21,6.07
2010-01-22,5.77
2010-01-25,5.81
2010-01-26,5.73
2010-01-27,6.0
2010-01-28,5.45
2010-01-29,4.99
2010-02-01,5.19
2010-02-02,5.11
2010-02-03,5.17
2010-02-04,5.0
2010-02-05,5.15
2010-02-08,5.13
2010-02-09,5.28
2010-02-10,5.38
2010-02-11,5.39
2010-02-12,5.39
2010-02-16,5.63
2010-02-17,5.56
2010-02-18,5.55
2010-02-19,5.64
2010-02-22,5.58
2010-02-23,5.52
2010-02-24,5.5
2010-02-25,5.46
2010-02-26,5.41
2010-03-01,5.51
2010-03-02,5.54
2010-03-03,5.51
2010-03-04,5.55
2010-03-05,5.64
2010-03-08,5.55
2010-03-09,5.48
2010-03-10,5.62
2010-03-11,5.54
2010-03-12,5.57
2010-03-15,5.55
2010-03-16,5.82
2010-03-17,6.34
2010-03-18,6.37
2010-03-19,6.41
2010-03-22,6.65
2010-03-23,6.65
2010-03-24,6.45
2010-03-25,6.45
2010-03-26,6.37
2010-03-29,6.39
2010-03-30,6.34
2010-03-31,6.15
2010-04-01,6.12
2010-04-05,6.27
2010-04-06,6.22
2010-04-07,6.18
2010-04-08,6.16
2010-04-09,6.2
2010-04-12,6.26
2010-04-13,6.3
2010-04-14,6.59
2010-04-15,6.61
2010-04-16,6.47
2010-04-19,6.46
2010-04-20,6.45
2010-04-21,6.44
2010-04-22,6.51
2010-04-23,6.55
2010-04-26,6.58
2010-04-27,6.29
2010-04-28,6.37
2010-04-29,6.27
2010-04-30,6.03
2010-05-03,6.18
2010-05-04,5.91
2010-05-05,5.79
2010-05-06,5.59
2010-05-07,5.5
2010-05-10,5.79
2010-05-11,5.69
2010-05-12,5.96
2010-05-13,5.77
2010-05-14,5.61
2010-05-17,5.61
2010-05-18,5.47
2010-05-19,5.4
2010-05-20,5.27
2010-05-21,5.31
2010-05-24,5.3
2010-05-25,5.23
2010-05-26,5.2
2010-05-27,5.43
2010-05-28,5.35
2010-06-01,5.19
2010-06-02,5.4
2010-06-03,5.46
2010-06-04,5.21
2010-06-07,4.95
2010-06-08,4.84
2010-06-09,4.85
2010-06-10,5.04
2010-06-11,5.1
2010-06-14,5.04
2010-06-15,5.32
2010-06-16,5.29
2010-06-17,5.29
2010-06-18,5.27
2010-06-21,5.2
2010-06-22,5.12
2010-06-23,5.1
2010-06-24,4.96
2010-06-25,4.92
2010-06-28,4.97
2010-06-29,4.71
2010-06-30,4.6
2010-07-01,4.57
2010-07-02,4.51
2010-07-06,4.51
2010-07-07,4.81
2010-07-08,4.82
2010-07-09,4.83
2010-07-12,4.85
2010-07-13,4.94
2010-07-14,5.02
2010-07-15,5.0
2010-07-16,4.76
2010-07-19,4.82
2010-07-20,4.95
2010-07-21,4.79
2010-07-22,4.87
2010-07-23,4.85
2010-07-26,4.86
2010-07-27,4.97
2010-07-28,4.75
2010-07-29,4.08
2010-07-30,4.05
2010-08-02,4.3
2010-08-03,4.21
2010-08-04,4.31
2010-08-05,4.38
2010-08-06,4.38
2010-08-09,4.47
2010-08-10,4.25
2010-08-11,4.11
2010-08-12,4.24
2010-08-13,4.21
2010-08-16,4.29
2010-08-17,4.4
2010-08-18,4.58
2010-08-19,4.48
2010-08-20,4.43
2010-08-23,4.31
2010-08-24,4.22
2010-08-25,4.19
2010-08-26,4.08
2010-08-27,4.19
2010-08-30,4.13
2010-08-31,4.03
2010-09-01,4.13
2010-09-02,4.24
2010-09-03,4.32
2010-09-07,4.23
2010-09-08,4.25
2010-09-09,4.28
2010-09-10,4.19
2010-09-13,4.34
2010-09-14,4.36
2010-09-15,4.35
2010-09-16,4.44
2010-09-17,4.42
2010-09-20,4.52
2010-09-21,4.51
2010-09-22,4.37
2010-09-23,4.29
2010-09-24,4.48
2010-09-27,4.44
2010-09-28,4.45
2010-09-29,4.56
2010-09-30,4.56
2010-10-01,4.56
2010-10-04,4.46
2010-10-05,4.51
2010-10-06,4.47
2010-10-07,4.45
2010-10-08,4.55
2010-10-11,4.61
2010-10-12,4.67
2010-10-13,4.7
2010-10-14,4.67
2010-10-15,4.66
2010-10-18,4.68
2010-10-19,4.58
2010-10-20,4.64
2010-10-21,4.6
2010-10-22,4.69
2010-10-25,4.71
2010-10-26,4.69
2010-10-27,4.74
2010-10-28,5.1
2010-10-29,5.25
2010-11-01,5.23
2010-11-02,5.36
2010-11-03,5.32
2010-11-04,5.48
2010-11-05,5.63
2010-11-08,5.58
2010-11-09,5.6
2010-11-10,5.59
2010-11-11,5.57
2010-11-12,5.5
2010-11-15,5.47
2010-11-16,5.41
2010-11-17,5.37
2010-11-18,5.57
2010-11-19,5.69
2010-11-22,5.79
2010-11-23,5.7
2010-11-24,5.76
2010-11-26,5.79
2010-11-29,5.72
2010-11-30,5.75
2010-12-01,5.82
2010-12-02,5.92
2010-12-03,5.97
2010-12-06,5.97
2010-12-07,5.95
2010-12-08,5.98
2010-12-09,5.96
2010-12-10,6.0
2010-12-13,5.91
2010-12-14,5.92
2010-12-15,5.91
2010-12-16,5.98
2010-12-17,5.98
2010-12-20,5.95
2010-12-21,6.05
2010-12-22,6.09
2010-12-23,6.06
2010-12-27,6.04
2010-12-28,6.05
2010-12-29,5.93
2010-12-30,6.0
2010-12-31,6.0
2011-01-03,6.07
2011-01-04,5.99
2011-01-05,6.14
2011-01-06,6.12
2011-01-07,6.06
2011-01-10,6.06
2011-01-11,6.1
2011-01-12,6.1
2011-01-13,6.13
2011-01-14,6.22
2011-01-18,6.26
2011-01-19,5.97
2011-01-20,5.85
2011-01-21,5.75
2011-01-24,5.85
2011-01-25,5.92
2011-01-26,5.88
2011-01-27,6.26
2011-01-28,6.15
2011-01-31,6.19
2011-02-01,6.36
2011-02-02,6.39
2011-02-03,6.33
2011-02-04,6.36
2011-02-07,6.45
2011-02-08,6.4
2011-02-09,6.4
2011-02-10,6.38
2011-02-11,6.49
2011-02-14,6.51
2011-02-15,6.49
2011-02-16,6.51
2011-02-17,6.71
2011-02-18,6.74
2011-02-22,6.51
2011-02-23,6.24
2011-02-24,6.26
2011-02-25,6.41
2011-02-28,6.27
2011-03-01,6.19
2011-03-02,6.28
2011-03-03,6.41
2011-03-04,6.29
2011-03-07,6.17
2011-03-08,6.24
2011-03-09,6.12
2011-03-10,6.32
2011-03-11,6.6
2011-03-14,6.71
2011-03-15,6.48
2011-03-16,6.22
2011-03-17,6.25
2011-03-18,6.39
2011-03-21,6.59
2011-03-22,6.58
2011-03-23,6.87
2011-03-24,6.92
2011-03-25,6.95
2011-03-28,6.9
2011-03-29,6.93
2011-03-30,6.98
2011-03-31,6.79
2011-04-01,6.66
2011-04-04,6.57
2011-04-05,6.67
2011-04-06,6.69
2011-04-07,6.71
2011-04-08,6.64
2011-04-11,6.57
2011-04-12,6.48
2011-04-13,6.43
2011-04-14,6.45
2011-04-15,6.6
2011-04-18,6.51
2011-04-19,6.52
2011-04-20,6.78
2011-04-21,6.87
2011-04-25,6.87
2011-04-26,6.92
2011-04-27,6.89
2011-04-28,7.41
2011-04-29,7.34
2011-05-02,7.28
2011-05-03,7.25
2011-05-04,7.3
2011-05-05,7.31
2011-05-06,7.53
2011-05-09,7.57
2011-05-10,7.64
2011-05-11,7.49
2011-05-12,7.55
2011-05-13,7.62
2011-05-16,7.42
2011-05-17,7.36
2011-05-18,7.56
2011-05-19,7.49
2011-05-20,7.51
2011-05-23,7.34
2011-05-24,7.16
2011-05-25,7.21
2011-05-26,7.26
2011-05-27,7.31
2011-05-31,7.5
2011-06-01,7.13
2011-06-02,7.14
2011-06-03,7.04
2011-06-06,7.05
2011-06-07,7.1
2011-06-08,6.89
2011-06-09,7.01
2011-06-10,6.81
2011-06-13,6.76
2011-06-14,6.93
2011-06-15,6.84
2011-06-16,6.74
2011-06-17,6.74
2011-06-20,6.82
2011-06-21,6.99
2011-06-22,6.8
2011-06-23,6.99
2011-06-24,6.83
2011-06-27,6.88
2011-06-28,6.93
2011-06-29,6.94
2011-06-30,7.12
2011-07-01,7.26
2011-07-05,7.22
2011-07-06,7.2
2011-07-07,7.43
2011-07-08,7.29
2011-07-11,7.07
2011-07-12,6.83
2011-07-13,6.76
2011-07-14,6.69
2011-07-15,6.7
2011-07-18,6.53
2011-07-19,6.7
2011-07-20,6.63
2011-07-21,6.5
2011-07-22,6.7
2011-07-25,6.59
2011-07-26,6.68
2011-07-27,6.44
2011-07-28,7.36
2011-07-29,7.38
2011-08-01,7.38
2011-08-02,7.32
2011-08-03,7.58
2011-08-04,6.91
2011-08-05,6.78
2011-08-08,6.24
2011-08-09,6.62
2011-08-10,6.56
2011-08-11,7.08
2011-08-12,6.98
2011-08-15,7.2
2011-08-16,7.1
2011-08-17,6.97
2011-08-18,6.35
2011-08-19,6.28
2011-08-22,6.25
2011-08-23,6.7
2011-08-24,6.75
2011-08-25,6.63
2011-08-26,6.77
2011-08-29,6.86
2011-08-30,6.83
2011-08-31,6.79
2011-09-01,6.81
2011-09-02,6.58
2011-09-06,6.6
2011-09-07,6.83
2011-09-08,6.84
2011-09-09,6.55
2011-09-12,6.57
2011-09-13,6.5
2011-09-14,6.66
2011-09-15,6.71
2011-09-16,6.66
2011-09-19,6.49
2011-09-20,6.29
2011-09-21,6.1
2011-09-22,5.78
2011-09-23,5.8
2011-09-26,5.93
2011-09-27,5.77
2011-09-28,5.43
2011-09-29,5.34
2011-09-30,5.19
2011-10-03,4.83
2011-10-04,5.16
2011-10-05,5.35
2011-10-06,5.46
2011-10-07,5.39
2011-10-10,5.58
2011-10-11,5.69
2011-10-12,5.71
2011-10-13,5.92
2011-10-14,5.95
2011-10-17,5.64
2011-10-18,5.7
2011-10-19,5.42
2011-10-20,5.52
2011-10-21,5.86
2011-10-24,6.01
2011-10-25,5.78
2011-10-26,5.92
2011-10-27,6.31
2011-10-28,6.28
2011-10-31,6.25
2011-11-01,5.99
2011-11-02,5.92
2011-11-03,6.27
2011-11-04,6.27
2011-11-07,6.22
2011-11-08,6.17
2011-11-09,5.79
2011-11-10,5.78
2011-11-11,5.94
2011-11-14,5.86
2011-11-15,5.95
2011-11-16,5.93
2011-11-17,5.66
2011-11-18,5.66
2011-11-21,5.49
2011-11-22,5.38
2011-11-23,5.18
2011-11-25,5.08
2011-11-28,5.29
2011-11-29,5.39
2011-11-30,5.6
2011-12-01,5.7
2011-12-02,5.79
2011-12-05,5.76
2011-12-06,5.76
2011-12-07,5.8
2011-12-08,5.7
2011-12-09,5.74
2011-12-12,5.69
2011-12-13,5.51
2011-12-14,5.41
2011-12-15,5.42
2011-12-16,5.44
2011-12-19,5.43
2011-12-20,5.8
2011-12-21,5.77
2011-12-22,6.05
2011-12-23,5.91
2011-12-27,5.89
2011-12-28,5.83
2011-12-29,5.97
2011-12-30,5.95
2012-01-03,6.19
2012-01-04,6.22
2012-01-05,6.71
2012-01-06,6.72
2012-01-09,6.74
2012-01-10,6.69
2012-01-11,6.77
2012-01-12,6.88
2012-01-13,6.64
2012-01-17,6.73
2012-01-18,6.93
2012-01-19,7.0
2012-01-20,7.07
2012-01-23,7.0
2012-01-24,7.13
2012-01-25,7.08
2012-01-26,7.85
2012-01-27,7.74
2012-01-30,7.66
2012-01-31,7.58
2012-02-01,7.81
2012-02-02,7.94
2012-02-03,8.1
2012-02-06,8.05
2012-02-07,8.11
2012-02-08,8.05
2012-02-09,8.24
2012-02-10,8.32
2012-02-13,8.4
2012-02-14,8.46
2012-02-15,8.41
2012-02-16,8.5
2012-02-17,8.3
2012-02-21,8.22
2012-02-22,8.33
2012-02-23,8.57
2012-02-24,8.5
2012-02-27,8.42
2012-02-28,8.6
2012-02-29,8.6
2012-03-01,8.54
2012-03-02,8.33
2012-03-05,8.11
2012-03-06,8.08
2012-03-07,8.32
2012-03-08,8.52
2012-03-09,8.73
2012-03-12,8.52
2012-03-13,8.55
2012-03-14,9.13
2012-03-15,8.95
2012-03-16,8.81
2012-03-19,8.75
2012-03-20,8.78
2012-03-21,8.8
2012-03-22,8.67
2012-03-23,8.66
2012-03-26,8.87
2012-03-27,8.66
2012-03-28,8.53
2012-03-29,8.57
2012-03-30,8.69
2012-04-02,8.77
2012-04-03,8.77
2012-04-04,8.47
2012-04-05,8.27
2012-04-09,8.1
2012-04-10,8.03
2012-04-11,8.15
2012-04-12,8.33
2012-04-13,8.12
2012-04-16,8.08
2012-04-17,8.34
2012-04-18,8.26
2012-04-19,8.07
2012-04-20,7.93
2012-04-23,8.04
2012-04-24,8.03
2012-04-25,8.42
2012-04-26,8.19
2012-04-27,7.9
2012-04-30,8.04
2012-05-01,8.19
2012-05-02,8.24
2012-05-03,8.01
2012-05-04,7.91
2012-05-07,7.86
2012-05-08,7.82
2012-05-09,7.75
2012-05-10,7.7
2012-05-11,7.74
2012-05-14,7.72
2012-05-15,7.61
2012-05-16,7.58
2012-05-17,7.5
2012-05-18,7.18
2012-05-21,7.33
2012-05-22,6.99
2012-05-23,6.96
2012-05-24,6.85
2012-05-25,6.9
2012-05-29,6.85
2012-05-30,6.73
2012-05-31,6.67
2012-06-01,6.32
2012-06-04,6.34
2012-06-05,6.5
2012-06-06,6.64
2012-06-07,6.53
2012-06-08,6.58
2012-06-11,6.36
2012-06-12,6.5
2012-06-13,6.44
2012-06-14,6.2
2012-06-15,6.4
2012-06-18,6.52
2012-06-19,6.64
2012-06-20,6.63
2012-06-21,6.18
2012-06-22,6.36
2012-06-25,6.13
2012-06-26,6.14
2012-06-27,6.21
2012-06-28,6.08
2012-06-29,6.35
2012-07-02,6.39
2012-07-03,6.67
2012-07-05,6.57
2012-07-06,6.21
2012-07-09,6.22
2012-07-10,6.11
2012-07-11,6.0
2012-07-12,5.84
2012-07-13,5.84
2012-07-16,5.82
2012-07-17,5.75
2012-07-18,5.95
2012-07-19,6.26
2012-07-20,6.15
2012-07-23,6.05
2012-07-24,5.91
2012-07-25,6.09
2012-07-26,7.03
2012-07-27,7.16
2012-07-30,7.02
2012-07-31,6.91
2012-08-01,6.99
2012-08-02,6.93
2012-08-03,7.29
2012-08-06,7.24
2012-08-07,7.53
2012-08-08,7.58
2012-08-09,7.66
2012-08-10,7.7
2012-08-13,7.75
2012-08-14,7.66
2012-08-15,7.74
2012-08-16,7.8
2012-08-17,7.85
2012-08-20,7.78
2012-08-21,7.7
2012-08-22,7.68
2012-08-23,7.58
2012-08-24,7.59
2012-08-27,7.76
2012-08-28,7.67
2012-08-29,7.72
2012-08-30,7.57
2012-08-31,7.82
2012-09-04,7.77
2012-09-05,7.78
2012-09-06,8.05
2012-09-07,7.86
2012-09-10,7.68
2012-09-11,7.84
2012-09-12,7.78
2012-09-13,7.87
2012-09-14,7.87
2012-09-17,7.51
2012-09-18,7.54
2012-09-19,7.56
2012-09-20,7.43
2012-09-21,7.29
2012-09-24,7.28
2012-09-25,7.06
2012-09-26,6.96
2012-09-27,7.13
2012-09-28,6.94
2012-10-01,6.81
2012-10-02,6.83
2012-10-03,6.83
2012-10-04,6.97
2012-10-05,7.11
2012-10-08,6.83
2012-10-09,6.66
2012-10-10,6.62
2012-10-11,6.57
2012-10-12,6.45
2012-10-15,6.52
2012-10-16,6.83
2012-10-17,6.74
2012-10-18,6.56
2012-10-19,6.46
2012-10-22,6.43
2012-10-23,6.46
2012-10-24,6.28
2012-10-25,6.76
2012-10-26,6.89
2012-10-31,6.87
2012-11-01,7.03
2012-11-02,6.75
2012-11-05,6.97
2012-11-06,7.1
2012-11-07,6.82
2012-11-08,6.72
2012-11-09,6.72
2012-11-12,6.69
2012-11-13,6.7
2012-11-14,6.57
2012-11-15,6.42
2012-11-16,6.42
2012-11-19,6.73
2012-11-20,6.63
2012-11-21,6.57
2012-11-23,6.58
2012-11-26,6.7
2012-11-27,6.71
2012-11-28,6.67
2012-11-29,6.74
2012-11-30,6.75
2012-12-03,6.66
2012-12-04,6.73
2012-12-05,6.85
2012-12-06,6.91
2012-12-07,6.95
2012-12-10,7.05
2012-12-11,7.17
2012-12-12,7.07
2012-12-13,6.88
2012-12-14,6.74
2012-12-17,6.75
2012-12-18,6.86
2012-12-19,7.1
2012-12-20,7.05
2012-12-21,7.0
2012-12-24,6.96
2012-12-26,6.86
2012-12-27,6.91
2012-12-28,6.94
2012-12-31,7.07
2013-01-02,7.53
2013-01-03,7.32
2013-01-04,7.29
2013-01-07,7.18
2013-01-08,6.92
2013-01-09,6.91
2013-01-10,7.09
2013-01-11,7.16
2013-01-14,7.21
2013-01-15,7.2
2013-01-16,7.42
2013-01-17,7.41
2013-01-18,7.35
2013-01-22,7.29
2013-01-23,7.49
2013-01-24,7.3
2013-01-25,7.33
2013-01-28,7.36
2013-01-29,7.21
2013-01-30,7.19
2013-01-31,7.055
2013-02-01,7.4
2013-02-04,7.14
2013-02-05,7.205
2013-02-06,7.26
2013-02-07,6.99
2013-02-08,7.165
2013-02-11,7.14
2013-02-12,7.18
2013-02-13,7.12
2013-02-14,7.28
2013-02-15,7.1
2013-02-19,7.21
2013-02-20,7.01
2013-02-21,6.96
2013-02-22,7.1
2013-02-25,6.83
2013-02-26,6.815
2013-02-27,7.07
2013-02-28,6.98
2013-03-01,6.9
2013-03-04,6.75
2013-03-05,6.83
2013-03-06,6.85
2013-03-07,6.83
2013-03-08,6.9
2013-03-11,6.87
2013-03-12,6.95
2013-03-13,6.98
2013-03-14,7.05
2013-03-15,6.88
2013-03-18,6.76
2013-03-19,6.74
2013-03-20,6.83
2013-03-21,6.68
2013-03-22,6.62
2013-03-25,6.57
2013-03-26,6.72
2013-03-27,6.74
2013-03-28,6.78
2013-04-01,6.53
2013-04-02,6.46
2013-04-03,6.18
2013-04-04,6.34
2013-04-05,6.43
2013-04-08,6.44
2013-04-09,6.43
2013-04-10,6.52
2013-04-11,6.53
2013-04-12,6.4
2013-04-15,6.2
2013-04-16,6.4
2013-04-17,6.2
2013-04-18,6.09
2013-04-19,6.09
2013-04-22,6.14
2013-04-23,6.2
2013-04-24,6.34
2013-04-25,6.46
2013-04-26,6.39
2013-04-29,6.46
2013-04-30,6.53
2013-05-01,6.4
2013-05-02,6.43
2013-05-03,6.72
2013-05-06,6.67
2013-05-07,6.67
2013-05-08,6.85
2013-05-09,6.97
2013-05-10,7.02
2013-05-13,6.83
2013-05-14,7.04
2013-05-15,7.08
2013-05-16,7.11
2013-05-17,7.21
2013-05-20,7.21
2013-05-21,7.2
2013-05-22,7.04
2013-05-23,7.13
2013-05-24,7.21
2013-05-28,7.35
2013-05-29,7.39
2013-05-30,7.59
2013-05-31,7.42
2013-06-03,7.4
2013-06-04,7.39
2013-06-05,7.22
2013-06-06,7.21
2013-06-07,7.36
2013-06-10,7.35
2013-06-11,7.16
2013-06-12,7.17
2013-06-13,7.37
2013-06-14,7.32
2013-06-17,7.41
2013-06-18,7.385
2013-06-19,7.29
2013-06-20,7.06
2013-06-21,7.02
2013-06-24,6.8
2013-06-25,6.87
2013-06-26,6.91
2013-06-27,7.01
2013-06-28,7.15
2013-07-01,7.16
2013-07-02,7.2
2013-07-03,7.24
2013-07-05,7.38
2013-07-08,7.28
2013-07-09,7.28
2013-07-10,7.33
2013-07-11,7.51
2013-07-12,7.53
2013-07-15,7.58
2013-07-16,7.61
2013-07-17,7.63
2013-07-18,7.7
2013-07-19,7.7
2013-07-22,7.74
2013-07-23,7.6
2013-07-24,7.42
2013-07-25,7.63
2013-07-26,7.67
2013-07-29,7.66
2013-07-30,7.84
2013-07-31,7.79
2013-08-01,7.88
2013-08-02,7.8
2013-08-05,7.83
2013-08-06,7.67
2013-08-07,7.62
2013-08-08,7.66
2013-08-09,7.65
