date,close_price
1998-01-02,32.2567
1998-01-05,31.3471
1998-01-06,31.4871
1998-01-07,30.9623
1998-01-08,30.5774
1998-01-09,30.4417
1998-01-12,30.2276
1998-01-13,30.42
1998-01-14,30.6474
1998-01-15,31.0672
1998-01-16,31.4871
1998-01-20,30.9315
1998-01-21,30.7915
1998-01-22,30.6124
1998-01-23,30.6474
1998-01-26,30.1576
1998-01-27,31.2072
1998-01-28,31.9769
1998-01-29,32.2658
1998-01-30,31.9286
1998-02-02,33.0089
1998-02-03,34.146
1998-02-04,33.5862
1998-02-05,33.3805
1998-02-06,33.5862
1998-02-09,33.5162
1998-02-10,33.4504
1998-02-11,33.2496
1998-02-12,33.3105
1998-02-13,33.4462
1998-02-17,33.4462
1998-02-18,33.7086
1998-02-19,33.5512
1998-02-20,33.3763
1998-02-23,33.2846
1998-02-24,33.0656
1998-02-25,33.2321
1998-02-26,33.5069
1998-02-27,33.2223
1998-03-02,32.9553
1998-03-03,32.7008
1998-03-04,33.012
1998-03-05,33.012
1998-03-06,33.5728
1998-03-09,33.1438
1998-03-10,33.0471
1998-03-11,33.1522
1998-03-12,33.3975
1998-03-13,33.6428
1998-03-16,33.8531
1998-03-17,34.186
1998-03-18,34.0984
1998-03-19,34.3353
1998-03-20,34.3437
1998-03-23,34.4138
1998-03-24,34.554
1998-03-25,35.0755
1998-03-26,34.8344
1998-03-27,34.6241
1998-03-30,34.3437
1998-03-31,34.9745
1998-04-01,34.2211
1998-04-02,34.1685
1998-04-03,34.5582
1998-04-06,35.5703
1998-04-07,34.6942
1998-04-08,34.2736
1998-04-09,34.9044
1998-04-13,35.1105
1998-04-14,35.5353
1998-04-15,35.8857
1998-04-16,35.8549
1998-04-17,36.4464
1998-04-20,36.6258
1998-04-21,36.7268
1998-04-22,37.1473
1998-04-23,35.9558
1998-04-24,35.6754
1998-04-27,35.0755
1998-04-28,35.6011
1998-04-29,35.7848
1998-04-30,35.7455
1998-05-01,35.8857
1998-05-04,35.8857
1998-05-05,35.8507
1998-05-06,35.8682
1998-05-07,35.8815
1998-05-08,36.0918
1998-05-11,35.8156
1998-05-12,35.7981
1998-05-13,35.7546
1998-05-14,35.7455
1998-05-15,35.7455
1998-05-18,35.7455
1998-05-19,35.8023
1998-05-20,36.0918
1998-05-21,36.0609
1998-05-22,35.7455
1998-05-26,35.8023
1998-05-27,35.4694
1998-05-28,35.4694
1998-05-29,35.6758
1998-06-01,35.6583
1998-06-02,35.7636
1998-06-03,35.7376
1998-06-04,35.8339
1998-06-05,35.9919
1998-06-08,36.0972
1998-06-09,36.0888
1998-06-10,36.3957
1998-06-11,36.3781
1998-06-12,36.277
1998-06-15,36.2819
1998-06-16,36.4308
1998-06-17,36.4835
1998-06-18,36.6941
1998-06-19,36.5804
1998-06-22,36.5186
1998-06-23,36.475
1998-06-24,37.0102
1998-06-25,37.3262
1998-06-26,37.7651
1998-06-29,38.2392
1998-06-30,38.9063
1998-07-01,38.3445
1998-07-02,38.3445
1998-07-06,38.9155
1998-07-07,39.1521
1998-07-08,38.8452
1998-07-09,38.8712
1998-07-10,38.5903
1998-07-13,38.9766
1998-07-14,39.0819
1998-07-15,39.0159
1998-07-16,39.2926
1998-07-17,40.3987
1998-07-20,40.346
1998-07-21,39.9597
1998-07-22,40.2231
1998-07-23,38.6079
1998-07-24,38.8712
1998-07-27,38.3445
1998-07-28,38.1865
1998-07-29,38.0201
1998-07-30,37.7827
1998-07-31,37.862
1998-08-03,37.1506
1998-08-04,37.4842
1998-08-05,36.4926
1998-08-06,36.8522
1998-08-07,36.8346
1998-08-10,36.4483
1998-08-11,35.7461
1998-08-12,35.6056
1998-08-13,35.6323
1998-08-14,33.7095
1998-08-17,35.3598
1998-08-18,35.114
1998-08-19,34.5522
1998-08-20,34.3064
1998-08-21,34.4117
1998-08-24,34.7629
1998-08-25,34.9736
1998-08-26,34.2713
1998-08-27,32.8667
1998-08-28,31.6012
1998-08-31,29.7009
1998-09-01,30.6863
1998-09-02,31.6716
1998-09-03,30.8974
1998-09-04,31.3901
1998-09-08,31.8124
1998-09-09,32.5162
1998-09-10,31.5618
1998-09-11,32.0235
1998-09-14,32.45
1998-09-15,32.5078
1998-09-16,33.5895
1998-09-17,33.3347
1998-09-18,33.2242
1998-09-21,32.7717
1998-09-22,31.9707
1998-09-23,32.2699
1998-09-24,32.4458
1998-09-25,32.45
1998-09-28,33.1144
1998-09-29,33.0835
1998-09-30,32.4458
1998-10-01,32.0151
1998-10-02,32.0235
1998-10-05,31.5133
1998-10-06,31.8039
1998-10-07,31.5309
1998-10-08,30.3083
1998-10-09,30.1056
1998-10-12,29.2083
1998-10-13,28.9268
1998-10-14,29.1731
1998-10-15,31.5309
1998-10-16,32.4986
1998-10-19,33.0004
1998-10-20,33.0793
1998-10-21,33.1848
1998-10-22,33.4312
1998-10-23,33.2728
1998-10-26,32.8505
1998-10-27,32.0235
1998-10-28,32.0235
1998-10-29,33.2552
1998-10-30,34.8303
1998-11-02,35.1907
1998-11-03,35.6834
1998-11-04,36.2464
1998-11-05,37.4605
1998-11-06,37.9708
1998-11-09,36.5146
1998-11-10,35.6482
1998-11-11,34.5573
1998-11-12,34.6368
1998-11-13,34.874
1998-11-16,34.698
1998-11-17,35.1907
1998-11-18,35.0063
1998-11-19,35.0239
1998-11-20,35.1731
1998-11-23,35.3315
1998-11-24,35.7186
1998-11-25,35.4722
1998-11-27,35.4722
1998-11-30,35.1549
1998-12-01,34.3968
1998-12-02,34.4144
1998-12-03,34.9786
1998-12-04,34.2381
1998-12-07,34.3439
1998-12-08,33.7092
1998-12-09,32.7924
1998-12-10,33.5286
1998-12-11,32.9729
1998-12-14,32.334
1998-12-15,31.9461
1998-12-16,32.1401
1998-12-17,33.0392
1998-12-18,33.3389
1998-12-21,33.6034
1998-12-22,33.145
1998-12-23,34.2734
1998-12-24,33.6478
1998-12-28,34.1676
1998-12-29,34.7494
1998-12-30,35.7987
1998-12-31,36.6006
1999-01-04,36.4243
1999-01-05,35.9701
1999-01-06,36.5124
1999-01-07,35.9659
1999-01-08,36.1951
1999-01-11,36.2832
1999-01-12,36.4814
1999-01-13,35.8953
1999-01-14,35.4814
1999-01-15,35.5646
1999-01-19,34.8375
1999-01-20,35.4722
1999-01-21,35.8953
1999-01-22,35.6224
1999-01-25,35.3312
1999-01-26,35.4722
1999-01-27,35.4546
1999-01-28,35.9348
1999-01-29,35.2607
1999-02-01,34.626
1999-02-02,35.1725
1999-02-03,35.1196
1999-02-04,34.4144
1999-02-05,34.5025
1999-02-08,34.4849
1999-02-09,33.9913
1999-02-10,34.1852
1999-02-11,33.8855
1999-02-12,33.8326
1999-02-16,33.7444
1999-02-17,33.9913
1999-02-18,33.5152
1999-02-19,33.8502
1999-02-22,34.0265
1999-02-23,34.097
1999-02-24,33.7444
1999-02-25,33.6384
1999-02-26,33.6384
1999-03-01,33.9035
1999-03-02,33.6738
1999-03-03,33.5678
1999-03-04,33.9035
1999-03-05,33.6208
1999-03-08,33.0731
1999-03-09,33.1968
1999-03-10,33.3381
1999-03-11,33.8724
1999-03-12,34.0625
1999-03-15,34.2391
1999-03-16,34.2745
1999-03-17,34.4158
1999-03-18,34.9812
1999-03-19,34.7338
1999-03-22,34.7691
1999-03-23,34.4865
1999-03-24,34.2038
1999-03-25,34.6017
1999-03-26,33.9035
1999-03-29,33.3558
1999-03-30,33.9211
1999-03-31,33.842
1999-04-01,33.2144
1999-04-05,33.0378
1999-04-06,33.1438
1999-04-07,33.3204
1999-04-08,33.5013
1999-04-09,33.5678
1999-04-12,33.9211
1999-04-13,34.1953
1999-04-14,35.1932
1999-04-15,35.2638
1999-04-16,34.9105
1999-04-19,34.8398
1999-04-20,35.3522
1999-04-21,35.6878
1999-04-22,36.1161
1999-04-23,36.7479
1999-04-26,36.8454
1999-04-27,36.9599
1999-04-28,39.186
1999-04-29,39.292
1999-04-30,39.504
1999-05-03,39.7513
1999-05-04,39.928
1999-05-05,39.928
1999-05-06,39.981
1999-05-07,39.6453
1999-05-10,39.5789
1999-05-11,39.928
1999-05-12,39.6496
1999-05-13,39.2213
1999-05-14,38.8326
1999-05-17,37.6136
1999-05-18,37.4546
1999-05-19,37.8786
1999-05-20,38.0906
1999-05-21,38.4439
1999-05-24,38.5499
1999-05-25,37.3486
1999-05-26,37.4546
1999-05-27,37.4892
1999-05-28,37.3122
1999-06-01,37.029
1999-06-02,36.9582
1999-06-03,37.7547
1999-06-04,37.7724
1999-06-07,38.5689
1999-06-08,38.3608
1999-06-09,38.5909
1999-06-10,39.277
1999-06-11,38.799
1999-06-14,39.1885
1999-06-15,38.268
1999-06-16,38.2772
1999-06-17,38.7459
1999-06-18,38.5512
1999-06-21,38.9407
1999-06-22,39.2947
1999-06-23,38.9407
1999-06-24,39.0115
1999-06-25,39.0115
1999-06-28,39.0115
1999-06-29,40.0027
1999-06-30,39.2239
1999-07-01,39.0823
1999-07-02,39.5779
1999-07-06,38.9407
1999-07-07,39.631
1999-07-08,40.1181
1999-07-09,39.9673
1999-07-12,39.0115
1999-07-13,39.1446
1999-07-14,38.6574
1999-07-15,38.7813
1999-07-16,38.6928
1999-07-19,38.7813
1999-07-20,38.5866
1999-07-21,38.6751
1999-07-22,38.0733
1999-07-23,38.0648
1999-07-26,37.9586
1999-07-27,37.9671
1999-07-28,37.7901
1999-07-29,37.7724
1999-07-30,38.0202
1999-08-02,37.4538
1999-08-03,36.7989
1999-08-04,36.9405
1999-08-05,35.8431
1999-08-06,34.3386
1999-08-09,35.1528
1999-08-10,34.5552
1999-08-11,34.5375
1999-08-12,34.6926
1999-08-13,33.8961
1999-08-16,34.0908
1999-08-17,34.7634
1999-08-18,34.6749
1999-08-19,34.6218
1999-08-20,34.2678
1999-08-23,34.3386
1999-08-24,35.3298
1999-08-25,34.4094
1999-08-26,34.02
1999-08-27,33.2589
1999-08-30,33.6493
1999-08-31,33.0104
1999-09-01,32.7797
1999-09-02,32.7974
1999-09-03,32.9351
1999-09-07,32.9394
1999-09-08,32.6554
1999-09-09,31.9988
1999-09-10,32.1585
1999-09-13,32.5135
1999-09-14,32.1585
1999-09-15,32.2295
1999-09-16,31.9455
1999-09-17,31.9278
1999-09-20,31.0227
1999-09-21,30.4902
1999-09-22,30.4725
1999-09-23,29.6561
1999-09-24,31.2001
1999-09-27,31.9455
1999-09-28,31.4309
1999-09-29,31.9548
1999-09-30,32.6554
1999-10-01,32.407
1999-10-04,32.6377
1999-10-05,33.0906
1999-10-06,33.6316
1999-10-07,33.2986
1999-10-08,33.0104
1999-10-11,33.6671
1999-10-12,33.951
1999-10-13,33.7203
1999-10-14,33.0459
1999-10-15,32.0698
1999-10-18,31.8923
1999-10-19,31.9548
1999-10-20,32.2295
1999-10-21,32.4872
1999-10-22,32.6554
1999-10-25,32.3005
1999-10-26,32.9217
1999-10-27,33.2014
1999-10-28,35.1756
1999-10-29,35.1848
1999-11-01,35.1401
1999-11-02,35.495
1999-11-03,35.4241
1999-11-04,35.3353
1999-11-05,34.6432
1999-11-08,34.6432
1999-11-09,34.7142
1999-11-10,34.7851
1999-11-11,34.7496
1999-11-12,35.0336
1999-11-15,35.0869
1999-11-16,35.2466
1999-11-17,34.7851
1999-11-18,35.0869
1999-11-19,34.9094
1999-11-22,34.0752
1999-11-23,33.0814
1999-11-24,33.5073
1999-11-26,33.4406
1999-11-29,32.8847
1999-11-30,33.4541
1999-12-01,33.0271
1999-12-02,32.9737
1999-12-03,33.1338
1999-12-06,32.0483
1999-12-07,31.0874
1999-12-08,31.0611
1999-12-09,30.2511
1999-12-10,30.9629
1999-12-13,30.9052
1999-12-14,30.6426
1999-12-15,30.2155
1999-12-16,29.8952
1999-12-17,29.8596
1999-12-20,29.9044
1999-12-21,29.6105
1999-12-22,30.0375
1999-12-23,29.7528
1999-12-27,29.513
1999-12-28,29.1834
1999-12-29,29.6461
1999-12-30,29.4681
1999-12-31,29.4859
2000-01-03,28.9122
2000-01-04,28.0089
2000-01-05,28.0267
2000-01-06,28.1157
2000-01-07,29.3969
2000-01-10,28.9876
2000-01-11,28.1335
2000-01-12,28.5741
2000-01-13,29.2012
2000-01-14,30.0019
2000-01-18,29.9308
2000-01-19,29.308
2000-01-20,29.13
2000-01-21,29.3122
2000-01-24,28.8275
2000-01-25,28.8275
2000-01-26,29.8596
2000-01-27,29.8952
2000-01-28,28.7563
2000-01-31,29.2588
2000-02-01,28.5784
2000-02-02,28.5428
2000-02-03,28.4851
2000-02-04,28.8496
2000-02-07,28.6318
2000-02-08,28.6495
2000-02-09,28.5606
2000-02-10,28.5428
2000-02-11,28.4716
2000-02-14,28.4716
2000-02-15,27.9022
2000-02-16,27.653
2000-02-17,27.3861
2000-02-18,26.5142
2000-02-22,26.4786
2000-02-23,26.1405
2000-02-24,25.9803
2000-02-25,26.2828
2000-02-28,26.14
2000-02-29,26.0864
2000-03-01,26.4214
2000-03-02,26.4257
2000-03-03,26.39
2000-03-06,26.5014
2000-03-07,25.8007
2000-03-08,25.9972
2000-03-09,26.5328
2000-03-10,26.6935
2000-03-13,27.2384
2000-03-14,27.3991
2000-03-15,27.9969
2000-03-16,30.2645
2000-03-17,32.1079
2000-03-20,31.2644
2000-03-21,31.1752
2000-03-22,31.3537
2000-03-23,31.7644
2000-03-24,31.6215
2000-03-27,31.7822
2000-03-28,31.5858
2000-03-29,31.9965
2000-03-30,31.6751
2000-03-31,31.8894
2000-04-03,33.3892
2000-04-04,33.0057
2000-04-05,32.1486
2000-04-06,32.5679
2000-04-07,31.8894
2000-04-10,31.4116
2000-04-11,32.7107
2000-04-12,32.8535
2000-04-13,33.4028
2000-04-14,31.9165
2000-04-17,31.0145
2000-04-18,31.6394
2000-04-19,31.1794
2000-04-20,31.8894
2000-04-24,31.8808
2000-04-25,32.2508
2000-04-26,31.4251
2000-04-27,30.943
2000-04-28,31.1752
2000-05-01,31.318
2000-05-02,31.2644
2000-05-03,30.3895
2000-05-04,30.4252
2000-05-05,31.4251
2000-05-08,30.6081
2000-05-09,30.1353
2000-05-10,28.8676
2000-05-11,29.1754
2000-05-12,29.5103
2000-05-15,29.1218
2000-05-16,29.5682
2000-05-17,28.6354
2000-05-18,28.939
2000-05-19,28.5683
2000-05-22,29.2825
2000-05-23,30.1396
2000-05-24,31.0816
2000-05-25,31.4651
2000-05-26,31.5723
2000-05-30,32.32
2000-05-31,30.9506
2000-06-01,32.5707
2000-06-02,33.9315
2000-06-05,33.663
2000-06-06,32.9467
2000-06-07,32.9424
2000-06-08,32.696
2000-06-09,31.8008
2000-06-12,32.1632
2000-06-13,32.2706
2000-06-14,32.3021
2000-06-15,32.2305
2000-06-16,31.3803
2000-06-19,31.6489
2000-06-20,31.2951
2000-06-21,30.8876
2000-06-22,31.0666
2000-06-23,31.6217
2000-06-26,31.2278
2000-06-27,32.007
2000-06-28,31.8817
2000-06-29,32.2398
2000-06-30,31.5143
2000-07-03,32.2305
2000-07-05,32.3379
2000-07-06,32.2398
2000-07-07,32.8751
2000-07-10,32.6423
2000-07-11,33.7031
2000-07-12,33.8821
2000-07-13,34.6657
2000-07-14,34.2761
2000-07-17,34.9164
2000-07-18,35.0775
2000-07-19,33.9674
2000-07-20,34.6299
2000-07-21,34.0254
2000-07-24,34.0569
2000-07-25,34.1643
2000-07-26,33.7346
2000-07-27,33.1752
2000-07-28,33.663
2000-07-31,33.8377
2000-08-01,34.102
2000-08-02,33.8778
2000-08-03,34.9837
2000-08-04,35.4893
2000-08-07,35.167
2000-08-08,34.988
2000-08-09,34.7688
2000-08-10,35.9728
2000-08-11,35.9549
2000-08-14,36.0043
2000-08-15,35.9549
2000-08-16,35.4535
2000-08-17,34.9701
2000-08-18,34.7108
2000-08-21,34.4329
2000-08-22,34.5403
2000-08-23,34.3348
2000-08-24,34.0075
2000-08-25,34.2402
2000-08-28,34.5045
2000-08-29,34.9436
2000-08-30,34.6291
2000-08-31,34.8043
2000-09-01,34.9163
2000-09-05,34.9522
2000-09-06,35.1181
2000-09-07,37.0885
2000-09-08,36.8371
2000-09-11,36.532
2000-09-12,36.6038
2000-09-13,36.8371
2000-09-14,37.3398
2000-09-15,37.268
2000-09-18,35.8591
2000-09-19,36.2806
2000-09-20,36.514
2000-09-21,35.5446
2000-09-22,35.1856
2000-09-25,35.3385
2000-09-26,35.9044
2000-09-27,36.0552
2000-09-28,37.3398
2000-09-29,36.9089
2000-10-02,37.0518
2000-10-03,37.6988
2000-10-04,37.2321
2000-10-05,37.4116
2000-10-06,36.9161
2000-10-09,36.9807
2000-10-10,36.3345
2000-10-11,34.288
2000-10-12,34.2162
2000-10-13,34.7906
2000-10-16,34.8265
2000-10-17,34.7404
2000-10-18,34.2521
2000-10-19,34.4172
2000-10-20,34.5824
2000-10-23,34.4675
2000-10-24,34.8409
2000-10-25,35.9826
2000-10-26,35.76
2000-10-27,36.0113
2000-10-30,36.1262
2000-10-31,36.0832
2000-11-01,37.1244
2000-11-02,37.3398
2000-11-03,37.2321
2000-11-06,37.1244
2000-11-07,37.1603
2000-11-08,37.5552
2000-11-09,37.3398
2000-11-10,37.3039
2000-11-13,36.3201
2000-11-14,36.4422
2000-11-15,36.3129
2000-11-16,36.2268
2000-11-17,35.1856
2000-11-20,35.6595
2000-11-21,35.6164
2000-11-22,35.4584
2000-11-24,35.5518
2000-11-27,35.4728
2000-11-28,39.135
2000-11-29,39.3514
2000-11-30,39.6039
2000-12-01,40.1305
2000-12-04,40.3613
2000-12-05,41.7824
2000-12-06,42.1287
2000-12-07,43.2036
2000-12-08,44.7329
2000-12-11,44.9132
2000-12-12,43.6725
2000-12-13,43.0953
2000-12-14,43.2829
2000-12-15,43.2829
2000-12-18,44.365
2000-12-19,45.6635
2000-12-20,46.0602
2000-12-21,46.1324
2000-12-22,46.3127
2000-12-26,46.7527
2000-12-27,47.7194
2000-12-28,48.8375
2000-12-29,48.6933
2001-01-02,46.6734
2001-01-03,47.2505
2001-01-04,46.9619
2001-01-05,45.5192
2001-01-08,47.2866
2001-01-09,46.457
2001-01-10,46.6806
2001-01-11,47.5391
2001-01-12,47.3443
2001-01-16,47.4236
2001-01-17,46.9547
2001-01-18,46.8898
2001-01-19,46.6013
2001-01-22,46.6734
2001-01-23,46.5363
2001-01-24,46.7816
2001-01-25,47.0918
2001-01-26,48.5129
2001-01-29,49.054
2001-01-30,49.1333
2001-01-31,49.1549
2001-02-01,49.0179
2001-02-02,48.3398
2001-02-05,49.3786
2001-02-06,49.2632
2001-02-07,49.999
2001-02-08,49.9196
2001-02-09,49.9918
2001-02-12,49.6671
2001-02-13,50.0639
2001-02-14,49.9124
2001-02-15,49.7753
2001-02-16,49.8835
2001-02-20,49.0467
2001-02-21,49.0972
2001-02-22,48.8375
2001-02-23,48.7793
2001-02-26,49.7423
2001-02-27,49.5106
2001-02-28,48.9169
2001-03-01,48.9096
2001-03-02,49.3368
2001-03-05,49.163
2001-03-06,49.7423
2001-03-07,50.517
2001-03-08,50.3215
2001-03-09,49.5613
2001-03-12,48.439
2001-03-13,49.1051
2001-03-14,48.0046
2001-03-15,49.163
2001-03-16,48.4173
2001-03-19,48.2145
2001-03-20,47.9683
2001-03-21,46.1799
2001-03-22,44.2178
2001-03-23,45.9772
2001-03-26,46.8099
2001-03-27,49.2137
2001-03-28,48.9096
2001-03-29,49.0182
2001-03-30,49.8798
2001-04-02,50.3215
2001-04-03,49.6264
2001-04-04,48.4028
2001-04-05,49.916
2001-04-06,49.1992
2001-04-09,49.1413
2001-04-10,50.1188
2001-04-11,50.5025
2001-04-12,50.7197
2001-04-16,50.7559
2001-04-17,50.6835
2001-04-18,51.4293
2001-04-19,51.8927
2001-04-20,50.9732
2001-04-23,51.1325
2001-04-24,51.3569
2001-04-25,51.3569
2001-04-26,51.4148
2001-04-27,51.8348
2001-04-30,51.7117
2001-05-01,52.023
2001-05-02,52.204
2001-05-03,51.9506
2001-05-04,51.9144
2001-05-07,52.1823
2001-05-08,51.9796
2001-05-09,51.7913
2001-05-10,51.9361
2001-05-11,51.5596
2001-05-14,51.7986
2001-05-15,51.8565
2001-05-16,52.3923
2001-05-17,52.3271
2001-05-18,52.1316
2001-05-21,52.7616
2001-05-22,53.8838
2001-05-23,53.8187
2001-05-24,53.9562
2001-05-25,54.2459
2001-05-29,54.34
2001-05-30,54.8559
2001-05-31,54.8632
2001-06-01,55.2918
2001-06-04,55.9093
2001-06-05,56.0836
2001-06-06,55.3208
2001-06-07,55.2482
2001-06-08,55.3281
2001-06-11,55.1102
2001-06-12,54.4055
2001-06-13,54.5871
2001-06-14,54.3546
2001-06-15,54.6307
2001-06-18,54.5798
2001-06-19,55.0157
2001-06-20,56.5122
2001-06-21,56.8973
2001-06-22,56.5994
2001-06-25,55.5533
2001-06-26,56.1635
2001-06-27,56.6357
2001-06-28,56.6212
2001-06-29,56.2289
2001-07-02,56.3016
2001-07-03,56.5558
2001-07-05,56.2507
2001-07-06,55.793
2001-07-09,55.4734
2001-07-10,54.9649
2001-07-11,55.7567
2001-07-12,56.9627
2001-07-13,57.4639
2001-07-16,56.7011
2001-07-17,57.2169
2001-07-18,58.2994
2001-07-19,58.7498
2001-07-20,59.0258
2001-07-23,57.9652
2001-07-24,57.3985
2001-07-25,57.2896
2001-07-26,58.2267
2001-07-27,58.2994
2001-07-30,57.9725
2001-07-31,58.4301
2001-08-01,58.9532
2001-08-02,58.866
2001-08-03,58.8224
2001-08-06,58.5536
2001-08-07,58.1831
2001-08-08,57.7037
2001-08-09,57.9216
2001-08-10,58.0669
2001-08-13,58.1904
2001-08-14,58.2994
2001-08-15,58.3284
2001-08-16,58.5173
2001-08-17,58.5028
2001-08-20,58.4737
2001-08-21,58.2776
2001-08-22,58.1032
2001-08-23,58.1686
2001-08-24,56.3234
2001-08-27,55.0666
2001-08-28,54.5944
2001-08-29,53.432
2001-08-30,53.3007
2001-08-31,52.9872
2001-09-04,53.2861
2001-09-05,52.9872
2001-09-06,52.1417
2001-09-07,50.4432
2001-09-10,50.1443
2001-09-17,48.0596
2001-09-18,48.9853
2001-09-19,49.8163
2001-09-20,47.9138
2001-09-21,47.4837
2001-09-24,49.8746
2001-09-25,51.2888
2001-09-26,52.0469
2001-09-27,54.8169
2001-09-28,53.9422
2001-10-01,53.2642
2001-10-02,53.7089
2001-10-03,52.9216
2001-10-04,51.9521
2001-10-05,50.8441
2001-10-08,49.5976
2001-10-09,50.4432
2001-10-10,49.9329
2001-10-11,50.2318
2001-10-12,49.9257
2001-10-15,49.8455
2001-10-16,49.9111
2001-10-17,49.2259
2001-10-18,49.0218
2001-10-19,49.2842
2001-10-22,49.2769
2001-10-23,49.8236
2001-10-24,49.9329
2001-10-25,49.8601
2001-10-26,49.9257
2001-10-29,48.3876
2001-10-30,48.0668
2001-10-31,47.7097
2001-11-01,47.8409
2001-11-02,48.0085
2001-11-05,49.0582
2001-11-06,49.809
2001-11-07,50.1079
2001-11-08,50.9535
2001-11-09,50.6911
2001-11-12,50.7348
2001-11-13,51.5293
2001-11-14,51.7626
2001-11-15,51.6095
2001-11-16,51.3908
2001-11-19,51.6241
2001-11-20,51.5293
2001-11-21,51.5221
2001-11-23,51.8938
2001-11-26,52.4843
2001-11-27,52.4551
2001-11-28,52.0833
2001-11-29,52.7344
2001-11-30,51.703
2001-12-03,51.3226
2001-12-04,52.6247
2001-12-05,53.1001
2001-12-06,53.1733
2001-12-07,53.6561
2001-12-10,53.2903
2001-12-11,53.7658
2001-12-12,53.4074
2001-12-13,52.7563
2001-12-14,52.6466
2001-12-17,53.0709
2001-12-18,53.978
2001-12-19,53.7658
2001-12-20,53.8902
2001-12-21,53.4001
2001-12-24,53.4293
2001-12-26,53.6341
2001-12-27,54.0292
2001-12-28,54.4169
2001-12-31,53.3635
2002-01-02,52.9685
2002-01-03,53.5098
2002-01-04,54.5778
2002-01-07,54.6948
2002-01-08,54.234
2002-01-09,54.1169
2002-01-10,55.5214
2002-01-11,54.5266
2002-01-14,54.0584
2002-01-15,55.4702
2002-01-16,54.7534
2002-01-17,55.046
2002-01-18,55.1557
2002-01-22,55.5361
2002-01-23,55.9238
2002-01-24,56.092
2002-01-25,56.1359
2002-01-28,56.5821
2002-01-29,54.8777
2002-01-30,55.2361
2002-01-31,55.558
2002-02-01,55.5214
2002-02-04,54.629
2002-02-05,54.49
2002-02-06,53.444
2002-02-07,53.4366
2002-02-08,54.1974
2002-02-11,54.8192
2002-02-12,54.8484
2002-02-13,55.2361
2002-02-14,55.3971
2002-02-15,55.3532
2002-02-19,54.512
2002-02-20,54.8265
2002-02-21,54.5997
2002-02-22,54.7753
2002-02-25,55.2727
2002-02-26,55.9626
2002-02-27,55.9553
2002-02-28,56.1828
2002-03-01,56.814
2002-03-04,57.4305
2002-03-05,57.4819
2002-03-06,58.4507
2002-03-07,57.8562
2002-03-08,57.9736
2002-03-11,58.5021
2002-03-12,58.9351
2002-03-13,58.8617
2002-03-14,59.4415
2002-03-15,59.8745
2002-03-18,60.0213
2002-03-19,60.1241
2002-03-20,59.669
2002-03-21,59.3975
2002-03-22,59.6323
2002-03-25,59.3975
2002-03-26,59.192
2002-03-27,59.5296
2002-03-28,58.9865
2002-04-01,59.4195
2002-04-02,59.7791
2002-04-03,59.0232
2002-04-04,59.1553
2002-04-05,59.5222
2002-04-08,60.102
2002-04-09,60.7112
2002-04-10,61.3277
2002-04-11,60.3296
2002-04-12,61.3277
2002-04-15,61.269
2002-04-16,61.4672
2002-04-17,61.9222
2002-04-18,62.0396
2002-04-19,62.0837
2002-04-22,61.7094
2002-04-23,61.658
2002-04-24,61.7754
2002-04-25,62.0984
2002-04-26,62.091
2002-04-29,61.9442
2002-04-30,62.7369
2002-05-01,63.2947
2002-05-02,64.1387
2002-05-03,63.9772
2002-05-06,63.6837
2002-05-07,64.0653
2002-05-08,63.7277
2002-05-09,62.9717
2002-05-10,62.5681
2002-05-13,63.4855
2002-05-14,65.0341
2002-05-15,65.1368
2002-05-16,65.724
2002-05-17,66.0176
2002-05-20,65.2396
2002-05-21,65.3423
2002-05-22,64.3075
2002-05-23,64.6231
2002-05-24,64.0947
2002-05-28,63.6983
2002-05-29,63.9258
2002-05-30,64.1021
2002-05-31,64.1757
2002-06-03,63.1968
2002-06-04,62.2693
2002-06-05,62.5417
2002-06-06,60.8414
2002-06-07,61.0696
2002-06-10,61.4597
2002-06-11,61.261
2002-06-12,61.3125
2002-06-13,60.2894
2002-06-14,60.7678
2002-06-17,63.4838
2002-06-18,63.5353
2002-06-19,63.4838
2002-06-20,63.0643
2002-06-21,62.7772
2002-06-24,62.0927
2002-06-25,62.3135
2002-06-26,61.6511
2002-06-27,62.8435
2002-06-28,63.1305
2002-07-01,62.3798
2002-07-02,61.8277
2002-07-03,60.5102
2002-07-05,61.7394
2002-07-08,62.3871
2002-07-09,62.2325
2002-07-10,60.9445
2002-07-11,61.2242
2002-07-12,60.2011
2002-07-15,59.2957
2002-07-16,59.1927
2002-07-17,59.7962
2002-07-18,57.7427
2002-07-19,56.7343
2002-07-22,56.035
2002-07-23,54.0036
2002-07-24,55.0856
2002-07-25,56.5061
2002-07-26,57.6691
2002-07-29,59.9582
2002-07-30,59.7889
2002-07-31,61.5259
2002-08-01,59.9066
2002-08-02,59.5828
2002-08-05,57.1538
2002-08-06,59.2884
2002-08-07,60.3556
2002-08-08,60.996
2002-08-09,61.0107
2002-08-12,60.7605
2002-08-13,60.2673
2002-08-14,62.181
2002-08-15,62.5638
2002-08-16,62.4607
2002-08-19,63.5869
2002-08-20,62.0265
2002-08-21,62.4828
2002-08-22,62.3429
2002-08-23,61.1432
2002-08-26,62.5343
2002-08-27,62.3871
2002-08-28,62.0044
2002-08-29,62.2703
2002-08-30,63.2447
2002-09-03,60.9636
2002-09-04,61.8569
2002-09-05,61.3475
2002-09-06,61.6502
2002-09-09,62.4105
2002-09-10,61.3918
2002-09-11,60.9045
2002-09-12,58.269
2002-09-13,59.0294
2002-09-16,58.0549
2002-09-17,57.8039
2002-09-18,55.7221
2002-09-19,54.0463
2002-09-20,54.0463
2002-09-23,54.6517
2002-09-24,53.7879
2002-09-25,55.1389
2002-09-26,59.1918
2002-09-27,58.8744
2002-09-30,58.3724
2002-10-01,60.3287
2002-10-02,58.3133
2002-10-03,55.0356
2002-10-04,53.4262
2002-10-07,51.2189
2002-10-08,54.3416
2002-10-09,50.2887
2002-10-10,54.2826
2002-10-11,55.6704
2002-10-14,56.9254
2002-10-15,59.1992
2002-10-16,58.5865
2002-10-17,60.5723
2002-10-18,60.1811
2002-10-21,60.3509
2002-10-22,59.6569
2002-10-23,60.5428
2002-10-24,59.1106
2002-10-25,60.9045
2002-10-28,60.2327
2002-10-29,60.1294
2002-10-30,61.0153
2002-10-31,60.4025
2002-11-01,62.4253
2002-11-04,60.5354
2002-11-05,61.473
2002-11-06,60.5723
2002-11-07,58.9187
2002-11-08,59.0589
2002-11-11,58.5422
2002-11-12,59.2804
2002-11-13,58.9113
2002-11-14,59.7972
2002-11-15,59.3764
2002-11-18,58.0402
2002-11-19,58.1583
2002-11-20,59.2066
2002-11-21,59.7603
2002-11-22,59.6643
2002-11-25,59.4133
2002-11-26,58.6898
2002-11-27,60.5424
2002-11-29,59.7865
2002-12-02,60.6832
2002-12-03,59.6383
2002-12-04,59.8162
2002-12-05,58.2822
2002-12-06,58.5416
2002-12-09,57.5116
2002-12-10,58.7639
2002-12-11,58.9492
2002-12-12,58.3563
2002-12-13,58.4378
2002-12-16,59.2456
2002-12-17,58.875
2002-12-18,58.5935
2002-12-19,58.5416
2002-12-20,59.4456
2002-12-23,59.1937
2002-12-24,58.838
2002-12-26,59.253
2002-12-27,58.5638
2002-12-30,58.8084
2002-12-31,58.7417
2003-01-02,60.4757
2003-01-03,59.6087
2003-01-06,61.7206
2003-01-07,60.7869
2003-01-08,60.572
2003-01-09,61.5798
2003-01-10,61.7503
2003-01-13,61.8836
2003-01-14,62.595
2003-01-15,61.3205
2003-01-16,61.2389
2003-01-17,61.2834
2003-01-21,59.5049
2003-01-22,58.9121
2003-01-23,59.001
2003-01-24,57.5116
2003-01-27,57.1114
2003-01-28,57.8006
2003-01-29,58.0599
2003-01-30,57.393
2003-01-31,59.1122
2003-02-03,58.7787
2003-02-04,58.1562
2003-02-05,57.9858
2003-02-06,57.845
2003-02-07,57.5486
2003-02-10,57.0966
2003-02-11,56.4963
2003-02-12,56.3407
2003-02-13,57.104
2003-02-14,57.682
2003-02-18,58.5268
2003-02-19,58.9195
2003-02-20,58.2526
2003-02-21,58.7046
2003-02-24,57.9413
2003-02-25,58.8158
2003-02-26,58.0673
2003-02-27,59.0492
2003-02-28,58.8112
2003-03-03,58.9971
2003-03-04,58.6178
2003-03-05,58.5954
2003-03-06,58.5434
2003-03-07,59.0641
2003-03-10,57.5391
2003-03-11,56.8176
2003-03-12,56.3341
2003-03-13,57.8367
2003-03-14,57.0184
2003-03-17,58.1789
2003-03-18,58.402
2003-03-19,59.0492
2003-03-20,59.317
2003-03-21,60.4105
2003-03-24,58.7145
2003-03-25,59.012
2003-03-26,58.9823
2003-03-27,59.1236
2003-03-28,59.2352
2003-03-31,58.5062
2003-04-01,60.6337
2003-04-02,61.3924
2003-04-03,60.9164
2003-04-04,61.4817
2003-04-07,60.8271
2003-04-08,60.9759
2003-04-09,59.8898
2003-04-10,60.3138
2003-04-11,60.4551
2003-04-14,60.8494
2003-04-15,61.1767
2003-04-16,60.5593
2003-04-17,61.1098
2003-04-21,61.1321
2003-04-22,62.4413
2003-04-23,62.8802
2003-04-24,62.3967
2003-04-25,61.7644
2003-04-28,62.2628
2003-04-29,62.233
2003-04-30,62.7909
2003-05-01,63.453
2003-05-02,64.9556
2003-05-05,64.5539
2003-05-06,64.5614
2003-05-07,64.1002
2003-05-08,63.5497
2003-05-09,63.6315
2003-05-12,64.1969
2003-05-13,64.1002
2003-05-14,64.1002
2003-05-15,63.7282
2003-05-16,63.2075
2003-05-19,62.352
2003-05-20,62.4636
2003-05-21,62.5678
2003-05-22,62.5306
2003-05-23,62.4711
2003-05-27,63.7877
2003-05-28,63.9365
2003-05-29,63.9888
2003-05-30,66.4746
2003-06-02,66.0342
2003-06-03,67.2808
2003-06-04,67.6764
2003-06-05,67.1688
2003-06-06,66.6985
2003-06-09,65.5266
2003-06-10,66.4447
2003-06-11,67.139
2003-06-12,67.3032
2003-06-13,66.1461
2003-06-16,66.6612
2003-06-17,66.0864
2003-06-18,65.8625
2003-06-19,64.7129
2003-06-20,65.549
2003-06-23,64.4964
2003-06-24,63.7798
2003-06-25,63.7798
2003-06-26,64.377
2003-06-27,64.056
2003-06-30,63.2647
2003-07-01,63.7126
2003-07-02,63.5558
2003-07-03,63.1005
2003-07-07,64.3173
2003-07-08,64.4068
2003-07-09,64.0411
2003-07-10,63.3394
2003-07-11,63.5932
2003-07-14,67.1763
2003-07-15,66.3626
2003-07-16,67.236
2003-07-17,65.9446
2003-07-18,67.2285
2003-07-21,66.4447
2003-07-22,66.6463
2003-07-23,66.7881
2003-07-24,66.0416
2003-07-25,66.8478
2003-07-28,66.6985
2003-07-29,66.1909
2003-07-30,66.4746
2003-07-31,66.064
2003-08-01,64.5711
2003-08-04,64.5113
2003-08-05,63.8544
2003-08-06,64.2127
2003-08-07,64.056
2003-08-08,64.0634
2003-08-11,64.0261
2003-08-12,64.6233
2003-08-13,64.3396
2003-08-14,64.683
2003-08-15,64.9144
2003-08-18,64.6606
2003-08-19,64.4964
2003-08-20,64.6308
2003-08-21,64.7428
2003-08-22,63.3767
2003-08-25,63.1901
2003-08-26,63.4588
2003-08-27,63.1602
2003-08-28,63.0779
2003-08-29,63.0329
2003-09-02,63.7671
2003-09-03,64.1267
2003-09-04,64.5762
2003-09-05,64.3964
2003-09-08,64.7485
2003-09-09,64.8084
2003-09-10,63.4824
2003-09-11,63.872
2003-09-12,63.5723
2003-09-15,64.4263
2003-09-16,64.9133
2003-09-17,64.1641
2003-09-18,66.2243
2003-09-19,66.1119
2003-09-22,65.1755
2003-09-23,65.183
2003-09-24,64.8608
2003-09-25,64.8683
2003-09-26,64.5013
2003-09-29,65.6849
2003-09-30,65.4302
2003-10-01,66.7861
2003-10-02,66.8311
2003-10-03,67.5128
2003-10-06,67.7975
2003-10-07,68.3069
2003-10-08,68.5466
2003-10-09,68.8013
2003-10-10,68.6365
2003-10-13,69.8052
2003-10-14,69.5879
2003-10-15,69.2583
2003-10-16,69.2583
2003-10-17,68.217
2003-10-20,68.3219
2003-10-21,68.4343
2003-10-22,68.0672
2003-10-23,68.5541
2003-10-24,68.7414
2003-10-27,69.94
2003-10-28,70.8465
2003-10-29,70.6367
2003-10-30,70.2846
2003-10-31,70.5843
2003-11-03,71.4683
2003-11-04,72.2174
2003-11-05,72.0002
2003-11-06,72.592
2003-11-07,71.9777
2003-11-10,70.8765
2003-11-11,70.6667
2003-11-12,71.4084
2003-11-13,71.2585
2003-11-14,70.3596
2003-11-17,70.0824
2003-11-18,69.2284
2003-11-19,69.2433
2003-11-20,68.9062
2003-11-21,69.2433
2003-11-24,69.8202
2003-11-25,69.97
2003-11-26,70.5936
2003-11-28,70.5485
2003-12-01,71.1723
2003-12-02,71.9088
2003-12-03,71.8712
2003-12-04,71.533
2003-12-05,70.9092
2003-12-08,72.1117
2003-12-09,71.0971
2003-12-10,70.6537
2003-12-11,71.7961
2003-12-12,72.014
2003-12-15,71.0295
2003-12-16,71.0595
2003-12-17,71.1122
2003-12-18,72.0215
2003-12-19,71.8261
2003-12-22,72.5551
2003-12-23,72.8783
2003-12-24,72.6979
2003-12-26,72.8407
2003-12-29,73.675
2003-12-30,74.1635
2003-12-31,73.8929
2004-01-02,73.3894
2004-01-05,73.1864
2004-01-06,73.0061
2004-01-07,72.9535
2004-01-08,72.5927
2004-01-09,71.4128
2004-01-12,69.8195
2004-01-13,68.4517
2004-01-14,68.5719
2004-01-15,69.6992
2004-01-16,68.1736
2004-01-20,68.9402
2004-01-21,68.6846
2004-01-22,68.9326
2004-01-23,69.7368
2004-01-26,70.5786
2004-01-27,69.113
2004-01-28,68.1736
2004-01-29,67.6249
2004-01-30,67.6926
2004-02-02,67.3544
2004-02-03,67.9406
2004-02-04,67.5423
2004-02-05,67.8729
2004-02-06,69.0754
2004-02-09,69.3761
2004-02-10,69.5639
2004-02-11,70.1577
2004-02-12,70.6161
2004-02-13,71.0069
2004-02-17,70.6161
2004-02-18,70.3305
2004-02-19,70.1727
2004-02-20,69.6391
2004-02-23,69.3009
2004-02-24,71.7134
2004-02-25,71.2082
2004-02-26,71.6836
2004-02-27,72.4459
2004-03-01,72.7176
2004-03-02,72.4761
2004-03-03,72.378
2004-03-04,72.295
2004-03-05,73.1252
2004-03-08,72.2648
2004-03-09,71.4421
2004-03-10,70.6723
2004-03-11,69.3817
2004-03-12,69.7742
2004-03-15,68.8383
2004-03-16,69.2383
2004-03-17,69.91
2004-03-18,69.2459
2004-03-19,68.2496
2004-03-22,67.9176
2004-03-23,67.3515
2004-03-24,67.51
2004-03-25,67.6685
2004-03-26,67.3666
2004-03-29,67.7666
2004-03-30,67.9327
2004-03-31,67.8195
2004-04-01,67.9553
2004-04-02,67.2836
2004-04-05,67.0119
2004-04-06,67.1779
2004-04-07,67.0119
2004-04-08,66.7779
2004-04-12,66.4459
2004-04-13,65.1175
2004-04-14,64.4911
2004-04-15,65.2458
2004-04-16,66.0308
2004-04-19,65.2458
2004-04-20,63.2987
2004-04-21,62.9741
2004-04-22,64.5062
2004-04-23,63.8421
2004-04-26,63.9477
2004-04-27,64.4006
2004-04-28,63.4722
2004-04-29,63.6836
2004-04-30,64.1817
2004-05-03,64.8987
2004-05-04,65.2232
2004-05-05,66.7251
2004-05-06,66.1742
2004-05-07,64.6496
2004-05-10,63.759
2004-05-11,63.993
2004-05-12,64.0685
2004-05-13,64.5515
2004-05-14,64.6647
2004-05-17,64.1817
2004-05-18,64.7251
2004-05-19,64.8081
2004-05-20,65.2232
2004-05-21,65.4421
2004-05-24,65.6081
2004-05-25,66.7327
2004-05-26,68.1364
2004-05-27,68.4848
2004-05-28,68.6971
2004-06-01,68.5758
2004-06-02,68.8942
2004-06-03,68.7426
2004-06-04,69.387
2004-06-07,69.8494
2004-06-08,70.0768
2004-06-09,69.6523
2004-06-10,69.7887
2004-06-14,68.0831
2004-06-15,67.3174
2004-06-16,67.6434
2004-06-17,67.469
2004-06-18,67.2643
2004-06-21,67.2492
2004-06-22,67.4539
2004-06-23,67.5297
2004-06-24,67.2492
2004-06-25,66.9005
2004-06-28,66.9763
2004-06-29,66.2788
2004-06-30,66.1424
2004-07-01,65.9756
2004-07-02,66.6655
2004-07-06,66.2333
2004-07-07,66.7034
2004-07-08,66.5972
2004-07-09,66.6351
2004-07-12,69.2884
2004-07-13,70.0995
2004-07-14,70.8955
2004-07-15,70.2057
2004-07-16,70.9183
2004-07-19,70.6605
2004-07-20,71.3731
2004-07-21,70.8046
2004-07-22,70.8955
2004-07-23,70.5089
2004-07-26,70.706
2004-07-27,70.9789
2004-07-28,70.3194
2004-07-29,70.9638
2004-07-30,70.6226
2004-08-02,72.9727
2004-08-03,71.7522
2004-08-04,71.6612
2004-08-05,70.9941
2004-08-06,70.1223
2004-08-09,70.4634
2004-08-10,72.0175
2004-08-11,71.8204
2004-08-12,71.7901
2004-08-13,71.4641
2004-08-16,72.7301
2004-08-17,72.8893
2004-08-18,74.5191
2004-08-19,72.7073
2004-08-20,72.9651
2004-08-23,72.768
2004-08-24,73.2153
2004-08-25,74.595
2004-08-26,74.2917
2004-08-27,74.0037
2004-08-30,73.1015
2004-08-31,72.3249
2004-09-01,72.3097
2004-09-02,73.0786
2004-09-03,73.0786
2004-09-07,74.5401
2004-09-08,72.9491
2004-09-09,72.5305
2004-09-10,72.9491
2004-09-13,73.0481
2004-09-14,72.3249
2004-09-15,72.5228
2004-09-16,73.0329
2004-09-17,73.3069
2004-09-20,72.2564
2004-09-21,72.1651
2004-09-22,71.9595
2004-09-23,71.2973
2004-09-24,72.028
2004-09-27,71.5409
2004-09-28,71.4191
2004-09-29,71.7692
2004-09-30,72.7055
2004-10-01,74.2356
2004-10-04,74.3041
2004-10-05,74.3041
2004-10-06,75.1187
2004-10-07,75.5449
2004-10-08,75.4688
2004-10-11,75.8723
2004-10-12,77.3034
2004-10-13,75.7809
2004-10-14,75.3699
2004-10-15,76.2757
2004-10-18,76.801
2004-10-19,75.8723
2004-10-20,75.2024
2004-10-21,75.3166
2004-10-22,74.0834
2004-10-25,74.6315
2004-10-26,75.6896
2004-10-27,76.9076
2004-10-28,77.9961
2004-10-29,78.4072
2004-11-01,78.0037
2004-11-02,78.5214
2004-11-03,78.9324
2004-11-04,80.904
2004-11-05,80.1885
2004-11-08,80.6452
2004-11-09,80.5919
2004-11-10,80.9193
2004-11-11,81.0334
2004-11-12,80.9726
2004-11-15,80.3864
2004-11-16,80.4549
2004-11-17,80.8279
2004-11-18,80.8736
2004-11-19,79.4044
2004-11-22,80.3483
2004-11-23,80.7822
2004-11-24,80.8584
2004-11-26,80.7442
2004-11-29,80.4691
2004-11-30,80.6219
2004-12-01,82.0661
2004-12-02,81.6917
2004-12-03,80.9276
2004-12-06,80.9199
2004-12-07,79.6897
2004-12-08,79.5751
2004-12-09,80.0717
2004-12-10,79.4604
2004-12-13,79.682
2004-12-14,80.2093
2004-12-15,80.2781
2004-12-16,79.9495
2004-12-17,79.6591
2004-12-20,80.1787
2004-12-21,81.4242
2004-12-22,82.196
2004-12-23,82.5857
2004-12-27,82.0508
2004-12-28,82.2648
2004-12-29,82.2495
2004-12-30,82.28
2004-12-31,82.5551
2005-01-03,80.9658
2005-01-04,80.5531
2005-01-05,80.4385
2005-01-06,80.1711
2005-01-07,79.1472
2005-01-10,80.0335
2005-01-11,79.4604
2005-01-12,78.3983
2005-01-13,77.0535
2005-01-14,77.0764
2005-01-18,77.7641
2005-01-19,77.1146
2005-01-20,76.7937
2005-01-21,76.893
2005-01-24,77.0688
2005-01-25,77.1834
2005-01-26,77.7106
2005-01-27,77.1299
2005-01-28,76.5339
2005-01-31,78.1615
2005-02-01,78.9714
2005-02-02,78.6734
2005-02-03,78.4977
2005-02-04,78.7575
2005-02-07,78.7498
2005-02-08,78.3678
2005-02-09,77.4355
2005-02-10,77.6801
2005-02-11,77.3591
2005-02-14,77.3438
2005-02-15,78.0621
2005-02-16,77.3515
2005-02-17,76.5262
2005-02-18,75.6475
2005-02-22,74.0964
2005-02-23,74.3944
2005-02-24,75.5373
2005-02-25,76.9184
2005-02-28,75.8749
2005-03-01,77.7624
2005-03-02,77.6934
2005-03-03,77.6857
2005-03-04,80.3558
2005-03-07,80.8468
2005-03-08,80.233
2005-03-09,78.4223
2005-03-10,78.8596
2005-03-11,77.6703
2005-03-14,78.3532
2005-03-15,77.6396
2005-03-16,77.4708
2005-03-17,77.5629
2005-03-18,76.7419
2005-03-21,77.0182
2005-03-22,75.3455
2005-03-23,75.545
2005-03-24,75.476
2005-03-28,76.0207
2005-03-29,76.1588
2005-03-30,77.7087
2005-03-31,78.3072
2005-04-01,77.3864
2005-04-04,78.2304
2005-04-05,78.9133
2005-04-06,79.2356
2005-04-07,79.3583
2005-04-08,78.545
2005-04-11,78.5604
2005-04-12,80.7394
2005-04-13,79.9491
2005-04-14,78.9133
2005-04-15,77.8391
2005-04-18,79.1281
2005-04-19,78.4069
2005-04-20,76.5655
2005-04-21,77.21
2005-04-22,76.7343
2005-04-25,77.6857
2005-04-26,77.4171
2005-04-27,79.6192
2005-04-28,78.7061
2005-04-29,79.343
2005-05-02,79.3813
2005-05-03,78.9056
2005-05-04,80.1793
2005-05-05,79.811
2005-05-06,79.2662
2005-05-09,79.8264
2005-05-10,78.476
2005-05-11,78.6678
2005-05-12,77.6627
2005-05-13,77.3558
2005-05-16,79.343
2005-05-17,80.1563
2005-05-18,81.1998
2005-05-19,80.8622
2005-05-20,80.279
2005-05-23,79.8494
2005-05-24,79.3813
2005-05-25,78.9824
2005-05-26,79.6269
2005-05-27,79.3723
2005-05-31,79.0795
2005-06-01,79.9734
2005-06-02,80.1737
2005-06-03,79.6112
2005-06-06,79.6574
2005-06-07,79.0564
2005-06-08,79.0718
2005-06-09,79.0564
2005-06-10,79.1334
2005-06-13,79.3954
2005-06-14,80.3202
2005-06-15,80.9675
2005-06-16,80.6438
2005-06-17,82.1234
2005-06-20,82.108
2005-06-21,82.0001
2005-06-22,82.0771
2005-06-23,80.9598
2005-06-24,80.6746
2005-06-27,80.8442
2005-06-28,82.054
2005-06-29,81.977
2005-06-30,81.0599
2005-07-01,81.4144
2005-07-05,81.9307
2005-07-06,81.0676
2005-07-07,81.4915
2005-07-08,82.0617
2005-07-11,82.2775
2005-07-12,83.9728
2005-07-13,84.7049
2005-07-14,84.99
2005-07-15,84.9207
2005-07-18,84.389
2005-07-19,84.8436
2005-07-20,86.4465
2005-07-21,85.1519
2005-07-22,85.175
2005-07-25,84.7666
2005-07-26,85.2058
2005-07-27,84.5045
2005-07-28,84.8282
2005-07-29,83.7262
2005-08-01,83.8187
2005-08-02,84.782
2005-08-03,84.782
2005-08-04,83.4951
2005-08-05,82.7938
2005-08-08,82.971
2005-08-09,83.6492
2005-08-10,82.9556
2005-08-11,84.3735
2005-08-12,83.7956
2005-08-15,83.942
2005-08-16,82.7399
2005-08-17,83.2022
2005-08-18,83.0558
2005-08-19,83.5413
2005-08-22,83.5798
2005-08-23,82.7013
2005-08-24,82.0694
2005-08-25,82.6628
2005-08-26,81.5762
2005-08-29,82.0001
2005-08-30,81.5594
2005-08-31,82.5654
2005-09-01,83.5018
2005-09-02,82.9137
2005-09-06,84.0203
2005-09-07,84.2061
2005-09-08,83.4244
2005-09-09,83.8656
2005-09-12,83.3935
2005-09-13,82.1708
2005-09-14,81.9773
2005-09-15,81.4201
2005-09-16,82.5964
2005-09-19,82.194
2005-09-20,82.2327
2005-09-21,81.3737
2005-09-22,81.5826
2005-09-23,81.807
2005-09-26,81.5671
2005-09-27,81.513
2005-09-28,81.2344
2005-09-29,82.8827
2005-09-30,81.8999
2005-10-03,82.1708
2005-10-04,80.6462
2005-10-05,79.6247
2005-10-06,79.5163
2005-10-07,79.3151
2005-10-10,79.0675
2005-10-11,78.696
2005-10-12,79.1991
2005-10-13,79.9033
2005-10-14,80.4837
2005-10-17,79.5163
2005-10-18,79.0675
2005-10-19,80.3521
2005-10-20,79.5783
2005-10-21,80.1509
2005-10-24,81.2653
2005-10-25,80.8784
2005-10-26,81.0718
2005-10-27,80.5379
2005-10-28,82.488
2005-10-31,83.1923
2005-11-01,82.2172
2005-11-02,82.728
2005-11-03,82.3797
2005-11-04,82.697
2005-11-07,82.9988
2005-11-08,82.4571
2005-11-09,83.6102
2005-11-10,85.4675
2005-11-11,85.6532
2005-11-14,85.0883
2005-11-15,84.6317
2005-11-16,84.0745
2005-11-17,84.562
2005-11-18,85.0419
2005-11-21,85.0264
2005-11-22,85.6455
2005-11-23,85.4598
2005-11-25,85.777
2005-11-28,85.986
2005-11-29,85.9465
2005-11-30,84.2293
2005-12-01,85.2627
2005-12-02,85.4725
2005-12-05,85.6046
2005-12-06,84.8898
2005-12-07,84.2215
2005-12-08,83.9107
2005-12-09,85.1151
2005-12-12,84.7577
2005-12-13,85.7367
2005-12-14,86.032
2005-12-15,85.5658
2005-12-16,86.0009
2005-12-19,85.2239
2005-12-20,85.4725
2005-12-21,85.558
2005-12-22,85.7523
2005-12-23,85.7833
2005-12-27,85.1306
2005-12-28,85.2084
2005-12-29,85.2861
2005-12-30,84.7421
2006-01-03,86.1252
2006-01-04,86.4516
2006-01-05,86.7469
2006-01-06,87.1276
2006-01-09,88.2077
2006-01-10,88.4252
2006-01-11,86.9489
2006-01-12,85.3948
2006-01-13,85.5425
2006-01-17,84.7421
2006-01-18,84.7577
2006-01-19,84.4624
2006-01-20,82.8074
2006-01-23,83.1337
2006-01-24,83.8175
2006-01-25,84.0428
2006-01-26,85.154
2006-01-27,84.8665
2006-01-30,84.1982
2006-01-31,84.0584
2006-02-01,84.0972
2006-02-02,83.8486
2006-02-03,83.0016
2006-02-06,82.753
2006-02-07,82.7763
2006-02-08,83.1026
2006-02-09,83.4445
2006-02-10,84.0661
2006-02-13,83.7398
2006-02-14,84.8587
2006-02-15,85.5658
2006-02-16,86.3506
2006-02-17,86.8867
2006-02-21,86.4594
2006-02-22,88.0911
2006-02-23,87.9435
2006-02-24,88.4428
2006-02-27,88.552
2006-02-28,87.6314
2006-03-01,88.1619
2006-03-02,87.6626
2006-03-03,87.7641
2006-03-06,86.9761
2006-03-07,87.725
2006-03-08,87.6236
2006-03-09,86.9605
2006-03-10,87.6236
2006-03-13,88.2243
2006-03-14,89.2073
2006-03-15,90.2527
2006-03-16,90.5413
2006-03-17,91.415
2006-03-20,91.4306
2006-03-21,90.0966
2006-03-22,90.4633
2006-03-23,90.3697
2006-03-24,90.4711
2006-03-27,90.3307
2006-03-28,89.4413
2006-03-29,89.3165
2006-03-30,88.7002
2006-03-31,89.0357
2006-04-03,89.3945
2006-04-04,89.3555
2006-04-05,89.2775
2006-04-06,89.0357
2006-04-07,88.7938
2006-04-10,89.1137
2006-04-11,88.4818
2006-04-12,88.4974
2006-04-13,89.0825
2006-04-17,89.4335
2006-04-18,90.159
2006-04-19,89.1839
2006-04-20,89.808
2006-04-21,89.1917
2006-04-24,89.3477
2006-04-25,88.9576
2006-04-26,89.2619
2006-04-27,91.3136
2006-04-28,93.2405
2006-05-01,91.0406
2006-05-02,90.986
2006-05-03,90.8299
2006-05-04,91.1732
2006-05-05,92.7803
2006-05-08,92.164
2006-05-09,92.6164
2006-05-10,92.671
2006-05-11,91.2278
2006-05-12,90.8924
2006-05-15,91.9299
2006-05-16,91.0796
2006-05-17,89.4413
2006-05-18,88.8874
2006-05-19,90.0576
2006-05-22,90.3853
2006-05-23,89.5661
2006-05-24,89.8548
2006-05-25,90.7129
2006-05-26,90.7363
2006-05-30,89.8498
2006-05-31,90.1007
2006-06-01,91.6769
2006-06-02,91.6769
2006-06-05,89.9753
2006-06-06,90.2419
2006-06-07,91.4495
2006-06-08,92.7826
2006-06-09,92.7042
2006-06-12,92.6101
2006-06-13,90.83
2006-06-14,89.6616
2006-06-15,91.5671
2006-06-16,91.1123
2006-06-19,90.4458
2006-06-20,90.383
2006-06-21,90.7908
2006-06-22,90.9006
2006-06-23,89.3558
2006-06-26,90.5477
2006-06-27,90.085
2006-06-28,90.9084
2006-06-29,92.2415
2006-06-30,92.3199
2006-07-03,92.9002
2006-07-05,91.3554
2006-07-06,91.4338
2006-07-07,91.7553
2006-07-10,92.218
2006-07-11,92.7042
2006-07-12,92.265
2006-07-13,92.1945
2006-07-14,91.2691
2006-07-17,91.426
2006-07-18,91.6299
2006-07-19,93.355
2006-07-20,93.2844
2006-07-21,93.3001
2006-07-24,94.9155
2006-07-25,95.2919
2006-07-26,95.088
2006-07-27,94.3744
2006-07-28,96.2721
2006-07-31,95.535
2006-08-01,95.041
2006-08-02,94.9547
2006-08-03,96.6328
2006-08-04,97.2053
2006-08-07,97.0328
2006-08-08,96.0055
2006-08-09,94.9469
2006-08-10,95.3076
2006-08-11,95.3546
2006-08-14,94.9704
2006-08-15,96.5231
2006-08-16,97.3229
2006-08-17,96.6407
2006-08-18,97.2837
2006-08-21,97.2445
2006-08-22,96.7034
2006-08-23,96.476
2006-08-24,96.7269
2006-08-25,96.0134
2006-08-28,96.6093
2006-08-29,96.2564
2006-08-30,96.4458
2006-08-31,96.4221
2006-09-01,96.564
2006-09-05,96.6901
2006-09-06,94.98
2006-09-07,93.4198
2006-09-08,93.4592
2006-09-11,93.0415
2006-09-12,94.0817
2006-09-13,94.0896
2006-09-14,94.3969
2006-09-15,95.2165
2006-09-18,94.5703
2006-09-19,94.783
2006-09-20,95.5001
2006-09-21,94.4442
2006-09-22,94.3418
2006-09-25,95.5238
2006-09-26,95.2716
2006-09-27,95.3583
2006-09-28,95.2322
2006-09-29,94.4442
2006-10-02,93.5459
2006-10-03,94.0975
2006-10-04,94.5703
2006-10-05,94.2314
2006-10-06,93.7901
2006-10-09,94.8382
2006-10-10,94.389
2006-10-11,97.6987
2006-10-12,96.9107
2006-10-13,97.1865
2006-10-16,96.4852
2006-10-17,96.5955
2006-10-18,96.43
2006-10-19,96.1306
2006-10-20,95.8784
2006-10-23,96.0675
2006-10-24,95.9099
2006-10-25,95.2953
2006-10-26,95.8232
2006-10-27,95.5238
2006-10-30,95.8311
2006-10-31,95.8626
2006-11-01,95.3898
2006-11-02,94.9328
2006-11-03,94.4206
2006-11-06,95.2086
2006-11-07,95.0589
2006-11-08,95.2953
2006-11-09,94.6412
2006-11-10,94.9958
2006-11-13,95.1455
2006-11-14,95.8942
2006-11-15,95.7129
2006-11-16,96.2803
2006-11-17,95.7129
2006-11-20,95.7208
2006-11-21,94.9485
2006-11-22,95.1692
2006-11-24,94.7437
2006-11-27,93.3804
2006-11-28,92.8839
2006-11-29,94.4762
2006-11-30,94.0247
2006-12-01,93.9772
2006-12-04,95.0702
2006-12-05,95.2049
2006-12-06,95.0781
2006-12-07,94.9197
2006-12-08,95.1257
2006-12-11,95.2999
2006-12-12,95.8068
2006-12-13,96.29
2006-12-14,96.7335
2006-12-15,96.7019
2006-12-18,96.5514
2006-12-19,96.7256
2006-12-20,96.6543
2006-12-21,96.4167
2006-12-22,95.9732
2006-12-26,96.6702
2006-12-27,97.2563
2006-12-28,97.0108
2006-12-29,96.488
2007-01-03,97.1137
2007-01-04,97.0108
2007-01-05,95.4504
2007-01-08,96.0049
2007-01-09,95.8544
2007-01-10,97.1533
2007-01-11,96.1474
2007-01-12,95.2682
2007-01-16,94.8722
2007-01-17,94.1118
2007-01-18,94.3574
2007-01-19,94.3099
2007-01-22,94.5633
2007-01-23,94.6584
2007-01-24,96.0682
2007-01-25,95.0227
2007-01-26,94.6346
2007-01-29,95.2128
2007-01-30,95.8385
2007-01-31,96.0841
2007-02-01,96.3534
2007-02-02,96.9078
2007-02-05,96.4722
2007-02-06,96.7177
2007-02-07,97.3355
2007-02-08,96.9712
2007-02-09,96.3138
2007-02-12,96.6227
2007-02-13,97.4464
2007-02-14,98.2543
2007-02-15,98.3018
2007-02-16,98.5869
2007-02-20,98.8087
2007-02-21,98.6899
2007-02-22,98.3652
2007-02-23,98.3176
2007-02-26,98.0071
2007-02-27,95.3488
2007-02-28,95.4125
2007-03-01,95.0702
2007-03-02,94.1947
2007-03-05,92.9133
2007-03-06,94.1151
2007-03-07,93.1999
2007-03-08,93.4068
2007-03-09,93.4307
2007-03-12,93.1521
2007-03-13,90.5654
2007-03-14,90.6768
2007-03-15,91.7593
2007-03-16,92.2289
2007-03-19,92.579
2007-03-20,93.1362
2007-03-21,95.1976
2007-03-22,94.0992
2007-03-23,94.338
2007-03-26,93.8207
2007-03-27,92.9054
2007-03-28,92.0219
2007-03-29,92.6666
2007-03-30,92.1333
2007-04-02,84.3813
2007-04-03,84.4768
2007-04-04,83.2272
2007-04-05,84.3574
2007-04-09,83.8242
2007-04-10,84.5166
2007-04-11,83.8082
2007-04-12,83.2113
2007-04-13,84.2619
2007-04-16,85.6229
2007-04-17,86.8565
2007-04-18,89.1328
2007-04-19,89.5785
2007-04-20,90.3903
2007-04-23,89.284
2007-04-24,89.1646
2007-04-25,89.9605
2007-04-26,89.5228
2007-04-27,88.7985
2007-04-30,88.6394
2007-05-01,89.0134
2007-05-02,89.6661
2007-05-03,89.9765
2007-05-04,90.3107
2007-05-07,90.2948
2007-05-08,89.6979
2007-05-09,89.9367
2007-05-10,88.6553
2007-05-11,89.0851
2007-05-14,88.8224
2007-05-15,88.4722
2007-05-16,89.2602
2007-05-17,89.5069
2007-05-18,89.6501
2007-05-21,89.9446
2007-05-22,90.064
2007-05-23,89.7297
2007-05-24,88.3608
2007-05-25,88.1618
2007-05-29,88.1936
2007-05-30,88.7135
2007-05-31,88.3054
2007-06-01,89.0896
2007-06-04,88.4094
2007-06-05,87.2651
2007-06-06,86.6329
2007-06-07,85.9367
2007-06-08,87.6572
2007-06-11,87.6412
2007-06-12,85.8567
2007-06-13,87.6012
2007-06-14,86.953
2007-06-15,87.081
2007-06-18,86.977
2007-06-19,87.4811
2007-06-20,86.2328
2007-06-21,86.8409
2007-06-22,85.6806
2007-06-25,85.4565
2007-06-26,85.8246
2007-06-27,86.8489
2007-06-28,86.8009
2007-06-29,85.5766
2007-07-02,86.7609
2007-07-03,87.3851
2007-07-05,86.4648
2007-07-06,87.049
2007-07-09,86.4248
2007-07-10,85.4245
2007-07-11,86.2007
2007-07-12,89.2256
2007-07-13,89.4977
2007-07-16,89.7778
2007-07-17,90.2019
2007-07-18,88.4654
2007-07-19,88.5454
2007-07-20,87.073
2007-07-23,86.6329
2007-07-24,84.5283
2007-07-25,85.6966
2007-07-26,84.1362
2007-07-27,84.5923
2007-07-30,85.7606
2007-07-31,85.0244
2007-08-01,85.2165
2007-08-02,84.2402
2007-08-03,79.951
2007-08-06,85.3685
2007-08-07,85.0164
2007-08-08,86.0887
2007-08-09,80.6311
2007-08-10,82.0315
2007-08-13,81.2713
2007-08-14,80.239
2007-08-15,80.5031
2007-08-16,86.5769
2007-08-17,88.9375
2007-08-20,86.1847
2007-08-21,86.977
2007-08-22,86.6089
2007-08-23,84.7363
2007-08-24,86.2648
2007-08-27,85.3605
2007-08-28,82.9758
2007-08-29,85.1124
2007-08-30,83.8868
2007-08-31,85.2723
2007-09-04,85.6509
2007-09-05,84.6279
2007-09-06,84.6359
2007-09-07,83.2907
2007-09-10,83.6854
2007-09-11,84.5151
2007-09-12,83.6854
2007-09-13,84.6198
2007-09-14,84.4507
2007-09-17,84.1526
2007-09-18,87.7533
2007-09-19,88.1077
2007-09-20,87.2861
2007-09-21,86.4725
2007-09-24,84.9904
2007-09-25,84.209
2007-09-26,84.0479
2007-09-27,84.5554
2007-09-28,83.5565
2007-10-01,84.7407
2007-10-02,85.2401
2007-10-03,85.6026
2007-10-04,86.2067
2007-10-05,86.6497
2007-10-08,85.6509
2007-10-09,86.1423
2007-10-10,84.7648
2007-10-11,84.6279
2007-10-12,81.4461
2007-10-15,80.6164
2007-10-16,78.9329
2007-10-17,80.3909
2007-10-18,79.4081
2007-10-19,78.6751
2007-10-22,78.9006
2007-10-23,78.8443
2007-10-24,78.369
2007-10-25,78.6912
2007-10-26,80.6406
2007-10-29,80.2539
2007-10-30,79.5934
2007-10-31,80.0123
2007-11-01,75.5175
2007-11-02,73.8098
2007-11-05,73.0284
2007-11-06,74.4703
2007-11-07,71.0871
2007-11-08,73.1976
2007-11-09,74.3495
2007-11-12,75.01
2007-11-13,78.3126
2007-11-14,76.0652
2007-11-15,73.5037
2007-11-16,72.0537
2007-11-19,71.1838
2007-11-20,70.4266
2007-11-21,70.4588
2007-11-23,72.4726
2007-11-26,68.4128
2007-11-27,70.7407
2007-11-28,73.3828
2007-11-29,72.1987
2007-11-30,73.3587
2007-12-03,72.9962
2007-12-04,71.4979
2007-12-05,72.4726
2007-12-06,72.9156
2007-12-07,71.369
2007-12-10,74.1722
2007-12-11,69.5888
2007-12-12,69.0169
2007-12-13,69.3411
2007-12-14,67.8143
2007-12-17,65.7108
2007-12-18,65.6458
2007-12-19,64.8012
2007-12-20,64.2733
2007-12-21,66.7909
2007-12-24,66.9777
2007-12-26,66.864
2007-12-27,65.6945
2007-12-28,66.1006
2007-12-31,66.1575
2008-01-02,65.0123
2008-01-03,63.8916
2008-01-04,61.7475
2008-01-07,62.1292
2008-01-08,59.1893
2008-01-09,59.9202
2008-01-10,60.9354
2008-01-11,60.0582
2008-01-14,58.7507
2008-01-15,58.1335
2008-01-16,60.0582
2008-01-17,58.6126
2008-01-18,59.8796
2008-01-22,61.9018
2008-01-23,67.7818
2008-01-24,69.0243
2008-01-25,67.863
2008-01-28,70.4456
2008-01-29,71.2496
2008-01-30,70.876
2008-01-31,74.1734
2008-02-01,76.1306
2008-02-04,73.2638
2008-02-05,72.0293
2008-02-06,71.6476
2008-02-07,72.809
2008-02-08,72.3298
2008-02-11,70.9979
2008-02-12,71.3552
2008-02-13,71.4689
2008-02-14,70.0883
2008-02-15,71.8019
2008-02-19,69.601
2008-02-20,70.8679
2008-02-21,69.1137
2008-02-22,71.0141
2008-02-25,70.9979
2008-02-26,71.1522
2008-02-27,71.2346
2008-02-28,68.9831
2008-02-29,67.1493
2008-03-03,65.5446
2008-03-04,65.1189
2008-03-05,64.2675
2008-03-06,62.278
2008-03-07,63.1868
2008-03-10,63.0394
2008-03-11,68.6393
2008-03-12,66.4943
2008-03-13,67.2066
2008-03-14,65.5774
2008-03-17,65.7329
2008-03-18,67.3621
2008-03-19,65.954
2008-03-20,70.7761
2008-03-24,70.2849
2008-03-25,70.7597
2008-03-26,69.0486
2008-03-27,68.2054
2008-03-28,66.7972
2008-03-31,65.8066
2008-04-01,69.5972
2008-04-02,69.6954
2008-04-03,69.6299
2008-04-04,67.9761
2008-04-07,70.3258
2008-04-08,70.2357
2008-04-09,68.9013
2008-04-10,69.4334
2008-04-11,68.6884
2008-04-14,66.1505
2008-04-15,70.1048
2008-04-16,73.355
2008-04-17,74.7222
2008-04-18,74.0918
2008-04-21,72.0614
2008-04-22,72.9211
2008-04-23,72.086
2008-04-24,75.0251
2008-04-25,77.0882
2008-04-28,77.7186
2008-04-29,76.6952
2008-04-30,76.2859
2008-05-01,79.4215
2008-05-02,77.9642
2008-05-05,76.8344
2008-05-06,77.3011
2008-05-07,75.3608
2008-05-08,74.935
2008-05-09,74.5584
2008-05-12,76.4005
2008-05-13,74.845
2008-05-14,76.3186
2008-05-15,76.9327
2008-05-16,74.9269
2008-05-19,74.9432
2008-05-20,72.7164
2008-05-21,72.6918
2008-05-22,73.576
2008-05-23,72.4544
2008-05-27,73.4778
2008-05-28,70.9071
2008-05-29,72.252
2008-05-30,71.4102
2008-06-02,70.6921
2008-06-03,70.1556
2008-06-04,69.256
2008-06-05,69.8502
2008-06-06,67.1348
2008-06-09,66.7551
2008-06-10,66.8459
2008-06-11,64.1883
2008-06-12,64.1057
2008-06-13,64.2048
2008-06-16,64.9971
2008-06-17,63.6683
2008-06-18,62.6366
2008-06-19,62.6366
2008-06-20,60.6145
2008-06-23,59.6075
2008-06-24,60.4494
2008-06-25,60.6557
2008-06-26,59.459
2008-06-27,59.1371
2008-06-30,58.2704
2008-07-01,60.4164
2008-07-02,60.9776
2008-07-03,59.2113
2008-07-07,57.3708
2008-07-08,60.8208
2008-07-09,57.1149
2008-07-10,57.247
2008-07-11,57.4946
2008-07-14,48.3661
2008-07-15,46.864
2008-07-16,52.9964
2008-07-17,55.0845
2008-07-18,56.6362
2008-07-21,57.0159
2008-07-22,59.9789
2008-07-23,58.8647
2008-07-24,56.6362
2008-07-25,56.3473
2008-07-28,55.2991
2008-07-29,57.9238
2008-07-30,58.6831
2008-07-31,58.0806
2008-08-01,59.0793
2008-08-04,59.5332
2008-08-05,61.6131
2008-08-06,61.9268
2008-08-07,60.21
2008-08-08,62.5871
2008-08-11,65.253
2008-08-12,61.8195
2008-08-13,59.8469
2008-08-14,61.2252
2008-08-15,61.4316
2008-08-18,59.1783
2008-08-19,57.7009
2008-08-20,57.0076
2008-08-21,56.4051
2008-08-22,57.932
2008-08-25,55.9347
2008-08-26,56.4381
2008-08-27,56.5784
2008-08-28,58.7623
2008-08-29,59.4378
2008-09-02,60.9387
2008-09-03,61.6392
2008-09-04,60.5468
2008-09-05,61.5558
2008-09-08,63.2318
2008-09-09,62.1228
2008-09-10,62.3229
2008-09-11,62.7732
2008-09-12,65.1664
2008-09-15,63.2402
2008-09-16,67.5763
2008-09-17,64.4159
2008-09-18,75.056
2008-09-19,77.7577
2008-09-22,74.7308
2008-09-23,70.9868
2008-09-24,72.0958
2008-09-25,72.838
2008-09-26,72.963
2008-09-29,69.3941
2008-09-30,74.3806
2008-10-01,79.0502
2008-10-02,71.7122
2008-10-03,73.5384
2008-10-06,72.5127
2008-10-07,67.0843
2008-10-08,62.2729
2008-10-09,54.8849
2008-10-10,58.5956
2008-10-13,59.6879
2008-10-14,66.6507
2008-10-15,66.092
2008-10-16,65.8752
2008-10-17,65.9002
2008-10-20,67.5262
2008-10-21,70.2113
2008-10-22,64.7828
2008-10-23,61.6975
2008-10-24,62.7482
2008-10-27,63.0901
2008-10-28,66.5506
2008-10-29,66.1754
2008-10-30,64.9746
2008-10-31,66.9842
2008-11-03,68.3101
2008-11-04,72.346
2008-11-05,64.2492
2008-11-06,62.1728
2008-11-07,61.5224
2008-11-10,59.2376
2008-11-11,57.5366
2008-11-12,54.101
2008-11-13,55.9606
2008-11-14,54.8599
2008-11-17,51.6745
2008-11-18,50.7656
2008-11-19,46.9799
2008-11-20,45.9459
2008-11-21,48.5142
2008-11-24,51.933
2008-11-25,53.5257
2008-11-26,54.3923
2008-11-28,54.1646
2008-12-01,47.3614
2008-12-02,50.4132
2008-12-03,52.5882
2008-12-04,52.1667
2008-12-05,57.0731
2008-12-08,58.1775
2008-12-09,55.1426
2008-12-10,54.6367
2008-12-11,49.8568
2008-12-12,49.7387
2008-12-15,48.3056
2008-12-16,51.9053
2008-12-17,51.6187
2008-12-18,50.3879
2008-12-19,47.3867
2008-12-22,46.7123
2008-12-23,45.4562
2008-12-24,47.4204
2008-12-26,46.7881
2008-12-29,45.1358
2008-12-30,46.6111
2008-12-31,48.5669
2009-01-02,48.314
2009-01-05,45.4477
2009-01-06,44.9756
2009-01-07,41.7384
2009-01-08,41.5866
2009-01-09,40.5919
2009-01-12,38.4337
2009-01-13,39.5802
2009-01-14,38.2314
2009-01-15,35.9552
2009-01-16,33.8729
2009-01-20,29.9528
2009-01-21,31.9845
2009-01-22,30.6357
2009-01-23,31.5546
2009-01-26,30.9308
2009-01-27,31.8749
2009-01-28,35.559
2009-01-29,33.6875
2009-01-30,32.8276
2009-02-02,32.8276
2009-02-03,31.4534
2009-02-04,32.2627
2009-02-05,32.3218
2009-02-06,34.4883
2009-02-09,34.9099
2009-02-10,32.2459
2009-02-11,32.0688
2009-02-12,32.6505
2009-02-13,31.1584
2009-02-17,29.4807
2009-02-18,30.3912
2009-02-19,28.0392
2009-02-20,29.6999
2009-02-23,29.6746
2009-02-24,32.4313
2009-02-25,32.836
2009-02-26,34.0722
2009-02-27,31.4711
2009-03-02,30.0288
2009-03-03,29.076
2009-03-04,28.6381
2009-03-05,26.183
2009-03-06,27.2389
2009-03-09,27.7883
2009-03-10,30.5783
2009-03-11,30.4409
2009-03-12,32.9476
2009-03-13,33.4884
2009-03-16,32.6042
2009-03-17,34.1151
2009-03-18,35.7719
2009-03-19,34.3126
2009-03-20,34.4757
2009-03-23,41.4721
2009-03-24,38.6478
2009-03-25,39.3174
2009-03-26,39.7294
2009-03-27,41.163
2009-03-30,37.7807
2009-03-31,38.871
2009-04-01,41.1115
2009-04-02,40.1501
2009-04-03,40.9055
2009-04-06,40.7767
2009-04-07,39.9183
2009-04-08,40.6995
2009-04-09,46.9147
2009-04-13,47.7646
2009-04-14,44.0303
2009-04-15,47.3439
2009-04-16,48.4256
2009-04-17,51.1812
2009-04-20,45.1291
2009-04-21,44.3479
2009-04-22,42.3306
2009-04-23,44.3479
2009-04-24,45.3952
2009-04-27,43.3693
2009-04-28,42.5022
2009-04-29,45.0347
2009-04-30,45.0004
2009-05-01,42.4078
2009-05-04,48.2024
2009-05-05,46.5971
2009-05-06,48.9235
2009-05-07,45.3094
2009-05-08,47.0091
2009-05-11,44.099
2009-05-12,43.0517
2009-05-13,40.0471
2009-05-14,41.2231
2009-05-15,39.5835
2009-05-18,41.8842
2009-05-19,43.8071
2009-05-20,40.9828
2009-05-21,39.9955
2009-05-22,40.3475
2009-05-26,42.0816
2009-05-27,41.8412
2009-05-28,42.4592
2009-05-29,43.6524
2009-06-01,44.0792
2009-06-02,42.6247
2009-06-03,42.6508
2009-06-04,43.3302
2009-06-05,42.2328
2009-06-08,42.677
2009-06-09,42.9034
2009-06-10,41.6405
2009-06-11,42.3634
2009-06-12,42.5202
2009-06-15,41.1789
2009-06-16,39.916
2009-06-17,39.0277
2009-06-18,39.4544
2009-06-19,40.7521
2009-06-22,38.5748
2009-06-23,39.2193
2009-06-24,39.9683
2009-06-25,42.7641
2009-06-26,42.8076
2009-06-29,44.445
2009-06-30,44.3231
2009-07-01,44.5321
2009-07-02,46.2043
2009-07-06,46.666
2009-07-07,45.9953
2009-07-08,44.5757
2009-07-09,44.6018
2009-07-10,44.7847
2009-07-13,47.3105
2009-07-14,46.4134
2009-07-15,48.2598
2009-07-16,48.4514
2009-07-17,47.2408
2009-07-20,49.5837
2009-07-21,47.9027
2009-07-22,47.8243
2009-07-23,49.5924
2009-07-24,50.0627
2009-07-27,51.822
2009-07-28,50.8378
2009-07-29,49.7753
2009-07-30,51.3953
2009-07-31,50.9162
2009-08-03,50.6114
2009-08-04,51.4388
2009-08-05,52.4143
2009-08-06,51.2995
2009-08-07,53.2504
2009-08-10,53.7207
2009-08-11,52.0311
2009-08-12,51.9962
2009-08-13,52.423
2009-08-14,52.2575
2009-08-17,50.3414
2009-08-18,50.4198
2009-08-19,50.9075
2009-08-20,51.9004
2009-08-21,52.6407
2009-08-24,52.963
2009-08-25,53.4072
2009-08-26,53.4681
2009-08-27,53.233
2009-08-28,54.3419
2009-08-31,54.4476
2009-09-01,51.7428
2009-09-02,50.1482
2009-09-03,51.4433
2009-09-04,51.5137
2009-09-08,51.7604
2009-09-09,51.9807
2009-09-10,52.6238
2009-09-11,52.2714
2009-09-14,52.2891
2009-09-15,54.9674
2009-09-16,58.6941
2009-09-17,57.4255
2009-09-18,58.2272
2009-09-21,57.6986
2009-09-22,57.4519
2009-09-23,56.3242
2009-09-24,55.6282
2009-09-25,55.0907
2009-09-28,55.6634
2009-09-29,55.0643
2009-09-30,54.9145
2009-10-01,53.0379
2009-10-02,52.9851
2009-10-05,53.2406
2009-10-06,54.8969
2009-10-07,54.9762
2009-10-08,55.5929
2009-10-09,58.1479
2009-10-12,58.3505
2009-10-13,57.9365
2009-10-14,59.2316
2009-10-15,59.1347
2009-10-16,58.5972
2009-10-19,58.2801
2009-10-20,59.3373
2009-10-21,58.3241
2009-10-22,60.7029
2009-10-23,60.65
2009-10-26,59.9276
2009-10-27,58.7558
2009-10-28,57.1523
2009-10-29,57.7514
2009-10-30,55.4255
2009-11-02,55.7251
2009-11-03,55.2934
2009-11-04,53.5049
2009-11-05,55.1083
2009-11-06,55.2757
2009-11-09,56.9145
2009-11-10,55.9806
2009-11-11,56.5444
2009-11-12,55.5048
2009-11-13,55.0026
2009-11-16,55.9718
2009-11-17,55.8925
2009-11-18,57.1171
2009-11-19,57.4695
2009-11-20,58.0598
2009-11-23,58.6236
2009-11-24,58.4298
2009-11-25,58.4563
2009-11-27,56.8533
2009-11-30,58.4026
2009-12-01,58.4472
2009-12-02,58.2691
2009-12-03,56.0074
2009-12-04,56.4882
2009-12-07,54.5649
2009-12-08,56.6841
2009-12-09,56.9513
2009-12-10,56.4882
2009-12-11,57.3431
2009-12-14,57.6903
2009-12-15,56.0074
2009-12-16,56.1588
2009-12-17,56.4259
2009-12-18,57.6458
2009-12-21,58.554
2009-12-22,59.5869
2009-12-23,59.0349
2009-12-24,59.4979
2009-12-28,59.489
2009-12-29,59.578
2009-12-30,59.7116
2009-12-31,59.6314
2010-01-04,59.667
2010-01-05,60.7979
2010-01-06,62.7746
2010-01-07,65.0808
2010-01-08,65.7664
2010-01-11,65.1164
2010-01-12,63.9322
2010-01-13,65.4815
2010-01-14,67.0664
2010-01-15,65.0897
2010-01-19,66.452
2010-01-20,69.2302
2010-01-21,70.0137
2010-01-22,67.3692
2010-01-25,66.8973
2010-01-26,65.7664
2010-01-27,67.9925
2010-01-28,67.4582
2010-01-29,65.6685
2010-02-01,66.6301
2010-02-02,66.7103
2010-02-03,64.2438
2010-02-04,62.9438
2010-02-05,64.5465
2010-02-08,63.5849
2010-02-09,64.0212
2010-02-10,64.7335
2010-02-11,64.4486
2010-02-12,64.128
2010-02-16,66.8438
2010-02-17,66.2383
2010-02-18,67.1377
2010-02-19,68.224
2010-02-22,69.4171
2010-02-23,68.8027
2010-02-24,70.178
2010-02-25,68.8032
2010-02-26,69.558
2010-03-01,69.9982
2010-03-02,70.4296
2010-03-03,68.7762
2010-03-04,68.4078
2010-03-05,70.5104
2010-03-08,70.807
2010-03-09,70.753
2010-03-10,71.436
2010-03-11,72.1728
2010-03-12,71.8852
2010-03-15,72.0649
2010-03-16,73.1792
2010-03-17,74.3743
2010-03-18,75.4256
2010-03-19,74.8235
2010-03-22,74.7786
2010-03-23,74.6888
2010-03-24,74.5899
2010-03-25,74.0328
2010-03-26,72.5951
2010-03-29,72.64
2010-03-30,71.7055
2010-03-31,71.2293
2010-04-01,71.4
2010-04-05,73.26
2010-04-06,75.9018
2010-04-07,74.8775
2010-04-08,75.6502
2010-04-09,76.7734
2010-04-12,76.6386
2010-04-13,76.3421
2010-04-14,77.9236
2010-04-15,77.4204
2010-04-16,75.7041
2010-04-19,75.5514
2010-04-20,76.3242
2010-04-21,77.5642
2010-04-22,78.948
2010-04-23,79.4871
2010-04-26,76.7644
2010-04-27,75.5154
2010-04-28,76.6836
2010-04-29,80.2689
2010-04-30,78.3729
2010-05-03,80.0891
2010-05-04,78.319
2010-05-05,78.5616
2010-05-06,75.9198
2010-05-07,75.5873
2010-05-10,79.4781
2010-05-11,79.8915
2010-05-12,81.437
2010-05-13,81.0776
2010-05-14,78.4268
2010-05-17,79.0378
2010-05-18,75.2099
2010-05-19,74.9404
2010-05-20,71.7055
2010-05-21,75.4795
2010-05-24,73.1971
2010-05-25,72.5592
2010-05-26,72.1907
2010-05-27,73.8044
2010-05-28,71.9008
2010-06-01,70.4052
2010-06-02,72.209
2010-06-03,71.5201
2010-06-04,68.2568
2010-06-07,67.2869
2010-06-08,69.5078
2010-06-09,69.1724
2010-06-10,71.2482
2010-06-11,70.9762
2010-06-14,70.2782
2010-06-15,72.0459
2010-06-16,74.2758
2010-06-17,80.9292
2010-06-18,82.1529
2010-06-21,85.525
2010-06-22,84.9539
2010-06-23,82.443
2010-06-24,78.5089
2010-06-25,80.195
2010-06-28,80.8748
2010-06-29,78.0829
2010-06-30,77.0133
2010-07-01,79.0347
2010-07-02,77.0767
2010-07-06,77.8744
2010-07-07,80.9201
2010-07-08,80.2856
2010-07-09,81.7269
2010-07-12,80.6935
2010-07-13,82.9506
2010-07-14,81.4096
2010-07-15,80.3037
2010-07-16,77.7203
2010-07-19,78.0195
2010-07-20,76.9226
2010-07-21,75.5629
2010-07-22,78.663
2010-07-23,81.0833
2010-07-26,83.6667
2010-07-27,81.4096
2010-07-28,79.497
2010-07-29,78.7809
2010-07-30,79.2432
2010-08-02,81.2011
2010-08-03,79.7599
2010-08-04,80.3672
2010-08-05,79.352
2010-08-06,78.6812
2010-08-09,79.7508
2010-08-10,79.6239
2010-08-11,76.5419
2010-08-12,77.2399
2010-08-13,77.3577
2010-08-16,77.4484
2010-08-17,81.9898
2010-08-18,81.745
2010-08-19,80.902
2010-08-20,81.4822
2010-08-23,80.5032
2010-08-24,79.2069
2010-08-25,78.6721
2010-08-26,78.6177
2010-08-27,79.4607
2010-08-30,77.6232
2010-08-31,78.2902
2010-09-01,79.8527
2010-09-02,79.7796
2010-09-03,81.1594
2010-09-07,77.3856
2010-09-08,78.0709
2010-09-09,79.67
2010-09-10,79.0578
2010-09-13,80.7208
2010-09-14,80.4284
2010-09-15,79.7979
2010-09-16,79.4598
2010-09-17,79.3045
2010-09-20,83.2245
2010-09-21,81.0315
2010-09-22,81.3604
2010-09-23,80.6203
2010-09-24,82.8224
2010-09-27,76.7917
2010-09-28,75.3571
2010-09-29,74.6809
2010-09-30,74.8454
2010-10-01,74.8088
2010-10-04,75.0555
2010-10-05,75.75
2010-10-06,72.159
2010-10-07,70.3589
2010-10-08,70.1213
2010-10-11,70.5782
2010-10-12,70.8157
2010-10-13,70.0756
2010-10-14,69.1618
2010-10-15,68.6776
2010-10-18,70.103
2010-10-19,69.2349
2010-10-20,67.7273
2010-10-21,66.6216
2010-10-22,67.974
2010-10-25,68.1293
2010-10-26,68.7141
2010-10-27,68.504
2010-10-28,68.2481
2010-10-29,68.2755
2010-11-01,70.7883
2010-11-02,70.9071
2010-11-03,73.6301
2010-11-04,75.2748
2010-11-05,75.5581
2010-11-08,75.0555
2010-11-09,73.3834
2010-11-10,75.1378
2010-11-11,74.9642
2010-11-12,74.0139
2010-11-15,74.2423
2010-11-16,72.9448
2010-11-17,72.6615
2010-11-18,71.163
2010-11-19,71.099
2010-11-22,70.2218
2010-11-23,70.4776
2010-11-24,70.6421
2010-11-26,69.8563
2010-11-29,71.0275
2010-11-30,71.0367
2010-12-01,72.5122
2010-12-02,74.292
2010-12-03,74.6148
2010-12-06,73.4989
2010-12-07,73.2961
2010-12-08,75.0851
2010-12-09,76.7912
2010-12-10,78.4788
2010-12-13,78.6725
2010-12-14,77.3261
2010-12-15,75.7399
2010-12-16,76.0258
2010-12-17,76.3301
2010-12-20,77.7964
2010-12-21,79.1243
2010-12-22,79.5301
2010-12-23,78.488
2010-12-27,79.401
2010-12-28,80.0742
2010-12-29,80.6367
2010-12-30,79.8068
2010-12-31,80.2679
2011-01-03,81.061
2011-01-04,80.1756
2011-01-05,81.1993
2011-01-06,80.7658
2011-01-07,80.065
2011-01-10,79.4379
2011-01-11,80.0189
2011-01-12,80.5537
2011-01-13,79.4471
2011-01-14,79.6223
2011-01-18,79.5578
2011-01-19,79.7975
2011-01-20,78.9491
2011-01-21,79.982
2011-01-24,79.7053
2011-01-25,80.2125
2011-01-26,79.4932
2011-01-27,80.1756
2011-01-28,79.6131
2011-01-31,79.733
2011-02-01,80.4431
2011-02-02,79.9359
2011-02-03,80.0096
2011-02-04,80.6275
2011-02-07,81.1439
2011-02-08,82.1676
2011-02-09,81.7987
2011-02-10,81.1347
2011-02-11,82.8592
2011-02-14,82.3059
2011-02-15,82.4996
2011-02-16,82.9883
2011-02-17,83.0437
2011-02-18,83.9105
2011-02-22,82.5918
2011-02-23,82.2137
2011-02-24,81.5077
2011-02-25,82.335
2011-02-28,81.8144
2011-03-01,80.132
2011-03-02,79.7417
2011-03-03,81.2567
2011-03-04,81.768
2011-03-07,81.0058
2011-03-08,83.534
2011-03-09,83.1901
2011-03-10,81.4891
2011-03-11,81.5728
2011-03-14,81.5263
2011-03-15,80.5317
2011-03-16,78.8865
2011-03-17,81.1917
2011-03-18,81.4984
2011-03-21,80.6526
2011-03-22,80.2436
2011-03-23,80.3365
2011-03-24,80.8106
2011-03-25,81.3776
2011-03-28,81.0244
2011-03-29,81.3311
2011-03-30,82.242
2011-03-31,82.242
2011-04-01,83.3481
2011-04-04,82.9391
2011-04-05,82.4279
2011-04-06,83.5154
2011-04-07,82.0375
2011-04-08,81.4891
2011-04-11,81.5635
2011-04-12,81.0058
2011-04-13,79.9276
2011-04-14,79.2118
2011-04-15,79.3234
2011-04-18,81.1359
2011-04-19,79.3792
2011-04-20,79.7881
2011-04-21,79.7324
2011-04-25,80.0484
2011-04-26,81.108
2011-04-27,83.3388
2011-04-28,82.6789
2011-04-29,82.1584
2011-05-02,81.517
2011-05-03,82.2885
2011-05-04,80.8292
2011-05-05,80.1227
2011-05-06,80.3737
2011-05-09,80.4109
2011-05-10,81.5356
2011-05-11,81.1917
2011-05-12,81.4984
2011-05-13,80.3272
2011-05-16,80.3087
2011-05-17,81.7587
2011-05-18,83.0135
2011-05-19,82.8555
2011-05-20,81.8888
2011-05-23,81.1266
2011-05-24,81.2196
2011-05-25,80.8292
2011-05-26,80.7083
2011-05-27,82.1043
2011-05-31,82.7509
2011-06-01,80.4738
2011-06-02,81.0173
2011-06-03,80.4176
2011-06-06,79.4525
2011-06-07,80.0241
2011-06-08,79.7148
2011-06-09,80.099
2011-06-10,79.0495
2011-06-13,79.7898
2011-06-14,81.4109
2011-06-15,80.6332
2011-06-16,82.0668
2011-06-17,82.5728
2011-06-20,82.2542
2011-06-21,82.5447
2011-06-22,81.7764
2011-06-23,80.8768
2011-06-24,80.0053
2011-06-27,81.261
2011-06-28,80.9705
2011-06-29,82.1043
2011-06-30,82.451
2011-07-01,83.4068
2011-07-05,82.4604
2011-07-06,82.8258
2011-07-07,83.6598
2011-07-08,82.0762
2011-07-11,80.755
2011-07-12,81.9638
2011-07-13,81.6077
2011-07-14,80.605
2011-07-15,80.1459
2011-07-18,79.4618
2011-07-19,81.2422
2011-07-20,81.6452
2011-07-21,82.9664
2011-07-22,83.4537
2011-07-25,82.9758
2011-07-26,82.6853
2011-07-27,81.7014
2011-07-28,80.9049
2011-07-29,80.9143
2011-08-01,81.9169
2011-08-02,80.2021
2011-08-03,79.087
2011-08-04,76.0135
2011-08-05,73.7458
2011-08-08,68.0861
2011-08-09,70.6911
2011-08-10,65.9215
2011-08-11,69.9414
2011-08-12,68.3953
2011-08-15,70.0913
2011-08-16,68.9856
2011-08-17,69.6228
2011-08-18,67.0272
2011-08-19,65.4529
2011-08-22,65.5373
2011-08-23,67.9268
2011-08-24,69.4448
2011-08-25,68.5077
2011-08-26,69.6603
2011-08-29,72.0498
2011-08-30,71.4356
2011-08-31,71.7855
2011-09-01,70.3292
2011-09-02,68.3811
2011-09-06,67.7191
2011-09-07,71.464
2011-09-08,69.3362
2011-09-09,66.7356
2011-09-12,68.2865
2011-09-13,68.7405
2011-09-14,69.0431
2011-09-15,70.4994
2011-09-16,70.0549
2011-09-19,68.0974
2011-09-20,67.9839
2011-09-21,64.6836
2011-09-22,64.3148
2011-09-23,65.2037
2011-09-26,69.4024
2011-09-27,68.7405
2011-09-28,66.5276
2011-09-29,68.069
2011-09-30,66.2061
2011-10-03,64.8632
2011-10-04,65.998
2011-10-05,66.2912
2011-10-06,68.9485
2011-10-07,66.9059
2011-10-10,69.8658
2011-10-11,69.7902
2011-10-12,71.8328
2011-10-13,71.8328
2011-10-14,71.6058
2011-10-17,69.5632
2011-10-18,72.7974
2011-10-19,68.8256
2011-10-20,69.5348
2011-10-21,70.8493
2011-10-24,72.3245
2011-10-25,70.7169
2011-10-26,72.3624
2011-10-27,74.8684
2011-10-28,74.0173
2011-10-31,72.0408
2011-11-01,68.2771
2011-11-02,69.1944
2011-11-03,69.1755
2011-11-04,68.0407
2011-11-07,67.8988
2011-11-08,69.8469
2011-11-09,66.6884
2011-11-10,68.4851
2011-11-11,69.8847
2011-11-14,68.088
2011-11-15,68.8729
2011-11-16,68.1069
2011-11-17,67.0288
2011-11-18,67.8515
2011-11-21,66.3479
2011-11-22,65.7994
2011-11-23,63.7663
2011-11-25,64.0216
2011-11-28,65.0618
2011-11-29,65.281
2011-11-30,69.819
2011-12-01,69.6471
2011-12-02,70.7076
2011-12-05,72.1502
2011-12-06,71.7393
2011-12-07,71.405
2011-12-08,68.6439
2011-12-09,69.8382
2011-12-12,68.6535
2011-12-13,67.7841
2011-12-14,68.0994
2011-12-15,68.4337
2011-12-16,69.4942
2011-12-19,68.1758
2011-12-20,71.7489
2011-12-21,72.4177
2011-12-22,73.0769
2011-12-23,73.4113
2011-12-27,73.2489
2011-12-28,72.3795
2011-12-29,73.5259
2011-12-30,72.924
2012-01-03,74.5195
2012-01-04,74.5673
2012-01-05,75.7424
2012-01-06,75.9144
2012-01-09,76.0386
2012-01-10,76.6213
2012-01-11,76.9653
2012-01-12,77.806
2012-01-13,78.6563
2012-01-17,77.4239
2012-01-18,78.064
2012-01-19,78.1404
2012-01-20,78.0257
2012-01-23,78.3983
2012-01-24,78.0353
2012-01-25,78.427
2012-01-26,76.5067
2012-01-27,76.6404
2012-01-30,76.3538
2012-01-31,76.2201
2012-02-01,76.5449
2012-02-02,76.9748
2012-02-03,78.7996
2012-02-06,77.4143
2012-02-07,77.806
2012-02-08,78.064
2012-02-09,77.1946
2012-02-10,76.2392
2012-02-13,77.0608
2012-02-14,77.3665
2012-02-15,77.2328
2012-02-16,78.1977
2012-02-17,79.1722
2012-02-21,78.8856
2012-02-22,77.2423
2012-02-23,78.427
2012-02-24,78.1022
2012-02-27,78.685
2012-02-28,78.1882
2012-02-29,78.064
2012-03-01,78.3152
2012-03-02,77.6696
2012-03-05,77.1878
2012-03-06,75.8387
2012-03-07,76.9276
2012-03-08,77.7467
2012-03-09,78.3056
2012-03-12,78.2092
2012-03-13,80.6376
2012-03-14,80.1461
2012-03-15,81.8518
2012-03-16,82.5842
2012-03-19,83.4418
2012-03-20,83.066
2012-03-21,82.3529
2012-03-22,81.9
2012-03-23,82.8058
2012-03-26,83.4707
2012-03-27,82.9022
2012-03-28,84.0778
2012-03-29,83.5093
2012-03-30,83.7405
2012-04-02,83.7598
2012-04-03,83.8851
2012-04-04,83.2587
2012-04-05,83.7405
2012-04-09,82.2276
2012-04-10,80.9845
2012-04-11,82.0156
2012-04-12,83.1431
2012-04-13,81.476
2012-04-16,82.5745
2012-04-17,84.232
2012-04-18,84.0104
2012-04-19,83.7887
2012-04-20,84.2802
2012-04-23,82.6805
2012-04-24,83.4611
2012-04-25,84.0104
2012-04-26,84.1549
2012-04-27,84.2513
2012-04-30,83.1045
2012-05-01,83.6827
2012-05-02,83.49
2012-05-03,82.9022
2012-05-04,82.5456
2012-05-07,83.4514
2012-05-08,83.1527
2012-05-09,81.5338
2012-05-10,82.0349
2012-05-11,81.7265
2012-05-14,80.7918
2012-05-15,80.0016
2012-05-16,79.5969
2012-05-17,78.3152
2012-05-18,77.6889
2012-05-21,78.614
2012-05-22,78.8549
2012-05-23,78.8549
2012-05-24,78.5176
2012-05-25,78.8067
2012-05-29,79.8571
2012-05-30,78.6809
2012-05-31,79.0405
2012-06-01,76.3776
2012-06-04,75.2114
2012-06-05,74.7935
2012-06-06,75.9986
2012-06-07,76.9121
2012-06-08,77.6118
2012-06-11,75.9986
2012-06-12,77.2328
2012-06-13,76.6594
2012-06-14,77.9423
2012-06-15,78.6906
2012-06-18,78.4865
2012-06-19,79.1765
2012-06-20,79.332
2012-06-21,77.6604
2012-06-22,78.7489
2012-06-25,77.2231
2012-06-26,77.641
2012-06-27,78.642
2012-06-28,78.4962
2012-06-29,80.1775
2012-07-02,81.0425
2012-07-03,82.024
2012-07-05,81.4604
2012-07-06,81.5381
2012-07-09,81.3632
2012-07-10,80.3719
2012-07-11,81.4215
2012-07-12,80.0998
2012-07-13,81.5381
2012-07-16,81.2174
2012-07-17,83.3166
2012-07-18,84.5023
2012-07-19,84.2301
2012-07-20,82.5488
2012-07-23,81.8394
2012-07-24,82.0823
2012-07-25,82.2281
2012-07-26,83.2291
2012-07-27,83.9386
2012-07-30,83.7248
2012-07-31,83.5304
2012-08-01,83.0931
2012-08-02,82.1601
2012-08-03,84.9493
2012-08-06,84.2982
2012-08-07,84.6189
2012-08-08,84.2787
2012-08-09,84.269
2012-08-10,84.2301
2012-08-13,83.8997
2012-08-14,83.7539
2012-08-15,84.1913
2012-08-16,84.2885
2012-08-17,84.823
2012-08-20,85.202
2012-08-21,84.5606
2012-08-22,84.201
2012-08-23,82.9862
2012-08-24,83.3846
2012-08-27,87.2429
2012-08-28,85.8045
2012-08-29,86.0281
2012-08-30,85.2248
2012-08-31,85.2836
2012-09-04,85.646
2012-09-05,86.5375
2012-09-06,88.0264
2012-09-07,88.8885
2012-09-10,88.6338
2012-09-11,89.8485
2012-09-12,90.2305
2012-09-13,91.8273
2012-09-14,92.8069
2012-09-17,92.1407
2012-09-18,92.0134
2012-09-19,92.4444
2012-09-20,92.3856
2012-09-21,93.0518
2012-09-24,93.4534
2012-09-25,92.7873
2012-09-26,92.1505
2012-09-27,92.5522
2012-09-28,93.2379
2012-10-01,93.6003
2012-10-02,93.6689
2012-10-03,94.8738
2012-10-04,96.0297
2012-10-05,96.4314
2012-10-08,95.9612
2012-10-09,95.011
2012-10-10,96.6077
2012-10-11,96.4706
2012-10-12,94.4232
2012-10-15,95.491
2012-10-16,95.1285
2012-10-17,101.006
2012-10-18,102.789
2012-10-19,101.574
2012-10-22,102.378
2012-10-23,101.898
2012-10-24,102.28
2012-10-25,102.103
2012-10-26,101.378
2012-10-31,102.005
2012-11-01,102.309
2012-11-02,101.496
2012-11-05,101.153
2012-11-06,102.426
2012-11-07,98.9783
2012-11-08,98.2828
2012-11-09,97.0681
2012-11-12,97.8812
2012-11-13,96.0885
2012-11-14,94.0999
2012-11-15,94.5016
2012-11-16,95.1971
2012-11-19,96.1081
2012-11-20,96.3922
2012-11-21,96.2551
2012-11-23,96.2844
2012-11-26,96.8918
2012-11-27,96.5587
2012-11-28,96.2942
2012-11-29,95.9589
2012-11-30,96.5706
2012-12-03,95.8109
2012-12-04,94.9229
2012-12-05,95.0216
2012-12-06,95.9293
2012-12-07,96.2746
2012-12-10,96.7087
2012-12-11,96.4127
2012-12-12,96.7186
2012-12-13,96.8962
2012-12-14,96.5607
2012-12-17,98.534
2012-12-18,99.7672
2012-12-19,99.2739
2012-12-20,99.7179
2012-12-21,98.4353
2012-12-24,97.8236
2012-12-26,97.5967
2012-12-27,97.0244
2012-12-28,96.3733
2012-12-31,96.9751
2013-01-02,99.5396
2013-01-03,99.6578
2013-01-04,101.404
2013-01-07,101.078
2013-01-08,100.92
2013-01-09,101.384
2013-01-10,102.144
2013-01-11,101.759
2013-01-14,101.414
2013-01-15,102.114
2013-01-16,101.493
2013-01-17,102.016
2013-01-18,101.917
2013-01-22,103.318
2013-01-23,102.687
2013-01-24,102.617
2013-01-25,102.43
2013-01-28,101.814
2013-01-29,102.081
2013-01-30,101.918
2013-01-31,101.366
2013-02-01,102.54
2013-02-04,101.336
2013-02-05,103.063
2013-02-06,102.609
2013-02-07,102.382
2013-02-08,102.936
2013-02-11,102.826
2013-02-12,104.049
2013-02-13,103.211
2013-02-14,103.26
2013-02-15,103.349
2013-02-19,104.354
2013-02-20,103.219
2013-02-21,101.71
2013-02-22,103.239
2013-02-25,100.557
2013-02-26,100.695
2013-02-27,101.237
2013-02-28,101.465
2013-03-01,101.873
2013-03-04,102.577
2013-03-05,102.925
2013-03-06,103.124
2013-03-07,103.293
2013-03-08,103.303
2013-03-11,103.452
2013-03-12,103.342
2013-03-13,103.511
2013-03-14,103.928
2013-03-15,103.66
2013-03-18,102.607
2013-03-19,102.279
2013-03-20,102.597
2013-03-21,102.041
2013-03-22,102.438
2013-03-25,102.16
2013-03-26,101.952
2013-03-27,102.418
2013-03-28,102.498
2013-04-01,101.753
2013-04-02,101.475
2013-04-03,100.153
2013-04-04,100.928
2013-04-05,100.521
2013-04-08,100.412
2013-04-09,102.11
2013-04-10,103.819
2013-04-11,104.226
2013-04-12,99.478
2013-04-15,97.819
2013-04-16,97.8985
2013-04-17,96.0011
2013-04-18,96.8753
2013-04-19,98.0972
2013-04-22,97.9382
2013-04-23,98.9117
2013-04-24,99.17
2013-04-25,99.4581
2013-04-26,99.1899
2013-04-29,99.1402
2013-04-30,99.4978
2013-05-01,98.9217
2013-05-02,99.7462
2013-05-03,100.094
2013-05-06,100.471
2013-05-07,101.485
2013-05-08,102.528
2013-05-09,102.319
2013-05-10,102.836
2013-05-13,102.667
2013-05-14,103.233
2013-05-15,104.654
2013-05-16,103.968
2013-05-17,105.18
2013-05-20,105.339
2013-05-21,105.607
2013-05-22,103.908
2013-05-23,103.601
2013-05-24,103.928
2013-05-28,105.418
2013-05-29,105.369
2013-05-30,106.03
2013-05-31,105.02
2013-06-03,105.58
2013-06-04,104.25
2013-06-05,102.79
2013-06-06,102.59
2013-06-07,103.82
2013-06-10,103.9
2013-06-11,102.9
2013-06-12,102.14
2013-06-13,103.54
2013-06-14,102.57
2013-06-17,103.07
2013-06-18,104.1
2013-06-19,103.51
2013-06-20,104.42
2013-06-21,106.37
2013-06-24,105.25
2013-06-25,107.39
2013-06-26,109.76
2013-06-27,111.5
2013-06-28,111.89
2013-07-01,112.89
2013-07-02,113.67
2013-07-03,113.13
2013-07-05,116.28
2013-07-08,116.85
2013-07-09,117.59
2013-07-10,117.44
2013-07-11,116.99
2013-07-12,117.76
2013-07-15,117.98
2013-07-16,117.17
2013-07-17,117.85
2013-07-18,119.2
2013-07-19,118.23
2013-07-22,119.21
2013-07-23,118.71
2013-07-24,118.39
2013-07-25,117.65
2013-07-26,117.28
2013-07-29,116.14
2013-07-30,116.88
2013-07-31,117.03
2013-08-01,119.14
2013-08-02,119.07
2013-08-05,118.83
2013-08-06,118.27
2013-08-07,117.37
2013-08-08,118.01
2013-08-09,117.71
