date,close_price
1998-01-02,15.2698
1998-01-05,13.807
1998-01-06,12.9662
1998-01-07,13.6826
1998-01-08,12.6577
1998-01-09,11.8467
1998-01-12,11.5979
1998-01-13,12.3144
1998-01-14,12.5631
1998-01-15,12.6875
1998-01-16,13.1552
1998-01-20,13.9613
1998-01-21,13.5583
1998-01-22,12.0656
1998-01-23,11.2894
1998-01-26,12.0955
1998-01-27,11.8467
1998-01-28,11.9114
1998-01-29,12.6577
1998-01-30,11.9412
1998-02-02,11.8815
1998-02-03,11.9114
1998-02-04,12.0955
1998-02-05,11.8467
1998-02-06,11.4437
1998-02-09,10.762
1998-02-10,10.8217
1998-02-11,11.165
1998-02-12,10.6675
1998-02-13,10.8864
1998-02-17,10.4187
1998-02-18,10.9163
1998-02-19,10.8516
1998-02-20,10.7272
1998-02-23,10.1052
1998-02-24,10.1401
1998-02-25,10.6675
1998-02-26,11.6626
1998-02-27,11.4138
1998-03-02,12.0656
1998-03-03,12.4089
1998-03-04,12.4388
1998-03-05,12.4686
1998-03-06,12.0656
1998-03-09,11.5979
1998-03-10,11.5083
1998-03-11,11.5979
1998-03-12,11.6327
1998-03-13,11.7571
1998-03-16,11.4437
1998-03-17,11.2894
1998-03-18,12.0059
1998-03-19,12.19
1998-03-20,12.5034
1998-03-23,13.8717
1998-03-24,13.4339
1998-03-25,13.5583
1998-03-26,13.9314
1998-03-27,13.0607
1998-03-30,12.4388
1998-03-31,11.8168
1998-04-01,12.0656
1998-04-02,11.8168
1998-04-03,11.5979
1998-04-06,11.5979
1998-04-07,11.4735
1998-04-08,11.787
1998-04-09,11.3491
1998-04-13,11.2894
1998-04-14,11.2894
1998-04-15,12.0059
1998-04-16,11.9412
1998-04-17,12.1601
1998-04-20,12.19
1998-04-21,12.5333
1998-04-22,12.3791
1998-04-23,12.3442
1998-04-24,12.19
1998-04-27,11.9114
1998-04-28,12.4089
1998-04-29,12.8418
1998-04-30,12.5333
1998-05-01,13.4637
1998-05-04,13.2498
1998-05-05,13.3393
1998-05-06,13.0607
1998-05-07,12.8119
1998-05-08,12.6875
1998-05-11,13.3095
1998-05-12,13.1851
1998-05-13,12.8418
1998-05-14,12.6577
1998-05-15,12.3791
1998-05-18,11.8815
1998-05-19,12.1303
1998-05-20,11.8815
1998-05-21,11.9412
1998-05-22,11.9114
1998-05-26,11.5979
1998-05-27,11.4735
1998-05-28,11.5979
1998-05-29,11.6626
1998-06-01,11.4138
1998-06-02,11.4437
1998-06-03,11.2247
1998-06-04,11.5979
1998-06-05,11.8467
1998-06-08,11.4437
1998-06-09,11.3193
1998-06-10,10.9163
1998-06-11,10.3242
1998-06-12,10.5132
1998-06-15,9.98086
1998-06-16,10.5431
1998-06-17,10.8217
1998-06-18,10.4187
1998-06-19,10.5132
1998-06-22,10.6675
1998-06-23,10.762
1998-06-24,10.7919
1998-06-25,10.4784
1998-06-26,10.1998
1998-06-29,10.4486
1998-06-30,10.0455
1998-07-01,10.1699
1998-07-02,10.4784
1998-07-06,10.1699
1998-07-07,9.92116
1998-07-08,9.8913
1998-07-09,9.6077
1998-07-10,9.57785
1998-07-13,9.14498
1998-07-14,9.17483
1998-07-15,9.67238
1998-07-16,9.73209
1998-07-17,9.67238
1998-07-20,9.23454
1998-07-21,8.80167
1998-07-22,9.05044
1998-07-23,8.77181
1998-07-24,8.33397
1998-07-27,8.27426
1998-07-28,8.05534
1998-07-29,8.17973
1998-07-30,8.80167
1998-07-31,8.55289
1998-08-03,8.02549
1998-08-04,7.9011
1998-08-05,7.49311
1998-08-06,8.02549
1998-08-07,8.36382
1998-08-10,7.83642
1998-08-11,7.40355
1998-08-12,7.77671
1998-08-13,7.65233
1998-08-14,7.55779
1998-08-17,7.36872
1998-08-18,7.65233
1998-08-19,8.20958
1998-08-20,8.33397
1998-08-21,8.20958
1998-08-24,7.6175
1998-08-25,7.52794
1998-08-26,6.906
1998-08-27,6.46816
1998-08-28,6.4383
1998-08-31,5.94075
1998-09-01,6.4383
1998-09-02,6.53284
1998-09-03,6.906
1998-09-04,7.36872
1998-09-08,7.68218
1998-09-09,7.24433
1998-09-10,7.58764
1998-09-11,7.9011
1998-09-14,8.14988
1998-09-15,8.05534
1998-09-16,8.36382
1998-09-17,8.11505
1998-09-18,7.86627
1998-09-21,7.83642
1998-09-22,7.80657
1998-09-23,8.33397
1998-09-24,7.71203
1998-09-25,8.02549
1998-09-28,7.93095
1998-09-29,7.86627
1998-09-30,7.58764
1998-10-01,7.09009
1998-10-02,7.21448
1998-10-05,6.93585
1998-10-06,6.906
1998-10-07,6.78161
1998-10-08,6.56269
1998-10-09,6.49801
1998-10-12,6.906
1998-10-13,6.78161
1998-10-14,6.84132
1998-10-15,7.93095
1998-10-16,8.73699
1998-10-19,8.20958
1998-10-20,8.33397
1998-10-21,8.67728
1998-10-22,9.05044
1998-10-23,8.4285
1998-10-26,9.17483
1998-10-27,8.86137
1998-10-28,8.73699
1998-10-29,8.67728
1998-10-30,9.20468
1998-11-02,9.67238
1998-11-03,9.39375
1998-11-04,9.26936
1998-11-05,9.57785
1998-11-06,9.8913
1998-11-09,9.54799
1998-11-10,8.86137
1998-11-11,8.55289
1998-11-12,8.64743
1998-11-13,8.70713
1998-11-16,8.30412
1998-11-17,8.14988
1998-11-18,7.99066
1998-11-19,7.80657
1998-11-20,8.14988
1998-11-23,7.65233
1998-11-24,7.71203
1998-11-25,7.46326
1998-11-27,7.11995
1998-11-30,6.56269
1998-12-01,6.81147
1998-12-02,6.4383
1998-12-03,6.46816
1998-12-04,6.40845
1998-12-07,6.99556
1998-12-08,6.78161
1998-12-09,6.6224
1998-12-10,6.40845
1998-12-11,6.24923
1998-12-14,6.28406
1998-12-15,6.15967
1998-12-16,6.6224
1998-12-17,6.37362
1998-12-18,6.40845
1998-12-21,6.28406
1998-12-22,6.28406
1998-12-23,6.78161
1998-12-24,6.59254
1998-12-28,6.31392
1998-12-29,6.24923
1998-12-30,6.24923
1998-12-31,6.68708
1999-01-04,7.15478
1999-01-05,7.03039
1999-01-06,7.65233
1999-01-07,7.99066
1999-01-08,7.99066
1999-01-11,7.55779
1999-01-12,7.09009
1999-01-13,6.59254
1999-01-14,6.59254
1999-01-15,7.06024
1999-01-19,7.03039
1999-01-20,6.74678
1999-01-21,7.24433
1999-01-22,7.11995
1999-01-25,7.03039
1999-01-26,6.6224
1999-01-27,6.6224
1999-01-28,6.34377
1999-01-29,6.18953
1999-02-01,5.9109
1999-02-02,6.09499
1999-02-03,6.24923
1999-02-04,6.03529
1999-02-05,6.03529
1999-02-08,6.12485
1999-02-09,6.03529
1999-02-10,5.94075
1999-02-11,6.03529
1999-02-12,5.9109
1999-02-16,5.72183
1999-02-17,5.6273
1999-02-18,5.84622
1999-02-19,5.72183
1999-02-22,5.72183
1999-02-23,5.75168
1999-02-24,5.72183
1999-02-25,5.87607
1999-02-26,5.69198
1999-03-01,5.4432
1999-03-02,5.34867
1999-03-03,6.03529
1999-03-04,6.24923
1999-03-05,6.12485
1999-03-08,6.46816
1999-03-09,6.40845
1999-03-10,7.09009
1999-03-11,7.03039
1999-03-12,7.55779
1999-03-15,7.30902
1999-03-16,6.93585
1999-03-17,7.33887
1999-03-18,7.80657
1999-03-19,8.02549
1999-03-22,8.95591
1999-03-23,8.52304
1999-03-24,8.55289
1999-03-25,8.64743
1999-03-26,8.86137
1999-03-29,9.32907
1999-03-30,9.05044
1999-03-31,8.98576
1999-04-01,8.45836
1999-04-05,8.52304
1999-04-06,8.27426
1999-04-07,7.86627
1999-04-08,7.9011
1999-04-09,8.36382
1999-04-12,8.08519
1999-04-13,8.27426
1999-04-14,8.23944
1999-04-15,8.64743
1999-04-16,9.29922
1999-04-19,9.48331
1999-04-20,9.39375
1999-04-21,9.48331
1999-04-22,9.82662
1999-04-23,9.45346
1999-04-26,9.20468
1999-04-27,9.42361
1999-04-28,10.3889
1999-04-29,10.5132
1999-04-30,10.2645
1999-05-03,10.6973
1999-05-04,10.3242
1999-05-05,10.3242
1999-05-06,9.85647
1999-05-07,10.1699
1999-05-10,9.95101
1999-05-11,9.95101
1999-05-12,9.45346
1999-05-13,9.82662
1999-05-14,9.32907
1999-05-17,9.29922
1999-05-18,8.92606
1999-05-19,9.17483
1999-05-20,9.39375
1999-05-21,9.70223
1999-05-24,9.35892
1999-05-25,9.32907
1999-05-26,9.42361
1999-05-27,9.6077
1999-05-28,9.95101
1999-06-01,10.0157
1999-06-02,10.5132
1999-06-03,11.4735
1999-06-04,11.568
1999-06-07,11.9412
1999-06-08,11.4437
1999-06-09,11.5979
1999-06-10,11.787
1999-06-11,11.8815
1999-06-14,11.7571
1999-06-15,12.5333
1999-06-16,12.19
1999-06-17,12.1303
1999-06-18,12.0357
1999-06-21,11.5083
1999-06-22,11.0705
1999-06-23,11.4437
1999-06-24,10.8864
1999-06-25,10.7272
1999-06-28,10.7919
1999-06-29,11.0705
1999-06-30,12.0656
1999-07-01,11.5083
1999-07-02,11.6327
1999-07-06,12.0059
1999-07-07,11.6924
1999-07-08,12.2547
1999-07-09,12.2547
1999-07-12,12.2198
1999-07-13,12.0059
1999-07-14,11.8815
1999-07-15,11.7223
1999-07-16,11.4138
1999-07-19,11.2894
1999-07-20,10.9461
1999-07-21,11.2247
1999-07-22,11.0705
1999-07-23,11.4437
1999-07-26,11.0108
1999-07-27,10.7272
1999-07-28,11.2247
1999-07-29,11.5382
1999-07-30,11.5979
1999-08-02,11.2596
1999-08-03,11.3193
1999-08-04,12.0357
1999-08-05,12.5034
1999-08-06,12.4686
1999-08-09,13.2498
1999-08-10,13.3095
1999-08-11,13.4985
1999-08-12,13.404
1999-08-13,13.5881
1999-08-16,13.3393
1999-08-17,13.7473
1999-08-18,13.4339
1999-08-19,13.7125
1999-08-20,14.1205
1999-08-23,14.3991
1999-08-24,14.2449
1999-08-25,13.0607
1999-08-26,13.5284
1999-08-27,13.4339
1999-08-30,13.1851
1999-08-31,13.5284
1999-09-01,13.404
1999-09-02,13.2796
1999-09-03,13.4339
1999-09-07,14.3991
1999-09-08,13.9314
1999-09-09,14.4936
1999-09-10,14.5534
1999-09-13,14.3991
1999-09-14,13.5284
1999-09-15,13.6826
1999-09-16,13.8369
1999-09-17,14.2747
1999-09-20,13.4637
1999-09-21,13.2498
1999-09-22,13.1552
1999-09-23,13.1552
1999-09-24,12.9363
1999-09-27,12.6278
1999-09-28,11.9711
1999-09-29,12.6278
1999-09-30,12.4089
1999-10-01,12.4388
1999-10-04,11.9114
1999-10-05,11.4735
1999-10-06,11.1949
1999-10-07,10.5132
1999-10-08,10.354
1999-10-11,11.6924
1999-10-12,11.6626
1999-10-13,11.8168
1999-10-14,11.5382
1999-10-15,11.384
1999-10-18,10.976
1999-10-19,10.9461
1999-10-20,11.3193
1999-10-21,11.9711
1999-10-22,12.2547
1999-10-25,12.1303
1999-10-26,11.9711
1999-10-27,12.0059
1999-10-28,11.4138
1999-10-29,11.2894
1999-11-01,11.9114
1999-11-02,11.9114
1999-11-03,12.0656
1999-11-04,11.9114
1999-11-05,11.5382
1999-11-08,12.5631
1999-11-09,13.2498
1999-11-10,13.0607
1999-11-11,12.8766
1999-11-12,13.4637
1999-11-15,14.3046
1999-11-16,13.6528
1999-11-17,14.3344
1999-11-18,13.7473
1999-11-19,13.6528
1999-11-22,13.7125
1999-11-23,13.2498
1999-11-24,13.5881
1999-11-26,13.4339
1999-11-29,12.9662
1999-11-30,13.2498
1999-12-01,14.1205
1999-12-02,14.21
1999-12-03,13.4985
1999-12-06,13.0607
1999-12-07,12.3144
1999-12-08,13.1851
1999-12-09,12.9065
1999-12-10,12.5631
1999-12-13,12.5034
1999-12-14,12.8766
1999-12-15,13.6229
1999-12-16,13.6528
1999-12-17,13.2498
1999-12-20,13.0607
1999-12-21,13.2149
1999-12-22,13.3393
1999-12-23,14.2747
1999-12-27,14.6777
1999-12-28,14.8668
1999-12-29,15.5485
1999-12-30,14.8021
1999-12-31,15.3942
2000-01-03,14.5235
2000-01-04,14.2747
2000-01-05,14.7076
2000-01-06,15.3942
2000-01-07,15.6131
2000-01-10,15.8918
2000-01-11,15.9216
2000-01-12,15.8271
2000-01-13,16.1107
2000-01-14,16.3893
2000-01-18,17.4143
2000-01-19,17.1356
2000-01-20,16.6978
2000-01-21,17.2899
2000-01-24,16.4838
2000-01-25,16.0759
2000-01-26,15.9216
2000-01-27,15.0808
2000-01-28,14.6777
2000-01-31,14.7723
2000-02-01,15.5186
2000-02-02,15.4539
2000-02-03,15.2698
2000-02-04,15.1753
2000-02-07,15.9515
2000-02-08,15.3942
2000-02-09,14.9265
2000-02-10,15.7674
2000-02-11,16.3246
2000-02-14,16.6679
2000-02-15,17.6033
2000-02-16,17.6332
2000-02-17,17.2302
2000-02-18,16.6679
2000-02-22,15.6728
2000-02-23,15.8271
2000-02-24,16.6381
2000-02-25,16.3595
2000-02-28,17.0411
2000-02-29,17.882
2000-03-01,18.7228
2000-03-02,19.4692
2000-03-03,18.5338
2000-03-06,19.1258
2000-03-07,19.8423
2000-03-08,18.285
2000-03-09,17.8521
2000-03-10,18.1009
2000-03-13,17.7874
2000-03-14,17.7874
2000-03-15,17.6929
2000-03-16,19.0313
2000-03-17,18.9069
2000-03-20,18.2551
2000-03-21,19.3746
2000-03-22,19.8075
2000-03-23,19.6831
2000-03-24,18.5338
2000-03-27,17.8173
2000-03-28,18.0362
2000-03-29,18.9368
2000-03-30,18.7527
2000-03-31,19.3099
2000-04-03,19.7179
2000-04-04,18.3795
2000-04-05,17.5685
2000-04-06,17.9118
2000-04-07,18.3497
2000-04-10,17.1356
2000-04-11,17.8521
2000-04-12,18.5984
2000-04-13,18.2551
2000-04-14,18.0063
2000-04-17,17.7277
2000-04-18,18.9368
2000-04-19,18.6581
2000-04-20,19.2204
2000-04-24,18.8472
2000-04-25,18.5636
2000-04-26,18.5984
2000-04-27,19.1855
2000-04-28,19.6234
2000-05-01,19.9319
2000-05-02,20.2155
2000-05-03,19.0313
2000-05-04,19.8075
2000-05-05,19.8722
2000-05-08,20.524
2000-05-09,21.1459
2000-05-10,20.4941
2000-05-11,20.305
2000-05-12,21.0215
2000-05-15,21.3648
2000-05-16,21.2404
2000-05-17,21.5489
2000-05-18,20.9618
2000-05-19,21.0514
2000-05-22,20.1806
2000-05-23,21.0215
2000-05-24,20.5538
2000-05-25,20.5886
2000-05-26,20.1209
2000-05-30,20.0264
2000-05-31,21.3648
2000-06-01,20.9917
2000-06-02,19.5587
2000-06-05,18.2253
2000-06-06,19.4692
2000-06-07,19.4045
2000-06-08,20.305
2000-06-09,20.0264
2000-06-12,20.8971
2000-06-13,20.9917
2000-06-14,19.7179
2000-06-15,19.9319
2000-06-16,20.4941
2000-06-19,20.0264
2000-06-20,19.7776
2000-06-21,20.8971
2000-06-22,20.6185
2000-06-23,20.8026
2000-06-26,20.3996
2000-06-27,20.6185
2000-06-28,19.8423
2000-06-29,20.524
2000-06-30,20.6483
2000-07-03,20.713
2000-07-05,19.6234
2000-07-06,20.2155
2000-07-07,20.0911
2000-07-10,20.0264
2000-07-11,21.9569
2000-07-12,21.5489
2000-07-13,21.738
2000-07-14,22.2654
2000-07-17,21.6434
2000-07-18,22.3898
2000-07-19,22.141
2000-07-20,21.9221
2000-07-21,21.0514
2000-07-24,19.9319
2000-07-25,19.3746
2000-07-26,20.524
2000-07-27,20.8026
2000-07-28,20.8374
2000-07-31,20.8026
2000-08-01,21.8922
2000-08-02,22.141
2000-08-03,21.6733
2000-08-04,22.3898
2000-08-07,22.7629
2000-08-08,22.8873
2000-08-09,23.1062
2000-08-10,23.0416
2000-08-11,23.0764
2000-08-14,23.8227
2000-08-15,23.758
2000-08-16,24.4447
2000-08-17,24.5044
2000-08-18,23.758
2000-08-21,23.8227
2000-08-22,23.8526
2000-08-23,24.0715
2000-08-24,23.5093
2000-08-25,23.3252
2000-08-28,23.6983
2000-08-29,23.5391
2000-08-30,23.6336
2000-08-31,23.6635
2000-09-01,23.7879
2000-09-05,24.1611
2000-09-06,25.6537
2000-09-07,25.5641
2000-09-08,25.0964
2000-09-11,26.1214
2000-09-12,26.4349
2000-09-13,25.9025
2000-09-14,26.0915
2000-09-15,26.2756
2000-09-18,25.4995
2000-09-19,25.0666
2000-09-20,24.3203
2000-09-21,23.2903
2000-09-22,23.3849
2000-09-25,23.5391
2000-09-26,24.8825
2000-09-27,25.8726
2000-09-28,26.1264
2000-09-29,26.0716
2000-10-02,26.4448
2000-10-03,25.997
2000-10-04,25.1263
2000-10-05,25.594
2000-10-06,25.8129
2000-10-09,25.8676
2000-10-10,26.7135
2000-10-11,26.6687
2000-10-12,27.5842
2000-10-13,26.8229
2000-10-16,26.4249
2000-10-17,27.1663
2000-10-18,26.6538
2000-10-19,27.1663
2000-10-20,27.8628
2000-10-23,27.1165
2000-10-24,26.4448
2000-10-25,25.6039
2000-10-26,25.7433
2000-10-27,24.2058
2000-10-30,25.1263
2000-10-31,25.2756
2000-11-01,26.3751
2000-11-02,25.8477
2000-11-03,26.3105
2000-11-06,26.4498
2000-11-07,26.6189
2000-11-08,27.43
2000-11-09,26.5393
2000-11-10,25.997
2000-11-13,24.6088
2000-11-14,25.3303
2000-11-15,26.6538
2000-11-16,27.216
2000-11-17,26.4498
2000-11-20,25.6238
2000-11-21,26.7682
2000-11-22,25.6238
2000-11-24,26.3751
2000-11-27,26.5941
2000-11-28,26.4946
2000-11-29,24.37
2000-11-30,21.8425
2000-12-01,22.1659
2000-12-04,22.6385
2000-12-05,23.2953
2000-12-06,23.4147
2000-12-07,23.4247
2000-12-08,24.8278
2000-12-11,26.2806
2000-12-12,26.002
2000-12-13,25.3751
2000-12-14,24.6238
2000-12-15,25.6985
2000-12-18,27.8628
2000-12-19,28.5047
2000-12-20,27.1663
2000-12-21,27.9474
2000-12-22,27.3852
2000-12-26,29.0171
2000-12-27,28.3753
2000-12-28,29.6291
2000-12-29,29.3256
2001-01-02,28.1614
2001-01-03,27.4349
2001-01-04,26.8976
2001-01-05,27.2658
2001-01-08,27.7086
2001-01-09,28.1663
2001-01-10,29.0569
2001-01-11,29.1714
2001-01-12,29.3356
2001-01-16,30.0769
2001-01-17,28.7087
2001-01-18,27.3902
2001-01-19,27.1464
2001-01-22,27.9325
2001-01-23,28.6589
2001-01-24,29.4898
2001-01-25,30.5645
2001-01-26,31.077
2001-01-29,30.679
2001-01-30,30.669
2001-01-31,29.853
2001-02-01,29.1067
2001-02-02,29.4102
2001-02-05,29.7485
2001-02-06,30.4053
2001-02-07,30.9974
2001-02-08,30.1963
2001-02-09,30.4352
2001-02-12,29.4052
2001-02-13,29.7734
2001-02-14,29.853
2001-02-15,29.3605
2001-02-16,29.2162
2001-02-20,29.256
2001-02-21,28.8281
2001-02-22,27.425
2001-02-23,27.42
2001-02-26,28.2111
2001-02-27,28.2459
2001-02-28,27.9076
2001-03-01,28.1464
2001-03-02,29.2311
2001-03-05,29.853
2001-03-06,30.1715
2001-03-07,30.9427
2001-03-08,30.8481
2001-03-09,30.3854
2001-03-12,29.4948
2001-03-13,28.9923
2001-03-14,28.4599
2001-03-15,26.9822
2001-03-16,26.8926
2001-03-19,27.5643
2001-03-20,28.1663
2001-03-21,27.3105
2001-03-22,26.8578
2001-03-23,27.4797
2001-03-26,28.1315
2001-03-27,27.2658
2001-03-28,26.4846
2001-03-29,25.3751
2001-03-30,25.793
2001-04-02,24.7432
2001-04-03,23.6386
2001-04-04,24.2556
2001-04-05,25.7433
2001-04-06,26.0617
2001-04-09,26.4249
2001-04-10,26.8827
2001-04-11,26.4747
2001-04-12,26.7185
2001-04-16,27.2409
2001-04-17,27.5792
2001-04-18,27.5245
2001-04-19,26.7931
2001-04-20,27.415
2001-04-23,28.2509
2001-04-24,27.8131
2001-04-25,28.0967
2001-04-26,30.0919
2001-04-27,29.4799
2001-04-30,29.7087
2001-05-01,29.0022
2001-05-02,27.5892
2001-05-03,27.1016
2001-05-04,27.4051
2001-05-07,26.9971
2001-05-08,27.0618
2001-05-09,27.6091
2001-05-10,26.7533
2001-05-11,26.1214
2001-05-14,27.0021
2001-05-15,27.5096
2001-05-16,27.4946
2001-05-17,28.1166
2001-05-18,28.3753
2001-05-21,28.1763
2001-05-22,27.2757
2001-05-23,25.8477
2001-05-24,25.3502
2001-05-25,25.6039
2001-05-29,24.9721
2001-05-30,24.5541
2001-05-31,25.1761
2001-06-01,25.181
2001-06-04,25.1711
2001-06-05,25.181
2001-06-06,24.2805
2001-06-07,23.1261
2001-06-08,22.8425
2001-06-11,22.8326
2001-06-12,23.2306
2001-06-13,23.569
2001-06-14,23.0018
2001-06-15,23.0714
2001-06-18,22.5788
2001-06-19,22.2355
2001-06-20,21.8425
2001-06-21,20.9966
2001-06-22,21.0265
2001-06-25,21.0464
2001-06-26,21.5091
2001-06-27,20.3747
2001-06-28,18.7875
2001-06-29,18.8373
2001-07-02,18.0063
2001-07-03,18.1457
2001-07-05,18.2999
2001-07-06,17.9068
2001-07-09,16.857
2001-07-10,16.1007
2001-07-11,16.1704
2001-07-12,15.5335
2001-07-13,15.4489
2001-07-16,14.3046
2001-07-17,14.837
2001-07-18,14.0956
2001-07-19,14.4439
2001-07-20,15.2201
2001-07-23,15.0509
2001-07-24,14.1304
2001-07-25,15.3345
2001-07-26,15.1852
2001-07-27,15.4788
2001-07-30,15.5186
2001-07-31,14.5782
2001-08-01,13.807
2001-08-02,13.9812
2001-08-03,13.7374
2001-08-06,13.7423
2001-08-07,13.3841
2001-08-08,12.8866
2001-08-09,12.9214
2001-08-10,13.0657
2001-08-13,12.9761
2001-08-14,13.1403
2001-08-15,14.4787
2001-08-16,14.3145
2001-08-17,14.0409
2001-08-20,13.6976
2001-08-21,13.9414
2001-08-22,13.822
2001-08-23,13.3095
2001-08-24,13.1702
2001-08-27,13.3145
2001-08-28,12.6925
2001-08-29,12.9512
2001-08-30,12.2895
2001-08-31,12.2397
2001-09-04,12.389
2001-09-05,12.2049
2001-09-06,12.598
2001-09-07,12.185
2001-09-10,12.3044
2001-09-17,11.7422
2001-09-18,10.9411
2001-09-19,10.15
2001-09-20,9.85647
2001-09-21,10.1102
2001-09-24,9.77687
2001-09-25,9.51814
2001-09-26,9.28927
2001-09-27,9.68731
2001-09-28,10.3988
2001-10-01,10.3043
2001-10-02,10.4336
2001-10-03,10.9461
2001-10-04,11.9462
2001-10-05,11.9959
2001-10-08,11.981
2001-10-09,12.3193
2001-10-10,12.9711
2001-10-11,13.21
2001-10-12,13.1751
2001-10-15,12.6925
2001-10-16,13.2945
2001-10-17,13.1503
2001-10-18,12.4736
2001-10-19,13.3344
2001-10-22,13.8518
2001-10-23,14.1852
2001-10-24,14.006
2001-10-25,15.3992
2001-10-26,16.4192
2001-10-29,16.6878
2001-10-30,15.4191
2001-10-31,15.2947
2001-11-01,15.6878
2001-11-02,15.1007
2001-11-05,14.6777
2001-11-06,15.2648
2001-11-07,15.9664
2001-11-08,16.5137
2001-11-09,17.1157
2001-11-12,17.1953
2001-11-13,17.4939
2001-11-14,15.633
2001-11-15,13.4388
2001-11-16,13.8618
2001-11-19,14.6081
2001-11-20,15.429
2001-11-21,15.1255
2001-11-23,15.4738
2001-11-26,14.9514
2001-11-27,15.3395
2001-11-28,15.1007
2001-11-29,15.6778
2001-11-30,15.6728
2001-12-03,15.3942
2001-12-04,16.0908
2001-12-05,16.653
2001-12-06,16.1505
2001-12-07,15.9913
2001-12-10,15.638
2001-12-11,15.6728
2001-12-12,15.4788
2001-12-13,15.8719
2001-12-14,16.1505
2001-12-17,15.9714
2001-12-18,15.9714
2001-12-19,16.8421
2001-12-20,16.8719
2001-12-21,16.867
2001-12-24,17.1904
2001-12-26,17.7874
2001-12-27,17.5387
2001-12-28,17.4143
2001-12-31,17.0809
2002-01-02,16.4341
2002-01-03,15.9714
2002-01-04,16.449
2002-01-07,16.5286
2002-01-08,16.1007
2002-01-09,16.2201
2002-01-10,15.5833
2002-01-11,14.6728
2002-01-14,14.1304
2002-01-15,14.4389
2002-01-16,13.7821
2002-01-17,13.812
2002-01-18,13.6976
2002-01-22,13.4637
2002-01-23,14.2996
2002-01-24,14.8768
2002-01-25,15.6231
2002-01-28,15.1007
2002-01-29,14.8817
2002-01-30,15.1255
2002-01-31,15.6032
2002-02-01,15.9316
2002-02-04,15.4489
2002-02-05,14.9812
2002-02-06,15.3445
2002-02-07,14.8967
2002-02-08,15.0708
2002-02-11,15.6878
2002-02-12,15.7873
2002-02-13,16.0958
2002-02-14,16.2152
2002-02-15,15.9216
2002-02-19,15.9664
2002-02-20,15.852
2002-02-21,16.3694
2002-02-22,16.7625
2002-02-25,17.3546
2002-02-26,17.6879
2002-02-27,17.2551
2002-02-28,17.673
2002-03-01,17.5685
2002-03-04,18.9567
2002-03-05,19.1059
2002-03-06,19.2552
2002-03-07,19.3547
2002-03-08,19.0214
2002-03-11,19.3547
2002-03-12,19.3995
2002-03-13,19.1706
2002-03-14,18.7129
2002-03-15,19.8324
2002-03-18,20.8076
2002-03-19,21.2703
2002-03-20,20.4742
2002-03-21,20.9369
2002-03-22,19.8423
2002-03-25,19.902
2002-03-26,19.8921
2002-03-27,21.0961
2002-03-28,21.0215
2002-04-01,21.2106
2002-04-02,21.4195
2002-04-03,21.0116
2002-04-04,20.5986
2002-04-05,20.3747
2002-04-08,20.6832
2002-04-09,19.9319
2002-04-10,20.2702
2002-04-11,20.1259
2002-04-12,19.4045
2002-04-15,20.0961
2002-04-16,20.8673
2002-04-17,21.5439
2002-04-18,22.0664
2002-04-19,22.0713
2002-04-22,21.7877
2002-04-23,22.3997
2002-04-24,21.9022
2002-04-25,22.6137
2002-04-26,22.8376
2002-04-29,22.8873
2002-04-30,22.6684
2002-05-01,23.36
2002-05-02,23.9172
2002-05-03,24.1461
2002-05-06,22.758
2002-05-07,22.6634
2002-05-08,23.1361
2002-05-09,22.9271
2002-05-10,23.4346
2002-05-13,23.7332
2002-05-14,23.4097
2002-05-15,21.4942
2002-05-16,22.0365
2002-05-17,21.2753
2002-05-20,21.4942
2002-05-21,20.9618
2002-05-22,21.5738
2002-05-23,21.7778
2002-05-24,21.6186
2002-05-28,21.947
2002-05-29,22.0564
2002-05-30,21.3748
2002-05-31,21.6733
2002-06-03,20.6384
2002-06-04,19.8921
2002-06-05,19.4791
2002-06-06,19.6184
2002-06-07,20.101
2002-06-10,19.1656
2002-06-11,18.0611
2002-06-12,18.3347
2002-06-13,18.4492
2002-06-14,18.8771
2002-06-17,19.5687
2002-06-18,19.2353
2002-06-19,19.0214
2002-06-20,18.4591
2002-06-21,18.6084
2002-06-24,18.897
2002-06-25,18.4342
2002-06-26,17.9715
2002-06-27,17.8869
2002-06-28,17.5337
2002-07-01,17.5387
2002-07-02,17.1953
2002-07-03,18.1506
2002-07-05,18.6333
2002-07-08,17.867
2002-07-09,17.8521
2002-07-10,17.3645
2002-07-11,16.4689
2002-07-12,16.245
2002-07-15,16.2201
2002-07-16,16.1604
2002-07-17,15.8719
2002-07-18,16.1057
2002-07-19,15.3295
2002-07-22,14.2598
2002-07-23,13.603
2002-07-24,14.8917
2002-07-25,14.1802
2002-07-26,13.8568
2002-07-29,15.2947
2002-07-30,15.7226
2002-07-31,15.2051
2002-08-01,14.1503
2002-08-02,13.5383
2002-08-05,13.195
2002-08-06,13.7573
2002-08-07,13.5334
2002-08-08,14.429
2002-08-09,15.225
2002-08-12,15.5833
2002-08-13,15.4738
2002-08-14,16.0211
2002-08-15,17.0809
2002-08-16,16.9714
2002-08-19,16.9864
2002-08-20,16.2898
2002-08-21,16.4291
2002-08-22,17.5237
2002-08-23,17.0063
2002-08-26,17.7078
2002-08-27,17.1506
2002-08-28,16.5983
2002-08-29,16.2301
2002-08-30,16.4739
2002-09-03,15.1803
2002-09-04,15.1255
2002-09-05,15.2648
2002-09-06,15.842
2002-09-09,15.9216
2002-09-10,16.4192
2002-09-11,16.6331
2002-09-12,16.4042
2002-09-13,16.3197
2002-09-16,16.5436
2002-09-17,16.0261
2002-09-18,15.9962
2002-09-19,15.5733
2002-09-20,15.0011
2002-09-23,14.9713
2002-09-24,14.4787
2002-09-25,15.7077
2002-09-26,16.6132
2002-09-27,16.3794
2002-09-30,16.2948
2002-10-01,15.9515
2002-10-02,16.1356
2002-10-03,16.2251
2002-10-04,15.9763
2002-10-07,15.4738
2002-10-08,15.434
2002-10-09,15.1604
2002-10-10,15.3494
2002-10-11,15.847
2002-10-14,16.9665
2002-10-15,17.6133
2002-10-16,17.066
2002-10-17,17.7526
2002-10-18,17.673
2002-10-21,17.8869
2002-10-22,17.6133
2002-10-23,18.6084
2002-10-24,17.7974
2002-10-25,17.066
2002-10-28,17.1108
2002-10-29,16.7973
2002-10-30,17.5387
2002-10-31,17.4789
2002-11-01,18.484
2002-11-04,18.2054
2002-11-05,18.6581
2002-11-06,19.3796
2002-11-07,18.7527
2002-11-08,18.4591
2002-11-11,18.2103
2002-11-12,17.8521
2002-11-13,17.1257
2002-11-14,17.5834
2002-11-15,17.5436
2002-11-18,17.663
2002-11-19,17.8123
2002-11-20,18.7079
2002-11-21,18.5835
2002-11-22,17.877
2002-11-25,17.9068
2002-11-26,17.0162
2002-11-27,17.4292
2002-11-29,17.6133
2002-12-02,18.688
2002-12-03,18.8323
2002-12-04,18.5487
2002-12-05,18.6233
2002-12-06,18.4591
2002-12-09,18.3049
2002-12-10,18.1158
2002-12-11,17.8024
2002-12-12,18.8323
2002-12-13,18.7875
2002-12-16,19.1557
2002-12-17,18.7178
2002-12-18,18.1108
2002-12-19,18.1357
2002-12-20,18.688
2002-12-23,18.7228
2002-12-24,18.5586
2002-12-26,18.2103
2002-12-27,17.6879
2002-12-30,17.3595
2002-12-31,17.5237
2003-01-02,18.1805
2003-01-03,18.1805
2003-01-06,17.4889
2003-01-07,16.2649
2003-01-08,16.1455
2003-01-09,16.5784
2003-01-10,16.6232
2003-01-13,16.3246
2003-01-14,16.1903
2003-01-15,16.8968
2003-01-16,17.2053
2003-01-17,17.066
2003-01-21,16.6928
2003-01-22,16.7675
2003-01-23,17.4192
2003-01-24,16.9913
2003-01-27,16.1853
2003-01-28,16.4092
2003-01-29,17.1406
2003-01-30,17.9466
2003-01-31,18.3347
2003-02-03,18.3795
2003-02-04,18.9816
2003-02-05,19.0562
2003-02-06,18.7427
2003-02-07,18.7378
2003-02-10,19.3199
2003-02-11,19.3895
2003-02-12,18.693
2003-02-13,18.3347
2003-02-14,18.7029
2003-02-18,19.1806
2003-02-19,18.9816
2003-02-20,19.1258
2003-02-21,19.8921
2003-02-24,20.8722
2003-02-25,20.305
2003-02-26,20.3747
2003-02-27,19.7478
2003-02-28,19.7378
2003-03-03,19.6781
2003-03-04,19.6035
2003-03-05,19.8821
2003-03-06,20.5339
2003-03-07,20.101
2003-03-10,19.902
2003-03-11,19.3497
2003-03-12,18.9965
2003-03-13,18.9069
2003-03-14,18.9069
2003-03-17,18.882
2003-03-18,19.7677
2003-03-19,19.4144
2003-03-20,19.8771
2003-03-21,19.3
2003-03-24,18.7228
2003-03-25,18.9368
2003-03-26,18.9616
2003-03-27,19.4045
2003-03-28,19.7677
2003-03-31,19.8324
2003-04-01,19.7577
2003-04-02,20.2354
2003-04-03,19.7627
2003-04-04,19.708
2003-04-07,19.7577
2003-04-08,19.6582
2003-04-09,19.6532
2003-04-10,20.3498
2003-04-11,20.4593
2003-04-14,20.6782
2003-04-15,20.2503
2003-04-16,19.907
2003-04-17,20.728
2003-04-21,20.7727
2003-04-22,20.8872
2003-04-23,20.9519
2003-04-24,20.7877
2003-04-25,20.5488
2003-04-28,20.2005
2003-04-29,19.7229
2003-04-30,19.5985
2003-05-01,19.494
2003-05-02,19.5687
2003-05-05,19.4542
2003-05-06,19.0811
2003-05-07,19.8025
2003-05-08,20.2453
2003-05-09,20.5886
2003-05-12,20.6284
2003-05-13,20.8722
2003-05-14,21.0265
2003-05-15,21.1459
2003-05-16,21.5141
2003-05-19,21.3499
2003-05-20,20.7976
2003-05-21,21.7131
2003-05-22,21.8425
2003-05-23,22.1062
2003-05-27,22.6385
2003-05-28,21.9669
2003-05-29,21.7778
2003-05-30,22.4694
2003-06-02,22.0664
2003-06-03,21.6385
2003-06-04,21.5638
2003-06-05,21.6186
2003-06-06,21.4195
2003-06-09,21.524
2003-06-10,21.6683
2003-06-11,22.5341
2003-06-12,21.6385
2003-06-13,20.5439
2003-06-16,20.2603
2003-06-17,20.0015
2003-06-18,20.1458
2003-06-19,20.6981
2003-06-20,20.708
2003-06-23,20.2005
2003-06-24,20.2354
2003-06-25,20.5588
2003-06-26,19.9617
2003-06-27,20.0762
2003-06-30,19.7229
2003-07-01,19.6035
2003-07-02,19.4642
2003-07-03,19.8622
2003-07-07,19.2552
2003-07-08,19.096
2003-07-09,19.4642
2003-07-10,18.882
2003-07-11,18.7825
2003-07-14,18.4342
2003-07-15,18.0412
2003-07-16,17.5287
2003-07-17,18.0462
2003-07-18,19.2801
2003-07-21,19.1059
2003-07-22,18.6581
2003-07-23,18.4243
2003-07-24,17.9118
2003-07-25,17.9118
2003-07-28,17.4143
2003-07-29,17.0262
2003-07-30,17.4889
2003-07-31,17.7775
2003-08-01,17.8969
2003-08-04,17.4541
2003-08-05,17.3844
2003-08-06,17.6581
2003-08-07,18.5586
2003-08-08,18.7278
2003-08-11,18.8671
2003-08-12,18.7925
2003-08-13,18.8522
2003-08-14,18.4342
2003-08-15,18.1606
2003-08-18,18.6631
2003-08-19,19.4244
2003-08-20,19.5935
2003-08-21,19.7528
2003-08-22,19.5587
2003-08-25,19.5289
2003-08-26,19.6532
2003-08-27,19.3746
2003-08-28,20.1209
2003-08-29,19.9617
2003-09-02,19.6234
2003-09-03,19.8821
2003-09-04,19.6483
2003-09-05,19.6582
2003-09-08,19.8075
2003-09-09,19.101
2003-09-10,18.6183
2003-09-11,18.5188
2003-09-12,18.688
2003-09-15,18.5885
2003-09-16,18.4591
2003-09-17,18.0163
2003-09-18,18.2949
2003-09-19,18.3696
2003-09-22,18.3347
2003-09-23,18.4094
2003-09-24,18.8422
2003-09-25,18.7875
2003-09-26,18.4143
2003-09-29,18.5387
2003-09-30,18.5935
2003-10-01,18.897
2003-10-02,19.1408
2003-10-03,19.3448
2003-10-06,19.509
2003-10-07,19.4045
2003-10-08,19.3497
2003-10-09,19.3448
2003-10-10,19.4791
2003-10-13,19.2751
2003-10-14,18.6333
2003-10-15,18.2551
2003-10-16,18.3447
2003-10-17,18.3497
2003-10-20,18.3298
2003-10-21,18.6183
2003-10-22,18.4094
2003-10-23,18.2352
2003-10-24,18.0611
2003-10-27,17.9317
2003-10-28,18.3347
2003-10-29,18.4342
2003-10-30,18.0362
2003-10-31,18.7079
2003-11-03,18.2352
2003-11-04,18.2352
2003-11-05,18.3795
2003-11-06,18.5039
2003-11-07,18.6084
2003-11-10,18.3298
2003-11-11,18.2999
2003-11-12,18.3745
2003-11-13,18.897
2003-11-14,19.2005
2003-11-17,18.7676
2003-11-18,18.7825
2003-11-19,18.3994
2003-11-20,18.4392
2003-11-21,18.0561
2003-11-24,18.1606
2003-11-25,18.1755
2003-11-26,18.5487
2003-11-28,18.4691
2003-12-01,18.6432
2003-12-02,18.5984
2003-12-03,18.3099
2003-12-04,19.2054
2003-12-05,19.2303
2003-12-08,19.5239
2003-12-09,19.3
2003-12-10,19.3497
2003-12-11,19.3398
2003-12-12,19.9269
2003-12-15,19.7528
2003-12-16,20.0662
2003-12-17,20.0861
2003-12-18,20.8673
2003-12-19,20.7479
2003-12-22,20.9519
2003-12-23,20.4195
2003-12-24,20.8722
2003-12-26,20.6384
2003-12-29,20.6533
2003-12-30,20.6682
2003-12-31,20.5339
2004-01-02,20.6483
2004-01-05,21.2056
2004-01-06,21.2703
2004-01-07,21.0713
2004-01-08,21.5887
2004-01-09,21.8972
2004-01-12,21.743
2004-01-13,21.4295
2004-01-14,21.131
2004-01-15,20.4443
2004-01-16,20.8921
2004-01-20,22.141
2004-01-21,22.2753
2004-01-22,21.733
2004-01-23,22.3649
2004-01-26,22.5092
2004-01-27,22.4594
2004-01-28,22.4644
2004-01-29,22.136
2004-01-30,21.8922
2004-02-02,21.9669
2004-02-03,21.7131
2004-02-04,21.8872
2004-02-05,21.6534
2004-02-06,21.8773
2004-02-09,22.4296
2004-02-10,22.7281
2004-02-11,22.952
2004-02-12,23.3252
2004-02-13,23.3301
2004-02-17,23.5341
2004-02-18,22.9918
2004-02-19,22.9122
2004-02-20,22.8624
2004-02-23,22.8127
2004-02-24,23.2953
2004-02-25,23.4695
2004-02-26,23.9023
2004-02-27,23.559
2004-03-01,24.0814
2004-03-02,23.9073
2004-03-03,24.0466
2004-03-04,23.4794
2004-03-05,23.4545
2004-03-08,23.3351
2004-03-09,22.8326
2004-03-10,22.0962
2004-03-11,21.6036
2004-03-12,22.0315
2004-03-15,22.1211
2004-03-16,21.9967
2004-03-17,22.6087
2004-03-18,22.8177
2004-03-19,22.549
2004-03-22,22.141
2004-03-23,21.8624
2004-03-24,21.2852
2004-03-25,21.5738
2004-03-26,21.9917
2004-03-29,21.9221
2004-03-30,22.5888
2004-03-31,22.7231
2004-04-01,22.3699
2004-04-02,22.6634
2004-04-05,22.4644
2004-04-06,22.1858
2004-04-07,22.2007
2004-04-08,22.4694
2004-04-12,22.8923
2004-04-13,22.6983
2004-04-14,22.6535
2004-04-15,23.36
2004-04-16,23.365
2004-04-19,23.1859
2004-04-20,22.6983
2004-04-21,22.6435
2004-04-22,23.2058
2004-04-23,22.9072
2004-04-26,22.8425
2004-04-27,23.3351
2004-04-28,23.0664
2004-04-29,22.1908
2004-04-30,22.0216
2004-05-03,22.6286
2004-05-04,22.6933
2004-05-05,22.1908
2004-05-06,21.6932
2004-05-07,20.9469
2004-05-10,20.1856
2004-05-11,20.4045
2004-05-12,20.5687
2004-05-13,21.0116
2004-05-14,21.0762
2004-05-17,20.9718
2004-05-18,20.3647
2004-05-19,20.4045
2004-05-20,20.2453
2004-05-21,20.0811
2004-05-24,21.0414
2004-05-25,21.3151
2004-05-26,20.7628
2004-05-27,20.2553
2004-05-28,20.6235
2004-06-01,20.7528
2004-06-02,20.6931
2004-06-03,20.2802
2004-06-04,20.2901
2004-06-07,20.4394
2004-06-08,20.5289
2004-06-09,20.5737
2004-06-10,20.7528
2004-06-14,20.5339
2004-06-15,21.2952
2004-06-16,22.0465
2004-06-17,22.3898
2004-06-18,22.2107
2004-06-21,21.8027
2004-06-22,22.141
2004-06-23,22.6286
2004-06-24,22.2952
2004-06-25,22.5191
2004-06-28,22.1659
2004-06-29,22.3301
2004-06-30,22.5291
2004-07-01,22.2107
2004-07-02,22.0564
2004-07-06,21.8972
2004-07-07,21.9669
2004-07-08,21.6235
2004-07-09,21.8624
2004-07-12,21.4295
2004-07-13,21.3001
2004-07-14,21.942
2004-07-15,22.6485
2004-07-16,22.8774
2004-07-19,22.6435
2004-07-20,22.7032
2004-07-21,22.3251
2004-07-22,22.2156
2004-07-23,21.9818
2004-07-26,21.7181
2004-07-27,22.3599
2004-07-28,22.5888
2004-07-29,22.8624
2004-07-30,23.0714
2004-08-02,22.8923
2004-08-03,23.0515
2004-08-04,22.6186
2004-08-05,22.4246
2004-08-06,22.0365
2004-08-09,22.2604
2004-08-10,22.0365
2004-08-11,21.728
2004-08-12,21.3051
2004-08-13,21.4892
2004-08-16,21.6932
2004-08-17,20.8623
2004-08-18,21.0414
2004-08-19,21.0762
2004-08-20,21.4892
2004-08-23,20.9419
2004-08-24,20.9767
2004-08-25,21.5141
2004-08-26,21.9519
2004-08-27,21.9121
2004-08-30,21.5788
2004-08-31,21.927
2004-09-01,22.34
2004-09-02,22.1659
2004-09-03,22.4943
2004-09-07,22.3798
2004-09-08,22.4893
2004-09-09,22.6833
2004-09-10,22.4744
2004-09-13,22.6037
2004-09-14,22.7629
2004-09-15,22.7629
2004-09-16,22.7779
2004-09-17,22.8823
2004-09-20,22.6634
2004-09-21,23.0316
2004-09-22,22.962
2004-09-23,22.8624
2004-09-24,23.4147
2004-09-27,23.4545
2004-09-28,23.6386
2004-09-29,23.5341
2004-09-30,23.5242
2004-10-01,24.0914
2004-10-04,23.9521
2004-10-05,23.8924
2004-10-06,24.5889
2004-10-07,24.5143
2004-10-08,24.6885
2004-10-11,24.37
2004-10-12,23.9471
2004-10-13,23.4346
2004-10-14,23.8526
2004-10-15,23.9272
2004-10-18,23.7829
2004-10-19,23.758
2004-10-20,24.4397
2004-10-21,24.8178
2004-10-22,24.7581
2004-10-25,24.6984
2004-10-26,25.6338
2004-10-27,24.7581
2004-10-28,24.1511
2004-10-29,24.38
2004-11-01,24.1511
2004-11-02,23.7182
2004-11-03,24.3849
2004-11-04,24.2904
2004-11-05,24.2307
2004-11-08,23.1261
2004-11-09,23.3401
2004-11-10,23.8824
2004-11-11,24.0168
2004-11-12,24.6039
2004-11-15,23.6137
2004-11-16,23.7282
2004-11-17,24.3352
2004-11-18,25.0268
2004-11-19,25.5492
2004-11-22,25.7781
2004-11-23,26.2209
2004-11-24,26.7085
2004-11-26,26.2458
2004-11-29,26.0468
2004-11-30,25.9274
2004-12-01,25.1064
2004-12-02,24.6785
2004-12-03,25.0417
2004-12-06,24.7482
2004-12-07,24.2456
2004-12-08,24.3451
2004-12-09,24.8725
2004-12-10,24.6636
2004-12-13,24.9472
2004-12-14,25.2805
2004-12-15,25.788
2004-12-16,25.8129
2004-12-17,26.3254
2004-12-20,26.0617
2004-12-21,26.3901
2004-12-22,25.9473
2004-12-23,25.997
2004-12-27,25.4696
2004-12-28,25.38
2004-12-29,25.8079
2004-12-30,25.5293
2004-12-31,25.4845
2005-01-03,24.3601
2005-01-04,24.2257
2005-01-05,23.972
2005-01-06,23.8774
2005-01-07,23.3401
2005-01-10,23.4595
2005-01-11,23.8277
2005-01-12,24.1212
2005-01-13,24.5491
2005-01-14,24.6934
2005-01-18,24.8228
2005-01-19,24.7332
2005-01-20,24.2655
2005-01-21,24.4546
2005-01-24,24.3551
2005-01-25,24.6934
2005-01-26,24.9671
2005-01-27,25.191
2005-01-28,24.7034
2005-01-31,25.0915
2005-02-01,24.9273
2005-02-02,25.4696
2005-02-03,25.6736
2005-02-04,25.992
2005-02-07,25.4696
2005-02-08,25.6039
2005-02-09,25.6587
2005-02-10,26.7284
2005-02-11,27.4897
2005-02-14,26.9573
2005-02-15,26.7632
2005-02-16,27.6937
2005-02-17,27.5195
2005-02-18,28.5843
2005-02-22,28.1415
2005-02-23,28.4649
2005-02-24,28.6838
2005-02-25,29.1465
2005-02-28,28.5693
2005-03-01,27.9574
2005-03-02,28.5146
2005-03-03,29.0619
2005-03-04,29.6341
2005-03-07,29.1017
2005-03-08,28.8181
2005-03-09,28.236
2005-03-10,27.6439
2005-03-11,27.9126
2005-03-14,28.3007
2005-03-15,28.3554
2005-03-16,28.4649
2005-03-17,28.241
2005-03-18,28.843
2005-03-21,29.0768
2005-03-22,29.0868
2005-03-23,28.2808
2005-03-24,28.7485
2005-03-28,29.1565
2005-03-29,28.236
2005-03-30,28.4897
2005-03-31,29.4251
2005-04-01,30.0222
2005-04-04,29.9177
2005-04-05,29.6839
2005-04-06,30.1018
2005-04-07,29.4649
2005-04-08,28.9972
2005-04-11,29.2112
2005-04-12,28.644
2005-04-13,27.8429
2005-04-14,27.8529
2005-04-15,27.4399
2005-04-18,27.7434
2005-04-19,28.43
2005-04-20,28.5892
2005-04-21,29.3306
2005-04-22,29.3256
2005-04-25,29.5296
2005-04-26,28.7932
2005-04-27,27.5991
2005-04-28,26.813
2005-04-29,26.7533
2005-05-02,27.4101
2005-05-03,26.8528
2005-05-04,27.4499
2005-05-05,27.7683
2005-05-06,27.6588
2005-05-09,28.1116
2005-05-10,27.2906
2005-05-11,27.4548
2005-05-12,26.196
2005-05-13,25.9224
2005-05-16,25.6587
2005-05-17,25.9423
2005-05-18,25.4895
2005-05-19,25.8278
2005-05-20,25.8826
2005-05-23,26.4398
2005-05-24,26.3702
2005-05-25,26.8677
2005-05-26,27.017
2005-05-27,27.2608
2005-05-31,27.4797
2005-06-01,28.236
2005-06-02,28.4201
2005-06-03,28.5793
2005-06-06,28.4549
2005-06-07,28.2061
2005-06-08,28.4101
2005-06-09,29.3853
2005-06-10,29.6242
2005-06-13,29.7386
2005-06-14,29.8082
2005-06-15,29.8978
2005-06-16,30.1615
2005-06-17,30.1864
2005-06-20,29.5893
2005-06-21,29.3605
2005-06-22,29.6441
2005-06-23,30.0321
2005-06-24,30.0222
2005-06-27,30.5048
2005-06-28,29.6192
2005-06-29,29.659
2005-06-30,30.1167
2005-07-01,30.1118
2005-07-05,31.2213
2005-07-06,30.9476
2005-07-07,30.9476
2005-07-08,30.8929
2005-07-11,31.082
2005-07-12,31.6392
2005-07-13,31.3308
2005-07-14,30.475
2005-07-15,30.4202
2005-07-18,30.3058
2005-07-19,31.1964
2005-07-20,31.3507
2005-07-21,30.8432
2005-07-22,32.6194
2005-07-25,32.8234
2005-07-26,32.4801
2005-07-27,33.2612
2005-07-28,33.0174
2005-07-29,32.5597
2005-08-01,32.8732
2005-08-02,33.7638
2005-08-03,33.1269
2005-08-04,33.0971
2005-08-05,32.6144
2005-08-08,33.0821
2005-08-09,32.9279
2005-08-10,33.3508
2005-08-11,33.4304
2005-08-12,33.3906
2005-08-15,32.7438
2005-08-16,32.0671
2005-08-17,31.1218
2005-08-18,31.3656
2005-08-19,32.0522
2005-08-22,31.4502
2005-08-23,31.1865
2005-08-24,32.1069
2005-08-25,32.2711
2005-08-26,31.8681
2005-08-29,32.1617
2005-08-30,32.3856
2005-08-31,33.2911
2005-09-01,33.8832
2005-09-02,33.3608
2005-09-06,33.7986
2005-09-07,33.7488
2005-09-08,33.6792
2005-09-09,34.5847
2005-09-12,33.913
2005-09-13,33.8185
2005-09-14,33.8583
2005-09-15,34.1469
2005-09-16,34.5897
2005-09-19,35.8187
2005-09-20,35.8734
2005-09-21,35.7789
2005-09-22,35.0823
2005-09-23,34.4006
2005-09-26,35.3858
2005-09-27,35.5152
2005-09-28,35.8933
2005-09-29,36.3311
2005-09-30,35.8037
2005-10-03,35.5351
2005-10-04,34.4404
2005-10-05,32.9876
2005-10-06,32.1517
2005-10-07,32.7438
2005-10-10,32.3308
2005-10-11,32.5398
2005-10-12,32.0472
2005-10-13,30.9476
2005-10-14,31.6044
2005-10-17,31.888
2005-10-18,30.7486
2005-10-19,31.3059
2005-10-20,30.2361
2005-10-21,30.7038
2005-10-24,31.485
2005-10-25,33.4006
2005-10-26,33.6294
2005-10-27,33.2762
2005-10-28,34.1519
2005-10-31,34.0822
2005-11-01,34.6892
2005-11-02,35.4753
2005-11-03,35.3112
2005-11-04,34.2962
2005-11-07,33.7488
2005-11-08,34.2315
2005-11-09,33.9329
2005-11-10,32.2413
2005-11-11,32.2313
2005-11-14,32.49
2005-11-15,32.6741
2005-11-16,33.6593
2005-11-17,34.2215
2005-11-18,34.1767
2005-11-21,35.2216
2005-11-22,35.3908
2005-11-23,35.6047
2005-11-25,35.6594
2005-11-28,33.9777
2005-11-29,34.0922
2005-11-30,34.8186
2005-12-01,35.8684
2005-12-02,35.6943
2005-12-05,35.54
2005-12-06,35.6395
2005-12-07,36.2167
2005-12-08,37.8138
2005-12-09,37.978
2005-12-12,38.5552
2005-12-13,38.5403
2005-12-14,39.1871
2005-12-15,38.8189
2005-12-16,37.7243
2005-12-19,38.177
2005-12-20,39.0179
2005-12-21,38.8089
2005-12-22,39.0527
2005-12-23,38.6995
2005-12-27,37.4855
2005-12-28,37.9979
2005-12-29,37.5054
2005-12-30,37.6248
2006-01-03,39.008
2006-01-04,39.5503
2006-01-05,38.4457
2006-01-06,39.0826
2006-01-09,38.7841
2006-01-10,39.3562
2006-01-11,39.3562
2006-01-12,38.6049
2006-01-13,38.7293
2006-01-17,39.5105
2006-01-18,38.9482
2006-01-19,39.8339
2006-01-20,39.814
2006-01-23,40.4757
2006-01-24,40.1523
2006-01-25,38.7691
2006-01-26,38.9682
2006-01-27,39.6597
2006-01-30,40.8489
2006-01-31,40.5106
2006-02-01,38.8836
2006-02-02,38.8139
2006-02-03,38.6895
2006-02-06,40.3812
2006-02-07,37.3213
2006-02-08,37.9531
2006-02-09,36.565
2006-02-10,36.4157
2006-02-13,36.0674
2006-02-14,34.8733
2006-02-15,34.1071
2006-02-16,34.4653
2006-02-17,33.7488
2006-02-21,34.4106
2006-02-22,34.0623
2006-02-23,34.0175
2006-02-24,33.7041
2006-02-27,32.7388
2006-02-28,32.7985
2006-03-01,33.2015
2006-03-02,33.4652
2006-03-03,33.9479
2006-03-06,32.5746
2006-03-07,31.9676
2006-03-08,31.7885
2006-03-09,31.9427
2006-03-10,31.7935
2006-03-13,32.6144
2006-03-14,33.6344
2006-03-15,33.2712
2006-03-16,33.5648
2006-03-17,32.7836
2006-03-20,31.7437
2006-03-21,31.9477
2006-03-22,32.1567
2006-03-23,33.0871
2006-03-24,33.6891
2006-03-27,33.9578
2006-03-28,34.724
2006-03-29,35.147
2006-03-30,36.6943
2006-03-31,35.6445
2006-04-03,35.3012
2006-04-04,35.8386
2006-04-05,36.2565
2006-04-06,36.4605
2006-04-07,35.5749
2006-04-10,36.0326
2006-04-11,35.6943
2006-04-12,35.7241
2006-04-13,36.1669
2006-04-17,37.3511
2006-04-18,38.1024
2006-04-19,38.6199
2006-04-20,37.5054
2006-04-21,38.4109
2006-04-24,37.8039
2006-04-25,37.3063
2006-04-26,37.2367
2006-04-27,36.4605
2006-04-28,37.1571
2006-05-01,38.2417
2006-05-02,39.3662
2006-05-03,38.3611
2006-05-04,38.3412
2006-05-05,39.1871
2006-05-08,38.4208
2006-05-09,38.7194
2006-05-10,39.7443
2006-05-11,38.6895
2006-05-12,36.8187
2006-05-15,35.7241
2006-05-16,35.5948
2006-05-17,35.0873
2006-05-18,34.4703
2006-05-19,35.3559
2006-05-22,35.4455
2006-05-23,35.0873
2006-05-24,34.6693
2006-05-25,35.8236
2006-05-26,35.5649
2006-05-30,34.9081
2006-05-31,35.7142
2006-06-01,35.6246
2006-06-02,35.8236
2006-06-05,34.6693
2006-06-06,34.3708
2006-06-07,32.5896
2006-06-08,32.7189
2006-06-09,32.6592
2006-06-12,30.9476
2006-06-13,29.853
2006-06-14,30.8282
2006-06-15,32.2214
2006-06-16,32.3209
2006-06-19,31.3457
2006-06-20,30.8183
2006-06-21,31.6343
2006-06-22,31.7835
2006-06-23,32.2214
2006-06-26,32.4005
2006-06-27,32.1219
2006-06-28,32.4701
2006-06-29,33.3757
2006-06-30,33.6344
2006-07-03,34.0325
2006-07-05,33.7339
2006-07-06,33.2563
2006-07-07,32.3607
2006-07-10,32.5995
2006-07-11,32.8184
2006-07-12,32.8284
2006-07-13,31.7537
2006-07-14,31.694
2006-07-17,30.3406
2006-07-18,30.3008
2006-07-19,31.0173
2006-07-20,29.8729
2006-07-21,29.256
2006-07-24,30.4302
2006-07-25,32.2413
2006-07-26,33.913
2006-07-27,33.4553
2006-07-28,33.8235
2006-07-31,35.1669
2006-08-01,35.2067
2006-08-02,34.9877
2006-08-03,34.0623
2006-08-04,33.6742
2006-08-07,33.8334
2006-08-08,33.6344
2006-08-09,33.5548
2006-08-10,33.8832
2006-08-11,33.6842
2006-08-14,32.5995
2006-08-15,32.9776
2006-08-16,33.4553
2006-08-17,32.898
2006-08-18,33.6742
2006-08-21,33.9031
2006-08-22,33.3259
2006-08-23,32.8085
2006-08-24,33.4354
2006-08-25,34.0325
2006-08-28,33.1369
2006-08-29,33.4055
2006-08-30,32.7886
2006-08-31,32.7189
2006-09-01,33.4354
2006-09-05,33.0075
2006-09-06,32.1219
2006-09-07,32.0223
2006-09-08,31.4452
2006-09-11,30.1217
2006-09-12,29.8729
2006-09-13,30.46
2006-09-14,29.664
2006-09-15,29.8829
2006-09-18,30.9476
2006-09-19,30.5496
2006-09-20,29.445
2006-09-21,29.7436
2006-09-22,28.7883
2006-09-25,28.8679
2006-09-26,29.654
2006-09-27,29.4749
2006-09-28,29.3256
2006-09-29,29.6043
2006-10-02,28.5693
2006-10-03,27.5245
2006-10-04,27.9524
2006-10-05,28.4798
2006-10-06,28.3703
2006-10-09,27.9424
2006-10-10,30.0122
2006-10-11,29.4251
2006-10-12,30.5197
2006-10-13,30.4899
2006-10-16,30.9078
2006-10-17,30.1317
2006-10-18,29.6839
2006-10-19,30.679
2006-10-20,30.4501
2006-10-23,30.46
2006-10-24,31.1467
2006-10-25,31.1367
2006-10-26,31.7039
2006-10-27,30.9775
2006-10-30,30.3506
2006-10-31,30.7088
2006-11-01,30.6591
2006-11-02,30.5396
2006-11-03,31.1467
2006-11-06,31.276
2006-11-07,31.2263
2006-11-08,31.9129
2006-11-09,32.2313
2006-11-10,31.7736
2006-11-13,31.0372
2006-11-14,30.8083
2006-11-15,31.3258
2006-11-16,30.1018
2006-11-17,30.3804
2006-11-20,31.6741
2006-11-21,32.6095
2006-11-22,32.6493
2006-11-24,32.4403
2006-11-27,32.0024
2006-11-28,32.4204
2006-11-29,33.7339
2006-11-30,33.6046
2006-12-01,34.3907
2006-12-04,33.4752
2006-12-05,32.9876
2006-12-06,33.4155
2006-12-07,33.1369
2006-12-08,32.9975
2006-12-11,32.5597
2006-12-12,32.3308
2006-12-13,32.1915
2006-12-14,32.4801
2006-12-15,32.3109
2006-12-18,31.6243
2006-12-19,31.7537
2006-12-20,31.5347
2006-12-21,30.7685
2006-12-22,30.5297
2006-12-26,30.1416
2006-12-27,30.4103
2006-12-28,30.0919
2006-12-29,29.6142
2007-01-03,27.9126
2007-01-04,28.0618
2007-01-05,28.4599
2007-01-08,28.6092
2007-01-09,28.3703
2007-01-10,28.3504
2007-01-11,28.1713
2007-01-12,29.1565
2007-01-16,28.9176
2007-01-17,29.0171
2007-01-18,28.7684
2007-01-19,29.4052
2007-01-22,29.5943
2007-01-23,30.1416
2007-01-24,29.8729
2007-01-25,29.1565
2007-01-26,29.2162
2007-01-29,29.037
2007-01-30,29.853
2007-01-31,30.1914
2007-02-01,30.052
2007-02-02,31.3656
2007-02-05,30.6591
2007-02-06,30.6292
2007-02-07,29.9227
2007-02-08,29.7336
2007-02-09,29.7535
2007-02-12,29.1963
2007-02-13,29.7038
2007-02-14,29.7535
2007-02-15,30.052
2007-02-16,29.8232
2007-02-20,29.8928
2007-02-21,30.4401
2007-02-22,30.3804
2007-02-23,30.4302
2007-02-26,30.8382
2007-02-27,29.7834
2007-02-28,29.8033
2007-03-01,29.4749
2007-03-02,29.0271
2007-03-05,28.7286
2007-03-06,29.3157
2007-03-07,29.6242
2007-03-08,29.5147
2007-03-09,29.6142
2007-03-12,29.5844
2007-03-13,28.9972
2007-03-14,29.3057
2007-03-15,29.2958
2007-03-16,29.1167
2007-03-19,30.0122
2007-03-20,29.4649
2007-03-21,29.9426
2007-03-22,30.3307
2007-03-23,30.5994
2007-03-26,30.8879
2007-03-27,30.8382
2007-03-28,30.261
2007-03-29,29.7834
2007-03-30,29.4948
2007-04-02,29.853
2007-04-03,29.7038
2007-04-04,29.7635
2007-04-05,30.2411
2007-04-09,29.9625
2007-04-10,30.679
2007-04-11,30.9078
2007-04-12,31.7537
2007-04-13,31.9626
2007-04-16,31.9825
2007-04-17,31.5049
2007-04-18,31.5148
2007-04-19,31.1865
2007-04-20,31.6144
2007-04-23,31.6144
2007-04-24,31.7338
2007-04-25,32.6095
2007-04-26,32.4104
2007-04-27,32.6294
2007-04-30,32.0024
2007-05-01,31.7835
2007-05-02,31.7935
2007-05-03,32.5995
2007-05-04,33.3359
2007-05-07,33.2264
2007-05-08,33.7837
2007-05-09,34.0424
2007-05-10,33.306
2007-05-11,34.0922
2007-05-14,34.1519
2007-05-15,33.9827
2007-05-16,34.6096
2007-05-17,35.4853
2007-05-18,35.8435
2007-05-21,35.754
2007-05-22,35.4654
2007-05-23,35.147
2007-05-24,34.3708
2007-05-25,34.7688
2007-05-29,34.3708
2007-05-30,34.8982
2007-05-31,34.7987
2007-06-01,35.0375
2007-06-04,35.6246
2007-06-05,35.3161
2007-06-06,34.7589
2007-06-07,33.923
2007-06-08,33.9926
2007-06-11,34.4902
2007-06-12,33.5847
2007-06-13,33.9429
2007-06-14,34.4305
2007-06-15,34.9778
2007-06-18,35.1967
2007-06-19,35.3758
2007-06-20,34.7191
2007-06-21,34.7091
2007-06-22,34.7091
2007-06-25,34.0126
2007-06-26,33.515
2007-06-27,33.9727
2007-06-28,33.2662
2007-06-29,33.2264
2007-07-02,33.1369
2007-07-03,33.1866
2007-07-05,32.5498
2007-07-06,32.6493
2007-07-09,32.6393
2007-07-10,32.0821
2007-07-11,31.7935
2007-07-12,31.8532
2007-07-13,32.3109
2007-07-16,31.4651
2007-07-17,31.3158
2007-07-18,31.9129
2007-07-19,32.3209
2007-07-20,32.3109
2007-07-23,32.2512
2007-07-24,31.4452
2007-07-25,30.9178
2007-07-26,30.2113
2007-07-27,29.5644
2007-07-30,29.5545
2007-07-31,29.1465
2007-08-01,28.9375
2007-08-02,28.6987
2007-08-03,27.9126
2007-08-06,27.9325
2007-08-07,28.7087
2007-08-08,29.7336
2007-08-09,29.654
2007-08-10,30.1118
2007-08-13,29.3953
2007-08-14,28.7186
2007-08-15,28.0817
2007-08-16,27.7235
2007-08-17,28.3803
2007-08-20,28.8579
2007-08-21,28.3803
2007-08-22,28.3504
2007-08-23,28.7087
2007-08-24,30.1814
2007-08-27,29.3953
2007-08-28,29.0768
2007-08-29,29.7237
2007-08-30,29.3157
2007-08-31,29.4251
2007-09-04,30.1018
2007-09-05,29.9724
2007-09-06,30.0919
2007-09-07,30.2511
2007-09-10,30.052
2007-09-11,30.2113
2007-09-12,30.8979
2007-09-13,30.7586
2007-09-14,31.1666
2007-09-17,30.7586
2007-09-18,31.3258
2007-09-19,31.0969
2007-09-20,31.1964
2007-09-21,31.4949
2007-09-24,31.3556
2007-09-25,30.8382
2007-09-26,30.1814
2007-09-27,30.7685
2007-09-28,30.6491
2007-10-01,30.9675
2007-10-02,30.46
2007-10-03,30.1018
2007-10-04,30.2013
2007-10-05,29.4152
2007-10-08,29.1167
2007-10-09,28.9077
2007-10-10,29.863
2007-10-11,30.0321
2007-10-12,30.2013
2007-10-15,30.1118
2007-10-16,30.0122
2007-10-17,29.5147
2007-10-18,29.6341
2007-10-19,28.6589
2007-10-22,28.1912
2007-10-23,28.43
2007-10-24,28.3504
2007-10-25,27.9225
2007-10-26,27.425
2007-10-29,27.3454
2007-10-30,26.7185
2007-10-31,27.9026
2007-11-01,27.9922
2007-11-02,29.0669
2007-11-05,29.3654
2007-11-06,29.3555
2007-11-07,28.3604
2007-11-08,28.3106
2007-11-09,27.823
2007-11-12,27.0767
2007-11-13,27.7036
2007-11-14,27.425
2007-11-15,27.2857
2007-11-16,27.6837
2007-11-19,26.9772
2007-11-20,27.4449
2007-11-21,26.8976
2007-11-23,27.3752
2007-11-26,26.6289
2007-11-27,26.4796
2007-11-28,26.5493
2007-11-29,26.7981
2007-11-30,26.7085
2007-12-03,26.6787
2007-12-04,26.3304
2007-12-05,26.4995
2007-12-06,27.1165
2007-12-07,27.3354
2007-12-10,27.8529
2007-12-11,27.4648
2007-12-12,28.3206
2007-12-13,28.3803
2007-12-14,27.7036
2007-12-17,27.2757
2007-12-18,27.425
2007-12-19,27.5145
2007-12-20,27.8529
2007-12-21,28.1017
2007-12-24,28.0718
2007-12-26,28.3106
2007-12-27,27.7335
2007-12-28,27.4349
2007-12-31,27.2061
2008-01-02,28.1017
2008-01-03,27.8429
2008-01-04,26.9672
2008-01-07,26.6289
2008-01-08,26.1114
2008-01-09,26.4199
2008-01-10,27.0667
2008-01-11,27.1563
2008-01-14,28.032
2008-01-15,27.3951
2008-01-16,26.7483
2008-01-17,25.9025
2008-01-18,25.4746
2008-01-22,25.0566
2008-01-23,25.5641
2008-01-24,26.4697
2008-01-25,26.1413
2008-01-28,26.7782
2008-01-29,26.9573
2008-01-30,26.6488
2008-01-31,27.0667
2008-02-01,27.7335
2008-02-04,29.2261
2008-02-05,27.9126
2008-02-06,28.7584
2008-02-07,29.7933
2008-02-08,29.7933
2008-02-11,31.3855
2008-02-12,30.4899
2008-02-13,31.286
2008-02-14,30.7685
2008-02-15,30.5098
2008-02-19,31.3656
2008-02-20,31.1765
2008-02-21,30.4302
2008-02-22,30.6989
2008-02-25,31.1566
2008-02-26,31.8432
2008-02-27,31.5248
2008-02-28,32.2811
2008-02-29,31.3357
2008-03-03,30.6889
2008-03-04,30.4202
2008-03-05,31.5447
2008-03-06,31.4253
2008-03-07,31.4054
2008-03-10,30.6591
2008-03-11,32.0423
2008-03-12,31.7537
2008-03-13,31.8432
2008-03-14,32.0423
2008-03-17,30.9874
2008-03-18,31.5248
2008-03-19,30.4799
2008-03-20,30.2511
2008-03-24,31.1765
2008-03-25,32.5697
2008-03-26,33.0174
2008-03-27,33.3359
2008-03-28,33.1866
2008-03-31,33.5747
2008-04-01,33.7439
2008-04-02,34.2215
2008-04-03,34.739
2008-04-04,35.0773
2008-04-07,34.4802
2008-04-08,34.8683
2008-04-09,35.1868
2008-04-10,34.6892
2008-04-11,34.2812
2008-04-14,35.147
2008-04-15,35.2564
2008-04-16,35.545
2008-04-17,36.2615
2008-04-18,37.4556
2008-04-21,37.5054
2008-04-22,37.7342
2008-04-23,38.4009
2008-04-24,37.5551
2008-04-25,38.1522
2008-04-28,38.2318
2008-04-29,37.1571
2008-04-30,37.3461
2008-05-01,37.1372
2008-05-02,38.3611
2008-05-05,38.7094
2008-05-06,38.9383
2008-05-07,38.6
2008-05-08,39.2468
2008-05-09,39.4558
2008-05-12,38.4009
2008-05-13,39.2766
2008-05-14,39.0279
2008-05-15,39.9135
2008-05-16,40.8887
2008-05-19,41.2668
2008-05-20,41.9037
2008-05-21,41.3464
2008-05-22,41.2569
2008-05-23,41.2469
2008-05-27,41.1474
2008-05-28,41.6649
2008-05-29,40.8091
2008-05-30,41.7843
2008-06-02,41.8639
2008-06-03,40.9683
2008-06-04,41.4858
2008-06-05,43.5655
2008-06-06,43.068
2008-06-09,44.6701
2008-06-10,43.665
2008-06-11,44.6402
2008-06-12,44.272
2008-06-13,44.1725
2008-06-16,45.2273
2008-06-17,46.7598
2008-06-18,46.8593
2008-06-19,46.4911
2008-06-20,46.9588
2008-06-23,49.5461
2008-06-24,48.6704
2008-06-25,48.8794
2008-06-26,48.1131
2008-06-27,49.3471
2008-06-30,48.959
2008-07-01,48.8993
2008-07-02,48.9391
2008-07-03,48.4714
2008-07-07,46.5508
2008-07-08,45.3467
2008-07-09,44.6303
2008-07-10,46.0035
2008-07-11,45.287
2008-07-14,45.7448
2008-07-15,43.7347
2008-07-16,43.3565
2008-07-17,41.5654
2008-07-18,42.2818
2008-07-21,43.476
2008-07-22,41.3862
2008-07-23,39.0378
2008-07-24,38.1124
2008-07-25,39.4359
2008-07-28,38.5403
2008-07-29,36.7889
2008-07-30,37.8536
2008-07-31,36.4306
2008-08-01,36.5401
2008-08-04,34.132
2008-08-05,33.1966
2008-08-06,33.8334
2008-08-07,32.9876
2008-08-08,32.9179
2008-08-11,32.8383
2008-08-12,32.5896
2008-08-13,34.331
2008-08-14,33.7737
2008-08-15,32.6891
2008-08-18,32.2214
2008-08-19,33.7339
2008-08-20,34.8982
2008-08-21,35.8833
2008-08-22,34.8982
2008-08-25,35.2365
2008-08-26,36.361
2008-08-27,36.9481
2008-08-28,35.7838
2008-08-29,35.5152
2008-09-02,32.9577
2008-09-03,32.5298
2008-09-04,31.8532
2008-09-05,31.286
2008-09-08,30.2312
2008-09-09,27.8927
2008-09-10,28.1614
2008-09-11,27.6738
2008-09-12,28.7485
2008-09-15,25.7632
2008-09-16,25.8826
2008-09-17,24.5093
2008-09-18,25.7333
2008-09-19,27.8429
2008-09-22,28.3604
2008-09-23,25.8726
2008-09-24,26.1114
2008-09-25,26.5194
2008-09-26,26.0517
2008-09-29,23.3351
2008-09-30,24.6686
2008-10-01,23.8028
2008-10-02,21.9917
2008-10-03,21.0563
2008-10-06,19.2253
2008-10-07,17.7227
2008-10-08,17.4939
2008-10-09,15.9316
2008-10-10,13.9613
2008-10-13,16.2599
2008-10-14,16.6381
2008-10-15,14.1304
2008-10-16,14.8469
2008-10-17,15.3445
2008-10-20,16.4689
2008-10-21,15.8122
2008-10-22,14.4688
2008-10-23,13.5533
2008-10-24,12.8269
2008-10-27,12.3293
2008-10-28,12.1701
2008-10-29,13.5334
2008-10-30,14.8668
2008-10-31,14.2299
2008-11-03,14.8071
2008-11-04,17.2551
2008-11-05,16.6281
2008-11-06,14.9265
2008-11-07,15.0061
2008-11-10,15.9614
2008-11-11,15.0658
2008-11-12,13.7224
2008-11-13,15.1255
2008-11-14,13.5035
2008-11-17,13.6926
2008-11-18,14.0011
2008-11-19,12.8667
2008-11-20,10.1998
2008-11-21,11.8317
2008-11-24,13.3045
2008-11-25,13.2348
2008-11-26,14.9265
2008-11-28,14.5185
2008-12-01,12.0706
2008-12-02,12.0009
2008-12-03,12.2397
2008-12-04,10.9063
2008-12-05,10.9561
2008-12-08,12.0507
2008-12-09,12.5184
2008-12-10,12.8368
2008-12-11,12.0706
2008-12-12,12.0905
2008-12-15,12.5184
2008-12-16,13.006
2008-12-17,12.9363
2008-12-18,10.8068
2008-12-19,11.175
2008-12-22,10.7769
2008-12-23,10.5381
2008-12-24,10.3291
2008-12-26,10.8167
2008-12-29,11.1252
2008-12-30,11.4934
2008-12-31,11.9213
2009-01-02,13.195
2009-01-05,12.8567
2009-01-06,13.2348
2009-01-07,12.7572
2009-01-08,13.0259
2009-01-09,12.0805
2009-01-12,11.5432
2009-01-13,11.782
2009-01-14,10.7371
2009-01-15,11.1849
2009-01-16,11.2347
2009-01-20,10.4685
2009-01-21,11.6626
2009-01-22,10.8167
2009-01-23,11.6029
2009-01-26,11.9213
2009-01-27,11.9114
2009-01-28,11.9014
2009-01-29,11.0854
2009-01-30,10.8566
2009-02-02,10.3789
2009-02-03,10.7272
2009-02-04,10.8665
2009-02-05,11.3043
2009-02-06,11.7621
2009-02-09,11.8317
2009-02-10,10.8267
2009-02-11,10.7471
2009-02-12,10.9362
2009-02-13,11.1153
2009-02-17,10.1003
2009-02-18,9.65248
2009-02-19,9.77189
2009-02-20,9.48331
2009-02-23,9.10517
2009-02-24,9.44351
2009-02-25,9.82165
2009-02-26,9.92116
2009-02-27,9.66243
2009-03-02,8.46831
2009-03-03,8.50811
2009-03-04,9.07532
2009-03-05,8.61757
2009-03-06,8.55787
2009-03-09,8.73699
2009-03-10,9.13503
2009-03-11,9.03552
2009-03-12,9.4037
2009-03-13,8.8365
2009-03-16,9.20468
2009-03-17,9.49326
2009-03-18,9.93111
2009-03-19,10.9262
2009-03-20,10.2197
2009-03-23,11.3939
2009-03-24,10.8566
2009-03-25,11.0158
2009-03-26,10.966
2009-03-27,10.6376
2009-03-30,9.8913
2009-03-31,9.99081
2009-04-01,10.1998
2009-04-02,10.9561
2009-04-03,11.9412
2009-04-06,11.4536
2009-04-07,11.1849
2009-04-08,11.5531
2009-04-09,12.3492
2009-04-13,12.0805
2009-04-14,12.6278
2009-04-15,13.3742
2009-04-16,14.5185
2009-04-17,15.1255
2009-04-20,13.3244
2009-04-21,14.5086
2009-04-22,15.1952
2009-04-23,15.3047
2009-04-24,16.051
2009-04-27,15.2648
2009-04-28,15.0459
2009-04-29,15.6529
2009-04-30,15.1753
2009-05-01,16.1803
2009-05-04,16.8471
2009-05-05,17.1356
2009-05-06,17.7028
2009-05-07,16.867
2009-05-08,18.4293
2009-05-11,17.3944
2009-05-12,17.474
2009-05-13,16.3097
2009-05-14,16.9565
2009-05-15,15.9913
2009-05-18,17.2252
2009-05-19,17.0859
2009-05-20,17.3844
2009-05-21,16.5585
2009-05-22,16.6978
2009-05-26,17.4541
2009-05-27,17.0063
2009-05-28,17.6929
2009-05-29,17.7128
2009-06-01,19.1557
2009-06-02,19.3846
2009-06-03,17.8919
2009-06-04,18.8373
2009-06-05,18.2502
2009-06-08,18.0412
2009-06-09,18.3696
2009-06-10,18.5487
2009-06-11,18.8373
2009-06-12,18.1407
2009-06-15,17.2949
2009-06-16,16.6281
2009-06-17,16.0808
2009-06-18,16.041
2009-06-19,15.8719
2009-06-22,14.2896
2009-06-23,14.4588
2009-06-24,14.6379
2009-06-25,15.1056
2009-06-26,15.1454
2009-06-29,15.1554
2009-06-30,15.4639
2009-07-01,15.7126
2009-07-02,14.7474
2009-07-06,14.3096
2009-07-07,14.011
2009-07-08,14.3991
2009-07-09,14.7872
2009-07-10,14.7374
2009-07-13,15.0658
2009-07-14,15.2449
2009-07-15,15.842
2009-07-16,16.3396
2009-07-17,16.648
2009-07-20,17.1953
2009-07-21,17.066
2009-07-22,16.041
2009-07-23,16.8073
2009-07-24,17.056
2009-07-27,17.4939
2009-07-28,16.867
2009-07-29,16.0609
2009-07-30,16.6779
2009-07-31,16.9366
2009-08-03,18.0312
2009-08-04,17.6133
2009-08-05,17.5138
2009-08-06,17.4342
2009-08-07,17.7028
2009-08-10,18.0611
2009-08-11,17.5138
2009-08-12,17.9815
2009-08-13,18.1307
2009-08-14,17.6133
2009-08-17,16.648
2009-08-18,17.1257
2009-08-19,17.3645
2009-08-20,17.5237
2009-08-21,18.7079
2009-08-24,19.1059
2009-08-25,18.5586
2009-08-26,18.4392
2009-08-27,18.2999
2009-08-28,18.1009
2009-08-31,17.5635
2009-09-01,17.1058
2009-09-02,16.8073
2009-09-03,17.1655
2009-09-04,17.9218
2009-09-08,18.4293
2009-09-09,18.4293
2009-09-10,18.8771
2009-09-11,19.0562
2009-09-14,19.3945
2009-09-15,19.9717
2009-09-16,21.3051
2009-09-17,20.3797
2009-09-18,20.31
2009-09-21,20.2005
2009-09-22,20.927
2009-09-23,20.4493
2009-09-24,19.7428
2009-09-25,19.4045
2009-09-28,19.9518
2009-09-29,20.6284
2009-09-30,20.7777
2009-10-01,19.8224
2009-10-02,19.1955
2009-10-05,19.9319
2009-10-06,20.4394
2009-10-07,20.8076
2009-10-08,21.8425
2009-10-09,21.2355
2009-10-12,21.7629
2009-10-13,21.5539
2009-10-14,21.9121
2009-10-15,22.7878
2009-10-16,22.3201
2009-10-19,22.7878
2009-10-20,22.3301
2009-10-21,22.947
2009-10-22,23.3451
2009-10-23,22.4793
2009-10-26,21.8027
2009-10-27,22.2903
2009-10-28,20.9767
2009-10-29,22.2007
2009-10-30,20.7479
2009-11-02,20.8175
2009-11-03,21.3549
2009-11-04,21.2454
2009-11-05,22.1012
2009-11-06,21.8425
2009-11-09,22.7281
2009-11-10,22.5689
2009-11-11,22.7082
2009-11-12,21.6335
2009-11-13,21.6136
2009-11-16,22.539
2009-11-17,22.2704
2009-11-18,22.131
2009-11-19,20.917
2009-11-20,19.7428
2009-11-23,20.2603
2009-11-24,20.6284
2009-11-25,21.1857
2009-11-27,20.4692
2009-11-30,20.5588
2009-12-01,20.6185
2009-12-02,20.4891
2009-12-03,20.101
2009-12-04,20.111
2009-12-07,20.2005
2009-12-08,19.3746
2009-12-09,19.494
2009-12-10,20.2105
2009-12-11,20.1806
2009-12-14,20.8673
2009-12-15,20.9369
2009-12-16,21.3947
2009-12-17,21.6136
2009-12-18,21.8126
2009-12-21,22.1111
2009-12-22,22.1211
2009-12-23,22.7779
2009-12-24,22.8475
2009-12-28,22.6983
2009-12-29,22.2505
2009-12-30,22.131
2009-12-31,21.7927
2010-01-04,23.0863
2010-01-05,24.9372
2010-01-06,25.6438
2010-01-07,26.0517
2010-01-08,26.7384
2010-01-11,25.8925
2010-01-12,25.0865
2010-01-13,25.7134
2010-01-14,25.793
2010-01-15,25.4248
2010-01-19,26.2906
2010-01-20,25.6736
2010-01-21,25.0964
2010-01-22,23.7033
2010-01-25,24.1909
2010-01-26,24.0615
2010-01-27,23.4844
2010-01-28,23.2555
2010-01-29,22.1808
2010-02-01,23.4446
2010-02-02,23.6934
2010-02-03,23.5739
2010-02-04,22.0514
2010-02-05,22.0216
2010-02-08,21.3847
2010-02-09,22.1708
2010-02-10,22.5589
2010-02-11,23.1958
2010-02-12,23.3948
2010-02-16,23.7829
2010-02-17,22.947
2010-02-18,23.2655
2010-02-19,23.2456
2010-02-22,22.3997
2010-02-23,21.7728
2010-02-24,21.8126
2010-02-25,21.8823
2010-02-26,21.9519
2010-03-01,22.2405
2010-03-02,22.6584
2010-03-03,23.0664
2010-03-04,22.3997
2010-03-05,22.3898
2010-03-08,22.2803
2010-03-09,21.9619
2010-03-10,22.4097
2010-03-11,22.4097
2010-03-12,22.3798
2010-03-15,21.7828
2010-03-16,21.942
2010-03-17,21.5439
2010-03-18,20.5289
2010-03-19,19.7826
2010-03-22,20.1607
2010-03-23,19.295
2010-03-24,19.4841
2010-03-25,18.688
2010-03-26,18.8472
2010-03-29,19.4343
2010-03-30,19.2652
2010-03-31,19.5438
2010-04-01,19.7627
2010-04-05,20.5289
2010-04-06,20.5588
2010-04-07,20.2603
2010-04-08,19.9319
2010-04-09,19.7528
2010-04-12,19.703
2010-04-13,19.5537
2010-04-14,19.8025
2010-04-15,19.9617
2010-04-16,19.4642
2010-04-19,19.5935
2010-04-20,20.2304
2010-04-21,20.9071
2010-04-22,21.6932
2010-04-23,22.4594
2010-04-26,21.6733
2010-04-27,20.6583
2010-04-28,21.325
2010-04-29,21.6335
2010-04-30,21.4743
2010-05-03,21.4643
2010-05-04,20.7877
2010-05-05,20.2802
2010-05-06,19.2353
2010-05-07,18.8572
2010-05-10,20.0811
2010-05-11,20.0413
2010-05-12,20.3498
2010-05-13,20.0811
2010-05-14,19.5338
2010-05-17,19.1756
2010-05-18,18.7676
2010-05-19,18.2402
2010-05-20,17.2053
2010-05-21,17.6431
2010-05-24,17.0162
2010-05-25,17.1157
2010-05-26,17.1157
2010-05-27,18.28
2010-05-28,18.9467
2010-06-01,18.6183
2010-06-02,19.693
2010-06-03,20.4991
2010-06-04,19.2652
2010-06-07,19.4144
2010-06-08,19.9617
2010-06-09,19.8324
2010-06-10,21.0364
2010-06-11,21.0663
2010-06-14,20.6881
2010-06-15,21.5041
2010-06-16,21.1658
2010-06-17,21.1558
2010-06-18,21.4046
2010-06-21,21.0961
2010-06-22,20.1806
2010-06-23,19.9717
2010-06-24,19.2154
2010-06-25,18.9865
2010-06-28,18.7577
2010-06-29,17.8223
2010-06-30,17.5536
2010-07-01,17.5436
2010-07-02,17.2451
2010-07-06,17.4342
2010-07-07,18.5487
2010-07-08,17.8919
2010-07-09,18.2999
2010-07-12,18.0312
2010-07-13,17.7526
2010-07-14,17.7526
2010-07-15,17.7128
2010-07-16,16.8272
2010-07-19,17.2949
2010-07-20,17.7526
2010-07-21,17.5934
2010-07-22,17.9914
2010-07-23,18.6283
2010-07-26,18.7079
2010-07-27,18.3099
2010-07-28,17.9118
2010-07-29,18.5089
2010-07-30,18.3198
2010-08-02,18.6482
2010-08-03,18.1009
2010-08-04,18.4691
2010-08-05,18.081
2010-08-06,17.882
2010-08-09,18.1904
2010-08-10,17.2351
2010-08-11,16.2898
2010-08-12,16.24
2010-08-13,16.3893
2010-08-16,16.8073
2010-08-17,17.3247
2010-08-18,17.3944
2010-08-19,17.0958
2010-08-20,16.4789
2010-08-23,16.3495
2010-08-24,16.1306
2010-08-25,15.8719
2010-08-26,15.5335
2010-08-27,16.1903
2010-08-30,15.8619
2010-08-31,15.5733
2010-09-01,16.6679
2010-09-02,16.7675
2010-09-03,17.2849
2010-09-07,16.867
2010-09-08,17.3546
2010-09-09,17.3446
2010-09-10,17.3844
2010-09-13,17.5237
2010-09-14,17.3446
2010-09-15,17.2949
2010-09-16,16.8471
2010-09-17,16.9764
2010-09-20,17.5934
2010-09-21,18.3099
2010-09-22,18.28
2010-09-23,18.1009
2010-09-24,18.8671
2010-09-27,18.2502
2010-09-28,18.1606
2010-09-29,18.4392
2010-09-30,17.9815
2010-10-01,17.7426
2010-10-04,17.5138
2010-10-05,18.1009
2010-10-06,18.0909
2010-10-07,17.8223
2010-10-08,18.489
2010-10-11,18.7477
2010-10-12,18.7776
2010-10-13,19.2851
2010-10-14,19.1457
2010-10-15,19.4542
2010-10-18,19.3647
2010-10-19,18.2004
2010-10-20,18.8273
2010-10-21,18.8074
2010-10-22,19.2453
2010-10-25,19.2253
2010-10-26,19.295
2010-10-27,20.3697
2010-10-28,20.2005
2010-10-29,20.7877
2010-11-01,20.6583
2010-11-02,20.6881
2010-11-03,20.8971
2010-11-04,21.5638
2010-11-05,21.6036
2010-11-08,21.8524
2010-11-09,21.4245
2010-11-10,21.9718
2010-11-11,22.2206
2010-11-12,21.6335
2010-11-15,21.534
2010-11-16,21.1658
2010-11-17,21.3847
2010-11-18,22.1609
2010-11-19,22.2903
2010-11-22,22.3102
2010-11-23,21.1956
2010-11-24,22.0017
2010-11-26,21.5937
2010-11-29,22.0912
2010-11-30,21.9818
2010-12-01,22.6784
2010-12-02,23.0266
2010-12-03,23.4844
2010-12-06,23.7431
2010-12-07,23.0664
2010-12-08,22.5888
2010-12-09,22.539
2010-12-10,22.7978
2010-12-13,22.8177
2010-12-14,22.4694
2010-12-15,22.2107
2010-12-16,21.8524
2010-12-17,21.733
2010-12-20,22.1111
2010-12-21,22.2405
2010-12-22,22.2405
2010-12-23,22.6684
2010-12-27,22.748
2010-12-28,22.9172
2010-12-29,23.2555
2010-12-30,23.1958
2010-12-31,23.3053
2011-01-03,23.2157
2011-01-04,22.5788
2011-01-05,23.0664
2011-01-06,22.6784
2011-01-07,22.6385
2011-01-10,22.1509
2011-01-11,22.35
2011-01-12,22.2704
2011-01-13,21.932
2011-01-14,22.4097
2011-01-18,22.5788
2011-01-19,22.3102
2011-01-20,22.2505
2011-01-21,22.3201
2011-01-24,22.35
2011-01-25,22.1509
2011-01-26,23.2854
2011-01-27,24.1511
2011-01-28,23.7431
2011-01-31,24.2904
2011-02-01,24.6984
2011-02-02,25.2457
2011-02-03,25.7632
2011-02-04,25.5741
2011-02-07,25.7134
2011-02-08,25.584
2011-02-09,24.9273
2011-02-10,25.4945
2011-02-11,25.584
2011-02-14,26.2707
2011-02-15,25.7831
2011-02-16,26.6289
2011-02-17,27.5643
2011-02-18,28.0021
2011-02-22,27.6638
2011-02-23,28.2012
2011-02-24,27.5145
2011-02-25,28.1912
2011-02-28,28.3405
2011-03-01,27.1762
2011-03-02,27.8429
2011-03-03,28.0618
2011-03-04,28.1216
2011-03-07,27.4648
2011-03-08,27.226
2011-03-09,27.1165
2011-03-10,25.992
2011-03-11,26.8578
2011-03-14,26.9772
2011-03-15,26.3801
2011-03-16,25.8527
2011-03-17,27.1762
2011-03-18,26.609
2011-03-21,27.4847
2011-03-22,27.1265
2011-03-23,27.8429
2011-03-24,28.7286
2011-03-25,29.4749
2011-03-28,29.246
2011-03-29,29.6938
2011-03-30,29.9227
2011-03-31,30.2312
2011-04-01,30.2511
2011-04-04,30.0321
2011-04-05,30.3904
2011-04-06,29.7933
2011-04-07,30.3406
2011-04-08,31.4153
2011-04-11,30.6989
2011-04-12,29.2958
2011-04-13,29.6441
2011-04-14,30.4302
2011-04-15,31.1765
2011-04-18,30.8581
2011-04-19,30.9377
2011-04-20,31.8333
2011-04-21,31.7537
2011-04-25,31.5347
2011-04-26,31.883
2011-04-27,30.46
2011-04-28,30.1615
2011-04-29,30.4998
2011-05-02,29.7336
2011-05-03,28.7982
2011-05-04,28.0618
2011-05-05,27.4847
2011-05-06,27.2956
2011-05-09,28.0121
2011-05-10,28.1713
2011-05-11,26.7881
2011-05-12,26.599
2011-05-13,26.6289
2011-05-16,26.2209
2011-05-17,25.6039
2011-05-18,26.599
2011-05-19,26.7185
2011-05-20,26.6986
2011-05-23,26.2906
2011-05-24,26.8677
2011-05-25,27.5941
2011-05-26,27.3155
2011-05-27,27.4747
2011-05-31,27.7534
2011-06-01,26.6886
2011-06-02,27.3852
2011-06-03,27.3056
2011-06-06,25.8129
2011-06-07,26.1214
2011-06-08,26.0119
2011-06-09,26.7682
2011-06-10,25.9622
2011-06-13,24.8875
2011-06-14,25.5741
2011-06-15,25.0467
2011-06-16,24.8477
2011-06-17,23.9421
2011-06-20,23.4744
2011-06-21,23.7531
2011-06-22,23.9919
2011-06-23,23.8227
2011-06-24,22.9072
2011-06-27,22.6983
2011-06-28,23.7929
2011-06-29,24.0317
2011-06-30,24.5193
2011-07-01,24.7482
2011-07-05,24.4496
2011-07-06,24.4994
2011-07-07,24.7979
2011-07-08,24.3004
2011-07-11,23.7332
2011-07-12,23.554
2011-07-13,24.2009
2011-07-14,24.2506
2011-07-15,26.211
2011-07-18,25.9224
2011-07-19,26.7085
2011-07-20,26.6986
2011-07-21,27.0866
2011-07-22,27.4349
2011-07-25,26.8478
2011-07-26,26.9971
2011-07-27,26.3503
2011-07-28,26.7384
2011-07-29,26.3304
2011-08-01,26.1513
2011-08-02,25.1064
2011-08-03,24.7979
2011-08-04,22.0017
2011-08-05,20.7578
2011-08-08,18.0113
2011-08-09,19.086
2011-08-10,18.1506
2011-08-11,18.8174
2011-08-12,19.0462
2011-08-15,19.8722
2011-08-16,18.8572
2011-08-17,19.0064
2011-08-18,17.2252
2011-08-19,16.3396
2011-08-22,16.25
2011-08-23,17.1257
2011-08-24,17.2252
2011-08-25,16.9864
2011-08-26,17.5934
2011-08-29,18.4293
2011-08-30,18.3497
2011-08-31,18.2999
2011-09-01,18.28
2011-09-02,17.4839
2011-09-06,17.0859
2011-09-07,18.1407
2011-09-08,17.6531
2011-09-09,16.7276
2011-09-12,17.275
2011-09-13,17.5038
2011-09-14,17.9516
2011-09-15,18.3696
2011-09-16,18.0611
2011-09-19,17.4342
2011-09-20,16.7475
2011-09-21,15.5634
2011-09-22,14.3195
2011-09-23,13.9712
2011-09-26,14.7573
2011-09-27,14.0309
2011-09-28,13.0557
2011-09-29,13.0358
2011-09-30,12.2298
2011-10-03,11.6725
2011-10-04,12.2696
2011-10-05,13.3642
2011-10-06,13.9911
2011-10-07,13.3443
2011-10-10,14.2399
2011-10-11,14.22
2011-10-12,14.5683
2011-10-13,14.6678
2011-10-14,15.3146
2011-10-17,14.5782
2011-10-18,15.3544
2011-10-19,14.6578
2011-10-20,15.1554
2011-10-21,15.1156
2011-10-24,16.2201
2011-10-25,15.7126
2011-10-26,17.265
2011-10-27,18.6482
2011-10-28,18.9666
2011-10-31,18.2701
2011-11-01,16.9267
2011-11-02,17.8919
2011-11-03,18.7378
2011-11-04,19.086
2011-11-07,19.912
2011-11-08,20.3697
2011-11-09,19.3746
2011-11-10,19.5338
2011-11-11,20.4493
2011-11-14,19.8821
2011-11-15,19.8821
2011-11-16,19.8622
2011-11-17,18.7278
2011-11-18,18.5089
2011-11-21,17.9019
2011-11-22,17.3446
2011-11-23,16.1405
2011-11-25,16.0211
2011-11-28,16.5286
2011-11-29,16.5983
2011-11-30,17.8521
2011-12-01,17.6431
2011-12-02,17.464
2011-12-05,18.2302
2011-12-06,18.6084
2011-12-07,18.1108
2011-12-08,17.2949
2011-12-09,17.9218
2011-12-12,17.275
2011-12-13,16.9864
2011-12-14,16.3495
2011-12-15,16.2799
2011-12-16,16.658
2011-12-19,16.1505
2011-12-20,17.5436
2011-12-21,17.7227
2011-12-22,18.1606
2011-12-23,18.1407
2011-12-27,18.071
2011-12-28,17.3347
2011-12-29,17.5138
2011-12-30,17.2551
2012-01-03,18.9069
2012-01-04,18.6581
2012-01-05,18.6681
2012-01-06,18.7975
2012-01-09,19.1358
2012-01-10,19.5935
2012-01-11,18.6382
2012-01-12,17.9815
2012-01-13,17.3347
2012-01-17,16.5585
2012-01-18,17.1754
2012-01-19,16.7774
2012-01-20,16.9267
2012-01-23,17.0958
2012-01-24,17.2551
2012-01-25,17.7626
2012-01-26,17.3745
2012-01-27,17.8422
2012-01-30,18.4392
2012-01-31,18.5487
2012-02-01,18.6183
2012-02-02,19.096
2012-02-03,19.3746
2012-02-06,19.5836
2012-02-07,19.6532
2012-02-08,19.4542
2012-02-09,19.4244
2012-02-10,18.8472
2012-02-13,19.0462
2012-02-14,18.8074
2012-02-15,19.3249
2012-02-16,20.1508
2012-02-17,20.6981
2012-02-21,20.2404
2012-02-22,21.6235
2012-02-23,21.8922
2012-02-24,22.2206
2012-02-27,21.8524
2012-02-28,21.8425
2012-02-29,21.6932
2012-03-01,21.9121
2012-03-02,21.4544
2012-03-05,20.4991
2012-03-06,19.7528
2012-03-07,19.6632
2012-03-08,20.1707
2012-03-09,20.0115
2012-03-12,19.4144
2012-03-13,20.2304
2012-03-14,19.9717
2012-03-15,20.3598
2012-03-16,20.6881
2012-03-19,20.718
2012-03-20,19.9617
2012-03-21,19.3149
2012-03-22,18.4591
2012-03-23,19.2154
2012-03-26,18.7079
2012-03-27,17.7128
2012-03-28,17.3446
2012-03-29,17.1058
2012-03-30,17.4143
2012-04-02,17.5038
2012-04-03,17.1157
2012-04-04,16.658
2012-04-05,16.4988
2012-04-09,16.2998
2012-04-10,15.9017
2012-04-11,16.0908
2012-04-12,16.8869
2012-04-13,16.0709
2012-04-16,15.4241
2012-04-17,15.842
2012-04-18,15.7027
2012-04-19,15.7823
2012-04-20,15.643
2012-04-23,15.643
2012-04-24,15.8619
2012-04-25,16.8869
2012-04-26,16.5286
2012-04-27,16.2301
2012-04-30,16.5784
2012-05-01,17.2252
2012-05-02,16.7177
2012-05-03,16.1704
2012-05-04,15.444
2012-05-07,15.434
2012-05-08,15.3345
2012-05-09,15.1753
2012-05-10,15.4141
2012-05-11,15.0061
2012-05-14,14.5484
2012-05-15,13.7921
2012-05-16,13.603
2012-05-17,13.3344
2012-05-18,13.006
2012-05-21,14.2399
2012-05-22,14.0508
2012-05-23,14.1901
2012-05-24,13.7921
2012-05-25,13.7324
2012-05-29,14.2299
2012-05-30,13.6926
2012-05-31,13.4936
2012-06-01,12.9463
2012-06-04,12.8468
2012-06-05,13.1353
2012-06-06,13.6528
2012-06-07,13.5632
2012-06-08,13.2846
2012-06-11,12.7472
2012-06-12,12.9662
2012-06-13,12.5781
2012-06-14,12.6477
2012-06-15,12.996
2012-06-18,12.9065
2012-06-19,13.6627
2012-06-20,13.7821
2012-06-21,12.8667
2012-06-22,13.1254
2012-06-25,12.7472
2012-06-26,12.7373
2012-06-27,13.4438
2012-06-28,13.7821
2012-06-29,14.3295
2012-07-02,14.1603
2012-07-03,14.5882
2012-07-05,14.4887
2012-07-06,13.9414
2012-07-09,13.6229
2012-07-10,12.9463
2012-07-11,13.1751
2012-07-12,12.9562
2012-07-13,13.205
2012-07-16,13.1254
2012-07-17,14.011
2012-07-18,14.3693
2012-07-19,14.3593
2012-07-20,14.22
2012-07-23,14.1006
2012-07-24,13.9513
2012-07-25,13.3443
2012-07-26,13.8618
2012-07-27,14.2399
2012-07-30,14.5086
2012-07-31,13.7821
2012-08-01,13.6727
2012-08-02,13.3244
2012-08-03,13.8717
2012-08-06,14.3593
2012-08-07,14.6578
2012-08-08,15.1255
2012-08-09,15.5435
2012-08-10,15.1355
2012-08-13,15.6131
2012-08-14,15.9316
2012-08-15,15.9316
2012-08-16,16.1107
2012-08-17,16.1306
2012-08-20,16.2102
2012-08-21,16.1306
2012-08-22,16.0012
2012-08-23,15.5435
2012-08-24,15.4241
2012-08-27,15.0957
2012-08-28,14.8768
2012-08-29,14.7573
2012-08-30,14.628
2012-08-31,14.7175
2012-09-04,14.5285
2012-09-05,14.6081
2012-09-06,15.0559
2012-09-07,15.4539
2012-09-10,15.2847
2012-09-11,15.5634
2012-09-12,15.4141
2012-09-13,16.0012
2012-09-14,16.5684
2012-09-17,16.1803
2012-09-18,15.8818
2012-09-19,15.5932
2012-09-20,15.3743
2012-09-21,15.235
2012-09-24,15.0061
2012-09-25,14.1802
2012-09-26,13.8817
2012-09-27,14.0309
2012-09-28,13.9513
2012-10-01,13.9812
2012-10-02,13.9414
2012-10-03,13.6229
2012-10-04,14.2001
2012-10-05,14.011
2012-10-08,13.9812
2012-10-09,14.6081
2012-10-10,14.1603
2012-10-11,14.6081
2012-10-12,14.4787
2012-10-15,14.3195
2012-10-16,14.7673
2012-10-17,15.235
2012-10-18,15.3047
2012-10-19,14.8171
2012-10-22,14.3792
2012-10-23,14.1802
2012-10-24,13.9016
2012-10-25,14.0608
2012-10-26,13.603
2012-10-31,13.4239
2012-11-01,13.8618
2012-11-02,13.5035
2012-11-05,13.8319
2012-11-06,14.0011
2012-11-07,13.414
2012-11-08,13.1055
2012-11-09,13.0557
2012-11-12,13.404
2012-11-13,13.3443
2012-11-14,13.2249
2012-11-15,13.2348
2012-11-16,13.1055
2012-11-19,13.603
2012-11-20,13.4637
2012-11-21,13.603
2012-11-23,13.9414
2012-11-26,13.7821
2012-11-27,13.6926
2012-11-28,14.1304
2012-11-29,14.3394
2012-11-30,14.6479
2012-12-03,14.4489
2012-12-04,14.4787
2012-12-05,14.5683
2012-12-06,14.5384
2012-12-07,14.5484
2012-12-10,14.5683
2012-12-11,14.5484
2012-12-12,14.4389
2012-12-13,13.7821
2012-12-14,13.6329
2012-12-17,13.6428
2012-12-18,14.4489
2012-12-19,14.628
2012-12-20,14.8967
2012-12-21,14.5086
2012-12-24,14.22
2012-12-26,14.2498
2012-12-27,14.1503
2012-12-28,13.9613
2012-12-31,14.3693
2013-01-02,14.7275
2013-01-03,14.8569
2013-01-04,15.3145
2013-01-07,15.2251
2013-01-08,14.9663
2013-01-09,14.8071
2013-01-10,14.5085
2013-01-11,14.5483
2013-01-14,14.4091
2013-01-15,14.7175
2013-01-16,14.6081
2013-01-17,15.0161
2013-01-18,15.5833
2013-01-22,15.7525
2013-01-23,16.2101
2013-01-24,16.3197
2013-01-25,16.5187
2013-01-28,16.4739
2013-01-29,16.6331
2013-01-30,16.5237
2013-01-31,16.6082
2013-02-01,16.7575
2013-02-04,16.1754
2013-02-05,16.459
2013-02-06,16.4789
2013-02-07,16.4291
2013-02-08,16.4789
2013-02-11,16.3595
2013-02-12,16.7625
2013-02-13,17.066
2013-02-14,17.8123
2013-02-15,17.5884
2013-02-19,17.8919
2013-02-20,16.5684
2013-02-21,16.2799
2013-02-22,16.25
2013-02-25,15.5037
2013-02-26,15.7524
2013-02-27,16.2251
2013-02-28,16.6729
2013-03-01,16.3644
2013-03-04,16.0609
2013-03-05,16.2898
2013-03-06,16.1903
2013-03-07,16.4796
2013-03-08,16.5394
2013-03-11,16.4995
2013-03-12,16.9883
2013-03-13,16.5195
2013-03-14,16.6192
2013-03-15,17.1879
2013-03-18,16.5793
2013-03-19,15.9309
2013-03-20,15.6217
2013-03-21,15.5618
2013-03-22,15.3623
2013-03-25,15.5319
2013-03-26,15.7214
2013-03-27,16.1005
2013-03-28,16.1604
2013-04-01,15.5519
2013-04-02,15.4222
2013-04-03,14.8536
2013-04-04,14.8735
2013-04-05,15.7414
2013-04-08,15.7414
2013-04-09,16.1703
2013-04-10,16.4197
2013-04-11,16.6292
2013-04-12,16.0407
2013-04-15,15.0331
2013-04-16,15.2626
2013-04-17,14.6341
2013-04-18,14.9234
2013-04-19,14.8236
2013-04-22,15.0531
2013-04-23,15.2326
2013-04-24,14.7538
2013-04-25,14.5842
2013-04-26,14.4745
2013-04-29,14.664
2013-04-30,14.7339
2013-05-01,14.6241
2013-05-02,14.8236
2013-05-03,15.2825
2013-05-06,15.6616
2013-05-07,15.7913
2013-05-08,15.9609
2013-05-09,16.1504
2013-05-10,16.0706
2013-05-13,15.6915
2013-05-14,15.901
2013-05-15,15.9609
2013-05-16,16.0307
2013-05-17,16.6192
2013-05-20,17.1779
2013-05-21,17.0282
2013-05-22,16.729
2013-05-23,16.719
2013-05-24,16.5793
2013-05-28,16.7439
2013-05-29,16.6292
2013-05-30,16.4796
2013-05-31,15.9808
2013-06-03,16.5295
2013-06-04,16.32
2013-06-05,16.23
2013-06-06,16.2
2013-06-07,16.7
2013-06-10,16.58
2013-06-11,16.11
2013-06-12,15.85
2013-06-13,16.24
2013-06-14,15.9
2013-06-17,16.56
2013-06-18,16.777
2013-06-19,16.44
2013-06-20,15.69
2013-06-21,15.69
2013-06-24,15.3
2013-06-25,15.83
2013-06-26,15.75
2013-06-27,15.64
2013-06-28,15.34
2013-07-01,15.84
2013-07-02,15.99
2013-07-03,15.78
2013-07-05,16.16
2013-07-08,16.06
2013-07-09,16.0
2013-07-10,14.98
2013-07-11,14.61
2013-07-12,14.8
2013-07-15,14.86
2013-07-16,14.85
2013-07-17,15.25
2013-07-18,15.68
2013-07-19,15.61
2013-07-22,15.27
2013-07-23,15.3
2013-07-24,15.07
2013-07-25,15.11
2013-07-26,14.92
2013-07-29,14.85
2013-07-30,15.2
2013-07-31,15.38
2013-08-01,15.79
2013-08-02,15.75
2013-08-05,15.76
2013-08-06,15.31
2013-08-07,15.45
2013-08-08,15.66
2013-08-09,15.59
