date,close_price
1998-01-02,11.7335
1998-01-05,11.762
1998-01-06,11.762
1998-01-07,11.7335
1998-01-08,11.8664
1998-01-09,11.8213
1998-01-12,11.9851
1998-01-13,11.9566
1998-01-14,11.9566
1998-01-15,11.9994
1998-01-16,12.1037
1998-01-20,12.2082
1998-01-21,12.296
1998-01-22,12.3126
1998-01-23,12.3126
1998-01-26,12.3126
1998-01-27,12.3553
1998-01-28,12.2165
1998-01-29,12.262
1998-01-30,12.2309
1998-02-02,12.2908
1998-02-03,12.2165
1998-02-04,12.1877
1998-02-05,12.2165
1998-02-06,12.2477
1998-02-09,12.2477
1998-02-10,12.2764
1998-02-11,12.3076
1998-02-12,12.3076
1998-02-13,12.171
1998-02-17,12.3962
1998-02-18,12.3962
1998-02-19,12.3674
1998-02-20,12.3506
1998-02-23,12.2788
1998-02-24,12.2788
1998-02-25,12.3986
1998-02-26,12.3986
1998-02-27,12.3076
1998-03-02,12.4848
1998-03-03,12.5471
1998-03-04,12.5471
1998-03-05,12.4273
1998-03-06,12.6668
1998-03-09,12.6956
1998-03-10,13.0549
1998-03-11,13.1172
1998-03-12,12.9639
1998-03-13,12.9975
1998-03-16,13.0549
1998-03-17,13.0261
1998-03-18,13.0549
1998-03-19,13.2034
1998-03-20,13.443
1998-03-23,13.4765
1998-03-24,13.5053
1998-03-25,13.5627
1998-03-26,13.3567
1998-03-27,13.2369
1998-03-30,13.146
1998-03-31,13.443
1998-04-01,13.3567
1998-04-02,13.4765
1998-04-03,13.4142
1998-04-06,13.3854
1998-04-07,13.2034
1998-04-08,13.1172
1998-04-09,13.1172
1998-04-13,13.0261
1998-04-14,13.1746
1998-04-15,12.9975
1998-04-16,12.7866
1998-04-17,13.0261
1998-04-20,12.8441
1998-04-21,12.8776
1998-04-22,12.8776
1998-04-23,12.6956
1998-04-24,12.7579
1998-04-27,12.4848
1998-04-28,12.6008
1998-04-29,12.5428
1998-04-30,12.9635
1998-05-01,12.8426
1998-05-04,12.5719
1998-05-05,12.48
1998-05-06,12.5138
1998-05-07,12.5719
1998-05-08,12.7218
1998-05-11,12.7218
1998-05-12,12.6347
1998-05-13,12.5138
1998-05-14,12.5719
1998-05-15,12.7556
1998-05-18,12.5719
1998-05-19,12.48
1998-05-20,12.7846
1998-05-21,12.7556
1998-05-22,12.7846
1998-05-26,12.6008
1998-05-27,12.6347
1998-05-28,12.7846
1998-05-29,12.9635
1998-06-01,13.389
1998-06-02,13.5098
1998-06-03,13.389
1998-06-04,13.4471
1998-06-05,13.5389
1998-06-08,13.5098
1998-06-09,13.6017
1998-06-10,13.6017
1998-06-11,13.6597
1998-06-12,13.6308
1998-06-15,13.5098
1998-06-16,13.5389
1998-06-17,13.418
1998-06-18,13.4809
1998-06-19,13.389
1998-06-22,13.4471
1998-06-23,13.4471
1998-06-24,13.418
1998-06-25,13.2681
1998-06-26,13.3261
1998-06-29,13.5098
1998-06-30,13.5679
1998-07-01,13.6308
1998-07-02,13.6888
1998-07-06,13.8096
1998-07-07,13.8096
1998-07-08,13.7516
1998-07-09,13.7226
1998-07-10,13.6597
1998-07-13,13.6308
1998-07-14,13.6308
1998-07-15,13.6017
1998-07-16,13.5389
1998-07-17,13.5389
1998-07-20,13.5679
1998-07-21,13.5098
1998-07-22,13.6888
1998-07-23,13.5679
1998-07-24,13.5679
1998-07-27,13.6888
1998-07-28,13.5389
1998-07-29,13.505
1998-07-30,13.4416
1998-07-31,13.0466
1998-08-03,13.1392
1998-08-04,13.0466
1998-08-05,13.0758
1998-08-06,13.2904
1998-08-07,13.3831
1998-08-10,13.2904
1998-08-11,13.2611
1998-08-12,13.7196
1998-08-13,13.5635
1998-08-14,13.6269
1998-08-17,13.7781
1998-08-18,13.7781
1998-08-19,13.6562
1998-08-20,13.7488
1998-08-21,14.0513
1998-08-24,14.2366
1998-08-25,14.144
1998-08-26,14.2952
1998-08-27,14.0854
1998-08-28,14.2659
1998-08-31,14.2952
1998-09-01,14.2074
1998-09-02,13.9928
1998-09-03,13.9928
1998-09-04,13.9928
1998-09-08,14.0513
1998-09-09,14.0513
1998-09-10,14.0513
1998-09-11,14.1732
1998-09-14,14.2952
1998-09-15,14.4805
1998-09-16,14.539
1998-09-17,14.4171
1998-09-18,14.6024
1998-09-21,14.6609
1998-09-22,14.6609
1998-09-23,15.0901
1998-09-24,14.9389
1998-09-25,15.1827
1998-09-28,15.3925
1998-09-29,15.5779
1998-09-30,16.0363
1998-10-01,15.6998
1998-10-02,15.8217
1998-10-05,16.0948
1998-10-06,16.1875
1998-10-07,16.246
1998-10-08,16.3679
1998-10-09,15.6705
1998-10-12,15.1827
1998-10-13,15.1827
1998-10-14,15.6705
1998-10-15,15.9144
1998-10-16,15.2705
1998-10-19,15.1827
1998-10-20,14.9974
1998-10-21,14.9682
1998-10-22,14.9974
1998-10-23,14.8462
1998-10-26,14.7828
1998-10-27,14.9682
1998-10-28,14.8697
1998-10-29,14.7762
1998-10-30,14.7173
1998-11-02,14.5649
1998-11-03,14.4714
1998-11-04,14.2552
1998-11-05,14.3486
1998-11-06,14.2552
1998-11-09,14.1618
1998-11-10,14.3191
1998-11-11,14.3486
1998-11-12,14.442
1998-11-13,14.4714
1998-11-16,14.7762
1998-11-17,15.0565
1998-11-18,15.022
1998-11-19,14.8991
1998-11-20,14.963
1998-11-23,15.0565
1998-11-24,14.9335
1998-11-25,14.8697
1998-11-27,14.8402
1998-11-30,14.4076
1998-12-01,14.5649
1998-12-02,14.5649
1998-12-03,14.5944
1998-12-04,14.8402
1998-12-07,14.9335
1998-12-08,14.8697
1998-12-09,14.8991
1998-12-10,14.7467
1998-12-11,14.7173
1998-12-14,14.5649
1998-12-15,14.4076
1998-12-16,14.442
1998-12-17,14.7467
1998-12-18,14.7467
1998-12-21,14.8402
1998-12-22,14.8402
1998-12-23,14.7762
1998-12-24,14.6534
1998-12-28,14.5944
1998-12-29,14.6534
1998-12-30,14.6878
1998-12-31,14.9335
1999-01-04,14.9926
1999-01-05,14.8991
1999-01-06,14.8106
1999-01-07,14.6878
1999-01-08,14.6238
1999-01-11,14.3191
1999-01-12,14.3486
1999-01-13,14.3781
1999-01-14,14.3781
1999-01-15,14.3486
1999-01-19,14.0733
1999-01-20,13.8275
1999-01-21,14.1028
1999-01-22,13.9799
1999-01-25,13.9799
1999-01-26,13.8571
1999-01-27,13.5472
1999-01-28,13.6415
1999-01-29,13.5175
1999-02-01,13.21
1999-02-02,12.9917
1999-02-03,13.3935
1999-02-04,13.1455
1999-02-05,13.1752
1999-02-08,13.21
1999-02-09,13.0512
1999-02-10,13.1455
1999-02-11,13.334
1999-02-12,13.0215
1999-02-16,13.0859
1999-02-17,13.1157
1999-02-18,13.21
1999-02-19,13.21
1999-02-22,13.0859
1999-02-23,12.8379
1999-02-24,12.9917
1999-02-25,12.9619
1999-02-26,12.8975
1999-03-01,12.8032
1999-03-02,13.3637
1999-03-03,13.7061
1999-03-04,13.7061
1999-03-05,14.0136
1999-03-08,13.8598
1999-03-09,13.7358
1999-03-10,13.7358
1999-03-11,13.6117
1999-03-12,13.7061
1999-03-15,13.6117
1999-03-16,13.6415
1999-03-17,13.6415
1999-03-18,13.7656
1999-03-19,13.7061
1999-03-22,13.6117
1999-03-23,13.6714
1999-03-24,14.4154
1999-03-25,14.1674
1999-03-26,14.0434
1999-03-29,14.0434
1999-03-30,13.8598
1999-03-31,13.4232
1999-04-01,13.7358
1999-04-05,13.582
1999-04-06,13.6117
1999-04-07,13.2992
1999-04-08,13.582
1999-04-09,13.5472
1999-04-12,13.6117
1999-04-13,13.4232
1999-04-14,13.2992
1999-04-15,13.2695
1999-04-16,13.2992
1999-04-19,13.6117
1999-04-20,13.7954
1999-04-21,13.582
1999-04-22,13.4877
1999-04-23,13.3637
1999-04-26,13.21
1999-04-27,13.582
1999-04-28,13.7097
1999-04-29,13.895
1999-04-30,13.6746
1999-05-03,13.8349
1999-05-04,13.7698
1999-05-05,13.7398
1999-05-06,13.5845
1999-05-07,13.4594
1999-05-10,13.5195
1999-05-11,13.4594
1999-05-12,13.4594
1999-05-13,13.5195
1999-05-14,13.3342
1999-05-17,13.6146
1999-05-18,13.6146
1999-05-19,13.8349
1999-05-20,13.895
1999-05-21,13.895
1999-05-24,13.895
1999-05-25,14.0202
1999-05-26,14.0202
1999-05-27,13.8649
1999-05-28,14.0202
1999-06-01,13.895
1999-06-02,13.96
1999-06-03,14.0202
1999-06-04,14.0852
1999-06-07,13.7998
1999-06-08,13.7398
1999-06-09,13.895
1999-06-10,13.8349
1999-06-11,13.7998
1999-06-14,13.7698
1999-06-15,13.7097
1999-06-16,13.8349
1999-06-17,13.7998
1999-06-18,13.7097
1999-06-21,13.7097
1999-06-22,13.7398
1999-06-23,13.6746
1999-06-24,13.4894
1999-06-25,13.4594
1999-06-28,13.4243
1999-06-29,13.3642
1999-06-30,12.9235
1999-07-01,13.209
1999-07-02,13.239
1999-07-06,13.1138
1999-07-07,13.1439
1999-07-08,13.1739
1999-07-09,13.3642
1999-07-12,13.209
1999-07-13,13.1739
1999-07-14,13.2691
1999-07-15,13.2691
1999-07-16,13.1739
1999-07-19,13.239
1999-07-20,13.2691
1999-07-21,13.3342
1999-07-22,13.3342
1999-07-23,13.3642
1999-07-26,13.2991
1999-07-27,13.239
1999-07-28,13.0846
1999-07-29,12.7964
1999-07-30,13.1149
1999-08-02,12.7964
1999-08-03,12.9582
1999-08-04,12.9228
1999-08-05,12.9582
1999-08-06,12.9228
1999-08-09,12.5132
1999-08-10,12.3868
1999-08-11,12.3868
1999-08-12,12.3868
1999-08-13,12.4172
1999-08-16,12.3868
1999-08-17,12.3261
1999-08-18,12.2908
1999-08-19,12.2908
1999-08-20,12.7054
1999-08-23,12.4829
1999-08-24,12.579
1999-08-25,12.6396
1999-08-26,12.67
1999-08-27,12.4829
1999-08-30,12.1997
1999-08-31,12.0734
1999-09-01,12.2605
1999-09-02,12.1997
1999-09-03,12.4526
1999-09-07,12.2605
1999-09-08,12.0077
1999-09-09,12.038
1999-09-10,12.1997
1999-09-13,12.1037
1999-09-14,11.8509
1999-09-15,11.7549
1999-09-16,11.8509
1999-09-17,11.9116
1999-09-20,12.1341
1999-09-21,11.9773
1999-09-22,11.7852
1999-09-23,11.4718
1999-09-24,11.315
1999-09-27,11.4414
1999-09-28,10.9965
1999-09-29,11.0623
1999-09-30,11.2796
1999-10-01,11.2796
1999-10-04,11.5982
1999-10-05,11.1532
1999-10-06,11.2493
1999-10-07,10.9358
1999-10-08,10.8094
1999-10-11,10.7741
1999-10-12,10.8094
1999-10-13,10.8094
1999-10-14,10.9358
1999-10-15,10.9358
1999-10-18,10.6173
1999-10-19,10.4302
1999-10-20,10.3948
1999-10-21,9.85892
1999-10-22,10.0814
1999-10-25,10.2684
1999-10-26,10.1775
1999-10-27,10.4663
1999-10-28,10.5278
1999-10-29,10.5637
1999-11-01,10.6558
1999-11-02,10.6917
1999-11-03,10.5637
1999-11-04,10.7531
1999-11-05,10.7839
1999-11-08,10.7531
1999-11-09,10.5944
1999-11-10,10.4357
1999-11-11,10.241
1999-11-12,10.2718
1999-11-15,10.3691
1999-11-16,10.3384
1999-11-17,10.2718
1999-11-18,10.1131
1999-11-19,10.1438
1999-11-22,9.98509
1999-11-23,9.82631
1999-11-24,9.72902
1999-11-26,9.60101
1999-11-29,9.3757
1999-11-30,9.63173
1999-12-01,9.6983
1999-12-02,9.75975
1999-12-03,9.66758
1999-12-06,9.47299
1999-12-07,9.53956
1999-12-08,9.31426
1999-12-09,9.02751
1999-12-10,9.08896
1999-12-13,8.70492
1999-12-14,8.80221
1999-12-15,8.83293
1999-12-16,8.6742
1999-12-17,8.51546
1999-12-20,8.51546
1999-12-21,9.05824
1999-12-22,9.02751
1999-12-23,9.11968
1999-12-27,9.11968
1999-12-28,9.18625
1999-12-29,9.21697
1999-12-30,9.21697
1999-12-31,9.15552
2000-01-03,9.02751
2000-01-04,9.15552
2000-01-05,9.50372
2000-01-06,9.44227
2000-01-07,9.41155
2000-01-10,9.63173
2000-01-11,9.3757
2000-01-12,9.41155
2000-01-13,9.44227
2000-01-14,9.28353
2000-01-18,8.96095
2000-01-19,9.18625
2000-01-20,9.28353
2000-01-21,10.1438
2000-01-24,10.8811
2000-01-25,10.1131
2000-01-26,9.95434
2000-01-27,9.934
2000-01-28,9.54456
2000-01-31,9.57572
2000-02-01,9.76786
2000-02-02,9.60688
2000-02-03,9.89768
2000-02-04,9.76786
2000-02-07,9.34723
2000-02-08,9.28492
2000-02-09,9.28492
2000-02-10,9.15509
2000-02-11,9.08758
2000-02-14,9.02527
2000-02-15,9.11874
2000-02-16,9.08758
2000-02-17,8.79678
2000-02-18,8.66696
2000-02-22,8.69812
2000-02-23,8.50598
2000-02-24,8.20998
2000-02-25,8.08016
2000-02-28,6.8806
2000-02-29,6.71962
2000-03-01,6.75078
2000-03-02,6.68847
2000-03-03,6.91176
2000-03-06,6.94811
2000-03-07,7.07794
2000-03-08,7.27007
2000-03-09,7.4674
2000-03-10,7.62839
2000-03-13,7.65954
2000-03-14,7.78937
2000-03-15,8.20998
2000-03-16,8.37616
2000-03-17,8.30865
2000-03-20,8.24633
2000-03-21,8.27749
2000-03-22,8.17882
2000-03-23,8.17882
2000-03-24,8.30865
2000-03-27,8.30865
2000-03-28,8.20998
2000-03-29,8.50598
2000-03-30,8.53714
2000-03-31,8.66696
2000-04-03,8.53714
2000-04-04,8.59945
2000-04-05,8.82794
2000-04-06,8.79678
2000-04-07,8.66696
2000-04-10,8.56829
2000-04-11,8.66696
2000-04-12,8.95776
2000-04-13,9.05643
2000-04-14,8.98892
2000-04-17,9.05643
2000-04-18,8.98892
2000-04-19,8.79678
2000-04-20,8.95776
2000-04-24,9.15509
2000-04-25,9.4459
2000-04-26,9.85179
2000-04-27,9.88342
2000-04-28,9.75164
2000-05-01,9.65148
2000-05-02,9.45646
2000-05-03,9.42483
2000-05-04,9.51971
2000-05-05,9.25615
2000-05-08,9.68839
2000-05-09,9.58823
2000-05-10,9.45646
2000-05-11,9.68839
2000-05-12,9.58823
2000-05-15,9.58823
2000-05-16,9.51971
2000-05-17,9.1929
2000-05-18,9.09274
2000-05-19,8.86082
2000-05-22,8.86082
2000-05-23,9.5566
2000-05-24,9.61986
2000-05-25,9.42483
2000-05-26,9.51971
2000-05-30,9.45646
2000-05-31,9.5566
2000-06-01,9.51971
2000-06-02,9.3563
2000-06-05,9.32467
2000-06-06,9.48808
2000-06-07,9.42483
2000-06-08,9.3563
2000-06-09,9.48808
2000-06-12,9.51971
2000-06-13,9.72002
2000-06-14,9.61986
2000-06-15,9.68839
2000-06-16,9.75164
2000-06-19,9.68839
2000-06-20,9.65148
2000-06-21,9.78327
2000-06-22,9.72002
2000-06-23,9.85179
2000-06-26,9.95196
2000-06-27,9.95196
2000-06-28,10.0468
2000-06-29,10.0468
2000-06-30,9.82016
2000-07-03,9.91504
2000-07-05,9.78327
2000-07-06,9.85179
2000-07-07,9.85179
2000-07-10,10.0468
2000-07-11,10.0837
2000-07-12,9.9836
2000-07-13,9.9836
2000-07-14,10.479
2000-07-17,10.6424
2000-07-18,10.7426
2000-07-19,10.5423
2000-07-20,10.7426
2000-07-21,10.6424
2000-07-24,10.5423
2000-07-25,10.7057
2000-07-26,10.6109
2000-07-27,10.6531
2000-07-28,10.5517
2000-07-31,10.3861
2000-08-01,10.4181
2000-08-02,10.5196
2000-08-03,10.8188
2000-08-04,10.6852
2000-08-07,10.8188
2000-08-08,10.8883
2000-08-09,10.9844
2000-08-10,11.0218
2000-08-11,11.321
2000-08-14,11.3851
2000-08-15,11.7217
2000-08-16,11.7217
2000-08-17,11.6896
2000-08-18,11.7858
2000-08-21,11.8553
2000-08-22,11.8232
2000-08-23,12.2239
2000-08-24,12.4216
2000-08-25,12.5231
2000-08-28,12.7582
2000-08-29,12.7582
2000-08-30,12.8223
2000-08-31,12.7902
2000-09-01,12.8543
2000-09-05,13.1909
2000-09-06,13.1909
2000-09-07,13.2229
2000-09-08,13.5916
2000-09-11,13.7893
2000-09-12,13.9228
2000-09-13,14.1259
2000-09-14,13.7893
2000-09-15,13.4901
2000-09-18,13.2229
2000-09-19,12.7208
2000-09-20,12.5551
2000-09-21,12.4216
2000-09-22,12.6246
2000-09-25,12.8223
2000-09-26,13.1215
2000-09-27,13.255
2000-09-28,13.1909
2000-09-29,13.1215
2000-10-02,13.0574
2000-10-03,12.8917
2000-10-04,12.6246
2000-10-05,12.9879
2000-10-06,13.8908
2000-10-09,13.5595
2000-10-10,13.5595
2000-10-11,13.3886
2000-10-12,13.1215
2000-10-13,13.0894
2000-10-16,13.0253
2000-10-17,12.9879
2000-10-18,12.6567
2000-10-19,12.8223
2000-10-20,12.8543
2000-10-23,13.0253
2000-10-24,12.8543
2000-10-25,12.8223
2000-10-26,12.8223
2000-10-27,12.9357
2000-10-30,12.9033
2000-10-31,13.4437
2000-11-01,13.3734
2000-11-02,13.341
2000-11-03,13.2059
2000-11-06,13.341
2000-11-07,13.3086
2000-11-08,13.1735
2000-11-09,12.9682
2000-11-10,13.0709
2000-11-13,13.2383
2000-11-14,13.3734
2000-11-15,13.4059
2000-11-16,13.4059
2000-11-17,13.3734
2000-11-20,13.9462
2000-11-21,13.5788
2000-11-22,13.4761
2000-11-24,13.4761
2000-11-27,13.2708
2000-11-28,13.4761
2000-11-29,13.7787
2000-11-30,13.7138
2000-12-01,14.1839
2000-12-04,14.3191
2000-12-05,14.4216
2000-12-06,14.4865
2000-12-07,14.8918
2000-12-08,14.9296
2000-12-11,15.0971
2000-12-12,15.1296
2000-12-13,14.962
2000-12-14,14.9945
2000-12-15,14.962
2000-12-18,15.9076
2000-12-19,15.7725
2000-12-20,16.1075
2000-12-21,15.9724
2000-12-22,16.2427
2000-12-26,16.9883
2000-12-27,16.6479
2000-12-28,16.7829
2000-12-29,16.6155
2001-01-02,16.2804
2001-01-03,15.805
2001-01-04,14.6919
2001-01-05,15.0971
2001-01-08,15.5024
2001-01-09,15.1296
2001-01-10,15.0971
2001-01-11,14.7567
2001-01-12,14.8269
2001-01-16,14.5892
2001-01-17,14.7567
2001-01-18,14.7243
2001-01-19,14.7243
2001-01-22,14.8269
2001-01-23,15.0971
2001-01-24,15.1296
2001-01-25,14.8269
2001-01-26,14.6594
2001-01-29,14.8448
2001-01-30,14.7246
2001-01-31,14.681
2001-02-01,14.4461
2001-02-02,14.1347
2001-02-05,14.5444
2001-02-06,14.741
2001-02-07,14.5772
2001-02-08,14.9322
2001-02-09,15.1616
2001-02-12,15.1671
2001-02-13,15.3692
2001-02-14,15.3582
2001-02-15,15.3582
2001-02-16,15.6367
2001-02-20,15.2216
2001-02-21,15.2654
2001-02-22,15.2162
2001-02-23,15.0578
2001-02-26,15.2107
2001-02-27,15.4073
2001-02-28,15.6367
2001-03-01,15.7077
2001-03-02,15.8388
2001-03-05,16.0463
2001-03-06,16.0737
2001-03-07,15.6859
2001-03-08,15.948
2001-03-09,15.8388
2001-03-12,16.03
2001-03-13,16.0682
2001-03-14,16.0027
2001-03-15,16.1283
2001-03-16,16.1501
2001-03-19,16.2048
2001-03-20,16.2758
2001-03-21,16.1283
2001-03-22,15.6914
2001-03-23,15.8279
2001-03-26,16.3249
2001-03-27,16.2211
2001-03-28,16.2867
2001-03-29,16.3796
2001-03-30,16.9803
2001-04-02,17.1168
2001-04-03,17.0076
2001-04-04,16.9694
2001-04-05,17.2042
2001-04-06,16.6909
2001-04-09,17.3244
2001-04-10,17.5811
2001-04-11,17.095
2001-04-12,16.942
2001-04-16,16.6471
2001-04-17,17.0622
2001-04-18,17.2042
2001-04-19,16.7127
2001-04-20,16.3905
2001-04-23,16.4123
2001-04-24,16.3905
2001-04-25,16.3796
2001-04-26,16.3246
2001-04-27,16.0654
2001-04-30,16.3798
2001-05-01,16.5838
2001-05-02,16.2694
2001-05-03,16.1923
2001-05-04,16.3522
2001-05-07,16.2474
2001-05-08,16.3246
2001-05-09,16.8265
2001-05-10,16.683
2001-05-11,16.661
2001-05-14,16.639
2001-05-15,16.5452
2001-05-16,16.5452
2001-05-17,16.5562
2001-05-18,16.7603
2001-05-21,16.9478
2001-05-22,16.9644
2001-05-23,17.0691
2001-05-24,17.0415
2001-05-25,16.7437
2001-05-29,16.7989
2001-05-30,16.9974
2001-05-31,17.2622
2001-06-01,17.1133
2001-06-04,17.1573
2001-06-05,17.1077
2001-06-06,16.3577
2001-06-07,16.0212
2001-06-08,16.0323
2001-06-11,16.0544
2001-06-12,16.275
2001-06-13,16.093
2001-06-14,15.6738
2001-06-15,15.7951
2001-06-18,15.7069
2001-06-19,15.4697
2001-06-20,15.4973
2001-06-21,15.0837
2001-06-22,14.9293
2001-06-25,14.819
2001-06-26,14.9017
2001-06-27,14.9789
2001-06-28,14.9954
2001-06-29,15.0837
2001-07-02,15.1665
2001-07-03,15.0892
2001-07-05,15.4367
2001-07-06,15.5856
2001-07-09,15.4036
2001-07-10,15.1609
2001-07-11,14.6922
2001-07-12,14.433
2001-07-13,14.3116
2001-07-16,14.4164
2001-07-17,14.0854
2001-07-18,13.6333
2001-07-19,13.8428
2001-07-20,13.9531
2001-07-23,13.6774
2001-07-24,13.3189
2001-07-25,14.1517
2001-07-26,14.6204
2001-07-27,14.5368
2001-07-30,14.5591
2001-07-31,14.693
2001-08-01,14.3919
2001-08-02,14.9997
2001-08-03,15.1112
2001-08-06,14.587
2001-08-07,14.5815
2001-08-08,14.2246
2001-08-09,14.1577
2001-08-10,14.0517
2001-08-13,13.9904
2001-08-14,14.0015
2001-08-15,14.0963
2001-08-16,14.2246
2001-08-17,14.1577
2001-08-20,14.3528
2001-08-21,14.2023
2001-08-22,14.3528
2001-08-23,14.5145
2001-08-24,14.6093
2001-08-27,14.403
2001-08-28,14.364
2001-08-29,14.2134
2001-08-30,14.0796
2001-08-31,14.1187
2001-09-04,14.219
2001-09-05,14.1521
2001-09-06,14.0517
2001-09-07,13.9402
2001-09-10,13.6725
2001-09-17,13.5555
2001-09-18,13.6336
2001-09-19,13.4272
2001-09-20,13.377
2001-09-21,13.1428
2001-09-24,13.1038
2001-09-25,13.0202
2001-09-26,12.5517
2001-09-27,12.4904
2001-09-28,12.9923
2001-10-01,12.9365
2001-10-02,13.2153
2001-10-03,13.2655
2001-10-04,13.2823
2001-10-05,13.5666
2001-10-08,13.2321
2001-10-09,12.9979
2001-10-10,13.2934
2001-10-11,13.26
2001-10-12,12.9811
2001-10-15,13.1206
2001-10-16,13.3491
2001-10-17,13.1874
2001-10-18,12.97
2001-10-19,13.1596
2001-10-22,13.2655
2001-10-23,12.7859
2001-10-24,12.6298
2001-10-25,12.8863
2001-10-26,12.8194
2001-10-29,13.0271
2001-10-30,13.0892
2001-10-31,13.4055
2001-11-01,12.5077
2001-11-02,10.9492
2001-11-05,11.3218
2001-11-06,11.367
2001-11-07,11.5025
2001-11-08,11.7509
2001-11-09,11.5477
2001-11-12,11.7623
2001-11-13,11.3895
2001-11-14,11.5759
2001-11-15,11.4348
2001-11-16,11.288
2001-11-19,11.3274
2001-11-20,11.5816
2001-11-21,11.7453
2001-11-23,11.926
2001-11-26,12.2366
2001-11-27,11.9599
2001-11-28,11.8526
2001-11-29,11.8978
2001-11-30,11.813
2001-12-03,11.8978
2001-12-04,12.0785
2001-12-05,12.1688
2001-12-06,12.31
2001-12-07,12.4343
2001-12-10,12.2592
2001-12-11,12.1406
2001-12-12,12.3439
2001-12-13,12.2479
2001-12-14,12.3382
2001-12-17,12.2705
2001-12-18,12.2197
2001-12-19,12.7674
2001-12-20,12.7448
2001-12-21,12.8295
2001-12-24,13.0441
2001-12-26,13.0271
2001-12-27,13.1571
2001-12-28,13.1571
2001-12-31,13.0159
2002-01-02,13.2474
2002-01-03,13.3603
2002-01-04,13.6031
2002-01-07,13.4959
2002-01-08,13.3038
2002-01-09,13.0667
2002-01-10,13.1005
2002-01-11,12.965
2002-01-14,12.8578
2002-01-15,12.8746
2002-01-16,12.7335
2002-01-17,12.6714
2002-01-18,12.5641
2002-01-22,12.3213
2002-01-23,12.1632
2002-01-24,11.8583
2002-01-25,11.9034
2002-01-28,11.8018
2002-01-29,11.5785
2002-01-30,11.6644
2002-01-31,11.8763
2002-02-01,11.8877
2002-02-04,11.5957
2002-02-05,11.4354
2002-02-06,11.1662
2002-02-07,10.9945
2002-02-08,11.2579
2002-02-11,11.4926
2002-02-12,11.464
2002-02-13,11.6072
2002-02-14,11.5442
2002-02-15,11.6473
2002-02-19,11.3724
2002-02-20,11.6816
2002-02-21,11.6874
2002-02-22,11.8648
2002-02-25,11.7274
2002-02-26,11.8706
2002-02-27,11.9507
2002-02-28,12.0252
2002-03-01,12.237
2002-03-04,12.5921
2002-03-05,12.804
2002-03-06,13.0387
2002-03-07,12.9242
2002-03-08,12.9472
2002-03-11,13.2506
2002-03-12,13.199
2002-03-13,13.1647
2002-03-14,13.0559
2002-03-15,12.9986
2002-03-18,12.9528
2002-03-19,13.2163
2002-03-20,13.2564
2002-03-21,13.4339
2002-03-22,13.5484
2002-03-25,13.4109
2002-03-26,13.3136
2002-03-27,13.2506
2002-03-28,13.1533
2002-04-01,13.0387
2002-04-02,13.3136
2002-04-03,13.1361
2002-04-04,12.9185
2002-04-05,12.9071
2002-04-08,12.8326
2002-04-09,12.5863
2002-04-10,12.9013
2002-04-11,12.6035
2002-04-12,12.7181
2002-04-15,12.7238
2002-04-16,12.9986
2002-04-17,13.0559
2002-04-18,12.9643
2002-04-19,13.0216
2002-04-22,12.9757
2002-04-23,13.1934
2002-04-24,12.8899
2002-04-25,12.8212
2002-04-26,12.659
2002-04-29,12.7808
2002-04-30,12.8504
2002-05-01,13.036
2002-05-02,13.1289
2002-05-03,13.0882
2002-05-06,13.1405
2002-05-07,13.2333
2002-05-08,13.4596
2002-05-09,13.3493
2002-05-10,13.3319
2002-05-13,13.4422
2002-05-14,13.4074
2002-05-15,13.4363
2002-05-16,13.4015
2002-05-17,13.4944
2002-05-20,13.5872
2002-05-21,13.8134
2002-05-22,14.1615
2002-05-23,14.3704
2002-05-24,14.4516
2002-05-28,14.208
2002-05-29,14.1151
2002-05-30,14.1326
2002-05-31,14.121
2002-06-03,13.5872
2002-06-04,13.68
2002-06-05,13.6046
2002-06-06,13.419
2002-06-07,13.6974
2002-06-10,13.6162
2002-06-11,13.5814
2002-06-12,13.5292
2002-06-13,13.4538
2002-06-14,13.2391
2002-06-17,13.5524
2002-06-18,13.7091
2002-06-19,13.4306
2002-06-20,13.4074
2002-06-21,12.9374
2002-06-24,12.572
2002-06-25,12.4153
2002-06-26,12.2122
2002-06-27,12.3225
2002-06-28,12.6358
2002-07-01,12.5081
2002-07-02,12.3805
2002-07-03,11.9163
2002-07-05,12.2006
2002-07-08,12.0846
2002-07-09,11.6959
2002-07-10,11.255
2002-07-11,11.7017
2002-07-12,11.5335
2002-07-15,11.986
2002-07-16,11.4116
2002-07-17,11.3362
2002-07-18,11.1679
2002-07-19,10.8778
2002-07-22,10.7154
2002-07-23,10.2107
2002-07-24,10.9011
2002-07-25,11.1389
2002-07-26,11.0752
2002-07-29,11.1811
2002-07-30,11.5699
2002-07-31,11.6405
2002-08-01,11.2871
2002-08-02,11.3755
2002-08-05,11.3283
2002-08-06,11.4226
2002-08-07,11.5639
2002-08-08,11.6229
2002-08-09,11.4285
2002-08-12,11.4874
2002-08-13,11.2577
2002-08-14,11.5581
2002-08-15,11.9292
2002-08-16,11.4108
2002-08-19,11.6465
2002-08-20,11.6995
2002-08-21,12.0529
2002-08-22,11.9999
2002-08-23,11.8468
2002-08-26,12.0529
2002-08-27,11.835
2002-08-28,11.835
2002-08-29,11.8173
2002-08-30,11.7289
2002-09-03,11.2812
2002-09-04,11.3401
2002-09-05,11.3519
2002-09-06,11.3931
2002-09-09,11.2341
2002-09-10,10.9867
2002-09-11,11.1693
2002-09-12,10.7216
2002-09-13,10.969
2002-09-16,10.7805
2002-09-17,10.3563
2002-09-18,10.8393
2002-09-19,10.698
2002-09-20,10.321
2002-09-23,10.1973
2002-09-24,9.92626
2002-09-25,10.0618
2002-09-26,10.4624
2002-09-27,10.2208
2002-09-30,10.1266
2002-10-01,10.0441
2002-10-02,10.1089
2002-10-03,9.97338
2002-10-04,9.63764
2002-10-07,9.41378
2002-10-08,9.36075
2002-10-09,8.65384
2002-10-10,9.32541
2002-10-11,10.0383
2002-10-14,9.87327
2002-10-15,9.49625
2002-10-16,8.97195
2002-10-17,8.71275
2002-10-18,8.98963
2002-10-21,9.49625
2002-10-22,9.5257
2002-10-23,9.82614
2002-10-24,9.71421
2002-10-25,9.68476
2002-10-28,9.99104
2002-10-29,9.9964
2002-10-30,10.0863
2002-10-31,9.91847
2002-11-01,9.95444
2002-11-04,10.6257
2002-11-05,10.6377
2002-11-06,10.9193
2002-11-07,10.7995
2002-11-08,10.8414
2002-11-11,10.8474
2002-11-12,10.7814
2002-11-13,10.9672
2002-11-14,11.0871
2002-11-15,11.2429
2002-11-18,11.0571
2002-11-19,11.0691
2002-11-20,11.0752
2002-11-21,11.2609
2002-11-22,11.5186
2002-11-25,11.6625
2002-11-26,11.3628
2002-11-27,11.6205
2002-11-29,11.6804
2002-12-02,11.6205
2002-12-03,11.4407
2002-12-04,11.213
2002-12-05,11.2549
2002-12-06,11.3089
2002-12-09,11.3208
2002-12-10,11.3568
2002-12-11,11.4167
2002-12-12,11.4467
2002-12-13,11.6325
2002-12-16,11.8063
2002-12-17,12.07
2002-12-18,11.992
2002-12-19,11.9321
2002-12-20,11.992
2002-12-23,12.1898
2002-12-24,11.9501
2002-12-26,12.0759
2002-12-27,11.9381
2002-12-30,11.8962
2002-12-31,11.9561
2003-01-02,12.2738
2003-01-03,12.3217
2003-01-06,12.7592
2003-01-07,12.2977
2003-01-08,12.4415
2003-01-09,12.5613
2003-01-10,12.5854
2003-01-13,12.4715
2003-01-14,12.4056
2003-01-15,12.3816
2003-01-16,12.3636
2003-01-17,12.2738
2003-01-21,12.1839
2003-01-22,12.07
2003-01-23,12.016
2003-01-24,11.7344
2003-01-27,11.2669
2003-01-28,11.6564
2003-01-29,11.012
2003-01-30,10.8903
2003-01-31,10.8112
2003-02-03,10.9451
2003-02-04,10.9329
2003-02-05,10.8356
2003-02-06,10.8294
2003-02-07,10.7078
2003-02-10,10.6895
2003-02-11,10.6287
2003-02-12,10.3792
2003-02-13,10.5192
2003-02-14,10.7017
2003-02-18,10.7991
2003-02-19,10.7626
2003-02-20,10.7929
2003-02-21,10.9207
2003-02-24,10.6895
2003-02-25,10.6348
2003-02-26,10.3184
2003-02-27,10.3427
2003-02-28,10.3306
2003-03-03,10.361
2003-03-04,10.2576
2003-03-05,10.2819
2003-03-06,10.3489
2003-03-07,10.2454
2003-03-10,10.1116
2003-03-11,10.0325
2003-03-12,10.1663
2003-03-13,10.2941
2003-03-14,10.1906
2003-03-17,10.7078
2003-03-18,10.8599
2003-03-19,10.8538
2003-03-20,10.8781
2003-03-21,11.091
2003-03-24,10.8051
2003-03-25,11.091
2003-03-26,11.1215
2003-03-27,11.2493
2003-03-28,11.2615
2003-03-31,11.0729
2003-04-01,11.3345
2003-04-02,11.225
2003-04-03,11.3162
2003-04-04,11.5048
2003-04-07,11.6326
2003-04-08,11.5474
2003-04-09,11.2736
2003-04-10,11.3466
2003-04-11,11.298
2003-04-14,11.5169
2003-04-15,11.6691
2003-04-16,11.6082
2003-04-17,11.6386
2003-04-21,11.6569
2003-04-22,11.9124
2003-04-23,11.9672
2003-04-24,12.0158
2003-04-25,11.949
2003-04-28,12.0414
2003-04-29,11.8192
2003-04-30,11.6524
2003-05-01,11.7574
2003-05-02,11.6833
2003-05-05,11.7698
2003-05-06,11.9859
2003-05-07,11.8562
2003-05-08,11.7759
2003-05-09,11.8871
2003-05-12,11.8562
2003-05-13,11.7018
2003-05-14,11.461
2003-05-15,11.2819
2003-05-16,11.3931
2003-05-19,11.1769
2003-05-20,11.1955
2003-05-21,11.1028
2003-05-22,11.2449
2003-05-23,12.0847
2003-05-27,12.307
2003-05-28,12.2082
2003-05-29,12.0106
2003-05-30,12.1032
2003-06-02,12.3008
2003-06-03,12.4305
2003-06-04,12.5787
2003-06-05,12.5849
2003-06-06,12.5293
2003-06-09,12.4428
2003-06-10,12.3811
2003-06-11,12.4366
2003-06-12,12.4058
2003-06-13,12.1341
2003-06-16,12.449
2003-06-17,12.5787
2003-06-18,12.3749
2003-06-19,12.3502
2003-06-20,12.1712
2003-06-23,11.9736
2003-06-24,11.9179
2003-06-25,11.8685
2003-06-26,11.9118
2003-06-27,11.7512
2003-06-30,11.7574
2003-07-01,11.9736
2003-07-02,12.1155
2003-07-03,12.1773
2003-07-07,11.9426
2003-07-08,11.7388
2003-07-09,12.2884
2003-07-10,12.2637
2003-07-11,12.344
2003-07-14,12.2267
2003-07-15,12.1341
2003-07-16,11.9983
2003-07-17,11.9303
2003-07-18,11.9736
2003-07-21,11.8685
2003-07-22,11.9426
2003-07-23,11.8809
2003-07-24,11.8871
2003-07-25,11.9365
2003-07-28,11.9179
2003-07-29,11.8619
2003-07-30,12.1125
2003-07-31,12.0749
2003-08-01,12.0373
2003-08-04,12.1
2003-08-05,11.7992
2003-08-06,11.7552
2003-08-07,11.8368
2003-08-08,11.9182
2003-08-11,11.8242
2003-08-12,11.9495
2003-08-13,11.9872
2003-08-14,12.0812
2003-08-15,12.1565
2003-08-18,12.0749
2003-08-19,12.0248
2003-08-20,12.1752
2003-08-21,12.1189
2003-08-22,11.8806
2003-08-25,11.8806
2003-08-26,11.9308
2003-08-27,11.9684
2003-08-28,12.0812
2003-08-29,12.1125
2003-09-02,12.2254
2003-09-03,12.2881
2003-09-04,12.2379
2003-09-05,12.3195
2003-09-08,12.3884
2003-09-09,12.2317
2003-09-10,12.1941
2003-09-11,12.2379
2003-09-12,12.2443
2003-09-15,12.0498
2003-09-16,12.0687
2003-09-17,12.0373
2003-09-18,12.2819
2003-09-19,12.564
2003-09-22,12.4135
2003-09-23,12.4511
2003-09-24,12.426
2003-09-25,12.4825
2003-09-26,12.5013
2003-09-29,12.5327
2003-09-30,12.5263
2003-10-01,12.7144
2003-10-02,12.7834
2003-10-03,12.9151
2003-10-06,12.9276
2003-10-07,12.9151
2003-10-08,12.8774
2003-10-09,13.3351
2003-10-10,13.2223
2003-10-13,13.2662
2003-10-14,13.2285
2003-10-15,13.1596
2003-10-16,13.1658
2003-10-17,12.9841
2003-10-20,12.9778
2003-10-21,12.9401
2003-10-22,12.9401
2003-10-23,12.9401
2003-10-24,12.8336
2003-10-27,12.9151
2003-10-28,12.9088
2003-10-29,12.8769
2003-10-30,12.9213
2003-10-31,13.1305
2003-11-03,13.2193
2003-11-04,13.0101
2003-11-05,12.9149
2003-11-06,13.0734
2003-11-07,12.972
2003-11-10,12.9403
2003-11-11,12.9847
2003-11-12,13.0671
2003-11-13,12.934
2003-11-14,13.0925
2003-11-17,12.9213
2003-11-18,12.8261
2003-11-19,12.8388
2003-11-20,12.7057
2003-11-21,12.7627
2003-11-24,12.9022
2003-11-25,13.2193
2003-11-26,13.1875
2003-11-28,13.1559
2003-12-01,13.2002
2003-12-02,13.0353
2003-12-03,12.972
2003-12-04,13.1114
2003-12-05,13.1875
2003-12-08,13.3143
2003-12-09,13.1178
2003-12-10,13.0353
2003-12-11,13.1686
2003-12-12,13.1559
2003-12-15,13.2193
2003-12-16,13.2066
2003-12-17,13.2193
2003-12-18,13.3588
2003-12-19,13.3778
2003-12-22,13.4728
2003-12-23,13.5553
2003-12-24,13.6314
2003-12-26,13.5996
2003-12-29,13.7772
2003-12-30,13.8216
2003-12-31,13.8849
2004-01-02,13.7265
2004-01-05,13.5743
2004-01-06,13.4919
2004-01-07,13.5933
2004-01-08,13.5426
2004-01-09,13.7265
2004-01-12,13.6123
2004-01-13,13.6377
2004-01-14,13.8152
2004-01-15,13.6884
2004-01-16,13.7455
2004-01-20,13.7899
2004-01-21,13.7709
2004-01-22,13.8089
2004-01-23,13.7963
2004-01-26,13.8216
2004-01-27,13.8596
2004-01-28,13.706
2004-01-29,13.6419
2004-01-30,13.4624
2004-02-02,13.4817
2004-02-03,13.5074
2004-02-04,13.4048
2004-02-05,13.5137
2004-02-06,13.6483
2004-02-09,13.5906
2004-02-10,13.6803
2004-02-11,13.6867
2004-02-12,13.6739
2004-02-13,13.7444
2004-02-17,13.8405
2004-02-18,13.8662
2004-02-19,13.8405
2004-02-20,13.8853
2004-02-23,13.7829
2004-02-24,13.5393
2004-02-25,13.6098
2004-02-26,13.6354
2004-02-27,13.9046
2004-03-01,14.0072
2004-03-02,14.0135
2004-03-03,13.9879
2004-03-04,14.0776
2004-03-05,14.1481
2004-03-08,14.3403
2004-03-09,14.366
2004-03-10,13.9943
2004-03-11,13.5586
2004-03-12,13.7764
2004-03-15,13.5586
2004-03-16,13.5586
2004-03-17,13.6803
2004-03-18,13.8213
2004-03-19,13.8085
2004-03-22,13.6675
2004-03-23,13.6034
2004-03-24,13.4945
2004-03-25,13.4817
2004-03-26,13.4561
2004-03-29,13.5137
2004-03-30,13.6034
2004-03-31,13.6163
2004-04-01,13.7444
2004-04-02,13.7764
2004-04-05,13.8021
2004-04-06,13.8021
2004-04-07,13.8085
2004-04-08,13.7764
2004-04-12,13.565
2004-04-13,13.4817
2004-04-14,13.3855
2004-04-15,13.5009
2004-04-16,13.6098
2004-04-19,13.5843
2004-04-20,13.5393
2004-04-21,13.5202
2004-04-22,13.5843
2004-04-23,13.5202
2004-04-26,13.5843
2004-04-27,13.6226
2004-04-28,13.4092
2004-04-29,13.2018
2004-04-30,13.1176
2004-05-03,13.0593
2004-05-04,13.0917
2004-05-05,13.1176
2004-05-06,13.1759
2004-05-07,12.9621
2004-05-10,12.8779
2004-05-11,12.9491
2004-05-12,12.8844
2004-05-13,12.8585
2004-05-14,12.9297
2004-05-17,12.8196
2004-05-18,12.8326
2004-05-19,12.8844
2004-05-20,12.9751
2004-05-21,12.8779
2004-05-24,12.9038
2004-05-25,13.1047
2004-05-26,13.1759
2004-05-27,13.1759
2004-05-28,13.124
2004-06-01,13.2472
2004-06-02,13.2407
2004-06-03,13.2213
2004-06-04,13.15
2004-06-07,13.3249
2004-06-08,13.3637
2004-06-09,13.2601
2004-06-10,13.3962
2004-06-14,13.2601
2004-06-15,13.273
2004-06-16,13.3055
2004-06-17,13.4156
2004-06-18,13.4026
2004-06-21,13.4545
2004-06-22,13.5127
2004-06-23,13.4026
2004-06-24,13.3832
2004-06-25,13.3508
2004-06-28,13.3767
2004-06-29,13.2796
2004-06-30,13.3573
2004-07-01,13.2666
2004-07-02,13.3767
2004-07-06,13.3378
2004-07-07,13.4092
2004-07-08,13.4415
2004-07-09,13.5646
2004-07-12,13.7006
2004-07-13,13.6488
2004-07-14,13.8755
2004-07-15,13.8625
2004-07-16,13.746
2004-07-19,13.9986
2004-07-20,13.8885
2004-07-21,13.733
2004-07-22,13.7071
2004-07-23,13.6358
2004-07-26,13.5257
2004-07-27,13.5516
2004-07-28,13.6827
2004-07-29,13.5845
2004-07-30,13.5648
2004-08-02,13.663
2004-08-03,13.6761
2004-08-04,13.6761
2004-08-05,13.5648
2004-08-06,13.6303
2004-08-09,13.4797
2004-08-10,13.5255
2004-08-11,13.4666
2004-08-12,13.4862
2004-08-13,13.4469
2004-08-16,13.7482
2004-08-17,13.6827
2004-08-18,13.7941
2004-08-19,13.7613
2004-08-20,13.6106
2004-08-23,13.6499
2004-08-24,13.5517
2004-08-25,13.5583
2004-08-26,13.519
2004-08-27,13.4928
2004-08-30,13.591
2004-08-31,13.6106
2004-09-01,13.5648
2004-09-02,13.5648
2004-09-03,13.5714
2004-09-07,13.7285
2004-09-08,13.663
2004-09-09,13.7089
2004-09-10,13.7219
2004-09-13,13.7548
2004-09-14,13.7744
2004-09-15,13.781
2004-09-16,13.8857
2004-09-17,14.1543
2004-09-20,14.043
2004-09-21,14.0299
2004-09-22,13.9447
2004-09-23,13.7548
2004-09-24,13.7023
2004-09-27,13.6303
2004-09-28,13.7154
2004-09-29,13.7089
2004-09-30,13.7613
2004-10-01,14.043
2004-10-04,14.0823
2004-10-05,14.0626
2004-10-06,14.0168
2004-10-07,14.0168
2004-10-08,14.043
2004-10-11,13.9709
2004-10-12,14.0299
2004-10-13,13.7875
2004-10-14,13.7548
2004-10-15,13.9185
2004-10-18,13.8399
2004-10-19,13.7417
2004-10-20,13.7417
2004-10-21,13.8465
2004-10-22,13.7613
2004-10-25,13.7154
2004-10-26,13.9578
2004-10-27,14.1233
2004-10-28,14.11
2004-10-29,14.216
2004-11-01,14.2293
2004-11-02,14.0704
2004-11-03,13.9048
2004-11-04,14.024
2004-11-05,13.9048
2004-11-08,14.0372
2004-11-09,14.1565
2004-11-10,14.1365
2004-11-11,14.0968
2004-11-12,14.2226
2004-11-15,14.2028
2004-11-16,14.0836
2004-11-17,14.0902
2004-11-18,14.1035
2004-11-19,14.0704
2004-11-22,14.163
2004-11-23,14.1961
2004-11-24,14.3749
2004-11-26,14.4212
2004-11-29,14.3683
2004-11-30,14.4014
2004-12-01,14.4147
2004-12-02,14.461
2004-12-03,14.4147
2004-12-06,14.3816
2004-12-07,14.216
2004-12-08,14.0968
2004-12-09,13.9909
2004-12-10,14.0637
2004-12-13,14.2094
2004-12-14,14.1697
2004-12-15,14.3021
2004-12-16,14.3484
2004-12-17,14.4544
2004-12-20,14.5074
2004-12-21,14.7987
2004-12-22,14.8583
2004-12-23,14.8384
2004-12-27,14.7126
2004-12-28,14.8649
2004-12-29,14.8583
2004-12-30,14.9973
2004-12-31,15.0834
2005-01-03,14.7524
2005-01-04,14.5736
2005-01-05,14.4875
2005-01-06,14.5272
2005-01-07,14.5338
2005-01-10,14.567
2005-01-11,14.7126
2005-01-12,14.9642
2005-01-13,15.1166
2005-01-14,15.2291
2005-01-18,15.1894
2005-01-19,15.1894
2005-01-20,15.1496
2005-01-21,15.0437
2005-01-24,14.9841
2005-01-25,14.9444
2005-01-26,15.1166
2005-01-27,15.1902
2005-01-28,15.1032
2005-01-31,15.3373
2005-02-01,15.4243
2005-02-02,15.3775
2005-02-03,15.3373
2005-02-04,15.3641
2005-02-07,15.3573
2005-02-08,15.3239
2005-02-09,15.3039
2005-02-10,15.2972
2005-02-11,15.2972
2005-02-14,15.3775
2005-02-15,15.3707
2005-02-16,15.4042
2005-02-17,15.2972
2005-02-18,15.15
2005-02-22,14.9092
2005-02-23,14.9627
2005-02-24,15.0095
2005-02-25,15.2704
2005-02-28,15.1568
2005-03-01,15.2102
2005-03-02,15.1233
2005-03-03,15.1968
2005-03-04,15.3441
2005-03-07,15.4778
2005-03-08,15.3239
2005-03-09,15.0229
2005-03-10,15.0229
2005-03-11,14.9293
2005-03-14,15.2972
2005-03-15,15.1834
2005-03-16,15.0297
2005-03-17,15.1568
2005-03-18,15.1701
2005-03-21,15.1902
2005-03-22,14.9627
2005-03-23,14.8692
2005-03-24,15.0564
2005-03-28,15.0765
2005-03-29,14.8223
2005-03-30,15.0831
2005-03-31,15.2236
2005-04-01,15.2972
2005-04-04,15.3841
2005-04-05,15.4644
2005-04-06,15.3707
2005-04-07,15.2972
2005-04-08,15.3239
2005-04-11,15.3641
2005-04-12,15.3641
2005-04-13,15.451
2005-04-14,15.3039
2005-04-15,14.9226
2005-04-18,15.1233
2005-04-19,15.1701
2005-04-20,15.0163
2005-04-21,15.1166
2005-04-22,15.3573
2005-04-25,15.5514
2005-04-26,15.518
2005-04-27,15.5449
2005-04-28,15.4233
2005-04-29,15.6327
2005-05-02,15.8084
2005-05-03,15.6531
2005-05-04,15.8287
2005-05-05,15.9165
2005-05-06,15.8962
2005-05-09,16.0787
2005-05-10,16.0448
2005-05-11,16.0922
2005-05-12,15.9503
2005-05-13,15.9368
2005-05-16,16.1395
2005-05-17,16.3489
2005-05-18,16.2813
2005-05-19,16.1124
2005-05-20,16.0111
2005-05-23,15.8962
2005-05-24,16.0044
2005-05-25,16.0989
2005-05-26,16.2138
2005-05-27,16.234
2005-05-31,16.2881
2005-06-01,16.3691
2005-06-02,16.2273
2005-06-03,16.2003
2005-06-06,16.2138
2005-06-07,16.2408
2005-06-08,16.2813
2005-06-09,16.207
2005-06-10,16.2205
2005-06-13,16.403
2005-06-14,16.3894
2005-06-15,16.4097
2005-06-16,16.4434
2005-06-17,16.6394
2005-06-20,16.5786
2005-06-21,16.5853
2005-06-22,16.6596
2005-06-23,16.7137
2005-06-24,16.5786
2005-06-27,16.6394
2005-06-28,16.842
2005-06-29,16.788
2005-06-30,16.6867
2005-07-01,16.8353
2005-07-05,16.8894
2005-07-06,16.8218
2005-07-07,16.9029
2005-07-08,16.9502
2005-07-11,17.0717
2005-07-12,17.038
2005-07-13,17.0853
2005-07-14,16.9907
2005-07-15,16.6259
2005-07-18,16.6191
2005-07-19,16.5381
2005-07-20,16.6191
2005-07-21,16.3556
2005-07-22,16.484
2005-07-25,16.4569
2005-07-26,16.5853
2005-07-27,16.5649
2005-07-28,16.5786
2005-07-29,16.5376
2005-08-01,16.4694
2005-08-02,16.6399
2005-08-03,16.5649
2005-08-04,16.3672
2005-08-05,16.1012
2005-08-08,15.6647
2005-08-09,15.8898
2005-08-10,15.8965
2005-08-11,15.9375
2005-08-12,15.8079
2005-08-15,15.8284
2005-08-16,15.6647
2005-08-17,15.6851
2005-08-18,15.7874
2005-08-19,15.8352
2005-08-22,16.0466
2005-08-23,16.0671
2005-08-24,15.9988
2005-08-25,16.2512
2005-08-26,16.1762
2005-08-29,16.2239
2005-08-30,16.2307
2005-08-31,16.4762
2005-09-01,16.7217
2005-09-02,16.558
2005-09-06,16.6808
2005-09-07,16.4353
2005-09-08,16.333
2005-09-09,16.599
2005-09-12,16.483
2005-09-13,16.1762
2005-09-14,16.4762
2005-09-15,16.4149
2005-09-16,16.633
2005-09-19,16.4285
2005-09-20,16.3807
2005-09-21,16.1829
2005-09-22,16.0125
2005-09-23,16.0739
2005-09-26,15.9921
2005-09-27,16.0398
2005-09-28,16.3057
2005-09-29,16.6194
2005-09-30,16.5513
2005-10-03,16.7217
2005-10-04,16.3603
2005-10-05,15.767
2005-10-06,15.5965
2005-10-07,15.8898
2005-10-10,15.5965
2005-10-11,15.6511
2005-10-12,15.617
2005-10-13,15.3169
2005-10-14,15.4669
2005-10-17,15.6578
2005-10-18,15.4737
2005-10-19,15.617
2005-10-20,15.1873
2005-10-21,15.2896
2005-10-24,15.7465
2005-10-25,15.7738
2005-10-26,15.7124
2005-10-27,15.6711
2005-10-28,15.9742
2005-10-31,16.2704
2005-11-01,16.05
2005-11-02,16.0706
2005-11-03,15.926
2005-11-04,15.5058
2005-11-07,15.1476
2005-11-08,14.9754
2005-11-09,15.182
2005-11-10,15.1751
2005-11-11,15.0374
2005-11-14,14.8445
2005-11-15,14.7962
2005-11-16,14.81
2005-11-17,14.81
2005-11-18,14.8376
2005-11-21,14.8996
2005-11-22,14.9892
2005-11-23,15.0098
2005-11-25,15.1338
2005-11-28,15.0374
2005-11-29,15.0443
2005-11-30,14.8238
2005-12-01,14.9065
2005-12-02,14.8445
2005-12-05,14.7342
2005-12-06,14.693
2005-12-07,14.631
2005-12-08,14.6034
2005-12-09,14.6998
2005-12-12,14.6585
2005-12-13,14.7068
2005-12-14,14.8858
2005-12-15,15.0718
2005-12-16,15.1269
2005-12-19,14.934
2005-12-20,14.7825
2005-12-21,14.7274
2005-12-22,14.6103
2005-12-23,14.5896
2005-12-27,14.4656
2005-12-28,14.4656
2005-12-29,14.3485
2005-12-30,14.3623
2006-01-03,14.6516
2006-01-04,14.5965
2006-01-05,14.3761
2006-01-06,14.562
2006-01-09,14.445
2006-01-10,14.3899
2006-01-11,14.4794
2006-01-12,14.4932
2006-01-13,14.4656
2006-01-17,14.5345
2006-01-18,14.631
2006-01-19,14.6654
2006-01-20,14.569
2006-01-23,14.4036
2006-01-24,14.5207
2006-01-25,14.4587
2006-01-26,14.5345
2006-01-27,14.2839
2006-01-30,14.075
2006-01-31,14.3118
2006-02-01,14.096
2006-02-02,13.9427
2006-02-03,13.8452
2006-02-06,14.1098
2006-02-07,14.2422
2006-02-08,14.3745
2006-02-09,14.4719
2006-02-10,14.3815
2006-02-13,14.263
2006-02-14,14.2561
2006-02-15,14.1308
2006-02-16,14.2839
2006-02-17,14.4998
2006-02-21,14.5834
2006-02-22,14.6739
2006-02-23,14.4371
2006-02-24,14.4093
2006-02-27,14.4023
2006-02-28,14.2978
2006-03-01,14.2352
2006-03-02,14.096
2006-03-03,14.096
2006-03-06,14.0263
2006-03-07,13.894
2006-03-08,13.9427
2006-03-09,13.9706
2006-03-10,14.1447
2006-03-13,14.1725
2006-03-14,14.3536
2006-03-15,14.465
2006-03-16,14.6183
2006-03-17,14.6183
2006-03-20,14.5834
2006-03-21,14.4093
2006-03-22,14.465
2006-03-23,14.4859
2006-03-24,14.4371
2006-03-27,14.2909
2006-03-28,14.2491
2006-03-29,14.2978
2006-03-30,14.2212
2006-03-31,14.096
2006-04-03,14.277
2006-04-04,14.4371
2006-04-05,14.5068
2006-04-06,14.2909
2006-04-07,14.075
2006-04-10,14.0402
2006-04-11,13.9984
2006-04-12,14.0681
2006-04-13,13.9636
2006-04-17,14.0123
2006-04-18,14.3536
2006-04-19,14.4719
2006-04-20,14.5695
2006-04-21,14.4929
2006-04-24,14.5556
2006-04-25,14.4859
2006-04-26,14.4719
2006-04-27,14.7819
2006-04-28,14.8734
2006-05-01,14.7114
2006-05-02,14.8312
2006-05-03,14.9227
2006-05-04,14.9227
2006-05-05,15.2748
2006-05-08,15.472
2006-05-09,15.2818
2006-05-10,15.465
2006-05-11,15.303
2006-05-12,15.2396
2006-05-15,15.148
2006-05-16,15.0072
2006-05-17,14.7326
2006-05-18,14.7396
2006-05-19,14.9579
2006-05-22,15.0494
2006-05-23,14.8312
2006-05-24,14.9157
2006-05-25,14.9579
2006-05-26,14.9509
2006-05-30,14.9439
2006-05-31,15.3171
2006-06-01,15.3945
2006-06-02,15.4086
2006-06-05,15.2537
2006-06-06,15.2185
2006-06-07,15.1621
2006-06-08,15.2607
2006-06-09,15.4157
2006-06-12,15.3523
2006-06-13,15.148
2006-06-14,15.141
2006-06-15,15.4157
2006-06-16,15.472
2006-06-19,15.2185
2006-06-20,15.2044
2006-06-21,15.3875
2006-06-22,15.3734
2006-06-23,15.4157
2006-06-26,15.3734
2006-06-27,15.3171
2006-06-28,15.3734
2006-06-29,15.4579
2006-06-30,15.3875
2006-07-03,15.4509
2006-07-05,15.5002
2006-07-06,15.5284
2006-07-07,15.6762
2006-07-10,15.8805
2006-07-11,15.9931
2006-07-12,15.8734
2006-07-13,15.6832
2006-07-14,15.7114
2006-07-17,15.6621
2006-07-18,15.6198
2006-07-19,15.9016
2006-07-20,16.0636
2006-07-21,16.1903
2006-07-24,16.3664
2006-07-25,16.2889
2006-07-26,16.3734
2006-07-27,16.2668
2006-07-28,16.3805
2006-07-31,16.1743
2006-08-01,16.3592
2006-08-02,15.8328
2006-08-03,15.7119
2006-08-04,15.7332
2006-08-07,15.3847
2006-08-08,15.4061
2006-08-09,15.3776
2006-08-10,15.2851
2006-08-11,15.207
2006-08-14,15.2709
2006-08-15,15.2638
2006-08-16,15.1856
2006-08-17,15.1002
2006-08-18,15.1287
2006-08-21,15.1643
2006-08-22,15.15
2006-08-23,15.0007
2006-08-24,15.0434
2006-08-25,15.0077
2006-08-28,15.0504
2006-08-29,15.0149
2006-08-30,14.9438
2006-08-31,15.1002
2006-09-01,15.1002
2006-09-05,15.1145
2006-09-06,15.022
2006-09-07,14.9438
2006-09-08,14.9579
2006-09-11,15.0504
2006-09-12,15.0007
2006-09-13,15.0717
2006-09-14,15.022
2006-09-15,15.0007
2006-09-18,14.9509
2006-09-19,15.0647
2006-09-20,15.1643
2006-09-21,15.0291
2006-09-22,15.0077
2006-09-25,15.1713
2006-09-26,15.1927
2006-09-27,15.4132
2006-09-28,15.3847
2006-09-29,15.4772
2006-10-02,15.6408
2006-10-03,15.591
2006-10-04,15.591
2006-10-05,15.5128
2006-10-06,15.3847
2006-10-09,15.399
2006-10-10,15.4417
2006-10-11,15.5057
2006-10-12,15.6692
2006-10-13,15.6337
2006-10-16,15.6834
2006-10-17,15.9395
2006-10-18,16.2098
2006-10-19,16.3379
2006-10-20,16.4232
2006-10-23,16.537
2006-10-24,16.4943
2006-10-25,16.7432
2006-10-26,16.7646
2006-10-27,16.578
2006-10-30,16.6211
2006-10-31,16.7001
2006-11-01,16.7072
2006-11-02,17.0951
2006-11-03,16.9874
2006-11-06,16.7791
2006-11-07,16.8366
2006-11-08,17.0807
2006-11-09,17.1024
2006-11-10,17.1813
2006-11-13,17.0951
2006-11-14,17.1454
2006-11-15,17.1885
2006-11-16,17.1239
2006-11-17,17.1383
2006-11-20,17.2101
2006-11-21,17.1813
2006-11-22,17.1166
2006-11-24,17.1526
2006-11-27,16.9156
2006-11-28,17.1669
2006-11-29,17.6482
2006-11-30,17.7273
2006-12-01,17.5261
2006-12-04,17.598
2006-12-05,17.8135
2006-12-06,17.6985
2006-12-07,17.6339
2006-12-08,17.5189
2006-12-11,17.4759
2006-12-12,17.5045
2006-12-13,17.5836
2006-12-14,17.6339
2006-12-15,17.4902
2006-12-18,17.3609
2006-12-19,17.3394
2006-12-20,17.2388
2006-12-21,17.2101
2006-12-22,17.2891
2006-12-26,17.4542
2006-12-27,17.4974
2006-12-28,17.3465
2006-12-29,17.2747
2007-01-03,17.4112
2007-01-04,17.3609
2007-01-05,16.9012
2007-01-08,16.9012
2007-01-09,16.9515
2007-01-10,17.0736
2007-01-11,17.0018
2007-01-12,16.9443
2007-01-16,16.9659
2007-01-17,16.9012
2007-01-18,16.8007
2007-01-19,16.7145
2007-01-22,16.6786
2007-01-23,16.815
2007-01-24,17.0233
2007-01-25,17.2172
2007-01-26,17.3968
2007-01-29,17.2809
2007-01-30,17.2592
2007-01-31,17.2447
2007-02-01,17.3099
2007-02-02,17.339
2007-02-05,17.3752
2007-02-06,17.426
2007-02-07,17.484
2007-02-08,17.658
2007-02-09,17.6435
2007-02-12,17.542
2007-02-13,17.6797
2007-02-14,17.8175
2007-02-15,17.745
2007-02-16,17.6435
2007-02-20,17.8103
2007-02-21,17.6363
2007-02-22,17.6
2007-02-23,17.5927
2007-02-26,17.7668
2007-02-27,17.3824
2007-02-28,17.2374
2007-03-01,17.2664
2007-03-02,17.0851
2007-03-05,16.9039
2007-03-06,17.1287
2007-03-07,16.9691
2007-03-08,16.9836
2007-03-09,17.0634
2007-03-12,17.2447
2007-03-13,17.0053
2007-03-14,17.0344
2007-03-15,17.3099
2007-03-16,17.2157
2007-03-19,17.3317
2007-03-20,17.571
2007-03-21,17.5855
2007-03-22,17.5855
2007-03-23,17.6725
2007-03-26,17.6871
2007-03-27,17.7886
2007-03-28,17.7305
2007-03-29,17.8683
2007-03-30,17.716
2007-04-02,18.0351
2007-04-03,18.0351
2007-04-04,17.9698
2007-04-05,18.0134
2007-04-09,18.1439
2007-04-10,18.1439
2007-04-11,18.0642
2007-04-12,17.9844
2007-04-13,18.1294
2007-04-16,17.9481
2007-04-17,18.0351
2007-04-18,17.9916
2007-04-19,17.9408
2007-04-20,17.9844
2007-04-23,17.9698
2007-04-24,17.8466
2007-04-25,18.2382
2007-04-26,18.2235
2007-04-27,18.2162
2007-04-30,18.0039
2007-05-01,18.1283
2007-05-02,18.2894
2007-05-03,18.326
2007-05-04,18.2967
2007-05-07,18.5016
2007-05-08,18.3626
2007-05-09,18.326
2007-05-10,18.1138
2007-05-11,18.1942
2007-05-14,18.3333
2007-05-15,18.3187
2007-05-16,18.3333
2007-05-17,18.2528
2007-05-18,18.5602
2007-05-21,18.3845
2007-05-22,18.4211
2007-05-23,18.0113
2007-05-24,17.5429
2007-05-25,17.4843
2007-05-29,17.5356
2007-05-30,16.1743
2007-05-31,16.2402
2007-06-01,16.1231
2007-06-04,16.0865
2007-06-05,15.9474
2007-06-06,15.8449
2007-06-07,15.3619
2007-06-08,15.3912
2007-06-11,15.6547
2007-06-12,15.4497
2007-06-13,15.5303
2007-06-14,15.4937
2007-06-15,15.7352
2007-06-18,15.6913
2007-06-19,15.5888
2007-06-20,15.2815
2007-06-21,15.34
2007-06-22,15.0838
2007-06-25,15.0692
2007-06-26,14.9081
2007-06-27,14.9959
2007-06-28,15.0984
2007-06-29,15.1497
2007-07-02,15.4425
2007-07-03,15.4278
2007-07-05,15.2302
2007-07-06,15.2375
2007-07-09,15.2375
2007-07-10,15.1424
2007-07-11,15.2741
2007-07-12,15.4351
2007-07-13,15.5448
2007-07-16,15.3253
2007-07-17,15.3692
2007-07-18,15.4204
2007-07-19,15.6766
2007-07-20,15.4497
2007-07-23,15.479
2007-07-24,14.8643
2007-07-25,14.9155
2007-07-26,14.6301
2007-07-27,14.2674
2007-07-30,14.4228
2007-07-31,14.1118
2007-08-01,14.5413
2007-08-02,15.0152
2007-08-03,14.06
2007-08-06,14.2155
2007-08-07,14.2007
2007-08-08,13.9416
2007-08-09,13.5269
2007-08-10,14.3932
2007-08-13,13.7343
2007-08-14,13.749
2007-08-15,13.6158
2007-08-16,13.675
2007-08-17,13.986
2007-08-20,13.8749
2007-08-21,14.1415
2007-08-22,14.2377
2007-08-23,14.4451
2007-08-24,14.6967
2007-08-27,14.2082
2007-08-28,13.8231
2007-08-29,13.9786
2007-08-30,13.9046
2007-08-31,13.9341
2007-09-04,14.1118
2007-09-05,13.9416
2007-09-06,13.986
2007-09-07,13.8824
2007-09-10,13.8454
2007-09-11,14.0823
2007-09-12,14.2674
2007-09-13,14.134
2007-09-14,14.1785
2007-09-17,14.0823
2007-09-18,14.4154
2007-09-19,14.5635
2007-09-20,14.3784
2007-09-21,14.3784
2007-09-24,14.3932
2007-09-25,14.2304
2007-09-26,14.3932
2007-09-27,14.3414
2007-09-28,14.134
2007-10-01,14.4451
2007-10-02,14.5043
2007-10-03,14.4154
2007-10-04,14.4746
2007-10-05,14.7264
2007-10-08,14.8449
2007-10-09,15.2669
2007-10-10,15.2299
2007-10-11,15.2373
2007-10-12,15.2002
2007-10-15,15.0522
2007-10-16,14.8745
2007-10-17,14.8893
2007-10-18,14.8745
2007-10-19,14.5265
2007-10-22,14.5635
2007-10-23,14.4228
2007-10-24,14.5043
2007-10-25,14.6745
2007-10-26,14.7782
2007-10-29,14.8305
2007-10-30,15.0701
2007-10-31,15.3024
2007-11-01,14.9653
2007-11-02,14.0215
2007-11-05,13.692
2007-11-06,13.5946
2007-11-07,13.1152
2007-11-08,13.5422
2007-11-09,13.4298
2007-11-12,13.3924
2007-11-13,13.4747
2007-11-14,13.4598
2007-11-15,13.4673
2007-11-16,13.4598
2007-11-19,13.4148
2007-11-20,13.4373
2007-11-21,13.5122
2007-11-23,13.7144
2007-11-26,13.3848
2007-11-27,13.4747
2007-11-28,13.7369
2007-11-29,13.6695
2007-11-30,13.8342
2007-12-03,13.8792
2007-12-04,13.8418
2007-12-05,14.0141
2007-12-06,14.2762
2007-12-07,14.3361
2007-12-10,14.441
2007-12-11,14.1939
2007-12-12,14.3062
2007-12-13,14.4935
2007-12-14,14.1639
2007-12-17,13.8942
2007-12-18,13.8867
2007-12-19,13.7519
2007-12-20,13.7444
2007-12-21,14.1489
2007-12-24,14.1339
2007-12-26,13.9841
2007-12-27,13.9616
2007-12-28,14.119
2007-12-31,14.1414
2008-01-02,14.1639
2008-01-03,14.119
2008-01-04,13.9616
2008-01-07,14.2313
2008-01-08,14.1489
2008-01-09,14.3211
2008-01-10,14.2688
2008-01-11,14.4186
2008-01-14,14.3361
2008-01-15,14.059
2008-01-16,13.9391
2008-01-17,13.6395
2008-01-18,13.28
2008-01-22,13.0928
2008-01-23,13.9541
2008-01-24,13.7743
2008-01-25,13.4598
2008-01-28,13.5871
2008-01-29,14.133
2008-01-30,13.9585
2008-01-31,14.4061
2008-02-01,14.5122
2008-02-04,14.9295
2008-02-05,14.3075
2008-02-06,14.3302
2008-02-07,14.1709
2008-02-08,14.0798
2008-02-11,13.9585
2008-02-12,14.0192
2008-02-13,13.9963
2008-02-14,13.784
2008-02-15,13.693
2008-02-19,13.7612
2008-02-20,13.8447
2008-02-21,13.5488
2008-02-22,13.6398
2008-02-25,13.7384
2008-02-26,13.8447
2008-02-27,13.6778
2008-02-28,13.4805
2008-02-29,13.0633
2008-03-03,13.2757
2008-03-04,13.5185
2008-03-05,13.4199
2008-03-06,13.086
2008-03-07,13.1012
2008-03-10,13.0557
2008-03-11,13.3061
2008-03-12,13.2226
2008-03-13,13.2454
2008-03-14,13.0026
2008-03-17,13.0785
2008-03-18,13.2681
2008-03-19,13.1695
2008-03-20,13.2833
2008-03-24,13.215
2008-03-25,13.215
2008-03-26,13.1923
2008-03-27,13.1012
2008-03-28,12.8888
2008-03-31,13.0557
2008-04-01,13.5033
2008-04-02,13.6853
2008-04-03,13.5792
2008-04-04,13.4729
2008-04-07,13.4654
2008-04-08,13.4729
2008-04-09,13.4502
2008-04-10,13.3819
2008-04-11,13.3364
2008-04-14,13.344
2008-04-15,13.5185
2008-04-16,13.8068
2008-04-17,13.875
2008-04-18,14.0647
2008-04-21,13.9357
2008-04-22,13.8902
2008-04-23,14.0115
2008-04-24,14.095
2008-04-25,13.9357
2008-04-28,13.9815
2008-04-29,13.9508
2008-04-30,13.7588
2008-05-01,14.043
2008-05-02,13.8739
2008-05-05,13.6972
2008-05-06,13.7588
2008-05-07,13.5283
2008-05-08,13.6358
2008-05-09,13.6896
2008-05-12,13.8355
2008-05-13,13.751
2008-05-14,13.9277
2008-05-15,13.8969
2008-05-16,13.9738
2008-05-19,14.0122
2008-05-20,13.9815
2008-05-21,13.8355
2008-05-22,13.9354
2008-05-23,13.5667
2008-05-27,13.6512
2008-05-28,13.7434
2008-05-29,13.8432
2008-05-30,13.8509
2008-06-02,13.7894
2008-06-03,13.6281
2008-06-04,13.6358
2008-06-05,13.6896
2008-06-06,13.2363
2008-06-09,13.39
2008-06-10,13.4438
2008-06-11,13.221
2008-06-12,13.1518
2008-06-13,13.2671
2008-06-16,13.2901
2008-06-17,13.3209
2008-06-18,13.1748
2008-06-19,13.3593
2008-06-20,13.2517
2008-06-23,13.3593
2008-06-24,13.39
2008-06-25,13.5206
2008-06-26,13.559
2008-06-27,13.5359
2008-06-30,13.7588
2008-07-01,13.9968
2008-07-02,14.043
2008-07-03,13.5973
2008-07-07,13.5436
2008-07-08,13.8509
2008-07-09,13.8586
2008-07-10,13.7434
2008-07-11,13.6435
2008-07-14,13.436
2008-07-15,13.3285
2008-07-16,13.1134
2008-07-17,13.1364
2008-07-18,13.2133
2008-07-21,13.3362
2008-07-22,13.5283
2008-07-23,13.2363
2008-07-24,13.1364
2008-07-25,13.0213
2008-07-28,13.0059
2008-07-29,13.2086
2008-07-30,13.3254
2008-07-31,13.2943
2008-08-01,13.0605
2008-08-04,13.0372
2008-08-05,13.154
2008-08-06,13.154
2008-08-07,12.8192
2008-08-08,13.0761
2008-08-11,13.302
2008-08-12,13.2086
2008-08-13,13.1696
2008-08-14,12.8425
2008-08-15,12.9048
2008-08-18,12.9982
2008-08-19,12.9982
2008-08-20,12.9515
2008-08-21,12.9515
2008-08-22,12.9671
2008-08-25,12.8348
2008-08-26,12.8425
2008-08-27,12.9359
2008-08-28,13.0217
2008-08-29,12.8503
2008-09-02,12.8192
2008-09-03,12.8036
2008-09-04,12.7023
2008-09-05,12.3831
2008-09-08,12.64
2008-09-09,12.6011
2008-09-10,12.5777
2008-09-11,12.6946
2008-09-12,12.9438
2008-09-15,12.5544
2008-09-16,12.6712
2008-09-17,11.8457
2008-09-18,11.9157
2008-09-19,12.1338
2008-09-22,11.9236
2008-09-23,11.6276
2008-09-24,11.6276
2008-09-25,11.8067
2008-09-26,11.869
2008-09-29,11.0591
2008-09-30,11.5185
2008-10-01,11.5498
2008-10-02,11.6276
2008-10-03,11.5653
2008-10-06,10.9734
2008-10-07,10.3815
2008-10-08,10.2102
2008-10-09,9.65721
2008-10-10,8.94849
2008-10-13,9.83633
2008-10-14,10.1089
2008-10-15,9.40799
2008-10-16,10.0233
2008-10-17,10.2102
2008-10-20,10.7397
2008-10-21,10.3659
2008-10-22,9.7896
2008-10-23,10.1012
2008-10-24,9.82855
2008-10-27,9.39241
2008-10-28,10.2958
2008-10-29,10.089
2008-10-30,10.4139
2008-10-31,10.2633
2008-11-03,10.4852
2008-11-04,10.6912
2008-11-05,10.5249
2008-11-06,9.90666
2008-11-07,10.081
2008-11-10,9.77986
2008-11-11,9.60549
2008-11-12,9.29641
2008-11-13,9.67682
2008-11-14,9.16168
2008-11-17,9.32019
2008-11-18,9.15375
2008-11-19,8.79711
2008-11-20,8.30574
2008-11-21,9.0428
2008-11-24,9.2647
2008-11-25,9.47869
2008-11-26,9.38359
2008-11-28,9.55002
2008-12-01,8.98732
2008-12-02,8.91599
2008-12-03,9.20923
2008-12-04,8.67031
2008-12-05,8.86051
2008-12-08,8.77334
2008-12-09,8.90807
2008-12-10,8.95562
2008-12-11,9.01902
2008-12-12,9.19338
2008-12-15,9.02695
2008-12-16,9.45491
2008-12-17,9.01902
2008-12-18,8.86844
2008-12-19,8.67823
2008-12-22,8.59898
2008-12-23,8.32159
2008-12-24,8.40085
2008-12-26,8.47217
2008-12-29,8.44047
2008-12-30,8.67031
2008-12-31,8.70994
2009-01-02,8.81296
2009-01-05,8.87636
2009-01-06,8.82089
2009-01-07,8.55936
2009-01-08,8.66238
2009-01-09,8.79711
2009-01-12,8.70994
2009-01-13,8.59105
2009-01-14,8.44839
2009-01-15,8.40085
2009-01-16,8.50387
2009-01-20,8.22649
2009-01-21,8.34537
2009-01-22,8.25026
2009-01-23,8.32159
2009-01-26,8.6069
2009-01-27,8.80504
2009-01-28,8.74856
2009-01-29,8.66763
2009-01-30,7.83405
2009-02-02,7.59125
2009-02-03,7.89879
2009-02-04,8.62716
2009-02-05,8.65144
2009-02-06,8.7
2009-02-09,8.74856
2009-02-10,8.52195
2009-02-11,8.39246
2009-02-12,8.27107
2009-02-13,8.24679
2009-02-17,7.68028
2009-02-18,7.21898
2009-02-19,7.12186
2009-02-20,7.04093
2009-02-23,6.87907
2009-02-24,7.4213
2009-02-25,7.36465
2009-02-26,7.22707
2009-02-27,7.0814
2009-03-02,6.7253
2009-03-03,6.47442
2009-03-04,6.81433
2009-03-05,6.36112
2009-03-06,6.62009
2009-03-09,6.74149
2009-03-10,7.0733
2009-03-11,6.91144
2009-03-12,7.12995
2009-03-13,7.29181
2009-03-16,7.48605
2009-03-17,7.66409
2009-03-18,7.80168
2009-03-19,7.85832
2009-03-20,7.80976
2009-03-23,8.32772
2009-03-24,8.09302
2009-03-25,8.18205
2009-03-26,8.28726
2009-03-27,8.14158
2009-03-30,7.85832
2009-03-31,7.93925
2009-04-01,8.08493
2009-04-02,8.16586
2009-04-03,8.16586
2009-04-06,8.08493
2009-04-07,8.06875
2009-04-08,8.26298
2009-04-09,8.40056
2009-04-13,8.42483
2009-04-14,8.36009
2009-04-15,8.48958
2009-04-16,8.5786
2009-04-17,8.61907
2009-04-20,8.40056
2009-04-21,8.55433
2009-04-22,8.52195
2009-04-23,8.62716
2009-04-24,8.75665
2009-04-27,8.95897
2009-04-28,8.92626
2009-04-29,9.01717
2009-04-30,9.10809
2009-05-01,9.25686
2009-05-04,9.48002
2009-05-05,9.44695
2009-05-06,9.4139
2009-05-07,9.24859
2009-05-08,9.42216
2009-05-11,9.23207
2009-05-12,9.19074
2009-05-13,8.91799
2009-05-14,8.97585
2009-05-15,8.79401
2009-05-18,8.82708
2009-05-19,8.8684
2009-05-20,8.79401
2009-05-21,8.66177
2009-05-22,8.65351
2009-05-26,8.95105
2009-05-27,8.68657
2009-05-28,8.8684
2009-05-29,8.81054
2009-06-01,9.12462
2009-06-02,9.18247
2009-06-03,9.04197
2009-06-04,9.07502
2009-06-05,9.05023
2009-06-08,9.18247
2009-06-09,9.05023
2009-06-10,9.199
2009-06-11,9.4139
2009-06-12,9.5296
2009-06-15,9.28992
2009-06-16,9.199
2009-06-17,9.24859
2009-06-18,9.48002
2009-06-19,9.3891
2009-06-22,9.49655
2009-06-23,9.34778
2009-06-24,9.31471
2009-06-25,9.48828
2009-06-26,9.50481
2009-06-29,9.63705
2009-06-30,9.64531
2009-07-01,10.0172
2009-07-02,9.75276
2009-07-06,9.90153
2009-07-07,9.68664
2009-07-08,9.62052
2009-07-09,9.57093
2009-07-10,9.54614
2009-07-13,9.69491
2009-07-14,9.71143
2009-07-15,10.009
2009-07-16,10.0999
2009-07-17,10.1577
2009-07-20,10.4057
2009-07-21,10.5049
2009-07-22,10.5462
2009-07-23,10.8355
2009-07-24,11.0008
2009-07-27,11.0256
2009-07-28,10.8768
2009-07-29,10.7423
2009-07-30,10.8938
2009-07-31,10.8433
2009-08-03,11.02
2009-08-04,11.2219
2009-08-05,10.919
2009-08-06,10.7676
2009-08-07,11.02
2009-08-10,11.1378
2009-08-11,11.1462
2009-08-12,11.0621
2009-08-13,11.1125
2009-08-14,11.0283
2009-08-17,10.8685
2009-08-18,10.8769
2009-08-19,11.02
2009-08-20,11.0957
2009-08-21,11.4069
2009-08-24,11.4238
2009-08-25,11.449
2009-08-26,11.3985
2009-08-27,11.3396
2009-08-28,11.306
2009-08-31,11.1209
2009-09-01,11.0621
2009-09-02,10.9526
2009-09-03,11.0368
2009-09-04,11.0704
2009-09-08,11.1125
2009-09-09,11.1883
2009-09-10,11.2471
2009-09-11,11.0452
2009-09-14,11.1714
2009-09-15,11.4153
2009-09-16,11.5331
2009-09-17,11.3901
2009-09-18,11.3564
2009-09-21,11.3396
2009-09-22,11.3481
2009-09-23,11.4574
2009-09-24,11.4995
2009-09-25,11.5163
2009-09-28,11.6003
2009-09-29,11.6929
2009-09-30,11.6761
2009-10-01,11.4153
2009-10-02,11.2976
2009-10-05,11.4743
2009-10-06,11.5247
2009-10-07,11.5584
2009-10-08,11.6845
2009-10-09,11.7518
2009-10-12,11.8275
2009-10-13,11.7603
2009-10-14,11.6929
2009-10-15,11.6845
2009-10-16,11.6508
2009-10-19,11.7603
2009-10-20,11.6088
2009-10-21,11.4743
2009-10-22,11.4995
2009-10-23,11.2471
2009-10-26,11.1883
2009-10-27,11.3396
2009-10-28,11.22
2009-10-29,11.374
2009-10-30,11.0745
2009-11-02,11.083
2009-11-03,11.1601
2009-11-04,11.1514
2009-11-05,11.4425
2009-11-06,11.4425
2009-11-09,11.5794
2009-11-10,11.6307
2009-11-11,11.6222
2009-11-12,11.6222
2009-11-13,11.9131
2009-11-16,12.0159
2009-11-17,12.0757
2009-11-18,11.9731
2009-11-19,11.8105
2009-11-20,11.7677
2009-11-23,11.8961
2009-11-24,12.033
2009-11-25,12.401
2009-11-27,12.1614
2009-11-30,12.2041
2009-12-01,12.3753
2009-12-02,12.7005
2009-12-03,12.8032
2009-12-04,12.8032
2009-12-07,12.9316
2009-12-08,12.9316
2009-12-09,12.8974
2009-12-10,13.0344
2009-12-11,13.2055
2009-12-14,13.3082
2009-12-15,13.2739
2009-12-16,13.2825
2009-12-17,13.197
2009-12-18,13.2312
2009-12-21,13.4451
2009-12-22,13.3766
2009-12-23,13.3766
2009-12-24,13.3253
2009-12-28,13.3681
2009-12-29,13.3852
2009-12-30,13.3852
2009-12-31,13.1798
2010-01-04,13.2654
2010-01-05,13.2312
2010-01-06,13.0856
2010-01-07,12.9316
2010-01-08,12.8631
2010-01-11,13.0344
2010-01-12,13.06
2010-01-13,13.2654
2010-01-14,13.2739
2010-01-15,13.0942
2010-01-19,13.2739
2010-01-20,13.2312
2010-01-21,12.7348
2010-01-22,12.4695
2010-01-25,12.5636
2010-01-26,12.6748
2010-01-27,12.5706
2010-01-28,12.4575
2010-01-29,12.3879
2010-02-01,12.9183
2010-02-02,13.1877
2010-02-03,13.1443
2010-02-04,12.8053
2010-02-05,12.7618
2010-02-08,12.6748
2010-02-09,12.8574
2010-02-10,12.7966
2010-02-11,12.8748
2010-02-12,12.727
2010-02-16,13.0486
2010-02-17,13.0313
2010-02-18,13.04
2010-02-19,13.1791
2010-02-22,13.2138
2010-02-23,13.0661
2010-02-24,13.04
2010-02-25,13.0313
2010-02-26,13.0747
2010-03-01,13.1704
2010-03-02,13.1704
2010-03-03,13.1616
2010-03-04,13.1616
2010-03-05,13.3616
2010-03-08,13.4224
2010-03-09,13.4051
2010-03-10,13.5181
2010-03-11,13.5181
2010-03-12,13.466
2010-03-15,13.4746
2010-03-16,13.6224
2010-03-17,13.7703
2010-03-18,13.692
2010-03-19,13.6659
2010-03-22,13.6572
2010-03-23,13.7963
2010-03-24,13.6398
2010-03-25,13.5876
2010-03-26,13.7007
2010-03-29,13.8659
2010-03-30,13.8919
2010-03-31,13.7528
2010-04-01,14.031
2010-04-05,14.1614
2010-04-06,14.3179
2010-04-07,14.1788
2010-04-08,14.0832
2010-04-09,14.1266
2010-04-12,14.1527
2010-04-13,14.1092
2010-04-14,14.231
2010-04-15,14.2136
2010-04-16,14.1788
2010-04-19,14.2571
2010-04-20,14.3179
2010-04-21,14.2571
2010-04-22,14.2744
2010-04-23,14.5179
2010-04-26,14.4309
2010-04-27,14.1353
2010-04-28,14.2586
2010-04-29,14.4262
2010-04-30,14.3733
2010-05-03,14.6731
2010-05-04,14.6466
2010-05-05,14.2851
2010-05-06,13.7208
2010-05-07,13.5444
2010-05-10,13.9588
2010-05-11,14.0294
2010-05-12,14.1969
2010-05-13,14.1176
2010-05-14,13.9235
2010-05-17,13.9765
2010-05-18,13.7913
2010-05-19,13.5444
2010-05-20,13.0418
2010-05-21,13.0947
2010-05-24,13.0153
2010-05-25,12.6802
2010-05-26,12.8478
2010-05-27,13.1564
2010-05-28,13.2005
2010-06-01,12.8478
2010-06-02,13.1123
2010-06-03,13.2005
2010-06-04,12.6538
2010-06-07,12.7155
2010-06-08,12.9183
2010-06-09,12.7508
2010-06-10,13.1917
2010-06-11,13.2711
2010-06-14,13.2357
2010-06-15,13.518
2010-06-16,13.5355
2010-06-17,13.7031
2010-06-18,13.6943
2010-06-21,13.6414
2010-06-22,13.2887
2010-06-23,13.1829
2010-06-24,13.0506
2010-06-25,13.13
2010-06-28,13.2005
2010-06-29,12.8919
2010-06-30,12.7949
2010-07-01,12.6802
2010-07-02,12.9713
2010-07-06,13.1652
2010-07-07,13.6679
2010-07-08,13.809
2010-07-09,13.9677
2010-07-12,13.95
2010-07-13,14.0029
2010-07-14,14.0117
2010-07-15,14.1441
2010-07-16,13.7648
2010-07-19,14.047
2010-07-20,14.1793
2010-07-21,13.9588
2010-07-22,14.3822
2010-07-23,14.5321
2010-07-26,14.7172
2010-07-27,14.9553
2010-07-28,14.8747
2010-07-29,14.7406
2010-07-30,14.7227
2010-08-02,14.9194
2010-08-03,14.8121
2010-08-04,14.9552
2010-08-05,15.0267
2010-08-06,15.0088
2010-08-09,15.1876
2010-08-10,15.2948
2010-08-11,14.8032
2010-08-12,14.7495
2010-08-13,14.8121
2010-08-16,14.821
2010-08-17,15.0803
2010-08-18,15.1607
2010-08-19,14.9015
2010-08-20,14.7585
2010-08-23,14.8032
2010-08-24,14.9284
2010-08-25,15.1071
2010-08-26,15.3038
2010-08-27,15.6345
2010-08-30,15.5094
2010-08-31,15.5094
2010-09-01,15.8044
2010-09-02,15.8044
2010-09-03,16.001
2010-09-07,15.7239
2010-09-08,15.1339
2010-09-09,15.2055
2010-09-10,15.2412
2010-09-13,15.3485
2010-09-14,15.2412
2010-09-15,15.1787
2010-09-16,15.0803
2010-09-17,15.1607
2010-09-20,15.4199
2010-09-21,15.2859
2010-09-22,15.4021
2010-09-23,15.2591
2010-09-24,15.4825
2010-09-27,15.5809
2010-09-28,15.6256
2010-09-29,15.5988
2010-09-30,15.5719
2010-10-01,15.7239
2010-10-04,15.7328
2010-10-05,15.8311
2010-10-06,15.6882
2010-10-07,15.7507
2010-10-08,15.867
2010-10-11,15.8848
2010-10-12,15.8311
2010-10-13,15.8311
2010-10-14,15.9205
2010-10-15,15.8848
2010-10-18,15.9921
2010-10-19,15.8133
2010-10-20,15.9385
2010-10-21,15.8133
2010-10-22,15.8044
2010-10-25,15.8311
2010-10-26,15.6793
2010-10-27,15.6791
2010-10-28,15.806
2010-10-29,15.67
2010-11-01,15.5613
2010-11-02,15.7154
2010-11-03,15.6519
2010-11-04,15.8784
2010-11-05,15.978
2010-11-08,15.833
2010-11-09,15.824
2010-11-10,15.7696
2010-11-11,15.7606
2010-11-12,15.5795
2010-11-15,15.6882
2010-11-16,15.4889
2010-11-17,15.5433
2010-11-18,15.6247
2010-11-19,15.4255
2010-11-22,15.5251
2010-11-23,15.4073
2010-11-24,15.4436
2010-11-26,15.4073
2010-11-29,15.2896
2010-11-30,15.181
2010-12-01,15.4255
2010-12-02,15.4707
2010-12-03,15.3621
2010-12-06,15.3349
2010-12-07,15.4436
2010-12-08,15.4073
2010-12-09,15.4799
2010-12-10,15.661
2010-12-13,15.6972
2010-12-14,15.661
2010-12-15,15.4707
2010-12-16,15.6247
2010-12-17,15.5251
2010-12-20,15.6791
2010-12-21,15.7516
2010-12-22,15.8693
2010-12-23,15.8784
2010-12-27,15.8784
2010-12-28,15.9689
2010-12-29,15.9689
2010-12-30,15.9689
2010-12-31,15.9689
2011-01-03,16.1411
2011-01-04,16.1773
2011-01-05,16.2316
2011-01-06,16.2316
2011-01-07,16.4943
2011-01-10,16.3766
2011-01-11,16.5034
2011-01-12,16.5849
2011-01-13,16.603
2011-01-14,16.8023
2011-01-18,16.7932
2011-01-19,16.7751
2011-01-20,16.8566
2011-01-21,16.8566
2011-01-24,16.9924
2011-01-25,17.0559
2011-01-26,17.0468
2011-01-27,17.203
2011-01-28,17.0654
2011-01-31,17.0746
2011-02-01,17.1663
2011-02-02,16.8086
2011-02-03,16.9737
2011-02-04,16.8912
2011-02-07,17.1113
2011-02-08,17.2213
2011-02-09,17.1295
2011-02-10,17.2946
2011-02-11,17.3772
2011-02-14,17.3955
2011-02-15,17.4413
2011-02-16,17.3497
2011-02-17,17.4781
2011-02-18,17.5148
2011-02-22,17.3313
2011-02-23,17.1204
2011-02-24,17.1755
2011-02-25,17.3772
2011-02-28,17.5789
2011-03-01,17.313
2011-03-02,17.4046
2011-03-03,17.6248
2011-03-04,17.4872
2011-03-07,17.5148
2011-03-08,17.7164
2011-03-09,17.8999
2011-03-10,17.3497
2011-03-11,17.3497
2011-03-14,17.1663
2011-03-15,17.047
2011-03-16,16.7719
2011-03-17,16.8637
2011-03-18,16.9828
2011-03-21,17.2397
2011-03-22,17.1479
2011-03-23,17.1295
2011-03-24,17.2946
2011-03-25,17.2397
2011-03-28,17.1755
2011-03-29,17.4046
2011-03-30,17.6064
2011-03-31,17.5606
2011-04-01,17.7257
2011-04-04,17.7623
2011-04-05,17.6431
2011-04-06,17.6706
2011-04-07,17.4964
2011-04-08,17.423
2011-04-11,17.2579
2011-04-12,17.1755
2011-04-13,17.2213
2011-04-14,17.368
2011-04-15,17.5697
2011-04-18,17.3405
2011-04-19,17.2121
2011-04-20,17.4872
2011-04-21,17.5148
2011-04-25,17.6156
2011-04-26,17.8265
2011-04-27,17.9751
2011-04-28,18.0122
2011-04-29,18.04
2011-05-02,18.1421
2011-05-03,18.2349
2011-05-04,18.3834
2011-05-05,18.1514
2011-05-06,18.0307
2011-05-09,18.272
2011-05-10,18.8474
2011-05-11,18.903
2011-05-12,19.0144
2011-05-13,18.8938
2011-05-16,18.6989
2011-05-17,18.8103
2011-05-18,18.8938
2011-05-19,19.0609
2011-05-20,18.9124
2011-05-23,18.6061
2011-05-24,18.5411
2011-05-25,18.6896
2011-05-26,18.7082
2011-05-27,18.7824
2011-05-31,18.8195
2011-06-01,18.504
2011-06-02,18.3741
2011-06-03,18.272
2011-06-06,18.0493
2011-06-07,18.1236
2011-06-08,18.0679
2011-06-09,18.1607
2011-06-10,17.9844
2011-06-13,17.9565
2011-06-14,18.0865
2011-06-15,17.7988
2011-06-16,17.9101
2011-06-17,18.0957
2011-06-20,18.0957
2011-06-21,18.105
2011-06-22,18.0029
2011-06-23,17.7895
2011-06-24,18.0772
2011-06-27,18.3092
2011-06-28,18.4948
2011-06-29,18.6803
2011-06-30,18.801
2011-07-01,19.1165
2011-07-05,19.0423
2011-07-06,18.9495
2011-07-07,19.098
2011-07-08,19.1257
2011-07-11,18.7267
2011-07-12,18.7546
2011-07-13,18.801
2011-07-14,18.8938
2011-07-15,18.9773
2011-07-18,18.801
2011-07-19,19.2093
2011-07-20,19.4877
2011-07-21,19.7476
2011-07-22,19.5341
2011-07-25,19.5249
2011-07-26,19.3485
2011-07-27,19.0952
2011-07-28,19.0107
2011-07-29,18.9075
2011-08-01,18.8793
2011-08-02,19.1327
2011-08-03,19.3954
2011-08-04,18.4664
2011-08-05,18.3633
2011-08-08,17.1434
2011-08-09,17.9504
2011-08-10,17.7533
2011-08-11,18.5885
2011-08-12,18.4102
2011-08-15,19.1514
2011-08-16,19.1327
2011-08-17,19.3391
2011-08-18,18.8981
2011-08-19,18.9732
2011-08-22,18.7855
2011-08-23,19.0858
2011-08-24,19.5737
2011-08-25,19.1327
2011-08-26,19.264
2011-08-29,19.7708
2011-08-30,19.9303
2011-08-31,19.9866
2011-09-01,19.9303
2011-09-02,19.6206
2011-09-06,19.63
2011-09-07,20.1086
2011-09-08,20.2117
2011-09-09,19.7332
2011-09-12,19.7989
2011-09-13,19.9866
2011-09-14,20.559
2011-09-15,20.6997
2011-09-16,20.8029
2011-09-19,20.8311
2011-09-20,21.1407
2011-09-21,20.3525
2011-09-22,19.63
2011-09-23,19.7895
2011-09-26,20.0522
2011-09-27,20.2587
2011-09-28,20.1179
2011-09-29,20.315
2011-09-30,20.0429
2011-10-03,19.5925
2011-10-04,19.8927
2011-10-05,20.1179
2011-10-06,20.3713
2011-10-07,20.2212
2011-10-10,20.8593
2011-10-11,20.2399
2011-10-12,20.2305
2011-10-13,20.4464
2011-10-14,20.3994
2011-10-17,20.7278
2011-10-18,21.0656
2011-10-19,20.8686
2011-10-20,21.0188
2011-10-21,21.4785
2011-10-24,21.4879
2011-10-25,21.2158
2011-10-26,20.9999
2011-10-27,21.2177
2011-10-28,21.2936
2011-10-31,20.9333
2011-11-01,20.2127
2011-11-02,20.6394
2011-11-03,20.9902
2011-11-04,21.0376
2011-11-07,21.0187
2011-11-08,21.2367
2011-11-09,20.6488
2011-11-10,20.8006
2011-11-11,21.3125
2011-11-14,20.9238
2011-11-15,20.9617
2011-11-16,20.7058
2011-11-17,20.8101
2011-11-18,20.8479
2011-11-21,20.5446
2011-11-22,20.4308
2011-11-23,20.1464
2011-11-25,20.2412
2011-11-28,20.3739
2011-11-29,20.9523
2011-11-30,21.7297
2011-12-01,21.6065
2011-12-02,21.4074
2011-12-05,21.4548
2011-12-06,21.4263
2011-12-07,21.1798
2011-12-08,20.7247
2011-12-09,21.104
2011-12-12,20.7343
2011-12-13,21.0755
2011-12-14,20.7343
2011-12-15,21.1134
2011-12-16,21.3789
2011-12-19,20.9807
2011-12-20,21.6918
2011-12-21,21.9762
2011-12-22,21.9856
2011-12-23,22.1847
2011-12-27,22.4313
2011-12-28,22.4217
2011-12-29,22.6493
2011-12-30,22.5925
2012-01-03,22.1279
2012-01-04,21.9573
2012-01-05,21.9098
2012-01-06,21.7865
2012-01-09,21.7012
2012-01-10,21.5875
2012-01-11,21.2936
2012-01-12,21.3694
2012-01-13,21.9382
2012-01-17,22.2511
2012-01-18,22.2226
2012-01-19,21.6065
2012-01-20,21.6348
2012-01-23,21.8339
2012-01-24,21.6348
2012-01-25,21.9382
2012-01-26,22.1468
2012-01-27,21.6918
2012-01-30,21.578
2012-01-31,21.5875
2012-02-01,22.2322
2012-02-02,21.8779
2012-02-03,22.0215
2012-02-06,21.9833
2012-02-07,22.347
2012-02-08,22.5385
2012-02-09,22.1939
2012-02-10,22.079
2012-02-13,21.945
2012-02-14,21.8875
2012-02-15,21.8396
2012-02-16,22.1268
2012-02-17,22.8162
2012-02-21,22.6918
2012-02-22,22.529
2012-02-23,22.5673
2012-02-24,22.663
2012-02-27,22.5673
2012-02-28,22.6343
2012-02-29,22.979
2012-03-01,22.8449
2012-03-02,22.7013
2012-03-05,22.7204
2012-03-06,22.5864
2012-03-07,22.596
2012-03-08,22.8928
2012-03-09,23.0843
2012-03-12,23.3524
2012-03-13,23.2566
2012-03-14,22.9407
2012-03-15,22.8641
2012-03-16,22.5864
2012-03-19,22.5864
2012-03-20,22.4907
2012-03-21,22.7109
2012-03-22,22.9311
2012-03-23,22.9981
2012-03-26,23.1801
2012-03-27,23.0364
2012-03-28,22.9119
2012-03-29,23.2279
2012-03-30,23.3236
2012-04-02,23.4481
2012-04-03,23.496
2012-04-04,23.2279
2012-04-05,23.4577
2012-04-09,23.2758
2012-04-10,22.6918
2012-04-11,22.7204
2012-04-12,22.8641
2012-04-13,22.8832
2012-04-16,23.1418
2012-04-17,23.3236
2012-04-18,23.2662
2012-04-19,23.0269
2012-04-20,23.362
2012-04-23,23.2662
2012-04-24,23.2949
2012-04-25,23.563
2012-04-26,23.6114
2012-04-27,23.6694
2012-04-30,23.8531
2012-05-01,24.462
2012-05-02,24.1914
2012-05-03,23.9594
2012-05-04,24.0947
2012-05-07,23.9884
2012-05-08,24.0174
2012-05-09,24.085
2012-05-10,24.4233
2012-05-11,24.4137
2012-05-14,24.2686
2012-05-15,24.259
2012-05-16,24.201
2012-05-17,23.8434
2012-05-18,23.6018
2012-05-21,23.9788
2012-05-22,23.9401
2012-05-23,23.9207
2012-05-24,24.114
2012-05-25,24.2107
2012-05-29,24.404
2012-05-30,24.201
2012-05-31,24.2493
2012-06-01,23.8918
2012-06-04,23.9014
2012-06-05,23.9207
2012-06-06,24.1044
2012-06-07,24.2686
2012-06-08,24.404
2012-06-11,24.288
2012-06-12,24.5586
2012-06-13,24.4137
2012-06-14,24.4716
2012-06-15,24.5006
2012-06-18,24.5199
2012-06-19,24.23
2012-06-20,24.0367
2012-06-21,23.2442
2012-06-22,23.4954
2012-06-25,23.5052
2012-06-26,23.4568
2012-06-27,23.5922
2012-06-28,23.6888
2012-06-29,23.9014
2012-07-02,23.9788
2012-07-03,23.4761
2012-07-05,23.7274
2012-07-06,23.9304
2012-07-09,23.5922
2012-07-10,23.6501
2012-07-11,23.7178
2012-07-12,23.8724
2012-07-13,24.288
2012-07-16,24.143
2012-07-17,24.4233
2012-07-18,24.4233
2012-07-19,24.4813
2012-07-20,24.7712
2012-07-23,24.4523
2012-07-24,24.2976
2012-07-25,24.259
2012-07-26,24.6263
2012-07-27,24.9484
2012-07-30,25.0363
2012-07-31,24.9679
2012-08-01,24.7533
2012-08-02,24.3923
2012-08-03,24.6655
2012-08-06,24.6753
2012-08-07,24.5777
2012-08-08,24.6557
2012-08-09,24.6168
2012-08-10,24.5484
2012-08-13,24.3045
2012-08-14,24.4509
2012-08-15,24.3923
2012-08-16,24.2167
2012-08-17,24.0801
2012-08-20,24.0411
2012-08-21,23.7483
2012-08-22,23.6801
2012-08-23,23.4361
2012-08-24,23.5435
2012-08-27,23.6703
2012-08-28,23.8655
2012-08-29,23.7874
2012-08-30,23.7386
2012-08-31,23.7679
2012-09-04,24.0606
2012-09-05,24.3435
2012-09-06,24.8021
2012-09-07,24.6655
2012-09-10,24.5875
2012-09-11,24.685
2012-09-12,24.7435
2012-09-13,24.9484
2012-09-14,24.9387
2012-09-17,24.8899
2012-09-18,24.8899
2012-09-19,24.9289
2012-09-20,24.9484
2012-09-21,24.8606
2012-09-24,25.1045
2012-09-25,24.8801
2012-09-26,24.8412
2012-09-27,24.8704
2012-09-28,24.8412
2012-10-01,24.8216
2012-10-02,24.9387
2012-10-03,24.9972
2012-10-04,25.1729
2012-10-05,25.0753
2012-10-08,25.0363
2012-10-09,25.0363
2012-10-10,24.9094
2012-10-11,24.8412
2012-10-12,24.7045
2012-10-15,24.8412
2012-10-16,24.8216
2012-10-17,25.0557
2012-10-18,25.0753
2012-10-19,24.8021
2012-10-22,24.646
2012-10-23,24.4606
2012-10-24,24.5581
2012-10-25,24.8899
2012-10-26,24.8509
2012-10-31,24.8606
2012-11-01,24.8313
2012-11-02,24.6265
2012-11-05,24.2362
2012-11-06,24.2947
2012-11-07,23.9533
2012-11-08,23.9434
2012-11-09,23.6898
2012-11-12,23.4361
2012-11-13,23.4361
2012-11-14,23.0361
2012-11-15,22.8604
2012-11-16,23.3093
2012-11-19,23.2313
2012-11-20,23.3386
2012-11-21,23.3679
2012-11-23,23.3483
2012-11-26,23.28
2012-11-27,23.0654
2012-11-28,23.2507
2012-11-29,23.3483
2012-11-30,23.5727
2012-12-03,23.7483
2012-12-04,23.6215
2012-12-05,23.9533
2012-12-06,23.924
2012-12-07,23.8167
2012-12-10,23.8947
2012-12-11,23.5923
2012-12-12,23.7776
2012-12-13,23.6508
2012-12-14,23.563
2012-12-17,23.8361
2012-12-18,24.0606
2012-12-19,24.1093
2012-12-20,24.3923
2012-12-21,24.3143
2012-12-24,24.2947
2012-12-26,24.1289
2012-12-27,24.1289
2012-12-28,24.0703
2012-12-31,24.2655
2013-01-02,24.6069
2013-01-03,24.5484
2013-01-04,24.7435
2013-01-07,24.5387
2013-01-08,24.3434
2013-01-09,24.5581
2013-01-10,24.8801
2013-01-11,25.1338
2013-01-14,25.2216
2013-01-15,25.2509
2013-01-16,25.2509
2013-01-17,25.3973
2013-01-18,25.5923
2013-01-22,25.8753
2013-01-23,25.8558
2013-01-24,25.8655
2013-01-25,25.9436
2013-01-28,26.1095
2013-01-29,26.6071
2013-01-30,26.4412
2013-01-31,26.6086
2013-02-01,26.7267
2013-02-04,26.461
2013-02-05,26.5102
2013-02-06,26.4118
2013-02-07,26.4904
2013-02-08,26.4904
2013-02-11,26.5102
2013-02-12,26.6086
2013-02-13,26.7366
2013-02-14,26.4904
2013-02-15,26.3526
2013-02-19,26.8153
2013-02-20,26.6086
2013-02-21,26.5396
2013-02-22,26.7759
2013-02-25,26.4904
2013-02-26,26.6972
2013-02-27,26.9827
2013-02-28,27.278
2013-03-01,27.4748
2013-03-04,27.7308
2013-03-05,27.8391
2013-03-06,27.7997
2013-03-07,27.593
2013-03-08,27.849
2013-03-11,28.0852
2013-03-12,27.8982
2013-03-13,27.9867
2013-03-14,27.8883
2013-03-15,27.849
2013-03-18,27.662
2013-03-19,27.8982
2013-03-20,28.1147
2013-03-21,28.0753
2013-03-22,27.9277
2013-03-25,27.9474
2013-03-26,28.1738
2013-03-27,28.3215
2013-03-28,28.8826
2013-04-01,28.6956
2013-04-02,28.8136
2013-04-03,28.8136
2013-04-04,29.1287
2013-04-05,29.4043
2013-04-08,29.6898
2013-04-09,29.7194
2013-04-10,30.1426
2013-04-11,30.0639
2013-04-12,30.1229
2013-04-15,29.5716
2013-04-16,30.0442
2013-04-17,30.0048
2013-04-18,30.2017
2013-04-19,30.6053
2013-04-22,30.5561
2013-04-23,30.5561
2013-04-24,30.6348
2013-04-25,30.6644
2013-04-26,30.5849
2013-04-29,30.8528
2013-04-30,30.4857
2013-05-01,30.3369
2013-05-02,30.3072
2013-05-03,30.2576
2013-05-06,29.9103
2013-05-07,29.9203
2013-05-08,29.583
2013-05-09,28.5909
2013-05-10,28.4917
2013-05-13,28.5314
2013-05-14,28.8588
2013-05-15,29.4441
2013-05-16,29.2953
2013-05-17,29.5135
2013-05-20,29.4044
2013-05-21,29.3746
2013-05-22,28.7596
2013-05-23,28.5611
2013-05-24,28.5314
2013-05-28,28.6603
2013-05-29,28.2735
2013-05-30,28.5512
2013-05-31,28.5611
2013-06-03,28.4719
2013-06-04,28.0254
2013-06-05,27.7873
2013-06-06,28.1346
2013-06-07,28.3131
2013-06-10,28.204
2013-06-11,27.9461
2013-06-12,27.9362
2013-06-13,28.581
2013-06-14,28.8786
2013-06-17,28.9183
2013-06-18,29.1117
2013-06-19,28.4818
2013-06-20,27.4203
2013-06-21,27.8369
2013-06-24,27.4798
2013-06-25,27.6286
2013-06-26,27.8766
2013-06-27,28.204
2013-06-28,28.452
2013-07-01,28.2933
2013-07-02,28.452
2013-07-03,28.3231
2013-07-05,28.3925
2013-07-08,28.9976
2013-07-09,29.4639
2013-07-10,29.6028
2013-07-11,29.9103
2013-07-12,30.0393
2013-07-15,30.4857
2013-07-16,30.3964
2013-07-17,30.4857
2013-07-18,30.6941
2013-07-19,30.7437
2013-07-22,30.7734
2013-07-23,30.9222
2013-07-24,30.3369
2013-07-25,31.1802
2013-07-26,31.1702
2013-07-29,30.8
2013-07-30,30.84
2013-07-31,30.68
2013-08-01,31.12
2013-08-02,31.1
2013-08-05,30.84
2013-08-06,30.41
2013-08-07,30.57
2013-08-08,30.78
2013-08-09,30.68
