date,close_price
1999-01-22,1.62775
1999-01-25,1.78086
1999-01-26,1.63757
1999-01-27,1.62775
1999-01-28,1.63102
1999-01-29,1.56061
1999-02-01,1.58681
1999-02-02,1.45335
1999-02-03,1.51476
1999-02-04,1.57616
1999-02-05,1.62202
1999-02-08,1.57125
1999-02-09,1.50493
1999-02-10,1.48937
1999-02-11,1.62775
1999-02-12,1.71454
1999-02-16,1.71945
1999-02-17,1.64822
1999-02-18,1.65313
1999-02-19,1.69898
1999-02-22,1.69898
1999-02-23,1.83244
1999-02-24,1.93479
1999-02-25,1.86274
1999-02-26,1.80133
1999-03-01,1.78086
1999-03-02,1.79151
1999-03-03,1.66869
1999-03-04,1.63266
1999-03-05,1.72436
1999-03-08,1.75057
1999-03-09,1.80133
1999-03-10,1.77595
1999-03-11,1.69898
1999-03-12,1.66869
1999-03-15,1.7301
1999-03-16,1.68343
1999-03-17,1.69407
1999-03-18,1.71454
1999-03-19,1.7301
1999-03-22,1.66869
1999-03-23,1.56634
1999-03-24,1.5557
1999-03-25,1.57616
1999-03-26,1.71945
1999-03-29,1.77104
1999-03-30,1.6171
1999-03-31,1.7301
1999-04-01,1.67851
1999-04-05,1.62775
1999-04-06,1.59663
1999-04-07,1.71945
1999-04-08,1.75057
1999-04-09,1.71945
1999-04-12,1.64822
1999-04-13,1.58108
1999-04-14,1.53523
1999-04-15,1.57616
1999-04-16,1.62775
1999-04-19,1.5557
1999-04-20,1.51476
1999-04-21,1.53523
1999-04-22,1.48446
1999-04-23,1.41241
1999-04-26,1.34117
1999-04-27,1.48446
1999-04-28,1.47382
1999-04-29,1.46399
1999-04-30,1.49429
1999-05-03,1.50493
1999-05-04,1.42305
1999-05-05,1.45335
1999-05-06,1.41241
1999-05-07,1.43288
1999-05-10,1.43779
1999-05-11,1.50984
1999-05-12,1.5557
1999-05-13,1.5557
1999-05-14,1.46399
1999-05-17,1.54587
1999-05-18,1.63757
1999-05-19,1.54587
1999-05-20,1.42305
1999-05-21,1.39194
1999-05-24,1.39194
1999-05-25,1.39685
1999-05-26,1.39194
1999-05-27,1.39194
1999-05-28,1.39685
1999-06-01,1.40258
1999-06-02,1.351
1999-06-03,1.39194
1999-06-04,1.39194
1999-06-07,1.41241
1999-06-08,1.44843
1999-06-09,1.47382
1999-06-10,1.4689
1999-06-11,1.45335
1999-06-14,1.39194
1999-06-15,1.39194
1999-06-16,1.43288
1999-06-17,1.39194
1999-06-18,1.37147
1999-06-21,1.41241
1999-06-22,1.38702
1999-06-23,1.40258
1999-06-24,1.37638
1999-06-25,1.40258
1999-06-28,1.42305
1999-06-29,1.43779
1999-06-30,1.56061
1999-07-01,1.49429
1999-07-02,1.57616
1999-07-06,1.59663
1999-07-07,1.56634
1999-07-08,1.60155
1999-07-09,1.73992
1999-07-12,1.81689
1999-07-13,1.8218
1999-07-14,1.76039
1999-07-15,1.78086
1999-07-16,1.79642
1999-07-19,1.75057
1999-07-20,1.7039
1999-07-21,1.66869
1999-07-22,1.59172
1999-07-23,1.59172
1999-07-26,1.59663
1999-07-27,1.60155
1999-07-28,1.62775
1999-07-29,1.63757
1999-07-30,1.65313
1999-08-02,1.66296
1999-08-03,1.62202
1999-08-04,1.62775
1999-08-05,1.64822
1999-08-06,1.64822
1999-08-09,1.64822
1999-08-10,1.67851
1999-08-11,1.79151
1999-08-12,1.8783
1999-08-13,1.85783
1999-08-16,1.79151
1999-08-17,1.78086
1999-08-18,1.83244
1999-08-19,2.24184
1999-08-20,2.2009
1999-08-23,2.07235
1999-08-24,2.05188
1999-08-25,2.04697
1999-08-26,2.01667
1999-08-27,2.12885
1999-08-30,2.12148
1999-08-31,2.30325
1999-09-01,2.19025
1999-09-02,2.15996
1999-09-03,2.2009
1999-09-07,2.1747
1999-09-08,2.16979
1999-09-09,2.12393
1999-09-10,2.16487
1999-09-13,2.09855
1999-09-14,2.03714
1999-09-15,2.04697
1999-09-16,2.00112
1999-09-17,1.98556
1999-09-20,1.93479
1999-09-21,1.74483
1999-09-22,1.78086
1999-09-23,1.63266
1999-09-24,1.47873
1999-09-27,1.57616
1999-09-28,1.71945
1999-09-29,1.59172
1999-09-30,1.5557
1999-10-01,1.56634
1999-10-04,1.60728
1999-10-05,1.75057
1999-10-06,1.96509
1999-10-07,1.82671
1999-10-08,1.91924
1999-10-11,1.89385
1999-10-12,1.84718
1999-10-13,1.80133
1999-10-14,1.76039
1999-10-15,1.73992
1999-10-18,1.66869
1999-10-19,1.59172
1999-10-20,1.63757
1999-10-21,1.71945
1999-10-22,1.7653
1999-10-25,1.68343
1999-10-26,1.84718
1999-10-27,1.75057
1999-10-28,1.67851
1999-10-29,1.80624
1999-11-01,1.93479
1999-11-02,2.04697
1999-11-03,2.25166
1999-11-04,2.39495
1999-11-05,2.2926
1999-11-08,2.38513
1999-11-09,2.34419
1999-11-10,2.31799
1999-11-11,2.47683
1999-11-12,2.58982
1999-11-15,2.58982
1999-11-16,2.81499
1999-11-17,2.92716
1999-11-18,2.93781
1999-11-19,3.51587
1999-11-22,3.50031
1999-11-23,3.25468
1999-11-24,3.16297
1999-11-26,3.11876
1999-11-29,3.05489
1999-11-30,2.86575
1999-12-01,2.93781
1999-12-02,3.19327
1999-12-03,3.12203
1999-12-06,3.20883
1999-12-07,3.10156
1999-12-08,3.24485
1999-12-09,3.10156
1999-12-10,3.10648
1999-12-13,3.11139
1999-12-14,3.03442
1999-12-15,2.94763
1999-12-16,2.94763
1999-12-17,3.09092
1999-12-20,3.31609
1999-12-21,3.45937
1999-12-22,3.56172
1999-12-23,3.80245
1999-12-27,3.65425
1999-12-28,3.6436
1999-12-29,3.78198
1999-12-30,3.80736
1999-12-31,3.83847
2000-01-03,3.82783
2000-01-04,3.72548
2000-01-05,3.59284
2000-01-06,3.36767
2000-01-07,3.42908
2000-01-10,3.52078
2000-01-11,3.39797
2000-01-12,3.31117
2000-01-13,3.42908
2000-01-14,3.60266
2000-01-18,3.75086
2000-01-19,3.72548
2000-01-20,3.70501
2000-01-21,3.66407
2000-01-24,3.50031
2000-01-25,3.4389
2000-01-26,3.3472
2000-01-27,3.1425
2000-01-28,3.06063
2000-01-31,3.03442
2000-02-01,3.10156
2000-02-02,3.20391
2000-02-03,3.24485
2000-02-04,3.321
2000-02-07,3.13186
2000-02-08,3.28579
2000-02-09,3.38814
2000-02-10,4.08411
2000-02-11,4.1144
2000-02-14,4.74896
2000-02-15,4.5238
2000-02-16,4.78008
2000-02-17,4.95366
2000-02-18,5.42446
2000-02-22,5.35814
2000-02-23,5.39417
2000-02-24,5.34258
2000-02-25,5.00524
2000-02-28,4.94384
2000-02-29,5.30164
2000-03-01,5.09695
2000-03-02,4.74896
2000-03-03,4.82102
2000-03-06,4.78499
2000-03-07,6.78611
2000-03-08,6.86798
2000-03-09,8.14202
2000-03-10,9.64122
2000-03-13,12.0771
2000-03-14,9.11392
2000-03-15,8.64885
2000-03-16,7.71215
2000-03-17,8.17231
2000-03-20,8.1674
2000-03-21,7.73754
2000-03-22,7.76865
2000-03-23,7.97335
2000-03-24,7.63519
2000-03-27,7.11362
2000-03-28,6.59615
2000-03-29,6.09996
2000-03-30,6.13599
2000-03-31,6.89664
2000-04-03,6.40209
2000-04-04,6.10487
2000-04-05,7.50746
2000-04-06,7.85053
2000-04-07,8.36227
2000-04-10,7.65566
2000-04-11,7.20532
2000-04-12,6.45286
2000-04-13,6.22278
2000-04-14,5.59313
2000-04-17,5.91573
2000-04-18,6.97033
2000-04-19,6.63381
2000-04-20,6.55193
2000-04-24,6.22278
2000-04-25,6.91875
2000-04-26,6.88845
2000-04-27,7.37399
2000-04-28,7.32814
2000-05-01,7.4616
2000-05-02,7.24626
2000-05-03,7.15783
2000-05-04,7.20532
2000-05-05,7.53284
2000-05-08,7.29212
2000-05-09,7.16438
2000-05-10,6.4635
2000-05-11,6.70914
2000-05-12,6.68376
2000-05-15,6.97525
2000-05-16,7.6663
2000-05-17,9.11965
2000-05-18,8.39256
2000-05-19,8.35654
2000-05-22,8.85354
2000-05-23,8.85354
2000-05-24,8.68979
2000-05-25,8.56697
2000-05-26,8.65867
2000-05-30,8.9911
2000-05-31,9.32434
2000-06-01,9.56998
2000-06-02,10.7826
2000-06-05,11.0029
2000-06-06,10.5009
2000-06-07,9.9892
2000-06-08,10.0555
2000-06-09,10.3527
2000-06-12,10.0711
2000-06-13,10.3781
2000-06-14,10.4444
2000-06-15,10.6442
2000-06-16,12.2343
2000-06-19,13.1006
2000-06-20,12.8599
2000-06-21,14.1855
2000-06-22,13.3462
2000-06-23,12.2867
2000-06-26,13.623
2000-06-27,11.6366
2000-06-28,11.1257
2000-06-29,9.57983
2000-06-30,10.3986
2000-07-03,10.0924
2000-07-05,8.93462
2000-07-06,9.49795
2000-07-07,9.53889
2000-07-10,9.9794
2000-07-11,10.8293
2000-07-12,11.1388
2000-07-13,12.2
2000-07-14,12.087
2000-07-17,11.9347
2000-07-18,11.7087
2000-07-19,10.9718
2000-07-20,11.2174
2000-07-21,11.4221
2000-07-24,10.4494
2000-07-25,10.0924
2000-07-26,9.31454
2000-07-27,8.72993
2000-07-28,8.78397
2000-07-31,9.81564
2000-08-01,9.67153
2000-08-02,9.82547
2000-08-03,10.2561
2000-08-04,10.4297
2000-08-07,11.2796
2000-08-08,11.0127
2000-08-09,10.6852
2000-08-10,10.808
2000-08-11,10.5526
2000-08-14,10.6541
2000-08-15,11.6677
2000-08-16,11.8724
2000-08-17,12.2
2000-08-18,12.6503
2000-08-21,12.8239
2000-08-22,11.6268
2000-08-23,12.272
2000-08-24,12.4669
2000-08-25,12.2212
2000-08-28,12.7731
2000-08-29,12.7322
2000-08-30,12.8648
2000-08-31,13.0089
2000-09-01,13.0187
2000-09-05,13.04
2000-09-06,12.1082
2000-09-07,12.7829
2000-09-08,12.0362
2000-09-11,11.6776
2000-09-12,11.463
2000-09-13,11.463
2000-09-14,11.2993
2000-09-15,11.5859
2000-09-18,10.9931
2000-09-19,11.2796
2000-09-20,10.8997
2000-09-21,11.3402
2000-09-22,11.617
2000-09-25,12.385
2000-09-26,12.7125
2000-09-27,13.4281
2000-09-28,13.8375
2000-09-29,13.397
2000-10-02,13.0499
2000-10-03,12.4456
2000-10-04,12.2409
2000-10-05,11.9232
2000-10-06,11.1863
2000-10-09,11.4221
2000-10-10,10.5722
2000-10-11,10.6655
2000-10-12,10.3069
2000-10-13,10.6754
2000-10-16,10.3888
2000-10-17,9.66171
2000-10-18,9.50778
2000-10-19,10.3986
2000-10-20,11.463
2000-10-23,11.1765
2000-10-24,10.7982
2000-10-25,9.84675
2000-10-26,10.2758
2000-10-27,9.98922
2000-10-30,9.49795
2000-10-31,10.225
2000-11-01,10.153
2000-11-02,10.8801
2000-11-03,11.6579
2000-11-06,12.5897
2000-11-07,11.7185
2000-11-08,11.3615
2000-11-09,10.1939
2000-11-10,9.65188
2000-11-13,9.683
2000-11-14,11.4319
2000-11-15,11.2993
2000-11-16,10.4805
2000-11-17,10.2971
2000-11-20,9.61094
2000-11-21,9.38496
2000-11-22,8.90515
2000-11-24,9.41607
2000-11-27,9.02797
2000-11-28,8.39258
2000-11-29,7.91114
2000-11-30,6.5716
2000-12-01,7.26921
2000-12-04,7.3691
2000-12-05,7.90131
2000-12-06,6.84671
2000-12-07,6.61254
2000-12-08,8.11583
2000-12-11,8.16824
2000-12-12,7.94225
2000-12-13,7.30851
2000-12-14,6.79595
2000-12-15,6.136
2000-12-18,6.32596
2000-12-19,5.8134
2000-12-20,5.16819
2000-12-21,4.56557
2000-12-22,5.8134
2000-12-26,5.48588
2000-12-27,5.87563
2000-12-28,5.87563
2000-12-29,5.40401
2001-01-02,4.92256
2001-01-03,6.42749
2001-01-04,7.18569
2001-01-05,6.13109
2001-01-08,6.61254
2001-01-09,6.7763
2001-01-10,7.25611
2001-01-11,7.85055
2001-01-12,7.70644
2001-01-16,7.05141
2001-01-17,7.35927
2001-01-18,8.70045
2001-01-19,8.5154
2001-01-22,8.20918
2001-01-23,8.96574
2001-01-24,8.99685
2001-01-25,8.02413
2001-01-26,8.27959
2001-01-29,8.332
2001-01-30,8.54652
2001-01-31,8.50558
2001-02-01,8.53669
2001-02-02,7.6655
2001-02-05,7.68679
2001-02-06,7.70644
2001-02-07,7.34617
2001-02-08,7.30851
2001-02-09,7.24628
2001-02-12,7.10381
2001-02-13,7.27739
2001-02-14,7.79978
2001-02-15,9.24249
2001-02-16,9.7747
2001-02-20,8.84292
2001-02-21,9.17043
2001-02-22,9.57
2001-02-23,8.9248
2001-02-26,8.67916
2001-02-27,8.16824
2001-02-28,7.24628
2001-03-01,7.91114
2001-03-02,7.19715
2001-03-05,7.15458
2001-03-06,7.90131
2001-03-07,8.53014
2001-03-08,8.84292
2001-03-09,8.13712
2001-03-12,7.90131
2001-03-13,8.83309
2001-03-14,9.37513
2001-03-15,9.81236
2001-03-16,9.75341
2001-03-19,10.3266
2001-03-20,9.36531
2001-03-21,10.1022
2001-03-22,11.0635
2001-03-23,10.975
2001-03-26,11.504
2001-03-27,11.1978
2001-03-28,11.1568
2001-03-29,11.3615
2001-03-30,10.5837
2001-04-02,10.1743
2001-04-03,10.5116
2001-04-04,9.47502
2001-04-05,10.338
2001-04-06,10.1939
2001-04-09,9.7747
2001-04-10,10.7245
2001-04-11,11.3763
2001-04-12,11.5859
2001-04-16,11.2141
2001-04-17,11.7889
2001-04-18,12.6519
2001-04-19,13.6803
2001-04-20,14.2797
2001-04-23,13.4871
2001-04-24,12.5357
2001-04-25,13.1317
2001-04-26,12.0362
2001-04-27,12.9369
2001-04-30,13.7065
2001-05-01,14.9085
2001-05-02,14.5663
2001-05-03,14.5286
2001-05-04,14.7235
2001-05-07,15.3654
2001-05-08,14.2879
2001-05-09,13.551
2001-05-10,13.0859
2001-05-11,12.7846
2001-05-14,12.8304
2001-05-15,13.3184
2001-05-16,14.0324
2001-05-17,14.1569
2001-05-18,14.1077
2001-05-21,14.7546
2001-05-22,15.2524
2001-05-23,15.1165
2001-05-24,15.3064
2001-05-25,15.0002
2001-05-29,14.3943
2001-05-30,14.1307
2001-05-31,14.0914
2001-06-01,14.7955
2001-06-04,14.5335
2001-06-05,15.3359
2001-06-06,15.3441
2001-06-07,16.289
2001-06-08,15.8272
2001-06-11,15.4014
2001-06-12,15.8796
2001-06-13,15.3294
2001-06-14,15.3277
2001-06-15,15.5603
2001-06-18,14.9511
2001-06-19,14.1077
2001-06-20,14.7218
2001-06-21,14.9871
2001-06-22,14.9642
2001-06-25,14.9511
2001-06-26,15.3736
2001-06-27,14.8856
2001-06-28,15.0788
2001-06-29,15.1099
2001-07-02,14.4975
2001-07-03,14.7382
2001-07-05,13.7016
2001-07-06,13.2611
2001-07-09,12.7993
2001-07-10,12.9074
2001-07-11,12.9303
2001-07-12,13.5444
2001-07-13,13.2644
2001-07-16,12.1525
2001-07-17,12.9287
2001-07-18,12.4259
2001-07-19,12.5275
2001-07-20,12.2835
2001-07-23,11.1159
2001-07-24,11.8528
2001-07-25,11.7283
2001-07-26,12.9516
2001-07-27,13.2611
2001-07-30,12.9778
2001-07-31,13.2431
2001-08-01,14.0373
2001-08-02,14.3697
2001-08-03,14.3059
2001-08-06,14.7202
2001-08-07,14.5073
2001-08-08,14.0995
2001-08-09,13.8555
2001-08-10,13.8212
2001-08-13,14.45
2001-08-14,14.0209
2001-08-15,14.0619
2001-08-16,14.6809
2001-08-17,13.7393
2001-08-20,13.6083
2001-08-21,13.3332
2001-08-22,13.867
2001-08-23,13.5264
2001-08-24,13.944
2001-08-27,14.4647
2001-08-28,14.2469
2001-08-29,13.8031
2001-08-30,13.772
2001-08-31,13.8801
2001-09-04,12.9172
2001-09-05,13.1923
2001-09-06,12.6749
2001-09-07,12.778
2001-09-10,12.4423
2001-09-17,11.106
2001-09-18,10.3986
2001-09-19,10.3527
2001-09-20,9.47827
2001-09-21,8.82652
2001-09-24,9.85819
2001-09-25,9.45207
2001-09-26,9.09508
2001-09-27,8.64311
2001-09-28,8.99355
2001-10-01,8.21406
2001-10-02,7.86035
2001-10-03,9.36692
2001-10-04,10.5689
2001-10-05,10.7687
2001-10-08,10.9881
2001-10-09,10.546
2001-10-10,11.2337
2001-10-11,12.4325
2001-10-12,13.1268
2001-10-15,13.2054
2001-10-16,14.4925
2001-10-17,13.6377
2001-10-18,14.2796
2001-10-19,14.5842
2001-10-22,14.8692
2001-10-23,14.617
2001-10-24,15.2393
2001-10-25,16.1268
2001-10-26,14.9674
2001-10-29,13.8506
2001-10-30,13.7982
2001-10-31,14.0111
2001-11-01,15.2622
2001-11-02,15.3932
2001-11-05,15.6355
2001-11-06,16.5428
2001-11-07,16.5821
2001-11-08,16.2644
2001-11-09,17.3943
2001-11-12,17.8987
2001-11-13,17.748
2001-11-14,17.2567
2001-11-15,17.3255
2001-11-16,17.2109
2001-11-19,16.8441
2001-11-20,16.2938
2001-11-21,16.1432
2001-11-23,16.343
2001-11-26,17.4795
2001-11-27,17.7022
2001-11-28,16.8408
2001-11-29,17.5581
2001-11-30,17.8888
2001-12-03,17.6105
2001-12-04,19.045
2001-12-05,20.5843
2001-12-06,20.1978
2001-12-07,19.6509
2001-12-10,19.89
2001-12-11,20.5188
2001-12-12,21.0625
2001-12-13,20.5515
2001-12-14,21.4981
2001-12-17,22.2743
2001-12-18,21.7175
2001-12-19,21.0788
2001-12-20,20.2764
2001-12-21,21.1509
2001-12-24,21.6356
2001-12-26,22.2743
2001-12-27,22.7492
2001-12-28,22.1989
2001-12-31,21.9631
2002-01-02,22.0417
2002-01-03,23.5385
2002-01-04,22.7819
2002-01-07,22.1465
2002-01-08,22.4413
2002-01-09,22.2382
2002-01-10,21.5996
2002-01-11,20.6858
2002-01-14,19.6279
2002-01-15,21.3703
2002-01-16,20.5253
2002-01-17,21.236
2002-01-18,20.9675
2002-01-22,20.3616
2002-01-23,20.771
2002-01-24,21.4522
2002-01-25,21.5079
2002-01-28,22.235
2002-01-29,21.1902
2002-01-30,21.4096
2002-01-31,21.3867
2002-02-01,21.0559
2002-02-04,20.0111
2002-02-05,19.8179
2002-02-06,20.3288
2002-02-07,19.5985
2002-02-08,18.95
2002-02-11,19.9555
2002-02-12,20.3649
2002-02-13,20.0603
2002-02-14,20.4697
2002-02-15,18.7731
2002-02-19,17.5482
2002-02-20,18.4653
2002-02-21,17.2043
2002-02-22,16.3594
2002-02-25,17.6694
2002-02-26,18.033
2002-02-27,17.4467
2002-02-28,16.7065
2002-03-01,18.2753
2002-03-04,19.3037
2002-03-05,19.3692
2002-03-06,18.7011
2002-03-07,18.5635
2002-03-08,19.081
2002-03-11,18.8812
2002-03-12,17.8397
2002-03-13,17.5515
2002-03-14,16.6214
2002-03-15,17.2731
2002-03-18,17.2469
2002-03-19,16.9227
2002-03-20,15.2294
2002-03-21,16.0318
2002-03-22,15.9991
2002-03-25,15.0788
2002-03-26,15.367
2002-03-27,14.9216
2002-03-28,14.5482
2002-04-01,14.2764
2002-04-02,13.9128
2002-04-03,14.1454
2002-04-04,14.1061
2002-04-05,13.7884
2002-04-08,14.2109
2002-04-09,13.3495
2002-04-10,12.5929
2002-04-11,12.0394
2002-04-12,12.0263
2002-04-15,12.5274
2002-04-16,13.0416
2002-04-17,13.225
2002-04-18,13.0154
2002-04-19,12.0951
2002-04-22,12.1377
2002-04-23,11.63
2002-04-24,10.677
2002-04-25,11.0602
2002-04-26,9.99574
2002-04-29,11.594
2002-04-30,11.3844
2002-05-01,11.6104
2002-05-02,11.2043
2002-05-03,10.7589
2002-05-06,10.3167
2002-05-07,10.5623
2002-05-08,11.7578
2002-05-09,11.2861
2002-05-10,10.4837
2002-05-13,11.0602
2002-05-14,12.1999
2002-05-15,12.4161
2002-05-16,12.4456
2002-05-17,12.8353
2002-05-20,12.986
2002-05-21,11.987
2002-05-22,12.4325
2002-05-23,11.7021
2002-05-24,11.4663
2002-05-28,11.0241
2002-05-29,11.3975
2002-05-30,11.237
2002-05-31,10.9783
2002-06-03,10.3331
2002-06-04,10.8309
2002-06-05,10.6933
2002-06-06,10.6737
2002-06-07,10.6049
2002-06-10,10.5034
2002-06-11,10.0252
2002-06-12,9.16386
2002-06-13,9.04595
2002-06-14,9.22608
2002-06-17,9.33744
2002-06-18,9.31124
2002-06-19,7.8276
2002-06-20,7.73262
2002-06-21,7.44113
2002-06-24,7.55904
2002-06-25,6.92366
2002-06-26,6.58304
2002-06-27,5.55792
2002-06-28,5.62342
2002-07-01,5.63652
2002-07-02,5.24023
2002-07-03,5.7184
2002-07-05,6.2064
2002-07-08,6.38981
2002-07-09,6.06884
2002-07-10,5.93456
2002-07-11,6.53719
2002-07-12,6.50771
2002-07-15,7.09396
2002-07-16,6.96951
2002-07-17,6.38326
2002-07-18,6.22278
2002-07-19,5.94766
2002-07-22,5.64963
2002-07-23,5.178
2002-07-24,5.6005
2002-07-25,4.94547
2002-07-26,4.82101
2002-07-29,4.96512
2002-07-30,5.34176
2002-07-31,3.62886
2002-08-01,3.2817
2002-08-02,3.06226
2002-08-05,2.80352
2002-08-06,2.97711
2002-08-07,2.94108
2002-08-08,3.10156
2002-08-09,3.01313
2002-08-12,3.01968
2002-08-13,2.95418
2002-08-14,3.16707
2002-08-15,3.34392
2002-08-16,3.52406
2002-08-19,4.14306
2002-08-20,3.95638
2002-08-21,4.14961
2002-08-22,4.05463
2002-08-23,3.75987
2002-08-26,3.79589
2002-08-27,3.58628
2002-08-28,3.35702
2002-08-29,3.39633
2002-08-30,3.32427
2002-09-03,3.10484
2002-09-04,3.08846
2002-09-05,2.95418
2002-09-06,3.02296
2002-09-09,3.02951
2002-09-10,3.48148
2002-09-11,3.62886
2002-09-12,3.50113
2002-09-13,3.45528
2002-09-16,3.25877
2002-09-17,3.21619
2002-09-18,3.11794
2002-09-19,2.99348
2002-09-20,3.02623
2002-09-23,2.88213
2002-09-24,2.91488
2002-09-25,3.07209
2002-09-26,2.8985
2002-09-27,2.80352
2002-09-30,2.8068
2002-10-01,2.96401
2002-10-02,2.95746
2002-10-03,2.8068
2002-10-04,2.66269
2002-10-07,2.53169
2002-10-08,2.44653
2002-10-09,2.41051
2002-10-10,2.55134
2002-10-11,2.84283
2002-10-14,2.80352
2002-10-15,3.09829
2002-10-16,2.81007
2002-10-17,3.07536
2002-10-18,3.07864
2002-10-21,3.38322
2002-10-22,3.48148
2002-10-23,3.60921
2002-10-24,3.42253
2002-10-25,3.61576
2002-10-28,3.65179
2002-10-29,3.4913
2002-10-30,3.68126
2002-10-31,3.90397
2002-11-01,4.61468
2002-11-04,5.08958
2002-11-05,4.91272
2002-11-06,5.25661
2002-11-07,4.77189
2002-11-08,3.71729
2002-11-11,3.42908
2002-11-12,3.73367
2002-11-13,3.85157
2002-11-14,4.11686
2002-11-15,4.41162
2002-11-18,4.56883
2002-11-19,4.63761
2002-11-20,4.89634
2002-11-21,5.28281
2002-11-22,5.1256
2002-11-25,5.34831
2002-11-26,5.22713
2002-11-27,5.59067
2002-11-29,5.62342
2002-12-02,5.59722
2002-12-03,5.20093
2002-12-04,4.58193
2002-12-05,4.65071
2002-12-06,4.63761
2002-12-09,4.25441
2002-12-10,4.62123
2002-12-11,4.57538
2002-12-12,4.51643
2002-12-13,4.33302
2002-12-16,4.60158
2002-12-17,4.5983
2002-12-18,4.25114
2002-12-19,4.13978
2002-12-20,4.21184
2002-12-23,4.23476
2002-12-24,4.11031
2002-12-26,4.05135
2002-12-27,3.91707
2002-12-30,3.78607
2002-12-31,3.76969
2003-01-02,4.02843
2003-01-03,4.01533
2003-01-06,4.36249
2003-01-07,4.33302
2003-01-08,3.92362
2003-01-09,3.97275
2003-01-10,4.05463
2003-01-13,4.02188
2003-01-14,4.06118
2003-01-15,3.93345
2003-01-16,3.64196
2003-01-17,3.52078
2003-01-21,3.4389
2003-01-22,3.42908
2003-01-23,3.53388
2003-01-24,3.32755
2003-01-27,3.2817
2003-01-28,3.40288
2003-01-29,3.46838
2003-01-30,3.33082
2003-01-31,3.37995
2003-02-03,3.44218
2003-02-04,3.3079
2003-02-05,3.31772
2003-02-06,3.35047
2003-02-07,3.19654
2003-02-10,3.24239
2003-02-11,3.18017
2003-02-12,3.19982
2003-02-13,3.21947
2003-02-14,3.93345
2003-02-18,4.16271
2003-02-19,4.21184
2003-02-20,4.21184
2003-02-21,4.21184
2003-02-24,4.27079
2003-02-25,4.21511
2003-02-26,4.03825
2003-02-27,4.11358
2003-02-28,4.12996
2003-03-03,4.04808
2003-03-04,4.0317
2003-03-05,4.11686
2003-03-06,4.0186
2003-03-07,4.08083
2003-03-10,3.97603
2003-03-11,4.01533
2003-03-12,4.12013
2003-03-13,4.52625
2003-03-14,4.39525
2003-03-17,4.66708
2003-03-18,4.60813
2003-03-19,4.61796
2003-03-20,4.68018
2003-03-21,4.63761
2003-03-24,4.4673
2003-03-25,4.59503
2003-03-26,4.70966
2003-03-27,4.5721
2003-03-28,4.35594
2003-03-31,4.22166
2003-04-01,4.33957
2003-04-02,4.49677
2003-04-03,4.52953
2003-04-04,4.38869
2003-04-07,4.41817
2003-04-08,4.37559
2003-04-09,4.36577
2003-04-10,4.38869
2003-04-11,4.31992
2003-04-14,4.41817
2003-04-15,4.37559
2003-04-16,4.39852
2003-04-17,4.46402
2003-04-21,4.58193
2003-04-22,4.63433
2003-04-23,4.73586
2003-04-24,4.6114
2003-04-25,4.42472
2003-04-28,4.5721
2003-04-29,4.71293
2003-04-30,4.67363
2003-05-01,4.70311
2003-05-02,5.20748
2003-05-05,5.33521
2003-05-06,5.33194
2003-05-07,5.27298
2003-05-08,5.26971
2003-05-09,6.98588
2003-05-12,6.80248
2003-05-13,6.6682
2003-05-14,6.66165
2003-05-15,6.89091
2003-05-16,6.88763
2003-05-19,6.52081
2003-05-20,6.63217
2003-05-21,6.8385
2003-05-22,6.83195
2003-05-23,6.83195
2003-05-27,7.42475
2003-05-28,7.392
2003-05-29,7.92258
2003-05-30,8.60708
2003-06-02,8.09943
2003-06-03,8.25009
2003-06-04,8.42695
2003-06-05,8.68569
2003-06-06,8.41385
2003-06-09,8.30904
2003-06-10,8.44987
2003-06-11,8.46625
2003-06-12,8.33525
2003-06-13,7.68677
2003-06-16,7.8538
2003-06-17,8.04376
2003-06-18,8.32542
2003-06-19,7.84397
2003-06-20,7.79157
2003-06-23,7.42475
2003-06-24,7.46733
2003-06-25,7.53938
2003-06-26,7.51318
2003-06-27,7.38545
2003-06-30,7.49681
2003-07-01,7.79812
2003-07-02,7.78175
2003-07-03,7.71952
2003-07-07,8.18131
2003-07-08,8.10926
2003-07-09,8.29922
2003-07-10,7.9193
2003-07-11,8.00446
2003-07-14,7.92913
2003-07-15,7.68677
2003-07-16,7.54266
2003-07-17,7.21842
2003-07-18,6.96296
2003-07-21,6.8516
2003-07-22,6.97278
2003-07-23,7.06776
2003-07-24,6.78283
2003-07-25,6.91056
2003-07-28,6.6813
2003-07-29,6.2064
2003-07-30,6.17365
2003-07-31,6.26863
2003-08-01,6.45204
2003-08-04,6.69112
2003-08-05,6.64854
2003-08-06,6.42584
2003-08-07,6.31776
2003-08-08,5.0863
2003-08-11,5.34176
2003-08-12,5.45639
2003-08-13,5.48914
2003-08-14,5.30901
2003-08-15,5.28281
2003-08-18,5.43674
2003-08-19,5.85268
2003-08-20,5.78063
2003-08-21,5.94111
2003-08-22,6.00334
2003-08-25,5.94439
2003-08-26,5.87234
2003-08-27,6.00334
2003-08-28,5.83958
2003-08-29,5.92474
2003-09-02,5.89854
2003-09-03,5.79046
2003-09-04,5.85268
2003-09-05,6.11142
2003-09-08,6.40291
2003-09-09,6.773
2003-09-10,6.32758
2003-09-11,6.26863
2003-09-12,6.32758
2003-09-15,6.21623
2003-09-16,6.41601
2003-09-17,6.48479
2003-09-18,6.52736
2003-09-19,6.49461
2003-09-22,6.23588
2003-09-23,6.2981
2003-09-24,5.82321
2003-09-25,5.72168
2003-09-26,5.50552
2003-09-29,5.24023
2003-09-30,5.20748
2003-10-01,5.28281
2003-10-02,5.28281
2003-10-03,5.50224
2003-10-06,5.44984
2003-10-07,5.47932
2003-10-08,5.33849
2003-10-09,5.40727
2003-10-10,5.47277
2003-10-13,5.53827
2003-10-14,5.6398
2003-10-15,5.56447
2003-10-16,5.62342
2003-10-17,5.45639
2003-10-20,5.57102
2003-10-21,5.72823
2003-10-22,5.66273
2003-10-23,5.63325
2003-10-24,5.61032
2003-10-27,5.63325
2003-10-28,5.98369
2003-10-29,5.98697
2003-10-30,5.89199
2003-10-31,5.77408
2003-11-03,5.92474
2003-11-04,5.91491
2003-11-05,5.92474
2003-11-06,5.95421
2003-11-07,7.12017
2003-11-10,7.10379
2003-11-11,6.92038
2003-11-12,6.99571
2003-11-13,7.03501
2003-11-14,6.59942
2003-11-17,6.50444
2003-11-18,6.45204
2003-11-19,6.64199
2003-11-20,6.44549
2003-11-21,6.44221
2003-11-24,6.86143
2003-11-25,6.94658
2003-11-26,6.96951
2003-11-28,6.92693
2003-12-01,7.04484
2003-12-02,7.01209
2003-12-03,6.96296
2003-12-04,6.94658
2003-12-05,6.69767
2003-12-08,6.72715
2003-12-09,6.41928
2003-12-10,6.51754
2003-12-11,6.87781
2003-12-12,6.8254
2003-12-15,6.69112
2003-12-16,6.773
2003-12-17,6.6551
2003-12-18,6.78938
2003-12-19,6.90728
2003-12-22,6.89091
2003-12-23,7.19222
2003-12-24,7.15947
2003-12-26,7.48043
2003-12-29,7.75227
2003-12-30,7.77192
2003-12-31,7.59834
2004-01-02,7.60489
2004-01-05,7.80795
2004-01-06,8.12236
2004-01-07,8.20424
2004-01-08,8.22389
2004-01-09,8.34507
2004-01-12,8.4335
2004-01-13,7.9979
2004-01-14,7.95533
2004-01-15,7.95205
2004-01-16,8.07651
2004-01-20,8.30577
2004-01-21,7.93568
2004-01-22,7.69987
2004-01-23,7.59179
2004-01-26,7.84725
2004-01-27,7.42148
2004-01-28,7.40838
2004-01-29,7.16274
2004-01-30,7.28065
2004-02-02,7.42148
2004-02-03,7.3527
2004-02-04,7.18894
2004-02-05,7.3134
2004-02-06,7.49026
2004-02-09,7.4182
2004-02-10,7.67039
2004-02-11,7.92258
2004-02-12,7.70642
2004-02-13,7.66712
2004-02-17,7.71297
2004-02-18,7.72607
2004-02-19,7.73262
2004-02-20,7.86362
2004-02-23,7.62454
2004-02-24,7.31995
2004-02-25,7.37563
2004-02-26,7.42803
2004-02-27,7.27082
2004-03-01,7.392
2004-03-02,7.25772
2004-03-03,7.17912
2004-03-04,7.31995
2004-03-05,7.2872
2004-03-08,7.00226
2004-03-09,6.97606
2004-03-10,6.87453
2004-03-11,6.8123
2004-03-12,6.98916
2004-03-15,6.80903
2004-03-16,7.07104
2004-03-17,7.2741
2004-03-18,7.34615
2004-03-19,7.27082
2004-03-22,7.19877
2004-03-23,7.22169
2004-03-24,7.56231
2004-03-25,8.01101
2004-03-26,7.97498
2004-03-29,8.31887
2004-03-30,8.55795
2004-03-31,8.61363
2004-04-01,8.499
2004-04-02,8.61363
2004-04-05,8.91167
2004-04-06,8.63001
2004-04-07,8.50555
2004-04-08,8.75774
2004-04-12,8.57761
2004-04-13,8.37127
2004-04-14,8.42695
2004-04-15,8.00773
2004-04-16,7.76537
2004-04-19,7.72607
2004-04-20,7.42803
2004-04-21,7.41493
2004-04-22,7.43785
2004-04-23,7.60489
2004-04-26,7.3134
2004-04-27,7.25445
2004-04-28,7.21842
2004-04-29,7.05466
2004-04-30,6.7337
2004-05-03,6.66165
2004-05-04,7.08086
2004-05-05,7.13327
2004-05-06,7.17912
2004-05-07,7.21842
2004-05-10,6.95313
2004-05-11,7.11362
2004-05-12,7.02191
2004-05-13,7.04811
2004-05-14,7.04156
2004-05-17,6.94658
2004-05-18,7.05794
2004-05-19,7.00881
2004-05-20,6.90401
2004-05-21,6.93021
2004-05-24,6.91056
2004-05-25,7.19877
2004-05-26,7.36253
2004-05-27,7.40183
2004-05-28,7.68022
2004-06-01,7.66384
2004-06-02,7.61144
2004-06-03,7.25772
2004-06-04,7.17912
2004-06-07,7.34943
2004-06-08,7.22169
2004-06-09,6.87125
2004-06-10,6.80248
2004-06-14,6.62234
2004-06-15,6.69767
2004-06-16,6.57977
2004-06-17,6.45204
2004-06-18,6.48806
2004-06-21,6.33741
2004-06-22,6.51754
2004-06-23,6.63872
2004-06-24,6.58632
2004-06-25,6.62889
2004-06-28,6.56994
2004-06-29,6.80248
2004-06-30,6.70422
2004-07-01,6.38653
2004-07-02,6.31448
2004-07-06,5.95749
2004-07-07,5.97387
2004-07-08,5.78391
2004-07-09,5.50224
2004-07-12,5.40399
2004-07-13,5.39416
2004-07-14,5.15508
2004-07-15,5.10268
2004-07-16,4.9815
2004-07-19,5.01425
2004-07-20,5.1387
2004-07-21,4.83411
2004-07-22,4.92909
2004-07-23,4.79154
2004-07-26,4.65726
2004-07-27,4.79809
2004-07-28,4.67363
2004-07-29,4.99787
2004-07-30,5.05355
2004-08-02,5.1125
2004-08-03,4.83084
2004-08-04,4.87997
2004-08-05,4.76534
2004-08-06,3.09174
2004-08-09,3.21292
2004-08-10,3.48475
2004-08-11,3.37667
2004-08-12,3.30462
2004-08-13,3.45528
2004-08-16,3.42253
2004-08-17,3.58301
2004-08-18,3.80244
2004-08-19,3.81554
2004-08-20,4.06773
2004-08-23,4.12013
2004-08-24,3.97603
2004-08-25,4.14961
2004-08-26,4.14961
2004-08-27,4.25441
2004-08-30,4.11031
2004-08-31,4.07101
2004-09-01,4.15288
2004-09-02,4.34612
2004-09-03,4.20529
2004-09-07,4.12013
2004-09-08,4.03825
2004-09-09,4.4411
2004-09-10,4.60485
2004-09-13,4.68018
2004-09-14,4.71621
2004-09-15,4.45747
2004-09-16,4.62778
2004-09-17,4.81119
2004-09-20,4.80791
2004-09-21,4.93237
2004-09-22,4.70966
2004-09-23,4.73914
2004-09-24,4.59175
2004-09-27,4.50988
2004-09-28,4.57538
2004-09-29,4.68018
2004-09-30,4.75551
2004-10-01,4.97167
2004-10-04,5.08958
2004-10-05,4.97822
2004-10-06,4.98477
2004-10-07,5.02407
2004-10-08,4.75224
2004-10-11,4.74896
2004-10-12,4.69983
2004-10-13,4.66053
2004-10-14,4.5066
2004-10-15,4.38869
2004-10-18,4.46075
2004-10-19,4.43455
2004-10-20,4.4804
2004-10-21,4.5983
2004-10-22,4.34612
2004-10-25,4.35922
2004-10-26,4.74896
2004-10-27,4.86032
2004-10-28,4.81774
2004-10-29,4.71948
2004-11-01,4.81446
2004-11-02,4.88979
2004-11-03,4.95202
2004-11-04,5.03062
2004-11-05,5.77408
2004-11-08,5.84613
2004-11-09,5.79701
2004-11-10,5.80683
2004-11-11,5.90181
2004-11-12,5.89854
2004-11-15,6.05247
2004-11-16,5.99352
2004-11-17,6.07867
2004-11-18,6.17037
2004-11-19,6.22933
2004-11-22,6.35706
2004-11-23,6.42584
2004-11-24,6.43894
2004-11-26,6.49789
2004-11-29,6.37016
2004-11-30,6.24243
2004-12-01,6.40946
2004-12-02,6.49789
2004-12-03,6.76973
2004-12-06,7.12017
2004-12-07,7.47061
2004-12-08,7.57541
2004-12-09,7.49681
2004-12-10,7.62454
2004-12-13,7.42148
2004-12-14,7.54266
2004-12-15,7.62781
2004-12-16,7.76864
2004-12-17,7.52628
2004-12-20,7.47388
2004-12-21,7.50336
2004-12-22,7.53283
2004-12-23,7.56231
2004-12-27,7.49026
2004-12-28,7.4313
2004-12-29,7.51646
2004-12-30,7.47716
2004-12-31,7.70314
2005-01-03,7.70969
2005-01-04,7.3396
2005-01-05,7.41493
2005-01-06,7.32977
2005-01-07,7.24135
2005-01-10,7.23152
2005-01-11,6.99244
2005-01-12,6.94331
2005-01-13,7.01536
2005-01-14,7.04811
2005-01-18,7.14309
2005-01-19,6.98588
2005-01-20,7.00226
2005-01-21,7.00226
2005-01-24,6.73697
2005-01-25,6.84833
2005-01-26,6.93676
2005-01-27,7.50008
2005-01-28,7.47716
2005-01-31,7.50991
2005-02-01,7.63436
2005-02-02,8.07978
2005-02-03,8.01101
2005-02-04,8.42695
2005-02-07,8.33525
2005-02-08,8.43022
2005-02-09,8.13546
2005-02-10,8.31559
2005-02-11,8.55468
2005-02-14,8.38437
2005-02-15,8.4728
2005-02-16,8.40075
2005-02-17,8.36145
2005-02-18,9.25884
2005-02-22,9.38329
2005-02-23,9.0918
2005-02-24,9.30796
2005-02-25,9.43569
2005-02-28,9.45535
2005-03-01,9.46844
2005-03-02,9.18351
2005-03-03,9.04268
2005-03-04,9.02302
2005-03-07,9.12128
2005-03-08,8.66276
2005-03-09,8.43022
2005-03-10,8.4335
2005-03-11,8.21734
2005-03-14,8.44333
2005-03-15,8.29594
2005-03-16,8.17804
2005-03-17,8.06996
2005-03-18,7.85052
2005-03-21,8.17476
2005-03-22,8.03066
2005-03-23,8.21734
2005-03-24,8.23699
2005-03-28,8.11254
2005-03-29,7.95205
2005-03-30,7.9455
2005-03-31,7.76537
2005-04-01,7.69659
2005-04-04,7.65074
2005-04-05,7.51318
2005-04-06,7.65401
2005-04-07,7.77192
2005-04-08,7.68022
2005-04-11,7.52628
2005-04-12,7.60161
2005-04-13,7.29047
2005-04-14,7.2348
2005-04-15,6.98261
2005-04-18,6.95313
2005-04-19,7.17257
2005-04-20,6.99244
2005-04-21,7.33633
2005-04-22,7.28065
2005-04-25,7.37235
2005-04-26,7.34943
2005-04-27,7.07104
2005-04-28,7.10379
2005-04-29,7.19877
2005-05-02,7.15619
2005-05-03,7.10707
2005-05-04,7.31995
2005-05-05,7.46078
2005-05-06,7.57214
2005-05-09,7.72607
2005-05-10,7.42475
2005-05-11,7.30685
2005-05-12,7.46406
2005-05-13,8.28284
2005-05-16,8.32214
2005-05-17,8.41385
2005-05-18,8.47608
2005-05-19,8.46625
2005-05-20,8.61363
2005-05-23,8.80687
2005-05-24,8.94442
2005-05-25,8.82979
2005-05-26,9.06888
2005-05-27,9.00337
2005-05-31,8.87892
2005-06-01,8.9739
2005-06-02,9.27194
2005-06-03,9.26866
2005-06-06,9.17696
2005-06-07,8.94115
2005-06-08,8.89202
2005-06-09,9.25556
2005-06-10,9.17368
2005-06-13,9.35382
2005-06-14,8.78066
2005-06-15,8.77411
2005-06-16,8.83307
2005-06-17,8.82324
2005-06-20,8.9346
2005-06-21,9.0394
2005-06-22,9.00665
2005-06-23,9.15076
2005-06-24,8.88547
2005-06-27,8.81014
2005-06-28,8.83962
2005-06-29,8.77084
2005-06-30,8.72499
2005-07-01,8.77411
2005-07-05,8.93787
2005-07-06,9.15076
2005-07-07,9.08853
2005-07-08,9.20316
2005-07-11,9.35709
2005-07-12,9.30469
2005-07-13,9.30469
2005-07-14,8.90184
2005-07-15,8.79049
2005-07-18,8.58743
2005-07-19,8.69551
2005-07-20,8.81342
2005-07-21,8.66603
2005-07-22,8.4597
2005-07-25,8.499
2005-07-26,8.68241
2005-07-27,8.84289
2005-07-28,8.93787
2005-07-29,8.88547
2005-08-01,8.98372
2005-08-02,9.14093
2005-08-03,9.11473
2005-08-04,9.02302
2005-08-05,9.25884
2005-08-08,9.27521
2005-08-09,9.26866
2005-08-10,9.08525
2005-08-11,9.24901
2005-08-12,9.82544
2005-08-15,10.058
2005-08-16,9.88766
2005-08-17,9.87784
2005-08-18,9.6191
2005-08-19,9.56015
2005-08-22,9.49465
2005-08-23,9.55687
2005-08-24,9.54377
2005-08-25,9.60273
2005-08-26,9.47172
2005-08-29,9.48482
2005-08-30,9.82871
2005-08-31,10.058
2005-09-01,10.0416
2005-09-02,9.89094
2005-09-06,9.96299
2005-09-07,10.2774
2005-09-08,10.4215
2005-09-09,10.5296
2005-09-12,10.5001
2005-09-13,10.8276
2005-09-14,10.677
2005-09-15,10.8931
2005-09-16,10.8604
2005-09-19,10.7228
2005-09-20,10.9324
2005-09-21,10.8342
2005-09-22,10.5427
2005-09-23,10.6999
2005-09-26,10.7949
2005-09-27,10.8473
2005-09-28,10.9095
2005-09-29,11.1224
2005-09-30,11.2337
2005-10-03,11.5416
2005-10-04,11.3975
2005-10-05,11.011
2005-10-06,10.9488
2005-10-07,10.8211
2005-10-10,10.5558
2005-10-11,10.4215
2005-10-12,10.546
2005-10-13,10.4968
2005-10-14,10.487
2005-10-17,10.582
2005-10-18,10.415
2005-10-19,10.3331
2005-10-20,10.4051
2005-10-21,10.4674
2005-10-24,10.7228
2005-10-25,10.7982
2005-10-26,10.5132
2005-10-27,10.2905
2005-10-28,10.6115
2005-10-31,10.9652
2005-11-01,10.8375
2005-11-02,11.4761
2005-11-03,11.3255
2005-11-04,11.1486
2005-11-07,11.1322
2005-11-08,10.8964
2005-11-09,11.3975
2005-11-10,10.9717
2005-11-11,11.1388
2005-11-14,11.3746
2005-11-15,11.391
2005-11-16,11.3484
2005-11-17,11.8757
2005-11-18,11.8462
2005-11-21,12.0558
2005-11-22,12.3571
2005-11-23,12.344
2005-11-25,12.4685
2005-11-28,12.4063
2005-11-29,11.6137
2005-11-30,11.8167
2005-12-01,11.9838
2005-12-02,11.9772
2005-12-05,11.761
2005-12-06,11.7938
2005-12-07,11.8495
2005-12-08,11.7316
2005-12-09,11.8953
2005-12-12,12.0689
2005-12-13,12.2556
2005-12-14,12.1115
2005-12-15,11.9543
2005-12-16,12.0624
2005-12-19,11.8691
2005-12-20,11.8495
2005-12-21,11.8364
2005-12-22,12.1868
2005-12-23,12.2851
2005-12-27,12.3735
2005-12-28,12.4816
2005-12-29,12.1999
2005-12-30,11.9903
2006-01-03,12.534
2006-01-04,12.8451
2006-01-05,13.1333
2006-01-06,13.3691
2006-01-09,13.7523
2006-01-10,13.7327
2006-01-11,14.2305
2006-01-12,14.0274
2006-01-13,13.9194
2006-01-17,13.9063
2006-01-18,13.9881
2006-01-19,14.784
2006-01-20,14.3713
2006-01-23,14.4499
2006-01-24,14.4827
2006-01-25,14.3582
2006-01-26,14.8331
2006-01-27,15.1377
2006-01-30,14.9838
2006-01-31,14.7185
2006-02-01,14.7316
2006-02-02,14.296
2006-02-03,14.4303
2006-02-06,14.8037
2006-02-07,14.2993
2006-02-08,14.6628
2006-02-09,14.4663
2006-02-10,14.3484
2006-02-13,14.427
2006-02-14,14.4434
2006-02-15,14.7644
2006-02-16,15.4423
2006-02-17,15.5504
2006-02-21,15.213
2006-02-22,15.1836
2006-02-23,14.9478
2006-02-24,14.9609
2006-02-27,15.5504
2006-02-28,15.3965
2006-03-01,15.9958
2006-03-02,15.9991
2006-03-03,16.1334
2006-03-06,16.0908
2006-03-07,15.7698
2006-03-08,15.7043
2006-03-09,15.819
2006-03-10,15.5176
2006-03-13,15.6781
2006-03-14,16.1301
2006-03-15,16.379
2006-03-16,15.8386
2006-03-17,15.9631
2006-03-20,15.8484
2006-03-21,16.6639
2006-03-22,16.1792
2006-03-23,16.4609
2006-03-24,17.0046
2006-03-27,17.4827
2006-03-28,17.7415
2006-03-29,18.6651
2006-03-30,18.8092
2006-03-31,18.7699
2006-04-03,18.9729
2006-04-04,19.8605
2006-04-05,20.0406
2006-04-06,20.0373
2006-04-07,20.0046
2006-04-10,19.6313
2006-04-11,19.1531
2006-04-12,19.9129
2006-04-13,19.402
2006-04-17,19.402
2006-04-18,18.9697
2006-04-19,19.0286
2006-04-20,19.0679
2006-04-21,18.3539
2006-04-24,18.95
2006-04-25,18.8976
2006-04-26,18.8125
2006-04-27,19.1334
2006-04-28,19.1203
2006-05-01,20.2535
2006-05-02,20.2142
2006-05-03,20.3059
2006-05-04,20.2339
2006-05-05,20.4435
2006-05-08,20.4238
2006-05-09,19.7754
2006-05-10,19.2644
2006-05-11,18.616
2006-05-12,17.2993
2006-05-15,17.4828
2006-05-16,17.0242
2006-05-17,16.3496
2006-05-18,15.6159
2006-05-19,15.9172
2006-05-22,15.7076
2006-05-23,15.5504
2006-05-24,15.7404
2006-05-25,15.6618
2006-05-26,15.6749
2006-05-30,15.046
2006-05-31,15.0591
2006-06-01,15.8124
2006-06-02,15.6028
2006-06-05,14.9478
2006-06-06,14.5744
2006-06-07,14.2797
2006-06-08,14.0176
2006-06-09,13.998
2006-06-12,13.2447
2006-06-13,13.022
2006-06-14,13.3757
2006-06-15,14.5417
2006-06-16,14.1487
2006-06-19,13.7818
2006-06-20,13.546
2006-06-21,13.6836
2006-06-22,13.284
2006-06-23,13.3299
2006-06-26,13.1792
2006-06-27,12.7927
2006-06-28,13.4543
2006-06-29,14.0373
2006-06-30,13.9718
2006-07-03,14.1618
2006-07-05,13.5329
2006-07-06,13.0941
2006-07-07,12.6879
2006-07-10,12.1443
2006-07-11,12.5504
2006-07-12,11.9543
2006-07-13,11.6399
2006-07-14,11.5285
2006-07-17,11.6923
2006-07-18,12.3211
2006-07-19,12.8124
2006-07-20,12.5831
2006-07-21,11.6071
2006-07-24,12.8386
2006-07-25,13.2447
2006-07-26,13.2709
2006-07-27,13.4609
2006-07-28,14.8692
2006-07-31,14.5024
2006-08-01,13.9194
2006-08-02,14.9936
2006-08-03,15.95
2006-08-04,15.6487
2006-08-07,15.5308
2006-08-08,15.9369
2006-08-09,15.891
2006-08-10,15.7993
2006-08-11,15.3343
2006-08-14,15.2884
2006-08-15,16.6836
2006-08-16,17.902
2006-08-17,17.6727
2006-08-18,17.9478
2006-08-21,17.2666
2006-08-22,17.2535
2006-08-23,17.1945
2006-08-24,17.3648
2006-08-25,17.3583
2006-08-28,17.9085
2006-08-29,18.7601
2006-08-30,19.1465
2006-08-31,19.0483
2006-09-01,18.2819
2006-09-05,18.6618
2006-09-06,17.7513
2006-09-07,18.0854
2006-09-08,18.1247
2006-09-11,18.4522
2006-09-12,18.8911
2006-09-13,19.0679
2006-09-14,18.9959
2006-09-15,19.343
2006-09-18,20.1029
2006-09-19,19.5723
2006-09-20,20.2994
2006-09-21,20.0963
2006-09-22,19.4871
2006-09-25,20.1618
2006-09-26,19.8081
2006-09-27,19.7426
2006-09-28,19.3561
2006-09-29,19.3823
2006-10-02,18.878
2006-10-03,18.5308
2006-10-04,20.3518
2006-10-05,19.8081
2006-10-06,20.2142
2006-10-09,21.557
2006-10-10,21.0658
2006-10-11,21.1968
2006-10-12,21.295
2006-10-13,22.1007
2006-10-16,22.0811
2006-10-17,21.2426
2006-10-18,20.6727
2006-10-19,21.0789
2006-10-20,20.8103
2006-10-23,20.6924
2006-10-24,21.3081
2006-10-25,21.485
2006-10-26,22.1728
2006-10-27,21.2099
2006-10-30,21.4719
2006-10-31,22.7819
2006-11-01,21.0789
2006-11-02,20.8955
2006-11-03,21.3016
2006-11-06,21.9828
2006-11-07,22.3038
2006-11-08,22.6837
2006-11-09,23.0898
2006-11-10,22.5592
2006-11-13,23.5614
2006-11-14,23.83
2006-11-15,23.4239
2006-11-16,23.7252
2006-11-17,23.7579
2006-11-20,23.9741
2006-11-21,23.6138
2006-11-22,24.0724
2006-11-24,24.2165
2006-11-27,23.1488
2006-11-28,23.5745
2006-11-29,23.9086
2006-11-30,24.2689
2006-12-01,23.2667
2006-12-04,24.2165
2006-12-05,23.9872
2006-12-06,23.9151
2006-12-07,23.3584
2006-12-08,23.306
2006-12-11,23.6924
2006-12-12,23.4501
2006-12-13,23.7252
2006-12-14,24.1575
2006-12-15,24.544
2006-12-18,25.009
2006-12-19,25.3169
2006-12-20,25.0811
2006-12-21,24.8584
2006-12-22,24.2427
2006-12-26,24.2492
2006-12-27,24.616
2006-12-28,24.3868
2006-12-29,24.2361
2007-01-03,23.6007
2007-01-04,23.5549
2007-01-05,22.0156
2007-01-08,22.2252
2007-01-09,21.7732
2007-01-10,22.854
2007-01-11,22.7557
2007-01-12,23.0767
2007-01-16,23.0964
2007-01-17,22.6378
2007-01-18,20.7448
2007-01-19,20.8234
2007-01-22,20.8889
2007-01-23,20.8758
2007-01-24,21.5505
2007-01-25,20.7579
2007-01-26,20.5876
2007-01-29,19.7492
2007-01-30,20.1684
2007-01-31,20.057
2007-02-01,20.3125
2007-02-02,20.8758
2007-02-05,21.2295
2007-02-06,21.9501
2007-02-07,22.8278
2007-02-08,22.4806
2007-02-09,21.3409
2007-02-12,21.8584
2007-02-13,22.2645
2007-02-14,21.9632
2007-02-15,22.1335
2007-02-16,21.4391
2007-02-20,21.616
2007-02-21,21.3016
2007-02-22,21.4391
2007-02-23,21.3998
2007-02-26,21.0461
2007-02-27,20.4369
2007-02-28,20.3059
2007-03-01,20.0308
2007-03-02,19.4871
2007-03-05,18.8059
2007-03-06,19.9457
2007-03-07,19.3561
2007-03-08,20.1618
2007-03-09,20.0046
2007-03-12,19.8278
2007-03-13,19.0548
2007-03-14,18.9238
2007-03-15,18.7535
2007-03-16,18.5701
2007-03-19,18.6422
2007-03-20,18.5701
2007-03-21,19.5854
2007-03-22,20.0701
2007-03-23,19.8474
2007-03-26,19.854
2007-03-27,19.5002
2007-03-28,19.14
2007-03-29,18.8059
2007-03-30,18.8452
2007-04-02,18.8125
2007-04-03,18.7601
2007-04-04,18.7273
2007-04-05,20.1946
2007-04-09,19.8867
2007-04-10,19.6706
2007-04-11,19.3103
2007-04-12,19.8605
2007-04-13,20.0046
2007-04-16,19.9195
2007-04-17,20.0963
2007-04-18,20.3845
2007-04-19,20.6334
2007-04-20,20.9151
2007-04-23,20.5614
2007-04-24,21.3278
2007-04-25,21.688
2007-04-26,21.9501
2007-04-27,21.6749
2007-04-30,21.5374
2007-05-01,21.7666
2007-05-02,21.485
2007-05-03,21.8977
2007-05-04,22.1204
2007-05-07,21.6618
2007-05-08,21.7994
2007-05-09,21.9042
2007-05-10,21.4915
2007-05-11,23.0243
2007-05-14,22.8081
2007-05-15,22.5854
2007-05-16,22.854
2007-05-17,22.4741
2007-05-18,22.9326
2007-05-21,22.9719
2007-05-22,23.1488
2007-05-23,22.5265
2007-05-24,21.7011
2007-05-25,22.0745
2007-05-29,22.271
2007-05-30,22.3103
2007-05-31,22.6968
2007-06-01,22.8147
2007-06-04,22.9719
2007-06-05,23.6531
2007-06-06,23.8496
2007-06-07,23.5942
2007-06-08,23.9544
2007-06-11,24.0462
2007-06-12,23.8234
2007-06-13,24.3016
2007-06-14,24.7929
2007-06-15,25.8671
2007-06-18,25.9195
2007-06-19,26.0898
2007-06-20,26.1095
2007-06-21,28.1073
2007-06-22,28.5593
2007-06-25,27.806
2007-06-26,26.5418
2007-06-27,27.2493
2007-06-28,27.4916
2007-06-29,27.0855
2007-07-02,28.1859
2007-07-03,28.2318
2007-07-05,28.5397
2007-07-06,28.6772
2007-07-09,29.5288
2007-07-10,29.7908
2007-07-11,29.627
2007-07-12,30.2296
2007-07-13,30.0397
2007-07-16,30.5899
2007-07-17,30.4392
2007-07-18,29.9021
2007-07-19,29.8825
2007-07-20,29.5157
2007-07-23,29.7908
2007-07-24,29.0637
2007-07-25,28.8999
2007-07-26,29.103
2007-07-27,29.0244
2007-07-30,29.7908
2007-07-31,30.0004
2007-08-01,29.758
2007-08-02,29.627
2007-08-03,27.8715
2007-08-06,28.068
2007-08-07,28.5724
2007-08-08,29.8694
2007-08-09,30.3803
2007-08-10,28.8082
2007-08-13,28.4938
2007-08-14,29.6467
2007-08-15,28.3759
2007-08-16,27.9043
2007-08-17,29.5157
2007-08-20,29.4305
2007-08-21,31.0288
2007-08-22,31.7035
2007-08-23,31.4152
2007-08-24,31.5987
2007-08-27,32.293
2007-08-28,30.3737
2007-08-29,32.0441
2007-08-30,31.8541
2007-08-31,33.5048
2007-09-04,34.4939
2007-09-05,34.2646
2007-09-06,34.448
2007-09-07,33.2166
2007-09-10,33.2035
2007-09-11,33.9174
2007-09-12,32.7089
2007-09-13,32.5812
2007-09-14,31.6871
2007-09-17,31.6478
2007-09-18,34.2908
2007-09-19,33.7701
2007-09-20,33.603
2007-09-21,33.888
2007-09-24,34.7526
2007-09-25,35.2046
2007-09-26,36.0004
2007-09-27,36.1576
2007-09-28,35.5976
2007-10-01,37.0616
2007-10-02,36.757
2007-10-03,35.2439
2007-10-04,35.3421
2007-10-05,36.2559
2007-10-08,36.8159
2007-10-09,36.1871
2007-10-10,36.2461
2007-10-11,34.6544
2007-10-12,35.4306
2007-10-15,35.7548
2007-10-16,36.1085
2007-10-17,38.8105
2007-10-18,38.84
2007-10-19,36.7963
2007-10-22,38.5059
2007-10-23,38.6042
2007-10-24,37.3072
2007-10-25,34.0845
2007-10-26,33.7799
2007-10-29,32.9644
2007-10-30,34.3203
2007-10-31,34.7035
2007-11-01,34.841
2007-11-02,36.1969
2007-11-05,36.1576
2007-11-06,37.1893
2007-11-07,35.4797
2007-11-08,33.2297
2007-11-09,32.8563
2007-11-12,29.5746
2007-11-13,32.0506
2007-11-14,31.5004
2007-11-15,31.2646
2007-11-16,31.9229
2007-11-19,29.7416
2007-11-20,29.496
2007-11-21,29.27
2007-11-23,29.6728
2007-11-26,28.9851
2007-11-27,30.2427
2007-11-28,32.3748
2007-11-29,32.4534
2007-11-30,31.0091
2007-12-03,31.353
2007-12-04,31.2744
2007-12-05,33.0037
2007-12-06,33.7308
2007-12-07,33.3083
2007-12-10,33.6423
2007-12-11,33.7013
2007-12-12,34.7723
2007-12-13,33.8487
2007-12-14,34.4284
2007-12-17,32.6696
2007-12-18,33.4753
2007-12-19,33.8094
2007-12-20,34.5364
2007-12-21,34.5266
2007-12-24,35.1554
2007-12-26,35.5386
2007-12-27,34.5757
2007-12-28,34.2319
2007-12-31,33.4556
2008-01-02,32.424
2008-01-03,32.1685
2008-01-04,29.4665
2008-01-07,26.4206
2008-01-08,26.9905
2008-01-09,28.3366
2008-01-10,27.7962
2008-01-11,26.7056
2008-01-14,28.3169
2008-01-15,26.2438
2008-01-16,23.3158
2008-01-17,22.9621
2008-01-18,24.3573
2008-01-22,23.2863
2008-01-23,23.6007
2008-01-24,25.4184
2008-01-25,24.5833
2008-01-28,24.1706
2008-01-29,24.9566
2008-01-30,24.6815
2008-01-31,24.259
2008-02-01,26.4108
2008-02-04,25.6149
2008-02-05,24.0036
2008-02-06,23.9151
2008-02-07,24.1706
2008-02-08,24.4654
2008-02-11,24.6422
2008-02-12,25.5363
2008-02-13,26.5287
2008-02-14,22.2153
2008-02-15,21.8223
2008-02-19,21.5374
2008-02-20,21.39
2008-02-21,20.8594
2008-02-22,21.9009
2008-02-25,21.9599
2008-02-26,22.0581
2008-02-27,22.4315
2008-02-28,21.6258
2008-02-29,20.997
2008-03-03,20.7906
2008-03-04,20.6138
2008-03-05,20.8005
2008-03-06,19.5133
2008-03-07,19.2087
2008-03-10,18.1476
2008-03-11,18.6683
2008-03-12,18.1476
2008-03-13,19.3463
2008-03-14,18.0199
2008-03-17,17.6072
2008-03-18,18.5996
2008-03-19,17.4107
2008-03-20,18.1967
2008-03-24,19.6902
2008-03-25,19.9358
2008-03-26,19.3267
2008-03-27,19.1007
2008-03-28,19.3561
2008-03-31,19.4446
2008-04-01,20.5941
2008-04-02,20.0341
2008-04-03,19.6411
2008-04-04,18.4424
2008-04-07,18.8943
2008-04-08,18.8059
2008-04-09,19.1203
2008-04-10,19.5133
2008-04-11,18.2164
2008-04-14,17.6269
2008-04-15,17.7742
2008-04-16,18.5013
2008-04-17,18.2655
2008-04-18,18.6683
2008-04-21,19.5526
2008-04-22,19.1694
2008-04-23,20.0832
2008-04-24,19.6018
2008-04-25,19.7786
2008-04-28,19.5035
2008-04-29,19.8278
2008-04-30,20.1815
2008-05-01,21.0854
2008-05-02,22.0778
2008-05-05,21.5865
2008-05-06,22.1466
2008-05-07,21.6258
2008-05-08,21.4195
2008-05-09,22.1171
2008-05-12,21.4489
2008-05-13,21.0854
2008-05-14,21.6848
2008-05-15,23.2863
2008-05-16,23.9839
2008-05-19,23.4828
2008-05-20,22.8245
2008-05-21,22.6673
2008-05-22,23.2274
2008-05-23,22.7459
2008-05-27,22.9424
2008-05-28,23.1881
2008-05-29,23.08
2008-05-30,24.2787
2008-06-02,24.3769
2008-06-03,23.5909
2008-06-04,23.7776
2008-06-05,24.4752
2008-06-06,23.5811
2008-06-09,23.3256
2008-06-10,21.9402
2008-06-11,20.8692
2008-06-12,20.9773
2008-06-13,20.8987
2008-06-16,20.6433
2008-06-17,20.2109
2008-06-18,19.5723
2008-06-19,19.5133
2008-06-20,19.3856
2008-06-23,19.0221
2008-06-24,19.6312
2008-06-25,19.7491
2008-06-26,18.7666
2008-06-27,18.8845
2008-06-30,18.3245
2008-07-01,18.3736
2008-07-02,17.7349
2008-07-03,12.2523
2008-07-07,11.9281
2008-07-08,11.8004
2008-07-09,11.6726
2008-07-10,11.6039
2008-07-11,11.5056
2008-07-14,10.9455
2008-07-15,11.0536
2008-07-16,11.1126
2008-07-17,11.1224
2008-07-18,11.3484
2008-07-21,11.4466
2008-07-22,11.1912
2008-07-23,11.4958
2008-07-24,10.8669
2008-07-25,11.3484
2008-07-28,11.3484
2008-07-29,11.427
2008-07-30,11.2698
2008-07-31,11.2305
2008-08-01,10.6508
2008-08-04,10.3953
2008-08-05,10.9652
2008-08-06,11.2993
2008-08-07,11.1421
2008-08-08,10.7883
2008-08-11,11.0143
2008-08-12,10.8571
2008-08-13,12.0755
2008-08-14,12.7633
2008-08-15,12.724
2008-08-18,13.0384
2008-08-19,13.1956
2008-08-20,13.8342
2008-08-21,13.3626
2008-08-22,13.3724
2008-08-25,13.1661
2008-08-26,12.8517
2008-08-27,12.9303
2008-08-28,12.9008
2008-08-29,12.4194
2008-09-02,12.1049
2008-09-03,11.4073
2008-09-04,11.3091
2008-09-05,11.4565
2008-09-08,10.9652
2008-09-09,10.6606
2008-09-10,10.6213
2008-09-11,10.13
2008-09-12,10.022
2008-09-15,9.13766
2008-09-16,9.43243
2008-09-17,9.82545
2008-09-18,10.8964
2008-09-19,11.201
2008-09-22,10.9848
2008-09-23,10.6704
2008-09-24,11.0536
2008-09-25,11.2796
2008-09-26,11.5056
2008-09-29,9.963
2008-09-30,10.4936
2008-10-01,10.2283
2008-10-02,9.18679
2008-10-03,8.8822
2008-10-06,7.65402
2008-10-07,7.12345
2008-10-08,7.27083
2008-10-09,6.77956
2008-10-10,6.57322
2008-10-13,7.83088
2008-10-14,7.75228
2008-10-15,6.92694
2008-10-16,7.54594
2008-10-17,7.48699
2008-10-20,7.69332
2008-10-21,7.04484
2008-10-22,6.75008
2008-10-23,6.45532
2008-10-24,6.50445
2008-10-27,6.85816
2008-10-28,7.86036
2008-10-29,8.17477
2008-10-30,8.46953
2008-10-31,8.55796
2008-11-03,8.2632
2008-11-04,8.8036
2008-11-05,8.37128
2008-11-06,7.50664
2008-11-07,8.54814
2008-11-10,8.00774
2008-11-11,7.65402
2008-11-12,7.25118
2008-11-13,7.78175
2008-11-14,7.0645
2008-11-17,6.87781
2008-11-18,6.62235
2008-11-19,6.09178
2008-11-20,5.81666
2008-11-21,6.23916
2008-11-24,6.65183
2008-11-25,6.84834
2008-11-26,7.45751
2008-11-28,7.36908
2008-12-01,6.73043
2008-12-02,7.07432
2008-12-03,7.43786
2008-12-04,6.95642
2008-12-05,7.25118
2008-12-08,7.02519
2008-12-09,7.65402
2008-12-10,8.41058
2008-12-11,8.07652
2008-12-12,8.42041
2008-12-15,8.17477
2008-12-16,8.71517
2008-12-17,9.18679
2008-12-18,8.31233
2008-12-19,8.45971
2008-12-22,7.88001
2008-12-23,7.77193
2008-12-24,7.54594
2008-12-26,7.34943
2008-12-29,7.6049
2008-12-30,7.87018
2008-12-31,7.92913
2009-01-02,8.52849
2009-01-05,8.725
2009-01-06,9.01976
2009-01-07,8.46953
2009-01-08,8.23372
2009-01-09,7.79158
2009-01-12,7.48699
2009-01-13,7.51647
2009-01-14,7.19223
2009-01-15,7.42804
2009-01-16,7.84071
2009-01-20,7.12345
2009-01-21,7.41821
2009-01-22,7.31996
2009-01-23,7.58524
2009-01-26,7.84071
2009-01-27,8.29268
2009-01-28,8.64639
2009-01-29,8.15512
2009-01-30,7.82105
2009-02-02,8.2239
2009-02-03,8.32215
2009-02-04,8.55796
2009-02-05,9.18679
2009-02-06,9.68789
2009-02-09,9.56016
2009-02-10,9.19662
2009-02-11,8.00774
2009-02-12,8.16495
2009-02-13,8.17477
2009-02-17,7.7228
2009-02-18,7.90948
2009-02-19,7.36908
2009-02-20,7.45751
2009-02-23,7.12345
2009-02-24,7.7228
2009-02-25,7.86036
2009-02-26,8.1453
2009-02-27,8.1453
2009-03-02,7.48699
2009-03-03,7.75228
2009-03-04,8.31233
2009-03-05,8.1453
2009-03-06,8.2239
2009-03-09,8.1453
2009-03-10,8.86255
2009-03-11,9.10819
2009-03-12,9.64859
2009-03-13,9.59946
2009-03-16,9.23592
2009-03-17,9.69771
2009-03-18,9.98265
2009-03-19,9.86475
2009-03-20,9.40295
2009-03-23,9.99248
2009-03-24,9.58964
2009-03-25,9.80579
2009-03-26,10.3069
2009-03-27,10.2971
2009-03-30,9.64859
2009-03-31,9.65841
2009-04-01,9.9237
2009-04-02,10.3167
2009-04-03,11.0929
2009-04-06,11.1814
2009-04-07,10.7294
2009-04-08,11.1814
2009-04-09,11.7512
2009-04-13,11.4663
2009-04-14,11.5056
2009-04-15,11.2305
2009-04-16,11.4172
2009-04-17,11.5351
2009-04-20,10.9062
2009-04-21,10.8571
2009-04-22,11.1519
2009-04-23,10.9848
2009-04-24,11.2108
2009-04-27,10.8276
2009-04-28,10.8669
2009-04-29,10.6704
2009-04-30,11.2501
2009-05-01,11.4565
2009-05-04,12.046
2009-05-05,11.5646
2009-05-06,11.3189
2009-05-07,10.5624
2009-05-08,9.00993
2009-05-11,9.27522
2009-05-12,8.78395
2009-05-13,8.24355
2009-05-14,8.36145
2009-05-15,8.62674
2009-05-18,9.12784
2009-05-19,9.28505
2009-05-20,9.53068
2009-05-21,9.54051
2009-05-22,9.65841
2009-05-26,10.1693
2009-05-27,10.2086
2009-05-28,10.2971
2009-05-29,10.2185
2009-06-01,10.749
2009-06-02,10.6311
2009-06-03,10.2872
2009-06-04,10.6901
2009-06-05,10.6508
2009-06-08,10.5722
2009-06-09,11.2108
2009-06-10,11.5449
2009-06-11,11.3582
2009-06-12,11.2993
2009-06-15,11.1224
2009-06-16,10.7982
2009-06-17,11.0929
2009-06-18,10.8571
2009-06-19,10.9947
2009-06-22,10.3855
2009-06-23,10.2872
2009-06-24,10.6704
2009-06-25,11.2403
2009-06-26,11.3484
2009-06-29,11.368
2009-06-30,11.1028
2009-07-01,11.1322
2009-07-02,10.6803
2009-07-06,10.356
2009-07-07,9.89422
2009-07-08,9.94335
2009-07-09,10.1399
2009-07-10,10.2283
2009-07-13,10.3069
2009-07-14,10.5329
2009-07-15,10.9357
2009-07-16,11.5351
2009-07-17,11.8691
2009-07-20,12.0067
2009-07-21,11.7512
2009-07-22,12.0755
2009-07-23,12.7731
2009-07-24,12.7633
2009-07-27,12.8026
2009-07-28,12.8124
2009-07-29,12.5766
2009-07-30,12.606
2009-07-31,12.6748
2009-08-03,13.0285
2009-08-04,13.0973
2009-08-05,13.1857
2009-08-06,12.9008
2009-08-07,13.4805
2009-08-10,13.0187
2009-08-11,12.7338
2009-08-12,13.2054
2009-08-13,13.5886
2009-08-14,13.1759
2009-08-17,12.6159
2009-08-18,13.0875
2009-08-19,12.9598
2009-08-20,13.4805
2009-08-21,13.6672
2009-08-24,13.2938
2009-08-25,13.4216
2009-08-26,13.5886
2009-08-27,13.8048
2009-08-28,14.4827
2009-08-31,14.2567
2009-09-01,13.7753
2009-09-02,13.962
2009-09-03,14.3059
2009-09-04,14.8659
2009-09-08,15.2393
2009-09-09,15.6519
2009-09-10,16.1727
2009-09-11,15.9958
2009-09-14,15.7698
2009-09-15,16.0941
2009-09-16,15.6519
2009-09-17,14.974
2009-09-18,14.9642
2009-09-21,14.8856
2009-09-22,14.9052
2009-09-23,14.6596
2009-09-24,14.4925
2009-09-25,14.2174
2009-09-28,14.5613
2009-09-29,14.3157
2009-09-30,14.7382
2009-10-01,13.7163
2009-10-02,13.5886
2009-10-05,13.5198
2009-10-06,13.7458
2009-10-07,13.6574
2009-10-08,13.7556
2009-10-09,13.9128
2009-10-12,13.7655
2009-10-13,13.6868
2009-10-14,13.7065
2009-10-15,13.2938
2009-10-16,12.9892
2009-10-19,13.4903
2009-10-20,13.4412
2009-10-21,13.1268
2009-10-22,13.2349
2009-10-23,12.9205
2009-10-26,12.7829
2009-10-27,12.3113
2009-10-28,11.8102
2009-10-29,12.3309
2009-10-30,11.7709
2009-11-02,11.8495
2009-11-03,11.7807
2009-11-04,11.7611
2009-11-05,12.0755
2009-11-06,12.9205
2009-11-09,13.2349
2009-11-10,12.891
2009-11-11,13.284
2009-11-12,13.2349
2009-11-13,13.3135
2009-11-16,13.5198
2009-11-17,13.4805
2009-11-18,13.2938
2009-11-19,12.7534
2009-11-20,12.6945
2009-11-23,12.7731
2009-11-24,12.7043
2009-11-25,12.8517
2009-11-27,12.7043
2009-11-30,12.832
2009-12-01,13.0973
2009-12-02,13.4805
2009-12-03,13.5886
2009-12-04,14.0406
2009-12-07,15.819
2009-12-08,15.0329
2009-12-09,15.426
2009-12-10,15.1214
2009-12-11,14.9543
2009-12-14,15.3965
2009-12-15,15.3768
2009-12-16,16.5952
2009-12-17,16.5657
2009-12-18,16.5264
2009-12-21,17.1258
2009-12-22,17.7251
2009-12-23,17.8332
2009-12-24,17.7841
2009-12-28,17.4991
2009-12-29,17.6956
2009-12-30,18.3441
2009-12-31,18.3441
2010-01-04,18.1771
2010-01-05,18.4325
2010-01-06,18.5504
2010-01-07,18.1771
2010-01-08,18.2262
2010-01-11,17.9806
2010-01-12,17.3419
2010-01-13,17.5875
2010-01-14,17.3321
2010-01-15,16.831
2010-01-19,17.1159
2010-01-20,17.057
2010-01-21,16.7524
2010-01-22,16.212
2010-01-25,16.4478
2010-01-26,15.9565
2010-01-27,16.3594
2010-01-28,15.8288
2010-01-29,15.1312
2010-02-01,16.2906
2010-02-02,16.4478
2010-02-03,16.605
2010-02-04,15.6421
2010-02-05,15.9467
2010-02-08,15.9172
2010-02-09,15.7797
2010-02-10,16.1137
2010-02-11,16.8015
2010-02-12,17.0373
2010-02-16,17.3026
2010-02-17,17.5188
2010-02-18,16.3888
2010-02-19,16.2709
2010-02-22,16.3299
2010-02-23,15.9172
2010-02-24,16.2513
2010-02-25,16.0941
2010-02-26,15.9369
2010-03-01,16.5657
2010-03-02,16.5264
2010-03-03,16.3397
2010-03-04,16.3594
2010-03-05,16.8703
2010-03-08,16.6345
2010-03-09,17.2437
2010-03-10,17.2731
2010-03-11,16.8998
2010-03-12,16.9194
2010-03-15,16.8605
2010-03-16,17.4598
2010-03-17,17.7841
2010-03-18,17.1749
2010-03-19,16.9587
2010-03-22,17.2437
2010-03-23,17.5679
2010-03-24,17.0177
2010-03-25,17.0471
2010-03-26,17.0373
2010-03-29,17.2437
2010-03-30,17.3223
2010-03-31,17.0963
2010-04-01,16.8998
2010-04-05,17.1651
2010-04-06,16.7622
2010-04-07,16.8605
2010-04-08,16.5657
2010-04-09,16.6738
2010-04-12,16.9882
2010-04-13,17.3321
2010-04-14,17.5286
2010-04-15,17.6858
2010-04-16,16.7524
2010-04-19,16.7229
2010-04-20,16.7327
2010-04-21,16.2808
2010-04-22,16.3888
2010-04-23,16.153
2010-04-26,16.3102
2010-04-27,15.9172
2010-04-28,15.8976
2010-04-29,16.3495
2010-04-30,15.4456
2010-05-03,15.2589
2010-05-04,14.5318
2010-05-05,14.2371
2010-05-06,14.0111
2010-05-07,13.7753
2010-05-10,14.3157
2010-05-11,14.1486
2010-05-12,14.3746
2010-05-13,14.4336
2010-05-14,12.7534
2010-05-17,12.8026
2010-05-18,12.3702
2010-05-19,12.5471
2010-05-20,12.2523
2010-05-21,12.5078
2010-05-24,12.1246
2010-05-25,12.4685
2010-05-26,12.5274
2010-05-27,13.2545
2010-05-28,12.9008
2010-06-01,12.3702
2010-06-02,12.5078
2010-06-03,12.4783
2010-06-04,11.8888
2010-06-07,11.2993
2010-06-08,10.9848
2010-06-09,10.7196
2010-06-10,11.1617
2010-06-11,11.3975
2010-06-14,11.1519
2010-06-15,11.7218
2010-06-16,11.5646
2010-06-17,12.0067
2010-06-18,12.0558
2010-06-21,11.8004
2010-06-22,11.3484
2010-06-23,11.4565
2010-06-24,10.8964
2010-06-25,10.8964
2010-06-28,10.9062
2010-06-29,10.3069
2010-06-30,10.0613
2010-07-01,10.1988
2010-07-02,10.0907
2010-07-06,9.95318
2010-07-07,10.4543
2010-07-08,10.1104
2010-07-09,10.1792
2010-07-12,10.3658
2010-07-13,10.7392
2010-07-14,10.8276
2010-07-15,10.5525
2010-07-16,9.89422
2010-07-19,10.2872
2010-07-20,10.5329
2010-07-21,10.1693
2010-07-22,10.356
2010-07-23,10.1693
2010-07-26,10.3658
2010-07-27,10.2971
2010-07-28,9.95318
2010-07-29,8.99028
2010-07-30,9.02958
2010-08-02,9.00993
2010-08-03,8.7643
2010-08-04,9.15732
2010-08-05,9.27522
2010-08-06,9.39313
2010-08-09,9.4619
2010-08-10,9.07871
2010-08-11,8.725
2010-08-12,8.85273
2010-08-13,9.21627
2010-08-16,8.98046
2010-08-17,9.09836
2010-08-18,9.16714
2010-08-19,9.72719
2010-08-20,9.81562
2010-08-23,9.66824
2010-08-24,9.56016
2010-08-25,9.76649
2010-08-26,9.63876
2010-08-27,9.93353
2010-08-30,9.48155
2010-08-31,9.15732
2010-09-01,9.25557
2010-09-02,9.41278
2010-09-03,9.72719
2010-09-07,9.80579
2010-09-08,10.1202
2010-09-09,10.0121
2010-09-10,9.95318
2010-09-13,10.4739
2010-09-14,10.3462
2010-09-15,10.3658
2010-09-16,10.3855
2010-09-17,10.3855
2010-09-20,10.5132
2010-09-21,11.1028
2010-09-22,11.2207
2010-09-23,11.4172
2010-09-24,12.0558
2010-09-27,11.7905
2010-09-28,11.7709
2010-09-29,11.653
2010-09-30,11.4859
2010-10-01,11.1421
2010-10-04,11.0438
2010-10-05,11.1224
2010-10-06,10.5918
2010-10-07,10.4936
2010-10-08,10.6606
2010-10-11,10.6115
2010-10-12,10.8178
2010-10-13,11.1421
2010-10-14,10.9554
2010-10-15,11.0831
2010-10-18,11.1715
2010-10-19,11.0831
2010-10-20,11.0929
2010-10-21,10.8768
2010-10-22,11.5744
2010-10-25,11.7119
2010-10-26,11.6628
2010-10-27,11.8102
2010-10-28,11.8397
2010-10-29,11.82
2010-11-01,11.8298
2010-11-02,12.0755
2010-11-03,12.1639
2010-11-04,12.1836
2010-11-05,12.3899
2010-11-08,12.3997
2010-11-09,12.3408
2010-11-10,12.5176
2010-11-11,12.3997
2010-11-12,13.0089
2010-11-15,12.9008
2010-11-16,12.5274
2010-11-17,12.6748
2010-11-18,13.0875
2010-11-19,13.5296
2010-11-22,13.5198
2010-11-23,13.2054
2010-11-24,13.5198
2010-11-26,13.3331
2010-11-29,13.5198
2010-11-30,13.4019
2010-12-01,13.9423
2010-12-02,14.129
2010-12-03,14.522
2010-12-06,14.2469
2010-12-07,14.6989
2010-12-08,14.8462
2010-12-09,14.5908
2010-12-10,14.689
2010-12-13,14.3157
2010-12-14,14.3353
2010-12-15,14.0406
2010-12-16,14.0406
2010-12-17,14.129
2010-12-20,14.07
2010-12-21,14.5908
2010-12-22,14.7775
2010-12-23,14.6497
2010-12-27,14.7283
2010-12-28,14.689
2010-12-29,14.6792
2010-12-30,14.7382
2010-12-31,15.1312
2011-01-03,15.5537
2011-01-04,15.4947
2011-01-05,16.6738
2011-01-06,19.0024
2011-01-07,19.533
2011-01-10,20.2797
2011-01-11,19.9653
2011-01-12,22.8933
2011-01-13,22.9522
2011-01-14,23.1881
2011-01-18,22.6477
2011-01-19,21.9893
2011-01-20,22.0188
2011-01-21,21.8223
2011-01-24,24.2394
2011-01-25,23.5712
2011-01-26,24.1509
2011-01-27,24.0527
2011-01-28,23.3354
2011-01-31,23.5516
2011-02-01,23.9839
2011-02-02,25.1138
2011-02-03,24.6619
2011-02-04,25.2121
2011-02-07,24.1804
2011-02-08,23.4926
2011-02-09,22.8638
2011-02-10,22.3627
2011-02-11,23.0014
2011-02-14,22.7361
2011-02-15,22.1367
2011-02-16,22.9719
2011-02-17,25.3103
2011-02-18,25.1728
2011-02-22,22.8147
2011-02-23,21.7339
2011-02-24,22.2743
2011-02-25,22.7263
2011-02-28,22.235
2011-03-01,21.3114
2011-03-02,20.3878
2011-03-03,20.5352
2011-03-04,20.4075
2011-03-07,20.0832
2011-03-08,19.2382
2011-03-09,18.8256
2011-03-10,17.5974
2011-03-11,17.676
2011-03-14,17.9118
2011-03-15,17.4107
2011-03-16,17.1847
2011-03-17,17.5384
2011-03-18,17.3223
2011-03-21,17.45
2011-03-22,17.1356
2011-03-23,17.5089
2011-03-24,18.9238
2011-03-25,18.3343
2011-03-28,18.9828
2011-03-29,18.8354
2011-03-30,18.1181
2011-03-31,18.1378
2011-04-01,17.8921
2011-04-04,17.2338
2011-04-05,17.2928
2011-04-06,17.1945
2011-04-07,17.7644
2011-04-08,17.2535
2011-04-11,17.0078
2011-04-12,17.0471
2011-04-13,17.4696
2011-04-14,18.1672
2011-04-15,18.3539
2011-04-18,17.7644
2011-04-19,17.6858
2011-04-20,18.2459
2011-04-21,18.1967
2011-04-25,18.4817
2011-04-26,18.9631
2011-04-27,18.9435
2011-04-28,19.1694
2011-04-29,19.6607
2011-05-02,19.3758
2011-05-03,18.4718
2011-05-04,18.3245
2011-05-05,18.3441
2011-05-06,18.9828
2011-05-09,19.4347
2011-05-10,19.4151
2011-05-11,19.5133
2011-05-12,20.1422
2011-05-13,17.9314
2011-05-16,17.391
2011-05-17,17.283
2011-05-18,17.7153
2011-05-19,17.4598
2011-05-20,17.7841
2011-05-23,17.7546
2011-05-24,17.8135
2011-05-25,18.0395
2011-05-26,18.4915
2011-05-27,19.14
2011-05-31,19.6705
2011-06-01,18.8354
2011-06-02,18.6978
2011-06-03,18.1771
2011-06-06,17.7546
2011-06-07,17.7546
2011-06-08,17.283
2011-06-09,17.0865
2011-06-10,16.8408
2011-06-13,16.7131
2011-06-14,16.8506
2011-06-15,16.4871
2011-06-16,15.8976
2011-06-17,15.5242
2011-06-20,15.3375
2011-06-21,15.6716
2011-06-22,15.4456
2011-06-23,15.9369
2011-06-24,15.4358
2011-06-27,15.1312
2011-06-28,15.2393
2011-06-29,15.4554
2011-06-30,15.6519
2011-07-01,15.8386
2011-07-05,15.5832
2011-07-06,15.3866
2011-07-07,15.4161
2011-07-08,15.1508
2011-07-11,14.6203
2011-07-12,14.4434
2011-07-13,14.4139
2011-07-14,13.8244
2011-07-15,13.8637
2011-07-18,13.5395
2011-07-19,13.9914
2011-07-20,13.8048
2011-07-21,14.4631
2011-07-22,14.7283
2011-07-25,14.4925
2011-07-26,14.129
2011-07-27,13.6279
2011-07-28,13.6082
2011-07-29,13.6279
2011-08-01,14.3059
2011-08-02,14.1781
2011-08-03,14.5613
2011-08-04,13.2054
2011-08-05,12.7436
2011-08-08,11.7316
2011-08-09,12.665
2011-08-10,12.1246
2011-08-11,13.1857
2011-08-12,12.6355
2011-08-15,13.1268
2011-08-16,12.7534
2011-08-17,12.5766
2011-08-18,11.7316
2011-08-19,11.5056
2011-08-22,11.7218
2011-08-23,12.9892
2011-08-24,12.8026
2011-08-25,12.2622
2011-08-26,12.7731
2011-08-29,13.1268
2011-08-30,13.4609
2011-08-31,13.058
2011-09-01,13.0482
2011-09-02,12.7043
2011-09-06,12.9696
2011-09-07,13.9914
2011-09-08,13.9423
2011-09-09,13.6574
2011-09-12,13.9423
2011-09-13,14.2764
2011-09-14,15.0231
2011-09-15,15.2
2011-09-16,15.1705
2011-09-19,14.8856
2011-09-20,14.5122
2011-09-21,14.2174
2011-09-22,13.284
2011-09-23,13.5395
2011-09-26,13.5689
2011-09-27,13.5591
2011-09-28,13.1857
2011-09-29,12.8419
2011-09-30,12.2818
2011-10-03,11.6235
2011-10-04,12.665
2011-10-05,13.1071
2011-10-06,13.6377
2011-10-07,13.903
2011-10-10,14.4925
2011-10-11,14.3452
2011-10-12,14.3746
2011-10-13,15.2
2011-10-14,15.426
2011-10-17,14.6399
2011-10-18,15.1803
2011-10-19,14.8954
2011-10-20,14.1585
2011-10-21,14.2272
2011-10-24,14.7775
2011-10-25,14.1781
2011-10-26,14.3452
2011-10-27,14.9543
2011-10-28,15.3375
2011-10-31,14.5613
2011-11-01,13.7851
2011-11-02,13.5591
2011-11-03,14.3943
2011-11-04,14.5515
2011-11-07,14.4827
2011-11-08,14.8364
2011-11-09,14.0799
2011-11-10,14.2371
2011-11-11,14.7283
2011-11-14,14.4434
2011-11-15,14.5908
2011-11-16,14.3255
2011-11-17,13.7851
2011-11-18,13.6868
2011-11-21,14.3845
2011-11-22,14.7971
2011-11-23,14.1978
2011-11-25,13.8146
2011-11-28,14.5908
2011-11-29,14.6497
2011-11-30,15.3768
2011-12-01,15.534
2011-12-02,15.4751
2011-12-05,15.1901
2011-12-06,15.0035
2011-12-07,14.915
2011-12-08,14.4139
2011-12-09,14.6694
2011-12-12,14.2862
2011-12-13,13.8834
2011-12-14,13.3626
2011-12-15,13.225
2011-12-16,13.2938
2011-12-19,12.9205
2011-12-20,13.6475
2011-12-21,13.4903
2011-12-22,14.0602
2011-12-23,13.9227
2011-12-27,13.8244
2011-12-28,13.4609
2011-12-29,13.7163
2011-12-30,13.6181
2012-01-03,13.7851
2012-01-04,13.9423
2012-01-05,14.4336
2012-01-06,14.2665
2012-01-09,14.296
2012-01-10,14.2076
2012-01-11,13.9325
2012-01-12,13.8342
2012-01-13,13.4805
2012-01-17,13.2938
2012-01-18,13.736
2012-01-19,14.1093
2012-01-20,13.962
2012-01-23,14.3353
2012-01-24,14.6596
2012-01-25,14.5711
2012-01-26,14.4631
2012-01-27,14.6399
2012-01-30,14.5515
2012-01-31,14.5024
2012-02-01,14.6792
2012-02-02,15.2196
2012-02-03,15.5144
2012-02-06,15.4161
2012-02-07,15.4653
2012-02-08,16.0057
2012-02-09,16.0253
2012-02-10,15.593
2012-02-13,15.8681
2012-02-14,15.927
2012-02-15,15.8583
2012-02-16,16.153
2012-02-17,15.5635
2012-02-21,15.6421
2012-02-22,15.5537
2012-02-23,15.6421
2012-02-24,15.5046
2012-02-27,15.2196
2012-02-28,15.0624
2012-02-29,14.8856
2012-03-01,14.9838
2012-03-02,15.1214
2012-03-05,14.5908
2012-03-06,14.4729
2012-03-07,14.5515
2012-03-08,14.6006
2012-03-09,14.5515
2012-03-12,14.3452
2012-03-13,14.5122
2012-03-14,14.1192
2012-03-15,14.3353
2012-03-16,14.3353
2012-03-19,14.3845
2012-03-20,14.1585
2012-03-21,14.2076
2012-03-22,14.1978
2012-03-23,14.3059
2012-03-26,14.4532
2012-03-27,14.5711
2012-03-28,14.9052
2012-03-29,14.9642
2012-03-30,15.1017
2012-04-02,15.0428
2012-04-03,14.8069
2012-04-04,14.4041
2012-04-05,14.3845
2012-04-09,14.1879
2012-04-10,13.9325
2012-04-11,14.0897
2012-04-12,14.4238
2012-04-13,13.903
2012-04-16,13.736
2012-04-17,13.8048
2012-04-18,13.6279
2012-04-19,13.4216
2012-04-20,13.1563
2012-04-23,13.0089
2012-04-24,12.5864
2012-04-25,12.832
2012-04-26,12.8517
2012-04-27,12.7534
2012-04-30,12.7731
2012-05-01,13.0089
2012-05-02,12.6257
2012-05-03,12.4095
2012-05-04,12.0755
2012-05-07,12.2523
2012-05-08,12.2622
2012-05-09,12.2622
2012-05-10,12.1934
2012-05-11,12.9696
2012-05-14,12.8812
2012-05-15,12.7633
2012-05-16,12.498
2012-05-17,12.4488
2012-05-18,11.879
2012-05-21,12.0755
2012-05-22,11.9183
2012-05-23,12.2229
2012-05-24,11.8888
2012-05-25,12.1836
2012-05-29,12.4881
2012-05-30,12.3604
2012-05-31,12.2327
2012-06-01,11.7709
2012-06-04,11.5351
2012-06-05,11.8593
2012-06-06,12.1639
2012-06-07,11.7021
2012-06-08,11.8986
2012-06-11,12.0362
2012-06-12,12.2916
2012-06-13,11.9576
2012-06-14,11.82
2012-06-15,12.0853
2012-06-18,12.1737
2012-06-19,13.0089
2012-06-20,13.2349
2012-06-21,12.5962
2012-06-22,12.7829
2012-06-25,12.3702
2012-06-26,12.5078
2012-06-27,12.891
2012-06-28,13.0089
2012-06-29,13.5591
2012-07-02,13.2054
2012-07-03,13.5591
2012-07-05,13.4216
2012-07-06,13.1661
2012-07-09,12.9794
2012-07-10,12.606
2012-07-11,12.4095
2012-07-12,12.1737
2012-07-13,12.3408
2012-07-16,12.3604
2012-07-17,12.1541
2012-07-18,12.8124
2012-07-19,12.9696
2012-07-20,12.5766
2012-07-23,12.7731
2012-07-24,12.6257
2012-07-25,12.832
2012-07-26,12.9303
2012-07-27,13.2349
2012-07-30,13.0875
2012-07-31,13.3037
2012-08-01,13.1563
2012-08-02,13.2152
2012-08-03,13.4609
2012-08-06,13.7556
2012-08-07,13.9128
2012-08-08,13.9816
2012-08-09,14.4532
2012-08-10,14.3746
2012-08-13,14.5515
2012-08-14,14.3353
2012-08-15,14.2272
2012-08-16,14.522
2012-08-17,14.3943
2012-08-20,14.3746
2012-08-21,14.3353
2012-08-22,14.4041
2012-08-23,14.0602
2012-08-24,14.3452
2012-08-27,14.1093
2012-08-28,14.0209
2012-08-29,14.0406
2012-08-30,13.7949
2012-08-31,13.8244
2012-09-04,13.0384
2012-09-05,13.0678
2012-09-06,13.4805
2012-09-07,13.1661
2012-09-10,13.0384
2012-09-11,13.2054
2012-09-12,13.3331
2012-09-13,13.4117
2012-09-14,13.5788
2012-09-17,13.2054
2012-09-18,13.3135
2012-09-19,13.4805
2012-09-20,13.3528
2012-09-21,13.4314
2012-09-24,13.4117
2012-09-25,13.1759
2012-09-26,12.9401
2012-09-27,13.0384
2012-09-28,13.0973
2012-10-01,12.8812
2012-10-02,12.9303
2012-10-03,12.8124
2012-10-04,13.3921
2012-10-05,13.0285
2012-10-08,12.9499
2012-10-09,12.6552
2012-10-10,12.4488
2012-10-11,12.5373
2012-10-12,12.4095
2012-10-15,12.5766
2012-10-16,12.9205
2012-10-17,12.8222
2012-10-18,12.6355
2012-10-19,11.8888
2012-10-22,11.7611
2012-10-23,12.1246
2012-10-24,11.9576
2012-10-25,11.9674
2012-10-26,11.8593
2012-10-31,11.7709
2012-11-01,12.3211
2012-11-02,12.272
2012-11-05,12.8124
2012-11-06,12.7829
2012-11-07,12.3899
2012-11-08,12.439
2012-11-09,11.9772
2012-11-12,11.7316
2012-11-13,11.6235
2012-11-14,11.3484
2012-11-15,11.4073
2012-11-16,11.1715
2012-11-19,11.4859
2012-11-20,11.3623
2012-11-21,11.7084
2012-11-23,11.7776
2012-11-26,11.9853
2012-11-27,12.0248
2012-11-28,12.1039
2012-11-29,11.9161
2012-11-30,11.8567
2012-12-03,11.5897
2012-12-04,11.9556
2012-12-05,11.8271
2012-12-06,11.8567
2012-12-07,11.8073
2012-12-10,12.2424
2012-12-11,12.4896
2012-12-12,12.3611
2012-12-13,12.3907
2012-12-14,12.4402
2012-12-17,12.3907
2012-12-18,12.4501
2012-12-19,12.5193
2012-12-20,12.4896
2012-12-21,12.2424
2012-12-24,12.1138
2012-12-26,12.0941
2012-12-27,12.0347
2012-12-28,11.9754
2012-12-31,12.1237
2013-01-02,12.5687
2013-01-03,12.5588
2013-01-04,13.0037
2013-01-07,12.6181
2013-01-08,12.3512
2013-01-09,12.0643
2013-01-10,12.0841
2013-01-11,12.0545
2013-01-14,12.0445
2013-01-15,11.8369
2013-01-16,11.9556
2013-01-17,12.1336
2013-01-18,12.0248
2013-01-22,11.9556
2013-01-23,11.9951
2013-01-24,12.0545
2013-01-25,12.2621
2013-01-28,12.4797
2013-01-29,12.1929
2013-01-30,12.1831
2013-01-31,12.1138
2013-02-01,12.2028
2013-02-04,12.0446
2013-02-05,12.3116
2013-02-06,12.2127
2013-02-07,12.1237
2013-02-08,12.2227
2013-02-11,12.3808
2013-02-12,12.2968
2013-02-13,12.2226
2013-02-14,12.5984
2013-02-15,12.5836
2013-02-19,12.4105
2013-02-20,12.2523
2013-02-21,12.1336
2013-02-22,12.361
2013-02-25,12.1633
2013-02-26,12.3075
2013-02-27,12.5313
2013-02-28,12.6109
2013-03-01,12.6358
2013-03-04,12.5761
2013-03-05,12.7254
2013-03-06,12.7055
2013-03-07,12.6955
2013-03-08,12.7552
2013-03-11,12.6358
2013-03-12,12.6856
2013-03-13,12.6756
2013-03-14,12.6557
2013-03-15,12.5861
2013-03-18,12.4766
2013-03-19,12.4169
2013-03-20,12.5562
2013-03-21,12.3672
2013-03-22,12.397
2013-03-25,12.3473
2013-03-26,12.4368
2013-03-27,12.5761
2013-03-28,12.7353
2013-04-01,12.3373
2013-04-02,12.1682
2013-04-03,12.0687
2013-04-04,12.198
2013-04-05,12.3771
2013-04-08,12.3572
2013-04-09,12.5562
2013-04-10,12.7751
2013-04-11,12.7055
2013-04-12,13.0338
2013-04-15,12.7751
2013-04-16,12.9045
2013-04-17,12.7254
2013-04-18,12.4766
2013-04-19,12.5065
2013-04-22,12.5463
2013-04-23,12.8547
2013-04-24,13.3124
2013-04-25,13.4019
2013-04-26,13.3422
2013-04-29,13.5014
2013-04-30,13.6905
2013-05-01,13.6009
2013-05-02,13.7402
2013-05-03,13.79
2013-05-06,13.78
2013-05-07,13.581
2013-05-08,13.8397
2013-05-09,13.7999
2013-05-10,14.4765
2013-05-13,14.1481
2013-05-14,14.377
2013-05-15,14.6158
2013-05-16,14.5561
2013-05-17,14.7849
2013-05-20,14.7551
2013-05-21,14.92
2013-05-22,14.37
2013-05-23,14.63
2013-05-24,14.53
2013-05-28,14.54
2013-05-29,14.44
2013-05-30,14.63
2013-05-31,14.48
2013-06-03,14.43
2013-06-04,14.47
2013-06-05,14.15
2013-06-06,14.26
2013-06-07,14.45
2013-06-10,14.44
2013-06-11,14.17
2013-06-12,14.04
2013-06-13,14.38
2013-06-14,14.35
2013-06-17,14.49
2013-06-18,14.39
2013-06-19,14.88
2013-06-20,14.44
2013-06-21,14.44
2013-06-24,14.13
2013-06-25,14.23
2013-06-26,14.15
2013-06-27,14.02
2013-06-28,14.07
2013-07-01,14.08
2013-07-02,14.09
2013-07-03,14.13
2013-07-05,14.23
2013-07-08,14.16
2013-07-09,14.24
2013-07-10,14.42
2013-07-11,14.62
2013-07-12,14.63
2013-07-15,14.6
2013-07-16,14.7
2013-07-17,14.61
2013-07-18,14.56
2013-07-19,14.23
2013-07-22,14.21
2013-07-23,14.2
2013-07-24,14.2
2013-07-25,14.24
2013-07-26,14.19
2013-07-29,14.16
2013-07-30,14.42
2013-07-31,14.42
2013-08-01,14.64
2013-08-02,14.76
2013-08-05,14.81
2013-08-06,14.61
2013-08-07,14.6
2013-08-08,14.68
2013-08-09,14.49
