date,close_price
1998-01-02,12.5113
1998-01-05,12.7688
1998-01-06,12.8228
1998-01-07,12.9515
1998-01-08,12.8975
1998-01-09,12.4823
1998-01-12,12.4823
1998-01-13,12.665
1998-01-14,13.1342
1998-01-15,13.0802
1998-01-16,13.3917
1998-01-20,13.5495
1998-01-21,13.1591
1998-01-22,13.4166
1998-01-23,13.4166
1998-01-26,13.4457
1998-01-27,13.4166
1998-01-28,13.6242
1998-01-29,13.5204
1998-01-30,13.3917
1998-02-02,14.1972
1998-02-03,14.38
1998-02-04,14.2222
1998-02-05,13.9356
1998-02-06,14.1183
1998-02-09,13.9647
1998-02-10,14.1723
1998-02-11,14.2188
1998-02-12,14.0331
1998-02-13,14.0331
1998-02-17,13.8769
1998-02-18,13.9529
1998-02-19,13.8769
1998-02-20,13.9529
1998-02-23,13.7166
1998-02-24,13.6364
1998-02-25,13.7714
1998-02-26,13.8221
1998-02-27,14.2188
1998-03-02,14.0078
1998-03-03,14.088
1998-03-04,13.9529
1998-03-05,13.9824
1998-03-06,14.088
1998-03-09,14.1935
1998-03-10,14.0331
1998-03-11,14.5606
1998-03-12,14.3496
1998-03-13,14.3243
1998-03-16,14.1639
1998-03-17,14.2441
1998-03-18,14.3749
1998-03-19,14.3496
1998-03-20,14.1133
1998-03-23,14.1133
1998-03-24,13.9529
1998-03-25,14.0331
1998-03-26,13.9276
1998-03-27,13.9276
1998-03-30,14.0078
1998-03-31,13.9276
1998-04-01,13.8474
1998-04-02,13.8474
1998-04-03,13.7967
1998-04-06,13.6912
1998-04-07,13.8769
1998-04-08,14.0331
1998-04-09,13.7714
1998-04-13,14.0078
1998-04-14,14.3496
1998-04-15,14.1133
1998-04-16,13.9276
1998-04-17,13.9276
1998-04-20,13.9276
1998-04-21,14.2441
1998-04-22,13.8474
1998-04-23,13.7714
1998-04-24,13.7166
1998-04-27,13.5055
1998-04-28,13.6912
1998-04-29,13.5604
1998-04-30,13.5055
1998-05-01,13.2945
1998-05-04,13.5055
1998-05-05,13.5055
1998-05-06,13.8474
1998-05-07,13.611
1998-05-08,13.611
1998-05-11,13.611
1998-05-12,13.7967
1998-05-13,13.8273
1998-05-14,13.7457
1998-05-15,13.8015
1998-05-18,13.8015
1998-05-19,13.9347
1998-05-20,13.7715
1998-05-21,13.5867
1998-05-22,13.4493
1998-05-26,13.2087
1998-05-27,13.1572
1998-05-28,13.0498
1998-05-29,13.0197
1998-06-01,12.9123
1998-06-02,12.9123
1998-06-03,12.835
1998-06-04,13.1013
1998-06-05,13.1013
1998-06-08,13.4235
1998-06-09,13.3419
1998-06-10,12.9424
1998-06-11,12.9424
1998-06-12,12.9123
1998-06-15,12.9424
1998-06-16,12.1349
1998-06-17,12.835
1998-06-18,12.3496
1998-06-19,12.3754
1998-06-22,12.805
1998-06-23,12.7276
1998-06-24,12.8608
1998-06-25,12.7276
1998-06-26,12.994
1998-06-29,12.7276
1998-06-30,12.9424
1998-07-01,13.1013
1998-07-02,13.2904
1998-07-06,13.1013
1998-07-07,13.1572
1998-07-08,13.2087
1998-07-09,12.9123
1998-07-10,12.9123
1998-07-13,13.0756
1998-07-14,13.2904
1998-07-15,12.9424
1998-07-16,12.8608
1998-07-17,12.8866
1998-07-20,12.8608
1998-07-21,12.5902
1998-07-22,12.457
1998-07-23,12.1907
1998-07-24,12.1091
1998-07-27,11.8943
1998-07-28,12.0017
1998-07-29,11.8685
1998-07-30,11.6538
1998-07-31,11.5163
1998-08-03,11.4089
1998-08-04,11.4905
1998-08-05,11.4905
1998-08-06,11.439
1998-08-07,11.5721
1998-08-10,11.5979
1998-08-11,11.5163
1998-08-12,11.6298
1998-08-13,11.6298
1998-08-14,11.6561
1998-08-17,11.5464
1998-08-18,11.7966
1998-08-19,11.5771
1998-08-20,11.3577
1998-08-21,10.9452
1998-08-24,11.7132
1998-08-25,11.8492
1998-08-26,11.8492
1998-08-27,11.5464
1998-08-28,11.8492
1998-08-31,10.6994
1998-09-01,11.248
1998-09-02,11.0812
1998-09-03,11.0286
1998-09-04,11.0812
1998-09-08,11.2173
1998-09-09,11.0812
1998-09-10,11.1909
1998-09-11,11.1646
1998-09-14,11.3577
1998-09-15,11.327
1998-09-16,11.4367
1998-09-17,11.248
1998-09-18,11.327
1998-09-21,11.3007
1998-09-22,11.6035
1998-09-23,11.6561
1998-09-24,11.8492
1998-09-25,12.095
1998-09-28,12.1784
1998-09-29,12.3978
1998-09-30,12.3978
1998-10-01,12.2881
1998-10-02,12.3144
1998-10-05,12.2881
1998-10-06,12.3978
1998-10-07,12.3715
1998-10-08,12.1257
1998-10-09,11.9326
1998-10-12,12.016
1998-10-13,11.5201
1998-10-14,11.4367
1998-10-15,12.016
1998-10-16,12.016
1998-10-19,12.3978
1998-10-20,12.4241
1998-10-21,12.4241
1998-10-22,12.3144
1998-10-23,12.1784
1998-10-26,12.2618
1998-10-27,11.8492
1998-10-28,11.8229
1998-10-29,12.0687
1998-10-30,12.2881
1998-11-02,12.1257
1998-11-03,12.2047
1998-11-04,12.3451
1998-11-05,12.4241
1998-11-06,12.5075
1998-11-09,12.3451
1998-11-10,12.4566
1998-11-11,12.2909
1998-11-12,12.2326
1998-11-13,12.3446
1998-11-16,12.0938
1998-11-17,12.1789
1998-11-18,12.376
1998-11-19,12.4028
1998-11-20,12.2058
1998-11-23,12.264
1998-11-24,12.5148
1998-11-25,12.2058
1998-11-27,12.2058
1998-11-30,12.1789
1998-12-01,11.9818
1998-12-02,11.9818
1998-12-03,11.9818
1998-12-04,11.843
1998-12-07,11.843
1998-12-08,11.7578
1998-12-09,11.7041
1998-12-10,11.5339
1998-12-11,11.5921
1998-12-14,11.4801
1998-12-15,11.2831
1998-12-16,11.3682
1998-12-17,11.2248
1998-12-18,11.3099
1998-12-21,11.4219
1998-12-22,11.4801
1998-12-23,11.3099
1998-12-24,11.3682
1998-12-28,11.2562
1998-12-29,11.2248
1998-12-30,11.2248
1998-12-31,11.6727
1999-01-04,11.7041
1999-01-05,11.843
1999-01-06,11.9818
1999-01-07,11.843
1999-01-08,12.0938
1999-01-11,12.3446
1999-01-12,12.3446
1999-01-13,12.264
1999-01-14,12.04
1999-01-15,12.2326
1999-01-19,11.8967
1999-01-20,12.152
1999-01-21,11.9818
1999-01-22,11.9281
1999-01-25,12.0938
1999-01-26,12.0087
1999-01-27,12.152
1999-01-28,12.0669
1999-01-29,12.04
1999-02-01,12.0938
1999-02-02,12.04
1999-02-03,12.04
1999-02-04,11.9281
1999-02-05,12.04
1999-02-08,12.0087
1999-02-09,12.0087
1999-02-10,12.3278
1999-02-11,12.4696
1999-02-12,11.9571
1999-02-16,12.012
1999-02-17,11.9846
1999-02-18,11.9571
1999-02-19,11.9251
1999-02-22,11.8976
1999-02-23,11.9571
1999-02-24,11.8702
1999-02-25,11.8702
1999-02-26,12.0715
1999-03-01,11.8427
1999-03-02,11.8976
1999-03-03,12.012
1999-03-04,12.012
1999-03-05,12.3003
1999-03-08,12.2134
1999-03-09,12.3827
1999-03-10,12.2683
1999-03-11,12.3003
1999-03-12,12.2408
1999-03-15,12.3003
1999-03-16,12.2683
1999-03-17,12.8128
1999-03-18,13.0142
1999-03-19,13.3574
1999-03-22,13.0416
1999-03-23,12.8128
1999-03-24,12.3827
1999-03-25,12.671
1999-03-26,12.8998
1999-03-29,12.8723
1999-03-30,13.0691
1999-03-31,13.0142
1999-04-01,12.8128
1999-04-05,12.3552
1999-04-06,12.0395
1999-04-07,11.9846
1999-04-08,11.9571
1999-04-09,12.0715
1999-04-12,12.099
1999-04-13,12.584
1999-04-14,12.5291
1999-04-15,12.9867
1999-04-16,12.9272
1999-04-19,13.0416
1999-04-20,13.1835
1999-04-21,13.0142
1999-04-22,12.9867
1999-04-23,12.8998
1999-04-26,12.7259
1999-04-27,12.8128
1999-04-28,12.671
1999-04-29,13.0142
1999-04-30,13.243
1999-05-03,13.156
1999-05-04,13.3574
1999-05-05,13.4992
1999-05-06,13.4443
1999-05-07,13.4992
1999-05-10,13.4992
1999-05-11,13.4718
1999-05-12,13.7081
1999-05-13,13.4141
1999-05-14,13.5308
1999-05-17,13.3255
1999-05-18,13.3581
1999-05-19,13.3255
1999-05-20,13.4748
1999-05-21,13.4141
1999-05-24,13.3581
1999-05-25,13.6754
1999-05-26,13.5028
1999-05-27,13.3255
1999-05-28,13.3581
1999-06-01,13.5308
1999-06-02,13.4748
1999-06-03,13.7361
1999-06-04,13.3861
1999-06-07,13.4748
1999-06-08,13.5308
1999-06-09,13.3861
1999-06-10,13.4748
1999-06-11,13.6474
1999-06-14,13.7081
1999-06-15,13.9087
1999-06-16,13.792
1999-06-17,13.8807
1999-06-18,13.9413
1999-06-21,13.9693
1999-06-22,13.9693
1999-06-23,14.2306
1999-06-24,14.3473
1999-06-25,14.9305
1999-06-28,14.2913
1999-06-29,14.3193
1999-06-30,14.5526
1999-07-01,14.5246
1999-07-02,14.4919
1999-07-06,14.7252
1999-07-07,14.7252
1999-07-08,14.3473
1999-07-09,14.4079
1999-07-12,14.4079
1999-07-13,14.4639
1999-07-14,14.8745
1999-07-15,14.4919
1999-07-16,14.3473
1999-07-19,13.9693
1999-07-20,14.3473
1999-07-21,14.2306
1999-07-22,14.5246
1999-07-23,14.4639
1999-07-26,14.4079
1999-07-27,14.3473
1999-07-28,14.0253
1999-07-29,13.9413
1999-07-30,13.764
1999-08-02,13.9413
1999-08-03,14.0253
1999-08-04,13.9693
1999-08-05,13.764
1999-08-06,13.7081
1999-08-09,13.6754
1999-08-10,13.4421
1999-08-11,13.6289
1999-08-12,13.567
1999-08-13,13.567
1999-08-16,13.5099
1999-08-17,13.7479
1999-08-18,13.5385
1999-08-19,13.5099
1999-08-20,13.329
1999-08-23,13.5385
1999-08-24,13.5385
1999-08-25,13.091
1999-08-26,13.3909
1999-08-27,13.5099
1999-08-30,13.1529
1999-08-31,12.8815
1999-09-01,12.9149
1999-09-02,13.1196
1999-09-03,13.1529
1999-09-07,13.1529
1999-09-08,13.0005
1999-09-09,12.853
1999-09-10,13.0005
1999-09-13,12.9434
1999-09-14,13.0339
1999-09-15,13.091
1999-09-16,13.1814
1999-09-17,13.1814
1999-09-20,13.1814
1999-09-21,12.9149
1999-09-22,13.0624
1999-09-23,12.7958
1999-09-24,12.4959
1999-09-27,12.5245
1999-09-28,12.5578
1999-09-29,13.4766
1999-09-30,14.7571
1999-10-01,14.0431
1999-10-04,13.6575
1999-10-05,13.4195
1999-10-06,13.8955
1999-10-07,13.805
1999-10-08,13.686
1999-10-11,13.567
1999-10-12,13.9526
1999-10-13,13.6289
1999-10-14,13.4766
1999-10-15,13.4195
1999-10-18,13.2386
1999-10-19,13.3004
1999-10-20,13.2719
1999-10-21,13.2386
1999-10-22,13.21
1999-10-25,13.0005
1999-10-26,12.972
1999-10-27,12.9149
1999-10-28,12.7958
1999-10-29,12.5245
1999-11-01,12.4959
1999-11-02,12.615
1999-11-03,12.4959
1999-11-04,12.4674
1999-11-05,12.4388
1999-11-08,12.4674
1999-11-09,12.5015
1999-11-10,12.3798
1999-11-11,12.3166
1999-11-12,12.3506
1999-11-15,12.4723
1999-11-16,12.6815
1999-11-17,12.5599
1999-11-18,12.6523
1999-11-19,12.6231
1999-11-22,12.6815
1999-11-23,12.5599
1999-11-24,12.5015
1999-11-26,12.4723
1999-11-29,12.4382
1999-11-30,12.2582
1999-12-01,12.1073
1999-12-02,11.9224
1999-12-03,12.2582
1999-12-06,11.8007
1999-12-07,11.6207
1999-12-08,11.6207
1999-12-09,11.7715
1999-12-10,11.5866
1999-12-13,11.7423
1999-12-14,11.7083
1999-12-15,12.1657
1999-12-16,11.9516
1999-12-17,11.9224
1999-12-20,11.8932
1999-12-21,11.9516
1999-12-22,12.0732
1999-12-23,12.2874
1999-12-27,12.2582
1999-12-28,12.229
1999-12-29,12.3166
1999-12-30,12.044
1999-12-31,12.1657
2000-01-03,12.044
2000-01-04,11.7423
2000-01-05,12.2874
2000-01-06,12.409
2000-01-07,12.4723
2000-01-10,12.3506
2000-01-11,11.9516
2000-01-12,11.864
2000-01-13,11.8299
2000-01-14,11.5282
2000-01-18,11.3141
2000-01-19,10.8907
2000-01-20,11.0708
2000-01-21,11.2557
2000-01-24,11.0708
2000-01-25,10.8567
2000-01-26,10.7691
2000-01-27,11.0416
2000-01-28,11.0708
2000-01-31,11.0708
2000-02-01,11.2557
2000-02-02,11.4358
2000-02-03,11.4066
2000-02-04,11.465
2000-02-07,11.3433
2000-02-08,11.1924
2000-02-09,11.2557
2000-02-10,11.2849
2000-02-11,11.5282
2000-02-14,11.6863
2000-02-15,11.6564
2000-02-16,11.6564
2000-02-17,11.6863
2000-02-18,11.5916
2000-02-22,11.7162
2000-02-23,11.6564
2000-02-24,11.2176
2000-02-25,11.1877
2000-02-28,10.9983
2000-02-29,11.1229
2000-03-01,11.4669
2000-03-02,11.7162
2000-03-03,11.7162
2000-03-06,11.437
2000-03-07,11.2176
2000-03-08,11.2176
2000-03-09,11.2825
2000-03-10,11.5317
2000-03-13,11.437
2000-03-14,11.3124
2000-03-15,11.5916
2000-03-16,12.1849
2000-03-17,12.12
2000-03-20,12.12
2000-03-21,12.0303
2000-03-22,11.8708
2000-03-23,11.8109
2000-03-24,11.437
2000-03-27,11.5916
2000-03-28,11.7162
2000-03-29,12.2796
2000-03-30,12.2796
2000-03-31,12.0303
2000-04-03,12.4042
2000-04-04,12.2796
2000-04-05,12.2148
2000-04-06,12.0901
2000-04-07,11.9057
2000-04-10,12.0901
2000-04-11,12.3394
2000-04-12,12.3394
2000-04-13,12.1549
2000-04-14,11.781
2000-04-17,11.7461
2000-04-18,11.7461
2000-04-19,11.8109
2000-04-20,11.8109
2000-04-24,11.7162
2000-04-25,11.9057
2000-04-26,12.2796
2000-04-27,12.2148
2000-04-28,12.12
2000-05-01,12.3693
2000-05-02,12.5588
2000-05-03,12.4641
2000-05-04,12.494
2000-05-05,12.838
2000-05-08,12.6834
2000-05-09,12.7781
2000-05-10,12.7432
2000-05-11,12.8679
2000-05-12,12.9327
2000-05-15,13.1257
2000-05-16,13.192
2000-05-17,12.9983
2000-05-18,12.7128
2000-05-19,12.774
2000-05-22,12.7434
2000-05-23,12.5854
2000-05-24,12.4886
2000-05-25,12.3
2000-05-26,12.4886
2000-05-30,12.9983
2000-05-31,13.3806
2000-06-01,13.2532
2000-06-02,13.2837
2000-06-05,13.35
2000-06-06,13.3806
2000-06-07,13.35
2000-06-08,13.4469
2000-06-09,13.5743
2000-06-12,13.8598
2000-06-13,13.6049
2000-06-14,13.7323
2000-06-15,14.0178
2000-06-16,13.7629
2000-06-19,13.8903
2000-06-20,13.7323
2000-06-21,13.7629
2000-06-22,13.7935
2000-06-23,13.7017
2000-06-26,13.7629
2000-06-27,13.8598
2000-06-28,13.8903
2000-06-29,14.6855
2000-06-30,13.508
2000-07-03,13.6049
2000-07-05,13.7323
2000-07-06,13.5743
2000-07-07,13.9872
2000-07-10,14.2115
2000-07-11,14.4001
2000-07-12,14.5275
2000-07-13,14.6549
2000-07-14,14.4307
2000-07-17,13.9566
2000-07-18,13.9209
2000-07-19,13.4774
2000-07-20,13.6049
2000-07-21,13.0951
2000-07-24,13.35
2000-07-25,13.6049
2000-07-26,13.4469
2000-07-27,13.5743
2000-07-28,13.4469
2000-07-31,13.3806
2000-08-01,13.2837
2000-08-02,13.3806
2000-08-03,13.3806
2000-08-04,13.35
2000-08-07,13.3194
2000-08-08,13.2532
2000-08-09,13.4469
2000-08-10,13.2532
2000-08-11,13.4199
2000-08-14,13.1906
2000-08-15,13.1906
2000-08-16,12.9978
2000-08-17,13.0291
2000-08-18,12.9665
2000-08-21,12.93
2000-08-22,12.8988
2000-08-23,12.5079
2000-08-24,12.5392
2000-08-25,12.4766
2000-08-28,12.5757
2000-08-29,12.6069
2000-08-30,12.5757
2000-08-31,12.5757
2000-09-01,12.6382
2000-09-05,12.5079
2000-09-06,12.5079
2000-09-07,12.4766
2000-09-08,12.4089
2000-09-11,12.4454
2000-09-12,12.3463
2000-09-13,12.2473
2000-09-14,12.3463
2000-09-15,12.2473
2000-09-18,12.2473
2000-09-19,12.1483
2000-09-20,12.117
2000-09-21,12.2473
2000-09-22,11.8565
2000-09-25,11.8252
2000-09-26,11.6949
2000-09-27,11.6636
2000-09-28,12.018
2000-09-29,11.6636
2000-10-02,11.5333
2000-10-03,11.6949
2000-10-04,11.5959
2000-10-05,11.8877
2000-10-06,11.7939
2000-10-09,11.9555
2000-10-10,12.0858
2000-10-11,12.0545
2000-10-12,12.0858
2000-10-13,11.9867
2000-10-16,12.018
2000-10-17,12.018
2000-10-18,12.0545
2000-10-19,12.1483
2000-10-20,12.9978
2000-10-23,12.9665
2000-10-24,13.1594
2000-10-25,14.0401
2000-10-26,13.5815
2000-10-27,13.3209
2000-10-30,13.618
2000-10-31,13.519
2000-11-01,13.4877
2000-11-02,13.5815
2000-11-03,13.3209
2000-11-06,13.6492
2000-11-07,13.6492
2000-11-08,13.618
2000-11-09,13.4877
2000-11-10,13.3887
2000-11-13,13.394
2000-11-14,13.49
2000-11-15,13.426
2000-11-16,13.2235
2000-11-17,13.426
2000-11-20,13.1275
2000-11-21,13.0582
2000-11-22,12.7278
2000-11-24,12.7598
2000-11-27,12.957
2000-11-28,13.0263
2000-11-29,12.957
2000-11-30,12.893
2000-12-01,12.7598
2000-12-04,13.0263
2000-12-05,12.861
2000-12-06,12.8237
2000-12-07,12.7278
2000-12-08,13.0263
2000-12-11,13.0582
2000-12-12,13.1595
2000-12-13,13.5273
2000-12-14,13.6232
2000-12-15,13.6925
2000-12-18,13.7245
2000-12-19,13.8258
2000-12-20,13.2235
2000-12-21,13.6605
2000-12-22,13.7245
2000-12-26,13.426
2000-12-27,13.7938
2000-12-28,13.7565
2000-12-29,13.6232
2001-01-02,13.49
2001-01-03,13.49
2001-01-04,13.6925
2001-01-05,13.7565
2001-01-08,13.7565
2001-01-09,13.6232
2001-01-10,13.5912
2001-01-11,13.5912
2001-01-12,13.5593
2001-01-16,13.7938
2001-01-17,13.6232
2001-01-18,13.7565
2001-01-19,13.7245
2001-01-22,13.7245
2001-01-23,13.8258
2001-01-24,13.8258
2001-01-25,13.991
2001-01-26,13.8258
2001-01-29,14.0549
2001-01-30,14.2362
2001-01-31,14.2841
2001-02-01,14.4387
2001-02-02,14.3054
2001-02-05,14.3854
2001-02-06,14.3161
2001-02-07,14.3108
2001-02-08,14.2948
2001-02-09,14.2095
2001-02-12,14.1323
2001-02-13,14.1596
2001-02-14,14.1541
2001-02-15,14.0343
2001-02-16,13.7511
2001-02-20,13.7239
2001-02-21,13.5877
2001-02-22,13.6041
2001-02-23,13.6041
2001-02-26,13.4516
2001-02-27,13.408
2001-02-28,14.0942
2001-03-01,13.7239
2001-03-02,13.615
2001-03-05,13.5877
2001-03-06,13.5333
2001-03-07,13.615
2001-03-08,13.615
2001-03-09,13.5768
2001-03-12,13.506
2001-03-13,13.4298
2001-03-14,13.4135
2001-03-15,13.3372
2001-03-16,13.4734
2001-03-19,13.5442
2001-03-20,13.6095
2001-03-21,13.3971
2001-03-22,12.956
2001-03-23,12.7382
2001-03-26,12.907
2001-03-27,13.0159
2001-03-28,12.8689
2001-03-29,12.8689
2001-03-30,13.0649
2001-04-02,13.0867
2001-04-03,12.7327
2001-04-04,13.0159
2001-04-05,13.0213
2001-04-06,12.907
2001-04-09,13.0159
2001-04-10,13.1248
2001-04-11,13.0486
2001-04-12,13.1466
2001-04-16,13.1248
2001-04-17,13.0649
2001-04-18,13.2065
2001-04-19,13.4243
2001-04-20,13.5278
2001-04-23,13.6367
2001-04-24,13.5768
2001-04-25,13.7184
2001-04-26,13.6749
2001-04-27,13.6858
2001-04-30,13.713
2001-05-01,14.0779
2001-05-02,14.3229
2001-05-03,14.3828
2001-05-04,14.6769
2001-05-07,14.9002
2001-05-08,14.5408
2001-05-09,14.4809
2001-05-10,14.568
2001-05-11,14.3066
2001-05-14,14.4754
2001-05-15,14.9603
2001-05-16,15.1106
2001-05-17,15.2498
2001-05-18,15.1384
2001-05-21,15.1997
2001-05-22,15.2498
2001-05-23,15.3221
2001-05-24,15.3889
2001-05-25,15.0828
2001-05-29,15.1051
2001-05-30,15.2553
2001-05-31,15.3555
2001-06-01,15.2776
2001-06-04,15.1496
2001-06-05,15.6672
2001-06-06,15.8286
2001-06-07,15.7562
2001-06-08,15.5948
2001-06-11,15.6171
2001-06-12,15.6115
2001-06-13,15.7451
2001-06-14,15.5503
2001-06-15,15.2219
2001-06-18,15.2498
2001-06-19,15.2275
2001-06-20,15.272
2001-06-21,15.5336
2001-06-22,15.2832
2001-06-25,15.2665
2001-06-26,15.4501
2001-06-27,15.5392
2001-06-28,15.6505
2001-06-29,15.6394
2001-07-02,15.8675
2001-07-03,15.7896
2001-07-05,16.0011
2001-07-06,15.8564
2001-07-09,15.9121
2001-07-10,15.9176
2001-07-11,15.8341
2001-07-12,16.0289
2001-07-13,15.8063
2001-07-16,15.7284
2001-07-17,15.8063
2001-07-18,15.8341
2001-07-19,15.8119
2001-07-20,15.7674
2001-07-23,15.5058
2001-07-24,15.4446
2001-07-25,15.5336
2001-07-26,15.528
2001-07-27,15.5058
2001-07-30,15.3778
2001-07-31,15.2887
2001-08-01,15.4167
2001-08-02,15.5336
2001-08-03,15.5002
2001-08-06,15.7006
2001-08-07,15.6894
2001-08-08,15.9789
2001-08-09,16.1291
2001-08-10,16.374
2001-08-13,16.5632
2001-08-14,16.6968
2001-08-15,16.4813
2001-08-16,16.4983
2001-08-17,16.6232
2001-08-20,16.4303
2001-08-21,16.4076
2001-08-22,16.3849
2001-08-23,16.4813
2001-08-24,16.6232
2001-08-27,16.7423
2001-08-28,16.7877
2001-08-29,16.8558
2001-08-30,16.7139
2001-08-31,16.765
2001-09-04,16.7253
2001-09-05,16.7366
2001-09-06,16.5948
2001-09-07,16.3962
2001-09-10,16.1579
2001-09-17,15.3239
2001-09-18,15.4034
2001-09-19,15.1197
2001-09-20,14.0417
2001-09-21,13.7638
2001-09-24,14.28
2001-09-25,14.3368
2001-09-26,14.3708
2001-09-27,14.3935
2001-09-28,15.1424
2001-10-01,14.8133
2001-10-02,14.5126
2001-10-03,14.0474
2001-10-04,13.6276
2001-10-05,13.8432
2001-10-08,14.3254
2001-10-09,14.4843
2001-10-10,15.0686
2001-10-11,15.4034
2001-10-12,15.2899
2001-10-15,15.7154
2001-10-16,15.8856
2001-10-17,15.8799
2001-10-18,15.6019
2001-10-19,15.8629
2001-10-22,16.3962
2001-10-23,15.9991
2001-10-24,16.2544
2001-10-25,15.9934
2001-10-26,16.192
2001-10-29,16.1352
2001-10-30,16.0445
2001-10-31,15.6587
2001-11-01,15.8686
2001-11-02,15.7778
2001-11-05,15.9367
2001-11-06,15.9424
2001-11-07,15.9934
2001-11-08,16.1296
2001-11-09,16.1466
2001-11-12,15.9594
2001-11-13,16.1466
2001-11-14,16.3259
2001-11-15,16.2333
2001-11-16,16.2333
2001-11-19,16.2623
2001-11-20,16.2391
2001-11-21,16.187
2001-11-23,16.2102
2001-11-26,16.2102
2001-11-27,16.2044
2001-11-28,16.216
2001-11-29,16.216
2001-11-30,16.3607
2001-12-03,16.2102
2001-12-04,16.5112
2001-12-05,16.6733
2001-12-06,16.5459
2001-12-07,16.5517
2001-12-10,16.5112
2001-12-11,16.5286
2001-12-12,16.6907
2001-12-13,16.768
2001-12-14,16.768
2001-12-17,16.9098
2001-12-18,17.0279
2001-12-19,16.898
2001-12-20,16.5672
2001-12-21,16.4196
2001-12-24,16.5259
2001-12-26,16.7739
2001-12-27,16.7917
2001-12-28,16.9275
2001-12-31,16.7444
2002-01-02,16.7149
2002-01-03,16.7739
2002-01-04,16.9039
2002-01-07,17.1933
2002-01-08,17.0811
2002-01-09,17.0752
2002-01-10,16.8271
2002-01-11,17.0102
2002-01-14,16.8625
2002-01-15,17.2464
2002-01-16,17.9552
2002-01-17,17.713
2002-01-18,17.719
2002-01-22,17.7012
2002-01-23,17.719
2002-01-24,17.6067
2002-01-25,17.6008
2002-01-28,17.713
2002-01-29,17.3705
2002-01-30,17.7012
2002-01-31,17.8194
2002-02-01,17.9552
2002-02-04,18.1915
2002-02-05,18.1383
2002-02-06,18.3805
2002-02-07,18.3982
2002-02-08,18.6699
2002-02-11,18.7585
2002-02-12,18.3332
2002-02-13,18.3627
2002-02-14,18.2446
2002-02-15,18.4868
2002-02-19,17.713
2002-02-20,17.8843
2002-02-21,18.1383
2002-02-22,18.3982
2002-02-25,18.4336
2002-02-26,18.1796
2002-02-27,18.2505
2002-02-28,18.2564
2002-03-01,18.2919
2002-03-04,18.2919
2002-03-05,18.2505
2002-03-06,18.3096
2002-03-07,18.3096
2002-03-08,18.1265
2002-03-11,17.967
2002-03-12,18.1029
2002-03-13,17.719
2002-03-14,17.9729
2002-03-15,17.9847
2002-03-18,17.7898
2002-03-19,17.9316
2002-03-20,17.7012
2002-03-21,17.7544
2002-03-22,17.4945
2002-03-25,17.4354
2002-03-26,17.6953
2002-03-27,17.6599
2002-03-28,17.5831
2002-04-01,17.6245
2002-04-02,17.6304
2002-04-03,17.4945
2002-04-04,17.5299
2002-04-05,17.5359
2002-04-08,17.4827
2002-04-09,17.3823
2002-04-10,17.654
2002-04-11,17.5359
2002-04-12,17.713
2002-04-15,17.6126
2002-04-16,17.7957
2002-04-17,17.7485
2002-04-18,17.7544
2002-04-19,18.0615
2002-04-22,17.778
2002-04-23,17.8312
2002-04-24,17.7603
2002-04-25,17.8075
2002-04-26,17.8371
2002-04-29,17.8194
2002-04-30,17.9729
2002-05-01,18.0025
2002-05-02,18.0379
2002-05-03,18.2033
2002-05-06,18.032
2002-05-07,18.221
2002-05-08,18.2919
2002-05-09,18.1206
2002-05-10,18.0261
2002-05-13,18.1948
2002-05-14,18.3874
2002-05-15,18.3754
2002-05-16,18.2851
2002-05-17,18.3212
2002-05-20,18.3453
2002-05-21,18.2008
2002-05-22,18.2731
2002-05-23,18.1888
2002-05-24,18.3272
2002-05-28,18.2249
2002-05-29,18.261
2002-05-30,18.0865
2002-05-31,18.255
2002-06-03,18.0744
2002-06-04,18.0203
2002-06-05,18.0805
2002-06-06,18.0263
2002-06-07,18.1707
2002-06-10,18.4175
2002-06-11,18.3814
2002-06-12,18.2851
2002-06-13,18.2309
2002-06-14,18.237
2002-06-17,18.4476
2002-06-18,18.4356
2002-06-19,18.3874
2002-06-20,18.4897
2002-06-21,18.4597
2002-06-24,18.4777
2002-06-25,18.4055
2002-06-26,18.0564
2002-06-27,18.3152
2002-06-28,18.4416
2002-07-01,18.1045
2002-07-02,17.942
2002-07-03,17.8758
2002-07-05,18.1166
2002-07-08,18.0744
2002-07-09,17.9119
2002-07-10,17.2499
2002-07-11,17.3702
2002-07-12,17.2258
2002-07-15,16.8827
2002-07-16,16.5156
2002-07-17,16.8587
2002-07-18,16.5517
2002-07-19,15.5887
2002-07-22,15.5706
2002-07-23,15.4503
2002-07-24,16.1063
2002-07-25,15.9498
2002-07-26,16.329
2002-07-29,17.2077
2002-07-30,17.0031
2002-07-31,17.1295
2002-08-01,17.28
2002-08-02,17.0452
2002-08-05,16.9369
2002-08-06,17.0633
2002-08-07,17.3823
2002-08-08,17.3221
2002-08-09,15.9077
2002-08-12,15.5827
2002-08-13,15.4262
2002-08-14,15.7659
2002-08-15,15.8274
2002-08-16,15.692
2002-08-19,15.9321
2002-08-20,15.9136
2002-08-21,15.9198
2002-08-22,15.9382
2002-08-23,15.9444
2002-08-26,15.9752
2002-08-27,15.9198
2002-08-28,15.8828
2002-08-29,15.6858
2002-08-30,15.8397
2002-09-03,15.5442
2002-09-04,15.6489
2002-09-05,15.6489
2002-09-06,15.6058
2002-09-09,15.6674
2002-09-10,15.6181
2002-09-11,15.5627
2002-09-12,15.5135
2002-09-13,15.5627
2002-09-16,15.4704
2002-09-17,15.3103
2002-09-18,14.9963
2002-09-19,14.4361
2002-09-20,14.7439
2002-09-23,14.7316
2002-09-24,14.0421
2002-09-25,14.2391
2002-09-26,14.4792
2002-09-27,14.0175
2002-09-30,13.8882
2002-10-01,14.0668
2002-10-02,13.7159
2002-10-03,13.722
2002-10-04,13.4512
2002-10-07,12.4723
2002-10-08,12.0906
2002-10-09,11.7705
2002-10-10,12.6447
2002-10-11,13.0264
2002-10-14,12.9402
2002-10-15,13.6112
2002-10-16,13.4019
2002-10-17,13.8205
2002-10-18,13.759
2002-10-21,14.2207
2002-10-22,13.7713
2002-10-23,13.956
2002-10-24,13.7466
2002-10-25,14.1283
2002-10-28,13.9252
2002-10-29,14.0175
2002-10-30,13.9744
2002-10-31,13.9129
2002-11-01,14.0791
2002-11-04,14.1837
2002-11-05,14.2207
2002-11-06,14.5039
2002-11-07,14.3499
2002-11-08,14.2811
2002-11-11,14.1936
2002-11-12,14.3999
2002-11-13,14.3374
2002-11-14,14.6936
2002-11-15,14.9374
2002-11-18,14.8499
2002-11-19,14.8561
2002-11-20,14.7999
2002-11-21,15.0124
2002-11-22,15.0374
2002-11-25,15.1061
2002-11-26,14.9624
2002-11-27,15.2311
2002-11-29,15.2186
2002-12-02,14.7561
2002-12-03,14.7186
2002-12-04,14.6249
2002-12-05,14.5936
2002-12-06,14.4499
2002-12-09,14.1249
2002-12-10,14.2186
2002-12-11,14.4936
2002-12-12,14.3874
2002-12-13,14.4124
2002-12-16,14.7749
2002-12-17,14.5249
2002-12-18,14.5686
2002-12-19,14.5936
2002-12-20,14.5624
2002-12-23,14.3749
2002-12-24,14.3561
2002-12-26,14.5311
2002-12-27,14.5124
2002-12-30,14.6061
2002-12-31,14.7436
2003-01-02,14.9811
2003-01-03,14.9186
2003-01-06,15.0686
2003-01-07,14.9999
2003-01-08,14.8374
2003-01-09,15.1186
2003-01-10,14.9936
2003-01-13,14.9311
2003-01-14,14.9624
2003-01-15,14.7686
2003-01-16,14.8749
2003-01-17,14.7561
2003-01-21,14.5249
2003-01-22,14.4686
2003-01-23,14.5749
2003-01-24,14.0311
2003-01-27,13.4186
2003-01-28,13.6874
2003-01-29,13.8436
2003-01-30,13.4311
2003-01-31,13.6624
2003-02-03,13.5624
2003-02-04,13.7436
2003-02-05,13.7374
2003-02-06,13.5124
2003-02-07,13.5624
2003-02-10,13.6311
2003-02-11,13.5811
2003-02-12,13.5563
2003-02-13,13.5754
2003-02-14,13.5627
2003-02-18,13.7024
2003-02-19,13.6961
2003-02-20,13.6071
2003-02-21,13.9438
2003-02-24,13.5627
2003-02-25,13.7469
2003-02-26,13.6198
2003-02-27,13.8676
2003-02-28,13.8422
2003-03-03,13.9756
2003-03-04,13.6262
2003-03-05,13.7024
2003-03-06,13.4737
2003-03-07,13.5881
2003-03-10,13.4293
2003-03-11,13.4166
2003-03-12,13.4483
2003-03-13,13.5627
2003-03-14,13.6135
2003-03-17,13.8803
2003-03-18,14.0328
2003-03-19,14.4203
2003-03-20,14.4266
2003-03-21,14.6426
2003-03-24,14.1852
2003-03-25,14.344
2003-03-26,14.2424
2003-03-27,14.0963
2003-03-28,14.0391
2003-03-31,13.766
2003-04-01,13.8231
2003-04-02,14.0073
2003-04-03,13.9756
2003-04-04,14.0455
2003-04-07,14.2233
2003-04-08,14.128
2003-04-09,14.0073
2003-04-10,13.9883
2003-04-11,14.0518
2003-04-14,14.2996
2003-04-15,14.2932
2003-04-16,14.4647
2003-04-17,14.7061
2003-04-21,14.7125
2003-04-22,14.9348
2003-04-23,14.884
2003-04-24,14.668
2003-04-25,14.5664
2003-04-28,14.7887
2003-04-29,14.9031
2003-04-30,14.8078
2003-05-01,14.7061
2003-05-02,15.0238
2003-05-05,14.8776
2003-05-06,15.1063
2003-05-07,15.1635
2003-05-08,15.2016
2003-05-09,15.532
2003-05-12,15.6336
2003-05-13,15.6978
2003-05-14,15.5496
2003-05-15,15.7171
2003-05-16,15.8911
2003-05-19,15.5496
2003-05-20,15.6527
2003-05-21,15.6398
2003-05-22,15.8331
2003-05-23,16.1295
2003-05-27,16.5419
2003-05-28,16.5613
2003-05-29,16.3551
2003-05-30,17.0253
2003-06-02,16.8448
2003-06-03,16.8899
2003-06-04,17.0317
2003-06-05,17.1348
2003-06-06,17.3926
2003-06-09,17.1026
2003-06-10,17.225
2003-06-11,17.4055
2003-06-12,17.341
2003-06-13,17.0832
2003-06-16,17.3926
2003-06-17,17.2508
2003-06-18,17.109
2003-06-19,17.3346
2003-06-20,17.3926
2003-06-23,17.1541
2003-06-24,17.1992
2003-06-25,17.2766
2003-06-26,17.5279
2003-06-27,16.993
2003-06-30,16.7417
2003-07-01,16.8899
2003-07-02,17.1864
2003-07-03,17.0639
2003-07-07,17.3346
2003-07-08,17.3281
2003-07-09,17.2057
2003-07-10,17.0124
2003-07-11,17.2895
2003-07-14,17.1284
2003-07-15,17.1864
2003-07-16,17.051
2003-07-17,17.0446
2003-07-18,17.4634
2003-07-21,17.4892
2003-07-22,17.6117
2003-07-23,17.2895
2003-07-24,17.1348
2003-07-25,17.399
2003-07-28,17.3861
2003-07-29,17.2444
2003-07-30,17.5214
2003-07-31,17.4957
2003-08-01,17.2379
2003-08-04,17.1284
2003-08-05,16.9093
2003-08-06,16.8835
2003-08-07,17.1735
2003-08-08,17.1864
2003-08-11,17.2121
2003-08-12,17.3346
2003-08-13,17.1123
2003-08-14,17.5628
2003-08-15,17.3017
2003-08-18,17.5171
2003-08-19,17.4975
2003-08-20,17.2886
2003-08-21,17.4192
2003-08-22,16.9818
2003-08-25,16.9752
2003-08-26,16.9752
2003-08-27,16.9361
2003-08-28,16.8642
2003-08-29,17.034
2003-09-02,17.269
2003-09-03,17.4584
2003-09-04,17.3147
2003-09-05,17.0993
2003-09-08,17.4192
2003-09-09,17.2494
2003-09-10,16.8708
2003-09-11,17.0144
2003-09-12,16.8838
2003-09-15,16.8512
2003-09-16,17.1972
2003-09-17,16.9622
2003-09-18,17.0732
2003-09-19,17.1058
2003-09-22,16.9099
2003-09-23,16.9622
2003-09-24,16.6096
2003-09-25,16.4921
2003-09-26,16.4007
2003-09-29,16.5835
2003-09-30,16.577
2003-10-01,16.8969
2003-10-02,16.9491
2003-10-03,17.0601
2003-10-06,17.3735
2003-10-07,17.3147
2003-10-08,17.4584
2003-10-09,17.4584
2003-10-10,17.5302
2003-10-13,17.6412
2003-10-14,17.713
2003-10-15,17.6999
2003-10-16,17.6934
2003-10-17,17.5106
2003-10-20,17.5955
2003-10-21,17.0993
2003-10-22,17.0013
2003-10-23,16.9165
2003-10-24,16.7206
2003-10-27,16.7075
2003-10-28,16.9491
2003-10-29,16.9165
2003-10-30,17.034
2003-10-31,17.1189
2003-11-03,17.3604
2003-11-04,17.2625
2003-11-05,17.2103
2003-11-06,17.3539
2003-11-07,17.2821
2003-11-10,17.1565
2003-11-11,17.0506
2003-11-12,17.355
2003-11-13,17.4344
2003-11-14,17.3417
2003-11-17,17.2425
2003-11-18,17.0043
2003-11-19,17.0506
2003-11-20,16.958
2003-11-21,16.9778
2003-11-24,17.2689
2003-11-25,17.5601
2003-11-26,17.6262
2003-11-28,17.6196
2003-12-01,18.0894
2003-12-02,17.9968
2003-12-03,18.0298
2003-12-04,18.096
2003-12-05,17.9306
2003-12-08,18.5856
2003-12-09,18.9561
2003-12-10,19.4127
2003-12-11,19.3597
2003-12-12,19.3399
2003-12-15,19.1811
2003-12-16,19.2076
2003-12-17,19.3333
2003-12-18,19.7766
2003-12-19,19.8163
2003-12-22,19.8957
2003-12-23,20.0412
2003-12-24,20.0545
2003-12-26,20.0412
2003-12-29,20.1802
2003-12-30,20.2
2003-12-31,20.1471
2004-01-02,20.0545
2004-01-05,19.9089
2004-01-06,19.856
2004-01-07,19.8758
2004-01-08,19.9288
2004-01-09,19.1745
2004-01-12,19.5185
2004-01-13,19.2936
2004-01-14,19.6112
2004-01-15,19.7898
2004-01-16,19.6972
2004-01-20,19.9155
2004-01-21,19.9155
2004-01-22,19.856
2004-01-23,19.9618
2004-01-26,20.7492
2004-01-27,20.8088
2004-01-28,20.2861
2004-01-29,20.0809
2004-01-30,19.9023
2004-02-02,20.3588
2004-02-03,20.4382
2004-02-04,20.0346
2004-02-05,20.1537
2004-02-06,20.2331
2004-02-09,20.167
2004-02-10,20.2
2004-02-11,20.6017
2004-02-12,20.267
2004-02-13,20.0729
2004-02-17,20.1332
2004-02-18,20.18
2004-02-19,20.2737
2004-02-20,20.2604
2004-02-23,20.4076
2004-02-24,20.5883
2004-02-25,20.6352
2004-02-26,20.6151
2004-02-27,20.7958
2004-03-01,21.2242
2004-03-02,21.271
2004-03-03,21.2443
2004-03-04,21.5789
2004-03-05,21.7864
2004-03-08,21.5521
2004-03-09,21.5856
2004-03-10,20.9966
2004-03-11,20.6084
2004-03-12,20.9899
2004-03-15,20.7423
2004-03-16,21.0435
2004-03-17,21.6325
2004-03-18,21.6459
2004-03-19,21.6191
2004-03-22,21.2242
2004-03-23,21.3781
2004-03-24,21.2443
2004-03-25,21.6057
2004-03-26,21.5187
2004-03-29,21.6459
2004-03-30,21.7663
2004-03-31,21.7061
2004-04-01,21.9604
2004-04-02,21.7463
2004-04-05,21.251
2004-04-06,20.8025
2004-04-07,20.9297
2004-04-08,20.7423
2004-04-12,20.3005
2004-04-13,20.1131
2004-04-14,20.093
2004-04-15,20.4143
2004-04-16,20.6553
2004-04-19,20.5147
2004-04-20,19.9993
2004-04-21,19.9123
2004-04-22,20.4143
2004-04-23,20.247
2004-04-26,20.1399
2004-04-27,20.3407
2004-04-28,20.0462
2004-04-29,19.6981
2004-04-30,19.7517
2004-05-03,20.1733
2004-05-04,20.4277
2004-05-05,20.1399
2004-05-06,20.2068
2004-05-07,19.4772
2004-05-10,19.0489
2004-05-11,19.4639
2004-05-12,19.4914
2004-05-13,19.5862
2004-05-14,19.6675
2004-05-17,19.6404
2004-05-18,19.8572
2004-05-19,19.2814
2004-05-20,19.9656
2004-05-21,20.1079
2004-05-24,20.1689
2004-05-25,20.738
2004-05-26,20.8396
2004-05-27,20.9819
2004-05-28,21.1038
2004-06-01,20.9209
2004-06-02,21.2664
2004-06-03,21.0767
2004-06-04,21.1174
2004-06-07,21.6187
2004-06-08,21.7
2004-06-09,21.6255
2004-06-10,21.7203
2004-06-14,21.3138
2004-06-15,21.6052
2004-06-16,21.6458
2004-06-17,21.7339
2004-06-18,21.8423
2004-06-21,21.8626
2004-06-22,21.7813
2004-06-23,21.8152
2004-06-24,21.8694
2004-06-25,22.0523
2004-06-28,22.1607
2004-06-29,21.7881
2004-06-30,21.9845
2004-07-01,22.0591
2004-07-02,22.5672
2004-07-06,22.4927
2004-07-07,22.7569
2004-07-08,22.0591
2004-07-09,22.0726
2004-07-12,22.4181
2004-07-13,22.2759
2004-07-14,22.3436
2004-07-15,22.4181
2004-07-16,22.3843
2004-07-19,22.3843
2004-07-20,21.6255
2004-07-21,21.368
2004-07-22,21.2122
2004-07-23,21.1716
2004-07-26,20.7854
2004-07-27,21.1512
2004-07-28,21.158
2004-07-29,21.158
2004-07-30,21.2732
2004-08-02,21.7271
2004-08-03,21.551
2004-08-04,21.6593
2004-08-05,21.1377
2004-08-06,20.9548
2004-08-09,21.1648
2004-08-10,21.3477
2004-08-11,21.6052
2004-08-12,21.4087
2004-08-13,21.4296
2004-08-16,21.7791
2004-08-17,22.0875
2004-08-18,22.2383
2004-08-19,22.2725
2004-08-20,22.4713
2004-08-23,22.3685
2004-08-24,22.6563
2004-08-25,22.4439
2004-08-26,22.6015
2004-08-27,22.4918
2004-08-30,22.5261
2004-08-31,22.6152
2004-09-01,22.6152
2004-09-02,22.8893
2004-09-03,22.9921
2004-09-07,23.3074
2004-09-08,23.2251
2004-09-09,23.0744
2004-09-10,23.1223
2004-09-13,23.1977
2004-09-14,22.7317
2004-09-15,22.8208
2004-09-16,23.232
2004-09-17,23.2662
2004-09-20,23.1566
2004-09-21,23.417
2004-09-22,23.4033
2004-09-23,23.3485
2004-09-24,23.5472
2004-09-27,23.4581
2004-09-28,23.8488
2004-09-29,23.5404
2004-09-30,23.9447
2004-10-01,24.3353
2004-10-04,24.4861
2004-10-05,24.3696
2004-10-06,24.2805
2004-10-07,23.8145
2004-10-08,23.9653
2004-10-11,23.8351
2004-10-12,24.1914
2004-10-13,23.9447
2004-10-14,23.9721
2004-10-15,24.1092
2004-10-18,24.3216
2004-10-19,23.9858
2004-10-20,23.8076
2004-10-21,23.8693
2004-10-22,23.5267
2004-10-25,23.8076
2004-10-26,24.6985
2004-10-27,24.9453
2004-10-28,25.048
2004-10-29,24.8493
2004-11-01,25.1783
2004-11-02,25.5278
2004-11-03,25.7265
2004-11-04,26.3638
2004-11-05,25.7676
2004-11-08,25.9321
2004-11-09,25.9732
2004-11-10,25.9594
2004-11-11,26.084
2004-11-12,26.8105
2004-11-15,26.7343
2004-11-16,26.3607
2004-11-17,25.8487
2004-11-18,25.9456
2004-11-19,25.6135
2004-11-22,25.8764
2004-11-23,25.8903
2004-11-24,26.0909
2004-11-26,26.2639
2004-11-29,25.9179
2004-11-30,25.6204
2004-12-01,26.4299
2004-12-02,26.001
2004-12-03,26.3815
2004-12-06,26.679
2004-12-07,26.3261
2004-12-08,26.4022
2004-12-09,26.5752
2004-12-10,26.6928
2004-12-13,26.6306
2004-12-14,26.762
2004-12-15,27.0665
2004-12-16,26.8658
2004-12-17,26.8589
2004-12-20,26.8312
2004-12-21,26.9834
2004-12-22,27.2463
2004-12-23,26.9212
2004-12-27,27.0734
2004-12-28,27.0941
2004-12-29,26.8658
2004-12-30,26.9004
2004-12-31,26.6306
2005-01-03,26.4368
2005-01-04,26.0563
2005-01-05,25.0669
2005-01-06,25.4267
2005-01-07,25.3783
2005-01-10,25.572
2005-01-11,25.2537
2005-01-12,25.2606
2005-01-13,25.1707
2005-01-14,25.4267
2005-01-18,25.7795
2005-01-19,25.5927
2005-01-20,25.3091
2005-01-21,25.2053
2005-01-24,24.9355
2005-01-25,24.2851
2005-01-26,24.548
2005-01-27,24.2851
2005-01-28,24.2989
2005-01-31,24.6725
2005-02-01,25.0046
2005-02-02,25.4336
2005-02-03,25.233
2005-02-04,25.9456
2005-02-07,25.9179
2005-02-08,25.9456
2005-02-09,25.9387
2005-02-10,26.084
2005-02-11,26.2362
2005-02-14,26.3192
2005-02-15,26.3815
2005-02-16,26.4299
2005-02-17,26.2133
2005-02-18,26.409
2005-02-22,25.5913
2005-02-23,25.9617
2005-02-24,26.2902
2005-02-25,26.7165
2005-02-28,26.3041
2005-03-01,26.6396
2005-03-02,26.381
2005-03-03,26.4649
2005-03-04,27.1567
2005-03-07,27.1847
2005-03-08,26.7165
2005-03-09,25.9407
2005-03-10,25.8499
2005-03-11,25.5843
2005-03-14,25.801
2005-03-15,25.6752
2005-03-16,25.4306
2005-03-17,25.7591
2005-03-18,25.3817
2005-03-21,25.1511
2005-03-22,24.5431
2005-03-23,24.9484
2005-03-24,24.8995
2005-03-28,24.7248
2005-03-29,24.5081
2005-03-30,24.9344
2005-03-31,24.9484
2005-04-01,24.8785
2005-04-04,24.8576
2005-04-05,24.9694
2005-04-06,25.1511
2005-04-07,25.4026
2005-04-08,25.3537
2005-04-11,25.4236
2005-04-12,25.8569
2005-04-13,25.4935
2005-04-14,24.9973
2005-04-15,24.6759
2005-04-18,24.6199
2005-04-19,24.5151
2005-04-20,24.2845
2005-04-21,24.7597
2005-04-22,24.7038
2005-04-25,24.9065
2005-04-26,24.571
2005-04-27,24.4313
2005-04-28,24.0399
2005-04-29,24.1308
2005-05-02,24.1447
2005-05-03,24.1028
2005-05-04,24.2216
2005-05-05,24.2216
2005-05-06,24.2705
2005-05-09,24.578
2005-05-10,24.6269
2005-05-11,24.7737
2005-05-12,24.3544
2005-05-13,23.9002
2005-05-16,24.2286
2005-05-17,24.2845
2005-05-18,24.7294
2005-05-19,24.899
2005-05-20,25.0686
2005-05-23,24.8637
2005-05-24,24.7435
2005-05-25,24.5952
2005-05-26,24.6093
2005-05-27,24.6729
2005-05-31,24.7789
2005-06-01,25.118
2005-06-02,24.9414
2005-06-03,25.0262
2005-06-06,24.9767
2005-06-07,25.3017
2005-06-08,25.6267
2005-06-09,25.6126
2005-06-10,25.6267
2005-06-13,25.8316
2005-06-14,25.874
2005-06-15,26.0224
2005-06-16,26.0365
2005-06-17,26.0577
2005-06-20,26.2626
2005-06-21,26.1567
2005-06-22,26.0436
2005-06-23,26.0436
2005-06-24,25.6833
2005-06-27,25.9023
2005-06-28,26.1001
2005-06-29,25.8528
2005-06-30,25.6479
2005-07-01,25.8811
2005-07-05,26.4039
2005-07-06,26.1637
2005-07-07,26.1425
2005-07-08,26.63
2005-07-11,26.8561
2005-07-12,26.6866
2005-07-13,26.3969
2005-07-14,25.9376
2005-07-15,25.6974
2005-07-18,25.6762
2005-07-19,25.6479
2005-07-20,26.4181
2005-07-21,26.0436
2005-07-22,25.9517
2005-07-25,25.7045
2005-07-26,26.8844
2005-07-27,26.8137
2005-07-28,26.948
2005-07-29,26.736
2005-08-01,26.5453
2005-08-02,26.7925
2005-08-03,26.8067
2005-08-04,26.4251
2005-08-05,25.5561
2005-08-08,25.2028
2005-08-09,25.2452
2005-08-10,25.3653
2005-08-11,25.4642
2005-08-12,25.4006
2005-08-15,25.4934
2005-08-16,25.5791
2005-08-17,25.3791
2005-08-18,25.1863
2005-08-19,25.0792
2005-08-22,25.2577
2005-08-23,25.0078
2005-08-24,25.1935
2005-08-25,25.4577
2005-08-26,24.8436
2005-08-29,25.2506
2005-08-30,25.1221
2005-08-31,26.2003
2005-09-01,26.1646
2005-09-02,26.0147
2005-09-06,26.7359
2005-09-07,26.5717
2005-09-08,26.5574
2005-09-09,26.8573
2005-09-12,26.9359
2005-09-13,26.6431
2005-09-14,27.4072
2005-09-15,27.6428
2005-09-16,27.7357
2005-09-19,27.2786
2005-09-20,27.1501
2005-09-21,26.3003
2005-09-22,26.7359
2005-09-23,26.6074
2005-09-26,26.8573
2005-09-27,26.586
2005-09-28,26.4217
2005-09-29,26.8645
2005-09-30,27.043
2005-10-03,26.7859
2005-10-04,26.586
2005-10-05,25.7719
2005-10-06,25.6148
2005-10-07,25.5791
2005-10-10,25.4934
2005-10-11,25.222
2005-10-12,24.8507
2005-10-13,24.7436
2005-10-14,25.272
2005-10-17,25.4577
2005-10-18,25.2792
2005-10-19,25.9147
2005-10-20,25.5577
2005-10-21,25.7719
2005-10-24,26.5717
2005-10-25,26.9359
2005-10-26,27.0787
2005-10-27,26.7288
2005-10-28,27.4
2005-10-31,27.7428
2005-11-01,27.5072
2005-11-02,27.6643
2005-11-03,27.4357
2005-11-04,27.1858
2005-11-07,27.4
2005-11-08,27.2786
2005-11-09,27.3858
2005-11-10,27.7285
2005-11-11,27.7857
2005-11-14,27.6196
2005-11-15,27.5764
2005-11-16,27.4249
2005-11-17,27.6845
2005-11-18,27.735
2005-11-21,27.9081
2005-11-22,28.1317
2005-11-23,28.1533
2005-11-25,28.3047
2005-11-28,28.0523
2005-11-29,28.3624
2005-11-30,28.0884
2005-12-01,27.7639
2005-12-02,27.7422
2005-12-05,27.4177
2005-12-06,27.0139
2005-12-07,26.949
2005-12-08,26.9995
2005-12-09,27.0283
2005-12-12,26.8048
2005-12-13,27.0788
2005-12-14,27.1076
2005-12-15,26.7903
2005-12-16,26.8769
2005-12-19,26.5379
2005-12-20,26.574
2005-12-21,26.6822
2005-12-22,26.7038
2005-12-23,26.7254
2005-12-27,26.6028
2005-12-28,26.5596
2005-12-29,26.2927
2005-12-30,25.9682
2006-01-03,26.5451
2006-01-04,26.5524
2006-01-05,26.8264
2006-01-06,27.1004
2006-01-09,27.223
2006-01-10,27.598
2006-01-11,27.4394
2006-01-12,27.36
2006-01-13,27.1653
2006-01-17,27.1581
2006-01-18,27.1725
2006-01-19,27.4466
2006-01-20,26.9129
2006-01-23,27.2591
2006-01-24,27.5908
2006-01-25,27.8144
2006-01-26,28.0667
2006-01-27,28.1749
2006-01-30,27.4033
2006-01-31,26.6966
2006-02-01,26.5451
2006-02-02,26.3072
2006-02-03,25.7952
2006-02-06,26.0187
2006-02-07,25.7591
2006-02-08,25.9754
2006-02-09,26.1413
2006-02-10,26.2423
2006-02-13,26.0548
2006-02-14,26.1557
2006-02-15,26.3159
2006-02-16,26.5274
2006-02-17,26.5347
2006-02-21,26.5419
2006-02-22,27.2784
2006-02-23,27.643
2006-02-24,27.2055
2006-02-27,27.1472
2006-02-28,27.0669
2006-03-01,27.0086
2006-03-02,26.8774
2006-03-03,26.7024
2006-03-06,26.6951
2006-03-07,26.6149
2006-03-08,26.4909
2006-03-09,26.5274
2006-03-10,26.6149
2006-03-13,26.5638
2006-03-14,26.7899
2006-03-15,26.8482
2006-03-16,27.1399
2006-03-17,27.3513
2006-03-20,27.1617
2006-03-21,26.7534
2006-03-22,27.0961
2006-03-23,26.9722
2006-03-24,26.8336
2006-03-27,26.7753
2006-03-28,26.7972
2006-03-29,27.3805
2006-03-30,26.9503
2006-03-31,26.9357
2006-04-03,26.9065
2006-04-04,27.0524
2006-04-05,27.242
2006-04-06,27.0524
2006-04-07,26.593
2006-04-10,26.4836
2006-04-11,26.3669
2006-04-12,26.1628
2006-04-13,25.9367
2006-04-17,25.7471
2006-04-18,26.5565
2006-04-19,26.5857
2006-04-20,26.4034
2006-04-21,26.243
2006-04-24,26.0607
2006-04-25,27.1617
2006-04-26,26.8482
2006-04-27,26.644
2006-04-28,26.5128
2006-05-01,26.1701
2006-05-02,25.944
2006-05-03,26.1482
2006-05-04,26.1482
2006-05-05,26.5711
2006-05-08,26.9211
2006-05-09,26.994
2006-05-10,27.0451
2006-05-11,26.6396
2006-05-12,26.2268
2006-05-15,26.8755
2006-05-16,26.647
2006-05-17,26.2121
2006-05-18,25.9688
2006-05-19,26.3963
2006-05-22,25.8361
2006-05-23,25.298
2006-05-24,25.4307
2006-05-25,25.7624
2006-05-26,26.2415
2006-05-30,26.0573
2006-05-31,26.3153
2006-06-01,26.7428
2006-06-02,26.7796
2006-06-05,26.3668
2006-06-06,26.4037
2006-06-07,26.4258
2006-06-08,26.2931
2006-06-09,26.1899
2006-06-12,25.9467
2006-06-13,25.6813
2006-06-14,25.615
2006-06-15,26.1899
2006-06-16,26.1015
2006-06-19,25.6666
2006-06-20,25.7182
2006-06-21,25.9688
2006-06-22,25.8509
2006-06-23,25.7772
2006-06-26,25.8877
2006-06-27,25.5118
2006-06-28,25.6002
2006-06-29,26.3447
2006-06-30,26.1899
2006-07-03,26.4406
2006-07-05,26.5216
2006-07-06,26.4922
2006-07-07,26.1678
2006-07-10,26.3668
2006-07-11,26.33
2006-07-12,26.0867
2006-07-13,25.755
2006-07-14,25.1506
2006-07-17,24.8558
2006-07-18,25.2169
2006-07-19,25.8509
2006-07-20,25.5708
2006-07-21,25.2833
2006-07-24,25.2464
2006-07-25,25.2391
2006-07-26,25.3275
2006-07-27,25.0474
2006-07-28,25.4823
2006-07-31,25.0916
2006-08-01,24.9663
2006-08-02,25.0105
2006-08-03,25.1875
2006-08-04,25.1653
2006-08-07,25.0621
2006-08-08,25.0695
2006-08-09,24.9958
2006-08-10,25.1359
2006-08-11,25.1359
2006-08-14,25.2925
2006-08-15,25.4789
2006-08-16,25.6803
2006-08-17,25.8444
2006-08-18,25.837
2006-08-21,25.8221
2006-08-22,25.9936
2006-08-23,25.6057
2006-08-24,25.8071
2006-08-25,25.7848
2006-08-28,25.9041
2006-08-29,25.837
2006-08-30,25.8593
2006-08-31,25.9712
2006-09-01,25.9041
2006-09-05,25.9265
2006-09-06,25.8966
2006-09-07,25.5685
2006-09-08,25.7475
2006-09-11,25.561
2006-09-12,24.9867
2006-09-13,25.3372
2006-09-14,25.2328
2006-09-15,25.2925
2006-09-18,25.2626
2006-09-19,25.3745
2006-09-20,25.5834
2006-09-21,25.3447
2006-09-22,25.3745
2006-09-25,25.3745
2006-09-26,25.4491
2006-09-27,25.6505
2006-09-28,25.658
2006-09-29,25.3671
2006-10-02,25.4193
2006-10-03,25.4939
2006-10-04,25.6729
2006-10-05,25.7698
2006-10-06,25.7549
2006-10-09,25.9638
2006-10-10,25.8593
2006-10-11,25.9488
2006-10-12,25.8817
2006-10-13,26.0607
2006-10-16,26.1652
2006-10-17,26.0906
2006-10-18,26.2174
2006-10-19,26.3591
2006-10-20,26.374
2006-10-23,26.3292
2006-10-24,26.4262
2006-10-25,26.5157
2006-10-26,26.635
2006-10-27,26.7022
2006-10-30,26.7246
2006-10-31,26.7842
2006-11-01,26.5232
2006-11-02,26.2248
2006-11-03,25.9041
2006-11-06,26.0085
2006-11-07,25.8295
2006-11-08,26.0085
2006-11-09,26.0458
2006-11-10,26.1428
2006-11-13,26.2408
2006-11-14,26.5501
2006-11-15,26.7614
2006-11-16,26.8142
2006-11-17,26.784
2006-11-20,27.1537
2006-11-21,27.4404
2006-11-22,27.629
2006-11-24,27.6894
2006-11-27,27.5913
2006-11-28,27.7799
2006-11-29,27.9157
2006-11-30,28.1194
2006-12-01,27.8478
2006-12-04,28.0742
2006-12-05,28.0742
2006-12-06,28.1798
2006-12-07,28.0591
2006-12-08,28.2175
2006-12-11,28.6325
2006-12-12,28.7909
2006-12-13,28.8362
2006-12-14,29.0173
2006-12-15,29.1229
2006-12-18,28.9192
2006-12-19,28.9569
2006-12-20,29.3266
2006-12-21,29.3945
2006-12-22,29.2738
2006-12-26,29.5378
2006-12-27,29.7566
2006-12-28,29.9604
2006-12-29,30.0811
2007-01-03,30.0358
2007-01-04,29.7944
2007-01-05,29.1832
2007-01-08,29.055
2007-01-09,29.3115
2007-01-10,29.3266
2007-01-11,29.7265
2007-01-12,29.8849
2007-01-16,30.0056
2007-01-17,29.8396
2007-01-18,29.7944
2007-01-19,30.3376
2007-01-22,30.2621
2007-01-23,30.5338
2007-01-24,30.9864
2007-01-25,31.0166
2007-01-26,31.16
2007-01-29,31.6278
2007-01-30,30.3753
2007-01-31,30.3527
2007-02-01,30.33
2007-02-02,30.5639
2007-02-05,30.4809
2007-02-06,30.8129
2007-02-07,31.2279
2007-02-08,31.1524
2007-02-09,30.6243
2007-02-12,30.398
2007-02-13,30.7903
2007-02-14,30.7974
2007-02-15,31.0185
2007-02-16,31.0414
2007-02-20,31.3234
2007-02-21,31.514
2007-02-22,31.2624
2007-02-23,30.9499
2007-02-26,30.7212
2007-02-27,29.8369
2007-02-28,30.1799
2007-03-01,29.9665
2007-03-02,29.5396
2007-03-05,28.7849
2007-03-06,29.5853
2007-03-07,29.0593
2007-03-08,29.1737
2007-03-09,29.4253
2007-03-12,29.654
2007-03-13,28.6172
2007-03-14,28.9907
2007-03-15,29.1889
2007-03-16,28.9374
2007-03-19,29.2652
2007-03-20,29.4176
2007-03-21,29.8826
2007-03-22,29.6006
2007-03-23,29.8522
2007-03-26,29.7302
2007-03-27,29.4558
2007-03-28,29.3109
2007-03-29,29.7531
2007-03-30,30.0275
2007-04-02,30.4696
2007-04-03,30.5764
2007-04-04,30.4315
2007-04-05,30.1037
2007-04-09,30.1037
2007-04-10,30.1952
2007-04-11,29.9817
2007-04-12,29.8826
2007-04-13,30.1418
2007-04-16,30.3095
2007-04-17,30.6907
2007-04-18,30.6831
2007-04-19,30.5535
2007-04-20,30.6907
2007-04-23,30.927
2007-04-24,30.6907
2007-04-25,30.6678
2007-04-26,30.7517
2007-04-27,30.8889
2007-04-30,30.2791
2007-05-01,30.2867
2007-05-02,30.5687
2007-05-03,30.6983
2007-05-04,30.7974
2007-05-07,30.7669
2007-05-08,30.8432
2007-05-09,31.3844
2007-05-10,31.0947
2007-05-11,31.5064
2007-05-14,31.2751
2007-05-15,31.0672
2007-05-16,30.813
2007-05-17,30.3972
2007-05-18,30.505
2007-05-21,30.8053
2007-05-22,31.2443
2007-05-23,30.9748
2007-05-24,30.7206
2007-05-25,30.8977
2007-05-29,31.4137
2007-05-30,32.0914
2007-05-31,32.1839
2007-06-01,32.0144
2007-06-04,32.3995
2007-06-05,31.614
2007-06-06,31.3675
2007-06-07,30.7745
2007-06-08,31.2135
2007-06-11,31.098
2007-06-12,31.1288
2007-06-13,31.5986
2007-06-14,31.6679
2007-06-15,33.0079
2007-06-18,32.877
2007-06-19,32.9232
2007-06-20,32.2763
2007-06-21,32.3687
2007-06-22,32.2301
2007-06-25,31.5447
2007-06-26,31.4214
2007-06-27,31.7834
2007-06-28,31.8142
2007-06-29,32.0991
2007-07-02,33.2697
2007-07-03,33.3083
2007-07-05,33.4469
2007-07-06,33.6009
2007-07-09,33.5855
2007-07-10,32.6151
2007-07-11,32.7307
2007-07-12,33.0849
2007-07-13,33.3622
2007-07-16,33.2235
2007-07-17,33.2081
2007-07-18,32.8847
2007-07-19,33.0849
2007-07-20,32.723
2007-07-23,32.3533
2007-07-24,31.5215
2007-07-25,31.1057
2007-07-26,30.7437
2007-07-27,29.7117
2007-07-30,30.3047
2007-07-31,29.9505
2007-08-01,30.3047
2007-08-02,30.7129
2007-08-03,29.7579
2007-08-06,30.4742
2007-08-07,31.2058
2007-08-08,32.5304
2007-08-09,32.9617
2007-08-10,31.7526
2007-08-13,31.7064
2007-08-14,30.7962
2007-08-15,29.9092
2007-08-16,31.0452
2007-08-17,31.2475
2007-08-20,31.6832
2007-08-21,31.8933
2007-08-22,32.8036
2007-08-23,32.9203
2007-08-24,32.5158
2007-08-27,32.4224
2007-08-28,31.4187
2007-08-29,32.2045
2007-08-30,32.2512
2007-08-31,32.5702
2007-09-04,32.7258
2007-09-05,32.1734
2007-09-06,32.0878
2007-09-07,31.5898
2007-09-10,31.4731
2007-09-11,32.01
2007-09-12,32.1656
2007-09-13,32.9203
2007-09-14,33.1382
2007-09-17,33.0215
2007-09-18,34.7955
2007-09-19,35.3168
2007-09-20,34.6944
2007-09-21,34.9978
2007-09-24,34.3676
2007-09-25,34.2353
2007-09-26,34.2197
2007-09-27,34.6243
2007-09-28,34.7722
2007-10-01,34.9278
2007-10-02,35.0601
2007-10-03,34.9433
2007-10-04,34.8889
2007-10-05,34.3209
2007-10-08,33.5428
2007-10-09,33.7762
2007-10-10,33.2549
2007-10-11,32.9048
2007-10-12,32.6013
2007-10-15,32.0567
2007-10-16,31.9166
2007-10-17,32.1967
2007-10-18,32.5235
2007-10-19,31.2708
2007-10-22,32.0333
2007-10-23,32.6091
2007-10-24,32.7647
2007-10-25,32.9437
2007-10-26,33.6906
2007-10-29,33.5817
2007-10-30,33.5895
2007-10-31,34.7021
2007-11-01,34.0174
2007-11-02,33.5195
2007-11-05,33.4572
2007-11-06,33.9785
2007-11-07,32.8814
2007-11-08,33.2316
2007-11-09,33.71
2007-11-12,33.8436
2007-11-13,34.8809
2007-11-14,34.5508
2007-11-15,34.2915
2007-11-16,34.0165
2007-11-19,33.2386
2007-11-20,32.83
2007-11-21,32.9557
2007-11-23,33.8986
2007-11-26,33.0814
2007-11-27,34.0086
2007-11-28,35.203
2007-11-29,35.4781
2007-11-30,36.4288
2007-12-03,36.0595
2007-12-04,35.5173
2007-12-05,36.3267
2007-12-06,36.9946
2007-12-07,36.6882
2007-12-10,37.7097
2007-12-11,35.5959
2007-12-12,36.256
2007-12-13,36.1931
2007-12-14,34.9123
2007-12-17,34.653
2007-12-18,35.5881
2007-12-19,35.8081
2007-12-20,36.4131
2007-12-21,37.0496
2007-12-24,37.4032
2007-12-26,37.5839
2007-12-27,36.6803
2007-12-28,36.3503
2007-12-31,36.1538
2008-01-02,35.4309
2008-01-03,34.928
2008-01-04,32.5549
2008-01-07,32.9478
2008-01-08,31.4548
2008-01-09,31.7377
2008-01-10,32.6885
2008-01-11,32.2249
2008-01-14,32.6492
2008-01-15,31.9813
2008-01-16,32.4764
2008-01-17,31.4313
2008-01-18,31.172
2008-01-22,31.5334
2008-01-23,34.2208
2008-01-24,33.6943
2008-01-25,32.8064
2008-01-28,33.9772
2008-01-29,32.7121
2008-01-30,32.0049
2008-01-31,32.7514
2008-02-01,34.378
2008-02-04,33.7493
2008-02-05,32.162
2008-02-06,31.8713
2008-02-07,32.3349
2008-02-08,31.9813
2008-02-11,31.447
2008-02-12,32.2567
2008-02-13,31.9629
2008-02-14,31.4547
2008-02-15,31.6691
2008-02-19,31.4388
2008-02-20,32.1456
2008-02-21,31.7723
2008-02-22,31.9867
2008-02-25,33.3764
2008-02-26,33.702
2008-02-27,33.7814
2008-02-28,33.027
2008-02-29,32.3044
2008-03-03,32.1217
2008-03-04,32.0185
2008-03-05,32.0661
2008-03-06,30.9862
2008-03-07,31.3038
2008-03-10,30.5891
2008-03-11,31.5103
2008-03-12,31.3673
2008-03-13,31.6532
2008-03-14,31.3038
2008-03-17,31.3435
2008-03-18,32.757
2008-03-19,31.9947
2008-03-20,32.757
2008-03-24,33.3844
2008-03-25,33.5829
2008-03-26,32.9397
2008-03-27,32.36
2008-03-28,31.8517
2008-03-31,32.36
2008-04-01,32.7411
2008-04-02,32.4553
2008-04-03,33.0111
2008-04-04,32.7094
2008-04-07,32.5585
2008-04-08,32.5426
2008-04-09,31.8994
2008-04-10,32.352
2008-04-11,31.7564
2008-04-14,31.5738
2008-04-15,32.2647
2008-04-16,33.6464
2008-04-17,33.6861
2008-04-18,33.3526
2008-04-21,33.2017
2008-04-22,32.892
2008-04-23,32.6856
2008-04-24,33.2653
2008-04-25,33.7973
2008-04-28,33.8608
2008-04-29,32.5585
2008-04-30,32.5267
2008-05-01,33.5114
2008-05-02,32.9794
2008-05-05,33.035
2008-05-06,33.17
2008-05-07,32.3997
2008-05-08,32.8761
2008-05-09,33.0747
2008-05-12,34.0911
2008-05-13,34.3611
2008-05-14,34.4973
2008-05-15,35.0185
2008-05-16,34.9945
2008-05-19,35.0185
2008-05-20,34.3129
2008-05-21,33.8317
2008-05-22,34.1685
2008-05-23,34.0963
2008-05-27,34.4893
2008-05-28,35.1067
2008-05-29,36.085
2008-05-30,37.3841
2008-06-02,36.9511
2008-06-03,36.8388
2008-06-04,37.1034
2008-06-05,38.4506
2008-06-06,37.0232
2008-06-09,36.6865
2008-06-10,37.1676
2008-06-11,36.3256
2008-06-12,36.486
2008-06-13,37.344
2008-06-16,37.5765
2008-06-17,36.3015
2008-06-18,36.0289
2008-06-19,36.51
2008-06-20,35.3874
2008-06-23,34.9143
2008-06-24,34.9143
2008-06-25,35.243
2008-06-26,34.0242
2008-06-27,34.1044
2008-06-30,34.2968
2008-07-01,34.9864
2008-07-02,33.9761
2008-07-03,34.1204
2008-07-07,33.2223
2008-07-08,36.2534
2008-07-09,33.086
2008-07-10,33.7515
2008-07-11,33.8237
2008-07-14,33.1421
2008-07-15,33.6794
2008-07-16,36.4058
2008-07-17,36.3737
2008-07-18,36.9992
2008-07-21,36.2855
2008-07-22,37.4402
2008-07-23,37.8251
2008-07-24,35.8364
2008-07-25,36.7586
2008-07-28,35.8765
2008-07-29,39.1082
2008-07-30,38.8195
2008-07-31,39.0921
2008-08-01,39.0199
2008-08-04,38.8034
2008-08-05,40.3912
2008-08-06,39.8058
2008-08-07,38.6671
2008-08-08,39.8459
2008-08-11,39.7497
2008-08-12,39.1964
2008-08-13,38.5984
2008-08-14,38.9867
2008-08-15,38.6308
2008-08-18,37.7815
2008-08-19,36.7785
2008-08-20,37.0212
2008-08-21,37.3447
2008-08-22,38.1455
2008-08-25,36.9969
2008-08-26,37.3852
2008-08-27,37.8705
2008-08-28,41.389
2008-08-29,40.2808
2008-09-02,40.1595
2008-09-03,40.2647
2008-09-04,38.744
2008-09-05,39.1404
2008-09-08,40.5882
2008-09-09,38.3558
2008-09-10,39.0999
2008-09-11,39.9816
2008-09-12,40.1595
2008-09-15,39.0271
2008-09-16,40.9684
2008-09-17,38.283
2008-09-18,44.2119
2008-09-19,42.214
2008-09-22,39.7066
2008-09-23,40.2728
2008-09-24,40.0867
2008-09-25,39.6904
2008-09-26,40.9603
2008-09-29,38.3639
2008-09-30,40.4669
2008-10-01,39.2455
2008-10-02,37.3043
2008-10-03,36.4792
2008-10-06,36.9807
2008-10-07,35.0961
2008-10-08,34.7968
2008-10-09,32.9203
2008-10-10,35.7513
2008-10-13,37.5874
2008-10-14,34.9181
2008-10-15,30.0569
2008-10-16,31.8202
2008-10-17,30.6231
2008-10-20,31.2621
2008-10-21,30.5503
2008-10-22,27.6223
2008-10-23,26.7164
2008-10-24,25.5759
2008-10-27,24.6215
2008-10-28,30.6798
2008-10-29,28.7143
2008-10-30,28.6657
2008-10-31,30.2268
2008-11-03,28.9893
2008-11-04,30.5665
2008-11-05,27.8569
2008-11-06,26.5789
2008-11-07,28.4878
2008-11-10,26.7164
2008-11-11,26.9429
2008-11-12,25.9075
2008-11-13,29.4871
2008-11-14,27.4956
2008-11-17,27.0121
2008-11-18,27.6677
2008-11-19,25.7664
2008-11-20,22.857
2008-11-21,26.881
2008-11-24,30.0936
2008-11-25,29.0364
2008-11-26,30.0444
2008-11-28,28.9954
2008-12-01,25.5287
2008-12-02,28.2332
2008-12-03,29.0036
2008-12-04,27.594
2008-12-05,28.0201
2008-12-08,29.8231
2008-12-09,28.643
2008-12-10,30.5607
2008-12-11,26.1925
2008-12-12,27.6759
2008-12-15,26.8974
2008-12-16,29.5609
2008-12-17,29.3314
2008-12-18,27.6923
2008-12-19,28.8233
2008-12-22,27.848
2008-12-23,27.471
2008-12-24,27.5284
2008-12-26,27.8152
2008-12-29,26.8072
2008-12-30,27.8234
2008-12-31,28.602
2009-01-02,27.4219
2009-01-05,27.0613
2009-01-06,27.971
2009-01-07,26.7171
2009-01-08,27.1268
2009-01-09,25.9959
2009-01-12,24.9468
2009-01-13,25.2419
2009-01-14,24.4141
2009-01-15,26.0286
2009-01-16,26.7826
2009-01-20,24.1929
2009-01-21,26.504
2009-01-22,25.2665
2009-01-23,26.0614
2009-01-26,25.1763
2009-01-27,26.0368
2009-01-28,27.4792
2009-01-29,25.6189
2009-01-30,25.2992
2009-02-02,25.373
2009-02-03,25.9959
2009-02-04,25.2091
2009-02-05,25.4304
2009-02-06,27.2825
2009-02-09,27.6923
2009-02-10,25.6598
2009-02-11,26.6597
2009-02-12,26.4302
2009-02-13,25.1681
2009-02-17,24.3404
2009-02-18,24.9217
2009-02-19,24.0156
2009-02-20,25.1545
2009-02-23,23.3173
2009-02-24,24.9383
2009-02-25,24.1902
2009-02-26,22.7853
2009-02-27,21.8044
2009-03-02,20.3081
2009-03-03,20.8734
2009-03-04,21.1809
2009-03-05,19.8426
2009-03-06,19.9423
2009-03-09,19.826
2009-03-10,21.7712
2009-03-11,20.9482
2009-03-12,22.3115
2009-03-13,22.3364
2009-03-16,20.4162
2009-03-17,21.9374
2009-03-18,22.7687
2009-03-19,22.7687
2009-03-20,22.0954
2009-03-23,25.1461
2009-03-24,23.5002
2009-03-25,23.2675
2009-03-26,23.9242
2009-03-27,23.2176
2009-03-30,22.4362
2009-03-31,24.24
2009-04-01,23.8244
2009-04-02,24.7471
2009-04-03,25.6366
2009-04-06,25.4121
2009-04-07,23.5168
2009-04-08,23.9907
2009-04-09,26.6923
2009-04-13,27.2742
2009-04-14,25.7031
2009-04-15,26.9417
2009-04-16,27.6649
2009-04-17,27.773
2009-04-20,25.6283
2009-04-21,27.6732
2009-04-22,27.4654
2009-04-23,28.9035
2009-04-24,30.0839
2009-04-27,29.0199
2009-04-28,28.3549
2009-04-29,28.1304
2009-04-30,28.571
2009-05-01,28.305
2009-05-04,30.192
2009-05-05,29.2443
2009-05-06,29.1778
2009-05-07,27.6649
2009-05-08,29.1861
2009-05-11,28.4713
2009-05-12,28.6708
2009-05-13,27.3312
2009-05-14,27.6762
2009-05-15,26.9778
2009-05-18,28.8542
2009-05-19,28.3325
2009-05-20,27.4742
2009-05-21,27.4574
2009-05-22,27.1124
2009-05-26,28.383
2009-05-27,27.6173
2009-05-28,28.5177
2009-05-29,29.0478
2009-06-01,30.411
2009-06-02,29.4096
2009-06-03,29.2413
2009-06-04,29.7546
2009-06-05,29.4349
2009-06-08,29.275
2009-06-09,29.3591
2009-06-10,28.8542
2009-06-11,28.3914
2009-06-12,28.585
2009-06-15,26.8431
2009-06-16,25.9259
2009-06-17,24.5711
2009-06-18,24.8404
2009-06-19,24.8993
2009-06-22,23.5614
2009-06-23,23.9148
2009-06-24,24.5795
2009-06-25,24.9161
2009-06-26,24.9498
2009-06-29,25.1854
2009-06-30,25.0508
2009-07-01,25.5304
2009-07-02,24.5122
2009-07-06,25.1602
2009-07-07,24.0326
2009-07-08,23.8054
2009-07-09,23.6371
2009-07-10,23.8643
2009-07-13,24.5711
2009-07-14,24.4954
2009-07-15,25.177
2009-07-16,25.4294
2009-07-17,24.8825
2009-07-20,25.8838
2009-07-21,25.9175
2009-07-22,25.6314
2009-07-23,27.104
2009-07-24,27.2218
2009-07-27,27.8613
2009-07-28,25.6061
2009-07-29,25.7829
2009-07-30,26.5738
2009-07-31,26.3635
2009-08-03,27.1881
2009-08-04,28.1137
2009-08-05,29.0646
2009-08-06,28.6944
2009-08-07,29.5274
2009-08-10,28.1895
2009-08-11,27.8445
2009-08-12,27.7081
2009-08-13,27.7337
2009-08-14,27.3161
2009-08-17,25.799
2009-08-18,25.9439
2009-08-19,25.8586
2009-08-20,26.1825
2009-08-21,26.7621
2009-08-24,26.0717
2009-08-25,26.3444
2009-08-26,26.4638
2009-08-27,26.4723
2009-08-28,26.2592
2009-08-31,25.8245
2009-09-01,24.4609
2009-09-02,23.9154
2009-09-03,24.4779
2009-09-04,24.7336
2009-09-08,25.1427
2009-09-09,25.3899
2009-09-10,25.5262
2009-09-11,25.6626
2009-09-14,26.4126
2009-09-15,27.103
2009-09-16,28.2024
2009-09-17,27.3246
2009-09-18,27.1115
2009-09-21,26.7195
2009-09-22,27.7081
2009-09-23,26.9581
2009-09-24,26.3189
2009-09-25,26.0973
2009-09-28,26.8047
2009-09-29,26.4723
2009-09-30,26.1058
2009-10-01,25.2706
2009-10-02,25.1171
2009-10-05,25.5944
2009-10-06,25.4581
2009-10-07,25.6029
2009-10-08,26.5916
2009-10-09,27.1626
2009-10-12,27.5632
2009-10-13,27.674
2009-10-14,28.2962
2009-10-15,28.0235
2009-10-16,27.7848
2009-10-19,28.4326
2009-10-20,28.3218
2009-10-21,27.9894
2009-10-22,28.5434
2009-10-23,28.1428
2009-10-26,27.836
2009-10-27,27.461
2009-10-28,26.5149
2009-10-29,27.2394
2009-10-30,26.7109
2009-11-02,27.3331
2009-11-03,27.6825
2009-11-04,27.4865
2009-11-05,28.211
2009-11-06,27.9297
2009-11-09,28.9099
2009-11-10,28.8928
2009-11-11,29.1229
2009-11-12,28.9159
2009-11-13,29.2956
2009-11-16,29.9083
2009-11-17,29.6667
2009-11-18,30.1671
2009-11-19,29.4596
2009-11-20,29.5286
2009-11-23,29.8565
2009-11-24,29.5286
2009-11-25,29.6839
2009-11-27,28.9159
2009-11-30,29.8134
2009-12-01,29.9428
2009-12-02,30.1758
2009-12-03,29.8479
2009-12-04,30.5123
2009-12-07,30.7021
2009-12-08,30.2966
2009-12-09,30.7194
2009-12-10,30.7021
2009-12-11,31.5478
2009-12-14,31.8584
2009-12-15,31.7808
2009-12-16,32.0224
2009-12-17,31.5564
2009-12-18,31.4442
2009-12-21,31.496
2009-12-22,31.7463
2009-12-23,32.0138
2009-12-24,32.3762
2009-12-28,32.9112
2009-12-29,33.0061
2009-12-30,33.1355
2009-12-31,32.5833
2010-01-04,32.868
2010-01-05,33.2909
2010-01-06,33.3599
2010-01-07,33.869
2010-01-08,33.6533
2010-01-11,33.4721
2010-01-12,33.0234
2010-01-13,33.3426
2010-01-14,33.1355
2010-01-15,32.6955
2010-01-19,33.3254
2010-01-20,32.8422
2010-01-21,31.7721
2010-01-22,31.4701
2010-01-25,31.798
2010-01-26,31.6168
2010-01-27,31.7635
2010-01-28,31.5909
2010-01-29,31.2458
2010-02-01,31.66
2010-02-02,33.0406
2010-02-03,32.8163
2010-02-04,31.2458
2010-02-05,31.3925
2010-02-08,30.3742
2010-02-09,30.7021
2010-02-10,30.5555
2010-02-11,30.8057
2010-02-12,30.9006
2010-02-16,31.3666
2010-02-17,32.0211
2010-02-18,32.0822
2010-02-19,31.96
2010-02-22,31.6894
2010-02-23,31.2267
2010-02-24,31.6545
2010-02-25,31.4275
2010-02-26,31.218
2010-03-01,31.4188
2010-03-02,31.4711
2010-03-03,31.3838
2010-03-04,31.4188
2010-03-05,32.0822
2010-03-08,32.379
2010-03-09,32.1608
2010-03-10,32.056
2010-03-11,32.0473
2010-03-12,32.414
2010-03-15,32.2743
2010-03-16,32.8679
2010-03-17,33.6449
2010-03-18,33.6274
2010-03-19,33.4703
2010-03-22,34.0639
2010-03-23,34.1512
2010-03-24,34.0726
2010-03-25,33.5139
2010-03-26,33.4004
2010-03-29,33.4441
2010-03-30,34.0639
2010-03-31,33.9417
2010-04-01,34.3782
2010-04-05,34.4218
2010-04-06,34.9107
2010-04-07,34.448
2010-04-08,34.4917
2010-04-09,35.0329
2010-04-12,34.9805
2010-04-13,35.3647
2010-04-14,35.1377
2010-04-15,34.7885
2010-04-16,34.6837
2010-04-19,35.1377
2010-04-20,35.7226
2010-04-21,36.5257
2010-04-22,37.2328
2010-04-23,37.8701
2010-04-26,38.0273
2010-04-27,34.9194
2010-04-28,35.1726
2010-04-29,35.9757
2010-04-30,34.771
2010-05-03,35.3821
2010-05-04,34.2036
2010-05-05,33.8369
2010-05-06,32.7282
2010-05-07,32.5711
2010-05-10,34.1599
2010-05-11,33.8631
2010-05-12,34.1548
2010-05-13,33.4928
2010-05-14,32.4514
2010-05-17,32.575
2010-05-18,31.666
2010-05-19,30.9511
2010-05-20,30.2804
2010-05-21,31.0658
2010-05-24,30.148
2010-05-25,30.3951
2010-05-26,30.1127
2010-05-27,31.2776
2010-05-28,30.9511
2010-06-01,30.1833
2010-06-02,31.4718
2010-06-03,31.3129
2010-06-04,29.9097
2010-06-07,29.9097
2010-06-08,30.7128
2010-06-09,30.6952
2010-06-10,31.8072
2010-06-11,31.9572
2010-06-14,32.1161
2010-06-15,32.6897
2010-06-16,32.8486
2010-06-17,33.131
2010-06-18,32.8839
2010-06-21,32.6809
2010-06-22,32.2837
2010-06-23,32.3102
2010-06-24,31.4188
2010-06-25,32.0984
2010-06-28,31.8072
2010-06-29,30.8452
2010-06-30,30.4657
2010-07-01,30.4039
2010-07-02,29.9979
2010-07-06,29.5567
2010-07-07,30.7922
2010-07-08,31.004
2010-07-09,31.4806
2010-07-12,31.7013
2010-07-13,32.5485
2010-07-14,32.3632
2010-07-15,32.5838
2010-07-16,31.8513
2010-07-19,32.1337
2010-07-20,32.4691
2010-07-21,31.6395
2010-07-22,32.6985
2010-07-23,33.4311
2010-07-26,34.093
2010-07-27,32.6632
2010-07-28,32.6721
2010-07-29,32.1161
2010-07-30,31.6924
2010-08-02,32.6103
2010-08-03,32.3367
2010-08-04,32.5926
2010-08-05,32.1072
2010-08-06,32.1337
2010-08-09,32.2573
2010-08-10,31.9925
2010-08-11,31.4453
2010-08-12,31.2307
2010-08-13,30.9717
2010-08-16,30.8109
2010-08-17,31.3557
2010-08-18,31.4629
2010-08-19,30.7127
2010-08-20,30.5787
2010-08-23,30.1411
2010-08-24,30.0607
2010-08-25,30.3644
2010-08-26,29.9714
2010-08-27,30.4805
2010-08-30,30.4716
2010-08-31,30.7752
2010-09-01,31.5611
2010-09-02,31.7219
2010-09-03,31.704
2010-09-07,31.5611
2010-09-08,31.5879
2010-09-09,31.5075
2010-09-10,31.8022
2010-09-13,32.2845
2010-09-14,32.0255
2010-09-15,31.8647
2010-09-16,31.8112
2010-09-17,31.7576
2010-09-20,31.8826
2010-09-21,31.5075
2010-09-22,31.0699
2010-09-23,30.543
2010-09-24,31.3021
2010-09-27,31.3021
2010-09-28,31.7844
2010-09-29,31.4093
2010-09-30,31.5165
2010-10-01,31.704
2010-10-04,31.6325
2010-10-05,32.2845
2010-10-06,32.213
2010-10-07,32.1327
2010-10-08,32.2309
2010-10-11,32.1059
2010-10-12,32.3381
2010-10-13,33.2579
2010-10-14,33.1776
2010-10-15,32.9186
2010-10-18,33.249
2010-10-19,32.7846
2010-10-20,33.249
2010-10-21,33.2311
2010-10-22,33.0972
2010-10-25,33.0347
2010-10-26,32.5167
2010-10-27,32.3917
2010-10-28,32.606
2010-10-29,32.9186
2010-11-01,32.9007
2010-11-02,33.1061
2010-11-03,33.0704
2010-11-04,34.544
2010-11-05,34.7315
2010-11-08,34.8744
2010-11-09,34.3921
2010-11-10,34.4636
2010-11-11,34.3564
2010-11-12,33.77
2010-11-15,33.6978
2010-11-16,32.6052
2010-11-17,32.3795
2010-11-18,32.3795
2010-11-19,32.551
2010-11-22,32.7497
2010-11-23,32.3072
2010-11-24,32.7858
2010-11-26,32.4878
2010-11-29,32.7136
2010-11-30,32.551
2010-12-01,33.4088
2010-12-02,33.7339
2010-12-03,33.9506
2010-12-06,33.8061
2010-12-07,33.7429
2010-12-08,33.2102
2010-12-09,32.8941
2010-12-10,33.2012
2010-12-13,33.3456
2010-12-14,33.1379
2010-12-15,32.4878
2010-12-16,32.1357
2010-12-17,32.1267
2010-12-20,32.8039
2010-12-21,33.3366
2010-12-22,33.4269
2010-12-23,33.4449
2010-12-27,33.8422
2010-12-28,33.8152
2010-12-29,33.7971
2010-12-30,33.77
2010-12-31,33.8152
2011-01-03,34.5194
2011-01-04,34.1583
2011-01-05,34.6729
2011-01-06,35.3682
2011-01-07,35.612
2011-01-10,35.7474
2011-01-11,35.9009
2011-01-12,35.9009
2011-01-13,35.8919
2011-01-14,36.1357
2011-01-18,36.3705
2011-01-19,35.8016
2011-01-20,36.0274
2011-01-21,36.6684
2011-01-24,37.3457
2011-01-25,37.7068
2011-01-26,38.0138
2011-01-27,38.1944
2011-01-28,37.6707
2011-01-31,37.7791
2011-02-01,37.4179
2011-02-02,37.147
2011-02-03,37.1741
2011-02-04,36.9484
2011-02-07,37.5624
2011-02-08,37.9326
2011-02-09,37.8332
2011-02-10,37.9777
2011-02-11,38.4202
2011-02-14,38.3569
2011-02-15,38.3931
2011-02-16,38.6209
2011-02-17,38.6027
2011-02-18,38.776
2011-02-22,38.0464
2011-02-23,37.4992
2011-02-24,37.326
2011-02-25,37.782
2011-02-28,38.2835
2011-03-01,37.2986
2011-03-02,37.5357
2011-03-03,37.8002
2011-03-04,37.2804
2011-03-07,36.9521
2011-03-08,37.6269
2011-03-09,37.6269
2011-03-10,36.9338
2011-03-11,37.864
2011-03-14,38.5753
2011-03-15,38.3747
2011-03-16,37.937
2011-03-17,38.3565
2011-03-18,38.9857
2011-03-21,39.1772
2011-03-22,38.4294
2011-03-23,38.703
2011-03-24,38.9766
2011-03-25,38.6939
2011-03-28,38.8489
2011-03-29,39.3687
2011-03-30,39.3505
2011-03-31,39.7791
2011-04-01,39.8065
2011-04-04,40.0892
2011-04-05,40.0983
2011-04-06,39.8794
2011-04-07,39.3961
2011-04-08,38.9766
2011-04-11,38.9128
2011-04-12,38.5845
2011-04-13,38.3382
2011-04-14,38.7669
2011-04-15,38.6483
2011-04-18,38.3747
2011-04-19,38.7213
2011-04-20,38.8945
2011-04-21,39.159
2011-04-25,39.1134
2011-04-26,40.0801
2011-04-27,39.6241
2011-04-28,39.8065
2011-04-29,39.3049
2011-05-02,39.1043
2011-05-03,39.1225
2011-05-04,38.8489
2011-05-05,38.3747
2011-05-06,38.0008
2011-05-09,38.3838
2011-05-10,38.5389
2011-05-11,37.9735
2011-05-12,38.139
2011-05-13,37.5678
2011-05-16,37.5586
2011-05-17,37.227
2011-05-18,37.6415
2011-05-19,37.5863
2011-05-20,37.1072
2011-05-23,36.5637
2011-05-24,36.7664
2011-05-25,36.7203
2011-05-26,36.8401
2011-05-27,36.7572
2011-05-31,37.3099
2011-06-01,36.6742
2011-06-02,36.6005
2011-06-03,36.6098
2011-06-06,35.9465
2011-06-07,36.6466
2011-06-08,36.5176
2011-06-09,36.3426
2011-06-10,35.5688
2011-06-13,35.3016
2011-06-14,35.928
2011-06-15,35.4951
2011-06-16,35.6793
2011-06-17,36.1031
2011-06-20,36.2228
2011-06-21,36.6374
2011-06-22,36.3887
2011-06-23,36.2597
2011-06-24,36.1123
2011-06-27,36.361
2011-06-28,36.5637
2011-06-29,36.9967
2011-06-30,37.3375
2011-07-01,38.0285
2011-07-05,37.8258
2011-07-06,37.8534
2011-07-07,38.1206
2011-07-08,37.9179
2011-07-11,37.4665
2011-07-12,37.4665
2011-07-13,37.4481
2011-07-14,36.9967
2011-07-15,37.3007
2011-07-18,37.0612
2011-07-19,37.6323
2011-07-20,37.6507
2011-07-21,37.9087
2011-07-22,37.4481
2011-07-25,37.227
2011-07-26,35.9465
2011-07-27,35.4859
2011-07-28,35.4029
2011-07-29,35.3016
2011-08-01,35.0621
2011-08-02,34.5923
2011-08-03,34.5462
2011-08-04,33.3302
2011-08-05,33.6158
2011-08-08,32.1602
2011-08-09,33.5513
2011-08-10,32.4182
2011-08-11,34.1132
2011-08-12,33.4615
2011-08-15,34.1976
2011-08-16,33.6944
2011-08-17,33.7969
2011-08-18,32.5669
2011-08-19,32.1942
2011-08-22,32.3992
2011-08-23,33.2751
2011-08-24,33.6571
2011-08-25,33.126
2011-08-26,33.8435
2011-08-29,34.8592
2011-08-30,34.999
2011-08-31,35.2785
2011-09-01,34.4119
2011-09-02,33.3496
2011-09-06,33.1726
2011-09-07,34.2349
2011-09-08,33.9553
2011-09-09,33.0608
2011-09-12,32.9303
2011-09-13,33.1633
2011-09-14,34.0019
2011-09-15,34.384
2011-09-16,34.7846
2011-09-19,34.1417
2011-09-20,34.2349
2011-09-21,33.0701
2011-09-22,32.4644
2011-09-23,32.4271
2011-09-26,32.8651
2011-09-27,33.0142
2011-09-28,32.3526
2011-09-29,33.1446
2011-09-30,32.3899
2011-10-03,31.4674
2011-10-04,32.8651
2011-10-05,32.7999
2011-10-06,33.2285
2011-10-07,32.3992
2011-10-10,33.8715
2011-10-11,33.2844
2011-10-12,33.3496
2011-10-13,32.6881
2011-10-14,33.3031
2011-10-17,32.5762
2011-10-18,33.1446
2011-10-19,32.6321
2011-10-20,32.8278
2011-10-21,33.5733
2011-10-24,34.1231
2011-10-25,34.3467
2011-10-26,34.6169
2011-10-27,35.6699
2011-10-28,35.8655
2011-10-31,35.148
2011-11-01,34.0765
2011-11-02,34.4026
2011-11-03,34.9244
2011-11-04,34.7101
2011-11-07,34.6355
2011-11-08,35.0828
2011-11-09,34.0951
2011-11-10,34.0573
2011-11-11,34.6888
2011-11-14,34.0384
2011-11-15,34.1421
2011-11-16,34.1987
2011-11-17,33.7933
2011-11-18,34.0761
2011-11-21,33.2937
2011-11-22,32.945
2011-11-23,32.3511
2011-11-25,32.6527
2011-11-28,33.1146
2011-11-29,33.1618
2011-11-30,34.736
2011-12-01,34.4343
2011-12-02,34.3306
2011-12-05,34.1798
2011-12-06,34.0384
2011-12-07,34.3589
2011-12-08,33.2089
2011-12-09,33.9536
2011-12-12,33.2183
2011-12-13,32.7093
2011-12-14,32.8601
2011-12-15,33.3314
2011-12-16,33.2466
2011-12-19,32.7941
2011-12-20,33.7368
2011-12-21,33.9913
2011-12-22,34.3589
2011-12-23,34.7642
2011-12-27,34.7925
2011-12-28,34.5192
2011-12-29,34.9622
2011-12-30,34.4814
2012-01-03,34.736
2012-01-04,34.538
2012-01-05,35.2544
2012-01-06,35.311
2012-01-09,35.3864
2012-01-10,35.7257
2012-01-11,36.2724
2012-01-12,36.5647
2012-01-13,36.5741
2012-01-17,36.6306
2012-01-18,37.0266
2012-01-19,37.5733
2012-01-20,37.5261
2012-01-23,37.3753
2012-01-24,37.4602
2012-01-25,37.743
2012-01-26,38.0446
2012-01-27,38.186
2012-01-30,37.7052
2012-01-31,36.5741
2012-02-01,36.6778
2012-02-02,36.7909
2012-02-03,37.4225
2012-02-06,37.5921
2012-02-07,37.2434
2012-02-08,37.2622
2012-02-09,37.0925
2012-02-10,36.9229
2012-02-13,37.347
2012-02-14,37.1397
2012-02-15,36.653
2012-02-16,36.9389
2012-02-17,36.977
2012-02-21,36.7293
2012-02-22,36.5673
2012-02-23,37.0627
2012-02-24,37.2152
2012-02-27,37.4153
2012-02-28,37.2914
2012-02-29,37.3295
2012-03-01,37.5677
2012-03-02,37.7583
2012-03-05,37.8821
2012-03-06,37.5772
2012-03-07,37.6344
2012-03-08,37.9107
2012-03-09,38.3013
2012-03-12,38.5967
2012-03-13,39.3113
2012-03-14,39.4066
2012-03-15,39.4923
2012-03-16,39.4828
2012-03-19,39.5876
2012-03-20,39.5304
2012-03-21,39.4447
2012-03-22,39.3875
2012-03-23,39.2827
2012-03-26,39.5399
2012-03-27,39.5018
2012-03-28,39.6924
2012-03-29,39.578
2012-03-30,39.6162
2012-04-02,39.9592
2012-04-03,39.6829
2012-04-04,39.559
2012-04-05,39.5876
2012-04-09,39.1112
2012-04-10,38.5491
2012-04-11,38.8635
2012-04-12,39.4447
2012-04-13,38.9587
2012-04-16,39.1684
2012-04-17,39.4828
2012-04-18,39.216
2012-04-19,39.1017
2012-04-20,39.4351
2012-04-23,38.8635
2012-04-24,39.5209
2012-04-25,39.74
2012-04-26,39.8734
2012-04-27,39.9496
2012-04-30,39.9973
2012-05-01,38.0822
2012-05-02,37.3867
2012-05-03,37.2819
2012-05-04,36.9484
2012-05-07,37.2914
2012-05-08,37.1866
2012-05-09,37.0151
2012-05-10,36.796
2012-05-11,36.8055
2012-05-14,36.5482
2012-05-15,36.4434
2012-05-16,36.2797
2012-05-17,35.3356
2012-05-18,35.0562
2012-05-21,35.6149
2012-05-22,35.586
2012-05-23,35.875
2012-05-24,35.6438
2012-05-25,35.3452
2012-05-29,35.7016
2012-05-30,34.9888
2012-05-31,35.1911
2012-06-01,34.7287
2012-06-04,34.5167
2012-06-05,35.008
2012-06-06,35.6149
2012-06-07,35.6535
2012-06-08,35.9521
2012-06-11,35.4801
2012-06-12,35.8943
2012-06-13,35.8172
2012-06-14,35.9425
2012-06-15,36.2411
2012-06-18,36.4916
2012-06-19,37.1178
2012-06-20,37.1659
2012-06-21,36.6072
2012-06-22,36.8384
2012-06-25,36.4242
2012-06-26,36.559
2012-06-27,37.1659
2012-06-28,37.4068
2012-06-29,38.1871
2012-07-02,38.4568
2012-07-03,38.8614
2012-07-05,38.3123
2012-07-06,38.5243
2012-07-09,38.5532
2012-07-10,38.0811
2012-07-11,38.4761
2012-07-12,38.5339
2012-07-13,39.0637
2012-07-16,39.2564
2012-07-17,39.6706
2012-07-18,39.3142
2012-07-19,39.0059
2012-07-20,38.4954
2012-07-23,38.5146
2012-07-24,37.9751
2012-07-25,38.0426
2012-07-26,38.4761
2012-07-27,39.0059
2012-07-30,39.1312
2012-07-31,39.1215
2012-08-01,38.8903
2012-08-02,38.7458
2012-08-03,39.1408
2012-08-06,38.8518
2012-08-07,38.9192
2012-08-08,38.8325
2012-08-09,38.6495
2012-08-10,38.7747
2012-08-13,38.9
2012-08-14,39.1408
2012-08-15,39.1212
2012-08-16,39.2381
2012-08-17,39.4911
2012-08-20,39.5106
2012-08-21,39.5982
2012-08-22,39.5301
2012-08-23,39.2673
2012-08-24,39.4425
2012-08-27,39.6858
2012-08-28,39.6079
2012-08-29,39.7637
2012-08-30,39.5885
2012-08-31,39.8902
2012-09-04,39.9876
2012-09-05,39.861
2012-09-06,40.1239
2012-09-07,40.1044
2012-09-10,40.0362
2012-09-11,39.9097
2012-09-12,40.6495
2012-09-13,41.4769
2012-09-14,42.4795
2012-09-17,42.5476
2012-09-18,42.5574
2012-09-19,42.8105
2012-09-20,43.083
2012-09-21,43.5989
2012-09-24,43.4529
2012-09-25,43.1511
2012-09-26,42.9078
2012-09-27,42.9467
2012-09-28,42.6644
2012-10-01,41.9052
2012-10-02,41.7689
2012-10-03,41.3795
2012-10-04,41.2725
2012-10-05,41.4088
2012-10-08,41.5061
2012-10-09,41.2725
2012-10-10,41.1654
2012-10-11,41.3309
2012-10-12,41.8273
2012-10-15,42.3822
2012-10-16,42.6839
2012-10-17,42.9273
2012-10-18,43.2972
2012-10-19,42.9175
2012-10-22,43.0246
2012-10-23,42.8007
2012-10-24,42.9759
2012-10-25,42.791
2012-10-26,42.6352
2012-10-31,42.7034
2012-11-01,41.6326
2012-11-02,41.9831
2012-11-05,41.9344
2012-11-06,42.4308
2012-11-07,42.2167
2012-11-08,41.7689
2012-11-09,41.4672
2012-11-12,41.5256
2012-11-13,41.545
2012-11-14,40.4736
2012-11-15,40.0902
2012-11-16,40.6309
2012-11-19,40.9356
2012-11-20,41.201
2012-11-21,41.0929
2012-11-23,41.3288
2012-11-26,41.3092
2012-11-27,41.0241
2012-11-28,41.4763
2012-11-29,41.6729
2012-11-30,42.1153
2012-12-03,41.7811
2012-12-04,41.6533
2012-12-05,41.5451
2012-12-06,41.8401
2012-12-07,42.4496
2012-12-10,42.0563
2012-12-11,42.0465
2012-12-12,42.2038
2012-12-13,42.1055
2012-12-14,41.7909
2012-12-17,42.7052
2012-12-18,43.5408
2012-12-19,43.5015
2012-12-20,44.0422
2012-12-21,43.4425
2012-12-24,43.7866
2012-12-26,43.5408
2012-12-27,43.6588
2012-12-28,43.1869
2012-12-31,43.5703
2013-01-02,44.6025
2013-01-03,44.6909
2013-01-04,45.2022
2013-01-07,45.2022
2013-01-08,45.1333
2013-01-09,45.4479
2013-01-10,45.8018
2013-01-11,45.6052
2013-01-14,45.8411
2013-01-15,46.2442
2013-01-16,45.9591
2013-01-17,46.2442
2013-01-18,46.4703
2013-01-22,46.7259
2013-01-23,46.7947
2013-01-24,47.1781
2013-01-25,46.5194
2013-01-28,46.5343
2013-01-29,48.2498
2013-01-30,47.5124
2013-01-31,47.3846
2013-02-01,47.3748
2013-02-04,47.306
2013-02-05,47.4731
2013-02-06,47.714
2013-02-07,47.3748
2013-02-08,47.6108
2013-02-11,47.483
2013-02-12,47.5223
2013-02-13,47.4626
2013-02-14,47.3932
2013-02-15,47.4824
2013-02-19,47.8294
2013-02-20,47.2939
2013-02-21,47.2245
2013-02-22,47.76
2013-02-25,46.9271
2013-02-26,47.4626
2013-02-27,48.256
2013-02-28,48.1171
2013-03-01,48.2758
2013-03-04,48.6724
2013-03-05,48.9996
2013-03-06,48.3848
2013-03-07,48.5831
2013-03-08,48.8013
2013-03-11,49.5054
2013-03-12,49.2773
2013-03-13,49.2476
2013-03-14,49.436
2013-03-15,49.3666
2013-03-18,49.1682
2013-03-19,49.2575
2013-03-20,49.6938
2013-03-21,49.7732
2013-03-22,50.0211
2013-03-25,49.9616
2013-03-26,50.6359
2013-03-27,51.1318
2013-03-28,51.7863
2013-04-01,51.3004
2013-04-02,51.5186
2013-04-03,50.6161
2013-04-04,51.1814
2013-04-05,50.7847
2013-04-08,51.4194
2013-04-09,51.0425
2013-04-10,51.3202
2013-04-11,51.4591
2013-04-12,51.5582
2013-04-15,49.9418
2013-04-16,51.0227
2013-04-17,50.2889
2013-04-18,50.8343
2013-04-19,51.8855
2013-04-22,52.0442
2013-04-23,52.5202
2013-04-24,53.0061
2013-04-25,52.9466
2013-04-26,52.7086
2013-04-29,52.8474
2013-04-30,51.1318
2013-05-01,50.4277
2013-05-02,50.4773
2013-05-03,50.6954
2013-05-06,50.8442
2013-05-07,51.0029
2013-05-08,51.6772
2013-05-09,51.5781
2013-05-10,51.7466
2013-05-13,52.0243
2013-05-14,52.5301
2013-05-15,53.24
2013-05-16,53.18
2013-05-17,53.99
2013-05-20,54.35
2013-05-21,54.33
2013-05-22,53.23
2013-05-23,52.31
2013-05-24,51.8
2013-05-28,50.77
2013-05-29,49.04
2013-05-30,47.8
2013-05-31,47.77
2013-06-03,48.3
2013-06-04,47.51
2013-06-05,46.97
2013-06-06,47.53
2013-06-07,48.31
2013-06-10,47.68
2013-06-11,47.53
2013-06-12,46.73
2013-06-13,47.82
2013-06-14,47.31
2013-06-17,47.51
2013-06-18,47.46
2013-06-19,45.28
2013-06-20,44.64
2013-06-21,45.3
2013-06-24,45.03
2013-06-25,45.83
2013-06-26,46.13
2013-06-27,46.61
2013-06-28,46.79
2013-07-01,46.12
2013-07-02,46.61
2013-07-03,46.39
2013-07-05,46.43
2013-07-08,46.92
2013-07-09,47.46
2013-07-10,47.4
2013-07-11,48.57
2013-07-12,48.44
2013-07-15,48.64
2013-07-16,48.88
2013-07-17,48.98
2013-07-18,49.73
2013-07-19,49.7
2013-07-22,49.68
2013-07-23,49.52
2013-07-24,48.77
2013-07-25,48.99
2013-07-26,49.08
2013-07-29,48.69
2013-07-30,49.21
2013-07-31,48.77
2013-08-01,48.65
2013-08-02,48.38
2013-08-05,48.06
2013-08-06,47.65
2013-08-07,47.33
2013-08-08,47.13
2013-08-09,47.7
