date,close_price
1998-01-02,14.5513
1998-01-05,14.7767
1998-01-06,14.6257
1998-01-07,14.6568
1998-01-08,14.5369
1998-01-09,14.2372
1998-01-12,13.6378
1998-01-13,13.8176
1998-01-14,13.9064
1998-01-15,13.7265
1998-01-16,13.3981
1998-01-20,13.1727
1998-01-21,12.5877
1998-01-22,12.4822
1998-01-23,12.0937
1998-01-26,11.5998
1998-01-27,11.9882
1998-01-28,12.602
1998-01-29,12.6788
1998-01-30,12.5277
1998-02-02,12.6931
1998-02-03,12.5733
1998-02-04,12.3479
1998-02-05,12.3934
1998-02-06,12.5421
1998-02-09,12.5133
1998-02-10,12.6476
1998-02-11,12.813
1998-02-12,12.9617
1998-02-13,13.1727
1998-02-17,13.2015
1998-02-18,13.247
1998-02-19,13.247
1998-02-20,13.2326
1998-02-23,13.1415
1998-02-24,13.0984
1998-02-25,13.1271
1998-02-26,13.2326
1998-02-27,13.3069
1998-03-02,13.3669
1998-03-03,13.7265
1998-03-04,13.7121
1998-03-05,13.4553
1998-03-06,13.6353
1998-03-09,13.4409
1998-03-10,13.5465
1998-03-11,13.6521
1998-03-12,13.8753
1998-03-13,13.8609
1998-03-16,13.9354
1998-03-17,13.7265
1998-03-18,13.5153
1998-03-19,13.7721
1998-03-20,13.8465
1998-03-23,13.8753
1998-03-24,13.9666
1998-03-25,13.8009
1998-03-26,13.8609
1998-03-27,13.8009
1998-03-30,14.101
1998-03-31,14.2066
1998-04-01,14.4754
1998-04-02,14.6554
1998-04-03,14.6722
1998-04-06,14.6122
1998-04-07,14.4322
1998-04-08,14.4322
1998-04-09,14.7922
1998-04-13,14.8954
1998-04-14,15.1954
1998-04-15,15.1522
1998-04-16,15.061
1998-04-17,15.2554
1998-04-20,15.181
1998-04-21,15.2866
1998-04-22,15.3322
1998-04-23,15.1666
1998-04-24,15.0922
1998-04-27,14.5522
1998-04-28,14.8522
1998-04-29,14.881
1998-04-30,14.9122
1998-05-01,15.0322
1998-05-04,15.1522
1998-05-05,14.9866
1998-05-06,14.8954
1998-05-07,14.6722
1998-05-08,14.8522
1998-05-11,14.581
1998-05-12,14.8666
1998-05-13,14.7922
1998-05-14,14.9866
1998-05-15,14.4754
1998-05-18,14.461
1998-05-19,14.341
1998-05-20,14.6122
1998-05-21,14.581
1998-05-22,14.5954
1998-05-26,14.7154
1998-05-27,14.2954
1998-05-28,14.2066
1998-05-29,13.8465
1998-06-01,13.8321
1998-06-02,14.101
1998-06-03,14.1154
1998-06-04,14.1466
1998-06-05,14.0265
1998-06-08,14.0865
1998-06-09,13.5459
1998-06-10,13.2889
1998-06-11,12.854
1998-06-12,12.7795
1998-06-15,12.705
1998-06-16,12.8083
1998-06-17,13.0342
1998-06-18,12.9453
1998-06-19,12.9141
1998-06-22,12.6882
1998-06-23,12.6882
1998-06-24,12.6738
1998-06-25,12.705
1998-06-26,12.7194
1998-06-29,12.7194
1998-06-30,12.8252
1998-07-01,12.7339
1998-07-02,12.9597
1998-07-06,13.1399
1998-07-07,13.0342
1998-07-08,13.0054
1998-07-09,12.9285
1998-07-10,12.8852
1998-07-13,12.8396
1998-07-14,13.0798
1998-07-15,13.2744
1998-07-16,13.2288
1998-07-17,13.4691
1998-07-20,13.5003
1998-07-21,13.409
1998-07-22,13.2889
1998-07-23,13.2
1998-07-24,12.8252
1998-07-27,12.7795
1998-07-28,12.1188
1998-07-29,11.6383
1998-07-30,11.804
1998-07-31,10.9631
1998-08-03,11.2322
1998-08-04,10.8118
1998-08-05,10.6772
1998-08-06,11.0977
1998-08-07,11.4725
1998-08-10,11.052
1998-08-11,10.5715
1998-08-12,10.7517
1998-08-13,10.4225
1998-08-14,10.7229
1998-08-17,10.6772
1998-08-18,10.9175
1998-08-19,10.8118
1998-08-20,10.6172
1998-08-21,10.3625
1998-08-24,10.2712
1998-08-25,10.3625
1998-08-26,10.0165
1998-08-27,9.4615
1998-08-28,9.0098
1998-08-31,9.05545
1998-09-01,9.02422
1998-09-02,9.29617
1998-09-03,9.21917
1998-09-04,9.32505
1998-09-08,10.0181
1998-09-09,10.1216
1998-09-10,10.0181
1998-09-11,10.4681
1998-09-14,10.6029
1998-09-15,10.4224
1998-09-16,10.6799
1998-09-17,10.5884
1998-09-18,10.6799
1998-09-21,10.6943
1998-09-22,10.935
1998-09-23,11.0409
1998-09-24,10.7401
1998-09-25,10.1072
1998-09-28,10.0927
1998-09-29,10.0013
1998-09-30,9.92667
1998-10-01,9.44537
1998-10-02,9.68602
1998-10-05,9.23601
1998-10-06,9.20473
1998-10-07,9.23601
1998-10-08,8.3769
1998-10-09,8.97852
1998-10-12,8.84376
1998-10-13,8.42263
1998-10-14,8.25658
1998-10-15,8.19642
1998-10-16,8.33359
1998-10-19,8.60311
1998-10-20,9.33949
1998-10-21,9.4165
1998-10-22,9.51997
1998-10-23,9.67158
1998-10-26,9.92667
1998-10-27,9.85207
1998-10-28,9.94111
1998-10-29,10.2275
1998-10-30,10.5283
1998-11-02,10.9639
1998-11-03,10.9205
1998-11-04,11.1299
1998-11-05,11.4018
1998-11-06,11.462
1998-11-09,11.4018
1998-11-10,11.1299
1998-11-11,10.7689
1998-11-12,10.6197
1998-11-13,10.7834
1998-11-16,10.7401
1998-11-17,10.7088
1998-11-18,10.6943
1998-11-19,10.9037
1998-11-20,11.0553
1998-11-23,11.024
1998-11-24,10.9951
1998-11-25,10.9639
1998-11-27,10.9951
1998-11-30,10.6197
1998-12-01,10.7834
1998-12-02,9.79056
1998-12-03,9.4291
1998-12-04,9.97128
1998-12-07,9.74477
1998-12-08,9.71345
1998-12-09,9.69899
1998-12-10,9.77369
1998-12-11,9.67007
1998-12-14,9.33753
1998-12-15,9.12789
1998-12-16,9.09657
1998-12-17,9.39778
1998-12-18,9.59296
1998-12-21,9.63875
1998-12-22,9.68453
1998-12-23,9.86526
1998-12-24,9.8508
1998-12-28,9.97128
1998-12-29,10.2123
1998-12-30,10.4074
1998-12-31,10.6629
1999-01-04,10.2556
1999-01-05,10.8147
1999-01-06,10.6484
1999-01-07,10.6026
1999-01-08,10.6942
1999-01-11,10.4677
1999-01-12,10.3327
1999-01-13,10.2725
1999-01-14,9.89417
1999-01-15,9.63875
1999-01-19,9.5785
1999-01-20,9.59296
1999-01-21,9.5038
1999-01-22,9.44356
1999-01-25,9.41224
1999-01-26,9.38332
1999-01-27,9.29175
1999-01-28,9.23151
1999-01-29,9.12789
1999-02-01,9.21705
1999-02-02,9.12789
1999-02-03,9.09657
1999-02-04,9.36886
1999-02-05,9.27729
1999-02-08,9.21705
1999-02-09,9.00741
1999-02-10,8.91584
1999-02-11,8.97608
1999-02-12,8.72065
1999-02-16,8.67487
1999-02-17,8.37366
1999-02-18,8.46523
1999-02-19,8.38812
1999-02-22,8.8556
1999-02-23,8.96162
1999-02-24,8.97608
1999-02-25,8.9303
1999-02-26,8.94717
1999-03-01,8.96162
1999-03-02,9.11102
1999-03-03,9.0651
1999-03-04,9.00476
1999-03-05,9.14233
1999-03-08,9.23163
1999-03-09,9.08199
1999-03-10,9.38368
1999-03-11,9.39816
1999-03-12,9.48746
1999-03-15,9.44402
1999-03-16,9.47298
1999-03-17,9.51883
1999-03-18,9.4585
1999-03-19,9.39816
1999-03-22,9.4585
1999-03-23,9.23163
1999-03-24,9.17129
1999-03-25,9.29197
1999-03-26,9.29197
1999-03-29,9.65399
1999-03-30,9.68537
1999-03-31,9.69985
1999-04-01,9.62503
1999-04-05,9.68537
1999-04-06,9.39816
1999-04-07,9.08199
1999-04-08,9.00476
1999-04-09,9.44402
1999-04-12,9.50435
1999-04-13,8.9758
1999-04-14,9.53332
1999-04-15,9.57917
1999-04-16,10.016
1999-04-19,10.7401
1999-04-20,10.5301
1999-04-21,10.3925
1999-04-22,10.3636
1999-04-23,10.3177
1999-04-26,10.1681
1999-04-27,10.3177
1999-04-28,11.3579
1999-04-29,10.6942
1999-04-30,10.3177
1999-05-03,9.68537
1999-05-04,9.9412
1999-05-05,10.4094
1999-05-06,10.3322
1999-05-07,10.2718
1999-05-10,10.1367
1999-05-11,10.1367
1999-05-12,10.1512
1999-05-13,10.1367
1999-05-14,9.90982
1999-05-17,9.76018
1999-05-18,9.68537
1999-05-19,9.62503
1999-05-20,9.53332
1999-05-21,9.23163
1999-05-24,9.263
1999-05-25,9.32334
1999-05-26,9.5478
1999-05-27,9.65399
1999-05-28,9.78915
1999-06-01,9.9412
1999-06-02,9.98473
1999-06-03,9.95572
1999-06-04,9.94122
1999-06-07,10.2433
1999-06-08,10.2433
1999-06-09,10.1056
1999-06-10,10.0911
1999-06-11,10.0452
1999-06-14,10.0621
1999-06-15,10.0911
1999-06-16,10.166
1999-06-17,10.0911
1999-06-18,10.1225
1999-06-21,10.2119
1999-06-22,10.1225
1999-06-23,10.1225
1999-06-24,10.0911
1999-06-25,10.2578
1999-06-28,10.2724
1999-06-29,10.3328
1999-06-30,10.2433
1999-07-01,10.2264
1999-07-02,10.2724
1999-07-06,10.2119
1999-07-07,10.166
1999-07-08,10.2724
1999-07-09,10.2433
1999-07-12,10.2119
1999-07-13,10.2433
1999-07-14,10.2433
1999-07-15,10.2433
1999-07-16,10.2869
1999-07-19,10.166
1999-07-20,10.137
1999-07-21,10.1974
1999-07-22,10.2264
1999-07-23,10.0766
1999-07-26,9.88079
1999-07-27,9.9098
1999-07-28,9.82037
1999-07-29,9.65359
1999-07-30,9.54724
1999-08-02,9.4409
1999-08-03,9.41189
1999-08-04,9.32004
1999-08-05,9.24512
1999-08-06,9.15569
1999-08-09,9.06384
1999-08-10,8.70129
1999-08-11,9.00341
1999-08-12,8.73271
1999-08-13,8.64086
1999-08-16,8.47409
1999-08-17,8.45958
1999-08-18,8.43058
1999-08-19,8.50551
1999-08-20,8.56593
1999-08-23,8.52001
1999-08-24,8.41366
1999-08-25,8.59494
1999-08-26,8.55143
1999-08-27,8.45958
1999-08-30,8.53451
1999-08-31,8.61186
1999-09-01,8.58043
1999-09-02,8.35285
1999-09-03,8.4739
1999-09-07,8.36738
1999-09-08,8.50538
1999-09-09,8.50538
1999-09-10,8.48843
1999-09-13,8.44485
1999-09-14,8.41338
1999-09-15,8.39885
1999-09-16,8.26327
1999-09-17,8.30685
1999-09-20,7.92915
1999-09-21,7.83957
1999-09-22,7.83957
1999-09-23,7.4304
1999-09-24,7.50546
1999-09-27,7.02123
1999-09-28,7.36988
1999-09-29,7.21735
1999-09-30,7.36988
1999-10-01,7.12776
1999-10-04,7.20282
1999-10-05,7.23429
1999-10-06,7.4304
1999-10-07,7.44493
1999-10-08,7.53693
1999-10-11,7.56599
1999-10-12,7.4764
1999-10-13,7.11324
1999-10-14,7.70157
1999-10-15,7.30935
1999-10-18,7.18829
1999-10-19,7.20282
1999-10-20,7.11324
1999-10-21,7.00671
1999-10-22,7.11324
1999-10-25,7.11324
1999-10-26,7.17377
1999-10-27,7.20282
1999-10-28,7.17377
1999-10-29,7.15682
1999-11-01,6.87113
1999-11-02,6.99218
1999-11-03,6.96071
1999-11-04,6.68954
1999-11-05,6.75007
1999-11-08,6.67259
1999-11-09,6.58301
1999-11-10,6.3409
1999-11-11,6.18837
1999-11-12,6.55154
1999-11-15,6.55154
1999-11-16,6.85418
1999-11-17,6.91471
1999-11-18,7.02123
1999-11-19,6.75007
1999-11-22,6.65807
1999-11-23,6.52249
1999-11-24,6.44743
1999-11-26,6.52249
1999-11-29,6.43048
1999-11-30,6.59754
1999-12-01,6.85478
1999-12-02,6.85478
1999-12-03,6.62669
1999-12-06,6.44471
1999-12-07,6.2336
1999-12-08,6.21904
1999-12-09,6.05162
1999-12-10,6.05162
1999-12-13,6.06618
1999-12-14,5.82353
1999-12-15,5.9764
1999-12-16,6.1414
1999-12-17,5.93029
1999-12-20,5.85507
1999-12-21,5.68765
1999-12-22,6.02007
1999-12-23,6.7189
1999-12-27,6.30882
1999-12-28,6.27971
1999-12-29,6.21904
1999-12-30,6.27971
1999-12-31,6.36949
2000-01-03,6.26272
2000-01-04,6.34037
2000-01-05,6.27971
2000-01-06,6.32338
2000-01-07,6.43015
2000-01-10,6.68735
2000-01-11,6.67279
2000-01-12,6.61213
2000-01-13,6.61213
2000-01-14,6.64368
2000-01-18,6.49081
2000-01-19,6.55147
2000-01-20,6.43015
2000-01-21,6.30882
2000-01-24,5.99096
2000-01-25,5.95941
2000-01-26,5.93029
2000-01-27,6.02007
2000-01-28,6.06618
2000-01-31,6.21904
2000-02-01,6.26272
2000-02-02,6.30882
2000-02-03,6.32338
2000-02-04,6.35493
2000-02-07,6.32338
2000-02-08,6.32338
2000-02-09,6.08074
2000-02-10,6.00552
2000-02-11,5.83809
2000-02-14,5.76287
2000-02-15,5.85507
2000-02-16,5.9764
2000-02-17,6.06618
2000-02-18,5.9764
2000-02-22,6.1875
2000-02-23,5.99096
2000-02-24,5.99096
2000-02-25,6.05162
2000-02-28,6.06618
2000-02-29,6.2336
2000-03-01,6.18732
2000-03-02,6.1557
2000-03-03,6.05112
2000-03-06,6.0341
2000-03-07,5.97329
2000-03-08,6.06571
2000-03-09,6.23353
2000-03-10,6.26272
2000-03-13,6.12652
2000-03-14,7.40338
2000-03-15,7.55417
2000-03-16,7.6928
2000-03-17,8.08681
2000-03-20,8.30083
2000-03-21,8.19382
2000-03-22,8.11843
2000-03-23,8.17923
2000-03-24,8.17923
2000-03-27,9.10587
2000-03-28,9.01345
2000-03-29,8.86265
2000-03-30,8.87725
2000-03-31,8.87725
2000-04-03,8.93805
2000-04-04,9.10587
2000-04-05,9.21288
2000-04-06,9.56067
2000-04-07,9.45609
2000-04-10,9.54608
2000-04-11,9.82091
2000-04-12,10.1857
2000-04-13,10.2003
2000-04-14,9.72849
2000-04-17,9.7139
2000-04-18,9.7747
2000-04-19,9.8501
2000-04-20,9.95711
2000-04-24,10.1687
2000-04-25,10.1687
2000-04-26,10.1079
2000-04-27,9.9717
2000-04-28,10.1541
2000-05-01,10.3073
2000-05-02,10.1857
2000-05-03,10.0641
2000-05-04,11.0054
2000-05-05,10.9591
2000-05-08,10.9446
2000-05-09,10.8692
2000-05-10,10.9591
2000-05-11,11.0516
2000-05-12,10.8837
2000-05-15,11.0662
2000-05-16,11.037
2000-05-17,10.8983
2000-05-18,10.8837
2000-05-19,10.9446
2000-05-22,10.9762
2000-05-23,11.2948
2000-05-24,11.5064
2000-05-25,11.7666
2000-05-26,11.6888
2000-05-30,11.7058
2000-05-31,11.8714
2000-06-01,11.9323
2000-06-02,12.1295
2000-06-05,12.222
2000-06-06,12.3901
2000-06-07,12.1295
2000-06-08,11.9323
2000-06-09,12.0077
2000-06-12,11.8568
2000-06-13,11.7642
2000-06-14,11.8105
2000-06-15,11.9323
2000-06-16,11.5524
2000-06-19,11.7204
2000-06-20,11.4452
2000-06-21,11.416
2000-06-22,10.7463
2000-06-23,10.7463
2000-06-26,10.5783
2000-06-27,10.6855
2000-06-28,10.9899
2000-06-29,10.9728
2000-06-30,11.0191
2000-07-03,11.4598
2000-07-05,11.5816
2000-07-06,11.2772
2000-07-07,11.4598
2000-07-10,11.2772
2000-07-11,11.3089
2000-07-12,11.2942
2000-07-13,11.1725
2000-07-14,11.1262
2000-07-17,10.9728
2000-07-18,11.0045
2000-07-19,11.248
2000-07-20,12.9989
2000-07-21,13.0743
2000-07-24,14.0947
2000-07-25,14.5208
2000-07-26,14.3211
2000-07-27,15.1126
2000-07-28,15.4632
2000-07-31,15.5996
2000-08-01,15.6605
2000-08-02,16.1792
2000-08-03,16.24
2000-08-04,16.6516
2000-08-07,16.3764
2000-08-08,16.4519
2000-08-09,16.3155
2000-08-10,16.3301
2000-08-11,16.3155
2000-08-14,16.5128
2000-08-15,16.6954
2000-08-16,16.5907
2000-08-17,16.7271
2000-08-18,16.6345
2000-08-21,17.93
2000-08-22,17.762
2000-08-23,17.594
2000-08-24,18.3245
2000-08-25,17.8838
2000-08-28,17.8229
2000-08-29,18.1882
2000-08-30,18.4757
2000-08-31,18.522
2000-09-01,18.4757
2000-09-05,17.8981
2000-09-06,18.232
2000-09-07,19.6943
2000-09-08,19.1459
2000-09-11,19.4823
2000-09-12,19.4823
2000-09-13,19.2849
2000-09-14,19.2386
2000-09-15,19.4969
2000-09-18,19.2386
2000-09-19,18.6293
2000-09-20,18.9485
2000-09-21,19.2532
2000-09-22,19.1947
2000-09-25,18.6439
2000-09-26,18.9169
2000-09-27,19.3458
2000-09-28,19.4969
2000-09-29,18.8584
2000-10-02,17.9761
2000-10-03,17.4887
2000-10-04,18.098
2000-10-05,17.7324
2000-10-06,17.089
2000-10-09,16.5139
2000-10-10,16.5724
2000-10-11,16.8794
2000-10-12,16.5724
2000-10-13,16.9379
2000-10-16,18.522
2000-10-17,17.2109
2000-10-18,17.0013
2000-10-19,17.1816
2000-10-20,17.518
2000-10-23,18.0346
2000-10-24,17.942
2000-10-25,17.942
2000-10-26,17.942
2000-10-27,17.7909
2000-10-30,18.0054
2000-10-31,18.522
2000-11-01,18.3076
2000-11-02,18.951
2000-11-03,18.3076
2000-11-06,18.2783
2000-11-07,18.1272
2000-11-08,18.4294
2000-11-09,18.0346
2000-11-10,17.6398
2000-11-13,17.4887
2000-11-14,17.8543
2000-11-15,18.0639
2000-11-16,18.0054
2000-11-17,17.4546
2000-11-20,17.3035
2000-11-21,17.6691
2000-11-22,18.0346
2000-11-24,18.3709
2000-11-27,17.3035
2000-11-28,17.2742
2000-11-29,17.2251
2000-11-30,17.1958
2000-12-01,17.2251
2000-12-04,17.5324
2000-12-05,18.4788
2000-12-06,18.1422
2000-12-07,17.9568
2000-12-08,18.6008
2000-12-11,18.7227
2000-12-12,18.113
2000-12-13,17.0153
2000-12-14,17.1373
2000-12-15,18.2008
2000-12-18,19.513
2000-12-19,19.2691
2000-12-20,18.752
2000-12-21,18.9325
2000-12-22,19.6984
2000-12-26,20.1228
2000-12-27,20.5813
2000-12-28,20.8545
2000-12-29,20.4887
2001-01-02,19.513
2001-01-03,18.752
2001-01-04,17.991
2001-01-05,17.2593
2001-01-08,17.2593
2001-01-09,16.3421
2001-01-10,17.0446
2001-01-11,16.7373
2001-01-12,16.83
2001-01-16,16.5275
2001-01-17,15.9763
2001-01-18,16.4348
2001-01-19,16.9812
2001-01-22,17.3178
2001-01-23,17.0446
2001-01-24,17.5032
2001-01-25,17.7764
2001-01-26,18.113
2001-01-29,18.1812
2001-01-30,18.3374
2001-01-31,17.9032
2001-02-01,17.7568
2001-02-02,17.3617
2001-02-05,17.2251
2001-02-06,17.6105
2001-02-07,17.6349
2001-02-08,18.0495
2001-02-09,18.2642
2001-02-12,18.3764
2001-02-13,18.6447
2001-02-14,18.8593
2001-02-15,19.0837
2001-02-16,18.7715
2001-02-20,18.9569
2001-02-21,19.0984
2001-02-22,18.6447
2001-02-23,18.4739
2001-02-26,19.2349
2001-02-27,18.8886
2001-02-28,18.7958
2001-03-01,18.3955
2001-03-02,18.8935
2001-03-05,19.2547
2001-03-06,19.0253
2001-03-07,19.494
2001-03-08,19.45
2001-03-09,19.3817
2001-03-12,18.7128
2001-03-13,18.4785
2001-03-14,18.2539
2001-03-15,17.9952
2001-03-16,17.3166
2001-03-19,17.6193
2001-03-20,17.2336
2001-03-21,16.6966
2001-03-22,15.1343
2001-03-23,15.7934
2001-03-26,16.3353
2001-03-27,16.4232
2001-03-28,16.0912
2001-03-29,15.9935
2001-03-30,16.1302
2001-04-02,16.0521
2001-04-03,15.6225
2001-04-04,15.8178
2001-04-05,16.6282
2001-04-06,16.2132
2001-04-09,16.721
2001-04-10,17.1506
2001-04-11,16.8967
2001-04-12,17.4142
2001-04-16,17.6241
2001-04-17,17.5753
2001-04-18,17.7218
2001-04-19,17.0871
2001-04-20,17.0822
2001-04-23,16.9163
2001-04-24,17.092
2001-04-25,17.3312
2001-04-26,17.9171
2001-04-27,18.2051
2001-04-30,18.3223
2001-05-01,18.4639
2001-05-02,18.8398
2001-05-03,19.5867
2001-05-04,19.9382
2001-05-07,20.446
2001-05-08,20.1482
2001-05-09,20.2995
2001-05-10,21.935
2001-05-11,21.7299
2001-05-14,21.5054
2001-05-15,21.0904
2001-05-16,22.5892
2001-05-17,23.4679
2001-05-18,23.5656
2001-05-21,23.673
2001-05-22,23.6779
2001-05-23,22.76
2001-05-24,22.6624
2001-05-25,22.389
2001-05-29,21.4761
2001-05-30,21.8083
2001-05-31,21.8864
2001-06-01,22.0379
2001-06-04,22.5362
2001-06-05,23.186
2001-06-06,22.844
2001-06-07,22.8147
2001-06-08,22.3896
2001-06-11,21.9939
2001-06-12,22.0672
2001-06-13,21.7643
2001-06-14,20.2792
2001-06-15,20.4892
2001-06-18,20.3915
2001-06-19,20.0837
2001-06-20,20.2254
2001-06-21,19.307
2001-06-22,18.4911
2001-06-25,18.2468
2001-06-26,18.667
2001-06-27,18.7207
2001-06-28,18.3885
2001-06-29,18.281
2001-07-02,18.623
2001-07-03,18.5155
2001-07-05,18.3446
2001-07-06,18.0612
2001-07-09,17.4408
2001-07-10,17.387
2001-07-11,16.9278
2001-07-12,17.7583
2001-07-13,18.7452
2001-07-16,18.8038
2001-07-17,19.1262
2001-07-18,18.9552
2001-07-19,19.3314
2001-07-20,19.1018
2001-07-23,18.8233
2001-07-24,18.3934
2001-07-25,18.4911
2001-07-26,18.3201
2001-07-27,18.0954
2001-07-30,18.1394
2001-07-31,17.7827
2001-08-01,17.5776
2001-08-02,17.1134
2001-08-03,16.9034
2001-08-06,16.8057
2001-08-07,16.8936
2001-08-08,16.791
2001-08-09,16.6298
2001-08-10,16.2927
2001-08-13,16.1413
2001-08-14,16.1022
2001-08-15,16.3953
2001-08-16,16.3416
2001-08-17,15.682
2001-08-20,15.2423
2001-08-21,15.4182
2001-08-22,15.6429
2001-08-23,15.5746
2001-08-24,16.2438
2001-08-27,16.6103
2001-08-28,16.5516
2001-08-29,16.537
2001-08-30,16.6249
2001-08-31,16.7812
2001-09-04,16.8692
2001-09-05,16.8105
2001-09-06,16.5954
2001-09-07,16.2824
2001-09-10,15.9157
2001-09-17,11.4906
2001-09-18,11.4955
2001-09-19,10.6349
2001-09-20,9.7499
2001-09-21,9.04579
2001-09-24,10.1313
2001-09-25,10.5616
2001-09-26,10.3415
2001-09-27,10.4393
2001-09-28,10.7083
2001-10-01,10.2193
2001-10-02,10.2633
2001-10-03,11.1385
2001-10-04,11.1239
2001-10-05,11.0212
2001-10-08,11.031
2001-10-09,10.8012
2001-10-10,11.5884
2001-10-11,11.7253
2001-10-12,11.515
2001-10-15,11.7644
2001-10-16,11.7938
2001-10-17,11.1728
2001-10-18,10.9821
2001-10-19,10.7914
2001-10-22,10.8061
2001-10-23,10.7327
2001-10-24,10.7572
2001-10-25,10.9674
2001-10-26,11.251
2001-10-29,11.4613
2001-10-30,11.2021
2001-10-31,11.0994
2001-11-01,11.5053
2001-11-02,11.7106
2001-11-05,12.0236
2001-11-06,11.8818
2001-11-07,11.9502
2001-11-08,11.9062
2001-11-09,11.8378
2001-11-12,11.7693
2001-11-13,12.0285
2001-11-14,12.0285
2001-11-15,12.1262
2001-11-16,12.3854
2001-11-19,12.9086
2001-11-20,12.8157
2001-11-21,12.6543
2001-11-23,13.0064
2001-11-26,13.1531
2001-11-27,13.0797
2001-11-28,12.6543
2001-11-29,12.713
2001-11-30,12.6592
2001-12-03,12.5614
2001-12-04,13.0357
2001-12-05,13.2266
2001-12-06,13.535
2001-12-07,13.5791
2001-12-10,13.6084
2001-12-11,13.4812
2001-12-12,13.5203
2001-12-13,13.5154
2001-12-14,13.207
2001-12-17,13.3245
2001-12-18,13.4959
2001-12-19,13.4175
2001-12-20,13.2119
2001-12-21,12.9819
2001-12-24,13.0994
2001-12-26,13.1238
2001-12-27,13.2854
2001-12-28,13.6182
2001-12-31,13.8679
2002-01-02,13.535
2002-01-03,13.7504
2002-01-04,14.1322
2002-01-07,13.8091
2002-01-08,13.4175
2002-01-09,13.3735
2002-01-10,13.114
2002-01-11,13.0455
2002-01-14,12.8693
2002-01-15,13.3049
2002-01-16,12.9133
2002-01-17,13.3147
2002-01-18,13.2658
2002-01-22,13.2266
2002-01-23,13.2658
2002-01-24,13.5056
2002-01-25,13.6427
2002-01-28,13.8532
2002-01-29,13.584
2002-01-30,13.6084
2002-01-31,13.8091
2002-02-01,14.0833
2002-02-04,13.9511
2002-02-05,13.7847
2002-02-06,13.4518
2002-02-07,13.1287
2002-02-08,13.5595
2002-02-11,13.9022
2002-02-12,13.6329
2002-02-13,13.7798
2002-02-14,13.7945
2002-02-15,13.9511
2002-02-19,13.8043
2002-02-20,13.9119
2002-02-21,14.2203
2002-02-22,14.7001
2002-02-25,14.7392
2002-02-26,15.1749
2002-02-27,15.6301
2002-02-28,15.7476
2002-03-01,15.8161
2002-03-04,16.5896
2002-03-05,16.2518
2002-03-06,16.7859
2002-03-07,16.634
2002-03-08,16.7124
2002-03-11,17.6384
2002-03-12,17.2219
2002-03-13,16.8544
2002-03-14,16.7467
2002-03-15,16.7516
2002-03-18,16.9769
2002-03-19,16.9475
2002-03-20,16.7075
2002-03-21,16.5213
2002-03-22,16.4331
2002-03-25,16.0852
2002-03-26,16.6977
2002-03-27,17.0749
2002-03-28,17.2758
2002-04-01,17.2072
2002-04-02,17.6041
2002-04-03,17.0063
2002-04-04,17.2366
2002-04-05,17.2807
2002-04-08,17.2562
2002-04-09,17.2611
2002-04-10,17.6335
2002-04-11,17.658
2002-04-12,17.6286
2002-04-15,17.3395
2002-04-16,17.3934
2002-04-17,17.2856
2002-04-18,17.0014
2002-04-19,17.0014
2002-04-22,16.7173
2002-04-23,16.7075
2002-04-24,16.8887
2002-04-25,16.6095
2002-04-26,16.2812
2002-04-29,16.3253
2002-04-30,17.2807
2002-05-01,18.0156
2002-05-02,18.4174
2002-05-03,18.2753
2002-05-06,18.0695
2002-05-07,17.9568
2002-05-08,18.1969
2002-05-09,18.1822
2002-05-10,17.8491
2002-05-13,17.6874
2002-05-14,17.6384
2002-05-15,17.6384
2002-05-16,17.6286
2002-05-17,17.6335
2002-05-20,17.4816
2002-05-21,17.3934
2002-05-22,17.1876
2002-05-23,17.3395
2002-05-24,17.3934
2002-05-28,17.3983
2002-05-29,17.3983
2002-05-30,17.2905
2002-05-31,17.1827
2002-06-03,16.9083
2002-06-04,17.0847
2002-06-05,17.3103
2002-06-06,17.0553
2002-06-07,17.1681
2002-06-10,17.0994
2002-06-11,16.8003
2002-06-12,16.5551
2002-06-13,16.1775
2002-06-14,16.0304
2002-06-17,16.202
2002-06-18,16.7169
2002-06-19,16.5845
2002-06-20,16.4865
2002-06-21,16.3148
2002-06-24,15.9912
2002-06-25,15.2066
2002-06-26,15.3537
2002-06-27,15.3978
2002-06-28,16.001
2002-07-01,15.8097
2002-07-02,15.2752
2002-07-03,15.0987
2002-07-05,15.5449
2002-07-08,15.7852
2002-07-09,15.2997
2002-07-10,14.5446
2002-07-11,14.3337
2002-07-12,13.8384
2002-07-15,13.5246
2002-07-16,13.5442
2002-07-17,13.2255
2002-07-18,12.8626
2002-07-19,12.3673
2002-07-22,11.8573
2002-07-23,11.6219
2002-07-24,11.8573
2002-07-25,12.436
2002-07-26,12.2594
2002-07-29,13.0783
2002-07-30,12.9754
2002-07-31,12.8233
2002-08-01,12.7449
2002-08-02,12.0044
2002-08-05,11.4944
2002-08-06,12.024
2002-08-07,12.3134
2002-08-08,12.1662
2002-08-09,12.3134
2002-08-12,12.2006
2002-08-13,11.4699
2002-08-14,11.2738
2002-08-15,11.3326
2002-08-16,11.3669
2002-08-19,11.5091
2002-08-20,11.2787
2002-08-21,11.4258
2002-08-22,11.6612
2002-08-23,11.4405
2002-08-26,11.465
2002-08-27,11.2247
2002-08-28,11.2247
2002-08-29,11.0776
2002-08-30,11.1806
2002-09-03,10.8569
2002-09-04,11.0239
2002-09-05,11.0534
2002-09-06,11.4364
2002-09-09,11.677
2002-09-10,11.623
2002-09-11,11.6966
2002-09-12,11.6377
2002-09-13,11.5248
2002-09-16,11.5444
2002-09-17,11.4217
2002-09-18,10.9306
2002-09-19,10.7195
2002-09-20,10.8029
2002-09-23,10.6802
2002-09-24,10.5722
2002-09-25,10.8029
2002-09-26,11.186
2002-09-27,10.6753
2002-09-30,10.6163
2002-10-01,10.7293
2002-10-02,10.2923
2002-10-03,9.91416
2002-10-04,9.42802
2002-10-07,9.28562
2002-10-08,8.76512
2002-10-09,8.44594
2002-10-10,8.44594
2002-10-11,8.64235
2002-10-14,8.662
2002-10-15,8.71601
2002-10-16,8.64235
2002-10-17,8.73074
2002-10-18,8.79458
2002-10-21,9.09903
2002-10-22,8.96153
2002-10-23,9.13831
2002-10-24,9.00573
2002-10-25,9.00573
2002-10-28,8.77494
2002-10-29,9.13831
2002-10-30,9.42311
2002-10-31,9.51641
2002-11-01,9.68337
2002-11-04,9.82577
2002-11-05,9.8405
2002-11-06,10.3119
2002-11-07,9.87978
2002-11-08,10.1891
2002-11-11,10.0075
2002-11-12,10.2284
2002-11-13,10.2235
2002-11-14,10.1646
2002-11-15,10.0222
2002-11-18,10.1008
2002-11-19,10.0124
2002-11-20,10.2972
2002-11-21,10.8029
2002-11-22,11.0632
2002-11-25,10.9257
2002-11-26,11.3824
2002-11-27,11.8194
2002-11-29,12.0698
2002-12-02,12.3104
2002-12-03,12.4037
2002-12-04,12.2907
2002-12-05,12.1678
2002-12-06,12.3054
2002-12-09,11.8826
2002-12-10,11.9957
2002-12-11,12.0596
2002-12-12,12.3005
2002-12-13,11.8777
2002-12-16,12.1923
2002-12-17,12.0547
2002-12-18,11.7253
2002-12-19,11.7941
2002-12-20,11.9465
2002-12-23,11.7548
2002-12-24,11.7302
2002-12-26,11.9023
2002-12-27,11.8482
2002-12-30,11.7548
2002-12-31,11.8728
2003-01-02,12.4382
2003-01-03,12.2907
2003-01-06,12.6643
2003-01-07,12.8757
2003-01-08,12.7872
2003-01-09,12.9249
2003-01-10,13.2493
2003-01-13,13.1019
2003-01-14,13.8147
2003-01-15,13.2887
2003-01-16,13.3624
2003-01-17,13.2739
2003-01-21,12.9052
2003-01-22,12.4677
2003-01-23,12.5906
2003-01-24,12.2907
2003-01-27,12.0449
2003-01-28,12.2268
2003-01-29,12.2169
2003-01-30,12.1284
2003-01-31,12.448
2003-02-03,12.2661
2003-02-04,12.4922
2003-02-05,12.2759
2003-02-06,12.2956
2003-02-07,11.8728
2003-02-10,12.1334
2003-02-11,12.0104
2003-02-12,11.8531
2003-02-13,11.7597
2003-02-14,12.1235
2003-02-18,12.2169
2003-02-19,12.094
2003-02-20,11.9367
2003-02-21,12.094
2003-02-24,11.5385
2003-02-25,11.5336
2003-02-26,11.2533
2003-02-27,11.6221
2003-02-28,11.5778
2003-03-03,11.4156
2003-03-04,11.3074
2003-03-05,11.1745
2003-03-06,11.204
2003-03-07,11.0957
2003-03-10,11.0367
2003-03-11,10.7561
2003-03-12,10.7807
2003-03-13,11.4945
2003-03-14,11.5683
2003-03-17,12.2181
2003-03-18,12.4199
2003-03-19,12.3313
2003-03-20,12.3806
2003-03-21,12.8236
2003-03-24,12.1541
2003-03-25,12.2575
2003-03-26,12.2181
2003-03-27,12.0606
2003-03-28,11.9621
2003-03-31,11.7258
2003-04-01,11.9523
2003-04-02,12.3067
2003-04-03,12.3461
2003-04-04,12.1738
2003-04-07,12.5135
2003-04-08,12.2526
2003-04-09,12.5135
2003-04-10,12.3904
2003-04-11,12.1689
2003-04-14,12.5036
2003-04-15,12.8138
2003-04-16,12.799
2003-04-17,13.2076
2003-04-21,13.0697
2003-04-22,13.3553
2003-04-23,13.9804
2003-04-24,13.7097
2003-04-25,13.4636
2003-04-28,13.6949
2003-04-29,13.37
2003-04-30,13.6457
2003-05-01,13.3799
2003-05-02,13.6358
2003-05-05,13.5374
2003-05-06,14.1429
2003-05-07,14.197
2003-05-08,13.9657
2003-05-09,14.3792
2003-05-12,14.6598
2003-05-13,14.8911
2003-05-14,14.7041
2003-05-15,14.965
2003-05-16,14.7435
2003-05-19,14.3595
2003-05-20,14.2118
2003-05-21,14.4087
2003-05-22,14.1675
2003-05-23,14.202
2003-05-27,14.4727
2003-05-28,14.2463
2003-05-29,14.1773
2003-05-30,14.3989
2003-06-02,14.3989
2003-06-03,14.5958
2003-06-04,14.6549
2003-06-05,15.2512
2003-06-06,14.9555
2003-06-09,14.5514
2003-06-10,14.7141
2003-06-11,14.9457
2003-06-12,15.0541
2003-06-13,14.8964
2003-06-16,15.0639
2003-06-17,15.3399
2003-06-18,15.2364
2003-06-19,15.0984
2003-06-20,15.261
2003-06-23,14.8077
2003-06-24,14.7584
2003-06-25,14.9506
2003-06-26,15.0294
2003-06-27,15.0738
2003-06-30,15.3645
2003-07-01,15.3497
2003-07-02,15.7883
2003-07-03,15.946
2003-07-07,15.8425
2003-07-08,16.1037
2003-07-09,16.0593
2003-07-10,15.8425
2003-07-11,16.1135
2003-07-14,16.2466
2003-07-15,15.7834
2003-07-16,15.6454
2003-07-17,15.6207
2003-07-18,16.0741
2003-07-21,15.8671
2003-07-22,15.9755
2003-07-23,16.0002
2003-07-24,15.6207
2003-07-25,15.8819
2003-07-28,15.8179
2003-07-29,15.5518
2003-07-30,15.5961
2003-07-31,15.877
2003-08-01,15.4039
2003-08-04,15.3103
2003-08-05,15.0294
2003-08-06,15.0886
2003-08-07,15.1625
2003-08-08,15.2167
2003-08-11,15.1575
2003-08-12,15.5468
2003-08-13,15.7094
2003-08-14,16.0692
2003-08-15,16.1382
2003-08-18,16.5964
2003-08-19,16.7541
2003-08-20,16.7541
2003-08-21,16.7245
2003-08-22,16.9019
2003-08-25,16.9512
2003-08-26,16.6901
2003-08-27,16.8527
2003-08-28,16.8674
2003-08-29,17.4341
2003-09-02,17.7199
2003-09-03,17.9074
2003-09-04,17.7939
2003-09-05,17.4882
2003-09-08,17.932
2003-09-09,17.9912
2003-09-10,17.1972
2003-09-11,17.6016
2003-09-12,17.3057
2003-09-15,17.5079
2003-09-16,18.1046
2003-09-17,17.8778
2003-09-18,18.1638
2003-09-19,18.0652
2003-09-22,17.72
2003-09-23,17.7792
2003-09-24,17.1134
2003-09-25,17.2465
2003-09-26,17.1873
2003-09-29,17.3451
2003-09-30,17.2958
2003-10-01,17.9863
2003-10-02,18.1786
2003-10-03,18.3562
2003-10-06,18.4893
2003-10-07,18.6422
2003-10-08,18.7902
2003-10-09,18.8444
2003-10-10,18.7409
2003-10-13,18.8296
2003-10-14,19.4264
2003-10-15,19.6779
2003-10-16,20.1119
2003-10-17,19.8308
2003-10-20,19.9639
2003-10-21,19.6976
2003-10-22,19.7321
2003-10-23,19.6335
2003-10-24,19.4708
2003-10-27,19.6286
2003-10-28,19.7223
2003-10-29,19.959
2003-10-30,20.1661
2003-10-31,20.25
2003-11-03,20.3979
2003-11-04,20.0478
2003-11-05,20.176
2003-11-06,20.4325
2003-11-07,20.2796
2003-11-10,19.9048
2003-11-11,19.7815
2003-11-12,19.89
2003-11-13,20.6347
2003-11-14,20.3831
2003-11-17,20.0724
2003-11-18,19.7371
2003-11-19,19.8702
2003-11-20,19.7469
2003-11-21,19.7815
2003-11-24,19.7469
2003-11-25,19.8554
2003-11-26,19.8012
2003-11-28,19.9837
2003-12-01,20.1168
2003-12-02,20.107
2003-12-03,20.6795
2003-12-04,21.5333
2003-12-05,21.6419
2003-12-08,22.6685
2003-12-09,22.3427
2003-12-10,22.1206
2003-12-11,22.3328
2003-12-12,22.3032
2003-12-15,22.244
2003-12-16,21.8393
2003-12-17,22.0663
2003-12-18,22.3871
2003-12-19,22.5105
2003-12-22,22.4661
2003-12-23,22.5007
2003-12-24,22.5105
2003-12-26,22.5648
2003-12-29,22.5056
2003-12-30,22.2835
2003-12-31,22.4118
2004-01-02,22.4069
2004-01-05,22.7277
2004-01-06,23.0732
2004-01-07,23.1817
2004-01-08,23.2163
2004-01-09,23.542
2004-01-12,23.3347
2004-01-13,23.0485
2004-01-14,23.6259
2004-01-15,23.9369
2004-01-16,24.08
2004-01-20,24.2577
2004-01-21,24.233
2004-01-22,24.1145
2004-01-23,24.0602
2004-01-26,24.0602
2004-01-27,24.1343
2004-01-28,23.5371
2004-01-29,23.0485
2004-01-30,23.088
2004-02-02,23.2015
2004-02-03,23.3446
2004-02-04,23.3446
2004-02-05,23.5371
2004-02-06,23.7937
2004-02-09,24.0109
2004-02-10,24.0602
2004-02-11,24.154
2004-02-12,24.0997
2004-02-13,24.0849
2004-02-17,24.2379
2004-02-18,24.0356
2004-02-19,23.7296
2004-02-20,23.5322
2004-02-23,22.8116
2004-02-24,22.2934
2004-02-25,22.2736
2004-02-26,22.2983
2004-02-27,22.2983
2004-03-01,22.5648
2004-03-02,22.4167
2004-03-03,22.4316
2004-03-04,22.3427
2004-03-05,22.3921
2004-03-08,22.1056
2004-03-09,21.7006
2004-03-10,21.2759
2004-03-11,21.2907
2004-03-12,21.3846
2004-03-15,21.0784
2004-03-16,21.1722
2004-03-17,21.5525
2004-03-18,21.3253
2004-03-19,21.0389
2004-03-22,20.7574
2004-03-23,20.866
2004-03-24,20.8413
2004-03-25,21.0833
2004-03-26,21.2463
2004-03-29,21.7006
2004-03-30,21.8686
2004-03-31,21.7303
2004-04-01,21.8784
2004-04-02,22.5106
2004-04-05,22.7625
2004-04-06,22.639
2004-04-07,22.476
2004-04-08,22.3377
2004-04-12,22.3377
2004-04-13,21.8389
2004-04-14,22.1254
2004-04-15,22.2686
2004-04-16,22.6538
2004-04-19,22.4217
2004-04-20,22.0019
2004-04-21,22.1155
2004-04-22,22.5896
2004-04-23,22.476
2004-04-26,22.2637
2004-04-27,22.8859
2004-04-28,22.9896
2004-04-29,22.5254
2004-04-30,22.239
2004-05-03,22.2686
2004-05-04,21.9871
2004-05-05,21.8834
2004-05-06,21.676
2004-05-07,21.3451
2004-05-10,20.7623
2004-05-11,21.5772
2004-05-12,21.7846
2004-05-13,21.5327
2004-05-14,21.8044
2004-05-17,21.0537
2004-05-18,21.2364
2004-05-19,21.1969
2004-05-20,20.9105
2004-05-21,20.9154
2004-05-24,20.9895
2004-05-25,21.2068
2004-05-26,21.9772
2004-05-27,22.8069
2004-05-28,23.1773
2004-06-01,23.1674
2004-06-02,23.7209
2004-06-03,23.5529
2004-06-04,23.4739
2004-06-07,24.0718
2004-06-08,24.1608
2004-06-09,23.973
2004-06-10,23.968
2004-06-14,23.8099
2004-06-15,24.1163
2004-06-16,24.3486
2004-06-17,24.3535
2004-06-18,25.0157
2004-06-21,24.9515
2004-06-22,25.0552
2004-06-23,25.6384
2004-06-24,26.2759
2004-06-25,26.1573
2004-06-28,26.266
2004-06-29,26.6564
2004-06-30,27.027
2004-07-01,26.8343
2004-07-02,26.4686
2004-07-06,26.4489
2004-07-07,26.266
2004-07-08,26.2166
2004-07-09,26.6959
2004-07-12,26.7157
2004-07-13,27.6744
2004-07-14,27.2148
2004-07-15,27.1605
2004-07-16,27.0864
2004-07-19,26.6959
2004-07-20,27.0616
2004-07-21,27.032
2004-07-22,26.7503
2004-07-23,26.5526
2004-07-26,26.5724
2004-07-27,27.2494
2004-07-28,27.4026
2004-07-29,27.9166
2004-07-30,27.798
2004-08-02,27.9067
2004-08-03,27.541
2004-08-04,27.1901
2004-08-05,26.943
2004-08-06,26.1375
2004-08-09,26.1177
2004-08-10,26.7404
2004-08-11,26.2265
2004-08-12,25.1936
2004-08-13,25.1689
2004-08-16,25.6532
2004-08-17,25.7718
2004-08-18,25.8756
2004-08-19,25.2233
2004-08-20,25.9497
2004-08-23,25.8262
2004-08-24,27.6201
2004-08-25,27.6398
2004-08-26,27.3532
2004-08-27,27.452
2004-08-30,27.1111
2004-08-31,27.2297
2004-09-01,28.0554
2004-09-02,28.4065
2004-09-03,28.4312
2004-09-07,28.7378
2004-09-08,28.5449
2004-09-09,28.985
2004-09-10,29.4399
2004-09-13,29.4696
2004-09-14,29.43
2004-09-15,29.2372
2004-09-16,29.3905
2004-09-17,29.6278
2004-09-20,29.6624
2004-09-21,29.7761
2004-09-22,29.3855
2004-09-23,29.0592
2004-09-24,29.6476
2004-09-27,28.9405
2004-09-28,29.4003
2004-09-29,29.4597
2004-09-30,29.6822
2004-10-01,30.414
2004-10-04,30.9381
2004-10-05,30.4931
2004-10-06,30.6661
2004-10-07,30.2706
2004-10-08,30.3695
2004-10-11,30.5574
2004-10-12,30.8046
2004-10-13,30.1569
2004-10-14,30.3893
2004-10-15,30.4881
2004-10-18,30.1915
2004-10-19,30.1173
2004-10-20,29.9146
2004-10-21,29.9146
2004-10-22,29.5091
2004-10-25,29.7069
2004-10-26,29.6921
2004-10-27,29.7415
2004-10-28,29.7366
2004-10-29,29.6673
2004-11-01,30.0827
2004-11-02,30.1667
2004-11-03,30.9282
2004-11-04,31.6946
2004-11-05,32.2187
2004-11-08,32.0407
2004-11-09,32.4511
2004-11-10,32.3028
2004-11-11,32.1891
2004-11-12,31.8973
2004-11-15,31.66
2004-11-16,31.7144
2004-11-17,31.843
2004-11-18,32.1396
2004-11-19,31.9023
2004-11-22,32.1396
2004-11-23,32.11
2004-11-24,32.1792
2004-11-26,32.3671
2004-11-29,32.1594
2004-11-30,32.11
2004-12-01,32.9955
2004-12-02,32.4662
2004-12-03,32.6344
2004-12-06,32.5206
2004-12-07,31.6301
2004-12-08,32.016
2004-12-09,31.9072
2004-12-10,32.0655
2004-12-13,32.5453
2004-12-14,32.5552
2004-12-15,33.0252
2004-12-16,33.04
2004-12-17,33.505
2004-12-20,33.134
2004-12-21,32.7432
2004-12-22,32.9806
2004-12-23,33.04
2004-12-27,32.7382
2004-12-28,32.9262
2004-12-29,32.6393
2004-12-30,32.5008
2004-12-31,32.4761
2005-01-03,31.9368
2005-01-04,31.1157
2005-01-05,31.3284
2005-01-06,31.4224
2005-01-07,31.7192
2005-01-10,32.1595
2005-01-11,31.8775
2005-01-12,32.6245
2005-01-13,32.4909
2005-01-14,33.2478
2005-01-18,34.3064
2005-01-19,33.8859
2005-01-20,33.7474
2005-01-21,33.8612
2005-01-24,33.4605
2005-01-25,33.97
2005-01-26,34.1135
2005-01-27,34.2817
2005-01-28,34.3559
2005-01-31,34.7566
2005-02-01,34.8258
2005-02-02,35.2018
2005-02-03,35.271
2005-02-04,35.7608
2005-02-07,35.8597
2005-02-08,36.2752
2005-02-09,35.6866
2005-02-10,35.8399
2005-02-11,36.4781
2005-02-14,36.4632
2005-02-15,36.4978
2005-02-16,36.4583
2005-02-17,36.5028
2005-02-18,36.6314
2005-02-22,36.6215
2005-02-23,36.6809
2005-02-24,36.8342
2005-02-25,37.8088
2005-02-28,37.225
2005-03-01,37.0222
2005-03-02,37.5765
2005-03-03,37.8932
2005-03-04,38.8087
2005-03-07,38.4574
2005-03-08,38.6009
2005-03-09,38.497
2005-03-10,38.3485
2005-03-11,38.3337
2005-03-14,38.5564
2005-03-15,38.3633
2005-03-16,38.0318
2005-03-17,37.7992
2005-03-18,38.0565
2005-03-21,37.725
2005-03-22,37.9823
2005-03-23,37.8487
2005-03-24,37.6507
2005-03-28,37.7942
2005-03-29,36.7104
2005-03-30,37.6111
2005-03-31,38.1159
2005-04-01,37.5963
2005-04-04,37.5418
2005-04-05,38.1258
2005-04-06,38.586
2005-04-07,38.7889
2005-04-08,38.591
2005-04-11,38.6058
2005-04-12,38.3089
2005-04-13,37.7497
2005-04-14,36.0621
2005-04-15,36.072
2005-04-18,36.4729
2005-04-19,37.1707
2005-04-20,36.0522
2005-04-21,37.4478
2005-04-22,37.0964
2005-04-25,37.6458
2005-04-26,36.8243
2005-04-27,36.364
2005-04-28,36.4185
2005-04-29,36.3937
2005-05-02,36.9282
2005-05-03,36.8985
2005-05-04,36.6214
2005-05-05,36.9084
2005-05-06,37.2598
2005-05-09,37.3686
2005-05-10,37.7101
2005-05-11,37.6656
2005-05-12,37.1014
2005-05-13,36.1859
2005-05-16,36.5422
2005-05-17,36.5521
2005-05-18,37.1558
2005-05-19,37.1063
2005-05-20,36.9183
2005-05-23,37.4825
2005-05-24,37.5319
2005-05-25,37.725
2005-05-26,38.4821
2005-05-27,38.3287
2005-05-31,38.4326
2005-06-01,38.9176
2005-06-02,38.8582
2005-06-03,38.8236
2005-06-06,38.9176
2005-06-07,38.3337
2005-06-08,37.9376
2005-06-09,38.2891
2005-06-10,38.3039
2005-06-13,38.4871
2005-06-14,38.5069
2005-06-15,38.7644
2005-06-16,39.0763
2005-06-17,39.408
2005-06-20,38.8436
2005-06-21,38.9327
2005-06-22,39.0267
2005-06-23,38.903
2005-06-24,38.1109
2005-06-27,38.1554
2005-06-28,39.205
2005-06-29,39.1555
2005-06-30,38.5812
2005-07-01,38.1208
2005-07-05,39.8535
2005-07-06,39.2842
2005-07-07,39.1109
2005-07-08,40.5714
2005-07-11,40.5565
2005-07-12,40.1357
2005-07-13,39.9723
2005-07-14,39.5416
2005-07-15,40.0912
2005-07-18,39.6901
2005-07-19,43.1755
2005-07-20,44.9132
2005-07-21,43.8636
2005-07-22,44.4231
2005-07-25,44.0765
2005-07-26,43.4032
2005-07-27,44.3042
2005-07-28,44.5914
2005-07-29,44.5221
2005-08-01,44.4973
2005-08-02,45.0716
2005-08-03,45.1508
2005-08-04,45.0568
2005-08-05,44.8835
2005-08-08,45.1508
2005-08-09,45.1805
2005-08-10,45.1706
2005-08-11,45.7944
2005-08-12,45.4083
2005-08-15,45.4677
2005-08-16,44.8043
2005-08-17,45.3489
2005-08-18,45.2746
2005-08-19,45.938
2005-08-22,46.4182
2005-08-23,45.4033
2005-08-24,44.4577
2005-08-25,44.5567
2005-08-26,47.9034
2005-08-29,48.4233
2005-08-30,48.0421
2005-08-31,47.9183
2005-09-01,48.0965
2005-09-02,47.5272
2005-09-06,47.8242
2005-09-07,48.1807
2005-09-08,47.7995
2005-09-09,48.6263
2005-09-12,49.0619
2005-09-13,49.4283
2005-09-14,49.7057
2005-09-15,49.2896
2005-09-16,50.31
2005-09-19,49.6165
2005-09-20,48.4078
2005-09-21,47.9818
2005-09-22,48.9032
2005-09-23,49.5472
2005-09-26,51.7169
2005-09-27,51.1819
2005-09-28,51.281
2005-09-29,51.3503
2005-09-30,52.5392
2005-10-03,52.351
2005-10-04,51.1819
2005-10-05,50.528
2005-10-06,49.6661
2005-10-07,49.8048
2005-10-10,49.0914
2005-10-11,50.2704
2005-10-12,48.9329
2005-10-13,48.0412
2005-10-14,50.4091
2005-10-17,51.6277
2005-10-18,49.3391
2005-10-19,49.7255
2005-10-20,47.6152
2005-10-21,47.4963
2005-10-24,48.0412
2005-10-25,47.6648
2005-10-26,46.6839
2005-10-27,45.5644
2005-10-28,46.7334
2005-10-31,46.9514
2005-11-01,47.2387
2005-11-02,48.7843
2005-11-03,49.3391
2005-11-04,48.5564
2005-11-07,49.1211
2005-11-08,48.1007
2005-11-09,47.1099
2005-11-10,47.7044
2005-11-11,47.1397
2005-11-14,47.4666
2005-11-15,48.3583
2005-11-16,47.7737
2005-11-17,48.6555
2005-11-18,48.6357
2005-11-21,48.6951
2005-11-22,48.8041
2005-11-23,48.5465
2005-11-25,49.0023
2005-11-28,48.2889
2005-11-29,49.4679
2005-11-30,50.4289
2005-12-01,50.9441
2005-12-02,50.6568
2005-12-05,51.1026
2005-12-06,51.3602
2005-12-07,50.8943
2005-12-08,51.0034
2005-12-09,50.5573
2005-12-12,50.4086
2005-12-13,50.0517
2005-12-14,50.1211
2005-12-15,49.9724
2005-12-16,50.1905
2005-12-19,49.5164
2005-12-20,49.8039
2005-12-21,50.3491
2005-12-22,51.0728
2005-12-23,51.5387
2005-12-27,51.4495
2005-12-28,51.2115
2005-12-29,51.9947
2005-12-30,51.4098
2006-01-03,52.4011
2006-01-04,52.5399
2006-01-05,52.5399
2006-01-06,53.7097
2006-01-09,53.8782
2006-01-10,53.9079
2006-01-11,53.0455
2006-01-12,52.4804
2006-01-13,52.4705
2006-01-17,50.1905
2006-01-18,48.8225
2006-01-19,49.8534
2006-01-20,49.5759
2006-01-23,49.0406
2006-01-24,49.5759
2006-01-25,49.6651
2006-01-26,48.872
2006-01-27,49.338
2006-01-30,50.3392
2006-01-31,49.4867
2006-02-01,50.7952
2006-02-02,49.5362
2006-02-03,49.9228
2006-02-06,50.9042
2006-02-07,49.5858
2006-02-08,51.1322
2006-02-09,51.6279
2006-02-10,53.2735
2006-02-13,52.8968
2006-02-14,53.105
2006-02-15,54.1359
2006-02-16,55.5535
2006-02-17,55.9996
2006-02-21,54.6713
2006-02-22,54.82
2006-02-23,54.4234
2006-02-24,54.1657
2006-02-27,53.4718
2006-02-28,52.5201
2006-03-01,53.1446
2006-03-02,53.7493
2006-03-03,53.7295
2006-03-06,52.5796
2006-03-07,52.6291
2006-03-08,51.9645
2006-03-09,52.4406
2006-03-10,53.0853
2006-03-13,53.0159
2006-03-14,53.3631
2006-03-15,54.6723
2006-03-16,55.3667
2006-03-17,55.2873
2006-03-20,56.299
2006-03-21,55.9221
2006-03-22,56.3288
2006-03-23,55.5849
2006-03-24,57.7174
2006-03-27,57.8265
2006-03-28,56.9438
2006-03-29,58.7589
2006-03-30,59.1854
2006-03-31,58.8283
2006-04-03,58.9176
2006-04-04,59.6317
2006-04-05,59.84
2006-04-06,60.2665
2006-04-07,60.1376
2006-04-10,60.0087
2006-04-11,60.0682
2006-04-12,61.6056
2006-04-13,62.3892
2006-04-17,62.3098
2006-04-18,63.6488
2006-04-19,64.1845
2006-04-20,63.9563
2006-04-21,64.115
2006-04-24,64.4324
2006-04-25,64.1944
2006-04-26,63.4703
2006-04-27,62.4586
2006-04-28,62.3991
2006-05-01,61.9726
2006-05-02,62.6173
2006-05-03,62.9645
2006-05-04,63.7976
2006-05-05,64.7498
2006-05-08,65.9897
2006-05-09,64.7697
2006-05-10,66.7038
2006-05-11,65.2656
2006-05-12,62.5578
2006-05-15,61.2188
2006-05-16,61.7841
2006-05-17,59.6119
2006-05-18,58.3225
2006-05-19,58.2134
2006-05-22,57.7373
2006-05-23,59.3441
2006-05-24,57.2512
2006-05-25,57.1421
2006-05-26,57.2116
2006-05-30,56.4577
2006-05-31,57.2512
2006-06-01,58.7192
2006-06-02,58.3423
2006-06-05,56.666
2006-06-06,55.6146
2006-06-07,55.2276
2006-06-08,53.5405
2006-06-09,54.7413
2006-06-12,51.2381
2006-06-13,49.8884
2006-06-14,52.6176
2006-06-15,55.1879
2006-06-16,55.6742
2006-06-19,54.1359
2006-06-20,53.6
2006-06-21,55.565
2006-06-22,56.3589
2006-06-23,55.9124
2006-06-26,56.0711
2006-06-27,55.6047
2006-06-28,54.9199
2006-06-29,57.6094
2006-06-30,59.2965
2006-07-03,58.969
2006-07-05,58.1354
2006-07-06,58.5025
2006-07-07,58.959
2006-07-10,58.4827
2006-07-11,58.7903
2006-07-12,58.314
2006-07-13,55.962
2006-07-14,55.0787
2006-07-17,53.729
2006-07-18,52.9153
2006-07-19,55.4955
2006-07-20,54.3344
2006-07-21,53.6794
2006-07-24,54.2848
2006-07-25,61.4202
2006-07-26,59.4751
2006-07-27,58.8598
2006-07-28,59.0186
2006-07-31,59.1178
2006-08-01,58.7109
2006-08-02,58.8697
2006-08-03,61.5294
2006-08-04,61.0332
2006-08-07,60.8049
2006-08-08,60.0209
2006-08-09,58.9293
2006-08-10,58.443
2006-08-11,57.5101
2006-08-14,57.4307
2006-08-15,59.5644
2006-08-16,60.4278
2006-08-17,60.0209
2006-08-18,59.9912
2006-08-21,59.8125
2006-08-22,60.4576
2006-08-23,59.5942
2006-08-24,59.4156
2006-08-25,58.5819
2006-08-28,58.7407
2006-08-29,57.9071
2006-08-30,58.046
2006-08-31,57.9071
2006-09-01,58.4529
2006-09-05,58.9491
2006-09-06,57.3505
2006-09-07,56.298
2006-09-08,56.7349
2006-09-11,57.3903
2006-09-12,56.8342
2006-09-13,57.9959
2006-09-14,57.2016
2006-09-15,57.0626
2006-09-18,59.3165
2006-09-19,58.0853
2006-09-20,61.0938
2006-09-21,60.8754
2006-09-22,60.4583
2006-09-25,61.0243
2006-09-26,61.5605
2006-09-27,62.4442
2006-09-28,62.4144
2006-09-29,62.6924
2006-10-02,61.8981
2006-10-03,63.0498
2006-10-04,64.2711
2006-10-05,64.6881
2006-10-06,64.4201
2006-10-09,64.2811
2006-10-10,63.9931
2006-10-11,63.4669
2006-10-12,66.108
2006-10-13,65.5222
2006-10-16,66.5052
2006-10-17,65.0555
2006-10-18,64.6186
2006-10-19,64.6782
2006-10-20,64.1619
2006-10-23,64.6286
2006-10-24,67.8754
2006-10-25,67.4782
2006-10-26,66.8626
2006-10-27,66.525
2006-10-30,67.1704
2006-10-31,67.6073
2006-11-01,67.4484
2006-11-02,66.6541
2006-11-03,67.4782
2006-11-06,68.1137
2006-11-07,68.0144
2006-11-08,68.1236
2006-11-09,66.8825
2006-11-10,67.7662
2006-11-13,68.2527
2006-11-14,70.2981
2006-11-15,72.9293
2006-11-16,73.5648
2006-11-17,74.1903
2006-11-20,73.1577
2006-11-21,74.8655
2006-11-22,75.2428
2006-11-24,75.2726
2006-11-27,72.3832
2006-11-28,73.3066
2006-11-29,74.4485
2006-11-30,74.8258
2006-12-01,74.2797
2006-12-04,75.918
2006-12-05,76.4641
2006-12-06,76.4939
2006-12-07,76.0668
2006-12-08,76.4542
2006-12-11,75.59
2006-12-12,74.7457
2006-12-13,76.2356
2006-12-14,75.8582
2006-12-15,77.8547
2006-12-18,76.7124
2006-12-19,78.9076
2006-12-20,78.3812
2006-12-21,78.3812
2006-12-22,77.0899
2006-12-26,78.4706
2006-12-27,79.0864
2006-12-28,79.2652
2006-12-29,77.7653
2007-01-03,80.7253
2007-01-04,80.9538
2007-01-05,80.6757
2007-01-08,82.3842
2007-01-09,81.371
2007-01-10,82.4338
2007-01-11,81.1127
2007-01-12,80.5168
2007-01-16,81.9471
2007-01-17,81.6193
2007-01-18,80.4572
2007-01-19,80.3876
2007-01-22,79.9605
2007-01-23,84.9469
2007-01-24,86.0494
2007-01-25,84.9866
2007-01-26,85.2846
2007-01-29,86.4567
2007-01-30,88.5029
2007-01-31,88.2347
2007-02-01,90.4299
2007-02-02,88.8903
2007-02-05,89.0889
2007-02-06,90.0524
2007-02-07,91.8006
2007-02-08,91.0954
2007-02-09,90.6583
2007-02-12,89.7743
2007-02-13,91.5324
2007-02-14,93.678
2007-02-15,93.1118
2007-02-16,94.0653
2007-02-20,96.4989
2007-02-21,96.6777
2007-02-22,96.7771
2007-02-23,97.522
2007-02-26,94.0653
2007-02-27,89.8041
2007-02-28,90.2113
2007-03-01,90.6186
2007-03-02,89.814
2007-03-05,89.4862
2007-03-06,91.6417
2007-03-07,93.1122
2007-03-08,94.6226
2007-03-09,96.1527
2007-03-12,96.9476
2007-03-13,96.3713
2007-03-14,97.4444
2007-03-15,99.3522
2007-03-16,99.2926
2007-03-19,100.455
2007-03-20,101.329
2007-03-21,103.178
2007-03-22,103.058
2007-03-23,103.058
2007-03-26,103.088
2007-03-27,104.161
2007-03-28,103.098
2007-03-29,103.635
2007-03-30,103.317
2007-04-02,103.237
2007-04-03,105.036
2007-04-04,106.496
2007-04-05,106.208
2007-04-09,105.483
2007-04-10,105.89
2007-04-11,104.191
2007-04-12,104.082
2007-04-13,102.015
2007-04-16,102.194
2007-04-17,101.717
2007-04-18,102.244
2007-04-19,100.316
2007-04-20,101.31
2007-04-23,103.088
2007-04-24,104.37
2007-04-25,104.012
2007-04-26,104.052
2007-04-27,104.827
2007-04-30,103.515
2007-05-01,103.297
2007-05-02,106.129
2007-05-03,107.033
2007-05-04,107.311
2007-05-07,108.553
2007-05-08,110.183
2007-05-09,109.616
2007-05-10,107.609
2007-05-11,110.014
2007-05-14,110.381
2007-05-15,112.031
2007-05-16,114.237
2007-05-17,113.104
2007-05-18,113.412
2007-05-21,115.548
2007-05-22,114.624
2007-05-23,115.777
2007-05-24,114.068
2007-05-25,114.266
2007-05-29,114.823
2007-05-30,115.389
2007-05-31,119.552
2007-06-01,116.641
2007-06-04,117.367
2007-06-05,119.215
2007-06-06,118.658
2007-06-07,115.03
2007-06-08,115.945
2007-06-11,116.432
2007-06-12,114.683
2007-06-13,117.008
2007-06-14,118.608
2007-06-15,118.867
2007-06-18,117.684
2007-06-19,119.244
2007-06-20,117.823
2007-06-21,118.827
2007-06-22,117.137
2007-06-25,117.376
2007-06-26,116.909
2007-06-27,116.154
2007-06-28,117.416
2007-06-29,120.387
2007-07-02,124.611
2007-07-03,123.866
2007-07-05,125.953
2007-07-06,126.798
2007-07-09,127.563
2007-07-10,125.446
2007-07-11,127.305
2007-07-12,130.634
2007-07-13,130.833
2007-07-16,131.718
2007-07-17,132.682
2007-07-18,132.552
2007-07-19,137.412
2007-07-20,132.91
2007-07-23,134.302
2007-07-24,131.529
2007-07-25,135.067
2007-07-26,132.205
2007-07-27,131.191
2007-07-30,135.166
2007-07-31,136.081
2007-08-01,135.395
2007-08-02,139.669
2007-08-03,136.975
2007-08-06,136.796
2007-08-07,137.601
2007-08-08,142.372
2007-08-09,136.707
2007-08-10,133.606
2007-08-13,133.129
2007-08-14,126.271
2007-08-15,123.588
2007-08-16,119.364
2007-08-17,130.545
2007-08-20,129.412
2007-08-21,128.398
2007-08-22,135.156
2007-08-23,133.964
2007-08-24,137.721
2007-08-27,137.333
2007-08-28,130.654
2007-08-29,132.473
2007-08-30,130.028
2007-08-31,128.776
2007-09-04,131.887
2007-09-05,131.29
2007-09-06,131.449
2007-09-07,127.274
2007-09-10,126.538
2007-09-11,131.678
2007-09-12,129.908
2007-09-13,128.785
2007-09-14,130.912
2007-09-17,130.057
2007-09-18,137.543
2007-09-19,136.32
2007-09-20,143.07
2007-09-21,145.476
2007-09-24,143.169
2007-09-25,148.309
2007-09-26,146.221
2007-09-27,146.927
2007-09-28,146.808
2007-10-01,148.726
2007-10-02,147.832
2007-10-03,144.382
2007-10-04,145.396
2007-10-05,147.673
2007-10-08,147.941
2007-10-09,150.735
2007-10-10,146.361
2007-10-11,144.81
2007-10-12,142.056
2007-10-15,140.694
2007-10-16,143.229
2007-10-17,146.49
2007-10-18,146.699
2007-10-19,141.847
2007-10-22,140.426
2007-10-23,146.013
2007-10-24,148.876
2007-10-25,149.055
2007-10-26,147.842
2007-10-29,148.587
2007-10-30,146.868
2007-10-31,148.647
2007-11-01,147.434
2007-11-02,149.015
2007-11-05,148.528
2007-11-06,152.454
2007-11-07,147.742
2007-11-08,146.559
2007-11-09,143.398
2007-11-12,137.185
2007-11-13,138.08
2007-11-14,139.899
2007-11-15,135.227
2007-11-16,134.173
2007-11-19,132.274
2007-11-20,132.403
2007-11-21,132.513
2007-11-23,134.69
2007-11-26,136.459
2007-11-27,137.692
2007-11-28,147.454
2007-11-29,145.615
2007-11-30,146.4
2007-12-03,150.367
2007-12-04,147.812
2007-12-05,148.448
2007-12-06,149.472
2007-12-07,149.015
2007-12-10,151.083
2007-12-11,144.372
2007-12-12,146.808
2007-12-13,145.734
2007-12-14,145.137
2007-12-17,137.62
2007-12-18,139.002
2007-12-19,137.143
2007-12-20,136.914
2007-12-21,140.504
2007-12-24,140.902
2007-12-26,139.689
2007-12-27,138.108
2007-12-28,137.581
2007-12-31,137.72
2008-01-02,137.332
2008-01-03,141.598
2008-01-04,135.065
2008-01-07,127.707
2008-01-08,122.756
2008-01-09,119.594
2008-01-10,125.699
2008-01-11,123.064
2008-01-14,123.75
2008-01-15,116.939
2008-01-16,111.162
2008-01-17,107.384
2008-01-18,115.816
2008-01-22,107.722
2008-01-23,106.678
2008-01-24,106.429
2008-01-25,105.763
2008-01-28,99.7775
2008-01-29,107.911
2008-01-30,109.193
2008-01-31,113.081
2008-02-01,115.239
2008-02-04,114.195
2008-02-05,111.59
2008-02-06,107.931
2008-02-07,108.875
2008-02-08,107.921
2008-02-11,109.104
2008-02-12,114.861
2008-02-13,117.267
2008-02-14,115.786
2008-02-15,115.796
2008-02-19,115.985
2008-02-20,116.571
2008-02-21,114.732
2008-02-22,114.97
2008-02-25,115.239
2008-02-26,115.169
2008-02-27,115.328
2008-02-28,114.921
2008-02-29,109.899
2008-03-03,108.478
2008-03-04,105.336
2008-03-05,105.137
2008-03-06,105.465
2008-03-07,103.486
2008-03-10,99.4577
2008-03-11,100.303
2008-03-12,95.549
2008-03-13,99.0201
2008-03-14,97.4188
2008-03-17,95.4396
2008-03-18,101.367
2008-03-19,96.2949
2008-03-20,96.6828
2008-03-24,100.621
2008-03-25,101.298
2008-03-26,101.089
2008-03-27,101.477
2008-03-28,100.591
2008-03-31,101.576
2008-04-01,107.066
2008-04-02,108.767
2008-04-03,108.667
2008-04-04,110.637
2008-04-07,109.125
2008-04-08,107.504
2008-04-09,111.582
2008-04-10,113.054
2008-04-11,109.712
2008-04-14,110.06
2008-04-15,107.772
2008-04-16,112.009
2008-04-17,111.91
2008-04-18,115.003
2008-04-21,116.296
2008-04-22,110.895
2008-04-23,110.637
2008-04-24,114.516
2008-04-25,120.214
2008-04-28,120.075
2008-04-29,118.225
2008-04-30,116.644
2008-05-01,118.136
2008-05-02,120.752
2008-05-05,119.111
2008-05-06,127.753
2008-05-07,124.839
2008-05-08,126.023
2008-05-09,123.815
2008-05-12,124.163
2008-05-13,125.675
2008-05-14,124.541
2008-05-15,124.889
2008-05-16,124.322
2008-05-19,124.322
2008-05-20,122.383
2008-05-21,116.773
2008-05-22,114.068
2008-05-23,114.207
2008-05-27,116.843
2008-05-28,118.235
2008-05-29,117.46
2008-05-30,120.274
2008-06-02,117.977
2008-06-03,113.78
2008-06-04,109.9
2008-06-05,109.77
2008-06-06,103.145
2008-06-09,104.458
2008-06-10,100.14
2008-06-11,98.0214
2008-06-12,103.224
2008-06-13,102.956
2008-06-16,102.767
2008-06-17,102.468
2008-06-18,105.821
2008-06-19,109.034
2008-06-20,110.079
2008-06-23,109.154
2008-06-24,108.537
2008-06-25,103.443
2008-06-26,100.17
2008-06-27,98.29
2008-06-30,96.0715
2008-07-01,97.9816
2008-07-02,93.2661
2008-07-03,93.4949
2008-07-07,94.818
2008-07-08,98.2005
2008-07-09,96.8376
2008-07-10,98.3099
2008-07-11,93.8829
2008-07-14,93.8033
2008-07-15,90.5303
2008-07-16,96.4993
2008-07-17,100.787
2008-07-18,99.9614
2008-07-21,103.035
2008-07-22,102.1
2008-07-23,98.4989
2008-07-24,90.8387
2008-07-25,95.7432
2008-07-28,91.8733
2008-07-29,95.4547
2008-07-30,95.8129
2008-07-31,92.9179
2008-08-01,92.3807
2008-08-04,91.2864
2008-08-05,97.0365
2008-08-06,96.8773
2008-08-07,94.062
2008-08-08,98.6979
2008-08-11,97.6633
2008-08-12,96.3799
2008-08-13,95.6637
2008-08-14,98.2502
2008-08-15,99.3545
2008-08-18,99.9216
2008-08-19,98.678
2008-08-20,97.8125
2008-08-21,97.4942
2008-08-22,99.0262
2008-08-25,97.136
2008-08-26,97.8821
2008-08-27,99.0262
2008-08-28,103.622
2008-08-29,102.787
2008-09-02,102.379
2008-09-03,100.777
2008-09-04,97.4628
2008-09-05,97.6618
2008-09-08,98.3883
2008-09-09,96.9553
2008-09-10,98.0599
2008-09-11,99.5128
2008-09-12,102.498
2008-09-15,98.1196
2008-09-16,97.1842
2008-09-17,88.228
2008-09-18,87.5514
2008-09-19,87.6708
2008-09-22,83.7798
2008-09-23,81.6204
2008-09-24,83.4017
2008-09-25,82.2274
2008-09-26,80.9636
2008-09-29,77.5802
2008-09-30,78.237
2008-10-01,76.2268
2008-10-02,69.9575
2008-10-03,70.3953
2008-10-06,65.6685
2008-10-07,63.7479
2008-10-08,62.1358
2008-10-09,58.613
2008-10-10,54.543
2008-10-13,62.5935
2008-10-14,62.0661
2008-10-15,56.5631
2008-10-16,59.9565
2008-10-17,57.7174
2008-10-20,62.0363
2008-10-21,58.4837
2008-10-22,55.1102
2008-10-23,54.9112
2008-10-24,52.0949
2008-10-27,47.0496
2008-10-28,53.6175
2008-10-29,61.4392
2008-10-30,65.151
2008-10-31,64.4246
2008-11-03,64.6933
2008-11-04,68.2857
2008-11-05,60.4242
2008-11-06,54.8415
2008-11-07,55.7869
2008-11-10,54.9012
2008-11-11,53.0702
2008-11-12,51.7566
2008-11-13,57.399
2008-11-14,54.9311
2008-11-17,53.2991
2008-11-18,52.8711
2008-11-19,52.2442
2008-11-20,50.1047
2008-11-21,51.3685
2008-11-24,55.1002
2008-11-25,56.165
2008-11-26,59.439
2008-11-28,62.6931
2008-12-01,56.1949
2008-12-02,57.598
2008-12-03,55.4572
2008-12-04,50.6981
2008-12-05,50.8574
2008-12-08,55.278
2008-12-09,54.362
2008-12-10,56.6918
2008-12-11,54.5811
2008-12-12,55.7559
2008-12-15,54.3023
2008-12-16,57.0602
2008-12-17,57.9463
2008-12-18,58.9121
2008-12-19,59.8181
2008-12-22,55.9451
2008-12-23,55.4771
2008-12-24,55.8455
2008-12-26,56.4827
2008-12-29,55.1984
2008-12-30,57.8368
2008-12-31,59.39
2009-01-02,63.054
2009-01-05,65.334
2009-01-06,67.1262
2009-01-07,63.5717
2009-01-08,63.9202
2009-01-09,63.7111
2009-01-12,60.1368
2009-01-13,55.7061
2009-01-14,53.1374
2009-01-15,54.3222
2009-01-16,55.049
2009-01-20,58.1853
2009-01-21,61.6501
2009-01-22,60.2363
2009-01-23,62.4168
2009-01-26,63.4025
2009-01-27,63.2033
2009-01-28,65.7024
2009-01-29,64.4877
2009-01-30,64.6868
2009-02-02,62.5562
2009-02-03,64.8561
2009-02-04,65.1647
2009-02-05,65.8019
2009-02-06,66.2102
2009-02-09,67.8331
2009-02-10,65.3639
2009-02-11,64.5674
2009-02-12,65.8019
2009-02-13,67.156
2009-02-17,63.502
2009-02-18,62.9146
2009-02-19,63.1934
2009-02-20,59.9277
2009-02-23,56.6022
2009-02-24,58.6532
2009-02-25,57.2693
2009-02-26,56.3334
2009-02-27,55.4174
2009-03-02,50.8175
2009-03-03,50.2202
2009-03-04,50.9574
2009-03-05,49.7221
2009-03-06,48.7358
2009-03-09,48.3871
2009-03-10,51.3758
2009-03-11,53.0196
2009-03-12,53.2288
2009-03-13,53.6173
2009-03-16,55.9087
2009-03-17,56.885
2009-03-18,59.6844
2009-03-19,58.5587
2009-03-20,57.2635
2009-03-23,62.9122
2009-03-24,60.9695
2009-03-25,61.2086
2009-03-26,63.7988
2009-03-27,62.7428
2009-03-30,59.3457
2009-03-31,59.5947
2009-04-01,59.9235
2009-04-02,61.6171
2009-04-03,62.952
2009-04-06,62.5635
2009-04-07,60.0231
2009-04-08,59.4553
2009-04-09,62.6631
2009-04-13,60.8201
2009-04-14,60.2024
2009-04-15,61.1389
2009-04-16,63.1712
2009-04-17,63.5099
2009-04-20,61.7665
2009-04-21,63.221
2009-04-22,66.8374
2009-04-23,69.4076
2009-04-24,72.8845
2009-04-27,71.2407
2009-04-28,70.9418
2009-04-29,73.3029
2009-04-30,74.6777
2009-05-01,76.2318
2009-05-04,76.9491
2009-05-05,75.4946
2009-05-06,78.9914
2009-05-07,78.6328
2009-05-08,83.3549
2009-05-11,80.2267
2009-05-12,78.573
2009-05-13,76.8395
2009-05-14,77.1882
2009-05-15,77.0189
2009-05-18,80.7747
2009-05-19,81.7311
2009-05-20,81.2927
2009-05-21,80.1271
2009-05-22,78.563
2009-05-26,81.1333
2009-05-27,81.1532
2009-05-28,83.7634
2009-05-29,82.1495
2009-06-01,86.234
2009-06-02,85.7758
2009-06-03,83.0751
2009-06-04,84.9686
2009-06-05,87.4401
2009-06-08,86.4734
2009-06-09,86.2741
2009-06-10,85.5067
2009-06-11,83.4438
2009-06-12,84.3607
2009-06-15,81.2214
2009-06-16,79.7963
2009-06-17,80.4042
2009-06-18,82.0087
2009-06-19,79.6668
2009-06-22,77.0159
2009-06-23,75.0626
2009-06-24,72.88
2009-06-25,73.8168
2009-06-26,72.7106
2009-06-29,73.2588
2009-06-30,72.7505
2009-07-01,71.6941
2009-07-02,69.5913
2009-07-06,68.9834
2009-07-07,69.3621
2009-07-08,69.8504
2009-07-09,70.4982
2009-07-10,70.5182
2009-07-13,72.591
2009-07-14,73.4481
2009-07-15,75.3815
2009-07-16,75.5908
2009-07-17,73.2887
2009-07-20,76.3083
2009-07-21,77.0956
2009-07-22,76.9959
2009-07-23,79.3778
2009-07-24,78.1719
2009-07-27,78.0822
2009-07-28,78.431
2009-07-29,77.3447
2009-07-30,78.6901
2009-07-31,79.6568
2009-08-03,81.64
2009-08-04,81.949
2009-08-05,80.6135
2009-08-06,81.4208
2009-08-07,83.5933
2009-08-10,82.8957
2009-08-11,82.6665
2009-08-12,83.8126
2009-08-13,85.726
2009-08-14,84.849
2009-08-17,83.2146
2009-08-18,83.2345
2009-08-19,83.1648
2009-08-20,84.4205
2009-08-21,86.304
2009-08-24,87.5398
2009-08-25,87.6095
2009-08-26,86.3837
2009-08-27,94.5856
2009-08-28,92.7918
2009-08-31,90.9381
2009-09-01,90.0512
2009-09-02,89.782
2009-09-03,90.9683
2009-09-04,92.1148
2009-09-08,94.1684
2009-09-09,95.1653
2009-09-10,97.7075
2009-09-11,97.6975
2009-09-14,95.6837
2009-09-15,95.9429
2009-09-16,98.0065
2009-09-17,99.3424
2009-09-18,102.393
2009-09-21,101.575
2009-09-22,102.772
2009-09-23,101.416
2009-09-24,100.03
2009-09-25,100.0
2009-09-28,101.336
2009-09-29,102.572
2009-09-30,101.336
2009-10-01,99.2028
2009-10-02,98.7542
2009-10-05,99.2228
2009-10-06,100.648
2009-10-07,100.279
2009-10-08,101.845
2009-10-09,102.971
2009-10-12,101.516
2009-10-13,100.688
2009-10-14,102.533
2009-10-15,102.204
2009-10-16,102.144
2009-10-19,104.427
2009-10-20,98.7243
2009-10-21,100.09
2009-10-22,103.121
2009-10-23,102.283
2009-10-26,99.6714
2009-10-27,99.2327
2009-10-28,95.7037
2009-10-29,97.6377
2009-10-30,95.2351
2009-11-02,95.275
2009-11-03,95.7037
2009-11-04,95.6239
2009-11-05,99.0234
2009-11-06,99.2228
2009-11-09,101.416
2009-11-10,100.08
2009-11-11,101.127
2009-11-12,100.539
2009-11-13,102.612
2009-11-16,106.072
2009-11-17,106.7
2009-11-18,104.885
2009-11-19,103.569
2009-11-20,102.951
2009-11-23,105.015
2009-11-24,104.845
2009-11-25,106.839
2009-11-27,104.945
2009-11-30,103.36
2009-12-01,106.68
2009-12-02,107.388
2009-12-03,107.717
2009-12-04,110.728
2009-12-07,111.017
2009-12-08,109.492
2009-12-09,109.412
2009-12-10,109.362
2009-12-11,111.586
2009-12-14,113.231
2009-12-15,112.015
2009-12-16,110.888
2009-12-17,110.469
2009-12-18,111.935
2009-12-21,113.52
2009-12-22,114.567
2009-12-23,112.842
2009-12-24,113.67
2009-12-28,112.633
2009-12-29,112.304
2009-12-30,111.406
2009-12-31,110.21
2010-01-04,112.214
2010-01-05,114.029
2010-01-06,114.528
2010-01-07,115.375
2010-01-08,117.011
2010-01-11,116.023
2010-01-12,114.099
2010-01-13,114.438
2010-01-14,114.916
2010-01-15,113.391
2010-01-19,113.68
2010-01-20,113.042
2010-01-21,106.979
2010-01-22,103.937
2010-01-25,102.761
2010-01-26,104.835
2010-01-27,106.889
2010-01-28,105.373
2010-01-29,105.014
2010-02-01,107.238
2010-02-02,110.978
2010-02-03,109.492
2010-02-04,106.221
2010-02-05,106.919
2010-02-08,105.662
2010-02-09,107.647
2010-02-10,106.729
2010-02-11,109.482
2010-02-12,108.604
2010-02-16,110.24
2010-02-17,111.157
2010-02-18,112.413
2010-02-19,114.029
2010-02-22,113.301
2010-02-23,110.908
2010-02-24,112.084
2010-02-25,111.985
2010-02-26,112.563
2010-03-01,115.804
2010-03-02,116.871
2010-03-03,116.173
2010-03-04,117.17
2010-03-05,119.953
2010-03-08,117.499
2010-03-09,119.953
2010-03-10,122.197
2010-03-11,121.858
2010-03-12,120.701
2010-03-15,119.953
2010-03-16,119.923
2010-03-17,119.345
2010-03-18,119.025
2010-03-19,121.419
2010-03-22,121.758
2010-03-23,122.337
2010-03-24,122.058
2010-03-25,122.187
2010-03-26,123.554
2010-03-29,126.746
2010-03-30,126.676
2010-03-31,126.397
2010-04-01,126.796
2010-04-05,126.895
2010-04-06,125.858
2010-04-07,124.781
2010-04-08,125.559
2010-04-09,125.658
2010-04-12,125.359
2010-04-13,123.903
2010-04-14,123.753
2010-04-15,125.489
2010-04-16,123.494
2010-04-19,122.636
2010-04-20,124.262
2010-04-21,129.479
2010-04-22,133.07
2010-04-23,134.077
2010-04-26,133.139
2010-04-27,129.738
2010-04-28,130.686
2010-04-29,133.498
2010-04-30,128.162
2010-05-03,129.668
2010-05-04,123.494
2010-05-05,122.417
2010-05-06,120.382
2010-05-07,116.891
2010-05-10,123.135
2010-05-11,123.723
2010-05-12,124.551
2010-05-13,124.282
2010-05-14,119.933
2010-05-17,120.522
2010-05-18,119.883
2010-05-19,117.18
2010-05-20,112.682
2010-05-21,117.948
2010-05-24,115.245
2010-05-25,114.966
2010-05-26,115.604
2010-05-27,120.462
2010-05-28,116.652
2010-06-01,113.689
2010-06-02,115.515
2010-06-03,116.742
2010-06-04,110.147
2010-06-07,105.358
2010-06-08,103.941
2010-06-09,104.72
2010-06-10,108.311
2010-06-11,108.661
2010-06-14,108.82
2010-06-15,112.981
2010-06-16,112.861
2010-06-17,112.851
2010-06-18,114.358
2010-06-21,115.355
2010-06-22,111.704
2010-06-23,112.462
2010-06-24,109.209
2010-06-25,108.371
2010-06-28,107.284
2010-06-29,102.555
2010-06-30,102.814
2010-07-01,101.996
2010-07-02,102.365
2010-07-06,102.146
2010-07-07,106.575
2010-07-08,109.07
2010-07-09,109.838
2010-07-12,107.733
2010-07-13,109.459
2010-07-14,109.758
2010-07-15,109.549
2010-07-16,106.925
2010-07-19,107.743
2010-07-20,109.489
2010-07-21,111.105
2010-07-22,115.734
2010-07-23,118.907
2010-07-26,122.18
2010-07-27,120.613
2010-07-28,122.16
2010-07-29,122.249
2010-07-30,122.08
2010-08-02,124.474
2010-08-03,123.716
2010-08-04,125.113
2010-08-05,125.063
2010-08-06,123.596
2010-08-09,123.686
2010-08-10,121.92
2010-08-11,117.241
2010-08-12,116.962
2010-08-13,117.72
2010-08-16,117.62
2010-08-17,120.942
2010-08-18,122.329
2010-08-19,119.795
2010-08-20,118.997
2010-08-23,116.712
2010-08-24,113.569
2010-08-25,113.3
2010-08-26,113.4
2010-08-27,116.004
2010-08-30,113.719
2010-08-31,112.901
2010-09-01,119.627
2010-09-02,121.264
2010-09-03,123.809
2010-09-07,121.683
2010-09-08,123.489
2010-09-09,122.461
2010-09-10,122.631
2010-09-13,124.298
2010-09-14,123.978
2010-09-15,122.771
2010-09-16,124.118
2010-09-17,126.443
2010-09-20,128.898
2010-09-21,129.876
2010-09-22,129.138
2010-09-23,126.433
2010-09-24,131.034
2010-09-27,129.058
2010-09-28,129.876
2010-09-29,129.248
2010-09-30,127.262
2010-10-01,128.599
2010-10-04,127.262
2010-10-05,130.954
2010-10-06,130.735
2010-10-07,130.515
2010-10-08,131.453
2010-10-11,130.735
2010-10-12,129.717
2010-10-13,131.603
2010-10-14,130.076
2010-10-15,132.531
2010-10-18,130.056
2010-10-19,128.0
2010-10-20,129.707
2010-10-21,135.116
2010-10-22,139.257
2010-10-25,137.84
2010-10-26,135.725
2010-10-27,137.022
2010-10-28,137.321
2010-10-29,136.413
2010-11-01,136.762
2010-11-02,140.475
2010-11-03,139.637
2010-11-04,142.81
2010-11-05,144.866
2010-11-08,140.764
2010-11-09,139.677
2010-11-10,137.331
2010-11-11,133.549
2010-11-12,132.671
2010-11-15,133.19
2010-11-16,131.832
2010-11-17,131.134
2010-11-18,134.048
2010-11-19,134.747
2010-11-22,134.766
2010-11-23,134.956
2010-11-24,139.557
2010-11-26,138.409
2010-11-29,137.012
2010-11-30,138.02
2010-12-01,140.326
2010-12-02,141.913
2010-12-03,142.592
2010-12-06,142.122
2010-12-07,141.094
2010-12-08,140.795
2010-12-09,139.956
2010-12-10,141.084
2010-12-13,141.903
2010-12-14,139.617
2010-12-15,137.78
2010-12-16,138.749
2010-12-17,140.565
2010-12-20,140.436
2010-12-21,141.034
2010-12-22,141.723
2010-12-23,141.214
2010-12-27,139.837
2010-12-28,139.966
2010-12-29,139.837
2010-12-30,139.298
2010-12-31,138.998
2011-01-03,140.445
2011-01-04,139.308
2011-01-05,141.873
2011-01-06,142.831
2011-01-07,142.761
2011-01-10,142.112
2011-01-11,141.424
2011-01-12,140.096
2011-01-13,143.72
2011-01-14,144.418
2011-01-18,147.503
2011-01-19,144.788
2011-01-20,142.831
2011-01-21,140.346
2011-01-24,141.783
2011-01-25,143.71
2011-01-26,144.338
2011-01-27,144.239
2011-01-28,140.725
2011-01-31,142.741
2011-02-01,143.64
2011-02-02,142.492
2011-02-03,142.422
2011-02-04,144.568
2011-02-07,146.914
2011-02-08,147.453
2011-02-09,148.79
2011-02-10,149.14
2011-02-11,148.88
2011-02-14,150.827
2011-02-15,150.647
2011-02-16,150.308
2011-02-17,148.92
2011-02-18,148.311
2011-02-22,143.73
2011-02-23,141.434
2011-02-24,139.966
2011-02-25,141.863
2011-02-28,141.424
2011-03-01,137.75
2011-03-02,137.511
2011-03-03,141.065
2011-03-04,138.889
2011-03-07,136.193
2011-03-08,139.488
2011-03-09,141.355
2011-03-10,139.428
2011-03-11,145.368
2011-03-14,144.02
2011-03-15,141.604
2011-03-16,137.68
2011-03-17,139.078
2011-03-18,140.166
2011-03-21,142.662
2011-03-22,141.954
2011-03-23,143.781
2011-03-24,144.859
2011-03-25,145.768
2011-03-28,145.638
2011-03-29,147.854
2011-03-30,147.435
2011-03-31,146.996
2011-04-01,149.222
2011-04-04,148.463
2011-04-05,147.065
2011-04-06,147.505
2011-04-07,146.896
2011-04-08,145.957
2011-04-11,145.608
2011-04-12,143.791
2011-04-13,143.431
2011-04-14,142.043
2011-04-15,143.861
2011-04-18,142.173
2011-04-19,142.962
2011-04-20,147.934
2011-04-21,149.881
2011-04-25,148.154
2011-04-26,150.58
2011-04-27,151.478
2011-04-28,153.196
2011-04-29,154.244
2011-05-02,153.735
2011-05-03,154.783
2011-05-04,153.226
2011-05-05,153.565
2011-05-06,157.619
2011-05-09,157.339
2011-05-10,157.718
2011-05-11,155.861
2011-05-12,157.179
2011-05-13,154.853
2011-05-16,155.792
2011-05-17,152.107
2011-05-18,154.444
2011-05-19,154.544
2011-05-20,153.206
2011-05-23,151.538
2011-05-24,150.28
2011-05-25,153.385
2011-05-26,155.692
2011-05-27,156.361
2011-05-31,156.67
2011-06-01,153.136
2011-06-02,153.485
2011-06-03,153.006
2011-06-06,153.076
2011-06-07,152.627
2011-06-08,151.169
2011-06-09,150.969
2011-06-10,148.173
2011-06-13,148.093
2011-06-14,153.096
2011-06-15,150.899
2011-06-16,151.648
2011-06-17,152.756
2011-06-20,154.903
2011-06-21,156.611
2011-06-22,157.26
2011-06-23,154.634
2011-06-24,153.555
2011-06-27,154.823
2011-06-28,159.487
2011-06-29,161.624
2011-06-30,164.47
2011-07-01,165.568
2011-07-05,166.927
2011-07-06,169.643
2011-07-07,163.941
2011-07-08,162.563
2011-07-11,161.494
2011-07-12,160.755
2011-07-13,161.504
2011-07-14,160.356
2011-07-15,161.175
2011-07-18,158.968
2011-07-19,161.983
2011-07-20,162.103
2011-07-21,167.316
2011-07-22,165.259
2011-07-25,162.443
2011-07-26,159.966
2011-07-27,155.742
2011-07-28,158.788
2011-07-29,161.215
2011-08-01,160.436
2011-08-02,156.701
2011-08-03,156.441
2011-08-04,148.892
2011-08-05,149.301
2011-08-08,138.636
2011-08-09,146.255
2011-08-10,140.464
2011-08-11,149.94
2011-08-12,152.127
2011-08-15,152.347
2011-08-16,150.04
2011-08-17,151.508
2011-08-18,140.573
2011-08-19,142.081
2011-08-22,144.148
2011-08-23,150.01
2011-08-24,154.943
2011-08-25,153.056
2011-08-26,157.969
2011-08-29,163.861
2011-08-30,165.658
2011-08-31,163.402
2011-09-01,160.196
2011-09-02,155.792
2011-09-06,156.102
2011-09-07,160.377
2011-09-08,159.617
2011-09-09,156.851
2011-09-12,158.609
2011-09-13,163.713
2011-09-14,167.098
2011-09-15,169.226
2011-09-16,171.243
2011-09-19,170.514
2011-09-20,170.774
2011-09-21,161.196
2011-09-22,157.12
2011-09-23,161.805
2011-09-26,162.594
2011-09-27,167.238
2011-09-28,162.134
2011-09-29,157.989
2011-09-30,155.333
2011-10-03,148.281
2011-10-04,145.315
2011-10-05,152.596
2011-10-06,154.773
2011-10-07,156.072
2011-10-10,161.575
2011-10-11,163.473
2011-10-12,163.892
2011-10-13,163.173
2011-10-14,165.001
2011-10-17,161.096
2011-10-18,166.689
2011-10-19,163.962
2011-10-20,164.711
2011-10-21,169.316
2011-10-24,172.742
2011-10-25,170.874
2011-10-26,172.542
2011-10-27,165.9
2011-10-28,161.775
2011-10-31,162.933
2011-11-01,158.189
2011-11-02,161.555
2011-11-03,166.679
2011-11-04,167.688
2011-11-07,167.648
2011-11-08,169.585
2011-11-09,164.102
2011-11-10,165.83
2011-11-11,167.078
2011-11-14,164.012
2011-11-15,164.542
2011-11-16,161.375
2011-11-17,157.8
2011-11-18,158.808
2011-11-21,157.89
2011-11-22,154.364
2011-11-23,152.007
2011-11-25,151.867
2011-11-28,158.559
2011-11-29,158.968
2011-11-30,164.552
2011-12-01,163.563
2011-12-02,161.675
2011-12-05,164.222
2011-12-06,162.025
2011-12-07,162.944
2011-12-08,157.759
2011-12-09,162.294
2011-12-12,158.638
2011-12-13,154.832
2011-12-14,153.993
2011-12-15,155.661
2011-12-16,155.941
2011-12-19,155.871
2011-12-20,162.584
2011-12-21,163.093
2011-12-22,163.843
2011-12-23,164.332
2011-12-27,165.351
2011-12-28,163.323
2011-12-29,166.65
2011-12-30,164.762
2012-01-03,168.618
2012-01-04,168.848
2012-01-05,168.698
2012-01-06,169.387
2012-01-09,170.216
2012-01-10,174.871
2012-01-11,173.513
2012-01-12,172.324
2012-01-13,170.226
2012-01-17,173.133
2012-01-18,174.422
2012-01-19,177.129
2012-01-20,177.019
2012-01-23,175.601
2012-01-24,173.982
2012-01-25,176.24
2012-01-26,166.25
2012-01-27,166.26
2012-01-30,164.452
2012-01-31,163.613
2012-02-01,166.14
2012-02-02,166.81
2012-02-03,171.964
2012-02-06,169.527
2012-02-07,169.667
2012-02-08,171.585
2012-02-09,170.256
2012-02-10,168.118
2012-02-13,170.716
2012-02-14,169.877
2012-02-15,167.829
2012-02-16,166.55
2012-02-17,167.259
2012-02-21,167.369
2012-02-22,167.279
2012-02-23,167.009
2012-02-24,168.578
2012-02-27,167.968
2012-02-28,167.559
2012-02-29,167.159
2012-03-01,168.138
2012-03-02,167.209
2012-03-05,166.86
2012-03-06,165.171
2012-03-07,164.902
2012-03-08,171.056
2012-03-09,173.984
2012-03-12,172.026
2012-03-13,175.672
2012-03-14,175.503
2012-03-15,175.173
2012-03-16,175.403
2012-03-19,175.393
2012-03-20,172.845
2012-03-21,172.565
2012-03-22,170.617
2012-03-23,172.265
2012-03-26,175.902
2012-03-27,174.663
2012-03-28,173.284
2012-03-29,171.786
2012-03-30,172.875
2012-04-02,174.194
2012-04-03,172.565
2012-04-04,171.666
2012-04-05,170.077
2012-04-09,167.419
2012-04-10,163.483
2012-04-11,168.089
2012-04-12,171.056
2012-04-13,169.618
2012-04-16,169.967
2012-04-17,172.985
2012-04-18,172.995
2012-04-19,171.976
2012-04-20,173.804
2012-04-23,171.256
2012-04-24,172.295
2012-04-25,174.533
2012-04-26,174.923
2012-04-27,177.431
2012-04-30,176.202
2012-05-01,176.672
2012-05-02,178.62
2012-05-03,176.822
2012-05-04,173.245
2012-05-07,172.365
2012-05-08,172.295
2012-05-09,169.108
2012-05-10,168.728
2012-05-11,169.258
2012-05-14,168.698
2012-05-15,166.76
2012-05-16,165.761
2012-05-17,166.82
2012-05-18,167.319
2012-05-21,171.716
2012-05-22,169.877
2012-05-23,169.168
2012-05-24,168.079
2012-05-25,165.541
2012-05-29,167.299
2012-05-30,166.6
2012-05-31,166.111
2012-06-01,161.494
2012-06-04,159.556
2012-06-05,158.437
2012-06-06,161.495
2012-06-07,164.053
2012-06-08,163.703
2012-06-11,163.424
2012-06-12,167.421
2012-06-13,165.123
2012-06-14,166.482
2012-06-15,166.901
2012-06-18,169.06
2012-06-19,169.55
2012-06-20,167.371
2012-06-21,164.813
2012-06-22,164.903
2012-06-25,163.853
2012-06-26,162.744
2012-06-27,162.614
2012-06-28,161.425
2012-06-29,164.393
2012-07-02,165.732
2012-07-03,166.921
2012-07-05,165.482
2012-07-06,163.184
2012-07-09,162.734
2012-07-10,163.174
2012-07-11,159.596
2012-07-12,158.827
2012-07-13,162.904
2012-07-16,162.504
2012-07-17,164.043
2012-07-18,167.371
2012-07-19,168.211
2012-07-20,164.723
2012-07-23,162.164
2012-07-24,160.975
2012-07-25,159.776
2012-07-26,156.838
2012-07-27,157.967
2012-07-30,155.979
2012-07-31,155.579
2012-08-01,152.141
2012-08-02,154.07
2012-08-03,156.148
2012-08-06,156.528
2012-08-07,159.396
2012-08-08,159.246
2012-08-09,161.315
2012-08-10,161.505
2012-08-13,160.176
2012-08-14,159.556
2012-08-15,159.956
2012-08-16,161.675
2012-08-17,164.603
2012-08-20,164.643
2012-08-21,164.543
2012-08-22,163.464
2012-08-23,161.545
2012-08-24,164.733
2012-08-27,163.294
2012-08-28,163.044
2012-08-29,163.204
2012-08-30,161.175
2012-08-31,161.275
2012-09-04,160.416
2012-09-05,158.337
2012-09-06,163.624
2012-09-07,162.555
2012-09-10,158.966
2012-09-11,159.286
2012-09-12,158.706
2012-09-13,160.586
2012-09-14,161.085
2012-09-17,158.207
2012-09-18,159.236
2012-09-19,159.446
2012-09-20,161.075
2012-09-21,163.344
2012-09-24,161.175
2012-09-25,160.825
2012-09-26,161.085
2012-09-27,162.585
2012-09-28,163.464
2012-10-01,164.814
2012-10-02,163.204
2012-10-03,162.904
2012-10-04,163.724
2012-10-05,163.374
2012-10-08,163.564
2012-10-09,162.095
2012-10-10,161.015
2012-10-11,163.034
2012-10-12,162.345
2012-10-15,166.443
2012-10-16,167.772
2012-10-17,167.592
2012-10-18,168.392
2012-10-19,165.633
2012-10-22,165.024
2012-10-23,161.735
2012-10-24,161.695
2012-10-25,167.053
2012-10-26,170.081
2012-10-31,172.92
2012-11-01,173.59
2012-11-02,172.94
2012-11-05,175.239
2012-11-06,177.758
2012-11-07,173.46
2012-11-08,170.461
2012-11-09,171.191
2012-11-12,179.607
2012-11-13,177.598
2012-11-14,173.01
2012-11-15,174.409
2012-11-16,174.039
2012-11-19,176.278
2012-11-20,176.398
2012-11-21,176.718
2012-11-23,176.838
2012-11-26,178.317
2012-11-27,178.757
2012-11-28,181.236
2012-11-29,183.035
2012-11-30,183.625
2012-12-03,181.546
2012-12-04,181.836
2012-12-05,183.785
2012-12-06,182.745
2012-12-07,183.435
2012-12-10,184.565
2012-12-11,184.375
2012-12-12,184.165
2012-12-13,182.905
2012-12-14,183.945
2012-12-17,186.414
2012-12-18,188.304
2012-12-19,187.474
2012-12-20,188.694
2012-12-21,188.044
2012-12-24,188.004
2012-12-26,187.134
2012-12-27,187.894
2012-12-28,185.945
2012-12-31,189.244
2013-01-02,192.802
2013-01-03,191.963
2013-01-04,191.473
2013-01-07,189.253
2013-01-08,186.554
2013-01-09,188.094
2013-01-10,189.733
2013-01-11,187.434
2013-01-14,187.754
2013-01-15,189.093
2013-01-16,183.735
2013-01-17,186.364
2013-01-18,185.315
2013-01-22,186.155
2013-01-23,186.184
2013-01-24,191.183
2013-01-25,191.593
2013-01-28,187.144
2013-01-29,187.624
2013-01-30,184.785
2013-01-31,183.505
2013-02-01,186.444
2013-02-04,184.375
2013-02-05,186.454
2013-02-06,186.749
2013-02-07,187.494
2013-02-08,191.113
2013-02-11,189.703
2013-02-12,186.674
2013-02-13,184.945
2013-02-14,184.705
2013-02-15,185.255
2013-02-19,185.135
2013-02-20,182.365
2013-02-21,182.325
2013-02-22,184.255
2013-02-25,180.696
2013-02-26,183.525
2013-02-27,185.835
2013-02-28,186.744
2013-03-01,185.755
2013-03-04,186.934
2013-03-05,189.443
2013-03-06,189.253
2013-03-07,189.473
2013-03-08,190.563
2013-03-11,190.613
2013-03-12,189.053
2013-03-13,190.413
2013-03-14,191.553
2013-03-15,194.443
2013-03-18,193.563
2013-03-19,193.933
2013-03-20,195.133
2013-03-21,193.063
2013-03-22,192.573
2013-03-25,189.583
2013-03-26,190.973
2013-03-27,189.803
2013-03-28,189.623
2013-04-01,186.964
2013-04-02,184.984
2013-04-03,185.334
2013-04-04,183.534
2013-04-05,182.924
2013-04-08,182.774
2013-04-09,184.954
2013-04-10,187.294
2013-04-11,188.254
2013-04-12,188.784
2013-04-15,184.944
2013-04-16,188.874
2013-04-17,185.574
2013-04-18,183.104
2013-04-19,186.174
2013-04-22,185.414
2013-04-23,186.084
2013-04-24,188.734
2013-04-25,187.884
2013-04-26,187.474
2013-04-29,187.374
2013-04-30,191.253
2013-05-01,189.723
2013-05-02,188.174
2013-05-03,190.013
2013-05-06,191.003
2013-05-07,193.523
2013-05-08,192.053
2013-05-09,206.731
2013-05-10,210.131
2013-05-13,208.501
2013-05-14,212.19
2013-05-15,211.5
2013-05-16,209.481
2013-05-17,212.9
2013-05-20,214.95
2013-05-21,213.61
2013-05-22,211.62
2013-05-23,209.561
2013-05-24,210.67
2013-05-28,213.16
2013-05-29,211.01
2013-05-30,215.81
2013-05-31,214.22
2013-06-03,216.45
2013-06-04,213.96
2013-06-05,210.08
2013-06-06,214.98
2013-06-07,218.61
2013-06-10,219.34
2013-06-11,219.41
2013-06-12,216.42
2013-06-13,220.22
2013-06-14,219.97
2013-06-17,218.77
2013-06-18,221.58
2013-06-19,216.95
2013-06-20,213.58
2013-06-21,211.68
2013-06-24,209.79
2013-06-25,212.52
2013-06-26,220.13
2013-06-27,225.67
2013-06-28,226.02
2013-07-01,229.81
2013-07-02,226.04
2013-07-03,230.19
2013-07-05,234.68
2013-07-08,231.72
2013-07-09,233.58
2013-07-10,234.3
2013-07-11,237.38
2013-07-12,234.52
2013-07-15,234.55
2013-07-16,231.6
2013-07-17,232.98
2013-07-18,233.13
2013-07-19,234.52
2013-07-22,235.02
2013-07-23,235.77
2013-07-24,233.26
2013-07-25,230.51
2013-07-26,225.16
2013-07-29,224.57
2013-07-30,222.04
2013-07-31,221.81
2013-08-01,224.84
2013-08-02,224.0
2013-08-05,224.58
2013-08-06,221.99
2013-08-07,221.04
2013-08-08,220.75
2013-08-09,218.49
