date,close_price
2001-10-23,17.0501
2001-10-24,17.9265
2001-10-25,17.8048
2001-10-26,17.4477
2001-10-29,17.1881
2001-10-30,17.9428
2001-10-31,18.0564
2001-11-01,17.8535
2001-11-02,17.9915
2001-11-05,17.7805
2001-11-06,18.2187
2001-11-07,17.7155
2001-11-08,17.7399
2001-11-09,17.537
2001-11-12,17.8373
2001-11-13,17.748
2001-11-14,17.821
2001-11-15,17.8048
2001-11-16,18.0483
2001-11-19,18.1213
2001-11-20,18.454
2001-11-21,18.5595
2001-11-23,18.1619
2001-11-26,18.2187
2001-11-27,18.2187
2001-11-28,18.5433
2001-11-29,18.6163
2001-11-30,18.665
2001-12-03,18.5839
2001-12-04,18.6244
2001-12-05,18.8598
2001-12-06,19.1519
2001-12-07,19.0059
2001-12-10,18.9491
2001-12-11,19.0627
2001-12-12,19.1925
2001-12-13,19.0546
2001-12-14,19.5577
2001-12-17,19.225
2001-12-18,19.225
2001-12-19,19.0708
2001-12-20,19.0302
2001-12-21,18.9896
2001-12-24,18.9896
2001-12-26,19.0302
2001-12-27,19.0302
2001-12-28,19.0708
2001-12-31,19.4765
2002-01-02,19.3061
2002-01-03,19.2737
2002-01-04,19.4765
2002-01-07,19.3305
2002-01-08,19.5171
2002-01-09,19.4035
2002-01-10,19.72
2002-01-11,19.4765
2002-01-14,19.4197
2002-01-15,19.3873
2002-01-16,19.2006
2002-01-17,19.5658
2002-01-18,19.8012
2002-01-22,19.8174
2002-01-23,19.3629
2002-01-24,19.6794
2002-01-25,20.9779
2002-01-28,21.1077
2002-01-29,21.0752
2002-01-30,20.6938
2002-01-31,20.4666
2002-02-01,19.8823
2002-02-04,19.0059
2002-02-05,19.0708
2002-02-06,19.4035
2002-02-07,19.4603
2002-02-08,20.0852
2002-02-11,19.6551
2002-02-12,20.1258
2002-02-13,20.142
2002-02-14,19.7606
2002-02-15,19.5334
2002-02-19,19.1357
2002-02-20,19.1519
2002-02-21,18.8517
2002-02-22,18.2998
2002-02-25,18.7868
2002-02-26,19.2087
2002-02-27,19.8174
2002-02-28,19.7606
2002-03-01,19.9797
2002-03-04,20.5072
2002-03-05,20.3286
2002-03-06,20.2881
2002-03-07,20.3855
2002-03-08,20.3692
2002-03-11,20.2881
2002-03-12,20.353
2002-03-13,20.3205
2002-03-14,20.6776
2002-03-15,20.6533
2002-03-18,20.6938
2002-03-19,20.7588
2002-03-20,20.9373
2002-03-21,20.9048
2002-03-22,20.9373
2002-03-25,20.5964
2002-03-26,20.6695
2002-03-27,20.8237
2002-03-28,20.5964
2002-04-01,20.5315
2002-04-02,20.8074
2002-04-03,20.6289
2002-04-04,21.2213
2002-04-05,21.9517
2002-04-08,22.2357
2002-04-09,22.4224
2002-04-10,22.5684
2002-04-11,21.9111
2002-04-12,21.9923
2002-04-15,21.6352
2002-04-16,22.5847
2002-04-17,22.958
2002-04-18,23.1041
2002-04-19,22.8768
2002-04-22,23.1122
2002-04-23,22.7226
2002-04-24,22.6415
2002-04-25,22.0734
2002-04-26,22.1546
2002-04-29,22.3006
2002-04-30,22.6009
2002-05-01,22.4711
2002-05-02,22.6821
2002-05-03,21.9841
2002-05-06,22.1627
2002-05-07,21.7326
2002-05-08,22.4792
2002-05-09,22.7226
2002-05-10,22.6009
2002-05-13,22.8281
2002-05-14,22.9255
2002-05-15,23.0797
2002-05-16,23.3881
2002-05-17,23.453
2002-05-20,23.4611
2002-05-21,23.8182
2002-05-22,23.7776
2002-05-23,23.2907
2002-05-24,23.5342
2002-05-28,24.0048
2002-05-29,23.8182
2002-05-30,23.664
2002-05-31,24.7109
2002-06-03,23.5747
2002-06-04,23.1852
2002-06-05,23.315
2002-06-06,23.4124
2002-06-07,23.242
2002-06-10,23.6883
2002-06-11,23.6883
2002-06-12,24.2321
2002-06-13,24.6459
2002-06-14,24.5891
2002-06-17,24.5567
2002-06-18,23.7938
2002-06-19,24.0779
2002-06-20,23.8588
2002-06-21,23.3637
2002-06-24,23.8182
2002-06-25,24.0454
2002-06-26,23.4611
2002-06-27,24.1347
2002-06-28,25.1572
2002-07-01,24.0211
2002-07-02,23.0878
2002-07-03,21.9436
2002-07-05,22.4792
2002-07-08,23.242
2002-07-09,21.976
2002-07-10,22.9823
2002-07-11,23.8182
2002-07-12,24.1671
2002-07-15,23.7289
2002-07-16,23.6802
2002-07-17,23.2907
2002-07-18,22.398
2002-07-19,21.5865
2002-07-22,21.9517
2002-07-23,21.1158
2002-07-24,21.6677
2002-07-25,21.3836
2002-07-26,21.0996
2002-07-29,22.7145
2002-07-30,22.9093
2002-07-31,23.3719
2002-08-01,22.7632
2002-08-02,21.9517
2002-08-05,20.9535
2002-08-06,20.5315
2002-08-07,21.3268
2002-08-08,22.4792
2002-08-09,23.2177
2002-08-12,23.0067
2002-08-13,22.5684
2002-08-14,23.664
2002-08-15,23.9967
2002-08-16,23.4936
2002-08-19,23.8588
2002-08-20,23.4124
2002-08-21,23.453
2002-08-22,24.5891
2002-08-23,24.0779
2002-08-26,24.1671
2002-08-27,23.7938
2002-08-28,23.453
2002-08-29,23.7533
2002-08-30,23.7614
2002-09-03,23.169
2002-09-04,23.6397
2002-09-05,23.5179
2002-09-06,23.5991
2002-09-09,23.7614
2002-09-10,23.6234
2002-09-11,23.5423
2002-09-12,23.0716
2002-09-13,22.9742
2002-09-16,23.1933
2002-09-17,22.5198
2002-09-18,22.2925
2002-09-19,21.7326
2002-09-20,21.7813
2002-09-23,22.3169
2002-09-24,22.3737
2002-09-25,21.554
2002-09-26,21.6514
2002-09-27,21.4567
2002-09-30,21.197
2002-10-01,22.3493
2002-10-02,21.8543
2002-10-03,20.5153
2002-10-04,19.9391
2002-10-07,20.1258
2002-10-08,19.4684
2002-10-09,18.6163
2002-10-10,19.014
2002-10-11,20.6776
2002-10-14,20.9129
2002-10-15,22.2276
2002-10-16,21.5135
2002-10-17,22.5522
2002-10-18,22.8038
2002-10-21,23.3069
2002-10-22,22.9904
2002-10-23,22.9255
2002-10-24,22.6739
2002-10-25,23.0229
2002-10-28,23.031
2002-10-29,22.2763
2002-10-30,22.6739
2002-10-31,22.7226
2002-11-01,22.5522
2002-11-04,22.8038
2002-11-05,22.6415
2002-11-06,23.1411
2002-11-07,23.5096
2002-11-08,23.3704
2002-11-11,22.6416
2002-11-12,22.8382
2002-11-13,23.0674
2002-11-14,23.7962
2002-11-15,24.2548
2002-11-18,23.7553
2002-11-19,23.9764
2002-11-20,24.2548
2002-11-21,24.8853
2002-11-22,25.0491
2002-11-25,24.2384
2002-11-26,23.8208
2002-11-27,23.9191
2002-11-29,23.7471
2002-12-02,23.5997
2002-12-03,23.8044
2002-12-04,23.9518
2002-12-05,23.7635
2002-12-06,24.1811
2002-12-09,23.9518
2002-12-10,24.2548
2002-12-11,24.1238
2002-12-12,23.9191
2002-12-13,23.8699
2002-12-16,24.7134
2002-12-17,24.566
2002-12-18,24.5414
2002-12-19,24.2794
2002-12-20,24.9508
2002-12-23,25.3029
2002-12-24,25.2047
2002-12-26,25.2129
2002-12-27,24.7297
2002-12-30,24.959
2002-12-31,24.6724
2003-01-02,25.0818
2003-01-03,24.9263
2003-01-06,25.1555
2003-01-07,24.7625
2003-01-08,23.9518
2003-01-09,25.1392
2003-01-10,25.2292
2003-01-13,25.1064
2003-01-14,25.1801
2003-01-15,24.8935
2003-01-16,24.4923
2003-01-17,24.525
2003-01-21,24.0337
2003-01-22,23.7062
2003-01-23,24.0009
2003-01-24,23.3704
2003-01-27,23.3049
2003-01-28,23.5669
2003-01-29,23.6652
2003-01-30,23.5014
2003-01-31,23.4769
2003-02-03,23.4196
2003-02-04,22.9119
2003-02-05,22.5024
2003-02-06,21.9456
2003-02-07,21.962
2003-02-10,22.0684
2003-02-11,21.8391
2003-02-12,21.618
2003-02-13,21.7409
2003-02-14,22.6089
2003-02-18,23.1739
2003-02-19,22.9937
2003-02-20,22.7972
2003-02-21,23.1657
2003-02-24,22.7563
2003-02-25,22.6007
2003-02-26,21.7654
2003-02-27,22.5597
2003-02-28,22.6171
2003-03-03,22.5516
2003-03-04,22.4451
2003-03-05,22.5597
2003-03-06,22.5679
2003-03-07,22.8054
2003-03-10,22.1913
2003-03-11,21.2987
2003-03-12,21.1104
2003-03-13,21.962
2003-03-14,22.0275
2003-03-17,22.9692
2003-03-18,22.6662
2003-03-19,23.0429
2003-03-20,22.789
2003-03-21,23.0674
2003-03-24,22.7317
2003-03-25,23.0101
2003-03-26,22.7317
2003-03-27,22.6662
2003-03-28,22.6826
2003-03-31,22.2158
2003-04-01,22.7399
2003-04-02,23.0101
2003-04-03,22.8218
2003-04-04,23.0511
2003-04-07,23.2148
2003-04-08,23.395
2003-04-09,23.2885
2003-04-10,23.6161
2003-04-11,23.5014
2003-04-14,24.0501
2003-04-15,24.4841
2003-04-16,23.8945
2003-04-17,24.2302
2003-04-21,24.222
2003-04-22,24.6806
2003-04-23,24.3121
2003-04-24,24.1565
2003-04-25,23.4196
2003-04-28,23.9436
2003-04-29,24.0419
2003-04-30,23.788
2003-05-01,23.5833
2003-05-02,23.9682
2003-05-05,23.9354
2003-05-06,24.2302
2003-05-07,24.1975
2003-05-08,23.9764
2003-05-09,24.4923
2003-05-12,24.9099
2003-05-13,24.8526
2003-05-14,24.8771
2003-05-15,25.4176
2003-05-16,25.3603
2003-05-19,24.697
2003-05-20,24.7543
2003-05-21,24.9099
2003-05-22,25.4258
2003-05-23,25.3029
2003-05-27,25.4995
2003-05-28,25.4913
2003-05-29,25.2866
2003-05-30,26.0235
2003-06-02,25.9662
2003-06-03,25.7533
2003-06-04,26.3347
2003-06-05,26.695
2003-06-06,26.9243
2003-06-09,26.4002
2003-06-10,26.7851
2003-06-11,27.2764
2003-06-12,27.604
2003-06-13,27.3992
2003-06-16,28.0789
2003-06-17,28.0789
2003-06-18,28.0625
2003-06-19,27.3665
2003-06-20,27.3419
2003-06-23,26.6131
2003-06-24,26.7114
2003-06-25,26.6541
2003-06-26,26.6049
2003-06-27,26.4166
2003-06-30,26.392
2003-07-01,27.1044
2003-07-02,27.1863
2003-07-03,26.9734
2003-07-07,27.4238
2003-07-08,27.4074
2003-07-09,27.2518
2003-07-10,26.8424
2003-07-11,27.26
2003-07-14,27.4238
2003-07-15,27.4238
2003-07-16,27.2764
2003-07-17,26.4494
2003-07-18,26.826
2003-07-21,26.4248
2003-07-22,26.6623
2003-07-23,26.7605
2003-07-24,26.9243
2003-07-25,27.8332
2003-07-28,27.694
2003-07-29,27.5794
2003-07-30,27.3255
2003-07-31,26.736
2003-08-01,26.5722
2003-08-04,26.7114
2003-08-05,25.1637
2003-08-06,25.7042
2003-08-07,26.0727
2003-08-08,26.2774
2003-08-11,25.8106
2003-08-12,26.2119
2003-08-13,26.1054
2003-08-14,26.5067
2003-08-15,26.4821
2003-08-18,26.7032
2003-08-19,26.7032
2003-08-20,26.1382
2003-08-21,26.0399
2003-08-22,25.7042
2003-08-25,25.3848
2003-08-26,25.2866
2003-08-27,25.1719
2003-08-28,25.4667
2003-08-29,25.7533
2003-09-02,26.4657
2003-09-03,26.7278
2003-09-04,26.736
2003-09-05,26.564
2003-09-08,26.7605
2003-09-09,26.4166
2003-09-10,25.6059
2003-09-11,25.6387
2003-09-12,25.7124
2003-09-15,25.7533
2003-09-16,26.0727
2003-09-17,25.9498
2003-09-18,26.4002
2003-09-19,26.302
2003-09-22,25.7369
2003-09-23,25.7369
2003-09-24,25.4995
2003-09-25,25.1637
2003-09-26,24.8689
2003-09-29,25.4094
2003-09-30,25.4012
2003-10-01,26.0399
2003-10-02,25.9908
2003-10-03,26.0072
2003-10-06,26.1955
2003-10-07,26.1218
2003-10-08,25.999
2003-10-09,25.9908
2003-10-10,25.5486
2003-10-13,26.3511
2003-10-14,26.5722
2003-10-15,26.0891
2003-10-16,26.2938
2003-10-17,26.1054
2003-10-20,26.1955
2003-10-21,26.2037
2003-10-22,25.9335
2003-10-23,26.1382
2003-10-24,25.999
2003-10-27,25.827
2003-10-28,25.8925
2003-10-29,25.4667
2003-10-30,25.1883
2003-10-31,25.6469
2003-11-03,26.4002
2003-11-04,26.0891
2003-11-05,25.8315
2003-11-06,26.0557
2003-11-07,25.7069
2003-11-10,25.9394
2003-11-11,26.0557
2003-11-12,26.2551
2003-11-13,26.3963
2003-11-14,26.1969
2003-11-17,26.1637
2003-11-18,26.1637
2003-11-19,26.5125
2003-11-20,26.3381
2003-11-21,26.4793
2003-11-24,26.5209
2003-11-25,26.6371
2003-11-26,27.4677
2003-11-28,27.501
2003-12-01,27.775
2003-12-02,28.4063
2003-12-03,27.9495
2003-12-04,27.991
2003-12-05,28.0408
2003-12-08,28.3232
2003-12-09,27.6588
2003-12-10,27.2518
2003-12-11,27.6588
2003-12-12,27.8083
2003-12-15,27.1189
2003-12-16,27.393
2003-12-17,27.285
2003-12-18,27.4926
2003-12-19,27.4594
2003-12-22,27.3016
2003-12-23,27.3597
2003-12-24,27.3265
2003-12-26,27.2601
2003-12-29,27.6338
2003-12-30,27.6422
2003-12-31,27.4511
2004-01-02,27.3265
2004-01-05,26.9029
2004-01-06,27.0773
2004-01-07,27.0857
2004-01-08,27.0358
2004-01-09,26.9943
2004-01-12,26.8614
2004-01-13,27.3016
2004-01-14,28.3315
2004-01-15,28.3232
2004-01-16,29.1206
2004-01-20,29.3033
2004-01-21,29.9097
2004-01-22,29.8764
2004-01-23,29.6356
2004-01-26,29.9097
2004-01-27,29.5774
2004-01-28,29.0459
2004-01-29,29.1206
2004-01-30,28.9213
2004-02-02,29.4196
2004-02-03,29.6522
2004-02-04,29.4113
2004-02-05,29.3033
2004-02-06,29.7934
2004-02-09,29.6605
2004-02-10,30.001
2004-02-11,30.3914
2004-02-12,30.3167
2004-02-13,30.2834
2004-02-17,30.6323
2004-02-18,30.3167
2004-02-19,30.4911
2004-02-20,30.4413
2004-02-23,30.3167
2004-02-24,30.1672
2004-02-25,30.4662
2004-02-26,30.3084
2004-02-27,30.109
2004-03-01,30.1921
2004-03-02,30.1339
2004-03-03,30.3665
2004-03-04,30.1921
2004-03-05,30.4828
2004-03-08,30.325
2004-03-09,30.1505
2004-03-10,29.6522
2004-03-11,29.1538
2004-03-12,29.0874
2004-03-15,28.3648
2004-03-16,29.0043
2004-03-17,29.2618
2004-03-18,29.5608
2004-03-19,28.996
2004-03-22,28.9296
2004-03-23,28.697
2004-03-24,28.6306
2004-03-25,28.8797
2004-03-26,29.1206
2004-03-29,29.5276
2004-03-30,29.5608
2004-03-31,29.5442
2004-04-01,29.8349
2004-04-02,29.6522
2004-04-05,29.7602
2004-04-06,29.918
2004-04-07,29.8848
2004-04-08,29.8266
2004-04-12,30.1173
2004-04-13,29.3615
2004-04-14,29.0209
2004-04-15,28.8382
2004-04-16,29.2369
2004-04-19,29.0459
2004-04-20,28.5475
2004-04-21,28.4727
2004-04-22,29.1621
2004-04-23,29.2203
2004-04-26,29.2535
2004-04-27,29.5608
2004-04-28,29.1372
2004-04-29,29.1621
2004-04-30,29.403
2004-05-03,29.6356
2004-05-04,29.1788
2004-05-05,28.8797
2004-05-06,28.3482
2004-05-07,27.3597
2004-05-10,26.9528
2004-05-11,26.8531
2004-05-12,28.8133
2004-05-13,28.6555
2004-05-14,29.0043
2004-05-17,28.3648
2004-05-18,28.4894
2004-05-19,28.697
2004-05-20,28.6472
2004-05-21,28.8465
2004-05-24,28.6306
2004-05-25,28.888
2004-05-26,28.913
2004-05-27,29.0625
2004-05-28,29.0043
2004-06-01,29.0043
2004-06-02,29.3698
2004-06-03,29.295
2004-06-04,29.511
2004-06-07,29.8432
2004-06-08,29.8349
2004-06-09,29.6439
2004-06-10,29.6107
2004-06-14,29.0292
2004-06-15,29.1289
2004-06-16,29.2701
2004-06-17,29.2369
2004-06-18,29.1788
2004-06-21,29.0043
2004-06-22,28.6804
2004-06-23,28.8382
2004-06-24,28.6887
2004-06-25,28.7219
2004-06-28,28.6223
2004-06-29,29.0459
2004-06-30,28.8382
2004-07-01,29.2286
2004-07-02,29.3116
2004-07-06,29.4944
2004-07-07,29.511
2004-07-08,29.3283
2004-07-09,29.4528
2004-07-12,29.403
2004-07-13,29.3947
2004-07-14,29.2452
2004-07-15,28.9296
2004-07-16,28.5309
2004-07-19,28.5724
2004-07-20,28.7551
2004-07-21,28.2817
2004-07-22,28.1654
2004-07-23,27.9578
2004-07-26,28.099
2004-07-27,28.1239
2004-07-28,27.9661
2004-07-29,28.2236
2004-07-30,28.2402
2004-08-02,28.5392
2004-08-03,27.1936
2004-08-04,27.3764
2004-08-05,26.7534
2004-08-06,26.7285
2004-08-09,27.0192
2004-08-10,27.2933
2004-08-11,27.2933
2004-08-12,27.1189
2004-08-13,27.1438
2004-08-16,27.7834
2004-08-17,27.5425
2004-08-18,27.9578
2004-08-19,27.8664
2004-08-20,27.9827
2004-08-23,27.8332
2004-08-24,27.9412
2004-08-25,28.2319
2004-08-26,28.1571
2004-08-27,28.3232
2004-08-30,28.3482
2004-08-31,28.8133
2004-09-01,28.9462
2004-09-02,29.1704
2004-09-03,29.1372
2004-09-07,29.5525
2004-09-08,29.3947
2004-09-09,29.4612
2004-09-10,29.4196
2004-09-13,29.7436
2004-09-14,30.0675
2004-09-15,29.6605
2004-09-16,29.9429
2004-09-17,29.9263
2004-09-20,29.6605
2004-09-21,29.8183
2004-09-22,29.4778
2004-09-23,29.2452
2004-09-24,29.3366
2004-09-27,29.3947
2004-09-28,29.8432
2004-09-29,30.3167
2004-09-30,29.8764
2004-10-01,30.516
2004-10-04,30.6406
2004-10-05,30.4329
2004-10-06,30.4994
2004-10-07,30.2253
2004-10-08,30.0509
2004-10-11,30.2004
2004-10-12,30.3748
2004-10-13,29.9014
2004-10-14,29.295
2004-10-15,29.1621
2004-10-18,29.511
2004-10-19,28.5973
2004-10-20,29.2369
2004-10-21,29.2286
2004-10-22,29.4944
2004-10-25,29.619
2004-10-26,30.3167
2004-10-27,30.4828
2004-10-28,30.7735
2004-10-29,31.2552
2004-11-01,30.6157
2004-11-02,31.5542
2004-11-03,31.3715
2004-11-04,31.6788
2004-11-05,31.8283
2004-11-08,32.3765
2004-11-09,32.6792
2004-11-10,32.814
2004-11-11,33.2437
2004-11-12,32.6203
2004-11-15,32.9657
2004-11-16,32.6708
2004-11-17,32.6371
2004-11-18,32.6455
2004-11-19,32.2917
2004-11-22,32.5866
2004-11-23,32.5192
2004-11-24,32.5781
2004-11-26,32.2159
2004-11-29,31.8789
2004-11-30,31.7525
2004-12-01,32.5613
2004-12-02,32.6034
2004-12-03,32.7045
2004-12-06,32.7888
2004-12-07,32.5023
2004-12-08,32.7551
2004-12-09,32.7551
2004-12-10,32.8393
2004-12-13,32.9067
2004-12-14,32.8309
2004-12-15,33.5638
2004-12-16,33.6396
2004-12-17,33.6902
2004-12-20,33.5049
2004-12-21,33.7829
2004-12-22,34.1283
2004-12-23,34.1283
2004-12-27,34.044
2004-12-28,34.6759
2004-12-29,34.5916
2004-12-30,34.5327
2004-12-31,34.4653
2005-01-03,34.162
2005-01-04,34.1283
2005-01-05,33.7492
2005-01-06,33.5891
2005-01-07,33.4964
2005-01-10,33.6733
2005-01-11,33.5049
2005-01-12,33.9766
2005-01-13,33.7913
2005-01-14,33.9345
2005-01-18,34.6338
2005-01-19,34.2041
2005-01-20,33.6649
2005-01-21,33.6228
2005-01-24,33.6144
2005-01-25,33.6565
2005-01-26,34.0777
2005-01-27,33.6481
2005-01-28,33.4796
2005-01-31,34.162
2005-02-01,34.777
2005-02-02,34.8696
2005-02-03,34.996
2005-02-04,34.7938
2005-02-07,35.3246
2005-02-08,33.4543
2005-02-09,33.0078
2005-02-10,33.1763
2005-02-11,33.5049
2005-02-14,33.3616
2005-02-15,33.8671
2005-02-16,33.707
2005-02-17,33.269
2005-02-18,33.1847
2005-02-22,32.3675
2005-02-23,32.4855
2005-02-24,32.6118
2005-02-25,33.21
2005-02-28,32.8646
2005-03-01,32.7382
2005-03-02,32.6624
2005-03-03,32.5781
2005-03-04,32.7719
2005-03-07,32.7803
2005-03-08,32.6708
2005-03-09,32.6034
2005-03-10,32.8646
2005-03-11,32.2243
2005-03-14,32.536
2005-03-15,32.9488
2005-03-16,32.7803
2005-03-17,32.7803
2005-03-18,32.8477
2005-03-21,32.4265
2005-03-22,31.9463
2005-03-23,31.8705
2005-03-24,31.7104
2005-03-28,32.1738
2005-03-29,32.0221
2005-03-30,32.4181
2005-03-31,32.3759
2005-04-01,32.0811
2005-04-04,32.4939
2005-04-05,32.5444
2005-04-06,32.7298
2005-04-07,32.6708
2005-04-08,32.0811
2005-04-11,32.1653
2005-04-12,32.7466
2005-04-13,32.3928
2005-04-14,31.7357
2005-04-15,31.2639
2005-04-18,31.247
2005-04-19,31.3229
2005-04-20,31.0954
2005-04-21,31.761
2005-04-22,31.6683
2005-04-25,31.9463
2005-04-26,31.6514
2005-04-27,31.8283
2005-04-28,31.7947
2005-04-29,32.932
2005-05-02,32.0895
2005-05-03,32.7214
2005-05-04,33.7744
2005-05-05,33.8418
2005-05-06,33.7323
2005-05-09,33.8587
2005-05-10,33.2605
2005-05-11,33.5133
2005-05-12,33.151
2005-05-13,32.7551
2005-05-16,33.1257
2005-05-17,33.4375
2005-05-18,33.6565
2005-05-19,33.4459
2005-05-20,33.5554
2005-05-23,33.6312
2005-05-24,33.5975
2005-05-25,33.3027
2005-05-26,33.5133
2005-05-27,33.5049
2005-05-31,33.5975
2005-06-01,33.6902
2005-06-02,33.5638
2005-06-03,33.1679
2005-06-06,33.2268
2005-06-07,33.1342
2005-06-08,33.1426
2005-06-09,33.1931
2005-06-10,33.6144
2005-06-13,33.4627
2005-06-14,33.2774
2005-06-15,33.1931
2005-06-16,33.7323
2005-06-17,34.7349
2005-06-20,34.718
2005-06-21,34.7601
2005-06-22,34.9118
2005-06-23,34.8444
2005-06-24,34.7096
2005-06-27,35.2909
2005-06-28,35.2572
2005-06-29,35.3077
2005-06-30,35.3162
2005-07-01,35.6279
2005-07-05,36.0996
2005-07-06,35.9986
2005-07-07,36.167
2005-07-08,36.6725
2005-07-11,36.6894
2005-07-12,36.8579
2005-07-13,36.9842
2005-07-14,36.7736
2005-07-15,36.9758
2005-07-18,36.9505
2005-07-19,37.1106
2005-07-20,37.1949
2005-07-21,37.2201
2005-07-22,37.1106
2005-07-25,37.119
2005-07-26,36.8073
2005-07-27,37.3465
2005-07-28,37.5487
2005-07-29,37.1022
2005-08-01,37.0011
2005-08-02,37.456
2005-08-03,38.2227
2005-08-04,38.0626
2005-08-05,37.6077
2005-08-08,37.5992
2005-08-09,38.4249
2005-08-10,38.5344
2005-08-11,38.8882
2005-08-12,38.6944
2005-08-15,38.8545
2005-08-16,38.6692
2005-08-17,38.6776
2005-08-18,38.6102
2005-08-19,38.7534
2005-08-22,38.7534
2005-08-23,38.6692
2005-08-24,38.6186
2005-08-25,38.7787
2005-08-26,38.6944
2005-08-29,38.7871
2005-08-30,38.5933
2005-08-31,38.5849
2005-09-01,39.0988
2005-09-02,39.2083
2005-09-06,39.8065
2005-09-07,39.6296
2005-09-08,39.4105
2005-09-09,40.0761
2005-09-12,40.6405
2005-09-13,40.3457
2005-09-14,39.8149
2005-09-15,39.36
2005-09-16,39.6043
2005-09-19,39.4021
2005-09-20,39.3431
2005-09-21,38.745
2005-09-22,38.6776
2005-09-23,39.3853
2005-09-26,39.1241
2005-09-27,39.082
2005-09-28,39.1409
2005-09-29,39.8233
2005-09-30,39.9076
2005-10-03,39.7812
2005-10-04,39.7138
2005-10-05,39.3263
2005-10-06,39.6801
2005-10-07,39.3853
2005-10-10,39.3431
2005-10-11,39.2252
2005-10-12,38.9809
2005-10-13,39.1746
2005-10-14,39.8233
2005-10-17,39.8823
2005-10-18,39.8739
2005-10-19,40.6827
2005-10-20,40.194
2005-10-21,40.6827
2005-10-24,41.2387
2005-10-25,42.039
2005-10-26,42.3676
2005-10-27,41.4409
2005-10-28,41.7442
2005-10-31,41.82
2005-11-01,41.2724
2005-11-02,41.9042
2005-11-03,42.494
2005-11-04,42.4687
2005-11-07,42.8225
2005-11-08,42.7972
2005-11-09,42.7888
2005-11-10,43.724
2005-11-11,43.5218
2005-11-14,43.5133
2005-11-15,42.5236
2005-11-16,42.0117
2005-11-17,42.3615
2005-11-18,42.3701
2005-11-21,42.3701
2005-11-22,42.6687
2005-11-23,42.8735
2005-11-25,42.9161
2005-11-28,43.0868
2005-11-29,43.1635
2005-11-30,43.1977
2005-12-01,43.0014
2005-12-02,43.0441
2005-12-05,42.481
2005-12-06,42.0373
2005-12-07,42.1909
2005-12-08,42.097
2005-12-09,42.3786
2005-12-12,42.1824
2005-12-13,42.7113
2005-12-14,42.7199
2005-12-15,42.5151
2005-12-16,42.4469
2005-12-19,41.7558
2005-12-20,41.7046
2005-12-21,41.4913
2005-12-22,41.2097
2005-12-23,41.2012
2005-12-27,40.8002
2005-12-28,40.9111
2005-12-29,40.7404
2005-12-30,40.476
2006-01-03,40.6978
2006-01-04,40.6722
2006-01-05,40.4077
2006-01-06,40.3394
2006-01-09,40.7234
2006-01-10,41.0135
2006-01-11,40.9623
2006-01-12,40.6807
2006-01-13,40.6466
2006-01-17,40.4077
2006-01-18,39.9214
2006-01-19,39.6995
2006-01-20,39.2388
2006-01-23,39.5204
2006-01-24,40.4418
2006-01-25,39.9896
2006-01-26,40.2371
2006-01-27,40.2797
2006-01-30,40.749
2006-01-31,40.2541
2006-02-01,40.1517
2006-02-02,39.7251
2006-02-03,39.6654
2006-02-06,39.8787
2006-02-07,40.2115
2006-02-08,40.3565
2006-02-09,40.3992
2006-02-10,40.7831
2006-02-13,40.8087
2006-02-14,41.5169
2006-02-15,41.2268
2006-02-16,41.1244
2006-02-17,40.9367
2006-02-21,41.2353
2006-02-22,41.6192
2006-02-23,41.5254
2006-02-24,41.9861
2006-02-27,42.0373
2006-02-28,41.5595
2006-03-01,41.7643
2006-03-02,41.295
2006-03-03,41.0732
2006-03-06,40.7575
2006-03-07,41.1756
2006-03-08,41.2524
2006-03-09,41.0135
2006-03-10,41.4742
2006-03-13,41.4657
2006-03-14,41.9179
2006-03-15,42.3615
2006-03-16,42.6175
2006-03-17,42.7711
2006-03-20,42.9588
2006-03-21,42.4554
2006-03-22,42.5834
2006-03-23,42.3274
2006-03-24,42.4213
2006-03-27,42.208
2006-03-28,41.9435
2006-03-29,42.2847
2006-03-30,42.1482
2006-03-31,41.6875
2006-04-03,41.8667
2006-04-04,42.3957
2006-04-05,42.5492
2006-04-06,42.5578
2006-04-07,41.8752
2006-04-10,41.9691
2006-04-11,41.679
2006-04-12,41.9179
2006-04-13,41.6619
2006-04-17,41.5169
2006-04-18,42.754
2006-04-19,43.0953
2006-04-20,43.2745
2006-04-21,43.0868
2006-04-24,43.2489
2006-04-25,42.9417
2006-04-26,43.6328
2006-04-27,43.9485
2006-04-28,43.7267
2006-05-01,43.283
2006-05-02,44.5372
2006-05-03,44.5543
2006-05-04,45.1686
2006-05-05,45.7232
2006-05-08,45.4587
2006-05-09,45.2198
2006-05-10,45.3051
2006-05-11,46.0474
2006-05-12,45.1771
2006-05-15,45.544
2006-05-16,45.4075
2006-05-17,44.5457
2006-05-18,44.2215
2006-05-19,44.5201
2006-05-22,44.3836
2006-05-23,44.3836
2006-05-24,44.8614
2006-05-25,45.8255
2006-05-26,46.4313
2006-05-30,46.2095
2006-05-31,46.6617
2006-06-01,46.4484
2006-06-02,46.8238
2006-06-05,45.9962
2006-06-06,45.8426
2006-06-07,45.9279
2006-06-08,46.2351
2006-06-09,46.0132
2006-06-12,45.4331
2006-06-13,44.6481
2006-06-14,44.8614
2006-06-15,46.1498
2006-06-16,45.5952
2006-06-19,45.2027
2006-06-20,45.143
2006-06-21,45.5269
2006-06-22,45.2966
2006-06-23,45.3136
2006-06-26,46.0388
2006-06-27,46.0815
2006-06-28,45.9365
2006-06-29,46.9859
2006-06-30,47.4552
2006-07-03,47.8732
2006-07-05,47.9159
2006-07-06,47.9671
2006-07-07,47.3442
2006-07-10,47.3101
2006-07-11,47.3698
2006-07-12,46.5337
2006-07-13,45.8938
2006-07-14,45.6037
2006-07-17,45.7061
2006-07-18,45.7573
2006-07-19,46.2521
2006-07-20,46.1839
2006-07-21,45.9365
2006-07-24,46.3375
2006-07-25,46.2777
2006-07-26,46.1327
2006-07-27,45.7914
2006-07-28,46.0986
2006-07-31,46.0388
2006-08-01,45.1515
2006-08-02,45.4843
2006-08-03,45.4416
2006-08-04,45.2198
2006-08-07,44.9894
2006-08-08,45.3989
2006-08-09,45.288
2006-08-10,45.4928
2006-08-11,45.6549
2006-08-14,45.5781
2006-08-15,45.945
2006-08-16,46.0474
2006-08-17,46.2095
2006-08-18,45.7487
2006-08-21,45.7317
2006-08-22,45.4928
2006-08-23,45.2283
2006-08-24,45.3392
2006-08-25,45.1174
2006-08-28,45.5952
2006-08-29,45.3819
2006-08-30,45.3051
2006-08-31,45.4331
2006-09-01,45.3051
2006-09-05,45.2283
2006-09-06,45.3392
2006-09-07,45.143
2006-09-08,45.2795
2006-09-11,45.5866
2006-09-12,45.9109
2006-09-13,45.8511
2006-09-14,45.6378
2006-09-15,45.7146
2006-09-18,45.4928
2006-09-19,45.4843
2006-09-20,45.817
2006-09-21,45.689
2006-09-22,45.8511
2006-09-25,46.5337
2006-09-26,46.2948
2006-09-27,46.1498
2006-09-28,46.4569
2006-09-29,46.2948
2006-10-02,46.0815
2006-10-03,46.1668
2006-10-04,46.4484
2006-10-05,46.3801
2006-10-06,46.4569
2006-10-09,46.4142
2006-10-10,46.3545
2006-10-11,46.1498
2006-10-12,46.3119
2006-10-13,46.8067
2006-10-16,46.8323
2006-10-17,46.7641
2006-10-18,47.4466
2006-10-19,47.2845
2006-10-20,47.3613
2006-10-23,47.4978
2006-10-24,47.9841
2006-10-25,47.6941
2006-10-26,48.1633
2006-10-27,47.7708
2006-10-30,47.933
2006-10-31,48.1548
2006-11-01,47.7282
2006-11-02,47.9585
2006-11-03,47.8988
2006-11-06,48.6326
2006-11-07,49.4261
2006-11-08,50.1683
2006-11-09,49.281
2006-11-10,49.6735
2006-11-13,49.8612
2006-11-14,49.81
2006-11-15,50.1086
2006-11-16,50.6205
2006-11-17,50.5949
2006-11-20,50.5782
2006-11-21,50.1285
2006-11-22,50.042
2006-11-24,49.7825
2006-11-27,49.1944
2006-11-28,49.1425
2006-11-29,49.7825
2006-11-30,49.9123
2006-12-01,49.6096
2006-12-04,50.6215
2006-12-05,51.3134
2006-12-06,50.829
2006-12-07,50.3793
2006-12-08,50.3879
2006-12-11,50.362
2006-12-12,50.3188
2006-12-13,50.0161
2006-12-14,50.4831
2006-12-15,50.4831
2006-12-18,50.4831
2006-12-19,50.9069
2006-12-20,50.6647
2006-12-21,50.6734
2006-12-22,50.7512
2006-12-26,51.1058
2006-12-27,51.1144
2006-12-28,51.0626
2006-12-29,50.7253
2007-01-03,51.2701
2007-01-04,51.1836
2007-01-05,50.6734
2007-01-08,50.7253
2007-01-09,50.6993
2007-01-10,51.0539
2007-01-11,51.962
2007-01-12,52.1523
2007-01-16,52.2734
2007-01-17,52.3253
2007-01-18,52.3599
2007-01-19,52.3426
2007-01-22,52.0918
2007-01-23,52.2388
2007-01-24,52.9739
2007-01-25,52.1264
2007-01-26,52.0572
2007-01-29,52.5415
2007-01-30,52.9048
2007-01-31,53.3026
2007-02-01,54.1934
2007-02-02,54.2972
2007-02-05,53.8648
2007-02-06,54.5134
2007-02-07,54.9199
2007-02-08,55.041
2007-02-09,54.1934
2007-02-12,53.8907
2007-02-13,54.8853
2007-02-14,55.1967
2007-02-15,54.8161
2007-02-16,54.9199
2007-02-20,54.7037
2007-02-21,54.5307
2007-02-22,54.7383
2007-02-23,54.4183
2007-02-26,54.2021
2007-02-27,51.9447
2007-02-28,52.6193
2007-03-01,52.5674
2007-03-02,51.9534
2007-03-05,51.322
2007-03-06,51.5555
2007-03-07,51.3826
2007-03-08,51.5728
2007-03-09,52.2215
2007-03-12,52.282
2007-03-13,50.6734
2007-03-14,50.9934
2007-03-15,51.495
2007-03-16,51.028
2007-03-19,51.7458
2007-03-20,51.9966
2007-03-21,52.9307
2007-03-22,52.6107
2007-03-23,52.5761
2007-03-26,52.455
2007-03-27,52.2042
2007-03-28,51.5469
2007-03-29,51.7631
2007-03-30,51.7026
2007-04-02,51.7631
2007-04-03,52.3253
2007-04-04,52.3858
2007-04-05,52.4464
2007-04-09,52.161
2007-04-10,52.3858
2007-04-11,52.1264
2007-04-12,52.0226
2007-04-13,52.161
2007-04-16,52.9566
2007-04-17,53.9945
2007-04-18,54.3491
2007-04-19,53.8734
2007-04-20,54.7642
2007-04-23,54.4269
2007-04-24,54.3059
2007-04-25,55.214
2007-04-26,55.188
2007-04-27,55.4734
2007-04-30,54.9545
2007-05-01,52.7145
2007-05-02,53.4669
2007-05-03,54.081
2007-05-04,54.5221
2007-05-07,54.1069
2007-05-08,53.2939
2007-05-09,52.5415
2007-05-10,51.9274
2007-05-11,53.1037
2007-05-14,52.922
2007-05-15,52.4377
2007-05-16,52.6712
2007-05-17,53.0604
2007-05-18,53.3545
2007-05-21,53.2421
2007-05-22,52.9912
2007-05-23,52.8442
2007-05-24,52.6193
2007-05-25,52.8096
2007-05-29,52.8442
2007-05-30,52.6626
2007-05-31,52.602
2007-06-01,53.095
2007-06-04,53.2075
2007-06-05,52.7145
2007-06-06,52.1004
2007-06-07,50.4312
2007-06-08,51.0799
2007-06-11,51.2096
2007-06-12,50.708
2007-06-13,51.6766
2007-06-14,51.6161
2007-06-15,51.7372
2007-06-18,51.6939
2007-06-19,51.3739
2007-06-20,50.4744
2007-06-21,50.855
2007-06-22,49.7652
2007-06-25,49.402
2007-06-26,49.4971
2007-06-27,50.215
2007-06-28,50.5177
2007-06-29,50.4312
2007-07-02,51.8669
2007-07-03,51.9361
2007-07-05,51.962
2007-07-06,51.9101
2007-07-09,52.2215
2007-07-10,52.3339
2007-07-11,52.9307
2007-07-12,53.5361
2007-07-13,53.4842
2007-07-16,53.4669
2007-07-17,53.2334
2007-07-18,53.1815
2007-07-19,53.5188
2007-07-20,52.8615
2007-07-23,52.6885
2007-07-24,51.2788
2007-07-25,51.5036
2007-07-26,50.2323
2007-07-27,48.5285
2007-07-30,48.1652
2007-07-31,48.7447
2007-08-01,48.909
2007-08-02,48.4852
2007-08-03,45.6484
2007-08-06,48.5371
2007-08-07,47.7501
2007-08-08,48.8658
2007-08-09,45.7608
2007-08-10,48.2949
2007-08-13,49.1944
2007-08-14,47.1187
2007-08-15,45.9338
2007-08-16,46.963
2007-08-17,49.3414
2007-08-20,48.1739
2007-08-21,47.7587
2007-08-22,49.5577
2007-08-23,49.0301
2007-08-24,49.7306
2007-08-27,48.9004
2007-08-28,46.9976
2007-08-29,48.2603
2007-08-30,47.4474
2007-08-31,48.0182
2007-09-04,48.8571
2007-09-05,48.2257
2007-09-06,48.442
2007-09-07,47.7414
2007-09-10,47.3609
2007-09-11,48.1825
2007-09-12,48.1566
2007-09-13,49.2982
2007-09-14,49.8863
2007-09-17,49.6355
2007-09-18,52.7231
2007-09-19,52.2474
2007-09-20,51.9188
2007-09-21,51.7977
2007-09-24,51.3393
2007-09-25,51.7631
2007-09-26,52.5415
2007-09-27,53.8129
2007-09-28,54.4961
2007-10-01,55.9924
2007-10-02,55.4994
2007-10-03,54.6172
2007-10-04,54.2799
2007-10-05,55.5686
2007-10-08,55.3437
2007-10-09,56.0183
2007-10-10,55.8713
2007-10-11,56.5632
2007-10-12,56.5805
2007-10-15,55.5426
2007-10-16,54.721
2007-10-17,54.7383
2007-10-18,54.6259
2007-10-19,52.7577
2007-10-22,54.0031
2007-10-23,54.2713
2007-10-24,54.0637
2007-10-25,54.9286
2007-10-26,56.3124
2007-10-29,56.6237
2007-10-30,57.3675
2007-10-31,58.5611
2007-11-01,57.2724
2007-11-02,57.5405
2007-11-05,57.3416
2007-11-06,58.1286
2007-11-07,55.2313
2007-11-08,56.641
2007-11-09,56.7102
2007-11-12,57.7308
2007-11-13,58.267
2007-11-14,59.3357
2007-11-15,58.4679
2007-11-16,58.1173
2007-11-19,56.3554
2007-11-20,57.7579
2007-11-21,56.5219
2007-11-23,58.0647
2007-11-26,55.882
2007-11-27,58.0384
2007-11-28,61.3606
2007-11-29,56.3466
2007-11-30,57.2232
2007-12-03,56.0485
2007-12-04,55.3561
2007-12-05,56.9164
2007-12-06,58.0472
2007-12-07,58.3014
2007-12-10,59.2919
2007-12-11,57.53
2007-12-12,59.5987
2007-12-13,60.1685
2007-12-14,59.1604
2007-12-17,59.0728
2007-12-18,59.8704
2007-12-19,60.3087
2007-12-20,60.4139
2007-12-21,61.1853
2007-12-24,61.7025
2007-12-26,61.9392
2007-12-27,60.6681
2007-12-28,60.5805
2007-12-31,60.2649
2008-01-02,59.6776
2008-01-03,59.5899
2008-01-04,58.8974
2008-01-07,58.6958
2008-01-08,57.4686
2008-01-09,57.9069
2008-01-10,58.7572
2008-01-11,58.0822
2008-01-14,58.354
2008-01-15,57.4599
2008-01-16,57.0216
2008-01-17,55.1194
2008-01-18,52.551
2008-01-22,51.2011
2008-01-23,50.9556
2008-01-24,51.6569
2008-01-25,50.2544
2008-01-28,51.4377
2008-01-29,52.7175
2008-01-30,50.8417
2008-01-31,52.1653
2008-02-01,53.4889
2008-02-04,52.4809
2008-02-05,46.599
2008-02-06,47.3441
2008-02-07,48.7817
2008-02-08,48.2558
2008-02-11,47.686
2008-02-12,48.6853
2008-02-13,50.1755
2008-02-14,49.4216
2008-02-15,49.8248
2008-02-19,49.9037
2008-02-20,49.8687
2008-02-21,51.6832
2008-02-22,51.2887
2008-02-25,52.4458
2008-02-26,52.7351
2008-02-27,52.8666
2008-02-28,50.4823
2008-02-29,48.4311
2008-03-03,47.8964
2008-03-04,47.4756
2008-03-05,47.5808
2008-03-06,45.5471
2008-03-07,45.2929
2008-03-10,44.2673
2008-03-11,46.0205
2008-03-12,45.7224
2008-03-13,45.3192
2008-03-14,43.2855
2008-03-17,42.6281
2008-03-18,45.7838
2008-03-19,46.6165
2008-03-20,48.5626
2008-03-24,49.2551
2008-03-25,49.632
2008-03-26,48.0103
2008-03-27,48.396
2008-03-28,47.9577
2008-03-31,48.9132
2008-04-01,51.5605
2008-04-02,51.0608
2008-04-03,50.5436
2008-04-04,50.1404
2008-04-07,50.0703
2008-04-08,49.3865
2008-04-09,48.3609
2008-04-10,48.2382
2008-04-11,46.7217
2008-04-14,45.7926
2008-04-15,45.9328
2008-04-16,47.2565
2008-04-17,47.1776
2008-04-18,48.1856
2008-04-21,47.3441
2008-04-22,46.6516
2008-04-23,45.7663
2008-04-24,46.9233
2008-04-25,47.3967
2008-04-28,47.8613
2008-04-29,47.9577
2008-04-30,47.1425
2008-05-01,49.2463
2008-05-02,50.7014
2008-05-05,50.2456
2008-05-06,49.5443
2008-05-07,47.6334
2008-05-08,46.4325
2008-05-09,46.9847
2008-05-12,48.5976
2008-05-13,47.7649
2008-05-14,48.3171
2008-05-15,49.0973
2008-05-16,48.9132
2008-05-19,49.3865
2008-05-20,47.8175
2008-05-21,46.1695
2008-05-22,47.0285
2008-05-23,45.8452
2008-05-27,46.5903
2008-05-28,46.5026
2008-05-29,47.4756
2008-05-30,47.2126
2008-06-02,45.9942
2008-06-03,45.3981
2008-06-04,45.1614
2008-06-05,45.8452
2008-06-06,42.9612
2008-06-09,43.3206
2008-06-10,43.6186
2008-06-11,42.2862
2008-06-12,43.5397
2008-06-13,44.3374
2008-06-16,44.1095
2008-06-17,43.1979
2008-06-18,42.5141
2008-06-19,43.9342
2008-06-20,42.3038
2008-06-23,39.8581
2008-06-24,40.0159
2008-06-25,41.1467
2008-06-26,38.0962
2008-06-27,37.1582
2008-06-30,36.755
2008-07-01,35.9398
2008-07-02,36.2729
2008-07-03,36.4044
2008-07-07,35.0457
2008-07-08,36.606
2008-07-09,34.7564
2008-07-10,33.9149
2008-07-11,32.7315
2008-07-14,31.9689
2008-07-15,31.1186
2008-07-16,33.0821
2008-07-17,34.362
2008-07-18,34.8178
2008-07-21,33.6256
2008-07-22,36.0713
2008-07-23,37.1319
2008-07-24,36.0888
2008-07-25,36.2291
2008-07-28,34.7214
2008-07-29,36.8514
2008-07-30,37.5176
2008-07-31,37.2547
2008-08-01,36.7112
2008-08-04,37.579
2008-08-05,41.5149
2008-08-06,41.2869
2008-08-07,39.4987
2008-08-08,40.2175
2008-08-11,40.7172
2008-08-12,39.8669
2008-08-13,39.0341
2008-08-14,40.9363
2008-08-15,42.9437
2008-08-18,40.7522
2008-08-19,39.3848
2008-08-20,38.7799
2008-08-21,38.4994
2008-08-22,39.4198
2008-08-25,37.6491
2008-08-26,37.7193
2008-08-27,38.2627
2008-08-28,39.7354
2008-08-29,40.1386
2008-09-02,40.3753
2008-09-03,40.7084
2008-09-04,39.0341
2008-09-05,39.1218
2008-09-08,42.7245
2008-09-09,40.3578
2008-09-10,40.4104
2008-09-11,41.3395
2008-09-12,41.5762
2008-09-15,37.9296
2008-09-16,39.0341
2008-09-17,34.0551
2008-09-18,38.2627
2008-09-19,43.0664
2008-09-22,38.8939
2008-09-23,36.3343
2008-09-24,36.8777
2008-09-25,39.4023
2008-09-26,38.7624
2008-09-29,37.3862
2008-09-30,36.8164
2008-10-01,32.7841
2008-10-02,27.9016
2008-10-03,28.5152
2008-10-06,26.2711
2008-10-07,24.141
2008-10-08,19.2497
2008-10-09,14.7353
2008-10-10,16.4622
2008-10-13,20.1526
2008-10-14,21.5025
2008-10-15,19.1971
2008-10-16,19.2585
2008-10-17,18.601
2008-10-20,18.6273
2008-10-21,18.864
2008-10-22,16.2781
2008-10-23,16.5498
2008-10-24,17.2423
2008-10-27,15.9713
2008-10-28,19.2234
2008-10-29,18.3556
2008-10-30,17.593
2008-10-31,16.5674
2008-11-03,19.6354
2008-11-04,24.3952
2008-11-05,22.2827
2008-11-06,20.5909
2008-11-07,22.1512
2008-11-10,21.3097
2008-11-11,18.0313
2008-11-12,15.736
2008-11-13,16.7307
2008-11-14,15.0998
2008-11-17,13.4598
2008-11-18,12.7519
2008-11-19,10.4488
2008-11-20,8.50425
2008-11-21,8.96128
2008-11-24,11.1747
2008-11-25,11.4525
2008-11-26,12.1156
2008-11-28,12.3755
2008-12-01,10.6639
2008-12-02,12.4741
2008-12-03,12.725
2008-12-04,12.1694
2008-12-05,17.1788
2008-12-08,15.8704
2008-12-09,16.5515
2008-12-10,17.1788
2008-12-11,15.0818
2008-12-12,15.9421
2008-12-15,15.4134
2008-12-16,18.514
2008-12-17,18.1197
2008-12-18,16.9547
2008-12-19,18.1555
2008-12-22,17.2505
2008-12-23,17.0264
2008-12-24,17.0623
2008-12-26,17.4566
2008-12-29,17.0712
2008-12-30,19.3384
2008-12-31,20.369
2009-01-02,21.1486
2009-01-05,20.7454
2009-01-06,21.8834
2009-01-07,19.5804
2009-01-08,19.6342
2009-01-09,18.8008
2009-01-12,16.7128
2009-01-13,17.125
2009-01-14,15.1804
2009-01-15,14.822
2009-01-16,14.5979
2009-01-20,12.4651
2009-01-21,14.6158
2009-01-22,13.433
2009-01-23,14.1409
2009-01-26,13.8362
2009-01-27,14.7951
2009-01-28,18.4154
2009-01-29,15.978
2009-01-30,14.8668
2009-02-02,15.1983
2009-02-03,14.9026
2009-02-04,14.5442
2009-02-05,14.9384
2009-02-06,15.046
2009-02-09,15.3148
2009-02-10,10.8969
2009-02-11,10.404
2009-02-12,10.8431
2009-02-13,10.4399
2009-02-17,9.70506
2009-02-18,9.50791
2009-02-19,9.45415
2009-02-20,9.40038
2009-02-23,8.39672
2009-02-24,9.87533
2009-02-25,9.21219
2009-02-26,9.45415
2009-02-27,7.16902
2009-03-02,6.55069
2009-03-03,6.19224
2009-03-04,6.58654
2009-03-05,5.69041
2009-03-06,5.46638
2009-03-09,5.26923
2009-03-10,6.47004
2009-03-11,6.72096
2009-03-12,7.33032
2009-03-13,6.92707
2009-03-16,6.57758
2009-03-17,7.3124
2009-03-18,7.94865
2009-03-19,6.95395
2009-03-20,6.23705
2009-03-23,7.48267
2009-03-24,7.67085
2009-03-25,8.19061
2009-03-26,8.82686
2009-03-27,9.21219
2009-03-30,7.21383
2009-03-31,7.3124
2009-04-01,7.3124
2009-04-02,7.87696
2009-04-03,9.38246
2009-04-06,9.48999
2009-04-07,9.11362
2009-04-08,11.0044
2009-04-09,12.949
2009-04-13,13.2985
2009-04-14,11.6676
2009-04-15,12.501
2009-04-16,12.3128
2009-04-17,13.1372
2009-04-20,11.5511
2009-04-21,12.5099
2009-04-22,12.5816
2009-04-23,13.3792
2009-04-24,13.5853
2009-04-27,13.1014
2009-04-28,12.7609
2009-04-29,14.0602
2009-04-30,14.6158
2009-05-01,13.8093
2009-05-04,15.2342
2009-05-05,16.8024
2009-05-06,20.8708
2009-05-07,19.1592
2009-05-08,21.068
2009-05-11,18.1376
2009-05-12,17.6716
2009-05-13,16.6411
2009-05-14,16.8741
2009-05-15,16.5873
2009-05-18,18.3348
2009-05-19,18.4692
2009-05-20,18.1287
2009-05-21,18.1645
2009-05-22,18.3617
2009-05-26,18.6843
2009-05-27,18.3437
2009-05-28,19.5356
2009-05-29,19.8044
2009-06-01,20.1001
2009-06-02,19.9299
2009-06-03,18.7918
2009-06-04,19.3474
2009-06-05,19.9299
2009-06-08,19.7955
2009-06-09,19.7955
2009-06-10,19.4012
2009-06-11,19.0965
2009-06-12,18.7022
2009-06-15,17.4476
2009-06-16,17.0175
2009-06-17,16.4171
2009-06-18,16.7217
2009-06-19,17.0712
2009-06-22,15.6912
2009-06-23,16.2378
2009-06-24,16.9368
2009-06-25,17.5103
2009-06-26,17.1071
2009-06-29,17.1877
2009-06-30,16.8741
2009-07-01,17.0085
2009-07-02,15.9959
2009-07-06,16.5425
2009-07-07,15.8615
2009-07-08,15.6016
2009-07-09,15.736
2009-07-10,15.3327
2009-07-13,16.9368
2009-07-14,16.7576
2009-07-15,17.582
2009-07-16,17.6806
2009-07-17,17.7344
2009-07-20,18.2631
2009-07-21,18.4871
2009-07-22,18.4871
2009-07-23,20.3063
2009-07-24,20.5213
2009-07-27,21.1217
2009-07-28,20.4586
2009-07-29,20.2256
2009-07-30,20.826
2009-07-31,21.1845
2009-08-03,22.7527
2009-08-04,22.7348
2009-08-05,22.914
2009-08-06,22.1612
2009-08-07,23.0574
2009-08-10,22.672
2009-08-11,21.8566
2009-08-12,23.1022
2009-08-13,23.7384
2009-08-14,22.8602
2009-08-17,21.516
2009-08-18,22.1612
2009-08-19,22.3584
2009-08-20,23.2993
2009-08-21,24.8586
2009-08-24,25.0109
2009-08-25,25.0736
2009-08-26,25.1722
2009-08-27,25.692
2009-08-28,25.8622
2009-08-31,25.4142
2009-09-01,23.4875
2009-09-02,23.1918
2009-09-03,23.1201
2009-09-04,23.3262
2009-09-08,23.5771
2009-09-09,23.8728
2009-09-10,25.5307
2009-09-11,24.9482
2009-09-14,25.1095
2009-09-15,25.2887
2009-09-16,27.6366
2009-09-17,26.0684
2009-09-18,25.3604
2009-09-21,24.7152
2009-09-22,24.8944
2009-09-23,23.6847
2009-09-24,23.3352
2009-09-25,23.0932
2009-09-28,25.0557
2009-09-29,24.9303
2009-09-30,24.5181
2009-10-01,22.8333
2009-10-02,22.6362
2009-10-05,23.846
2009-10-06,24.4553
2009-10-07,24.5539
2009-10-08,25.2081
2009-10-09,25.3783
2009-10-12,25.5396
2009-10-13,24.8765
2009-10-14,26.3641
2009-10-15,26.5881
2009-10-16,25.8891
2009-10-19,26.3372
2009-10-20,25.5934
2009-10-21,25.2798
2009-10-22,26.3462
2009-10-23,25.3246
2009-10-26,24.2851
2009-10-27,23.837
2009-10-28,22.3942
2009-10-29,23.9176
2009-10-30,22.4659
2009-11-02,22.439
2009-11-03,22.4928
2009-11-04,22.5555
2009-11-05,22.8513
2009-11-06,22.9946
2009-11-09,23.9625
2009-11-10,23.5875
2009-11-11,23.9893
2009-11-12,23.2953
2009-11-13,23.4688
2009-11-16,24.4368
2009-11-17,24.7382
2009-11-18,24.6286
2009-11-19,23.9163
2009-11-20,23.5328
2009-11-23,23.8158
2009-11-24,23.7337
2009-11-25,23.8798
2009-11-27,22.8296
2009-11-30,23.204
2009-12-01,23.1675
2009-12-02,23.7337
2009-12-03,20.5284
2009-12-04,21.9895
2009-12-07,21.3594
2009-12-08,21.2315
2009-12-09,21.0489
2009-12-10,21.0489
2009-12-11,21.5511
2009-12-14,21.8068
2009-12-15,21.2589
2009-12-16,21.9347
2009-12-17,21.6333
2009-12-18,21.6059
2009-12-21,22.1173
2009-12-22,23.0122
2009-12-23,23.1401
2009-12-24,23.2497
2009-12-28,22.7839
2009-12-29,22.4826
2009-12-30,22.2269
2009-12-31,21.9895
2010-01-04,22.8205
2010-01-05,23.3866
2010-01-06,23.204
2010-01-07,23.3958
2010-01-08,23.4414
2010-01-11,23.5145
2010-01-12,23.1036
2010-01-13,23.2953
2010-01-14,23.4506
2010-01-15,23.0762
2010-01-19,23.5419
2010-01-20,23.0031
2010-01-21,21.7429
2010-01-22,21.3046
2010-01-25,21.6973
2010-01-26,21.3411
2010-01-27,21.9073
2010-01-28,21.1585
2010-01-29,21.0124
2010-02-01,21.2955
2010-02-02,21.9256
2010-02-03,21.3868
2010-02-04,20.6197
2010-02-05,20.5192
2010-02-08,20.2727
2010-02-09,19.5969
2010-02-10,19.9987
2010-02-11,20.2727
2010-02-12,20.1083
2010-02-16,20.8297
2010-02-17,20.8389
2010-02-18,20.9758
2010-02-19,20.8206
2010-02-22,20.985
2010-02-23,20.2818
2010-02-24,21.1859
2010-02-25,21.1311
2010-02-26,21.195
2010-03-01,21.1219
2010-03-02,21.7155
2010-03-03,21.8799
2010-03-04,22.0169
2010-03-05,22.6378
2010-03-08,22.7748
2010-03-09,22.857
2010-03-10,23.2405
2010-03-11,23.204
2010-03-12,23.3684
2010-03-15,23.6789
2010-03-16,24.5099
2010-03-17,25.3135
2010-03-18,25.3317
2010-03-19,25.0212
2010-03-22,25.0852
2010-03-23,25.6331
2010-03-24,26.1901
2010-03-25,26.6467
2010-03-26,26.6558
2010-03-29,26.7837
2010-03-30,26.2814
2010-03-31,26.665
2010-04-01,26.8293
2010-04-05,27.4321
2010-04-06,27.6603
2010-04-07,27.0485
2010-04-08,26.8659
2010-04-09,26.738
2010-04-12,26.5371
2010-04-13,26.5919
2010-04-14,27.2585
2010-04-15,27.3225
2010-04-16,26.5371
2010-04-19,27.0942
2010-04-20,27.5599
2010-04-21,27.4686
2010-04-22,27.0759
2010-04-23,28.3178
2010-04-26,28.0804
2010-04-27,26.318
2010-04-28,26.665
2010-04-29,27.6695
2010-04-30,26.7106
2010-05-03,27.6147
2010-05-04,26.9846
2010-05-05,26.8567
2010-05-06,25.8796
2010-05-07,25.3409
2010-05-10,27.5964
2010-05-11,27.3042
2010-05-12,27.9891
2010-05-13,27.5599
2010-05-14,26.3636
2010-05-17,26.7746
2010-05-18,26.0349
2010-05-19,25.7335
2010-05-20,23.8889
2010-05-21,23.9254
2010-05-24,23.6606
2010-05-25,23.825
2010-05-26,23.7793
2010-05-27,25.6605
2010-05-28,24.8477
2010-06-01,24.0624
2010-06-02,25.1856
2010-06-03,25.0121
2010-06-04,23.5967
2010-06-07,22.8479
2010-06-08,23.5054
2010-06-09,23.1036
2010-06-10,24.0807
2010-06-11,23.5145
2010-06-14,23.6241
2010-06-15,24.7016
2010-06-16,24.1355
2010-06-17,24.0989
2010-06-18,24.0533
2010-06-21,23.7702
2010-06-22,23.414
2010-06-23,23.2953
2010-06-24,22.6835
2010-06-25,23.2771
2010-06-28,23.2223
2010-06-29,21.8342
2010-06-30,21.3959
2010-07-01,21.1493
2010-07-02,21.0489
2010-07-06,20.9484
2010-07-07,21.9712
2010-07-08,22.373
2010-07-09,22.72
2010-07-12,22.4369
2010-07-13,23.2862
2010-07-14,23.1675
2010-07-15,23.0944
2010-07-16,21.7429
2010-07-19,22.0169
2010-07-20,22.3547
2010-07-21,22.1264
2010-07-22,23.1401
2010-07-23,23.3775
2010-07-26,23.3958
2010-07-27,23.2862
2010-07-28,22.7657
2010-07-29,23.6423
2010-07-30,23.4049
2010-08-02,23.8341
2010-08-03,22.6196
2010-08-04,22.5922
2010-08-05,22.4095
2010-08-06,21.9073
2010-08-09,22.3821
2010-08-10,22.1356
2010-08-11,20.9667
2010-08-12,20.8206
2010-08-13,20.9028
2010-08-16,20.8115
2010-08-17,21.0032
2010-08-18,21.0763
2010-08-19,20.7749
2010-08-20,20.4645
2010-08-23,20.0809
2010-08-24,19.6882
2010-08-25,20.0992
2010-08-26,20.1174
2010-08-27,21.2041
2010-08-30,20.5466
2010-08-31,21.058
2010-09-01,22.3365
2010-09-02,22.6378
2010-09-03,23.341
2010-09-07,22.6013
2010-09-08,22.9118
2010-09-09,23.2953
2010-09-10,23.2131
2010-09-13,23.8432
2010-09-14,23.7702
2010-09-15,23.688
2010-09-16,23.3501
2010-09-17,23.1766
2010-09-20,23.8524
2010-09-21,23.9437
2010-09-22,23.5145
2010-09-23,22.6835
2010-09-24,23.6515
2010-09-27,23.6515
2010-09-28,23.9893
2010-09-29,23.6971
2010-09-30,23.688
2010-10-01,23.6697
2010-10-04,23.4597
2010-10-05,24.245
2010-10-06,24.5007
2010-10-07,24.3911
2010-10-08,25.0121
2010-10-11,24.8477
2010-10-12,24.6834
2010-10-13,24.7108
2010-10-14,24.3364
2010-10-15,24.1902
2010-10-18,24.5464
2010-10-19,23.9711
2010-10-20,24.5281
2010-10-21,24.7016
2010-10-22,24.6925
2010-10-25,24.8751
2010-10-26,24.7473
2010-10-27,24.9117
2010-10-28,24.7747
2010-10-29,24.5099
2010-11-01,24.6468
2010-11-02,25.1308
2010-11-03,25.7061
2010-11-04,27.0394
2010-11-05,27.1946
2010-11-08,26.9115
2010-11-09,26.391
2010-11-10,26.7746
2010-11-11,26.3819
2010-11-12,25.8888
2010-11-15,26.0714
2010-11-16,25.4687
2010-11-17,25.8233
2010-11-18,26.5592
2010-11-19,26.8853
2010-11-22,26.5872
2010-11-23,25.5345
2010-11-24,26.0934
2010-11-26,25.7301
2010-11-29,25.7394
2010-11-30,25.4227
2010-12-01,26.1959
2010-12-02,27.4163
2010-12-03,27.6678
2010-12-06,27.9473
2010-12-07,27.733
2010-12-08,28.8602
2010-12-09,29.6334
2010-12-10,29.2515
2010-12-13,29.6148
2010-12-14,30.183
2010-12-15,30.2669
2010-12-16,30.1178
2010-12-17,29.7545
2010-12-20,29.7452
2010-12-21,30.714
2010-12-22,31.0587
2010-12-23,30.8072
2010-12-27,30.8724
2010-12-28,30.7606
2010-12-29,30.5743
2010-12-30,30.3414
2010-12-31,30.3507
2011-01-03,31.2916
2011-01-04,30.7699
2011-01-05,30.8072
2011-01-06,30.211
2011-01-07,30.2389
2011-01-10,30.1365
2011-01-11,30.1085
2011-01-12,30.9283
2011-01-13,30.565
2011-01-14,31.0215
2011-01-18,30.9749
2011-01-19,30.0526
2011-01-20,30.034
2011-01-21,30.1458
2011-01-24,30.1178
2011-01-25,30.3507
2011-01-26,30.891
2011-01-27,31.3196
2011-01-28,30.3135
2011-01-31,30.5184
2011-02-01,31.9437
2011-02-02,31.5804
2011-02-03,30.9749
2011-02-04,31.2357
2011-02-07,31.3196
2011-02-08,30.0526
2011-02-09,30.2762
2011-02-10,30.1737
2011-02-11,30.2855
2011-02-14,29.8849
2011-02-15,30.2948
2011-02-16,31.2823
2011-02-17,31.8133
2011-02-18,32.2791
2011-02-22,31.2544
2011-02-23,30.891
2011-02-24,31.1146
2011-02-25,31.6084
2011-02-28,31.9251
2011-03-01,31.2078
2011-03-02,30.8351
2011-03-03,31.3848
2011-03-04,30.8072
2011-03-07,30.4346
2011-03-08,31.3102
2011-03-09,31.2357
2011-03-10,29.9501
2011-03-11,30.1085
2011-03-14,30.0992
2011-03-15,29.0372
2011-03-16,28.6553
2011-03-17,29.2794
2011-03-18,29.5682
2011-03-21,29.857
2011-03-22,29.5403
2011-03-23,29.3446
2011-03-24,29.6241
2011-03-25,29.7173
2011-03-28,29.5403
2011-03-29,29.5309
2011-03-30,29.6148
2011-03-31,29.8943
2011-04-01,29.5775
2011-04-04,29.7731
2011-04-05,29.5403
2011-04-06,29.8849
2011-04-07,29.68
2011-04-08,29.5496
2011-04-11,29.7173
2011-04-12,29.2887
2011-04-13,29.1304
2011-04-14,28.8043
2011-04-15,29.2328
2011-04-18,28.4783
2011-04-19,28.7018
2011-04-20,29.3633
2011-04-21,29.652
2011-04-25,29.6893
2011-04-26,29.8197
2011-04-27,30.5091
2011-04-28,31.0028
2011-04-29,31.45
2011-05-02,31.2823
2011-05-03,29.6427
2011-05-04,29.2235
2011-05-05,29.0651
2011-05-06,29.2701
2011-05-09,29.4657
2011-05-10,29.8384
2011-05-11,29.5216
2011-05-12,29.7918
2011-05-13,28.9161
2011-05-16,28.8416
2011-05-17,29.0838
2011-05-18,29.5589
2011-05-19,29.6148
2011-05-20,29.4657
2011-05-23,29.1117
2011-05-24,28.8229
2011-05-25,28.8509
2011-05-26,28.7857
2011-05-27,28.8509
2011-05-31,29.1117
2011-06-01,27.9566
2011-06-02,28.2919
2011-06-03,27.8541
2011-06-06,27.2579
2011-06-07,27.3138
2011-06-08,26.9039
2011-06-09,26.8201
2011-06-10,26.3449
2011-06-13,26.5499
2011-06-14,27.2113
2011-06-15,26.2332
2011-06-16,26.5778
2011-06-17,27.0809
2011-06-20,27.3231
2011-06-21,28.0218
2011-06-22,27.6119
2011-06-23,27.4628
2011-06-24,27.0343
2011-06-27,27.3976
2011-06-28,27.5374
2011-06-29,28.1988
2011-06-30,28.4317
2011-07-01,28.7764
2011-07-05,28.1336
2011-07-06,27.9007
2011-07-07,28.7391
2011-07-08,28.1056
2011-07-11,26.8573
2011-07-12,26.848
2011-07-13,26.9598
2011-07-14,26.5592
2011-07-15,26.4195
2011-07-18,25.7301
2011-07-19,26.317
2011-07-20,26.5685
2011-07-21,27.2393
2011-07-22,27.0064
2011-07-25,26.7176
2011-07-26,26.4381
2011-07-27,25.5438
2011-07-28,25.6649
2011-07-29,25.786
2011-08-01,25.5531
2011-08-02,25.5717
2011-08-03,26.0655
2011-08-04,24.4445
2011-08-05,23.6434
2011-08-08,20.9977
2011-08-09,22.423
2011-08-10,20.6344
2011-08-11,22.451
2011-08-12,21.8734
2011-08-15,22.423
2011-08-16,22.0224
2011-08-17,22.1435
2011-08-18,20.8207
2011-08-19,20.122
2011-08-22,20.5692
2011-08-23,21.7989
2011-08-24,22.2833
2011-08-25,21.9759
2011-08-26,22.0318
2011-08-29,23.4757
2011-08-30,23.3173
2011-08-31,23.5316
2011-09-01,23.0658
2011-09-02,21.715
2011-09-06,21.1281
2011-09-07,22.8609
2011-09-08,22.1342
2011-09-09,21.4821
2011-09-12,21.8082
2011-09-13,22.2088
2011-09-14,23.2428
2011-09-15,23.9229
2011-09-16,23.7179
2011-09-19,22.8609
2011-09-20,22.8888
2011-09-21,21.6964
2011-09-22,21.1654
2011-09-23,21.3424
2011-09-26,22.274
2011-09-27,22.3205
2011-09-28,21.4542
2011-09-29,22.2274
2011-09-30,21.1281
2011-10-03,19.8426
2011-10-04,20.6064
2011-10-05,21.3424
2011-10-06,22.1156
2011-10-07,21.1188
2011-10-10,22.4323
2011-10-11,22.6186
2011-10-12,23.2428
2011-10-13,22.8515
2011-10-14,23.4105
2011-10-17,22.2274
2011-10-18,23.6061
2011-10-19,22.9074
2011-10-20,23.3266
2011-10-21,24.1557
2011-10-24,24.8265
2011-10-25,23.4105
2011-10-26,24.5097
2011-10-27,26.5219
2011-10-28,25.1432
2011-10-31,24.0812
2011-11-01,22.5534
2011-11-02,23.0658
2011-11-03,23.7365
2011-11-04,23.2428
2011-11-07,23.2521
2011-11-08,24.1424
2011-11-09,22.2831
2011-11-10,22.6856
2011-11-11,23.0402
2011-11-14,23.0402
2011-11-15,23.1456
2011-11-16,22.561
2011-11-17,21.8422
2011-11-18,22.7718
2011-11-21,22.053
2011-11-22,21.7463
2011-11-23,20.7975
2011-11-25,20.5387
2011-11-28,21.3438
2011-11-29,21.4396
2011-11-30,23.1169
2011-12-01,23.2127
2011-12-02,23.3373
2011-12-05,24.0657
2011-12-06,24.4395
2011-12-07,24.4778
2011-12-08,23.0402
2011-12-09,23.5769
2011-12-12,22.7718
2011-12-13,22.3693
2011-12-14,22.5035
2011-12-15,22.4843
2011-12-16,22.5418
2011-12-19,21.9764
2011-12-20,23.2415
2011-12-21,23.5098
2011-12-22,23.759
2011-12-23,23.9315
2011-12-27,23.6919
2011-12-28,23.2127
2011-12-29,23.7494
2011-12-30,23.6248
2012-01-03,24.2861
2012-01-04,23.9028
2012-01-05,23.9123
2012-01-06,23.4715
2012-01-09,23.8069
2012-01-10,24.8708
2012-01-11,24.9762
2012-01-12,25.1583
2012-01-13,24.9762
2012-01-17,25.3404
2012-01-18,25.6183
2012-01-19,25.8579
2012-01-20,25.9442
2012-01-23,26.155
2012-01-24,26.155
2012-01-25,26.1263
2012-01-26,26.04
2012-01-27,26.4617
2012-01-30,26.1646
2012-01-31,26.1934
2012-02-01,26.7301
2012-02-02,26.3467
2012-02-03,26.3467
2012-02-06,25.8292
2012-02-07,25.7717
2012-02-08,25.6183
2012-02-09,25.81
2012-02-10,25.1008
2012-02-13,25.4362
2012-02-14,25.3116
2012-02-15,25.3883
2012-02-16,26.203
2012-02-17,26.27
2012-02-21,26.2892
2012-02-22,25.9058
2012-02-23,26.7013
2012-02-24,26.7013
2012-02-27,26.3563
2012-02-28,26.4042
2012-02-29,26.5096
2012-03-01,26.8163
2012-03-02,26.4234
2012-03-05,26.385
2012-03-06,25.3883
2012-03-07,25.5896
2012-03-08,25.6569
2012-03-09,26.149
2012-03-12,26.2552
2012-03-13,27.1911
2012-03-14,27.5192
2012-03-15,28.5999
2012-03-16,28.1078
2012-03-19,28.0499
2012-03-20,27.8762
2012-03-21,27.9341
2012-03-22,27.8955
2012-03-23,28.1174
2012-03-26,28.5999
2012-03-27,28.4455
2012-03-28,28.4262
2012-03-29,28.0306
2012-03-30,28.4455
2012-04-02,28.8411
2012-04-03,28.1946
2012-04-04,28.0788
2012-04-05,28.3104
2012-04-09,27.2587
2012-04-10,26.3999
2012-04-11,26.4288
2012-04-12,27.442
2012-04-13,26.7473
2012-04-16,26.8824
2012-04-17,27.3841
2012-04-18,27.2394
2012-04-19,27.2973
2012-04-20,27.1525
2012-04-23,26.7955
2012-04-24,27.2297
2012-04-25,27.6832
2012-04-26,28.156
2012-04-27,26.7087
2012-04-30,26.699
2012-05-01,26.7955
2012-05-02,26.4674
2012-05-03,25.7824
2012-05-04,25.1938
2012-05-07,25.1455
2012-05-08,24.9332
2012-05-09,24.5473
2012-05-10,24.7306
2012-05-11,24.335
2012-05-14,23.7464
2012-05-15,23.4955
2012-05-16,23.1578
2012-05-17,22.7043
2012-05-18,22.6271
2012-05-21,23.2639
2012-05-22,23.3894
2012-05-23,23.2639
2012-05-24,23.5438
2012-05-25,23.5727
2012-05-29,24.1999
2012-05-30,23.7271
2012-05-31,23.9118
2012-06-01,22.6676
2012-06-04,22.6287
2012-06-05,22.8426
2012-06-06,23.5424
2012-06-07,23.8535
2012-06-08,24.0867
2012-06-11,23.9215
2012-06-12,24.4853
2012-06-13,24.2131
2012-06-14,24.5728
2012-06-15,24.6991
2012-06-18,24.427
2012-06-19,24.6991
2012-06-20,24.4367
2012-06-21,23.8729
2012-06-22,24.2034
2012-06-25,23.766
2012-06-26,24.0479
2012-06-27,24.5533
2012-06-28,24.67
2012-06-29,25.4767
2012-07-02,25.3893
2012-07-03,25.7683
2012-07-05,25.4476
2012-07-06,25.3212
2012-07-09,25.224
2012-07-10,24.6991
2012-07-11,25.1171
2012-07-12,24.6991
2012-07-13,25.3407
2012-07-16,25.1657
2012-07-17,25.4087
2012-07-18,25.3212
2012-07-19,25.4281
2012-07-20,24.8546
2012-07-23,24.6019
2012-07-24,24.4172
2012-07-25,24.3492
2012-07-26,24.9616
2012-07-27,24.3395
2012-07-30,24.4658
2012-07-31,24.913
2012-08-01,24.5825
2012-08-02,24.3298
2012-08-03,25.4379
2012-08-06,25.3407
2012-08-07,25.5837
2012-08-08,25.399
2012-08-09,25.3893
2012-08-10,25.4767
2012-08-13,25.6225
2012-08-14,25.6323
2012-08-15,25.5739
2012-08-16,25.9433
2012-08-17,25.7878
2012-08-20,25.642
2012-08-21,26.0308
2012-08-22,26.4488
2012-08-23,26.2932
2012-08-24,26.4779
2012-08-27,26.4099
2012-08-28,26.439
2012-08-29,26.7793
2012-08-30,26.5946
2012-08-31,26.7209
2012-09-04,26.7997
2012-09-05,26.9662
2012-09-06,27.4657
2012-09-07,27.7106
2012-09-10,27.1327
2012-09-11,27.4364
2012-09-12,27.5049
2012-09-13,28.1024
2012-09-14,28.504
2012-09-17,28.2689
2012-09-18,27.9163
2012-09-19,27.9261
2012-09-20,27.6812
2012-09-21,27.3384
2012-09-24,27.0152
2012-09-25,26.2707
2012-09-26,26.2511
2012-09-27,26.4177
2012-09-28,26.4177
2012-10-01,26.3785
2012-10-02,26.5842
2012-10-03,26.594
2012-10-04,27.2307
2012-10-05,27.1915
2012-10-08,27.2404
2012-10-09,26.6625
2012-10-10,26.545
2012-10-11,26.8388
2012-10-12,26.3883
2012-10-15,26.5744
2012-10-16,27.3286
2012-10-17,27.838
2012-10-18,27.9653
2012-10-19,27.5931
2012-10-22,27.838
2012-10-23,27.3776
2012-10-24,27.407
2012-10-25,27.7204
2012-10-26,27.0837
2012-10-31,27.025
2012-11-01,27.691
2012-11-02,27.6127
2012-11-05,27.6029
2012-11-06,27.7204
2012-11-07,26.4568
2012-11-08,26.0063
2012-11-09,26.0944
2012-11-12,26.0944
2012-11-13,25.9965
2012-11-14,25.6144
2012-11-15,25.7516
2012-11-16,25.7908
2012-11-19,26.1532
2012-11-20,26.2022
2012-11-21,26.2022
2012-11-23,26.6136
2012-11-26,27.0054
2012-11-27,26.7703
2012-11-28,26.2805
2012-11-29,26.3491
2012-11-30,26.6136
2012-12-03,26.7899
2012-12-04,27.1033
2012-12-05,27.2698
2012-12-06,27.2991
2012-12-07,27.2893
2012-12-10,27.3682
2012-12-11,27.3485
2012-12-12,27.6347
2012-12-13,27.2695
2012-12-14,27.1215
2012-12-17,27.4472
2012-12-18,28.3256
2012-12-19,27.763
2012-12-20,28.0492
2012-12-21,27.684
2012-12-24,27.7235
2012-12-26,27.763
2012-12-27,27.7531
2012-12-28,27.7334
2012-12-31,28.1084
2013-01-02,28.6612
2013-01-03,28.4638
2013-01-04,28.9671
2013-01-07,28.671
2013-01-08,28.7993
2013-01-09,28.9671
2013-01-10,29.2533
2013-01-11,28.7993
2013-01-14,28.7598
2013-01-15,28.7894
2013-01-16,28.6414
2013-01-17,29.1447
2013-01-18,29.1151
2013-01-22,29.8849
2013-01-23,29.9639
2013-01-24,30.1514
2013-01-25,30.3291
2013-01-28,30.3883
2013-01-29,30.5166
2013-01-30,30.3093
2013-01-31,30.5956
2013-02-01,30.1564
2013-02-04,29.9096
2013-02-05,30.3587
2013-02-06,30.2107
2013-02-07,30.1218
2013-02-08,30.4821
2013-02-11,30.6449
2013-02-12,30.793
2013-02-13,31.0446
2013-02-14,31.2173
2013-02-15,31.2766
2013-02-19,31.8489
2013-02-20,31.1976
2013-02-21,30.4772
2013-02-22,31.168
2013-02-25,30.3291
2013-02-26,30.413
2013-02-27,31.2371
2013-02-28,31.2173
2013-03-01,31.1285
2013-03-04,31.4937
2013-03-05,31.9674
2013-03-06,32.145
2013-03-07,32.473
2013-03-08,33.2086
2013-03-11,33.6559
2013-03-12,33.5962
2013-03-13,33.9441
2013-03-14,34.1131
2013-03-15,33.8845
2013-03-18,33.4273
2013-03-19,33.298
2013-03-20,33.4273
2013-03-21,33.1788
2013-03-22,33.3179
2013-03-25,33.1788
2013-03-26,33.5366
2013-03-27,33.3974
2013-03-28,33.8248
2013-04-01,33.4074
2013-04-02,33.7553
2013-04-03,33.1489
2013-04-04,33.467
2013-04-05,33.2782
2013-04-08,33.4074
2013-04-09,33.8845
2013-04-10,34.5604
2013-04-11,35.2363
2013-04-12,35.1866
2013-04-15,34.1827
2013-04-16,34.7393
2013-04-17,33.964
2013-04-18,33.3875
2013-04-19,34.123
2013-04-22,34.2622
2013-04-23,35.0474
2013-04-24,35.3456
2013-04-25,35.5742
2013-04-26,35.5345
2013-04-29,35.5842
2013-04-30,35.8625
2013-05-01,35.4152
2013-05-02,35.783
2013-05-03,36.4788
2013-05-06,36.767
2013-05-07,37.0056
2013-05-08,37.0453
2013-05-09,36.6179
2013-05-10,36.8068
2013-05-13,36.9161
2013-05-14,37.6119
2013-05-15,37.8504
2013-05-16,37.423
2013-05-17,37.8803
2013-05-20,37.8504
2013-05-21,37.92
2013-05-22,37.3037
2013-05-23,37.0155
2013-05-24,36.9559
2013-05-28,37.7958
2013-05-29,37.9995
2013-05-30,38.49
2013-05-31,37.87
2013-06-03,37.7
2013-06-04,37.61
2013-06-05,37.25
2013-06-06,37.78
2013-06-07,38.66
2013-06-10,38.69
2013-06-11,38.0
2013-06-12,38.04
2013-06-13,38.72
2013-06-14,38.04
2013-06-17,38.74
2013-06-18,38.84
2013-06-19,38.24
2013-06-20,37.29
2013-06-21,36.86
2013-06-24,36.12
2013-06-25,37.0
2013-06-26,37.47
2013-06-27,37.96
2013-06-28,37.54
2013-07-01,37.8
2013-07-02,37.26
2013-07-03,36.92
2013-07-05,37.88
2013-07-08,38.39
2013-07-09,38.65
2013-07-10,38.38
2013-07-11,38.86
2013-07-12,38.88
2013-07-15,38.78
2013-07-16,38.75
2013-07-17,39.46
2013-07-18,39.84
2013-07-19,39.69
2013-07-22,40.72
2013-07-23,40.42
2013-07-24,40.09
2013-07-25,40.38
2013-07-26,43.03
2013-07-29,42.56
2013-07-30,42.65
2013-07-31,43.45
2013-08-01,44.9
2013-08-02,44.35
2013-08-05,43.79
2013-08-06,43.4
2013-08-07,43.1
2013-08-08,43.12
2013-08-09,42.89
