date,close_price
1998-01-02,4.96924
1998-01-05,5.10837
1998-01-06,5.07914
1998-01-07,5.00548
1998-01-08,5.01366
1998-01-09,4.80087
1998-01-12,4.89674
1998-01-13,4.99846
1998-01-14,5.07914
1998-01-15,4.99145
1998-01-16,5.12241
1998-01-20,5.09317
1998-01-21,5.05692
1998-01-22,5.07914
1998-01-23,4.97625
1998-01-26,4.90376
1998-01-27,4.87452
1998-01-28,4.88856
1998-01-29,4.94001
1998-01-30,5.01366
1998-02-02,4.98443
1998-02-03,5.0429
1998-02-04,5.13059
1998-02-05,5.18904
1998-02-06,5.24751
1998-02-09,5.28376
1998-02-10,5.34222
1998-02-11,5.30597
1998-02-12,5.29077
1998-02-13,5.20308
1998-02-17,5.18904
1998-02-18,5.2253
1998-02-19,5.23932
1998-02-20,5.25453
1998-02-23,5.23231
1998-02-24,5.25453
1998-02-25,5.29779
1998-02-26,5.36444
1998-02-27,5.32702
1998-03-02,5.24751
1998-03-03,5.2253
1998-03-04,5.14462
1998-03-05,4.99846
1998-03-06,5.07213
1998-03-09,5.03471
1998-03-10,5.02766
1998-03-11,5.00542
1998-03-12,5.13772
1998-03-13,5.12952
1998-03-16,5.1588
1998-03-17,5.33443
1998-03-18,5.40116
1998-03-19,5.23959
1998-03-20,5.22553
1998-03-23,5.18105
1998-03-24,5.32038
1998-03-25,5.27588
1998-03-26,5.34965
1998-03-27,5.27588
1998-03-30,5.38595
1998-03-31,5.43746
1998-04-01,5.49601
1998-04-02,5.59084
1998-04-03,5.51825
1998-04-06,5.65641
1998-04-07,5.68569
1998-04-08,5.64237
1998-04-09,5.75242
1998-04-13,5.7372
1998-04-14,5.7372
1998-04-15,5.84024
1998-04-16,5.76647
1998-04-17,5.88356
1998-04-20,5.87654
1998-04-21,5.89059
1998-04-22,5.9421
1998-04-23,6.30858
1998-04-24,6.25004
1998-04-27,5.88356
1998-04-28,5.74423
1998-04-29,5.81097
1998-04-30,5.99362
1998-05-01,6.02992
1998-05-04,6.13296
1998-05-05,6.20555
1998-05-06,6.27931
1998-05-07,6.30039
1998-05-08,6.28633
1998-05-11,6.32966
1998-05-12,6.35893
1998-05-13,6.56382
1998-05-14,6.57203
1998-05-15,6.42567
1998-05-18,6.46196
1998-05-19,6.53455
1998-05-20,6.56382
1998-05-21,6.51349
1998-05-22,6.41045
1998-05-26,6.32263
1998-05-27,6.20555
1998-05-28,6.16925
1998-05-29,6.25004
1998-06-01,6.24185
1998-06-02,6.08846
1998-06-03,6.1915
1998-06-04,6.10251
1998-06-05,6.27814
1998-06-08,6.27814
1998-06-09,6.30858
1998-06-10,6.34609
1998-06-11,6.14206
1998-06-12,6.12799
1998-06-15,6.03887
1998-06-16,6.15613
1998-06-17,6.01072
1998-06-18,5.93568
1998-06-19,6.22884
1998-06-22,6.6838
1998-06-23,7.00744
1998-06-24,7.10828
1998-06-25,7.24196
1998-06-26,7.1669
1998-06-29,7.12469
1998-06-30,7.0215
1998-07-01,7.13877
1998-07-02,7.1669
1998-07-06,7.30058
1998-07-07,7.35921
1998-07-08,7.46006
1998-07-09,7.40143
1998-07-10,7.6078
1998-07-13,7.7532
1998-07-14,7.69458
1998-07-15,7.59374
1998-07-16,7.62188
1998-07-17,7.5351
1998-07-20,7.62188
1998-07-21,7.62188
1998-07-22,7.46006
1998-07-23,7.30058
1998-07-24,6.99101
1998-07-27,6.72836
1998-07-28,6.69787
1998-07-29,6.7565
1998-07-30,6.84561
1998-07-31,6.65566
1998-08-03,6.9488
1998-08-04,6.85969
1998-08-05,6.9488
1998-08-06,7.32873
1998-08-07,7.6078
1998-08-10,7.50461
1998-08-11,7.46006
1998-08-12,7.73914
1998-08-13,7.66644
1998-08-14,7.6805
1998-08-17,7.50461
1998-08-18,7.87047
1998-08-19,7.85639
1998-08-20,8.10498
1998-08-21,7.98773
1998-08-24,8.20817
1998-08-25,8.31136
1998-08-26,8.18003
1998-08-27,8.06277
1998-08-28,7.81184
1998-08-31,6.78699
1998-09-01,7.1669
1998-09-02,7.19739
1998-09-03,7.04965
1998-09-04,6.96288
1998-09-08,7.00744
1998-09-09,6.782
1998-09-10,6.39922
1998-09-11,6.41331
1998-09-14,6.64814
1998-09-15,6.54716
1998-09-16,6.50255
1998-09-17,6.39922
1998-09-18,6.26772
1998-09-21,6.20901
1998-09-22,6.11976
1998-09-23,6.35461
1998-09-24,6.32642
1998-09-25,6.09159
1998-09-28,5.96008
1998-09-29,5.94365
1998-09-30,5.81213
1998-10-01,5.51859
1998-10-02,5.75343
1998-10-05,5.59139
1998-10-06,5.56321
1998-10-07,5.00431
1998-10-08,4.7413
1998-10-09,4.75538
1998-10-12,4.82818
1998-10-13,4.90333
1998-10-14,5.19687
1998-10-15,5.49041
1998-10-16,5.54913
1998-10-19,5.60783
1998-10-20,5.84266
1998-10-21,5.75343
1998-10-22,5.97417
1998-10-23,5.75343
1998-10-26,5.91546
1998-10-27,5.70881
1998-10-28,5.82623
1998-10-29,5.84266
1998-10-30,6.03288
1998-11-02,6.03288
1998-11-03,5.63601
1998-11-04,5.79805
1998-11-05,6.20901
1998-11-06,6.66458
1998-11-09,6.95812
1998-11-10,6.44384
1998-11-11,6.01879
1998-11-12,6.01879
1998-11-13,6.16439
1998-11-16,5.92955
1998-11-17,6.04697
1998-11-18,5.82623
1998-11-19,6.00235
1998-11-20,6.01879
1998-11-23,6.09159
1998-11-24,6.11976
1998-11-25,6.22309
1998-11-27,5.94365
1998-11-30,5.97417
1998-12-01,5.82623
1998-12-02,6.23719
1998-12-03,6.31233
1998-12-04,6.50255
1998-12-07,6.73738
1998-12-08,6.57535
1998-12-09,6.61528
1998-12-10,6.76108
1998-12-11,6.61528
1998-12-14,6.40833
1998-12-15,6.46713
1998-12-16,6.34954
1998-12-17,6.24606
1998-12-18,6.33542
1998-12-21,6.4389
1998-12-22,6.59882
1998-12-23,6.67407
1998-12-24,6.55649
1998-12-28,6.39422
1998-12-29,6.5847
1998-12-30,6.65761
1998-12-31,6.52591
1999-01-04,6.85045
1999-01-05,7.20319
1999-01-06,7.32078
1999-01-07,7.01036
1999-01-08,6.98214
1999-01-11,7.02682
1999-01-12,7.04093
1999-01-13,7.06915
1999-01-14,6.92335
1999-01-15,6.81987
1999-01-19,6.81987
1999-01-20,6.73286
1999-01-21,6.39422
1999-01-22,6.5847
1999-01-25,6.67407
1999-01-26,6.83398
1999-01-27,6.7752
1999-01-28,6.92335
1999-01-29,7.08561
1999-02-01,7.1444
1999-02-02,6.80576
1999-02-03,6.29075
1999-02-04,6.23196
1999-02-05,5.93799
1999-02-08,6.11437
1999-02-09,6.01089
1999-02-10,5.8792
1999-02-11,5.85098
1999-02-12,5.68872
1999-02-16,5.70282
1999-02-17,5.76162
1999-02-18,5.8792
1999-02-19,5.85098
1999-02-22,5.83452
1999-02-23,5.71693
1999-02-24,5.52645
1999-02-25,5.55702
1999-02-26,5.64403
1999-03-01,5.65814
1999-03-02,5.65814
1999-03-03,5.65814
1999-03-04,5.61582
1999-03-05,5.83452
1999-03-08,5.45355
1999-03-09,5.40409
1999-03-10,5.38995
1999-03-11,5.40409
1999-03-12,5.38995
1999-03-15,5.34518
1999-03-16,5.38995
1999-03-17,5.35932
1999-03-18,5.33106
1999-03-19,5.30043
1999-03-22,4.94706
1999-03-23,4.80101
1999-03-24,4.87404
1999-03-25,4.9188
1999-03-26,5.05072
1999-03-29,5.03658
1999-03-30,5.18264
1999-03-31,4.93293
1999-04-01,4.66673
1999-04-05,4.8599
1999-04-06,4.9612
1999-04-07,4.80101
1999-04-08,4.8599
1999-04-09,4.90231
1999-04-12,4.8599
1999-04-13,4.71149
1999-04-14,5.07899
1999-04-15,5.88936
1999-04-16,6.03777
1999-04-19,5.93413
1999-04-20,5.55013
1999-04-21,5.56662
1999-04-22,5.52187
1999-04-23,5.75744
1999-04-26,5.50773
1999-04-27,5.52187
1999-04-28,5.536
1999-04-29,5.56662
1999-04-30,5.31457
1999-05-03,5.31457
1999-05-04,5.38995
1999-05-05,5.38995
1999-05-06,5.37346
1999-05-07,5.536
1999-05-10,5.60903
1999-05-11,5.50773
1999-05-12,5.49124
1999-05-13,5.63965
1999-05-14,5.40409
1999-05-17,5.35932
1999-05-18,5.28629
1999-05-19,5.41821
1999-05-20,5.5949
1999-05-21,5.4771
1999-05-24,5.44884
1999-05-25,5.25566
1999-05-26,5.30043
1999-05-27,5.09548
1999-05-28,5.60903
1999-06-01,5.58076
1999-06-02,5.33106
1999-06-03,5.49124
1999-06-04,5.4771
1999-06-07,5.37346
1999-06-08,5.52187
1999-06-09,5.5761
1999-06-10,5.39911
1999-06-11,5.23629
1999-06-14,5.28113
1999-06-15,5.20561
1999-06-16,5.4581
1999-06-17,5.61857
1999-06-18,5.3236
1999-06-21,5.39911
1999-06-22,5.36843
1999-06-23,5.29528
1999-06-24,5.08762
1999-06-25,5.19145
1999-06-28,5.30944
1999-06-29,5.25045
1999-06-30,5.47226
1999-07-01,5.48642
1999-07-02,5.51709
1999-07-06,5.47226
1999-07-07,5.41327
1999-07-08,5.55958
1999-07-09,5.5761
1999-07-12,5.55958
1999-07-13,5.47226
1999-07-14,5.42742
1999-07-15,5.44158
1999-07-16,5.4581
1999-07-19,5.44158
1999-07-20,5.42742
1999-07-21,5.22212
1999-07-22,5.14661
1999-07-23,5.17729
1999-07-26,4.89649
1999-07-27,5.25045
1999-07-28,5.4581
1999-07-29,5.50058
1999-07-30,5.34012
1999-08-02,5.50058
1999-08-03,5.5761
1999-08-04,5.42742
1999-08-05,5.69408
1999-08-06,5.50058
1999-08-09,5.26461
1999-08-10,5.3236
1999-08-11,5.17729
1999-08-12,5.19145
1999-08-13,5.44158
1999-08-16,5.39911
1999-08-17,5.39911
1999-08-18,5.36843
1999-08-19,5.35428
1999-08-20,5.36843
1999-08-23,5.47226
1999-08-24,5.30944
1999-08-25,5.60441
1999-08-26,5.53126
1999-08-27,5.39911
1999-08-30,5.42742
1999-08-31,5.44158
1999-09-01,5.42742
1999-09-02,5.38259
1999-09-03,5.60441
1999-09-07,5.35428
1999-09-08,5.36368
1999-09-09,5.39205
1999-09-10,5.52678
1999-09-13,5.56934
1999-09-14,5.52678
1999-09-15,5.43696
1999-09-16,5.46769
1999-09-17,5.40859
1999-09-20,5.42278
1999-09-21,5.24548
1999-09-22,4.97836
1999-09-23,4.91927
1999-09-24,4.86017
1999-09-27,4.78689
1999-09-28,4.8318
1999-09-29,4.93582
1999-09-30,5.12729
1999-10-01,4.75852
1999-10-04,4.8318
1999-10-05,4.75852
1999-10-06,4.64033
1999-10-07,4.6687
1999-10-08,4.6687
1999-10-11,4.71361
1999-10-12,4.80108
1999-10-13,4.87672
1999-10-14,4.84599
1999-10-15,4.75852
1999-10-18,4.71361
1999-10-19,4.47722
1999-10-20,4.44649
1999-10-21,4.22665
1999-10-22,4.16755
1999-10-25,3.99025
1999-10-26,4.19591
1999-10-27,4.28574
1999-10-28,4.46304
1999-10-29,4.75852
1999-11-01,4.87672
1999-11-02,4.99491
1999-11-03,4.96418
1999-11-04,5.09656
1999-11-05,5.2904
1999-11-08,5.27385
1999-11-09,4.99491
1999-11-10,5.08238
1999-11-11,5.06819
1999-11-12,5.05401
1999-11-15,5.27385
1999-11-16,5.45114
1999-11-17,5.12729
1999-11-18,5.05401
1999-11-19,5.06819
1999-11-22,4.99491
1999-11-23,4.91927
1999-11-24,4.75852
1999-11-26,4.84599
1999-11-29,4.80108
1999-11-30,4.74197
1999-12-01,4.6687
1999-12-02,4.71361
1999-12-03,4.80108
1999-12-06,4.75852
1999-12-07,4.75852
1999-12-08,4.72303
1999-12-09,4.63302
1999-12-10,4.70881
1999-12-13,4.63302
1999-12-14,4.86988
1999-12-15,4.75145
1999-12-16,4.67803
1999-12-17,4.78224
1999-12-20,4.82725
1999-12-21,4.98831
1999-12-22,4.9291
1999-12-23,4.94568
1999-12-27,4.90068
1999-12-28,4.95989
1999-12-29,5.06411
1999-12-30,5.22518
1999-12-31,5.32939
2000-01-03,4.98831
2000-01-04,4.76803
2000-01-05,4.67803
2000-01-06,4.6496
2000-01-07,4.72303
2000-01-10,4.6496
2000-01-11,4.44116
2000-01-12,4.30852
2000-01-13,4.48617
2000-01-14,4.47195
2000-01-18,4.44116
2000-01-19,4.2493
2000-01-20,4.27773
2000-01-21,4.35353
2000-01-24,4.21851
2000-01-25,4.02665
2000-01-26,4.13087
2000-01-27,4.26352
2000-01-28,4.2043
2000-01-31,4.11666
2000-02-01,4.08587
2000-02-02,4.02665
2000-02-03,4.10008
2000-02-04,4.05744
2000-02-07,3.92244
2000-02-08,4.21851
2000-02-09,4.17587
2000-02-10,4.13087
2000-02-11,4.17587
2000-02-14,4.15929
2000-02-15,4.39616
2000-02-16,4.19009
2000-02-17,4.17587
2000-02-18,4.2043
2000-02-22,4.10008
2000-02-23,4.05744
2000-02-24,3.99823
2000-02-25,3.86322
2000-02-28,3.8798
2000-02-29,3.95323
2000-03-01,4.05744
2000-03-02,3.92244
2000-03-03,3.92244
2000-03-06,3.84901
2000-03-07,3.77558
2000-03-08,3.70215
2000-03-09,3.83479
2000-03-10,3.76136
2000-03-13,3.82059
2000-03-14,3.71636
2000-03-15,4.08203
2000-03-16,4.5712
2000-03-17,4.48335
2000-03-20,4.58545
2000-03-21,4.5712
2000-03-22,4.51184
2000-03-23,4.63057
2000-03-24,4.58545
2000-03-27,4.60208
2000-03-28,4.49759
2000-03-29,4.70419
2000-03-30,4.85379
2000-03-31,4.9274
2000-04-03,4.95827
2000-04-04,4.85379
2000-04-05,5.09125
2000-04-06,5.09125
2000-04-07,5.1055
2000-04-10,5.04614
2000-04-11,5.1055
2000-04-12,5.35722
2000-04-13,5.41658
2000-04-14,5.06038
2000-04-17,5.16487
2000-04-18,5.1055
2000-04-19,5.15062
2000-04-20,5.22423
2000-04-24,5.19573
2000-04-25,5.22423
2000-04-26,5.2836
2000-04-27,5.17911
2000-04-28,5.1055
2000-05-01,5.16487
2000-05-02,5.19573
2000-05-03,5.13637
2000-05-04,5.19573
2000-05-05,5.20998
2000-05-08,5.06038
2000-05-09,5.25511
2000-05-10,5.09125
2000-05-11,5.34296
2000-05-12,5.37384
2000-05-15,5.29785
2000-05-16,5.4617
2000-05-17,5.19573
2000-05-18,5.15062
2000-05-19,5.077
2000-05-22,5.06038
2000-05-23,5.11974
2000-05-24,5.15062
2000-05-25,5.13637
2000-05-26,5.20998
2000-05-30,5.17911
2000-05-31,5.25511
2000-06-01,5.17911
2000-06-02,5.55193
2000-06-05,5.34296
2000-06-06,5.4617
2000-06-07,5.26935
2000-06-08,5.29785
2000-06-09,5.38808
2000-06-12,5.34296
2000-06-13,5.35722
2000-06-14,5.32391
2000-06-15,5.35245
2000-06-16,5.35245
2000-06-19,5.26444
2000-06-20,5.18831
2000-06-21,5.10029
2000-06-22,5.08602
2000-06-23,5.04082
2000-06-26,5.04082
2000-06-27,5.17404
2000-06-28,5.11457
2000-06-29,5.17404
2000-06-30,5.11457
2000-07-03,5.20497
2000-07-05,5.33818
2000-07-06,5.33818
2000-07-07,5.32391
2000-07-10,5.21923
2000-07-11,5.23351
2000-07-12,5.26444
2000-07-13,5.15976
2000-07-14,5.15976
2000-07-17,5.18831
2000-07-18,5.11457
2000-07-19,5.12884
2000-07-20,5.23351
2000-07-21,5.12884
2000-07-24,4.98135
2000-07-25,5.20497
2000-07-26,5.2787
2000-07-27,5.35245
2000-07-28,5.20497
2000-07-31,5.4714
2000-08-01,5.53087
2000-08-02,5.54514
2000-08-03,5.85915
2000-08-04,5.99237
2000-08-07,6.70603
2000-08-08,6.95819
2000-08-09,6.87017
2000-08-10,6.63229
2000-08-11,6.88445
2000-08-14,7.28647
2000-08-15,7.03193
2000-08-16,6.87017
2000-08-17,6.89871
2000-08-18,6.85352
2000-08-21,7.04859
2000-08-22,7.07713
2000-08-23,6.91299
2000-08-24,6.88445
2000-08-25,6.83924
2000-08-28,6.8107
2000-08-29,7.16753
2000-08-30,7.46488
2000-08-31,7.83599
2000-09-01,7.83599
2000-09-05,8.04295
2000-09-06,7.98348
2000-09-07,8.08815
2000-09-08,7.86454
2000-09-11,8.04295
2000-09-12,8.13335
2000-09-13,8.13335
2000-09-14,8.10243
2000-09-15,7.86454
2000-09-18,7.41969
2000-09-19,7.62666
2000-09-20,7.97916
2000-09-21,7.78623
2000-09-22,7.86007
2000-09-25,7.69573
2000-09-26,7.83149
2000-09-27,7.97916
2000-09-28,7.95058
2000-09-29,7.96487
2000-10-02,7.89104
2000-10-03,7.99345
2000-10-04,8.08396
2000-10-05,8.06967
2000-10-06,8.12922
2000-10-09,8.26261
2000-10-10,7.95058
2000-10-11,7.60759
2000-10-12,7.27891
2000-10-13,7.14552
2000-10-16,7.42895
2000-10-17,7.27891
2000-10-18,6.96688
2000-10-19,7.10026
2000-10-20,6.90734
2000-10-23,6.74298
2000-10-24,7.08597
2000-10-25,7.02643
2000-10-26,7.08597
2000-10-27,7.1598
2000-10-30,7.56234
2000-10-31,7.93391
2000-11-01,7.95058
2000-11-02,8.21734
2000-11-03,8.30786
2000-11-06,8.24831
2000-11-07,8.11255
2000-11-08,8.57462
2000-11-09,8.72468
2000-11-10,8.72468
2000-11-13,8.8271
2000-11-14,8.90331
2000-11-15,9.08195
2000-11-16,9.00573
2000-11-17,9.18437
2000-11-20,8.96286
2000-11-21,9.22963
2000-11-22,9.26059
2000-11-24,9.54164
2000-11-27,9.88463
2000-11-28,9.76554
2000-11-29,9.40827
2000-11-30,9.26059
2000-12-01,9.46781
2000-12-04,8.99145
2000-12-05,10.4063
2000-12-06,9.87034
2000-12-07,10.0181
2000-12-08,10.3753
2000-12-11,10.5706
2000-12-12,10.361
2000-12-13,10.1371
2000-12-14,9.89893
2000-12-15,10.0037
2000-12-18,10.1966
2000-12-19,9.87034
2000-12-20,9.29815
2000-12-21,9.43166
2000-12-22,9.78928
2000-12-26,10.2828
2000-12-27,9.80597
2000-12-28,10.1469
2000-12-29,10.0587
2001-01-02,9.61047
2001-01-03,10.073
2001-01-04,10.1636
2001-01-05,9.65577
2001-01-08,9.07404
2001-01-09,9.47696
2001-01-10,9.58185
2001-01-11,9.52225
2001-01-12,9.43166
2001-01-16,9.41735
2001-01-17,9.46265
2001-01-18,9.00013
2001-01-19,8.33018
2001-01-22,8.04647
2001-01-23,8.49469
2001-01-24,8.65682
2001-01-25,8.6282
2001-01-26,8.37549
2001-01-29,8.35641
2001-01-30,8.22528
2001-01-31,8.20144
2001-02-01,8.45893
2001-02-02,8.29442
2001-02-05,8.57098
2001-02-06,8.90477
2001-02-07,8.78317
2001-02-08,8.46846
2001-02-09,8.32303
2001-02-12,8.52806
2001-02-13,8.82132
2001-02-14,8.66873
2001-02-15,8.66158
2001-02-16,8.62344
2001-02-20,8.1776
2001-02-21,8.03932
2001-02-22,7.84382
2001-02-23,7.84859
2001-02-26,8.20382
2001-02-27,8.09415
2001-02-28,8.19191
2001-03-01,7.89865
2001-03-02,8.41363
2001-03-05,8.31827
2001-03-06,8.70927
2001-03-07,8.67827
2001-03-08,8.87854
2001-03-09,8.49708
2001-03-12,8.17283
2001-03-13,8.11799
2001-03-14,7.83428
2001-03-15,8.12992
2001-03-16,7.7862
2001-03-19,8.16573
2001-03-20,8.58105
2001-03-21,8.9558
2001-03-22,8.8293
2001-03-23,9.02742
2001-03-26,9.28281
2001-03-27,9.28043
2001-03-28,9.28997
2001-03-29,9.87478
2001-03-30,9.64325
2001-04-02,9.53821
2001-04-03,9.20882
2001-04-04,9.36875
2001-04-05,9.5048
2001-04-06,8.96774
2001-04-09,9.30908
2001-04-10,9.73872
2001-04-11,9.395
2001-04-12,9.54777
2001-04-16,9.48332
2001-04-17,9.45468
2001-04-18,10.1421
2001-04-19,10.1779
2001-04-20,10.2162
2001-04-23,10.1302
2001-04-24,10.6386
2001-04-25,11.2186
2001-04-26,11.8177
2001-04-27,11.8297
2001-04-30,11.1733
2001-05-01,10.0967
2001-05-02,10.2424
2001-05-03,10.1493
2001-05-04,10.4237
2001-05-07,10.7461
2001-05-08,10.8367
2001-05-09,10.7221
2001-05-10,11.0635
2001-05-11,10.6672
2001-05-14,10.5025
2001-05-15,10.7627
2001-05-16,10.7245
2001-05-17,10.8844
2001-05-18,10.6839
2001-05-21,10.1684
2001-05-22,10.2042
2001-05-23,10.1063
2001-05-24,10.0777
2001-05-25,9.58357
2001-05-29,9.39023
2001-05-30,9.5597
2001-05-31,9.64563
2001-06-01,9.80794
2001-06-04,9.94878
2001-06-05,10.0801
2001-06-06,9.84614
2001-06-07,9.95354
2001-06-08,10.0681
2001-06-11,9.7602
2001-06-12,9.57403
2001-06-13,9.72694
2001-06-14,9.42828
2001-06-15,9.34226
2001-06-18,9.47845
2001-06-19,9.4904
2001-06-20,10.1069
2001-06-21,10.1403
2001-06-22,9.69349
2001-06-25,9.93959
2001-06-26,10.4796
2001-06-27,10.5393
2001-06-28,10.4438
2001-06-29,10.212
2001-07-02,10.3673
2001-07-03,10.4318
2001-07-05,10.3863
2001-07-06,10.1403
2001-07-09,10.0017
2001-07-10,10.1738
2001-07-11,10.0973
2001-07-12,10.5011
2001-07-13,10.5249
2001-07-16,10.2908
2001-07-17,10.1809
2001-07-18,10.7543
2001-07-19,11.4807
2001-07-20,10.8643
2001-07-23,10.4891
2001-07-24,9.96348
2001-07-25,9.74844
2001-07-26,10.028
2001-07-27,9.78906
2001-07-30,9.93481
2001-07-31,9.93003
2001-08-01,9.65049
2001-08-02,9.65764
2001-08-03,9.30641
2001-08-06,8.89546
2001-08-07,8.64697
2001-08-08,8.51316
2001-08-09,8.56334
2001-08-10,8.57767
2001-08-13,8.15715
2001-08-14,8.39131
2001-08-15,8.38891
2001-08-16,8.68281
2001-08-17,8.60395
2001-08-20,8.60156
2001-08-21,8.5729
2001-08-22,8.60635
2001-08-23,8.83811
2001-08-24,9.09616
2001-08-27,8.91934
2001-08-28,8.66847
2001-08-29,8.79511
2001-08-30,8.92651
2001-08-31,8.99342
2001-09-04,9.175
2001-09-05,8.8166
2001-09-06,8.51795
2001-09-07,7.91344
2001-09-10,7.64823
2001-09-17,7.09868
2001-09-18,7.10824
2001-09-19,6.7996
2001-09-20,6.50053
2001-09-21,6.45986
2001-09-24,6.9934
2001-09-25,7.23265
2001-09-26,7.28289
2001-09-27,7.16087
2001-09-28,7.33552
2001-10-01,7.22786
2001-10-02,7.4384
2001-10-03,8.04611
2001-10-04,7.99348
2001-10-05,7.96237
2001-10-08,7.78054
2001-10-09,7.8236
2001-10-10,8.3715
2001-10-11,8.80933
2001-10-12,8.61792
2001-10-15,8.3715
2001-10-16,8.29972
2001-10-17,7.95759
2001-10-18,7.82599
2001-10-19,7.98151
2001-10-22,7.93127
2001-10-23,7.90256
2001-10-24,7.88103
2001-10-25,7.81403
2001-10-26,8.09157
2001-10-29,7.70159
2001-10-30,7.35706
2001-10-31,7.73747
2001-11-01,8.27819
2001-11-02,8.26144
2001-11-05,8.53179
2001-11-06,8.39782
2001-11-07,8.67296
2001-11-08,8.55572
2001-11-09,8.38585
2001-11-12,8.78062
2001-11-13,9.2352
2001-11-14,9.19214
2001-11-15,8.59161
2001-11-16,8.83086
2001-11-19,8.77105
2001-11-20,8.50548
2001-11-21,8.64903
2001-11-23,8.82368
2001-11-26,8.8189
2001-11-27,8.66099
2001-11-28,8.61314
2001-11-29,8.90264
2001-11-30,9.39311
2001-12-03,9.38354
2001-12-04,9.76635
2001-12-05,10.264
2001-12-06,10.1707
2001-12-07,10.1659
2001-12-10,9.89794
2001-12-11,9.98406
2001-12-12,10.4076
2001-12-13,10.4985
2001-12-14,10.2305
2001-12-17,10.3693
2001-12-18,10.5727
2001-12-19,10.769
2001-12-20,10.5247
2001-12-21,10.3307
2001-12-24,10.7019
2001-12-26,10.975
2001-12-27,10.8863
2001-12-28,11.0037
2001-12-31,10.7092
2002-01-02,10.575
2002-01-03,10.5726
2002-01-04,10.6229
2002-01-07,10.5726
2002-01-08,10.2829
2002-01-09,10.4098
2002-01-10,10.2565
2002-01-11,10.0553
2002-01-14,10.1296
2002-01-15,10.2829
2002-01-16,10.1105
2002-01-17,10.3332
2002-01-18,10.2398
2002-01-22,10.3476
2002-01-23,10.405
2002-01-24,10.963
2002-01-25,11.0683
2002-01-28,11.3197
2002-01-29,11.2049
2002-01-30,11.4491
2002-01-31,11.291
2002-02-01,11.2001
2002-02-04,11.4036
2002-02-05,11.3964
2002-02-06,11.1545
2002-02-07,11.0133
2002-02-08,10.939
2002-02-11,11.2312
2002-02-12,11.4179
2002-02-13,11.5377
2002-02-14,11.667
2002-02-15,11.6407
2002-02-19,11.6287
2002-02-20,11.3605
2002-02-21,11.3844
2002-02-22,11.2097
2002-02-25,11.7078
2002-02-26,12.213
2002-02-27,12.2992
2002-02-28,12.4046
2002-03-01,12.7398
2002-03-04,13.0847
2002-03-05,12.5554
2002-03-06,13.0032
2002-03-07,12.7255
2002-03-08,12.5315
2002-03-11,12.7231
2002-03-12,12.9506
2002-03-13,12.8452
2002-03-14,12.4618
2002-03-15,12.3108
2002-03-18,12.0065
2002-03-19,12.1406
2002-03-20,11.3594
2002-03-21,11.2036
2002-03-22,11.8723
2002-03-25,11.3594
2002-03-26,11.9561
2002-03-27,11.6087
2002-03-28,11.4409
2002-04-01,11.1629
2002-04-02,11.0239
2002-04-03,11.3067
2002-04-04,11.1413
2002-04-05,11.1413
2002-04-08,11.6829
2002-04-09,11.8723
2002-04-10,11.671
2002-04-11,11.508
2002-04-12,11.8482
2002-04-15,11.9346
2002-04-16,11.8363
2002-04-17,11.8363
2002-04-18,11.7787
2002-04-19,11.9993
2002-04-22,12.4761
2002-04-23,13.001
2002-04-24,13.001
2002-04-25,12.862
2002-04-26,12.548
2002-04-29,12.7254
2002-04-30,12.7709
2002-05-01,13.0993
2002-05-02,13.2406
2002-05-03,13.2622
2002-05-06,12.7542
2002-05-07,12.9171
2002-05-08,12.7901
2002-05-09,12.6798
2002-05-10,12.2844
2002-05-13,12.3348
2002-05-14,13.0537
2002-05-15,12.6079
2002-05-16,12.4162
2002-05-17,12.675
2002-05-20,12.6631
2002-05-21,12.3587
2002-05-22,12.445
2002-05-23,12.7853
2002-05-24,13.2574
2002-05-28,13.0897
2002-05-29,13.0633
2002-05-30,12.7853
2002-05-31,12.9914
2002-06-03,12.6559
2002-06-04,12.3467
2002-06-05,12.6344
2002-06-06,12.8357
2002-06-07,13.0106
2002-06-10,12.7997
2002-06-11,12.7254
2002-06-12,12.7494
2002-06-13,12.1379
2002-06-14,12.3129
2002-06-17,12.5911
2002-06-18,13.006
2002-06-19,13.4641
2002-06-20,13.9942
2002-06-21,14.0589
2002-06-24,14.0925
2002-06-25,13.5768
2002-06-26,13.8358
2002-06-27,13.9701
2002-06-28,13.8382
2002-07-01,13.8646
2002-07-02,13.1883
2002-07-03,12.783
2002-07-05,13.205
2002-07-08,13.0996
2002-07-09,12.9052
2002-07-10,12.4568
2002-07-11,12.0539
2002-07-12,11.7541
2002-07-15,11.6917
2002-07-16,11.1689
2002-07-17,11.1066
2002-07-18,10.9194
2002-07-19,10.2671
2002-07-22,9.76829
2002-07-23,10.5189
2002-07-24,11.097
2002-07-25,11.097
2002-07-26,11.0946
2002-07-29,12.0395
2002-07-30,11.8428
2002-07-31,11.4687
2002-08-01,11.3799
2002-08-02,10.4159
2002-08-05,10.4422
2002-08-06,10.9219
2002-08-07,10.8211
2002-08-08,11.296
2002-08-09,11.0298
2002-08-12,10.7827
2002-08-13,10.6413
2002-08-14,10.9651
2002-08-15,11.6869
2002-08-16,11.8548
2002-08-19,12.2314
2002-08-20,12.006
2002-08-21,11.7852
2002-08-22,12.3369
2002-08-23,12.1379
2002-08-26,12.3633
2002-08-27,11.97
2002-08-28,11.7277
2002-08-29,11.4759
2002-08-30,11.4424
2002-09-03,10.8331
2002-09-04,11.32
2002-09-05,11.2697
2002-09-06,11.308
2002-09-09,11.6318
2002-09-10,11.5958
2002-09-11,11.6437
2002-09-12,11.2433
2002-09-13,11.368
2002-09-16,11.5598
2002-09-17,11.4327
2002-09-18,11.2721
2002-09-19,10.4391
2002-09-20,10.6768
2002-09-23,10.3911
2002-09-24,9.99742
2002-09-25,10.2615
2002-09-26,10.6239
2002-09-27,10.4295
2002-09-30,10.2303
2002-10-01,10.4319
2002-10-02,10.2831
2002-10-03,9.85344
2002-10-04,9.39017
2002-10-07,8.9221
2002-10-08,9.26536
2002-10-09,8.78529
2002-10-10,9.25576
2002-10-11,9.73822
2002-10-14,9.69262
2002-10-15,10.3119
2002-10-16,10.0622
2002-10-17,11.0344
2002-10-18,10.9048
2002-10-21,11.5889
2002-10-22,11.1976
2002-10-23,11.4665
2002-10-24,11.0896
2002-10-25,11.1377
2002-10-28,10.696
2002-10-29,10.8736
2002-10-30,10.7608
2002-10-31,11.0248
2002-11-01,11.1904
2002-11-04,11.2792
2002-11-05,11.1713
2002-11-06,11.4472
2002-11-07,10.6623
2002-11-08,10.4415
2002-11-11,10.4559
2002-11-12,10.4007
2002-11-13,10.2975
2002-11-14,10.7488
2002-11-15,10.8664
2002-11-18,10.6456
2002-11-19,10.4391
2002-11-20,10.7535
2002-11-21,11.0488
2002-11-22,10.9912
2002-11-25,11.188
2002-11-26,10.9624
2002-11-27,11.4425
2002-11-29,11.2673
2002-12-02,11.1664
2002-12-03,10.5543
2002-12-04,10.804
2002-12-05,10.6744
2002-12-06,10.732
2002-12-09,10.6191
2002-12-10,10.6648
2002-12-11,10.7823
2002-12-12,11.1136
2002-12-13,10.8712
2002-12-16,11.3705
2002-12-17,11.4041
2002-12-18,11.5456
2002-12-19,11.8532
2002-12-20,11.9277
2002-12-23,11.8076
2002-12-24,11.7211
2002-12-26,11.774
2002-12-27,11.5577
2002-12-30,11.4592
2002-12-31,11.5049
2003-01-02,12.1775
2003-01-03,12.0502
2003-01-06,11.87
2003-01-07,12.0141
2003-01-08,12.2423
2003-01-09,12.449
2003-01-10,12.4802
2003-01-13,12.4274
2003-01-14,12.3841
2003-01-15,12.3408
2003-01-16,12.6484
2003-01-17,12.5499
2003-01-21,12.3937
2003-01-22,12.2183
2003-01-23,12.485
2003-01-24,12.3385
2003-01-27,11.9444
2003-01-28,12.1198
2003-01-29,12.3673
2003-01-30,11.9108
2003-01-31,12.0141
2003-02-03,12.1367
2003-02-04,12.0286
2003-02-05,12.1174
2003-02-06,11.7691
2003-02-07,11.6226
2003-02-10,12.0478
2003-02-11,12.055
2003-02-12,11.8796
2003-02-13,11.7138
2003-02-14,12.0382
2003-02-18,12.6964
2003-02-19,12.5499
2003-02-20,12.4201
2003-02-21,12.6051
2003-02-24,12.3649
2003-02-25,12.67
2003-02-26,12.4226
2003-02-27,12.3001
2003-02-28,12.204
2003-03-03,12.1943
2003-03-04,11.2502
2003-03-05,11.058
2003-03-06,11.1156
2003-03-07,11.2862
2003-03-10,11.0028
2003-03-11,10.9403
2003-03-12,11.1493
2003-03-13,11.5361
2003-03-14,11.7428
2003-03-17,12.0314
2003-03-18,11.9352
2003-03-19,12.0699
2003-03-20,12.3247
2003-03-21,12.7118
2003-03-24,12.3247
2003-03-25,12.4329
2003-03-26,12.3344
2003-03-27,12.2478
2003-03-28,12.2141
2003-03-31,12.1155
2003-04-01,12.2286
2003-04-02,12.7239
2003-04-03,12.7503
2003-04-04,12.57
2003-04-07,12.6854
2003-04-08,12.7791
2003-04-09,12.8609
2003-04-10,12.9859
2003-04-11,12.998
2003-04-14,13.2432
2003-04-15,13.3778
2003-04-16,13.3514
2003-04-17,13.5052
2003-04-21,13.4139
2003-04-22,13.7168
2003-04-23,13.8971
2003-04-24,13.9188
2003-04-25,13.5293
2003-04-28,13.9573
2003-04-29,14.0246
2003-04-30,13.9525
2003-05-01,13.7626
2003-05-02,13.9957
2003-05-05,13.8683
2003-05-06,13.8876
2003-05-07,14.14
2003-05-08,14.0414
2003-05-09,14.2458
2003-05-12,14.6209
2003-05-13,14.6473
2003-05-14,14.5415
2003-05-15,14.6473
2003-05-16,14.4694
2003-05-19,14.1953
2003-05-20,14.2746
2003-05-21,14.4646
2003-05-22,15.1523
2003-05-23,15.3134
2003-05-27,15.5225
2003-05-28,15.8087
2003-05-29,15.686
2003-05-30,15.7845
2003-06-02,15.7702
2003-06-03,15.7365
2003-06-04,16.1645
2003-06-05,16.4939
2003-06-06,15.9048
2003-06-09,15.5033
2003-06-10,15.977
2003-06-11,16.9297
2003-06-12,16.6217
2003-06-13,16.6049
2003-06-16,17.1654
2003-06-17,17.1029
2003-06-18,16.6289
2003-06-19,16.5471
2003-06-20,15.7508
2003-06-23,15.6089
2003-06-24,15.7219
2003-06-25,15.3899
2003-06-26,15.5175
2003-06-27,15.2168
2003-06-30,14.863
2003-07-01,15.2672
2003-07-02,15.4284
2003-07-03,15.26
2003-07-07,15.4885
2003-07-08,15.6257
2003-07-09,15.3947
2003-07-10,15.0026
2003-07-11,14.8727
2003-07-14,15.0868
2003-07-15,14.6105
2003-07-16,14.6441
2003-07-17,14.3458
2003-07-18,14.365
2003-07-21,14.0211
2003-07-22,14.4324
2003-07-23,14.4324
2003-07-24,14.7187
2003-07-25,14.9954
2003-07-28,14.9929
2003-07-29,14.9256
2003-07-30,15.1253
2003-07-31,14.7235
2003-08-01,14.5239
2003-08-04,14.7572
2003-08-05,14.5647
2003-08-06,15.3562
2003-08-07,15.2696
2003-08-08,15.7604
2003-08-11,15.5151
2003-08-12,15.758
2003-08-13,15.236
2003-08-14,15.4477
2003-08-15,15.527
2003-08-18,15.6474
2003-08-19,16.3114
2003-08-20,16.1382
2003-08-21,16.2801
2003-08-22,15.9673
2003-08-25,16.0443
2003-08-26,15.9818
2003-08-27,15.7893
2003-08-28,16.0539
2003-08-29,16.0468
2003-09-02,16.066
2003-09-03,16.5616
2003-09-04,16.7444
2003-09-05,16.2705
2003-09-08,16.4966
2003-09-09,16.0876
2003-09-10,15.3586
2003-09-11,15.6281
2003-09-12,15.8398
2003-09-15,16.1574
2003-09-16,16.5158
2003-09-17,16.5519
2003-09-18,16.6313
2003-09-19,16.5038
2003-09-22,16.1549
2003-09-23,16.1935
2003-09-24,16.1718
2003-09-25,16.1454
2003-09-26,15.972
2003-09-29,16.2128
2003-09-30,16.3957
2003-10-01,17.0577
2003-10-02,17.2358
2003-10-03,17.231
2003-10-06,17.7534
2003-10-07,17.7366
2003-10-08,17.9941
2003-10-09,17.9195
2003-10-10,17.9772
2003-10-13,18.4803
2003-10-14,18.5766
2003-10-15,18.1289
2003-10-16,18.2589
2003-10-17,18.1433
2003-10-20,18.5309
2003-10-21,18.7909
2003-10-22,18.7812
2003-10-23,20.4206
2003-10-24,20.1269
2003-10-27,20.5097
2003-10-28,21.0512
2003-10-29,21.2583
2003-10-30,20.8635
2003-10-31,20.8514
2003-11-03,21.304
2003-11-04,21.4845
2003-11-05,22.1441
2003-11-06,22.0696
2003-11-07,21.15
2003-11-10,20.772
2003-11-11,20.9069
2003-11-12,21.4557
2003-11-13,21.6555
2003-11-14,21.3184
2003-11-17,21.1163
2003-11-18,21.3233
2003-11-19,21.4244
2003-11-20,21.4918
2003-11-21,21.8529
2003-11-24,22.9626
2003-11-25,23.0468
2003-11-26,22.8567
2003-11-28,22.9988
2003-12-01,23.5764
2003-12-02,23.396
2003-12-03,22.9289
2003-12-04,22.5366
2003-12-05,22.6087
2003-12-08,22.8014
2003-12-09,21.7614
2003-12-10,20.4134
2003-12-11,21.0393
2003-12-12,21.1716
2003-12-15,20.7864
2003-12-16,21.2102
2003-12-17,21.783
2003-12-18,21.9301
2003-12-19,22.0144
2003-12-22,22.3421
2003-12-23,22.7953
2003-12-24,22.7904
2003-12-26,23.0386
2003-12-29,23.0676
2003-12-30,22.6844
2003-12-31,22.5494
2004-01-02,21.9325
2004-01-05,21.3951
2004-01-06,22.0361
2004-01-07,21.5397
2004-01-08,20.6865
2004-01-09,21.6602
2004-01-12,21.3807
2004-01-13,20.7878
2004-01-14,21.2023
2004-01-15,21.1975
2004-01-16,21.371
2004-01-20,21.1397
2004-01-21,21.9782
2004-01-22,21.9976
2004-01-23,21.9109
2004-01-26,21.9204
2004-01-27,21.7614
2004-01-28,20.9324
2004-01-29,20.6432
2004-01-30,20.7588
2004-02-02,20.9902
2004-02-03,21.3179
2004-02-04,20.8215
2004-02-05,20.9227
2004-02-06,21.6842
2004-02-09,21.6264
2004-02-10,21.53
2004-02-11,22.3831
2004-02-12,22.629
2004-02-13,22.1807
2004-02-17,22.8169
2004-02-18,22.5084
2004-02-19,22.5567
2004-02-20,22.1132
2004-02-23,22.0361
2004-02-24,22.359
2004-02-25,22.7157
2004-02-26,24.2195
2004-02-27,25.4292
2004-03-01,26.5716
2004-03-02,26.0462
2004-03-03,25.8919
2004-03-04,26.5282
2004-03-05,27.815
2004-03-08,27.3042
2004-03-09,27.1933
2004-03-10,26.6486
2004-03-11,26.292
2004-03-12,27.1122
2004-03-15,26.7889
2004-03-16,26.8226
2004-03-17,26.5091
2004-03-18,26.6442
2004-03-19,26.3692
2004-03-22,26.0942
2004-03-23,26.0749
2004-03-24,25.9398
2004-03-25,26.2727
2004-03-26,26.2438
2004-03-29,26.1473
2004-03-30,26.8709
2004-03-31,26.7745
2004-04-01,26.7551
2004-04-02,25.5105
2004-04-05,24.8351
2004-04-06,25.2548
2004-04-07,24.9315
2004-04-08,24.4057
2004-04-12,24.0005
2004-04-13,23.494
2004-04-14,23.3395
2004-04-15,23.3348
2004-04-16,23.3975
2004-04-19,23.1563
2004-04-20,22.6063
2004-04-21,22.8426
2004-04-22,23.8461
2004-04-23,23.2768
2004-04-26,23.6339
2004-04-27,25.1438
2004-04-28,24.0922
2004-04-29,23.6869
2004-04-30,23.7255
2004-05-03,23.9329
2004-05-04,23.7014
2004-05-05,23.7737
2004-05-06,23.301
2004-05-07,22.5532
2004-05-10,22.0033
2004-05-11,22.259
2004-05-12,22.5726
2004-05-13,22.7221
2004-05-14,23.2286
2004-05-17,23.0598
2004-05-18,23.2335
2004-05-19,22.3458
2004-05-20,22.5822
2004-05-21,23.0404
2004-05-24,24.0053
2004-05-25,25.2741
2004-05-26,24.8882
2004-05-27,25.2982
2004-05-28,25.443
2004-06-01,25.332
2004-06-02,25.1631
2004-06-03,24.9798
2004-06-04,24.8882
2004-06-07,26.3595
2004-06-08,26.0171
2004-06-09,25.2211
2004-06-10,25.2258
2004-06-14,24.396
2004-06-15,24.5795
2004-06-16,24.4781
2004-06-17,24.6423
2004-06-18,24.7775
2004-06-21,24.5071
2004-06-22,24.8259
2004-06-23,25.6709
2004-06-24,25.951
2004-06-25,25.5598
2004-06-28,24.5747
2004-06-29,24.2753
2004-06-30,25.13
2004-07-01,24.9658
2004-07-02,25.555
2004-07-06,24.821
2004-07-07,25.101
2004-07-08,23.5993
2004-07-09,24.1352
2004-07-12,24.2898
2004-07-13,24.9128
2004-07-14,24.9031
2004-07-15,25.101
2004-07-16,25.5454
2004-07-19,25.1156
2004-07-20,24.8693
2004-07-21,24.4251
2004-07-22,24.7148
2004-07-23,24.4395
2004-07-26,24.3043
2004-07-27,25.8254
2004-07-28,25.6564
2004-07-29,26.4098
2004-07-30,26.4001
2004-08-02,27.1872
2004-08-03,26.7333
2004-08-04,26.9989
2004-08-05,26.9071
2004-08-06,27.3127
2004-08-09,26.8637
2004-08-10,27.1582
2004-08-11,26.9796
2004-08-12,26.7187
2004-08-13,27.2837
2004-08-16,28.404
2004-08-17,28.5297
2004-08-18,28.7421
2004-08-19,28.2206
2004-08-20,28.3607
2004-08-23,29.4907
2004-08-24,28.7904
2004-08-25,28.5635
2004-08-26,28.6842
2004-08-27,28.6601
2004-08-30,28.1095
2004-08-31,28.4621
2004-09-01,28.9401
2004-09-02,28.8918
2004-09-03,28.9063
2004-09-07,30.3116
2004-09-08,29.65
2004-09-09,29.8672
2004-09-10,29.8431
2004-09-13,29.7949
2004-09-14,29.7514
2004-09-15,29.6355
2004-09-16,29.988
2004-09-17,30.2247
2004-09-20,29.8672
2004-09-21,30.7365
2004-09-22,30.611
2004-09-23,30.0794
2004-09-24,29.9392
2004-09-27,30.1276
2004-09-28,29.4849
2004-09-29,29.2626
2004-09-30,29.6637
2004-10-01,29.8328
2004-10-04,27.2473
2004-10-05,25.377
2004-10-06,25.7926
2004-10-07,24.4346
2004-10-08,24.4733
2004-10-11,24.2993
2004-10-12,24.309
2004-10-13,23.7677
2004-10-14,23.6276
2004-10-15,23.5792
2004-10-18,23.7677
2004-10-19,23.3521
2004-10-20,23.2796
2004-10-21,23.3762
2004-10-22,22.9558
2004-10-25,24.8019
2004-10-26,26.2808
2004-10-27,26.5562
2004-10-28,26.5514
2004-10-29,26.5321
2004-11-01,26.8463
2004-11-02,27.1555
2004-11-03,27.2087
2004-11-04,26.8945
2004-11-05,26.6336
2004-11-08,27.0444
2004-11-09,27.344
2004-11-10,27.3682
2004-11-11,27.1845
2004-11-12,27.9819
2004-11-15,28.5376
2004-11-16,27.8224
2004-11-17,27.9046
2004-11-18,28.0689
2004-11-19,27.2715
2004-11-22,27.4986
2004-11-23,27.6436
2004-11-24,27.8466
2004-11-26,27.8321
2004-11-29,26.8366
2004-11-30,26.7254
2004-12-01,27.2039
2004-12-02,26.5128
2004-12-03,26.9525
2004-12-06,27.0588
2004-12-07,26.8704
2004-12-08,26.7882
2004-12-09,27.6291
2004-12-10,28.8953
2004-12-13,29.1176
2004-12-14,29.05
2004-12-15,31.331
2004-12-16,31.2102
2004-12-17,30.6835
2004-12-20,30.6011
2004-12-21,30.6253
2004-12-22,30.8333
2004-12-23,30.4657
2004-12-27,29.7548
2004-12-28,30.6253
2004-12-29,30.398
2004-12-30,30.693
2004-12-31,30.8381
2005-01-03,30.5238
2005-01-04,29.3726
2005-01-05,29.2033
2005-01-06,29.895
2005-01-07,29.7305
2005-01-10,30.693
2005-01-11,30.5044
2005-01-12,30.2771
2005-01-13,31.0462
2005-01-14,31.8199
2005-01-18,31.9554
2005-01-19,32.1924
2005-01-20,31.196
2005-01-21,31.1477
2005-01-24,30.7366
2005-01-25,30.9494
2005-01-26,31.6313
2005-01-27,31.0896
2005-01-28,31.4669
2005-01-31,31.9071
2005-02-01,32.768
2005-02-02,32.8792
2005-02-03,32.0957
2005-02-04,34.0593
2005-02-07,33.8368
2005-02-08,34.7654
2005-02-09,34.2044
2005-02-10,34.4221
2005-02-11,33.7256
2005-02-14,33.2033
2005-02-15,33.0485
2005-02-16,33.9094
2005-02-17,33.9868
2005-02-18,33.6531
2005-02-22,32.3471
2005-02-23,32.5987
2005-02-24,35.52
2005-02-25,38.0108
2005-02-28,37.7642
2005-03-01,37.6046
2005-03-02,37.2321
2005-03-03,36.8839
2005-03-04,38.5284
2005-03-07,38.2333
2005-03-08,37.6965
2005-03-09,36.5115
2005-03-10,35.5249
2005-03-11,35.6699
2005-03-14,35.3749
2005-03-15,35.3169
2005-03-16,35.5877
2005-03-17,34.9106
2005-03-18,34.9541
2005-03-21,35.0897
2005-03-22,35.1574
2005-03-23,34.5863
2005-03-24,34.8573
2005-03-28,35.2203
2005-03-29,34.9493
2005-03-30,35.1477
2005-03-31,35.6656
2005-04-01,35.9173
2005-04-04,36.0334
2005-04-05,35.9415
2005-04-06,35.2203
2005-04-07,35.5107
2005-04-08,35.2881
2005-04-11,35.6994
2005-04-12,36.8756
2005-04-13,36.077
2005-04-14,34.17
2005-04-15,32.8971
2005-04-18,33.8699
2005-04-19,34.0975
2005-04-20,32.7713
2005-04-21,33.9764
2005-04-22,33.3908
2005-04-25,34.4846
2005-04-26,34.8428
2005-04-27,34.4943
2005-04-28,33.4827
2005-04-29,34.5814
2005-05-02,34.7847
2005-05-03,34.7121
2005-05-04,35.0412
2005-05-05,35.167
2005-05-06,35.4478
2005-05-09,35.6221
2005-05-10,35.1429
2005-05-11,35.5494
2005-05-12,34.2523
2005-05-13,33.415
2005-05-16,34.4217
2005-05-17,34.6056
2005-05-18,35.9753
2005-05-19,35.9995
2005-05-20,35.5833
2005-05-23,35.9124
2005-05-24,35.7915
2005-05-25,35.4381
2005-05-26,36.9385
2005-05-27,36.7788
2005-05-31,36.9675
2005-06-01,37.979
2005-06-02,37.8484
2005-06-03,36.8707
2005-06-06,37.2966
2005-06-07,38.2405
2005-06-08,37.3983
2005-06-09,37.7322
2005-06-10,37.3595
2005-06-13,37.5628
2005-06-14,38.405
2005-06-15,39.31
2005-06-16,39.8134
2005-06-17,41.6042
2005-06-20,40.3748
2005-06-21,40.6703
2005-06-22,40.6315
2005-06-23,39.91
2005-06-24,39.3772
2005-06-27,40.249
2005-06-28,40.8979
2005-06-29,40.3604
2005-06-30,40.8834
2005-07-01,40.8979
2005-07-05,41.2998
2005-07-06,40.9269
2005-07-07,42.8109
2005-07-08,43.3774
2005-07-11,44.3121
2005-07-12,44.4816
2005-07-13,44.748
2005-07-14,43.9779
2005-07-15,45.1451
2005-07-18,45.1451
2005-07-19,45.5229
2005-07-20,46.0942
2005-07-21,44.4526
2005-07-22,45.2758
2005-07-25,43.6438
2005-07-26,44.4041
2005-07-27,44.8448
2005-07-28,46.4091
2005-07-29,45.3631
2005-08-01,45.6246
2005-08-02,45.9248
2005-08-03,45.5083
2005-08-04,44.869
2005-08-05,43.3581
2005-08-08,41.973
2005-08-09,42.4428
2005-08-10,42.4234
2005-08-11,42.6171
2005-08-12,42.5832
2005-08-15,42.5977
2005-08-16,41.881
2005-08-17,41.2708
2005-08-18,40.9318
2005-08-19,40.9318
2005-08-22,40.7478
2005-08-23,40.4427
2005-08-24,41.111
2005-08-25,40.6122
2005-08-26,40.2441
2005-08-29,40.1279
2005-08-30,40.2538
2005-08-31,41.7842
2005-09-01,41.7164
2005-09-02,41.3193
2005-09-06,42.7431
2005-09-07,42.9561
2005-09-08,42.4234
2005-09-09,44.2831
2005-09-12,44.1765
2005-09-13,44.1474
2005-09-14,44.1377
2005-09-15,44.5543
2005-09-16,42.559
2005-09-19,42.4912
2005-09-20,40.6897
2005-09-21,40.6509
2005-09-22,41.8143
2005-09-23,42.0373
2005-09-26,41.4168
2005-09-27,41.3586
2005-09-28,40.4957
2005-09-29,41.2616
2005-09-30,41.5428
2005-10-03,41.7852
2005-10-04,39.9431
2005-10-05,37.7618
2005-10-06,36.7827
2005-10-07,36.5887
2005-10-10,35.2896
2005-10-11,35.7355
2005-10-12,35.2314
2005-10-13,35.309
2005-10-14,35.7937
2005-10-17,35.8229
2005-10-18,34.1456
2005-10-19,36.2009
2005-10-20,35.9489
2005-10-21,35.4641
2005-10-24,36.0942
2005-10-25,36.2009
2005-10-26,35.3768
2005-10-27,34.8339
2005-10-28,35.183
2005-10-31,36.6178
2005-11-01,37.8103
2005-11-02,39.6911
2005-11-03,39.3227
2005-11-04,39.0609
2005-11-07,40.2146
2005-11-08,36.6275
2005-11-09,35.9585
2005-11-10,37.2964
2005-11-11,37.3255
2005-11-14,37.5098
2005-11-15,37.3643
2005-11-16,38.0042
2005-11-17,39.7202
2005-11-18,39.5554
2005-11-21,40.5152
2005-11-22,41.475
2005-11-23,41.6786
2005-11-25,41.8822
2005-11-28,40.2922
2005-11-29,40.583
2005-11-30,40.3601
2005-12-01,40.9515
2005-12-02,41.2616
2005-12-05,41.1551
2005-12-06,41.1259
2005-12-07,39.2742
2005-12-08,39.5651
2005-12-09,39.439
2005-12-12,39.2645
2005-12-13,40.234
2005-12-14,41.504
2005-12-15,40.7963
2005-12-16,41.0872
2005-12-19,40.2825
2005-12-20,40.3504
2005-12-21,40.3697
2005-12-22,40.2631
2005-12-23,39.5935
2005-12-27,39.7778
2005-12-28,38.7394
2005-12-29,38.788
2005-12-30,38.2058
2006-01-03,39.9719
2006-01-04,39.5449
2006-01-05,40.5251
2006-01-06,40.3309
2006-01-09,42.7473
2006-01-10,42.5241
2006-01-11,43.3101
2006-01-12,41.6313
2006-01-13,41.1655
2006-01-17,40.5347
2006-01-18,40.3018
2006-01-19,39.5837
2006-01-20,39.1956
2006-01-23,38.7977
2006-01-24,38.7977
2006-01-25,38.0504
2006-01-26,37.74
2006-01-27,38.5551
2006-01-30,38.5842
2006-01-31,38.788
2006-02-01,37.7109
2006-02-02,36.4589
2006-02-03,37.1285
2006-02-06,36.8568
2006-02-07,35.964
2006-02-08,37.1285
2006-02-09,36.9345
2006-02-10,36.5269
2006-02-13,36.4007
2006-02-14,37.3614
2006-02-15,37.4585
2006-02-16,37.2644
2006-02-17,36.7016
2006-02-21,37.5361
2006-02-22,39.5546
2006-02-23,38.9627
2006-02-24,38.8462
2006-02-27,38.264
2006-02-28,37.313
2006-03-01,37.5652
2006-03-02,37.672
2006-03-03,37.4003
2006-03-06,37.3032
2006-03-07,36.2455
2006-03-08,36.0417
2006-03-09,34.9645
2006-03-10,35.6057
2006-03-13,35.6348
2006-03-14,37.0047
2006-03-15,36.7424
2006-03-16,37.8498
2006-03-17,38.5493
2006-03-20,37.9859
2006-03-21,36.6452
2006-03-22,36.7424
2006-03-23,38.2482
2006-03-24,38.9672
2006-03-27,39.2488
2006-03-28,38.1414
2006-03-29,38.6951
2006-03-30,37.7236
2006-03-31,37.3739
2006-04-03,36.9756
2006-04-04,37.3155
2006-04-05,39.55
2006-04-06,39.1614
2006-04-07,39.6278
2006-04-10,39.7054
2006-04-11,39.3168
2006-04-12,38.4717
2006-04-13,38.3551
2006-04-17,37.607
2006-04-18,39.9289
2006-04-19,38.8408
2006-04-20,38.7923
2006-04-21,38.6951
2006-04-24,38.1996
2006-04-25,36.7715
2006-04-26,37.9567
2006-04-27,36.8298
2006-04-28,36.2663
2006-05-01,35.5474
2006-05-02,34.7217
2006-05-03,34.7799
2006-05-04,34.4981
2006-05-05,36.004
2006-05-08,35.5668
2006-05-09,35.052
2006-05-10,35.4892
2006-05-11,33.9833
2006-05-12,33.4004
2006-05-15,32.5066
2006-05-16,31.7391
2006-05-17,31.506
2006-05-18,32.0208
2006-05-19,31.9237
2006-05-22,31.8265
2006-05-23,32.0208
2006-05-24,32.3511
2006-05-25,32.5066
2006-05-26,32.6912
2006-05-30,31.7294
2006-05-31,31.5934
2006-06-01,32.0597
2006-06-02,30.4955
2006-06-05,28.9023
2006-06-06,27.2313
2006-06-07,27.3091
2006-06-08,26.9593
2006-06-09,27.4354
2006-06-12,26.6096
2006-06-13,25.8421
2006-06-14,26.3861
2006-06-15,27.5438
2006-06-16,27.1742
2006-06-19,27.0184
2006-06-20,26.4541
2006-06-21,27.8746
2006-06-22,27.7385
2006-06-23,27.8941
2006-06-26,28.3514
2006-06-27,27.7385
2006-06-28,27.6509
2006-06-29,28.4682
2006-06-30,27.9817
2006-07-03,27.9622
2006-07-05,27.8844
2006-07-06,28.2347
2006-07-07,28.1958
2006-07-10,28.3612
2006-07-11,28.4001
2006-07-12,27.7287
2006-07-13,27.2909
2006-07-14,26.3764
2006-07-17,26.3472
2006-07-18,26.3179
2006-07-19,27.3492
2006-07-20,26.1818
2006-07-21,26.2401
2006-07-24,27.9136
2006-07-25,29.1005
2006-07-26,29.2563
2006-07-27,28.332
2006-07-28,28.546
2006-07-31,27.7677
2006-08-01,27.826
2006-08-02,27.9136
2006-08-03,29.2854
2006-08-04,29.5675
2006-08-07,30.2487
2006-08-08,29.1979
2006-08-09,28.0887
2006-08-10,27.9817
2006-08-11,27.1644
2006-08-14,26.7753
2006-08-15,27.5828
2006-08-16,28.9351
2006-08-17,29.4021
2006-08-18,29.1005
2006-08-21,28.1958
2006-08-22,28.3514
2006-08-23,27.3007
2006-08-24,28.4876
2006-08-25,28.0595
2006-08-28,28.5168
2006-08-29,28.8865
2006-08-30,28.4682
2006-08-31,28.8476
2006-09-01,28.9838
2006-09-05,28.2249
2006-09-06,27.252
2006-09-07,28.0206
2006-09-08,28.2735
2006-09-11,28.7017
2006-09-12,30.628
2006-09-13,30.2876
2006-09-14,30.4724
2006-09-15,31.1632
2006-09-18,31.2605
2006-09-19,30.813
2006-09-20,30.453
2006-09-21,30.0145
2006-09-22,30.4918
2006-09-25,31.8265
2006-09-26,32.3623
2006-09-27,31.6317
2006-09-28,31.9823
2006-09-29,31.0568
2006-10-02,31.6317
2006-10-03,30.8718
2006-10-04,31.4758
2006-10-05,31.2907
2006-10-06,31.3394
2006-10-09,32.1383
2006-10-10,33.1611
2006-10-11,32.6545
2006-10-12,33.4728
2006-10-13,32.0116
2006-10-16,32.0019
2006-10-17,31.3978
2006-10-18,31.0082
2006-10-19,31.0862
2006-10-20,30.5211
2006-10-23,30.297
2006-10-24,30.8912
2006-10-25,31.3686
2006-10-26,31.8167
2006-10-27,30.7646
2006-10-30,30.4724
2006-10-31,30.1509
2006-11-01,30.1022
2006-11-02,30.0535
2006-11-03,29.3715
2006-11-06,29.3813
2006-11-07,29.2059
2006-11-08,28.2026
2006-11-09,27.5304
2006-11-10,28.4266
2006-11-13,28.1538
2006-11-14,29.5371
2006-11-15,30.0827
2006-11-16,30.2288
2006-11-17,30.3165
2006-11-20,29.9658
2006-11-21,30.2776
2006-11-22,31.1154
2006-11-24,30.8816
2006-11-27,30.3944
2006-11-28,29.9853
2006-11-29,30.2678
2006-11-30,32.8591
2006-12-01,32.9468
2006-12-04,32.4695
2006-12-05,33.0929
2006-12-06,33.843
2006-12-07,33.0832
2006-12-08,32.4207
2006-12-11,32.5863
2006-12-12,32.1967
2006-12-13,32.6741
2006-12-14,32.3233
2006-12-15,32.3915
2006-12-18,32.0989
2006-12-19,31.6698
2006-12-20,31.8746
2006-12-21,31.6015
2006-12-22,31.4845
2006-12-26,32.0404
2006-12-27,32.5379
2006-12-28,32.3525
2006-12-29,32.3428
2007-01-03,31.5332
2007-01-04,31.0943
2007-01-05,31.1333
2007-01-08,30.7042
2007-01-09,30.5872
2007-01-10,30.6066
2007-01-11,31.0943
2007-01-12,31.2601
2007-01-16,30.6944
2007-01-17,31.9624
2007-01-18,32.1087
2007-01-19,33.1133
2007-01-22,32.8012
2007-01-23,33.2694
2007-01-24,33.3669
2007-01-25,32.2549
2007-01-26,31.6892
2007-01-29,31.9429
2007-01-30,31.9721
2007-01-31,33.5132
2007-02-01,33.0255
2007-02-02,34.2154
2007-02-05,33.5035
2007-02-06,33.3571
2007-02-07,32.967
2007-02-08,32.1964
2007-02-09,31.3772
2007-02-12,31.0552
2007-02-13,31.3772
2007-02-14,31.5137
2007-02-15,31.7478
2007-02-16,31.5625
2007-02-20,31.582
2007-02-21,31.1333
2007-02-22,30.7822
2007-02-23,30.4506
2007-02-26,30.4603
2007-02-27,29.4459
2007-02-28,28.8412
2007-03-01,29.3582
2007-03-02,28.8217
2007-03-05,27.7098
2007-03-06,28.0121
2007-03-07,27.8074
2007-03-08,28.2755
2007-03-09,28.0607
2007-03-12,26.7323
2007-03-13,25.3552
2007-03-14,25.8827
2007-03-15,26.0389
2007-03-16,25.7068
2007-03-19,25.7654
2007-03-20,25.9705
2007-03-21,27.0937
2007-03-22,26.8105
2007-03-23,26.9082
2007-03-26,26.6054
2007-03-27,26.1853
2007-03-28,25.4138
2007-03-29,25.7947
2007-03-30,25.8338
2007-04-02,25.697
2007-04-03,26.0877
2007-04-04,25.8923
2007-04-05,26.3124
2007-04-09,26.2635
2007-04-10,25.6286
2007-04-11,24.9548
2007-04-12,25.5896
2007-04-13,25.1696
2007-04-16,25.4724
2007-04-17,26.0389
2007-04-18,27.2793
2007-04-19,27.0155
2007-04-20,27.7579
2007-04-23,27.2988
2007-04-24,27.1816
2007-04-25,27.2403
2007-04-26,28.1583
2007-04-27,27.3281
2007-04-30,26.3026
2007-05-01,26.3221
2007-05-02,26.2537
2007-05-03,26.2928
2007-05-04,25.7166
2007-05-07,25.4138
2007-05-08,25.5506
2007-05-09,25.4235
2007-05-10,25.0524
2007-05-11,25.2575
2007-05-14,24.9841
2007-05-15,24.8864
2007-05-16,25.0817
2007-05-17,25.5017
2007-05-18,25.4138
2007-05-21,25.9216
2007-05-22,26.8691
2007-05-23,26.5565
2007-05-24,26.9375
2007-05-25,26.8202
2007-05-29,26.83
2007-05-30,26.7323
2007-05-31,26.664
2007-06-01,26.4003
2007-06-04,26.9668
2007-06-05,26.4394
2007-06-06,25.7556
2007-06-07,24.5054
2007-06-08,25.2771
2007-06-11,24.7691
2007-06-12,24.0953
2007-06-13,24.3296
2007-06-14,24.2415
2007-06-15,24.3002
2007-06-18,24.2612
2007-06-19,24.2709
2007-06-20,23.9872
2007-06-21,23.8307
2007-06-22,23.322
2007-06-25,22.7644
2007-06-26,22.0795
2007-06-27,22.5003
2007-06-28,22.148
2007-06-29,21.9328
2007-07-02,22.0893
2007-07-03,21.8839
2007-07-05,21.6687
2007-07-06,22.2361
2007-07-09,21.8937
2007-07-10,21.2676
2007-07-11,21.2871
2007-07-12,21.972
2007-07-13,22.872
2007-07-16,22.5687
2007-07-17,22.197
2007-07-18,21.7372
2007-07-19,21.9035
2007-07-20,21.5513
2007-07-23,20.7687
2007-07-24,20.0643
2007-07-25,20.2502
2007-07-26,19.6143
2007-07-27,19.2132
2007-07-30,19.1937
2007-07-31,18.91
2007-08-01,18.8806
2007-08-02,19.5557
2007-08-03,18.2154
2007-08-06,18.5187
2007-08-07,19.9078
2007-08-08,21.2774
2007-08-09,21.0915
2007-08-10,19.8785
2007-08-13,18.5089
2007-08-14,17.0806
2007-08-15,16.5523
2007-08-16,16.8067
2007-08-17,17.061
2007-08-20,16.9926
2007-08-21,16.9534
2007-08-22,17.0904
2007-08-23,17.2372
2007-08-24,17.1393
2007-08-27,16.3763
2007-08-28,15.6523
2007-08-29,16.1904
2007-08-30,15.848
2007-08-31,16.2687
2007-09-04,16.5816
2007-09-05,15.9947
2007-09-06,15.7208
2007-09-07,15.1535
2007-09-10,14.7524
2007-09-11,14.8697
2007-09-12,14.8404
2007-09-13,15.173
2007-09-14,15.6719
2007-09-17,15.7111
2007-09-18,16.7186
2007-09-19,16.8752
2007-09-20,15.7599
2007-09-21,15.8187
2007-09-24,14.8087
2007-09-25,14.3673
2007-09-26,13.2101
2007-09-27,13.3866
2007-09-28,13.318
2007-10-01,14.4556
2007-10-02,15.2009
2007-10-03,15.6717
2007-10-04,15.1029
2007-10-05,15.1224
2007-10-08,14.534
2007-10-09,14.6615
2007-10-10,15.0244
2007-10-11,15.2108
2007-10-12,14.8381
2007-10-15,14.1516
2007-10-16,13.8868
2007-10-17,13.4356
2007-10-18,13.5534
2007-10-19,13.4455
2007-10-22,14.5634
2007-10-23,14.5537
2007-10-24,14.6419
2007-10-25,14.2104
2007-10-26,15.0048
2007-10-29,14.8871
2007-10-30,14.9655
2007-10-31,14.4948
2007-11-01,13.9947
2007-11-02,13.2984
2007-11-05,12.7688
2007-11-06,13.1219
2007-11-07,12.5726
2007-11-08,12.4157
2007-11-09,12.7197
2007-11-12,12.7099
2007-11-13,13.3965
2007-11-14,13.1905
2007-11-15,12.8963
2007-11-16,12.5923
2007-11-19,11.6018
2007-11-20,10.3562
2007-11-21,9.08133
2007-11-23,9.41477
2007-11-26,9.01268
2007-11-27,8.87539
2007-11-28,9.35592
2007-11-29,9.24805
2007-11-30,9.96397
2007-12-03,9.88551
2007-12-04,9.65014
2007-12-05,10.013
2007-12-06,11.2879
2007-12-07,11.2782
2007-12-10,12.0136
2007-12-11,10.5132
2007-12-12,10.9055
2007-12-13,10.6701
2007-12-14,10.1405
2007-12-17,9.92379
2007-12-18,10.0715
2007-12-19,10.0025
2007-12-20,10.0025
2007-12-21,10.1206
2007-12-24,10.2782
2007-12-26,10.4849
2007-12-27,10.5145
2007-12-28,10.1503
2007-12-31,10.3767
2008-01-02,10.2585
2008-01-03,9.5989
2008-01-04,9.01805
2008-01-07,8.8999
2008-01-08,8.54548
2008-01-09,8.63409
2008-01-10,9.1165
2008-01-11,9.02789
2008-01-14,9.30355
2008-01-15,8.70301
2008-01-16,9.27401
2008-01-17,9.55952
2008-01-18,9.83518
2008-01-22,10.5932
2008-01-23,12.897
2008-01-24,12.6509
2008-01-25,12.9856
2008-01-28,13.4877
2008-01-29,14.6199
2008-01-30,13.084
2008-01-31,16.1065
2008-02-01,15.5749
2008-02-04,15.0137
2008-02-05,14.4623
2008-02-06,13.9701
2008-02-07,14.4525
2008-02-08,14.2556
2008-02-11,14.5411
2008-02-12,14.0193
2008-02-13,14.5116
2008-02-14,14.0193
2008-02-15,13.3794
2008-02-19,13.9209
2008-02-20,14.5116
2008-02-21,14.2359
2008-02-22,14.4722
2008-02-25,14.5215
2008-02-26,15.2007
2008-02-27,15.6634
2008-02-28,14.6199
2008-02-29,13.3499
2008-03-03,12.4343
2008-03-04,12.6903
2008-03-05,12.897
2008-03-06,11.9716
2008-03-07,11.6565
2008-03-10,11.5777
2008-03-11,12.2669
2008-03-12,11.6171
2008-03-13,12.4638
2008-03-14,12.1477
2008-03-17,11.723
2008-03-18,12.6711
2008-03-19,12.9477
2008-03-20,14.4785
2008-03-24,15.2785
2008-03-25,14.834
2008-03-26,14.0242
2008-03-27,14.1922
2008-03-28,13.8958
2008-03-31,14.3402
2008-04-01,15.2883
2008-04-02,15.2785
2008-04-03,15.7328
2008-04-04,15.6241
2008-04-07,15.6933
2008-04-08,14.7254
2008-04-09,13.8267
2008-04-10,14.2514
2008-04-11,13.797
2008-04-14,13.4711
2008-04-15,13.9156
2008-04-16,14.7649
2008-04-17,14.6661
2008-04-18,14.6266
2008-04-21,14.3995
2008-04-22,13.5995
2008-04-23,12.8984
2008-04-24,13.6785
2008-04-25,13.5106
2008-04-28,14.0539
2008-04-29,13.6292
2008-04-30,12.8984
2008-05-01,13.9748
2008-05-02,14.0242
2008-05-05,14.2119
2008-05-06,14.3897
2008-05-07,13.5205
2008-05-08,13.086
2008-05-09,12.8687
2008-05-12,13.1748
2008-05-13,12.7106
2008-05-14,13.6292
2008-05-15,14.2415
2008-05-16,14.5674
2008-05-19,14.0736
2008-05-20,13.4514
2008-05-21,12.6415
2008-05-22,12.4046
2008-05-23,12.1477
2008-05-27,12.3452
2008-05-28,12.4243
2008-05-29,12.2168
2008-05-30,12.0489
2008-06-02,12.0094
2008-06-03,12.5033
2008-06-04,12.2069
2008-06-05,11.9404
2008-06-06,10.7454
2008-06-09,10.5083
2008-06-10,10.8934
2008-06-11,10.0243
2008-06-12,10.4293
2008-06-13,10.6169
2008-06-16,10.5576
2008-06-17,10.8551
2008-06-18,11.1625
2008-06-19,11.5193
2008-06-20,11.0831
2008-06-23,10.4189
2008-06-24,10.9542
2008-06-25,11.0039
2008-06-26,10.3297
2008-06-27,9.98276
2008-06-30,9.53666
2008-07-01,9.7151
2008-07-02,9.26901
2008-07-03,9.45736
2008-07-07,9.06083
2008-07-08,10.0918
2008-07-09,9.72502
2008-07-10,9.03109
2008-07-11,8.77333
2008-07-14,9.21944
2008-07-15,9.01126
2008-07-16,10.5874
2008-07-17,11.2516
2008-07-18,11.2715
2008-07-21,11.6284
2008-07-22,12.3719
2008-07-23,12.6495
2008-07-24,10.9444
2008-07-25,11.1822
2008-07-28,10.5974
2008-07-29,11.6978
2008-07-30,11.5887
2008-07-31,12.134
2008-08-01,11.8961
2008-08-04,11.5193
2008-08-05,12.2132
2008-08-06,12.1736
2008-08-07,12.3223
2008-08-08,12.8378
2008-08-11,13.0857
2008-08-12,12.4017
2008-08-13,12.2926
2008-08-14,13.0559
2008-08-15,12.9965
2008-08-18,12.4611
2008-08-19,11.9655
2008-08-20,12.6891
2008-08-21,13.1451
2008-08-22,13.5615
2008-08-25,13.0857
2008-08-26,12.6197
2008-08-27,13.0063
2008-08-28,13.9084
2008-08-29,14.3843
2008-09-02,14.6123
2008-09-03,14.7115
2008-09-04,13.839
2008-09-05,14.5231
2008-09-08,15.9902
2008-09-09,14.6817
2008-09-10,15.3459
2008-09-11,16.2084
2008-09-12,16.3075
2008-09-15,15.7523
2008-09-16,16.0795
2008-09-17,14.305
2008-09-18,16.1687
2008-09-19,17.0807
2008-09-22,15.1232
2008-09-23,14.4674
2008-09-24,14.9146
2008-09-25,15.4512
2008-09-26,16.097
2008-09-29,13.8017
2008-09-30,13.8315
2008-10-01,15.0836
2008-10-02,14.0203
2008-10-03,12.9571
2008-10-06,12.4703
2008-10-07,11.5263
2008-10-08,11.7946
2008-10-09,10.8208
2008-10-10,11.4071
2008-10-13,11.6654
2008-10-14,11.4369
2008-10-15,9.80727
2008-10-16,10.5824
2008-10-17,10.3339
2008-10-20,11.1984
2008-10-21,10.5426
2008-10-22,9.85695
2008-10-23,8.05845
2008-10-24,8.50559
2008-10-27,8.38636
2008-10-28,9.06203
2008-10-29,9.85695
2008-10-30,10.155
2008-10-31,11.0493
2008-11-03,10.2843
2008-11-04,11.248
2008-11-05,10.5922
2008-11-06,10.7711
2008-11-07,10.155
2008-11-10,9.61847
2008-11-11,9.36013
2008-11-12,8.69439
2008-11-13,9.02229
2008-11-14,9.0521
2008-11-17,8.84343
2008-11-18,9.00242
2008-11-19,8.54534
2008-11-20,7.41258
2008-11-21,7.04494
2008-11-24,8.69439
2008-11-25,9.77746
2008-11-26,10.6518
2008-11-28,10.5824
2008-12-01,9.26076
2008-12-02,9.76752
2008-12-03,11.089
2008-12-04,11.5064
2008-12-05,11.735
2008-12-08,11.6952
2008-12-09,10.5624
2008-12-10,11.1388
2008-12-11,10.4333
2008-12-12,10.7115
2008-12-15,10.1153
2008-12-16,11.5859
2008-12-17,11.8343
2008-12-18,11.3358
2008-12-19,10.9669
2008-12-22,10.4684
2008-12-23,10.4784
2008-12-24,10.4485
2008-12-26,10.2191
2008-12-29,10.0397
2008-12-30,10.5581
2008-12-31,10.9071
2009-01-02,11.1164
2009-01-05,12.0636
2009-01-06,12.8213
2009-01-07,12.0038
2009-01-08,12.3029
2009-01-09,11.7545
2009-01-12,10.6877
2009-01-13,10.917
2009-01-14,10.2291
2009-01-15,10.608
2009-01-16,11.1364
2009-01-20,10.3886
2009-01-21,10.6279
2009-01-22,10.5482
2009-01-23,10.7476
2009-01-26,10.9868
2009-01-27,10.7077
2009-01-28,11.595
2009-01-29,10.6179
2009-01-30,10.1194
2009-02-02,10.2092
2009-02-03,10.8971
2009-02-04,10.7974
2009-02-05,11.2261
2009-02-06,12.2829
2009-02-09,11.3158
2009-02-10,10.1593
2009-02-11,10.8871
2009-02-12,10.4983
2009-02-13,10.7675
2009-02-17,9.88017
2009-02-18,9.49135
2009-02-19,8.70372
2009-02-20,8.68378
2009-02-23,8.7436
2009-02-24,9.86023
2009-02-25,9.85026
2009-02-26,9.57111
2009-02-27,9.15237
2009-03-02,8.47442
2009-03-03,8.05568
2009-03-04,8.29496
2009-03-05,8.16535
2009-03-06,7.89616
2009-03-09,8.04571
2009-03-10,9.33183
2009-03-11,9.17231
2009-03-12,9.94996
2009-03-13,9.97987
2009-03-16,9.45147
2009-03-17,10.1394
2009-03-18,10.927
2009-03-19,10.269
2009-03-20,9.7705
2009-03-23,11.0267
2009-03-24,10.6977
2009-03-25,11.1763
2009-03-26,11.4155
2009-03-27,11.3657
2009-03-30,10.9968
2009-03-31,10.8473
2009-04-01,11.1763
2009-04-02,11.3258
2009-04-03,11.4654
2009-04-06,11.5252
2009-04-07,10.7974
2009-04-08,9.58107
2009-04-09,10.0497
2009-04-13,10.1693
2009-04-14,10.1593
2009-04-15,10.7077
2009-04-16,11.1563
2009-04-17,11.605
2009-04-20,10.6479
2009-04-21,11.0167
2009-04-22,10.9968
2009-04-23,11.1763
2009-04-24,11.9439
2009-04-27,11.914
2009-04-28,11.5053
2009-04-29,11.8044
2009-04-30,11.4454
2009-05-01,11.0566
2009-05-04,12.1433
2009-05-05,12.3029
2009-05-06,11.266
2009-05-07,10.8772
2009-05-08,11.4056
2009-05-11,11.1962
2009-05-12,10.7276
2009-05-13,9.81038
2009-05-14,9.72065
2009-05-15,9.58107
2009-05-18,10.2191
2009-05-19,9.98984
2009-05-20,9.49135
2009-05-21,9.21219
2009-05-22,9.3418
2009-05-26,9.56114
2009-05-27,9.3418
2009-05-28,8.6439
2009-05-29,8.76354
2009-06-01,8.62396
2009-06-02,8.943
2009-06-03,8.54421
2009-06-04,8.52427
2009-06-05,8.78348
2009-06-08,9.03273
2009-06-09,9.54119
2009-06-10,9.40162
2009-06-11,8.85327
2009-06-12,8.77351
2009-06-15,8.59406
2009-06-16,8.65387
2009-06-17,8.82336
2009-06-18,8.53424
2009-06-19,8.7436
2009-06-22,8.76354
2009-06-23,8.62396
2009-06-24,8.44451
2009-06-25,8.95297
2009-06-26,8.7436
2009-06-29,8.93303
2009-06-30,8.81339
2009-07-01,8.92306
2009-07-02,8.54421
2009-07-06,8.30493
2009-07-07,8.07562
2009-07-08,7.89616
2009-07-09,8.22517
2009-07-10,8.13544
2009-07-13,8.1155
2009-07-14,8.32487
2009-07-15,8.65387
2009-07-16,9.01279
2009-07-17,9.09255
2009-07-20,9.18228
2009-07-21,8.93303
2009-07-22,9.37171
2009-07-23,9.74059
2009-07-24,9.73062
2009-07-27,10.5282
2009-07-28,10.7476
2009-07-29,10.7176
2009-07-30,10.9968
2009-07-31,11.3059
2009-08-03,11.7047
2009-08-04,11.6249
2009-08-05,11.8941
2009-08-06,11.8642
2009-08-07,12.592
2009-08-10,12.243
2009-08-11,12.2929
2009-08-12,12.8113
2009-08-13,12.6917
2009-08-14,12.4424
2009-08-17,12.2929
2009-08-18,12.2929
2009-08-19,12.243
2009-08-20,12.3527
2009-08-21,12.6119
2009-08-24,12.582
2009-08-25,13.0008
2009-08-26,13.2799
2009-08-27,13.0805
2009-08-28,13.0905
2009-08-31,12.7216
2009-09-01,12.253
2009-09-02,11.8642
2009-09-03,12.1832
2009-09-04,12.3029
2009-09-08,12.3328
2009-09-09,12.3228
2009-09-10,12.5222
2009-09-11,12.263
2009-09-14,12.0736
2009-09-15,12.4225
2009-09-16,13.0606
2009-09-17,12.7017
2009-09-18,12.6817
2009-09-21,12.5023
2009-09-22,12.3627
2009-09-23,11.8642
2009-09-24,11.4953
2009-09-25,11.1364
2009-09-28,11.2261
2009-09-29,11.3059
2009-09-30,10.9569
2009-10-01,10.588
2009-10-02,10.3488
2009-10-05,10.3687
2009-10-06,10.4385
2009-10-07,10.0297
2009-10-08,10.4485
2009-10-09,10.5083
2009-10-12,10.3288
2009-10-13,10.5482
2009-10-14,10.917
2009-10-15,10.8074
2009-10-16,10.6578
2009-10-19,10.588
2009-10-20,10.0397
2009-10-21,9.7705
2009-10-22,10.3986
2009-10-23,10.0497
2009-10-26,9.65086
2009-10-27,9.53123
2009-10-28,9.08258
2009-10-29,9.31189
2009-10-30,9.01279
2009-11-02,8.98288
2009-11-03,9.19225
2009-11-04,9.52126
2009-11-05,9.63092
2009-11-06,9.63092
2009-11-09,9.76053
2009-11-10,9.43153
2009-11-11,10.1892
2009-11-12,9.7705
2009-11-13,9.6708
2009-11-16,9.81038
2009-11-17,9.58107
2009-11-18,10.0198
2009-11-19,9.79044
2009-11-20,9.43153
2009-11-23,9.53123
2009-11-24,9.26204
2009-11-25,9.38168
2009-11-27,9.08258
2009-11-30,9.11249
2009-12-01,9.28198
2009-12-02,9.28198
2009-12-03,9.0427
2009-12-04,9.05267
2009-12-07,9.01279
2009-12-08,8.83333
2009-12-09,8.89315
2009-12-10,8.79345
2009-12-11,8.80342
2009-12-14,8.91309
2009-12-15,8.85327
2009-12-16,9.31189
2009-12-17,9.18228
2009-12-18,9.2421
2009-12-21,9.40162
2009-12-22,9.83032
2009-12-23,10.0297
2009-12-24,10.0297
2009-12-28,9.83032
2009-12-29,9.94996
2009-12-30,9.99981
2009-12-31,9.9699
2010-01-04,10.2191
2010-01-05,10.3388
2010-01-06,10.3388
2010-01-07,11.1463
2010-01-08,11.0068
2010-01-11,10.947
2010-01-12,10.8672
2010-01-13,11.2859
2010-01-14,11.1962
2010-01-15,10.9669
2010-01-19,10.9669
2010-01-20,10.8572
2010-01-21,10.4584
2010-01-22,10.1892
2010-01-25,10.1892
2010-01-26,10.3188
2010-01-27,10.2989
2010-01-28,10.5382
2010-01-29,10.4983
2010-02-01,10.5382
2010-02-02,11.3258
2010-02-03,11.3457
2010-02-04,10.8672
2010-02-05,10.8473
2010-02-08,11.1264
2010-02-09,11.0666
2010-02-10,11.1962
2010-02-11,11.6947
2010-02-12,11.6947
2010-02-16,11.605
2010-02-17,11.5551
2010-02-18,11.4454
2010-02-19,11.3956
2010-02-22,11.3457
2010-02-23,10.937
2010-02-24,10.7675
2010-02-25,10.6578
2010-02-26,10.7974
2010-03-01,10.9071
2010-03-02,10.7476
2010-03-03,10.8971
2010-03-04,10.8273
2010-03-05,11.1962
2010-03-08,11.3956
2010-03-09,11.4654
2010-03-10,11.3158
2010-03-11,11.3657
2010-03-12,11.1862
2010-03-15,11.0566
2010-03-16,11.3358
2010-03-17,11.4155
2010-03-18,11.4654
2010-03-19,11.1962
2010-03-22,11.4454
2010-03-23,11.4155
2010-03-24,11.6349
2010-03-25,11.5551
2010-03-26,11.6847
2010-03-29,11.5551
2010-03-30,11.3856
2010-03-31,11.2161
2010-04-01,11.0965
2010-04-05,11.4155
2010-04-06,11.1164
2010-04-07,10.8572
2010-04-08,10.8572
2010-04-09,11.1364
2010-04-12,11.1962
2010-04-13,10.9968
2010-04-14,11.3557
2010-04-15,11.246
2010-04-16,11.0666
2010-04-19,11.0766
2010-04-20,11.4255
2010-04-21,11.7545
2010-04-22,12.4225
2010-04-23,13.1603
2010-04-26,12.9708
2010-04-27,12.602
2010-04-28,12.7914
2010-04-29,13.25
2010-04-30,13.0705
2010-05-03,13.3497
2010-05-04,13.0406
2010-05-05,12.5322
2010-05-06,11.924
2010-05-07,11.1463
2010-05-10,12.2032
2010-05-11,12.1134
2010-05-12,12.1433
2010-05-13,11.7745
2010-05-14,11.5551
2010-05-17,11.6349
2010-05-18,11.4853
2010-05-19,11.2261
2010-05-20,10.7775
2010-05-21,10.7974
2010-05-24,10.6179
2010-05-25,10.8373
2010-05-26,10.7575
2010-05-27,11.1264
2010-05-28,11.1164
2010-06-01,10.4385
2010-06-02,10.7077
2010-06-03,10.279
2010-06-04,9.79044
2010-06-07,9.36174
2010-06-08,9.37171
2010-06-09,9.13243
2010-06-10,9.75056
2010-06-11,9.51129
2010-06-14,9.45147
2010-06-15,9.91008
2010-06-16,9.73062
2010-06-17,9.47141
2010-06-18,9.33183
2010-06-21,9.10252
2010-06-22,8.82336
2010-06-23,9.02276
2010-06-24,8.98288
2010-06-25,8.89315
2010-06-28,8.77351
2010-06-29,8.36475
2010-06-30,8.24511
2010-07-01,8.36475
2010-07-02,8.12547
2010-07-06,8.12547
2010-07-07,8.46445
2010-07-08,8.25508
2010-07-09,8.59406
2010-07-12,8.45448
2010-07-13,8.77351
2010-07-14,8.5143
2010-07-15,8.5143
2010-07-16,8.02577
2010-07-19,7.88619
2010-07-20,8.28499
2010-07-21,8.0158
2010-07-22,8.3149
2010-07-23,8.62396
2010-07-26,9.0427
2010-07-27,8.91309
2010-07-28,8.56415
2010-07-29,8.76354
2010-07-30,8.75357
2010-08-02,8.95297
2010-08-03,8.40463
2010-08-04,8.36475
2010-08-05,8.50433
2010-08-06,8.65387
2010-08-09,8.80342
2010-08-10,8.54421
2010-08-11,8.2152
2010-08-12,7.90613
2010-08-13,8.07562
2010-08-16,7.95598
2010-08-17,8.25508
2010-08-18,8.34481
2010-08-19,8.10553
2010-08-20,8.03574
2010-08-23,7.89616
2010-08-24,7.83634
2010-08-25,8.05568
2010-08-26,7.84631
2010-08-27,8.13544
2010-08-30,8.03574
2010-08-31,8.00583
2010-09-01,8.38469
2010-09-02,8.58408
2010-09-03,8.7436
2010-09-07,8.5143
2010-09-08,8.56415
2010-09-09,8.60402
2010-09-10,8.72366
2010-09-13,8.79345
2010-09-14,8.71369
2010-09-15,8.54421
2010-09-16,8.18529
2010-09-17,8.23514
2010-09-20,8.62396
2010-09-21,8.49436
2010-09-22,8.36475
2010-09-23,8.13544
2010-09-24,8.38469
2010-09-27,8.70372
2010-09-28,8.82336
2010-09-29,8.72366
2010-09-30,8.76354
2010-10-01,8.70372
2010-10-04,8.60402
2010-10-05,8.56415
2010-10-06,8.46445
2010-10-07,8.36475
2010-10-08,8.22517
2010-10-11,8.15538
2010-10-12,8.25508
2010-10-13,8.15538
2010-10-14,8.05568
2010-10-15,7.95598
2010-10-18,8.17532
2010-10-19,8.2152
2010-10-20,8.10553
2010-10-21,8.07562
2010-10-22,8.20523
2010-10-25,8.08559
2010-10-26,7.95598
2010-10-27,7.92607
2010-10-28,7.83634
2010-10-29,7.8164
2010-11-01,7.75658
2010-11-02,8.04571
2010-11-03,7.42758
2010-11-04,7.72667
2010-11-05,7.83634
2010-11-08,7.92607
2010-11-09,7.7167
2010-11-10,7.87622
2010-11-11,7.82637
2010-11-12,7.46746
2010-11-15,7.05869
2010-11-16,6.87923
2010-11-17,6.72968
2010-11-18,6.67983
2010-11-19,6.49041
2010-11-22,6.48044
2010-11-23,6.25113
2010-11-24,6.41065
2010-11-26,6.20128
2010-11-29,6.22122
2010-11-30,6.25113
2010-12-01,6.51035
2010-12-02,6.71971
2010-12-03,6.67983
2010-12-06,6.66986
2010-12-07,6.62001
2010-12-08,6.83935
2010-12-09,6.93905
2010-12-10,6.99887
2010-12-13,7.00884
2010-12-14,6.79947
2010-12-15,6.6898
2010-12-16,6.85929
2010-12-17,7.00884
2010-12-20,7.23815
2010-12-21,7.31791
2010-12-22,7.617
2010-12-23,7.36776
2010-12-27,7.44752
2010-12-28,7.34782
2010-12-29,7.34782
2010-12-30,7.42758
2010-12-31,7.50734
2011-01-03,7.76655
2011-01-04,7.65688
2011-01-05,7.95598
2011-01-06,8.2152
2011-01-07,8.59406
2011-01-10,8.16535
2011-01-11,8.26505
2011-01-12,8.39466
2011-01-13,8.32487
2011-01-14,8.6439
2011-01-18,8.5143
2011-01-19,8.23514
2011-01-20,8.35478
2011-01-21,8.22517
2011-01-24,8.40463
2011-01-25,8.30493
2011-01-26,8.39466
2011-01-27,8.20523
2011-01-28,8.05568
2011-01-31,7.86625
2011-02-01,8.07562
2011-02-02,7.88619
2011-02-03,7.51731
2011-02-04,7.55719
2011-02-07,7.5871
2011-02-08,7.76655
2011-02-09,7.80643
2011-02-10,7.617
2011-02-11,7.63694
2011-02-14,7.44752
2011-02-15,7.26806
2011-02-16,7.44752
2011-02-17,7.72667
2011-02-18,7.75658
2011-02-22,7.17833
2011-02-23,7.09857
2011-02-24,6.94902
2011-02-25,6.95899
2011-02-28,6.87923
2011-03-01,6.65989
2011-03-02,6.75959
2011-03-03,6.72968
2011-03-04,6.61004
2011-03-07,6.51035
2011-03-08,7.06866
2011-03-09,7.12848
2011-03-10,7.07863
2011-03-11,6.97893
2011-03-14,6.90914
2011-03-15,7.00884
2011-03-16,6.87923
2011-03-17,6.90914
2011-03-18,7.07863
2011-03-21,7.16836
2011-03-22,7.11851
2011-03-23,7.36776
2011-03-24,7.40764
2011-03-25,7.54722
2011-03-28,7.64691
2011-03-29,7.62697
2011-03-30,7.42758
2011-03-31,7.37773
2011-04-01,7.45749
2011-04-04,7.30794
2011-04-05,7.41761
2011-04-06,7.56716
2011-04-07,7.77652
2011-04-08,7.79646
2011-04-11,7.74661
2011-04-12,7.67682
2011-04-13,7.64691
2011-04-14,7.63694
2011-04-15,7.79646
2011-04-18,7.82637
2011-04-19,8.2152
2011-04-20,8.13544
2011-04-21,7.75658
2011-04-25,7.78649
2011-04-26,7.77652
2011-04-27,7.95598
2011-04-28,8.20523
2011-04-29,8.08559
2011-05-02,7.92607
2011-05-03,7.75658
2011-05-04,7.97592
2011-05-05,8.00583
2011-05-06,7.9161
2011-05-09,7.76655
2011-05-10,7.74661
2011-05-11,7.49737
2011-05-12,7.64691
2011-05-13,7.5871
2011-05-16,7.5871
2011-05-17,7.59706
2011-05-18,7.53725
2011-05-19,7.52728
2011-05-20,7.69676
2011-05-23,7.50734
2011-05-24,7.45749
2011-05-25,7.47743
2011-05-26,7.85628
2011-05-27,8.17532
2011-05-31,8.4146
2011-06-01,8.00583
2011-06-02,7.78649
2011-06-03,7.79646
2011-06-06,7.37773
2011-06-07,7.1883
2011-06-08,6.93905
2011-06-09,7.03875
2011-06-10,6.90914
2011-06-13,6.95899
2011-06-14,7.20824
2011-06-15,6.9889
2011-06-16,7.07863
2011-06-17,7.16836
2011-06-20,7.27803
2011-06-21,7.42758
2011-06-22,7.46746
2011-06-23,7.55719
2011-06-24,7.50734
2011-06-27,7.64691
2011-06-28,7.86625
2011-06-29,7.53725
2011-06-30,7.65688
2011-07-01,7.78649
2011-07-05,7.68679
2011-07-06,7.54722
2011-07-07,7.82637
2011-07-08,7.75658
2011-07-11,7.3877
2011-07-12,7.288
2011-07-13,7.21821
2011-07-14,7.06866
2011-07-15,7.05869
2011-07-18,6.92908
2011-07-19,7.15839
2011-07-20,7.16836
2011-07-21,7.3877
2011-07-22,7.29797
2011-07-25,7.288
2011-07-26,7.23815
2011-07-27,6.9889
2011-07-28,6.7895
2011-07-29,6.84932
2011-08-01,6.66986
2011-08-02,6.24116
2011-08-03,6.02182
2011-08-04,5.5333
2011-08-05,5.26411
2011-08-08,4.58615
2011-08-09,4.60609
2011-08-10,4.22724
2011-08-11,4.41667
2011-08-12,4.52634
2011-08-15,4.82543
2011-08-16,4.82543
2011-08-17,4.67588
2011-08-18,4.15745
2011-08-19,3.89823
2011-08-22,3.73871
2011-08-23,3.58916
2011-08-24,3.74868
2011-08-25,4.23721
2011-08-26,4.46652
2011-08-29,4.60609
2011-08-30,4.90519
2011-08-31,4.76561
2011-09-01,4.57618
2011-09-02,4.37679
2011-09-06,4.21727
2011-09-07,4.55625
2011-09-08,4.47649
2011-09-09,4.27709
2011-09-12,4.25715
2011-09-13,4.27709
2011-09-14,4.41667
2011-09-15,4.48646
2011-09-16,4.41667
2011-09-19,4.37679
2011-09-20,4.51637
2011-09-21,4.34688
2011-09-22,4.06772
2011-09-23,4.02784
2011-09-26,4.12754
2011-09-27,4.15745
2011-09-28,3.97799
2011-09-29,4.14748
2011-09-30,3.94808
2011-10-03,3.51938
2011-10-04,3.61907
2011-10-05,3.88826
2011-10-06,4.02784
2011-10-07,3.97799
2011-10-10,4.2073
2011-10-11,4.23721
2011-10-12,4.4067
2011-10-13,4.33691
2011-10-14,4.4067
2011-10-17,4.0079
2011-10-18,4.44658
2011-10-19,4.43661
2011-10-20,4.66591
2011-10-21,4.89522
2011-10-24,5.20429
2011-10-25,4.78555
2011-10-26,4.91516
2011-10-27,5.37378
2011-10-28,5.47348
2011-10-31,5.18435
2011-11-01,4.99492
2011-11-02,5.20429
2011-11-03,5.49342
2011-11-04,5.45354
2011-11-07,5.70278
2011-11-08,5.98194
2011-11-09,5.51336
2011-11-10,5.58314
2011-11-11,5.75263
2011-11-14,5.51336
2011-11-15,5.50339
2011-11-16,5.5632
2011-11-17,5.41366
2011-11-18,5.46351
2011-11-21,5.37378
2011-11-22,5.40369
2011-11-23,5.14447
2011-11-25,5.19432
2011-11-28,5.49342
2011-11-29,5.65293
2011-11-30,6.08164
2011-12-01,6.04176
2011-12-02,6.17137
2011-12-05,6.37077
2011-12-06,6.4605
2011-12-07,6.43059
2011-12-08,6.0617
2011-12-09,6.31095
2011-12-12,6.20128
2011-12-13,5.95203
2011-12-14,5.60308
2011-12-15,5.71275
2011-12-16,5.74266
2011-12-19,5.57317
2011-12-20,6.14146
2011-12-21,6.29101
2011-12-22,6.18134
2011-12-23,6.0617
2011-12-27,6.05173
2011-12-28,5.93209
2011-12-29,6.28104
2011-12-30,6.28104
2012-01-03,6.50038
2012-01-04,6.53029
2012-01-05,7.05869
2012-01-06,7.0886
2012-01-09,7.22818
2012-01-10,7.33785
2012-01-11,7.66685
2012-01-12,7.64691
2012-01-13,7.57713
2012-01-17,7.47743
2012-01-18,7.9161
2012-01-19,8.08559
2012-01-20,7.73664
2012-01-23,7.41761
2012-01-24,7.75658
2012-01-25,7.98589
2012-01-26,7.75658
2012-01-27,7.77652
2012-01-30,7.60703
2012-01-31,7.41761
2012-02-01,7.82637
2012-02-02,7.7167
2012-02-03,8.29496
2012-02-06,8.23514
2012-02-07,8.37472
2012-02-08,8.65387
2012-02-09,9.0427
2012-02-10,8.76354
2012-02-13,9.07261
2012-02-14,9.05267
2012-02-15,8.97291
2012-02-16,8.83333
2012-02-17,8.86324
2012-02-21,8.55418
2012-02-22,8.30493
2012-02-23,8.69375
2012-02-24,8.44451
2012-02-27,8.5143
2012-02-28,8.27502
2012-02-29,8.80342
2012-03-01,8.58408
2012-03-02,8.43454
2012-03-05,8.4146
2012-03-06,8.14541
2012-03-07,8.47442
2012-03-08,8.88318
2012-03-09,8.98288
2012-03-12,9.0427
2012-03-13,9.4415
2012-03-14,9.28198
2012-03-15,9.56114
2012-03-16,9.27201
2012-03-19,9.12246
2012-03-20,9.18228
2012-03-21,9.3418
2012-03-22,9.09255
2012-03-23,8.85327
2012-03-26,8.76354
2012-03-27,9.0427
2012-03-28,9.39165
2012-03-29,9.22216
2012-03-30,8.82336
2012-04-02,8.63393
2012-04-03,8.59406
2012-04-04,8.46445
2012-04-05,8.23514
2012-04-09,8.19526
2012-04-10,7.68679
2012-04-11,8.36475
2012-04-12,8.62396
2012-04-13,8.5143
2012-04-16,8.39466
2012-04-17,8.614
2012-04-18,8.35478
2012-04-19,8.2152
2012-04-20,8.35478
2012-04-23,8.20523
2012-04-24,8.57412
2012-04-25,8.67381
2012-04-26,9.53123
2012-04-27,10.0497
2012-04-30,9.79044
2012-05-01,9.98984
2012-05-02,10.2889
2012-05-03,10.0397
2012-05-04,9.93999
2012-05-07,9.9699
2012-05-08,9.57111
2012-05-09,9.84029
2012-05-10,9.64089
2012-05-11,9.80041
2012-05-14,9.53123
2012-05-15,9.70071
2012-05-16,9.45147
2012-05-17,8.67381
2012-05-18,8.45448
2012-05-21,8.82336
2012-05-22,9.05267
2012-05-23,9.26204
2012-05-24,9.37171
2012-05-25,9.29195
2012-05-29,9.49135
2012-05-30,9.17231
2012-05-31,9.31189
2012-06-01,8.23514
2012-06-04,7.67682
2012-06-05,8.13544
2012-06-06,8.72366
2012-06-07,8.85327
2012-06-08,8.943
2012-06-11,8.37472
2012-06-12,8.56415
2012-06-13,8.36475
2012-06-14,8.79345
2012-06-15,8.99285
2012-06-18,9.30192
2012-06-19,9.55117
2012-06-20,9.51129
2012-06-21,9.08258
2012-06-22,9.37171
2012-06-25,9.20222
2012-06-26,9.69074
2012-06-27,9.86023
2012-06-28,9.95993
2012-06-29,10.6479
2012-07-02,10.8572
2012-07-03,10.6578
2012-07-05,11.0865
2012-07-06,11.0865
2012-07-09,11.0566
2012-07-10,10.7575
2012-07-11,10.4983
2012-07-12,10.8173
2012-07-13,10.9669
2012-07-16,10.8871
2012-07-17,11.1364
2012-07-18,10.7675
2012-07-19,10.4584
2012-07-20,10.8373
2012-07-23,10.9868
2012-07-24,10.4485
2012-07-25,9.97987
2012-07-26,11.7944
2012-07-27,11.9739
2012-07-30,11.5651
2012-07-31,11.246
2012-08-01,11.0167
2012-08-02,11.5451
2012-08-03,11.4454
2012-08-06,11.4255
2012-08-07,11.6847
2012-08-08,12.0536
2012-08-09,12.6119
2012-08-10,12.4325
2012-08-13,12.3826
2012-08-14,12.6817
2012-08-15,12.7415
2012-08-16,13.579
2012-08-17,13.3198
2012-08-20,12.9509
2012-08-21,12.7615
2012-08-22,13.25
2012-08-23,13.2799
2012-08-24,13.4594
2012-08-27,13.1902
2012-08-28,13.2301
2012-08-29,13.3597
2012-08-30,13.2998
2012-08-31,13.6887
2012-09-04,13.6887
2012-09-05,13.9878
2012-09-06,14.5461
2012-09-07,14.6956
2012-09-10,14.4564
2012-09-11,14.6358
2012-09-12,15.5231
2012-09-13,15.9818
2012-09-14,16.4603
2012-09-17,16.0615
2012-09-18,15.7126
2012-09-19,16.3905
2012-09-20,16.6597
2012-09-21,16.9488
2012-09-24,16.6996
2012-09-25,16.0117
2012-09-26,15.224
2012-09-27,15.583
2012-09-28,15.4733
2012-10-01,15.244
2012-10-02,15.4932
2012-10-03,16.4404
2012-10-04,16.5102
2012-10-05,16.5799
2012-10-08,16.0216
2012-10-09,15.7225
2012-10-10,15.8422
2012-10-11,15.6527
2012-10-12,15.563
2012-10-15,16.3606
2012-10-16,16.4902
2012-10-17,17.3676
2012-10-18,17.547
2012-10-19,17.8362
2012-10-22,17.7464
2012-10-23,17.2579
2012-10-24,17.3875
2012-10-25,16.9588
2012-10-26,17.238
2012-10-31,17.2778
2012-11-01,17.6966
2012-11-02,17.3077
2012-11-05,17.8062
2012-11-06,17.8362
2012-11-07,17.7664
2012-11-08,17.3476
2012-11-09,16.7295
2012-11-12,16.221
2012-11-13,16.1213
2012-11-14,15.2141
2012-11-15,15.234
2012-11-16,15.6428
2012-11-19,15.8422
2012-11-20,16.6896
2012-11-21,16.7594
2012-11-23,17.1383
2012-11-26,17.0087
2012-11-27,17.0386
2012-11-28,16.9588
2012-11-29,17.0685
2012-11-30,16.7893
2012-12-03,16.899
2012-12-04,17.0286
2012-12-05,16.1014
2012-12-06,16.2111
2012-12-07,16.3805
2012-12-10,16.3606
2012-12-11,16.4105
2012-12-12,17.0485
2012-12-13,17.1084
2012-12-14,17.0685
2012-12-17,17.9757
2012-12-18,18.554
2012-12-19,18.4044
2012-12-20,18.4144
2012-12-21,18.1253
2012-12-24,18.1452
2012-12-26,17.7464
2012-12-27,17.7365
2012-12-28,17.547
2012-12-31,18.0954
2013-01-02,18.4942
2013-01-03,18.4942
2013-01-04,18.9628
2013-01-07,19.2618
2013-01-08,19.4114
2013-01-09,19.4114
2013-01-10,19.3117
2013-01-11,19.2618
2013-01-14,19.0226
2013-01-15,19.3715
2013-01-16,19.2519
2013-01-17,20.3486
2013-01-18,20.4383
2013-01-22,20.4682
2013-01-23,20.7673
2013-01-24,20.9268
2013-01-25,21.5549
2013-01-28,20.894
2013-01-29,21.0764
2013-01-30,20.9368
2013-01-31,20.6676
2013-02-01,20.2588
2013-02-04,19.6108
2013-02-05,19.6606
2013-02-06,19.6407
2013-02-07,19.3017
2013-02-08,19.3715
2013-02-11,19.2519
2013-02-12,20.2638
2013-02-13,20.1791
2013-02-14,20.1991
2013-02-15,20.2289
2013-02-19,19.88
2013-02-20,18.4842
2013-02-21,18.7035
2013-02-22,18.8232
2013-02-25,17.9857
2013-02-26,19.0025
2013-02-27,19.2369
2013-02-28,19.1422
2013-03-01,19.1721
2013-03-04,19.6407
2013-03-05,20.1392
2013-03-06,19.9996
2013-03-07,20.1193
2013-03-08,20.1691
2013-03-11,20.0894
2013-03-12,19.6806
2013-03-13,19.8102
2013-03-14,20.4782
2013-03-15,20.6477
2013-03-18,20.7175
2013-03-19,20.7773
2013-03-20,21.2658
2013-03-21,20.9069
2013-03-22,20.5579
2013-03-25,20.2887
2013-03-26,20.0794
2013-03-27,20.2489
2013-03-28,20.1691
2013-04-01,20.0395
2013-04-02,19.7903
2013-04-03,18.9528
2013-04-04,18.9029
2013-04-05,19.0724
2013-04-08,19.6507
2013-04-09,19.3915
2013-04-10,19.1921
2013-04-11,19.2718
2013-04-12,19.1621
2013-04-15,17.8162
2013-04-16,18.534
2013-04-17,18.2449
2013-04-18,17.4972
2013-04-19,17.9259
2013-04-22,18.2549
2013-04-23,19.3316
2013-04-24,19.6208
2013-04-25,20.7274
2013-04-26,21.3057
2013-04-29,21.1362
2013-04-30,20.8969
2013-05-01,20.877
2013-05-02,21.8441
2013-05-03,22.2329
2013-05-06,22.5719
2013-05-07,22.7912
2013-05-08,22.7812
2013-05-09,22.7413
2013-05-10,23.1401
2013-05-13,23.3296
2013-05-14,24.1471
2013-05-15,23.9078
2013-05-16,23.2797
2013-05-17,23.8979
2013-05-20,23.509
2013-05-21,22.9906
2013-05-22,22.3525
2013-05-23,22.4323
2013-05-24,22.6516
2013-05-28,22.7214
2013-05-29,21.9737
2013-05-30,22.0335
2013-05-31,21.545
2013-06-03,21.2558
2013-06-04,20.4981
2013-06-05,20.0993
2013-06-06,20.9966
2013-06-07,21.0066
2013-06-10,20.5679
2013-06-11,20.0295
2013-06-12,19.9697
2013-06-13,20.9169
2013-06-14,20.7972
2013-06-17,21.3456
2013-06-18,21.4153
2013-06-19,20.7075
2013-06-20,18.8132
2013-06-21,18.7534
2013-06-24,18.2748
2013-06-25,18.9927
2013-06-26,18.9827
2013-06-27,19.3217
2013-06-28,18.9129
2013-07-01,19.0525
2013-07-02,18.9428
2013-07-03,19.0026
2013-07-05,18.5041
2013-07-08,17.9857
2013-07-09,18.9927
2013-07-10,18.9428
2013-07-11,20.3386
2013-07-12,20.1591
2013-07-15,19.4912
2013-07-16,19.212
2013-07-17,19.4313
2013-07-18,19.0425
2013-07-19,19.2918
2013-07-22,19.0724
2013-07-23,19.3017
2013-07-24,18.3845
2013-07-25,16.5401
2013-07-26,16.3008
2013-07-29,16.3407
2013-07-30,16.1712
2013-07-31,16.5799
2013-08-01,16.72
2013-08-02,17.18
2013-08-05,16.87
2013-08-06,16.19
2013-08-07,15.8
2013-08-08,15.76
2013-08-09,15.66
