date,close_price
1998-01-02,11.9146
1998-01-05,11.8524
1998-01-06,11.7949
1998-01-07,11.7949
1998-01-08,11.7614
1998-01-09,11.6752
1998-01-12,11.7039
1998-01-13,11.7614
1998-01-14,11.8524
1998-01-15,11.7614
1998-01-16,11.7614
1998-01-20,11.7949
1998-01-21,11.9146
1998-01-22,11.7949
1998-01-23,11.7614
1998-01-26,11.6129
1998-01-27,11.5842
1998-01-28,11.4932
1998-01-29,11.4932
1998-01-30,11.6752
1998-02-02,11.8524
1998-02-03,11.7327
1998-02-04,11.6752
1998-02-05,11.7327
1998-02-06,11.5842
1998-02-09,11.6129
1998-02-10,11.7327
1998-02-11,11.7949
1998-02-12,11.7327
1998-02-13,11.7327
1998-02-17,11.8524
1998-02-18,11.5555
1998-02-19,11.4932
1998-02-20,11.5842
1998-02-23,11.4932
1998-02-24,11.4357
1998-02-25,11.3735
1998-02-26,11.3448
1998-02-27,11.3448
1998-03-02,11.225
1998-03-03,11.2825
1998-03-04,11.1963
1998-03-05,11.225
1998-03-06,11.2538
1998-03-09,11.4932
1998-03-10,11.4932
1998-03-11,11.5219
1998-03-12,11.4932
1998-03-13,11.4357
1998-03-16,11.4173
1998-03-17,11.4173
1998-03-18,11.4173
1998-03-19,11.5388
1998-03-20,11.8109
1998-03-23,11.8449
1998-03-24,11.7817
1998-03-25,11.9032
1998-03-26,12.0246
1998-03-27,12.1169
1998-03-30,11.9323
1998-03-31,11.7526
1998-04-01,11.7234
1998-04-02,11.6602
1998-04-03,11.4173
1998-04-06,11.2959
1998-04-07,11.1744
1998-04-08,11.3882
1998-04-09,11.4173
1998-04-13,11.2667
1998-04-14,11.2376
1998-04-15,11.3882
1998-04-16,11.2667
1998-04-17,11.2376
1998-04-20,11.1161
1998-04-21,11.0238
1998-04-22,11.359
1998-04-23,11.359
1998-04-24,11.4173
1998-04-27,11.2036
1998-04-28,11.1744
1998-04-29,11.2376
1998-04-30,11.2036
1998-05-01,11.6602
1998-05-04,12.0246
1998-05-05,11.9032
1998-05-06,11.9032
1998-05-07,12.0878
1998-05-08,11.9032
1998-05-11,11.4173
1998-05-12,11.325
1998-05-13,11.4173
1998-05-14,11.4173
1998-05-15,11.4465
1998-05-18,11.5096
1998-05-19,11.359
1998-05-20,11.359
1998-05-21,11.2376
1998-05-22,11.2959
1998-05-26,11.359
1998-05-27,11.3882
1998-05-28,11.2959
1998-05-29,11.4805
1998-06-01,11.4805
1998-06-02,11.4465
1998-06-03,11.4173
1998-06-04,11.4465
1998-06-05,11.5096
1998-06-08,11.4173
1998-06-09,11.2376
1998-06-10,11.2959
1998-06-11,11.1161
1998-06-12,10.9946
1998-06-15,10.8732
1998-06-16,11.0529
1998-06-17,11.1161
1998-06-18,11.3882
1998-06-19,11.6602
1998-06-22,11.4173
1998-06-23,11.359
1998-06-24,11.6311
1998-06-25,11.6602
1998-06-26,11.7692
1998-06-29,12.0748
1998-06-30,12.0748
1998-07-01,11.8924
1998-07-02,11.8579
1998-07-06,11.7988
1998-07-07,12.0452
1998-07-08,11.922
1998-07-09,11.7347
1998-07-10,11.8284
1998-07-13,11.922
1998-07-14,11.9516
1998-07-15,12.0156
1998-07-16,12.0748
1998-07-17,12.2621
1998-07-20,11.9811
1998-07-21,12.1389
1998-07-22,12.0156
1998-07-23,12.1389
1998-07-24,12.0748
1998-07-27,11.7347
1998-07-28,11.646
1998-07-29,11.5819
1998-07-30,11.7347
1998-07-31,11.922
1998-08-03,11.6756
1998-08-04,11.646
1998-08-05,11.5228
1998-08-06,11.5819
1998-08-07,11.5819
1998-08-10,11.646
1998-08-11,11.646
1998-08-12,11.646
1998-08-13,11.646
1998-08-14,11.646
1998-08-17,11.8284
1998-08-18,11.7692
1998-08-19,11.922
1998-08-20,12.1389
1998-08-21,11.8284
1998-08-24,12.0156
1998-08-25,12.3212
1998-08-26,12.3508
1998-08-27,12.0748
1998-08-28,12.0748
1998-08-31,11.6115
1998-09-01,11.5524
1998-09-02,11.5524
1998-09-03,11.5228
1998-09-04,11.4292
1998-09-08,11.5819
1998-09-09,11.4883
1998-09-10,11.4587
1998-09-11,11.3996
1998-09-14,11.4102
1998-09-15,11.4452
1998-09-16,11.4102
1998-09-17,11.3501
1998-09-18,11.3801
1998-09-21,11.4102
1998-09-22,12.0705
1998-09-23,12.1955
1998-09-24,12.1605
1998-09-25,12.2555
1998-09-28,12.1005
1998-09-29,12.1305
1998-09-30,12.7258
1998-10-01,12.3206
1998-10-02,12.2856
1998-10-05,12.0054
1998-10-06,11.9454
1998-10-07,11.8203
1998-10-08,11.5052
1998-10-09,11.8203
1998-10-12,12.1955
1998-10-13,12.4456
1998-10-14,12.4756
1998-10-15,12.2856
1998-10-16,12.1005
1998-10-19,11.8804
1998-10-20,11.6953
1998-10-21,11.7253
1998-10-22,11.7553
1998-10-23,11.6002
1998-10-26,11.6303
1998-10-27,11.5052
1998-10-28,11.4752
1998-10-29,11.4752
1998-10-30,11.4752
1998-11-02,11.2551
1998-11-03,11.3201
1998-11-04,11.4752
1998-11-05,11.4102
1998-11-06,11.4102
1998-11-09,11.2551
1998-11-10,11.2551
1998-11-11,11.1951
1998-11-12,11.16
1998-11-13,11.2551
1998-11-16,11.4452
1998-11-17,11.4752
1998-11-18,11.4452
1998-11-19,11.3801
1998-11-20,11.2851
1998-11-23,11.2251
1998-11-24,11.3501
1998-11-25,11.4452
1998-11-27,11.4102
1998-11-30,11.13
1998-12-01,10.5048
1998-12-02,10.7549
1998-12-03,10.8799
1998-12-04,10.8199
1998-12-07,10.8199
1998-12-08,10.7849
1998-12-09,10.8499
1998-12-10,10.8199
1998-12-11,10.8199
1998-12-14,10.7849
1998-12-15,10.8199
1998-12-16,10.8199
1998-12-17,10.8199
1998-12-18,10.7849
1998-12-21,10.6598
1998-12-22,10.5698
1998-12-23,10.6948
1998-12-24,10.7249
1998-12-28,10.8799
1998-12-29,10.9272
1998-12-30,11.0542
1998-12-31,11.1813
1999-01-04,11.1203
1999-01-05,11.0542
1999-01-06,11.2474
1999-01-07,11.3744
1999-01-08,11.5625
1999-01-11,11.4049
1999-01-12,11.3744
1999-01-13,11.4049
1999-01-14,11.4659
1999-01-15,11.4049
1999-01-19,11.4659
1999-01-20,11.4354
1999-01-21,11.6285
1999-01-22,11.593
1999-01-25,11.5015
1999-01-26,11.3389
1999-01-27,11.3744
1999-01-28,11.0542
1999-01-29,11.2779
1999-02-01,11.2779
1999-02-02,11.2118
1999-02-03,11.1508
1999-02-04,11.1203
1999-02-05,11.0847
1999-02-08,11.0847
1999-02-09,11.1203
1999-02-10,10.9272
1999-02-11,10.7036
1999-02-12,10.6426
1999-02-16,10.6426
1999-02-17,10.6121
1999-02-18,10.6426
1999-02-19,10.6426
1999-02-22,10.6731
1999-02-23,10.6121
1999-02-24,10.6121
1999-02-25,10.6426
1999-02-26,10.6731
1999-03-01,10.8001
1999-03-02,10.7036
1999-03-03,10.7391
1999-03-04,10.6731
1999-03-05,10.7036
1999-03-08,10.7391
1999-03-09,10.7391
1999-03-10,10.8662
1999-03-11,10.8967
1999-03-12,10.8001
1999-03-15,10.8001
1999-03-16,10.6121
1999-03-17,10.6426
1999-03-18,10.6121
1999-03-19,10.546
1999-03-22,10.5155
1999-03-23,10.546
1999-03-24,10.6731
1999-03-25,10.5765
1999-03-26,10.6121
1999-03-29,10.5971
1999-03-30,10.6282
1999-03-31,10.6643
1999-04-01,10.7264
1999-04-05,10.7264
1999-04-06,10.6282
1999-04-07,10.6282
1999-04-08,10.6282
1999-04-09,10.6643
1999-04-12,10.8246
1999-04-13,10.8556
1999-04-14,10.8556
1999-04-15,10.8246
1999-04-16,11.3105
1999-04-19,11.4036
1999-04-20,11.3725
1999-04-21,11.3725
1999-04-22,11.3105
1999-04-23,11.3415
1999-04-26,11.3105
1999-04-27,11.2743
1999-04-28,11.3725
1999-04-29,11.3415
1999-04-30,11.3725
1999-05-03,11.3725
1999-05-04,11.3725
1999-05-05,11.3725
1999-05-06,11.4397
1999-05-07,11.3725
1999-05-10,11.5018
1999-05-11,11.662
1999-05-12,11.662
1999-05-13,11.631
1999-05-14,11.569
1999-05-17,11.4708
1999-05-18,11.569
1999-05-19,11.631
1999-05-20,11.6
1999-05-21,11.6
1999-05-24,11.631
1999-05-25,11.631
1999-05-26,11.631
1999-05-27,11.631
1999-05-28,11.662
1999-06-01,11.6
1999-06-02,11.662
1999-06-03,11.662
1999-06-04,11.9205
1999-06-07,11.9205
1999-06-08,11.9205
1999-06-09,11.8274
1999-06-10,11.7292
1999-06-11,11.662
1999-06-14,11.631
1999-06-15,11.662
1999-06-16,11.7913
1999-06-17,11.7913
1999-06-18,11.8274
1999-06-21,11.9567
1999-06-22,11.8274
1999-06-23,11.8585
1999-06-24,11.7913
1999-06-25,11.7602
1999-06-28,11.7292
1999-06-29,11.7602
1999-06-30,11.9205
1999-07-01,11.9695
1999-07-02,12.0692
1999-07-06,12.0063
1999-07-07,11.9695
1999-07-08,11.9066
1999-07-09,12.0063
1999-07-12,12.0063
1999-07-13,12.0378
1999-07-14,12.0063
1999-07-15,11.9381
1999-07-16,12.0378
1999-07-19,12.0692
1999-07-20,11.8751
1999-07-21,11.8069
1999-07-22,11.8069
1999-07-23,11.8069
1999-07-26,11.7439
1999-07-27,11.8069
1999-07-28,11.7754
1999-07-29,11.7439
1999-07-30,11.8069
1999-08-02,11.7072
1999-08-03,11.7072
1999-08-04,11.6127
1999-08-05,11.6757
1999-08-06,11.6127
1999-08-09,11.6442
1999-08-10,11.5445
1999-08-11,11.5445
1999-08-12,11.4448
1999-08-13,11.4448
1999-08-16,11.4133
1999-08-17,11.4448
1999-08-18,11.2821
1999-08-19,11.3503
1999-08-20,11.3503
1999-08-23,11.4448
1999-08-24,11.1824
1999-08-25,11.2506
1999-08-26,11.1194
1999-08-27,11.2191
1999-08-30,11.1824
1999-08-31,11.2191
1999-09-01,11.1509
1999-09-02,11.1509
1999-09-03,11.088
1999-09-07,11.1194
1999-09-08,11.1509
1999-09-09,11.2506
1999-09-10,11.1824
1999-09-13,11.2191
1999-09-14,11.1194
1999-09-15,10.9568
1999-09-16,10.9568
1999-09-17,10.8886
1999-09-20,10.8256
1999-09-21,10.6944
1999-09-22,10.495
1999-09-23,10.495
1999-09-24,10.5265
1999-09-27,10.5947
1999-09-28,10.6577
1999-09-29,10.7259
1999-09-30,11.0512
1999-10-01,11.2048
1999-10-04,11.2368
1999-10-05,11.2368
1999-10-06,11.1408
1999-10-07,11.0394
1999-10-08,10.874
1999-10-11,10.9381
1999-10-12,10.9381
1999-10-13,10.8367
1999-10-14,10.9701
1999-10-15,10.8047
1999-10-18,10.7406
1999-10-19,10.7726
1999-10-20,10.7406
1999-10-21,10.6713
1999-10-22,10.6713
1999-10-25,10.6072
1999-10-26,10.6713
1999-10-27,10.6393
1999-10-28,10.6713
1999-10-29,10.6072
1999-11-01,10.6713
1999-11-02,10.906
1999-11-03,10.9381
1999-11-04,10.9381
1999-11-05,11.0074
1999-11-08,11.1408
1999-11-09,11.1035
1999-11-10,11.0394
1999-11-11,11.1035
1999-11-12,11.1408
1999-11-15,10.874
1999-11-16,10.9381
1999-11-17,10.7726
1999-11-18,10.8047
1999-11-19,10.8047
1999-11-22,10.8047
1999-11-23,10.6713
1999-11-24,10.7406
1999-11-26,10.7406
1999-11-29,10.6713
1999-11-30,10.6713
1999-12-01,10.6713
1999-12-02,10.6393
1999-12-03,10.6713
1999-12-06,10.5699
1999-12-07,10.5059
1999-12-08,10.3725
1999-12-09,10.3725
1999-12-10,10.2391
1999-12-13,10.1057
1999-12-14,10.0043
1999-12-15,9.99344
1999-12-16,9.85752
1999-12-17,10.4012
1999-12-20,10.4991
1999-12-21,10.4339
1999-12-22,10.4012
1999-12-23,10.4991
1999-12-27,10.4012
1999-12-28,10.5698
1999-12-29,10.7383
1999-12-30,10.8416
1999-12-31,10.8416
2000-01-03,10.7383
2000-01-04,10.3632
2000-01-05,10.4339
2000-01-06,10.6731
2000-01-07,10.8416
2000-01-10,10.9069
2000-01-11,10.9776
2000-01-12,10.8743
2000-01-13,10.8416
2000-01-14,10.8416
2000-01-18,10.9069
2000-01-19,10.9776
2000-01-20,11.0428
2000-01-21,11.1461
2000-01-24,11.1135
2000-01-25,11.0809
2000-01-26,11.1787
2000-01-27,11.1787
2000-01-28,11.1461
2000-01-31,11.1135
2000-02-01,11.1461
2000-02-02,11.1787
2000-02-03,11.1787
2000-02-04,11.1461
2000-02-07,11.1787
2000-02-08,11.1135
2000-02-09,11.1135
2000-02-10,11.1135
2000-02-11,10.9069
2000-02-14,11.0428
2000-02-15,11.2168
2000-02-16,11.2168
2000-02-17,11.1787
2000-02-18,11.1461
2000-02-22,11.1787
2000-02-23,11.1461
2000-02-24,10.9776
2000-02-25,11.0102
2000-02-28,10.9449
2000-02-29,10.9449
2000-03-01,11.0102
2000-03-02,10.9449
2000-03-03,10.9069
2000-03-06,10.9449
2000-03-07,10.9776
2000-03-08,11.0102
2000-03-09,10.9776
2000-03-10,10.9449
2000-03-13,11.0102
2000-03-14,11.0809
2000-03-15,11.2494
2000-03-16,11.3854
2000-03-17,11.3854
2000-03-20,11.4506
2000-03-21,11.4506
2000-03-22,11.5865
2000-03-23,11.6898
2000-03-24,11.6246
2000-03-27,11.5865
2000-03-28,11.4887
2000-03-29,11.4887
2000-03-30,11.4887
2000-03-31,11.6246
2000-04-03,11.7562
2000-04-04,11.8281
2000-04-05,11.8281
2000-04-06,11.7894
2000-04-07,11.7894
2000-04-10,11.8281
2000-04-11,11.8945
2000-04-12,11.9664
2000-04-13,11.9664
2000-04-14,11.8945
2000-04-17,11.9277
2000-04-18,11.9996
2000-04-19,12.1711
2000-04-20,12.1379
2000-04-24,12.1379
2000-04-25,12.1379
2000-04-26,12.2043
2000-04-27,12.1711
2000-04-28,12.2043
2000-05-01,12.481
2000-05-02,12.6193
2000-05-03,12.658
2000-05-04,12.6912
2000-05-05,12.658
2000-05-08,12.5861
2000-05-09,12.7244
2000-05-10,12.658
2000-05-11,12.5529
2000-05-12,12.658
2000-05-15,12.6912
2000-05-16,12.6912
2000-05-17,12.5529
2000-05-18,12.4478
2000-05-19,12.2763
2000-05-22,12.3094
2000-05-23,12.4146
2000-05-24,12.4478
2000-05-25,12.4146
2000-05-26,12.4478
2000-05-30,12.481
2000-05-31,12.4478
2000-06-01,12.3814
2000-06-02,12.4478
2000-06-05,12.4146
2000-06-06,12.4478
2000-06-07,12.5861
2000-06-08,12.658
2000-06-09,12.6193
2000-06-12,12.658
2000-06-13,12.7244
2000-06-14,12.8295
2000-06-15,12.8627
2000-06-16,12.7244
2000-06-19,12.7576
2000-06-20,12.9346
2000-06-21,12.9346
2000-06-22,13.001
2000-06-23,12.9346
2000-06-26,12.8959
2000-06-27,12.9346
2000-06-28,12.9678
2000-06-29,13.0342
2000-06-30,12.8594
2000-07-03,12.9268
2000-07-05,13.1404
2000-07-06,13.3146
2000-07-07,13.4214
2000-07-10,13.4889
2000-07-11,13.4214
2000-07-12,13.4214
2000-07-13,13.4214
2000-07-14,13.3483
2000-07-17,13.2809
2000-07-18,13.3483
2000-07-19,13.2416
2000-07-20,13.2078
2000-07-21,13.2809
2000-07-24,13.3483
2000-07-25,13.3483
2000-07-26,13.3483
2000-07-27,13.4551
2000-07-28,13.4214
2000-07-31,13.4551
2000-08-01,13.4889
2000-08-02,13.4551
2000-08-03,13.4889
2000-08-04,13.3483
2000-08-07,13.3483
2000-08-08,13.4214
2000-08-09,13.3821
2000-08-10,13.4551
2000-08-11,13.5619
2000-08-14,13.6294
2000-08-15,13.6294
2000-08-16,13.7024
2000-08-17,13.6631
2000-08-18,13.6294
2000-08-21,13.6631
2000-08-22,13.6631
2000-08-23,13.6631
2000-08-24,13.6294
2000-08-25,13.7024
2000-08-28,13.6631
2000-08-29,13.6294
2000-08-30,13.6294
2000-08-31,13.6294
2000-09-01,13.5956
2000-09-05,13.6294
2000-09-06,13.7024
2000-09-07,13.7024
2000-09-08,13.7024
2000-09-11,13.8767
2000-09-12,13.9834
2000-09-13,14.0172
2000-09-14,13.9834
2000-09-15,14.0172
2000-09-18,13.8767
2000-09-19,13.7362
2000-09-20,13.7024
2000-09-21,13.7699
2000-09-22,13.6631
2000-09-25,13.7362
2000-09-26,13.6294
2000-09-27,13.7362
2000-09-28,13.8036
2000-09-29,13.7362
2000-10-02,13.6952
2000-10-03,13.6952
2000-10-04,13.6609
2000-10-05,13.484
2000-10-06,13.5525
2000-10-09,13.5183
2000-10-10,13.6267
2000-10-11,13.484
2000-10-12,13.3414
2000-10-13,13.3414
2000-10-16,13.4441
2000-10-17,13.484
2000-10-18,13.4441
2000-10-19,13.3014
2000-10-20,13.3414
2000-10-23,13.3014
2000-10-24,13.2672
2000-10-25,13.1588
2000-10-26,13.3014
2000-10-27,13.3014
2000-10-30,13.3014
2000-10-31,13.3756
2000-11-01,13.3756
2000-11-02,13.3414
2000-11-03,13.2672
2000-11-06,13.3756
2000-11-07,13.484
2000-11-08,13.5183
2000-11-09,13.3756
2000-11-10,13.3414
2000-11-13,13.3014
2000-11-14,13.5525
2000-11-15,13.4441
2000-11-16,13.484
2000-11-17,13.3014
2000-11-20,13.3414
2000-11-21,13.4098
2000-11-22,13.4441
2000-11-24,13.2672
2000-11-27,13.2672
2000-11-28,13.3014
2000-11-29,13.484
2000-11-30,13.5183
2000-12-01,13.3414
2000-12-04,13.5867
2000-12-05,14.2658
2000-12-06,14.34
2000-12-07,14.0147
2000-12-08,14.1242
2000-12-11,14.3386
2000-12-12,14.3386
2000-12-13,14.4834
2000-12-14,14.4834
2000-12-15,14.5587
2000-12-18,14.663
2000-12-19,14.7383
2000-12-20,14.7383
2000-12-21,14.7036
2000-12-22,14.7731
2000-12-26,14.7036
2000-12-27,14.8831
2000-12-28,15.0627
2000-12-29,14.9179
2001-01-02,14.8078
2001-01-03,14.7383
2001-01-04,14.5182
2001-01-05,14.3733
2001-01-08,14.3386
2001-01-09,14.3038
2001-01-10,14.2285
2001-01-11,14.3386
2001-01-12,14.2691
2001-01-16,14.2691
2001-01-17,14.2285
2001-01-18,14.3038
2001-01-19,14.0489
2001-01-22,14.0837
2001-01-23,14.0489
2001-01-24,13.9388
2001-01-25,13.9388
2001-01-26,13.9794
2001-01-29,14.0431
2001-01-30,14.1648
2001-01-31,14.2401
2001-02-01,14.2111
2001-02-02,14.1648
2001-02-05,14.1532
2001-02-06,14.1416
2001-02-07,14.1474
2001-02-08,14.1184
2001-02-09,13.9099
2001-02-12,13.9099
2001-02-13,13.7708
2001-02-14,13.7998
2001-02-15,13.9214
2001-02-16,13.8114
2001-02-20,13.8867
2001-02-21,13.8635
2001-02-22,13.7361
2001-02-23,13.8809
2001-02-26,13.991
2001-02-27,14.1995
2001-02-28,14.3096
2001-03-01,14.2517
2001-03-02,14.4486
2001-03-05,14.3038
2001-03-06,14.4776
2001-03-07,14.5355
2001-03-08,14.4081
2001-03-09,14.4776
2001-03-12,14.4255
2001-03-13,14.298
2001-03-14,14.0489
2001-03-15,14.1416
2001-03-16,14.0084
2001-03-19,14.1358
2001-03-20,14.2575
2001-03-21,13.991
2001-03-22,14.0489
2001-03-23,13.9562
2001-03-26,14.1358
2001-03-27,13.9388
2001-03-28,13.9794
2001-03-29,13.9272
2001-03-30,14.2517
2001-04-02,14.3135
2001-04-03,14.0956
2001-04-04,14.0662
2001-04-05,14.1486
2001-04-06,14.0368
2001-04-09,14.131
2001-04-10,13.8307
2001-04-11,13.5422
2001-04-12,13.5127
2001-04-16,13.4303
2001-04-17,13.5363
2001-04-18,13.7483
2001-04-19,13.9602
2001-04-20,13.8484
2001-04-23,13.8719
2001-04-24,14.025
2001-04-25,14.0721
2001-04-26,14.5019
2001-04-27,14.7492
2001-04-30,14.7198
2001-05-01,14.7551
2001-05-02,14.5785
2001-05-03,14.5019
2001-05-04,14.3076
2001-05-07,14.3017
2001-05-08,14.2841
2001-05-09,14.2782
2001-05-10,14.2723
2001-05-11,14.1427
2001-05-14,14.131
2001-05-15,14.184
2001-05-16,14.237
2001-05-17,14.3665
2001-05-18,14.4842
2001-05-21,14.5902
2001-05-22,14.5372
2001-05-23,14.5902
2001-05-24,14.5313
2001-05-25,14.5431
2001-05-29,14.5137
2001-05-30,14.4725
2001-05-31,14.5372
2001-06-01,14.5019
2001-06-04,14.4195
2001-06-05,14.4901
2001-06-06,14.4548
2001-06-07,14.5078
2001-06-08,14.5372
2001-06-11,14.708
2001-06-12,14.6609
2001-06-13,14.7139
2001-06-14,14.7021
2001-06-15,14.5843
2001-06-18,14.7198
2001-06-19,14.7198
2001-06-20,14.7256
2001-06-21,14.867
2001-06-22,14.867
2001-06-25,14.9612
2001-06-26,14.9553
2001-06-27,14.9612
2001-06-28,14.9788
2001-06-29,15.1672
2001-07-02,15.1882
2001-07-03,15.236
2001-07-05,15.4094
2001-07-06,15.2898
2001-07-09,15.0387
2001-07-10,14.9968
2001-07-11,14.9729
2001-07-12,15.0805
2001-07-13,15.1882
2001-07-16,15.2659
2001-07-17,15.3795
2001-07-18,15.4034
2001-07-19,15.4094
2001-07-20,15.4034
2001-07-23,15.4274
2001-07-24,15.2958
2001-07-25,15.2898
2001-07-26,15.3616
2001-07-27,15.2958
2001-07-30,15.0088
2001-07-31,14.949
2001-08-01,15.0267
2001-08-02,15.2121
2001-08-03,15.3137
2001-08-06,15.4573
2001-08-07,15.517
2001-08-08,15.529
2001-08-09,15.4872
2001-08-10,15.5709
2001-08-13,15.4931
2001-08-14,15.6008
2001-08-15,15.8579
2001-08-16,15.9237
2001-08-17,15.8639
2001-08-20,15.8519
2001-08-21,15.9296
2001-08-22,15.8459
2001-08-23,15.7383
2001-08-24,15.7263
2001-08-27,15.6486
2001-08-28,15.6725
2001-08-29,15.5469
2001-08-30,15.4573
2001-08-31,15.3317
2001-09-04,15.1104
2001-09-05,15.2121
2001-09-06,14.955
2001-09-07,14.9729
2001-09-10,14.9071
2001-09-17,14.3809
2001-09-18,14.5005
2001-09-19,14.357
2001-09-20,14.2314
2001-09-21,14.1178
2001-09-24,13.9624
2001-09-25,14.1417
2001-09-26,14.2075
2001-09-27,14.345
2001-09-28,14.6201
2001-10-01,14.8653
2001-10-02,14.7518
2001-10-03,14.2293
2001-10-04,14.3265
2001-10-05,14.3569
2001-10-08,14.363
2001-10-09,14.3326
2001-10-10,14.3873
2001-10-11,14.5635
2001-10-12,14.5695
2001-10-15,14.6425
2001-10-16,14.6425
2001-10-17,14.5938
2001-10-18,14.448
2001-10-19,14.4237
2001-10-22,14.1868
2001-10-23,14.1442
2001-10-24,14.1625
2001-10-25,14.363
2001-10-26,14.5878
2001-10-29,14.6242
2001-10-30,14.6121
2001-10-31,14.7822
2001-11-01,14.8855
2001-11-02,14.8247
2001-11-05,14.6607
2001-11-06,14.8794
2001-11-07,14.8673
2001-11-08,14.8855
2001-11-09,14.8733
2001-11-12,14.8855
2001-11-13,15.0617
2001-11-14,15.3108
2001-11-15,15.4931
2001-11-16,15.5903
2001-11-19,15.3958
2001-11-20,15.4201
2001-11-21,15.4262
2001-11-23,15.4809
2001-11-26,15.4809
2001-11-27,15.3837
2001-11-28,15.487
2001-11-29,15.5356
2001-11-30,15.4931
2001-12-03,15.4323
2001-12-04,15.4931
2001-12-05,15.5781
2001-12-06,15.7968
2001-12-07,15.8576
2001-12-10,15.7361
2001-12-11,15.8758
2001-12-12,15.7671
2001-12-13,15.798
2001-12-14,16.0139
2001-12-17,16.0262
2001-12-18,16.0386
2001-12-19,15.946
2001-12-20,15.9522
2001-12-21,16.0694
2001-12-24,16.0632
2001-12-26,16.0571
2001-12-27,16.1126
2001-12-28,16.0694
2001-12-31,15.9152
2002-01-02,16.0756
2002-01-03,16.2236
2002-01-04,16.2113
2002-01-07,16.1681
2002-01-08,16.0447
2002-01-09,16.1002
2002-01-10,15.9522
2002-01-11,16.0077
2002-01-14,16.1681
2002-01-15,16.1743
2002-01-16,16.1989
2002-01-17,16.1804
2002-01-18,16.1002
2002-01-22,16.02
2002-01-23,15.9275
2002-01-24,15.8843
2002-01-25,15.9152
2002-01-28,15.7301
2002-01-29,15.6376
2002-01-30,15.6129
2002-01-31,15.7486
2002-02-01,15.7178
2002-02-04,15.8103
2002-02-05,16.0447
2002-02-06,16.1002
2002-02-07,16.0139
2002-02-08,15.8843
2002-02-11,16.0324
2002-02-12,16.0386
2002-02-13,16.0632
2002-02-14,16.2421
2002-02-15,16.0694
2002-02-19,16.0817
2002-02-20,16.1866
2002-02-21,16.0447
2002-02-22,16.1002
2002-02-25,16.1311
2002-02-26,16.2174
2002-02-27,16.0139
2002-02-28,16.0386
2002-03-01,16.2668
2002-03-04,16.347
2002-03-05,16.6554
2002-03-06,16.8775
2002-03-07,16.9083
2002-03-08,16.97
2002-03-11,16.6431
2002-03-12,16.6307
2002-03-13,16.6554
2002-03-14,16.748
2002-03-15,16.896
2002-03-18,16.9947
2002-03-19,16.9885
2002-03-20,16.9947
2002-03-21,17.0255
2002-03-22,17.0009
2002-03-25,16.8343
2002-03-26,16.9577
2002-03-27,16.9947
2002-03-28,16.8898
2002-04-01,16.9885
2002-04-02,17.1826
2002-04-03,17.1952
2002-04-04,17.2265
2002-04-05,17.4081
2002-04-08,17.502
2002-04-09,17.9654
2002-04-10,18.2847
2002-04-11,18.1157
2002-04-12,18.1595
2002-04-15,18.0718
2002-04-16,17.9403
2002-04-17,17.502
2002-04-18,17.7212
2002-04-19,17.6585
2002-04-22,17.4895
2002-04-23,17.3079
2002-04-24,17.5646
2002-04-25,17.5584
2002-04-26,17.4832
2002-04-29,17.502
2002-04-30,17.5333
2002-05-01,17.765
2002-05-02,18.0405
2002-05-03,18.1658
2002-05-06,17.9716
2002-05-07,17.8902
2002-05-08,17.6648
2002-05-09,17.5521
2002-05-10,17.4081
2002-05-13,17.4018
2002-05-14,17.4644
2002-05-15,17.6585
2002-05-16,17.5709
2002-05-17,17.6836
2002-05-20,17.5521
2002-05-21,17.5396
2002-05-22,17.6022
2002-05-23,17.9591
2002-05-24,17.9716
2002-05-28,18.0906
2002-05-29,18.2221
2002-05-30,18.2534
2002-05-31,18.3223
2002-06-03,18.2346
2002-06-04,18.2472
2002-06-05,18.1595
2002-06-06,18.2221
2002-06-07,18.2597
2002-06-10,18.3787
2002-06-11,18.5039
2002-06-12,18.554
2002-06-13,18.5853
2002-06-14,18.5916
2002-06-17,18.5227
2002-06-18,18.4726
2002-06-19,18.5039
2002-06-20,18.6855
2002-06-21,19.105
2002-06-24,19.105
2002-06-25,19.2553
2002-06-26,19.0925
2002-06-27,19.3555
2002-06-28,19.3493
2002-07-01,19.3054
2002-07-02,19.0198
2002-07-03,18.6835
2002-07-05,18.6835
2002-07-08,18.5946
2002-07-09,18.0679
2002-07-10,18.0235
2002-07-11,17.7442
2002-07-12,17.7379
2002-07-15,17.6681
2002-07-16,17.776
2002-07-17,17.8648
2002-07-18,17.5158
2002-07-19,17.3698
2002-07-22,17.0208
2002-07-23,16.7859
2002-07-24,16.7098
2002-07-25,17.4142
2002-07-26,17.5412
2002-07-29,18.1821
2002-07-30,18.7787
2002-07-31,18.8485
2002-08-01,18.5629
2002-08-02,18.4043
2002-08-05,18.3091
2002-08-06,18.455
2002-08-07,18.5312
2002-08-08,18.7152
2002-08-09,18.4931
2002-08-12,18.6454
2002-08-13,18.3218
2002-08-14,18.271
2002-08-15,18.4106
2002-08-16,18.6771
2002-08-19,18.4868
2002-08-20,18.5693
2002-08-21,18.7089
2002-08-22,18.6771
2002-08-23,18.8485
2002-08-26,18.8485
2002-08-27,18.7914
2002-08-28,18.8358
2002-08-29,18.8358
2002-08-30,18.9247
2002-09-03,18.6645
2002-09-04,18.4043
2002-09-05,18.3662
2002-09-06,18.3916
2002-09-09,18.4931
2002-09-10,18.5375
2002-09-11,18.5946
2002-09-12,18.4614
2002-09-13,18.4931
2002-09-16,18.4804
2002-09-17,18.4677
2002-09-18,18.582
2002-09-19,18.5375
2002-09-20,18.6581
2002-09-23,18.4931
2002-09-24,18.3408
2002-09-25,18.1821
2002-09-26,18.3344
2002-09-27,18.2773
2002-09-30,18.2456
2002-10-01,18.3471
2002-10-02,18.0895
2002-10-03,18.2183
2002-10-04,17.9801
2002-10-07,17.2205
2002-10-08,16.86
2002-10-09,16.0939
2002-10-10,16.6411
2002-10-11,16.9243
2002-10-14,16.9179
2002-10-15,17.0853
2002-10-16,16.9308
2002-10-17,17.317
2002-10-18,17.5102
2002-10-21,17.4007
2002-10-22,17.0016
2002-10-23,17.0016
2002-10-24,17.4458
2002-10-25,17.4394
2002-10-28,17.4394
2002-10-29,17.2527
2002-10-30,17.2527
2002-10-31,17.2784
2002-11-01,17.3878
2002-11-04,17.8449
2002-11-05,18.0509
2002-11-06,17.7741
2002-11-07,17.7097
2002-11-08,17.3814
2002-11-11,17.3685
2002-11-12,17.2462
2002-11-13,17.214
2002-11-14,17.3685
2002-11-15,17.3042
2002-11-18,17.2527
2002-11-19,17.1239
2002-11-20,17.0853
2002-11-21,17.1432
2002-11-22,17.1561
2002-11-25,17.1947
2002-11-26,17.6389
2002-11-27,17.8514
2002-11-29,17.7999
2002-12-02,18.0316
2002-12-03,17.9672
2002-12-04,17.8964
2002-12-05,18.0252
2002-12-06,17.993
2002-12-09,18.2505
2002-12-10,18.1925
2002-12-11,18.1668
2002-12-12,18.2312
2002-12-13,17.9994
2002-12-16,18.1089
2002-12-17,18.0252
2002-12-18,17.9409
2002-12-19,17.7841
2002-12-20,17.771
2002-12-23,17.7384
2002-12-24,17.6534
2002-12-26,17.6338
2002-12-27,17.6469
2002-12-30,17.7318
2002-12-31,17.8364
2003-01-02,17.7384
2003-01-03,18.0651
2003-01-06,18.2219
2003-01-07,18.0977
2003-01-08,17.9736
2003-01-09,17.869
2003-01-10,17.8037
2003-01-13,17.7384
2003-01-14,17.7057
2003-01-15,17.366
2003-01-16,17.0654
2003-01-17,16.9936
2003-01-21,17.0589
2003-01-22,17.0393
2003-01-23,17.2026
2003-01-24,17.5424
2003-01-27,17.4313
2003-01-28,17.562
2003-01-29,17.7057
2003-01-30,17.6469
2003-01-31,18.052
2003-02-03,17.8233
2003-02-04,17.7384
2003-02-05,17.8102
2003-02-06,17.9344
2003-02-07,17.8298
2003-02-10,17.967
2003-02-11,17.771
2003-02-12,17.6534
2003-02-13,17.6665
2003-02-14,17.5946
2003-02-18,17.7906
2003-02-19,17.9213
2003-02-20,18.0389
2003-02-21,18.3264
2003-02-24,18.0258
2003-02-25,18.2611
2003-02-26,18.0651
2003-02-27,18.2415
2003-02-28,18.2872
2003-03-03,18.2676
2003-03-04,18.15
2003-03-05,18.2676
2003-03-06,18.1304
2003-03-07,18.2937
2003-03-10,17.9997
2003-03-11,18.0455
2003-03-12,17.9213
2003-03-13,18.2349
2003-03-14,18.2219
2003-03-17,18.3917
2003-03-18,18.3656
2003-03-19,18.4701
2003-03-20,18.5093
2003-03-21,18.7772
2003-03-24,18.3591
2003-03-25,18.4897
2003-03-26,18.64
2003-03-27,18.4767
2003-03-28,18.5093
2003-03-31,18.4701
2003-04-01,18.7641
2003-04-02,18.9927
2003-04-03,18.9197
2003-04-04,18.6678
2003-04-07,18.7938
2003-04-08,18.6015
2003-04-09,18.1441
2003-04-10,17.9452
2003-04-11,17.8922
2003-04-14,18.2502
2003-04-15,18.3098
2003-04-16,18.2833
2003-04-17,18.396
2003-04-21,18.5684
2003-04-22,18.701
2003-04-23,18.8733
2003-04-24,18.4358
2003-04-25,18.3032
2003-04-28,18.1507
2003-04-29,18.2104
2003-04-30,18.0778
2003-05-01,18.2634
2003-05-02,18.29
2003-05-05,18.2634
2003-05-06,18.2369
2003-05-07,18.1507
2003-05-08,18.4292
2003-05-09,18.5618
2003-05-12,18.5485
2003-05-13,18.4623
2003-05-14,18.3165
2003-05-15,18.3563
2003-05-16,18.3032
2003-05-19,18.2104
2003-05-20,18.4027
2003-05-21,18.4491
2003-05-22,18.6479
2003-05-23,18.7606
2003-05-27,18.6015
2003-05-28,18.3165
2003-05-29,17.8922
2003-05-30,18.164
2003-06-02,18.522
2003-06-03,18.7076
2003-06-04,19.0059
2003-06-05,18.9065
2003-06-06,19.2711
2003-06-09,18.9264
2003-06-10,18.9927
2003-06-11,19.2313
2003-06-12,19.0855
2003-06-13,18.7275
2003-06-16,19.0921
2003-06-17,18.933
2003-06-18,18.628
2003-06-19,18.6612
2003-06-20,18.6546
2003-06-23,18.3894
2003-06-24,18.3496
2003-06-25,18.4424
2003-06-26,18.9065
2003-06-27,18.9396
2003-06-30,18.6877
2003-07-01,19.0681
2003-07-02,19.1353
2003-07-03,19.1959
2003-07-07,19.2564
2003-07-08,18.9402
2003-07-09,18.6307
2003-07-10,18.1463
2003-07-11,18.153
2003-07-14,18.3818
2003-07-15,18.5096
2003-07-16,18.6105
2003-07-17,18.3616
2003-07-18,18.5567
2003-07-21,18.5634
2003-07-22,18.4961
2003-07-23,18.4894
2003-07-24,18.6038
2003-07-25,18.6913
2003-07-28,18.4154
2003-07-29,18.6913
2003-07-30,19.0277
2003-07-31,18.9469
2003-08-01,18.8393
2003-08-04,18.6576
2003-08-05,18.7047
2003-08-06,18.7182
2003-08-07,18.6778
2003-08-08,18.5903
2003-08-11,18.7922
2003-08-12,18.8393
2003-08-13,18.6913
2003-08-14,18.7518
2003-08-15,18.8124
2003-08-18,18.9469
2003-08-19,18.9739
2003-08-20,19.0142
2003-08-21,19.1084
2003-08-22,18.8595
2003-08-25,18.6374
2003-08-26,18.7047
2003-08-27,19.0748
2003-08-28,19.0479
2003-08-29,19.1555
2003-09-02,19.539
2003-09-03,19.7947
2003-09-04,19.8755
2003-09-05,19.7342
2003-09-08,19.9158
2003-09-09,20.01
2003-09-10,19.5458
2003-09-11,19.7476
2003-09-12,19.7745
2003-09-15,19.7072
2003-09-16,19.7207
2003-09-17,19.7072
2003-09-18,20.0437
2003-09-19,20.2926
2003-09-22,20.3195
2003-09-23,20.6088
2003-09-24,20.3532
2003-09-25,20.2724
2003-09-26,20.4137
2003-09-29,20.6223
2003-09-30,20.7501
2003-10-01,20.7675
2003-10-02,20.8016
2003-10-03,20.9721
2003-10-06,21.1085
2003-10-07,20.863
2003-10-08,20.8698
2003-10-09,20.7811
2003-10-10,20.9721
2003-10-13,21.0403
2003-10-14,21.4017
2003-10-15,21.279
2003-10-16,21.4427
2003-10-17,21.4358
2003-10-20,21.3881
2003-10-21,21.3472
2003-10-22,21.0812
2003-10-23,20.7265
2003-10-24,20.6652
2003-10-27,20.9789
2003-10-28,20.7402
2003-10-29,20.8834
2003-10-30,20.8698
2003-10-31,20.5015
2003-11-03,20.7129
2003-11-04,20.8698
2003-11-05,20.822
2003-11-06,20.8834
2003-11-07,21.2449
2003-11-10,21.2585
2003-11-11,21.1767
2003-11-12,21.5177
2003-11-13,21.3199
2003-11-14,21.811
2003-11-17,21.7018
2003-11-18,21.6405
2003-11-19,21.4154
2003-11-20,21.1153
2003-11-21,20.9039
2003-11-24,21.0471
2003-11-25,21.2926
2003-11-26,21.2858
2003-11-28,21.4563
2003-12-01,21.8178
2003-12-02,21.7428
2003-12-03,21.7291
2003-12-04,21.6677
2003-12-05,21.7428
2003-12-08,22.0224
2003-12-09,21.9064
2003-12-10,21.8382
2003-12-11,22.0087
2003-12-12,22.227
2003-12-15,22.0769
2003-12-16,22.3634
2003-12-17,22.3498
2003-12-18,22.6292
2003-12-19,22.65
2003-12-22,22.795
2003-12-23,22.7605
2003-12-24,22.8779
2003-12-26,22.8986
2003-12-29,22.871
2003-12-30,23.1128
2003-12-31,22.7812
2004-01-02,22.7329
2004-01-05,22.795
2004-01-06,22.8779
2004-01-07,22.871
2004-01-08,22.8779
2004-01-09,22.9401
2004-01-12,23.0022
2004-01-13,22.7743
2004-01-14,23.3407
2004-01-15,23.3684
2004-01-16,23.3338
2004-01-20,23.5134
2004-01-21,23.5134
2004-01-22,23.7068
2004-01-23,24.0522
2004-01-26,24.1489
2004-01-27,24.294
2004-01-28,24.2732
2004-01-29,24.0177
2004-01-30,24.1765
2004-02-02,24.3216
2004-02-03,24.6877
2004-02-04,23.9831
2004-02-05,24.2318
2004-02-06,24.515
2004-02-09,24.4252
2004-02-10,24.7361
2004-02-11,25.0193
2004-02-12,24.9778
2004-02-13,24.7084
2004-02-17,24.5565
2004-02-18,24.3285
2004-02-19,24.1904
2004-02-20,24.1696
2004-02-23,24.1834
2004-02-24,24.1144
2004-02-25,24.2249
2004-02-26,24.3009
2004-02-27,24.4528
2004-03-01,24.888
2004-03-02,25.261
2004-03-03,25.2058
2004-03-04,25.261
2004-03-05,25.2679
2004-03-08,25.2058
2004-03-09,25.1989
2004-03-10,24.7568
2004-03-11,24.5703
2004-03-12,24.7291
2004-03-15,24.3354
2004-03-16,24.2871
2004-03-17,24.8051
2004-03-18,24.8673
2004-03-19,25.0469
2004-03-22,24.9778
2004-03-23,25.1367
2004-03-24,24.9778
2004-03-25,25.337
2004-03-26,25.0952
2004-03-29,25.1781
2004-03-30,25.3646
2004-03-31,25.5857
2004-04-01,25.8467
2004-04-02,25.658
2004-04-05,24.7566
2004-04-06,23.8552
2004-04-07,24.2815
2004-04-08,23.5478
2004-04-12,22.6115
2004-04-13,22.6674
2004-04-14,22.4857
2004-04-15,22.9189
2004-04-16,22.8351
2004-04-19,22.7372
2004-04-20,21.745
2004-04-21,21.766
2004-04-22,22.0664
2004-04-23,21.773
2004-04-26,21.745
2004-04-27,21.9407
2004-04-28,21.759
2004-04-29,21.4096
2004-04-30,21.0533
2004-05-03,21.4446
2004-05-04,21.738
2004-05-05,21.6193
2004-05-06,21.6961
2004-05-07,20.7109
2004-05-10,20.4384
2004-05-11,20.7458
2004-05-12,20.669
2004-05-13,20.5292
2004-05-14,20.8087
2004-05-17,20.9694
2004-05-18,21.4236
2004-05-19,21.0882
2004-05-20,21.5564
2004-05-21,21.5354
2004-05-24,21.7241
2004-05-25,22.2621
2004-05-26,22.6115
2004-05-27,22.5765
2004-05-28,23.0587
2004-06-01,22.8351
2004-06-02,23.1775
2004-06-03,23.1635
2004-06-04,23.0517
2004-06-07,23.408
2004-06-08,23.457
2004-06-09,23.4639
2004-06-10,23.4919
2004-06-14,23.0307
2004-06-15,23.6107
2004-06-16,23.5757
2004-06-17,23.8902
2004-06-18,24.1068
2004-06-21,24.4771
2004-06-22,24.4911
2004-06-23,24.8684
2004-06-24,24.6448
2004-06-25,24.8964
2004-06-28,25.3855
2004-06-29,24.4841
2004-06-30,24.4394
2004-07-01,24.5738
2004-07-02,25.0407
2004-07-06,24.6941
2004-07-07,25.0124
2004-07-08,24.4748
2004-07-09,24.5385
2004-07-12,24.7436
2004-07-13,24.3687
2004-07-14,24.6799
2004-07-15,25.2034
2004-07-16,25.2883
2004-07-19,25.2812
2004-07-20,25.5712
2004-07-21,25.0761
2004-07-22,24.6941
2004-07-23,24.4606
2004-07-26,24.2697
2004-07-27,24.1848
2004-07-28,24.4324
2004-07-29,24.5455
2004-07-30,24.8426
2004-08-02,25.1256
2004-08-03,25.2034
2004-08-04,25.2741
2004-08-05,24.588
2004-08-06,24.3687
2004-08-09,24.6163
2004-08-10,24.8073
2004-08-11,24.7436
2004-08-12,24.5385
2004-08-13,24.3899
2004-08-16,24.6516
2004-08-17,24.9275
2004-08-18,25.2458
2004-08-19,24.8709
2004-08-20,25.649
2004-08-23,25.6915
2004-08-24,26.0239
2004-08-25,26.0593
2004-08-26,26.1371
2004-08-27,26.123
2004-08-30,26.2078
2004-08-31,26.3776
2004-09-01,26.2432
2004-09-02,26.3918
2004-09-03,26.5757
2004-09-07,26.8657
2004-09-08,26.5969
2004-09-09,26.2361
2004-09-10,26.0876
2004-09-13,25.9673
2004-09-14,25.55
2004-09-15,25.6773
2004-09-16,26.3139
2004-09-17,26.2149
2004-09-20,26.031
2004-09-21,26.0805
2004-09-22,25.8259
2004-09-23,25.4439
2004-09-24,25.8683
2004-09-27,25.6773
2004-09-28,25.9249
2004-09-29,25.9673
2004-09-30,26.1088
2004-10-01,26.5623
2004-10-04,26.5623
2004-10-05,26.5838
2004-10-06,26.6553
2004-10-07,26.1401
2004-10-08,26.4192
2004-10-11,26.1329
2004-10-12,26.4049
2004-10-13,26.1115
2004-10-14,26.0829
2004-10-15,26.3762
2004-10-18,26.5122
2004-10-19,26.1973
2004-10-20,26.1043
2004-10-21,26.4335
2004-10-22,26.3047
2004-10-25,26.3691
2004-10-26,26.8056
2004-10-27,26.9702
2004-10-28,26.8771
2004-10-29,26.8199
2004-11-01,27.3423
2004-11-02,27.192
2004-11-03,27.4138
2004-11-04,28.0507
2004-11-05,27.0489
2004-11-08,26.9415
2004-11-09,27.0059
2004-11-10,27.2421
2004-11-11,27.607
2004-11-12,28.0364
2004-11-15,28.6947
2004-11-16,28.4085
2004-11-17,27.8217
2004-11-18,27.8503
2004-11-19,27.6929
2004-11-22,27.9434
2004-11-23,28.2868
2004-11-24,28.6661
2004-11-26,28.4156
2004-11-29,28.3512
2004-11-30,28.523
2004-12-01,29.2672
2004-12-02,29.0668
2004-12-03,29.1241
2004-12-06,29.0024
2004-12-07,28.4371
2004-12-08,28.5516
2004-12-09,28.4514
2004-12-10,28.9738
2004-12-13,28.752
2004-12-14,28.6017
2004-12-15,28.8593
2004-12-16,28.5516
2004-12-17,28.8307
2004-12-20,28.8307
2004-12-21,29.2818
2004-12-22,29.6145
2004-12-23,29.3252
2004-12-27,29.1661
2004-12-28,29.3975
2004-12-29,29.5566
2004-12-30,29.7013
2004-12-31,29.2601
2005-01-03,29.2167
2005-01-04,29.2746
2005-01-05,28.132
2005-01-06,28.4068
2005-01-07,28.2115
2005-01-10,27.9801
2005-01-11,27.7631
2005-01-12,27.3871
2005-01-13,27.5317
2005-01-14,27.7342
2005-01-18,28.2115
2005-01-19,28.5153
2005-01-20,28.2838
2005-01-21,28.3489
2005-01-24,28.3562
2005-01-25,27.7414
2005-01-26,27.3943
2005-01-27,26.8953
2005-01-28,26.9315
2005-01-31,26.9098
2005-02-01,27.0761
2005-02-02,27.2063
2005-02-03,27.727
2005-02-04,28.0596
2005-02-07,27.8933
2005-02-08,27.8355
2005-02-09,28.1247
2005-02-10,28.1826
2005-02-11,28.0958
2005-02-14,28.1971
2005-02-15,28.4212
2005-02-16,28.5297
2005-02-17,28.6671
2005-02-18,28.6671
2005-02-22,27.821
2005-02-23,27.5028
2005-02-24,27.4377
2005-02-25,28.009
2005-02-28,28.0018
2005-03-01,28.4574
2005-03-02,28.0307
2005-03-03,27.9729
2005-03-04,28.9709
2005-03-07,28.9564
2005-03-08,28.7611
2005-03-09,27.6185
2005-03-10,27.8716
2005-03-11,27.5606
2005-03-14,28.0235
2005-03-15,27.9584
2005-03-16,27.6981
2005-03-17,27.9222
2005-03-18,27.6691
2005-03-21,27.5606
2005-03-22,27.0038
2005-03-23,26.7145
2005-03-24,26.6928
2005-03-28,26.7579
2005-03-29,26.8809
2005-03-30,27.1412
2005-03-31,27.228
2005-04-01,27.3657
2005-04-04,27.2047
2005-04-05,27.0365
2005-04-06,27.1243
2005-04-07,27.2121
2005-04-08,27.1535
2005-04-11,27.1462
2005-04-12,27.5852
2005-04-13,27.5267
2005-04-14,27.2779
2005-04-15,27.3145
2005-04-18,27.4389
2005-04-19,27.7828
2005-04-20,27.673
2005-04-21,27.9145
2005-04-22,27.9072
2005-04-25,28.3682
2005-04-26,28.3389
2005-04-27,28.5657
2005-04-28,28.2438
2005-04-29,28.5218
2005-05-02,28.6535
2005-05-03,28.5584
2005-05-04,28.7486
2005-05-05,29.1438
2005-05-06,28.9462
2005-05-09,29.3267
2005-05-10,29.2974
2005-05-11,29.356
2005-05-12,29.1291
2005-05-13,28.9096
2005-05-16,29.3413
2005-05-17,29.3925
2005-05-18,29.6267
2005-05-19,30.1169
2005-05-20,30.0145
2005-05-23,29.9706
2005-05-24,29.5169
2005-05-25,29.0706
2005-05-26,29.1364
2005-05-27,29.2682
2005-05-31,29.495
2005-06-01,29.8681
2005-06-02,29.773
2005-06-03,29.7072
2005-06-06,30.7242
2005-06-07,31.0608
2005-06-08,31.0755
2005-06-09,31.1633
2005-06-10,31.273
2005-06-13,31.5364
2005-06-14,31.9681
2005-06-15,32.1511
2005-06-16,31.9023
2005-06-17,32.0486
2005-06-20,31.9462
2005-06-21,31.6096
2005-06-22,31.5145
2005-06-23,31.5218
2005-06-24,31.3316
2005-06-27,31.4486
2005-06-28,31.4925
2005-06-29,31.6096
2005-06-30,31.7413
2005-07-01,32.2214
2005-07-05,32.9828
2005-07-06,32.6723
2005-07-07,32.7314
2005-07-08,33.0419
2005-07-11,33.3745
2005-07-12,33.308
2005-07-13,33.4559
2005-07-14,33.1528
2005-07-15,32.798
2005-07-18,32.968
2005-07-19,33.2341
2005-07-20,34.0768
2005-07-21,33.552
2005-07-22,33.7294
2005-07-25,33.4115
2005-07-26,33.4263
2005-07-27,33.3893
2005-07-28,34.195
2005-07-29,33.9955
2005-08-01,33.7811
2005-08-02,34.0694
2005-08-03,33.9142
2005-08-04,33.1232
2005-08-05,32.1327
2005-08-08,31.2457
2005-08-09,31.4674
2005-08-10,31.3344
2005-08-11,31.4009
2005-08-12,31.8888
2005-08-15,32.1401
2005-08-16,32.1105
2005-08-17,31.9701
2005-08-18,31.7114
2005-08-19,31.6374
2005-08-22,31.9849
2005-08-23,32.081
2005-08-24,32.2953
2005-08-25,32.4949
2005-08-26,32.2731
2005-08-29,32.1475
2005-08-30,32.1253
2005-08-31,32.7758
2005-09-01,33.0493
2005-09-02,32.9606
2005-09-06,33.515
2005-09-07,33.345
2005-09-08,33.2785
2005-09-09,33.478
2005-09-12,33.4928
2005-09-13,33.2193
2005-09-14,33.2637
2005-09-15,33.4706
2005-09-16,33.5815
2005-09-19,33.5076
2005-09-20,33.1306
2005-09-21,32.2436
2005-09-22,32.4432
2005-09-23,32.4136
2005-09-26,32.7019
2005-09-27,32.6206
2005-09-28,32.1031
2005-09-29,32.7314
2005-09-30,33.1676
2005-10-03,33.3689
2005-10-04,33.0479
2005-10-05,32.2492
2005-10-06,32.3611
2005-10-07,32.0625
2005-10-10,31.8684
2005-10-11,31.8908
2005-10-12,30.9204
2005-10-13,31.0995
2005-10-14,31.9954
2005-10-17,32.2492
2005-10-18,31.7266
2005-10-19,32.1521
2005-10-20,31.9132
2005-10-21,32.1073
2005-10-24,32.824
2005-10-25,32.6
2005-10-26,32.2118
2005-10-27,31.7565
2005-10-28,32.8389
2005-10-31,32.9285
2005-11-01,32.809
2005-11-02,33.0031
2005-11-03,32.5776
2005-11-04,32.1596
2005-11-07,32.167
2005-11-08,31.7714
2005-11-09,32.2044
2005-11-10,32.936
2005-11-11,33.1674
2005-11-14,33.2346
2005-11-15,33.0554
2005-11-16,32.7866
2005-11-17,33.2122
2005-11-18,33.6003
2005-11-21,33.6078
2005-11-22,33.8915
2005-11-23,34.317
2005-11-25,34.2946
2005-11-28,34.2722
2005-11-29,34.8918
2005-11-30,34.9366
2005-12-01,35.3621
2005-12-02,35.8249
2005-12-05,35.6831
2005-12-06,35.6458
2005-12-07,35.6458
2005-12-08,37.0119
2005-12-09,37.0194
2005-12-12,37.1836
2005-12-13,37.191
2005-12-14,37.1537
2005-12-15,36.8253
2005-12-16,36.8477
2005-12-19,36.4669
2005-12-20,36.3013
2005-12-21,37.16
2005-12-22,37.0998
2005-12-23,37.3333
2005-12-27,37.0018
2005-12-28,37.0546
2005-12-29,36.7759
2005-12-30,37.0094
2006-01-03,37.5291
2006-01-04,37.3634
2006-01-05,37.3936
2006-01-06,37.6949
2006-01-09,37.7551
2006-01-10,38.3954
2006-01-11,38.418
2006-01-12,38.2523
2006-01-13,37.5819
2006-01-17,37.4764
2006-01-18,37.145
2006-01-19,37.7853
2006-01-20,37.5065
2006-01-23,37.6572
2006-01-24,38.4256
2006-01-25,38.2222
2006-01-26,38.3502
2006-01-27,38.5461
2006-01-30,38.742
2006-01-31,39.2542
2006-02-01,39.661
2006-02-02,39.1638
2006-02-03,39.0357
2006-02-06,39.1261
2006-02-07,38.742
2006-02-08,38.1167
2006-02-09,38.2146
2006-02-10,38.2372
2006-02-13,38.1393
2006-02-14,38.3502
2006-02-15,38.4858
2006-02-16,38.8549
2006-02-17,39.0207
2006-02-21,39.1638
2006-02-22,40.1883
2006-02-23,40.3013
2006-02-24,40.3841
2006-02-27,40.5423
2006-02-28,40.3841
2006-03-01,40.5273
2006-03-02,40.467
2006-03-03,39.9623
2006-03-06,40.1732
2006-03-07,39.5103
2006-03-08,39.5932
2006-03-09,40.1581
2006-03-10,40.6026
2006-03-13,40.3163
2006-03-14,40.8436
2006-03-15,41.3559
2006-03-16,41.8757
2006-03-17,42.5386
2006-03-20,41.725
2006-03-21,41.1902
2006-03-22,41.3408
2006-03-23,41.2203
2006-03-24,41.2203
2006-03-27,40.6327
2006-03-28,40.7307
2006-03-29,41.5894
2006-03-30,40.821
2006-03-31,40.8662
2006-04-03,39.8116
2006-04-04,39.5607
2006-04-05,39.8342
2006-04-06,39.5835
2006-04-07,38.9679
2006-04-10,38.6488
2006-04-11,38.55
2006-04-12,38.5652
2006-04-13,37.8357
2006-04-17,37.6761
2006-04-18,38.2688
2006-04-19,38.5576
2006-04-20,38.8084
2006-04-21,38.9071
2006-04-24,38.5424
2006-04-25,38.3524
2006-04-26,37.9801
2006-04-27,38.3296
2006-04-28,38.0257
2006-05-01,37.5849
2006-05-02,37.0606
2006-05-03,37.4177
2006-05-04,38.0637
2006-05-05,38.4816
2006-05-08,38.8084
2006-05-09,38.6944
2006-05-10,38.9907
2006-05-11,38.3372
2006-05-12,38.0788
2006-05-15,38.36
2006-05-16,38.1396
2006-05-17,37.3569
2006-05-18,36.8934
2006-05-19,36.9314
2006-05-22,36.2627
2006-05-23,35.6168
2006-05-24,36.1107
2006-05-25,36.901
2006-05-26,37.4101
2006-05-30,37.3569
2006-05-31,37.5621
2006-06-01,38.3676
2006-06-02,38.6108
2006-06-05,38.3828
2006-06-06,38.1472
2006-06-07,38.0333
2006-06-08,37.9497
2006-06-09,38.36
2006-06-12,37.6913
2006-06-13,37.5089
2006-06-14,37.0302
2006-06-15,37.4405
2006-06-16,37.4253
2006-06-19,36.559
2006-06-20,36.5134
2006-06-21,37.0378
2006-06-22,36.6578
2006-06-23,36.5134
2006-06-26,36.9314
2006-06-27,36.8554
2006-06-28,37.0834
2006-06-29,37.6913
2006-06-30,38.512
2006-07-03,39.1503
2006-07-05,38.7056
2006-07-06,39.1273
2006-07-07,39.2883
2006-07-10,39.6027
2006-07-11,39.5644
2006-07-12,39.7791
2006-07-13,39.4264
2006-07-14,39.112
2006-07-17,39.319
2006-07-18,39.7177
2006-07-19,40.1318
2006-07-20,39.1503
2006-07-21,38.7746
2006-07-24,39.7714
2006-07-25,39.8327
2006-07-26,39.9017
2006-07-27,39.6027
2006-07-28,40.3618
2006-07-31,40.2315
2006-08-01,40.4461
2006-08-02,41.0902
2006-08-03,41.4889
2006-08-04,42.1253
2006-08-07,41.4813
2006-08-08,41.1976
2006-08-09,40.6225
2006-08-10,40.6302
2006-08-11,40.2851
2006-08-14,40.3388
2006-08-15,40.8985
2006-08-16,40.9752
2006-08-17,40.6685
2006-08-18,40.8832
2006-08-21,41.1439
2006-08-22,41.5426
2006-08-23,41.1822
2006-08-24,41.1439
2006-08-25,41.0595
2006-08-28,41.7113
2006-08-29,41.9106
2006-08-30,42.4244
2006-08-31,42.8154
2006-09-01,42.5854
2006-09-05,42.7387
2006-09-06,42.7387
2006-09-07,42.409
2006-09-08,42.9227
2006-09-11,42.6314
2006-09-12,43.3598
2006-09-13,43.6895
2006-09-14,43.5208
2006-09-15,43.7892
2006-09-18,43.3368
2006-09-19,44.3719
2006-09-20,44.1879
2006-09-21,43.4058
2006-09-22,43.2601
2006-09-25,42.6237
2006-09-26,42.4704
2006-09-27,42.8997
2006-09-28,42.6314
2006-09-29,42.3093
2006-10-02,42.1483
2006-10-03,43.2141
2006-10-04,43.3761
2006-10-05,43.1442
2006-10-06,42.4407
2006-10-09,42.7035
2006-10-10,42.6881
2006-10-11,42.9122
2006-10-12,43.6466
2006-10-13,44.3656
2006-10-16,44.3578
2006-10-17,44.2574
2006-10-18,44.7676
2006-10-19,44.4661
2006-10-20,44.296
2006-10-23,44.1414
2006-10-24,44.0022
2006-10-25,44.3037
2006-10-26,44.6825
2006-10-27,44.3192
2006-10-30,44.9454
2006-10-31,45.1077
2006-11-01,44.6903
2006-11-02,44.8217
2006-11-03,44.6903
2006-11-06,45.185
2006-11-07,44.8603
2006-11-08,44.6748
2006-11-09,44.5898
2006-11-10,44.4429
2006-11-13,44.5434
2006-11-14,45.1077
2006-11-15,45.2701
2006-11-16,45.587
2006-11-17,45.6102
2006-11-20,47.3728
2006-11-21,47.0945
2006-11-22,47.5119
2006-11-24,47.8675
2006-11-27,46.2596
2006-11-28,46.1977
2006-11-29,46.6074
2006-11-30,47.2877
2006-12-01,47.4501
2006-12-04,48.4628
2006-12-05,48.3159
2006-12-06,47.9835
2006-12-07,47.6743
2006-12-08,47.7979
2006-12-11,48.0762
2006-12-12,48.1458
2006-12-13,47.7902
2006-12-14,47.8907
2006-12-15,47.0172
2006-12-18,46.3678
2006-12-19,45.9194
2006-12-20,45.9662
2006-12-21,45.6
2006-12-22,44.743
2006-12-26,45.0936
2006-12-27,45.265
2006-12-28,45.4753
2006-12-29,45.6078
2007-01-03,45.4909
2007-01-04,45.265
2007-01-05,44.2132
2007-01-08,44.0262
2007-01-09,44.556
2007-01-10,45.265
2007-01-11,45.9272
2007-01-12,46.1531
2007-01-16,46.6284
2007-01-17,46.5816
2007-01-18,46.2466
2007-01-19,46.7219
2007-01-22,45.7792
2007-01-23,46.2856
2007-01-24,47.1426
2007-01-25,47.2049
2007-01-26,46.979
2007-01-29,47.127
2007-01-30,47.1192
2007-01-31,47.3529
2007-02-01,47.797
2007-02-02,47.9373
2007-02-05,47.9373
2007-02-06,48.2411
2007-02-07,50.2667
2007-02-08,50.3602
2007-02-09,50.1888
2007-02-12,49.4409
2007-02-13,50.5238
2007-02-14,49.8071
2007-02-15,49.9629
2007-02-16,49.9629
2007-02-20,49.9006
2007-02-21,49.698
2007-02-22,49.4876
2007-02-23,48.6228
2007-02-26,47.9061
2007-02-27,46.5738
2007-02-28,45.8103
2007-03-01,45.5065
2007-03-02,45.3039
2007-03-05,44.0574
2007-03-06,44.9456
2007-03-07,44.3223
2007-03-08,44.7118
2007-03-09,45.2494
2007-03-12,45.4987
2007-03-13,44.2989
2007-03-14,44.6028
2007-03-15,45.5532
2007-03-16,45.4753
2007-03-19,45.6156
2007-03-20,45.8727
2007-03-21,46.1376
2007-03-22,45.9739
2007-03-23,46.0752
2007-03-26,45.6
2007-03-27,45.1637
2007-03-28,45.2494
2007-03-29,45.2728
2007-03-30,45.787
2007-04-02,46.3012
2007-04-03,47.0002
2007-04-04,46.7488
2007-04-05,46.7802
2007-04-09,46.7566
2007-04-10,47.0002
2007-04-11,46.9059
2007-04-12,46.6309
2007-04-13,47.5502
2007-04-16,47.6523
2007-04-17,48.5637
2007-04-18,48.3516
2007-04-19,48.1866
2007-04-20,48.768
2007-04-23,49.2001
2007-04-24,48.7601
2007-04-25,48.7523
2007-04-26,48.713
2007-04-27,48.7601
2007-04-30,47.8959
2007-05-01,47.6287
2007-05-02,48.0059
2007-05-03,47.8802
2007-05-04,47.283
2007-05-07,47.5345
2007-05-08,47.173
2007-05-09,47.6995
2007-05-10,46.7959
2007-05-11,47.4009
2007-05-14,46.8431
2007-05-15,46.0652
2007-05-16,45.3188
2007-05-17,44.6038
2007-05-18,43.8103
2007-05-21,43.9988
2007-05-22,44.4388
2007-05-23,44.0538
2007-05-24,43.3624
2007-05-25,43.0324
2007-05-29,44.2345
2007-05-30,45.5859
2007-05-31,45.4131
2007-06-01,46.0259
2007-06-04,46.5995
2007-06-05,45.8059
2007-06-06,46.1124
2007-06-07,44.9338
2007-06-08,45.4524
2007-06-11,44.2188
2007-06-12,43.2053
2007-06-13,44.2031
2007-06-14,43.8731
2007-06-15,44.2817
2007-06-18,43.1896
2007-06-19,43.3467
2007-06-20,42.4903
2007-06-21,42.5532
2007-06-22,42.2153
2007-06-25,41.1861
2007-06-26,40.9032
2007-06-27,42.0268
2007-06-28,42.0032
2007-06-29,41.791
2007-07-02,43.7553
2007-07-03,43.5008
2007-07-05,44.1509
2007-07-06,44.4125
2007-07-09,44.6583
2007-07-10,43.1044
2007-07-11,42.93
2007-07-12,43.9686
2007-07-13,44.7772
2007-07-16,44.8327
2007-07-17,43.9369
2007-07-18,44.4046
2007-07-19,44.6504
2007-07-20,44.2461
2007-07-23,44.2461
2007-07-24,43.7624
2007-07-25,43.7228
2007-07-26,43.4295
2007-07-27,41.8677
2007-07-30,42.2323
2007-07-31,42.0817
2007-08-01,42.1689
2007-08-02,41.6932
2007-08-03,40.3693
2007-08-06,41.0907
2007-08-07,41.7487
2007-08-08,42.9538
2007-08-09,42.2561
2007-08-10,41.0194
2007-08-13,40.0284
2007-08-14,39.5131
2007-08-15,38.863
2007-08-16,39.9332
2007-08-17,40.8132
2007-08-20,41.8835
2007-08-21,42.7952
2007-08-22,42.9696
2007-08-23,42.5732
2007-08-24,42.4543
2007-08-27,42.2086
2007-08-28,41.495
2007-08-29,42.4147
2007-08-30,42.7794
2007-08-31,43.5008
2007-09-04,44.5077
2007-09-05,43.263
2007-09-06,43.3106
2007-09-07,42.7477
2007-09-10,42.4781
2007-09-11,42.6129
2007-09-12,42.8349
2007-09-13,43.9765
2007-09-14,44.1985
2007-09-17,44.2936
2007-09-18,44.9834
2007-09-19,46.783
2007-09-20,45.8634
2007-09-21,45.9744
2007-09-24,47.0763
2007-09-25,46.4659
2007-09-26,46.4897
2007-09-27,46.8781
2007-09-28,47.4807
2007-10-01,48.6223
2007-10-02,49.7322
2007-10-03,50.2594
2007-10-04,50.7789
2007-10-05,51.9377
2007-10-08,51.2184
2007-10-09,52.0735
2007-10-10,52.537
2007-10-11,52.9286
2007-10-12,52.4012
2007-10-15,51.8737
2007-10-16,50.643
2007-10-17,50.5871
2007-10-18,51.1625
2007-10-19,49.5801
2007-10-22,50.0996
2007-10-23,51.0666
2007-10-24,50.6031
2007-10-25,51.0506
2007-10-26,51.6819
2007-10-29,51.2104
2007-10-30,51.3223
2007-10-31,52.0895
2007-11-01,49.756
2007-11-02,48.757
2007-11-05,48.3974
2007-11-06,48.8849
2007-11-07,48.3494
2007-11-08,48.725
2007-11-09,48.4453
2007-11-12,49.1726
2007-11-13,50.667
2007-11-14,50.4352
2007-11-15,50.2994
2007-11-16,49.4922
2007-11-19,48.8289
2007-11-20,47.4544
2007-11-21,46.6632
2007-11-23,47.3585
2007-11-26,45.0728
2007-11-27,45.4405
2007-11-28,46.823
2007-11-29,47.5582
2007-11-30,48.797
2007-12-03,48.5652
2007-12-04,46.791
2007-12-05,48.2295
2007-12-06,49.684
2007-12-07,50.1795
2007-12-10,51.1625
2007-12-11,48.6291
2007-12-12,48.741
2007-12-13,48.1976
2007-12-14,45.928
2007-12-17,45.0489
2007-12-18,44.4735
2007-12-19,44.4343
2007-12-20,44.3456
2007-12-21,45.652
2007-12-24,46.6359
2007-12-26,46.0391
2007-12-27,45.7085
2007-12-28,45.1682
2007-12-31,46.2891
2008-01-02,45.4504
2008-01-03,42.6763
2008-01-04,41.1764
2008-01-07,41.3376
2008-01-08,40.7973
2008-01-09,40.5393
2008-01-10,41.3054
2008-01-11,41.6038
2008-01-14,42.015
2008-01-15,41.0151
2008-01-16,42.0312
2008-01-17,40.4586
2008-01-18,39.9667
2008-01-22,39.9506
2008-01-23,43.9021
2008-01-24,42.8376
2008-01-25,42.4263
2008-01-28,44.273
2008-01-29,42.7973
2008-01-30,39.5635
2008-01-31,40.6441
2008-02-01,42.1763
2008-02-04,41.7892
2008-02-05,39.8619
2008-02-06,39.8861
2008-02-07,41.0715
2008-02-08,40.3377
2008-02-11,39.5635
2008-02-12,41.1441
2008-02-13,41.128
2008-02-14,40.2973
2008-02-15,40.8054
2008-02-19,40.0473
2008-02-20,39.7328
2008-02-21,39.4022
2008-02-22,39.6925
2008-02-25,41.0312
2008-02-26,42.0312
2008-02-27,41.9828
2008-02-28,41.3296
2008-02-29,40.5393
2008-03-03,40.4909
2008-03-04,39.5554
2008-03-05,39.8054
2008-03-06,37.6684
2008-03-07,38.3377
2008-03-10,38.4748
2008-03-11,40.2973
2008-03-12,40.499
2008-03-13,40.1764
2008-03-14,40.0232
2008-03-17,40.1199
2008-03-18,41.7892
2008-03-19,42.3376
2008-03-20,44.773
2008-03-24,45.4182
2008-03-25,44.7569
2008-03-26,43.9585
2008-03-27,43.8779
2008-03-28,43.7408
2008-03-31,43.7005
2008-04-01,46.0472
2008-04-02,44.8256
2008-04-03,45.9487
2008-04-04,45.2732
2008-04-07,44.8337
2008-04-08,44.1501
2008-04-09,43.5397
2008-04-10,44.2396
2008-04-11,43.6374
2008-04-14,43.1003
2008-04-15,43.4665
2008-04-16,46.5509
2008-04-17,46.7706
2008-04-18,46.5916
2008-04-21,46.6567
2008-04-22,46.8113
2008-04-23,47.6333
2008-04-24,48.3332
2008-04-25,48.2762
2008-04-28,47.9995
2008-04-29,47.6984
2008-04-30,47.0799
2008-05-01,47.3077
2008-05-02,47.4461
2008-05-05,48.0239
2008-05-06,48.4797
2008-05-07,47.3159
2008-05-08,47.0961
2008-05-09,46.3637
2008-05-12,47.3403
2008-05-13,47.5112
2008-05-14,48.4227
2008-05-15,48.6343
2008-05-16,48.3006
2008-05-19,48.4471
2008-05-20,47.6577
2008-05-21,46.4044
2008-05-22,46.3067
2008-05-23,45.9731
2008-05-27,47.1124
2008-05-28,47.4786
2008-05-29,48.1297
2008-05-30,47.8856
2008-06-02,47.5356
2008-06-03,47.91
2008-06-04,47.1938
2008-06-05,47.7472
2008-06-06,45.8917
2008-06-09,44.6303
2008-06-10,44.7849
2008-06-11,44.1338
2008-06-12,44.3536
2008-06-13,44.8337
2008-06-16,46.1847
2008-06-17,44.0687
2008-06-18,43.5072
2008-06-19,44.7686
2008-06-20,43.32
2008-06-23,42.1318
2008-06-24,42.0016
2008-06-25,42.4492
2008-06-26,41.4889
2008-06-27,40.8134
2008-06-30,40.9355
2008-07-01,41.6502
2008-07-02,40.7621
2008-07-03,40.4826
2008-07-07,40.2687
2008-07-08,43.3195
2008-07-09,39.0435
2008-07-10,40.0056
2008-07-11,40.1207
2008-07-14,38.4597
2008-07-15,38.0485
2008-07-16,40.2687
2008-07-17,41.7325
2008-07-18,40.9266
2008-07-21,41.5269
2008-07-22,42.1601
2008-07-23,43.4758
2008-07-24,39.1093
2008-07-25,40.5977
2008-07-28,38.8133
2008-07-29,41.3707
2008-07-30,41.6831
2008-07-31,40.2934
2008-08-01,40.7128
2008-08-04,39.6685
2008-08-05,40.6552
2008-08-06,40.2934
2008-08-07,38.4432
2008-08-08,40.4085
2008-08-11,42.3081
2008-08-12,41.272
2008-08-13,40.0385
2008-08-14,39.8987
2008-08-15,39.8329
2008-08-18,38.509
2008-08-19,37.81
2008-08-20,37.4564
2008-08-21,36.1572
2008-08-22,36.8232
2008-08-25,35.5322
2008-08-26,36.297
2008-08-27,36.371
2008-08-28,37.8429
2008-08-29,37.5716
2008-09-02,38.1554
2008-09-03,39.7507
2008-09-04,38.8955
2008-09-05,38.6899
2008-09-08,41.1075
2008-09-09,38.3857
2008-09-10,38.805
2008-09-11,39.134
2008-09-12,38.8544
2008-09-15,36.8973
2008-09-16,39.3806
2008-09-17,39.3806
2008-09-18,40.8855
2008-09-19,38.6077
2008-09-22,34.9237
2008-09-23,35.6227
2008-09-24,34.307
2008-09-25,34.0603
2008-09-26,34.825
2008-09-29,34.8415
2008-09-30,37.3824
2008-10-01,35.7378
2008-10-02,32.7669
2008-10-03,31.377
2008-10-06,30.1203
2008-10-07,26.0754
2008-10-08,25.6926
2008-10-09,24.2028
2008-10-10,27.1158
2008-10-13,30.7695
2008-10-14,26.891
2008-10-15,22.4799
2008-10-16,23.5952
2008-10-17,21.5395
2008-10-20,21.4479
2008-10-21,19.2757
2008-10-22,16.7205
2008-10-23,16.7871
2008-10-24,15.031
2008-10-27,12.6091
2008-10-28,15.2474
2008-10-29,16.063
2008-10-30,17.3531
2008-10-31,19.8832
2008-11-03,20.2161
2008-11-04,21.4978
2008-11-05,19.4088
2008-11-06,17.2699
2008-11-07,19.0593
2008-11-10,15.2557
2008-11-11,15.805
2008-11-12,11.0277
2008-11-13,13.9407
2008-11-14,12.2013
2008-11-17,12.2262
2008-11-18,11.9016
2008-11-19,9.23833
2008-11-20,8.24792
2008-11-21,9.53795
2008-11-24,11.5687
2008-11-25,12.6923
2008-11-26,14.7564
2008-11-28,14.3319
2008-12-01,10.8696
2008-12-02,13.0752
2008-12-03,15.5304
2008-12-04,14.4151
2008-12-05,16.1379
2008-12-08,18.5432
2008-12-09,16.0214
2008-12-10,17.8025
2008-12-11,13.7243
2008-12-12,15.5054
2008-12-15,14.9478
2008-12-16,18.3019
2008-12-17,18.6265
2008-12-18,16.7122
2008-12-19,18.4517
2008-12-22,18.3435
2008-12-23,18.3768
2008-12-24,18.2519
2008-12-26,18.6681
2008-12-29,17.4779
2008-12-30,18.6265
2008-12-31,19.5753
2009-01-02,19.3006
2009-01-05,19.0343
2009-01-06,21.4562
2009-01-07,20.2661
2009-01-08,19.7833
2009-01-09,18.9344
2009-01-12,17.2282
2009-01-13,17.5528
2009-01-14,15.5054
2009-01-15,15.3889
2009-01-16,16.2878
2009-01-20,13.1501
2009-01-21,15.2474
2009-01-22,14.7813
2009-01-23,15.8134
2009-01-26,15.0144
2009-01-27,15.3889
2009-01-28,17.4113
2009-01-29,14.5483
2009-01-30,13.433
2009-02-02,13.1251
2009-02-03,12.9919
2009-02-04,12.7256
2009-02-05,12.942
2009-02-06,14.5483
2009-02-09,14.8313
2009-02-10,13.175
2009-02-11,13.1584
2009-02-12,13.3997
2009-02-13,12.143
2009-02-17,10.8863
2009-02-18,11.4023
2009-02-19,10.6116
2009-02-20,11.3607
2009-02-23,10.2121
2009-02-24,11.2358
2009-02-25,10.8363
2009-02-26,10.3536
2009-02-27,9.92913
2009-03-02,8.92206
2009-03-03,8.65573
2009-03-04,9.08852
2009-03-05,8.63077
2009-03-06,8.19798
2009-03-09,8.58915
2009-03-10,10.2121
2009-03-11,10.3369
2009-03-12,11.7102
2009-03-13,11.1026
2009-03-16,10.1788
2009-03-17,11.2774
2009-03-18,12.0598
2009-03-19,11.5271
2009-03-20,9.99571
2009-03-23,12.4509
2009-03-24,10.9528
2009-03-25,11.7102
2009-03-26,12.2762
2009-03-27,11.8683
2009-03-30,11.0277
2009-03-31,12.0431
2009-04-01,12.3011
2009-04-02,13.2536
2009-04-03,15.0948
2009-04-06,14.696
2009-04-07,13.296
2009-04-08,13.4572
2009-04-09,15.8415
2009-04-13,15.7481
2009-04-14,13.8815
2009-04-15,15.9263
2009-04-16,16.13
2009-04-17,15.9263
2009-04-20,13.6184
2009-04-21,15.0524
2009-04-22,14.3651
2009-04-23,14.8827
2009-04-24,15.7566
2009-04-27,14.8827
2009-04-28,15.3239
2009-04-29,15.9942
2009-04-30,16.1724
2009-05-01,15.2306
2009-05-04,16.8088
2009-05-05,15.9942
2009-05-06,16.7748
2009-05-07,14.8657
2009-05-08,16.5797
2009-05-11,15.7227
2009-05-12,15.5191
2009-05-13,14.0427
2009-05-14,14.9081
2009-05-15,13.7881
2009-05-18,15.536
2009-05-19,15.2306
2009-05-20,15.0354
2009-05-21,14.9845
2009-05-22,14.3057
2009-05-26,14.8912
2009-05-27,14.2802
2009-05-28,14.976
2009-05-29,15.1033
2009-06-01,16.3676
2009-06-02,16.376
2009-06-03,16.2657
2009-06-04,17.1397
2009-06-05,17.0464
2009-06-08,17.2161
2009-06-09,17.0379
2009-06-10,16.2403
2009-06-11,15.9942
2009-06-12,16.6051
2009-06-15,15.5275
2009-06-16,15.2306
2009-06-17,15.0863
2009-06-18,15.5021
2009-06-19,15.8669
2009-06-22,14.416
2009-06-23,14.5433
2009-06-24,14.8148
2009-06-25,15.1118
2009-06-26,15.6378
2009-06-29,15.8075
2009-06-30,15.9263
2009-07-01,16.1153
2009-07-02,15.099
2009-07-06,15.6847
2009-07-07,14.8233
2009-07-08,14.7544
2009-07-09,14.4616
2009-07-10,14.3238
2009-07-13,15.099
2009-07-14,15.1162
2009-07-15,15.3057
2009-07-16,15.5727
2009-07-17,14.9956
2009-07-20,15.633
2009-07-21,15.2884
2009-07-22,15.3315
2009-07-23,16.055
2009-07-24,16.3909
2009-07-27,16.7527
2009-07-28,16.2445
2009-07-29,16.012
2009-07-30,16.7182
2009-07-31,17.08
2009-08-03,17.6054
2009-08-04,18.5356
2009-08-05,19.5606
2009-08-06,19.7243
2009-08-07,20.4908
2009-08-10,19.8104
2009-08-11,18.4839
2009-08-12,18.7768
2009-08-13,19.018
2009-08-14,19.0869
2009-08-17,17.8293
2009-08-18,18.4495
2009-08-19,18.1136
2009-08-20,18.8715
2009-08-21,19.5606
2009-08-24,19.4659
2009-08-25,19.707
2009-08-26,19.7932
2009-08-27,20.0516
2009-08-28,20.1377
2009-08-31,19.6812
2009-09-01,18.3117
2009-09-02,17.7518
2009-09-03,17.8207
2009-09-04,17.9327
2009-09-08,18.6045
2009-09-09,19.3108
2009-09-10,19.6553
2009-09-11,19.1558
2009-09-14,19.8707
2009-09-15,20.3616
2009-09-16,21.5933
2009-09-17,21.0938
2009-09-18,21.3952
2009-09-21,20.9129
2009-09-22,21.6536
2009-09-23,20.7923
2009-09-24,19.4486
2009-09-25,19.4142
2009-09-28,20.3013
2009-09-29,19.8965
2009-09-30,19.7932
2009-10-01,18.4942
2009-10-02,18.4855
2009-10-05,18.9302
2009-10-06,18.782
2009-10-07,18.7558
2009-10-08,19.2877
2009-10-09,19.3226
2009-10-12,19.8371
2009-10-13,19.5406
2009-10-14,20.3864
2009-10-15,19.9068
2009-10-16,19.6801
2009-10-19,20.0725
2009-10-20,19.5232
2009-10-21,19.3488
2009-10-22,20.7265
2009-10-23,20.1771
2009-10-26,20.369
2009-10-27,20.1074
2009-10-28,18.7122
2009-10-29,19.5668
2009-10-30,19.2441
2009-11-02,19.061
2009-11-03,19.5319
2009-11-04,18.8082
2009-11-05,19.4098
2009-11-06,19.0872
2009-11-09,20.5346
2009-11-10,20.648
2009-11-11,21.4851
2009-11-12,20.927
2009-11-13,21.3543
2009-11-16,22.0431
2009-11-17,21.7031
2009-11-18,22.0518
2009-11-19,21.0491
2009-11-20,20.9793
2009-11-23,21.0578
2009-11-24,20.5172
2009-11-25,20.4823
2009-11-27,19.8022
2009-11-30,20.5434
2009-12-01,20.6305
2009-12-02,21.145
2009-12-03,21.1537
2009-12-04,21.8339
2009-12-07,21.5374
2009-12-08,21.3456
2009-12-09,21.0927
2009-12-10,20.9183
2009-12-11,21.6769
2009-12-14,22.2088
2009-12-15,22.0954
2009-12-16,22.5837
2009-12-17,22.1652
2009-12-18,22.1303
2009-12-21,22.3772
2009-12-22,22.6417
2009-12-23,22.9415
2009-12-24,23.6115
2009-12-28,23.7173
2009-12-29,23.1266
2009-12-30,22.9326
2009-12-31,22.5183
2010-01-04,22.3684
2010-01-05,22.6505
2010-01-06,22.4742
2010-01-07,22.6593
2010-01-08,22.6152
2010-01-11,22.6329
2010-01-12,22.1479
2010-01-13,22.721
2010-01-14,22.6681
2010-01-15,22.5888
2010-01-19,23.0296
2010-01-20,22.4301
2010-01-21,21.4161
2010-01-22,20.8695
2010-01-25,20.8519
2010-01-26,21.3985
2010-01-27,21.7159
2010-01-28,21.1693
2010-01-29,21.1428
2010-02-01,21.5925
2010-02-02,21.7865
2010-02-03,21.0106
2010-02-04,20.1377
2010-02-05,20.411
2010-02-08,19.8291
2010-02-09,19.8115
2010-02-10,19.7674
2010-02-11,19.5117
2010-02-12,19.9437
2010-02-16,20.5697
2010-02-17,20.6579
2010-02-18,21.0547
2010-02-19,20.9224
2010-02-22,21.1164
2010-02-23,20.8342
2010-02-24,21.0811
2010-02-25,21.3721
2010-02-26,21.3897
2010-03-01,21.5572
2010-03-02,21.6983
2010-03-03,21.566
2010-03-04,21.6101
2010-03-05,22.3948
2010-03-08,22.7387
2010-03-09,22.9238
2010-03-10,23.4617
2010-03-11,23.7262
2010-03-12,24.0259
2010-03-15,24.0612
2010-03-16,24.6784
2010-03-17,25.1721
2010-03-18,25.2515
2010-03-19,24.696
2010-03-22,24.7577
2010-03-23,25.1016
2010-03-24,25.4014
2010-03-25,25.4807
2010-03-26,25.4984
2010-03-29,25.128
2010-03-30,24.4844
2010-03-31,24.2885
2010-04-01,24.2261
2010-04-05,24.7071
2010-04-06,25.4909
2010-04-07,24.4043
2010-04-08,24.52
2010-04-09,24.8407
2010-04-12,24.7516
2010-04-13,25.1791
2010-04-14,25.2771
2010-04-15,24.4221
2010-04-16,23.9055
2010-04-19,24.1816
2010-04-20,24.6715
2010-04-21,24.6804
2010-04-22,24.814
2010-04-23,25.2415
2010-04-26,25.2682
2010-04-27,24.529
2010-04-28,24.7249
2010-04-29,25.7403
2010-04-30,24.8318
2010-05-03,25.7313
2010-05-04,24.9119
2010-05-05,24.9208
2010-05-06,23.7095
2010-05-07,22.7209
2010-05-10,24.6715
2010-05-11,24.618
2010-05-12,25.7492
2010-05-13,25.2059
2010-05-14,23.6917
2010-05-17,23.6828
2010-05-18,23.3533
2010-05-19,23.3355
2010-05-20,22.2043
2010-05-21,22.7298
2010-05-24,21.8659
2010-05-25,21.7946
2010-05-26,21.9638
2010-05-27,23.2909
2010-05-28,23.1662
2010-06-01,22.3646
2010-06-02,22.8367
2010-06-03,22.7743
2010-06-04,21.5185
2010-06-07,21.4027
2010-06-08,22.0618
2010-06-09,22.4715
2010-06-10,23.5759
2010-06-11,23.8342
2010-06-14,24.1371
2010-06-15,24.6804
2010-06-16,24.1727
2010-06-17,23.9946
2010-06-18,23.8164
2010-06-21,23.6027
2010-06-22,22.4893
2010-06-23,22.6318
2010-06-24,22.0351
2010-06-25,22.6675
2010-06-28,22.3557
2010-06-29,21.5363
2010-06-30,21.1711
2010-07-01,21.1087
2010-07-02,20.5409
2010-07-06,20.0271
2010-07-07,21.4061
2010-07-08,21.9739
2010-07-09,22.1542
2010-07-12,22.2263
2010-07-13,22.7851
2010-07-14,22.3795
2010-07-15,21.9469
2010-07-16,20.7031
2010-07-19,21.4422
2010-07-20,21.6404
2010-07-21,20.2885
2010-07-22,20.676
2010-07-23,21.1087
2010-07-26,22.1091
2010-07-27,22.2083
2010-07-28,22.1542
2010-07-29,21.8117
2010-07-30,22.5237
2010-08-02,23.4431
2010-08-03,23.1817
2010-08-04,23.389
2010-08-05,23.2808
2010-08-06,23.0735
2010-08-09,23.5152
2010-08-10,23.0735
2010-08-11,22.0731
2010-08-12,21.6314
2010-08-13,21.8027
2010-08-16,21.8027
2010-08-17,22.2624
2010-08-18,22.3795
2010-08-19,21.4962
2010-08-20,21.5593
2010-08-23,21.1808
2010-08-24,21.0185
2010-08-25,21.6675
2010-08-26,21.2168
2010-08-27,21.5143
2010-08-30,21.307
2010-08-31,21.4512
2010-09-01,22.0821
2010-09-02,22.695
2010-09-03,23.2268
2010-09-07,22.5958
2010-09-08,22.7491
2010-09-09,22.5778
2010-09-10,22.9023
2010-09-13,23.398
2010-09-14,23.4881
2010-09-15,23.7405
2010-09-16,23.5422
2010-09-17,23.1727
2010-09-20,23.8667
2010-09-21,23.2358
2010-09-22,22.9654
2010-09-23,22.5327
2010-09-24,23.3349
2010-09-27,22.9293
2010-09-28,23.5783
2010-09-29,23.6594
2010-09-30,23.8487
2010-10-01,24.222
2010-10-04,24.5955
2010-10-05,24.6866
2010-10-06,24.2312
2010-10-07,24.4316
2010-10-08,24.2858
2010-10-11,24.5409
2010-10-12,24.4042
2010-10-13,24.7504
2010-10-14,24.5135
2010-10-15,24.5409
2010-10-18,24.5864
2010-10-19,24.1218
2010-10-20,25.3881
2010-10-21,25.3607
2010-10-22,25.379
2010-10-25,25.4609
2010-10-26,24.9964
2010-10-27,25.0966
2010-10-28,25.2332
2010-10-29,25.6796
2010-11-01,25.9802
2010-11-02,26.053
2010-11-03,26.1441
2010-11-04,27.2191
2010-11-05,27.465
2010-11-08,27.7838
2010-11-09,26.6543
2010-11-10,27.21
2010-11-11,27.21
2010-11-12,26.5905
2010-11-15,26.381
2010-11-16,25.3061
2010-11-17,25.8617
2010-11-18,26.1259
2010-11-19,26.7271
2010-11-22,26.5632
2010-11-23,26.381
2010-11-24,27.1097
2010-11-26,27.1553
2010-11-29,26.8638
2010-11-30,26.5996
2010-12-01,27.0551
2010-12-02,27.7747
2010-12-03,28.0389
2010-12-06,28.5217
2010-12-07,28.7039
2010-12-08,28.4488
2010-12-09,28.5946
2010-12-10,28.9681
2010-12-13,28.9772
2010-12-14,28.2393
2010-12-15,27.7292
2010-12-16,27.7656
2010-12-17,27.9569
2010-12-20,28.5582
2010-12-21,28.981
2010-12-22,28.9902
2010-12-23,28.6134
2010-12-27,28.9718
2010-12-28,28.8707
2010-12-29,28.8983
2010-12-30,29.0638
2010-12-31,29.1281
2011-01-03,29.698
2011-01-04,29.6888
2011-01-05,30.1576
2011-01-06,30.1116
2011-01-07,29.8542
2011-01-10,30.0748
2011-01-11,29.7991
2011-01-12,29.8083
2011-01-13,29.6888
2011-01-14,29.8634
2011-01-18,30.5344
2011-01-19,30.0381
2011-01-20,30.4333
2011-01-21,30.6079
2011-01-24,30.6079
2011-01-25,30.4793
2011-01-26,30.2127
2011-01-27,31.2789
2011-01-28,30.2587
2011-01-31,30.8285
2011-02-01,30.5252
2011-02-02,30.2862
2011-02-03,30.4425
2011-02-04,30.4425
2011-02-07,30.7918
2011-02-08,30.9664
2011-02-09,30.9572
2011-02-10,31.3094
2011-02-11,31.7635
2011-02-14,31.8933
2011-02-15,32.1157
2011-02-16,32.6811
2011-02-17,33.2187
2011-02-18,32.8479
2011-02-22,32.4679
2011-02-23,32.4401
2011-02-24,32.2826
2011-02-25,33.0333
2011-02-28,33.7192
2011-03-01,32.5977
2011-03-02,32.1065
2011-03-03,33.2558
2011-03-04,32.9962
2011-03-07,32.5513
2011-03-08,33.3021
2011-03-09,33.024
2011-03-10,32.1157
2011-03-11,32.3567
2011-03-14,31.6152
2011-03-15,30.985
2011-03-16,30.9201
2011-03-17,31.0498
2011-03-18,30.9479
2011-03-21,31.884
2011-03-22,31.6801
2011-03-23,31.4669
2011-03-24,32.023
2011-03-25,32.2548
2011-03-28,32.1065
2011-03-29,32.2362
2011-03-30,33.0333
2011-03-31,33.3206
2011-04-01,33.3948
2011-04-04,33.4782
2011-04-05,33.4319
2011-04-06,33.5153
2011-04-07,32.8387
2011-04-08,32.4957
2011-04-11,32.644
2011-04-12,32.6162
2011-04-13,32.403
2011-04-14,33.2372
2011-04-15,33.7099
2011-04-18,33.2094
2011-04-19,33.4782
2011-04-20,33.0426
2011-04-21,33.2558
2011-04-25,33.608
2011-04-26,33.8582
2011-04-27,33.5431
2011-04-28,34.2197
2011-04-29,33.7655
2011-05-02,33.7192
2011-05-03,33.4411
2011-05-04,33.0611
2011-05-05,33.3114
2011-05-06,32.9592
2011-05-09,32.8572
2011-05-10,33.8768
2011-05-11,33.0055
2011-05-12,33.0148
2011-05-13,32.5477
2011-05-16,32.4636
2011-05-17,32.529
2011-05-18,32.9587
2011-05-19,33.3885
2011-05-20,33.0055
2011-05-23,32.6037
2011-05-24,32.7719
2011-05-25,33.0895
2011-05-26,33.7715
2011-05-27,34.0798
2011-05-31,34.5562
2011-06-01,33.3044
2011-06-02,32.0993
2011-06-03,31.763
2011-06-06,30.7447
2011-06-07,31.9031
2011-06-08,31.5201
2011-06-09,30.4924
2011-06-10,29.9506
2011-06-13,30.6793
2011-06-14,31.2398
2011-06-15,30.8194
2011-06-16,30.9969
2011-06-17,31.4734
2011-06-20,31.8377
2011-06-21,32.0058
2011-06-22,31.9965
2011-06-23,31.6602
2011-06-24,32.0152
2011-06-27,32.0993
2011-06-28,32.1366
2011-06-29,33.0335
2011-06-30,33.4539
2011-07-01,33.7808
2011-07-05,33.8182
2011-07-06,33.6127
2011-07-07,34.8085
2011-07-08,34.36
2011-07-11,33.3885
2011-07-12,33.3137
2011-07-13,32.6037
2011-07-14,32.3048
2011-07-15,32.501
2011-07-18,32.118
2011-07-19,32.7906
2011-07-20,32.8279
2011-07-21,33.1176
2011-07-22,33.4819
2011-07-25,33.1362
2011-07-26,33.4726
2011-07-27,32.0806
2011-07-28,33.0055
2011-07-29,33.3137
2011-08-01,32.118
2011-08-02,30.5205
2011-08-03,30.1281
2011-08-04,27.8019
2011-08-05,26.9518
2011-08-08,23.7288
2011-08-09,25.6906
2011-08-10,24.5976
2011-08-11,25.9335
2011-08-12,25.9242
2011-08-15,27.531
2011-08-16,27.1947
2011-08-17,27.3629
2011-08-18,25.8214
2011-08-19,24.8218
2011-08-22,24.4388
2011-08-23,24.3173
2011-08-24,24.0277
2011-08-25,23.3551
2011-08-26,23.4859
2011-08-29,24.7284
2011-08-30,24.9713
2011-08-31,25.373
2011-09-01,25.6065
2011-09-02,24.3641
2011-09-06,23.953
2011-09-07,25.3356
2011-09-08,25.0927
2011-09-09,23.9623
2011-09-12,23.9063
2011-09-13,24.2426
2011-09-14,24.8592
2011-09-15,25.851
2011-09-16,26.7008
2011-09-19,26.3514
2011-09-20,26.7291
2011-09-21,25.209
2011-09-22,23.7739
2011-09-23,24.0477
2011-09-26,24.6142
2011-09-27,24.803
2011-09-28,23.7078
2011-09-29,23.9344
2011-09-30,22.9336
2011-10-03,21.4041
2011-10-04,22.1688
2011-10-05,21.895
2011-10-06,23.1224
2011-10-07,22.2255
2011-10-10,23.1413
2011-10-11,23.0374
2011-10-12,23.4812
2011-10-13,23.3585
2011-10-14,24.3309
2011-10-17,23.9155
2011-10-18,25.4545
2011-10-19,24.8313
2011-10-20,24.8786
2011-10-21,26.0682
2011-10-24,26.9935
2011-10-25,25.851
2011-10-26,26.1626
2011-10-27,27.9093
2011-10-28,28.2303
2011-10-31,28.1076
2011-11-01,26.2004
2011-11-02,26.7291
2011-11-03,27.6355
2011-11-04,27.5788
2011-11-07,27.7488
2011-11-08,28.0698
2011-11-09,26.0965
2011-11-10,25.7094
2011-11-11,26.9085
2011-11-14,26.3609
2011-11-15,26.578
2011-11-16,26.3987
2011-11-17,25.8322
2011-11-18,25.9927
2011-11-21,24.7558
2011-11-22,24.246
2011-11-23,23.5473
2011-11-25,23.8022
2011-11-28,24.7086
2011-11-29,24.6236
2011-11-30,26.2665
2011-12-01,25.9832
2011-12-02,26.3042
2011-12-05,26.8802
2011-12-06,26.7858
2011-12-07,27.239
2011-12-08,26.3514
2011-12-09,27.1068
2011-12-12,26.0399
2011-12-13,25.5961
2011-12-14,25.4828
2011-12-15,25.9696
2011-12-16,26.2558
2011-12-19,25.6166
2011-12-20,26.9332
2011-12-21,26.9332
2011-12-22,27.4484
2011-12-23,27.582
2011-12-27,27.6774
2011-12-28,27.1813
2011-12-29,27.248
2011-12-30,27.2957
2012-01-03,27.8968
2012-01-04,27.1908
2012-01-05,27.9254
2012-01-06,27.4579
2012-01-09,27.248
2012-01-10,28.0017
2012-01-11,28.2307
2012-01-12,28.3452
2012-01-13,28.1449
2012-01-17,29.1562
2012-01-18,29.3374
2012-01-19,29.824
2012-01-20,30.282
2012-01-23,30.2915
2012-01-24,30.6922
2012-01-25,30.9307
2012-01-26,31.0166
2012-01-27,31.007
2012-01-30,30.0721
2012-01-31,30.2915
2012-02-01,31.0452
2012-02-02,31.2646
2012-02-03,31.6653
2012-02-06,31.4841
2012-02-07,31.7321
2012-02-08,32.5812
2012-02-09,32.5717
2012-02-10,31.5032
2012-02-13,32.171
2012-02-14,31.8562
2012-02-15,31.7035
2012-02-16,32.2759
2012-02-17,32.4286
2012-02-21,32.047
2012-02-22,31.4268
2012-02-23,32.0661
2012-02-24,32.3046
2012-02-27,32.3714
2012-02-28,32.0565
2012-02-29,32.1424
2012-03-01,32.2569
2012-03-02,32.1805
2012-03-05,32.8675
2012-03-06,32.1615
2012-03-07,32.5717
2012-03-08,32.4076
2012-03-09,32.8213
2012-03-12,32.6674
2012-03-13,33.5523
2012-03-14,33.4946
2012-03-15,33.6389
2012-03-16,33.9275
2012-03-19,34.1103
2012-03-20,33.8986
2012-03-21,34.0622
2012-03-22,33.7447
2012-03-23,33.889
2012-03-26,34.3604
2012-03-27,34.1006
2012-03-28,33.6966
2012-03-29,33.9564
2012-03-30,34.6297
2012-04-02,34.8221
2012-04-03,34.7644
2012-04-04,34.4277
2012-04-05,34.1391
2012-04-09,33.5523
2012-04-10,31.8978
2012-04-11,32.1094
2012-04-12,32.5519
2012-04-13,32.2153
2012-04-16,32.7058
2012-04-17,33.3888
2012-04-18,32.8886
2012-04-19,33.0329
2012-04-20,33.4465
2012-04-23,32.2537
2012-04-24,32.5808
2012-04-25,33.3311
2012-04-26,33.6966
2012-04-27,34.0333
2012-04-30,34.3892
2012-05-01,34.5143
2012-05-02,34.5239
2012-05-03,34.4373
2012-05-04,33.7351
2012-05-07,34.0622
2012-05-08,33.7255
2012-05-09,33.3022
2012-05-10,33.283
2012-05-11,33.3022
2012-05-14,32.4846
2012-05-15,32.2153
2012-05-16,31.8497
2012-05-17,30.8782
2012-05-18,29.7527
2012-05-21,30.9936
2012-05-22,30.58
2012-05-23,30.705
2012-05-24,30.5415
2012-05-25,30.2818
2012-05-29,31.0609
2012-05-30,30.5896
2012-05-31,30.8204
2012-06-01,29.4449
2012-06-04,29.291
2012-06-05,29.9547
2012-06-06,30.7242
2012-06-07,30.8111
2012-06-08,30.879
2012-06-11,30.2968
2012-06-12,31.0634
2012-06-13,30.7723
2012-06-14,30.782
2012-06-15,30.8305
2012-06-18,30.9178
2012-06-19,31.3351
2012-06-20,31.4613
2012-06-21,30.6849
2012-06-22,30.6558
2012-06-25,30.0153
2012-06-26,30.2968
2012-06-27,30.2385
2012-06-28,30.617
2012-06-29,32.2182
2012-07-02,32.3347
2012-07-03,32.4802
2012-07-05,32.1406
2012-07-06,32.1115
2012-07-09,31.7427
2012-07-10,31.4322
2012-07-11,31.6845
2012-07-12,31.5389
2012-07-13,31.7718
2012-07-16,31.733
2012-07-17,32.0629
2012-07-18,32.092
2012-07-19,31.7233
2012-07-20,31.141
2012-07-23,30.5394
2012-07-24,30.4229
2012-07-25,30.7043
2012-07-26,31.306
2012-07-27,31.5389
2012-07-30,31.3157
2012-07-31,31.3836
2012-08-01,31.4224
2012-08-02,31.403
2012-08-03,32.6937
2012-08-06,32.946
2012-08-07,32.7908
2012-08-08,32.4705
2012-08-09,32.2764
2012-08-10,32.1988
2012-08-13,31.9756
2012-08-14,32.2182
2012-08-15,32.3055
2012-08-16,32.7228
2012-08-17,32.781
2012-08-20,32.7325
2012-08-21,32.684
2012-08-22,32.2376
2012-08-23,31.9271
2012-08-24,32.4511
2012-08-27,32.7325
2012-08-28,32.8781
2012-08-29,33.2274
2012-08-30,33.0625
2012-08-31,33.208
2012-09-04,33.4312
2012-09-05,33.5671
2012-09-06,34.3046
2012-09-07,34.654
2012-09-10,34.6734
2012-09-11,35.1392
2012-09-12,35.2763
2012-09-13,36.0489
2012-09-14,36.0587
2012-09-17,35.8827
2012-09-18,35.4035
2012-09-19,35.0123
2012-09-20,34.4841
2012-09-21,34.2397
2012-09-24,34.0734
2012-09-25,33.5159
2012-09-26,33.203
2012-09-27,33.9658
2012-09-28,34.2005
2012-10-01,33.7898
2012-10-02,34.0636
2012-10-03,34.0538
2012-10-04,34.2103
2012-10-05,34.0734
2012-10-08,34.0734
2012-10-09,33.8289
2012-10-10,34.0441
2012-10-11,34.0832
2012-10-12,34.1027
2012-10-15,34.67
2012-10-16,35.1883
2012-10-17,35.3546
2012-10-18,35.5697
2012-10-19,34.8069
2012-10-22,34.3766
2012-10-23,34.0049
2012-10-24,33.7604
2012-10-25,33.4964
2012-10-26,33.1345
2012-10-31,33.5844
2012-11-01,33.4866
2012-11-02,33.6235
2012-11-05,33.467
2012-11-06,33.6137
2012-11-07,33.4181
2012-11-08,32.8802
2012-11-09,32.6455
2012-11-12,32.5379
2012-11-13,32.6357
2012-11-14,32.0685
2012-11-15,31.8827
2012-11-16,31.9903
2012-11-19,32.626
2012-11-20,32.6651
2012-11-21,33.1736
2012-11-23,33.2128
2012-11-26,33.5648
2012-11-27,33.1541
2012-11-28,33.1052
2012-11-29,33.3008
2012-11-30,33.2519
2012-12-03,33.1639
2012-12-04,33.5257
2012-12-05,33.5062
2012-12-06,34.1321
2012-12-07,34.445
2012-12-10,34.4059
2012-12-11,34.4646
2012-12-12,34.4841
2012-12-13,34.5531
2012-12-14,34.5728
2012-12-17,34.6813
2012-12-18,35.2727
2012-12-19,35.1249
2012-12-20,36.0121
2012-12-21,35.9135
2012-12-24,36.0023
2012-12-26,35.5291
2012-12-27,35.7854
2012-12-28,35.3319
2012-12-31,35.953
2013-01-02,36.7514
2013-01-03,36.8303
2013-01-04,37.1754
2013-01-07,37.4316
2013-01-08,37.2542
2013-01-09,37.6682
2013-01-10,37.481
2013-01-11,37.7076
2013-01-14,37.7176
2013-01-15,37.9344
2013-01-16,37.895
2013-01-17,38.2204
2013-01-18,38.94
2013-01-22,38.723
2013-01-23,39.1076
2013-01-24,39.5808
2013-01-25,40.0244
2013-01-28,40.3892
2013-01-29,40.1476
2013-01-30,39.4132
2013-01-31,39.3639
2013-02-01,39.8864
2013-02-04,39.6794
2013-02-05,39.7089
2013-02-06,39.3097
2013-02-07,38.8661
2013-02-08,38.8907
2013-02-11,38.7724
2013-02-12,39.009
2013-02-13,38.9006
2013-02-14,38.6541
2013-02-15,38.2943
2013-02-19,39.0977
2013-02-20,38.595
2013-02-21,38.2006
2013-02-22,38.8512
2013-02-25,37.8457
2013-02-26,37.826
2013-02-27,38.1119
2013-02-28,38.4077
2013-03-01,38.7133
2013-03-04,39.1962
2013-03-05,39.4033
2013-03-06,39.2653
2013-03-07,38.9301
2013-03-08,39.0098
2013-03-11,38.8211
2013-03-12,38.6524
2013-03-13,38.8112
2013-03-14,38.6722
2013-03-15,38.563
2013-03-18,38.2254
2013-03-19,38.0566
2013-03-20,38.4141
2013-03-21,38.2453
2013-03-22,38.6424
2013-03-25,38.7219
2013-03-26,39.8438
2013-03-27,39.536
2013-03-28,39.7048
2013-04-01,39.5956
2013-04-02,39.8239
2013-04-03,39.3672
2013-04-04,39.5161
2013-04-05,39.0594
2013-04-08,39.7346
2013-04-09,39.5658
2013-04-10,39.9729
2013-04-11,40.8863
2013-04-12,40.8267
2013-04-15,40.3104
2013-04-16,41.1246
2013-04-17,40.7572
2013-04-18,40.3601
2013-04-19,41.2735
2013-04-22,41.204
2013-04-23,41.6409
2013-04-24,42.3458
2013-04-25,41.2338
2013-04-26,41.2835
2013-04-29,41.3927
2013-04-30,41.631
2013-05-01,41.6707
2013-05-02,42.0281
2013-05-03,42.326
2013-05-06,42.5146
2013-05-07,42.6338
2013-05-08,42.8025
2013-05-09,42.5543
2013-05-10,43.0011
2013-05-13,42.9912
2013-05-14,42.9912
2013-05-15,43.4777
2013-05-16,43.5671
2013-05-17,43.5373
2013-05-20,43.7954
2013-05-21,44.4606
2013-05-22,43.16
2013-05-23,42.1075
2013-05-24,42.1274
2013-05-28,42.1572
2013-05-29,41.6012
2013-05-30,40.8168
2013-05-31,40.092
2013-06-03,40.0523
2013-06-04,39.119
2013-06-05,38.5928
2013-06-06,38.9403
2013-06-07,39.0
2013-06-10,38.19
2013-06-11,37.45
2013-06-12,37.15
2013-06-13,38.32
2013-06-14,38.49
2013-06-17,38.45
2013-06-18,38.34
2013-06-19,36.93
2013-06-20,35.67
2013-06-21,36.15
2013-06-24,35.81
2013-06-25,36.94
2013-06-26,37.15
2013-06-27,37.97
2013-06-28,37.8
2013-07-01,37.61
2013-07-02,37.97
2013-07-03,37.46
2013-07-05,37.44
2013-07-08,37.59
2013-07-09,38.32
2013-07-10,38.29
2013-07-11,39.29
2013-07-12,38.93
2013-07-15,39.26
2013-07-16,39.24
2013-07-17,39.99
2013-07-18,40.4
2013-07-19,40.36
2013-07-22,40.43
2013-07-23,40.17
2013-07-24,39.86
2013-07-25,39.51
2013-07-26,39.63
2013-07-29,39.12
2013-07-30,38.92
2013-07-31,38.38
2013-08-01,38.33
2013-08-02,38.14
2013-08-05,38.16
2013-08-06,38.34
2013-08-07,38.14
2013-08-08,37.78
2013-08-09,38.32
