date,close_price
1998-01-02,15.3878
1998-01-05,15.3439
1998-01-06,15.3878
1998-01-07,15.527
1998-01-08,15.2998
1998-01-09,14.7942
1998-01-12,14.9335
1998-01-13,15.0654
1998-01-14,15.615
1998-01-15,15.527
1998-01-16,15.7981
1998-01-20,15.7102
1998-01-21,14.807
1998-01-22,14.8587
1998-01-23,14.6742
1998-01-26,14.7184
1998-01-27,14.7184
1998-01-28,14.807
1998-01-29,14.8587
1998-01-30,14.7627
1998-02-02,15.1761
1998-02-03,14.9915
1998-02-04,15.0875
1998-02-05,15.1761
1998-02-06,15.3164
1998-02-09,15.272
1998-02-10,15.4123
1998-02-11,15.4123
1998-02-12,15.3164
1998-02-13,15.0432
1998-02-17,15.5009
1998-02-18,15.272
1998-02-19,15.1761
1998-02-20,15.1761
1998-02-23,15.1318
1998-02-24,15.1318
1998-02-25,15.4565
1998-02-26,15.4123
1998-02-27,15.4565
1998-03-02,15.272
1998-03-03,15.272
1998-03-04,15.1761
1998-03-05,15.0432
1998-03-06,14.9915
1998-03-09,15.2278
1998-03-10,15.5009
1998-03-11,15.6411
1998-03-12,15.5009
1998-03-13,15.4565
1998-03-16,15.7814
1998-03-17,15.5451
1998-03-18,15.3606
1998-03-19,15.5968
1998-03-20,15.5009
1998-03-23,15.5451
1998-03-24,15.87
1998-03-25,15.9659
1998-03-26,15.87
1998-03-27,16.0102
1998-03-30,15.9659
1998-03-31,15.87
1998-04-01,15.6854
1998-04-02,15.6411
1998-04-03,15.5451
1998-04-06,15.3164
1998-04-07,15.1761
1998-04-08,15.0875
1998-04-09,15.0875
1998-04-13,15.0875
1998-04-14,15.1318
1998-04-15,15.0432
1998-04-16,14.6742
1998-04-17,14.7627
1998-04-20,14.8587
1998-04-21,15.2278
1998-04-22,14.8587
1998-04-23,14.7627
1998-04-24,14.5339
1998-04-27,14.5782
1998-04-28,14.4379
1998-04-29,14.5086
1998-04-30,14.6053
1998-05-01,14.65
1998-05-04,14.8806
1998-05-05,15.022
1998-05-06,14.7392
1998-05-07,14.7392
1998-05-08,14.8806
1998-05-11,15.022
1998-05-12,14.9253
1998-05-13,15.022
1998-05-14,15.0667
1998-05-15,14.9253
1998-05-18,14.9253
1998-05-19,14.9774
1998-05-20,15.2973
1998-05-21,15.022
1998-05-22,14.9774
1998-05-26,14.9253
1998-05-27,15.022
1998-05-28,15.0667
1998-05-29,14.7392
1998-06-01,14.65
1998-06-02,14.5086
1998-06-03,14.6946
1998-06-04,14.7913
1998-06-05,14.9253
1998-06-08,14.7913
1998-06-09,14.836
1998-06-10,14.8806
1998-06-11,16.0934
1998-06-12,16.1826
1998-06-15,15.9967
1998-06-16,15.9967
1998-06-17,15.9521
1998-06-18,15.8107
1998-06-19,15.2973
1998-06-22,15.2527
1998-06-23,15.58
1998-06-24,15.6693
1998-06-25,15.4833
1998-06-26,15.766
1998-06-29,15.58
1998-06-30,15.2527
1998-07-01,15.58
1998-07-02,15.3493
1998-07-06,15.2527
1998-07-07,15.2973
1998-07-08,15.3493
1998-07-09,15.1633
1998-07-10,15.022
1998-07-13,15.2079
1998-07-14,14.9253
1998-07-15,14.7392
1998-07-16,15.4183
1998-07-17,15.3283
1998-07-20,15.6582
1998-07-21,15.7033
1998-07-22,15.9808
1998-07-23,15.7033
1998-07-24,15.9357
1998-07-27,15.7932
1998-07-28,16.0332
1998-07-29,16.4081
1998-07-30,16.6856
1998-07-31,16.8281
1998-08-03,16.4982
1998-08-04,16.0782
1998-08-05,16.0782
1998-08-06,15.8907
1998-08-07,15.9808
1998-08-10,15.7482
1998-08-11,15.4708
1998-08-12,15.7482
1998-08-13,15.8907
1998-08-14,15.9357
1998-08-17,15.8907
1998-08-18,16.8281
1998-08-19,17.1056
1998-08-20,16.9181
1998-08-21,17.2481
1998-08-24,17.0156
1998-08-25,16.8281
1998-08-26,16.7832
1998-08-27,16.4532
1998-08-28,16.3557
1998-08-31,15.3283
1998-09-01,15.7482
1998-09-02,15.8457
1998-09-03,15.7482
1998-09-04,15.8907
1998-09-08,16.2207
1998-09-09,16.4081
1998-09-10,15.4183
1998-09-11,15.5608
1998-09-14,15.7482
1998-09-15,15.5608
1998-09-16,15.5608
1998-09-17,15.3283
1998-09-18,15.5157
1998-09-21,15.7932
1998-09-22,16.9181
1998-09-23,16.8731
1998-09-24,16.5431
1998-09-25,17.4806
1998-09-28,17.293
1998-09-29,17.2481
1998-09-30,16.6856
1998-10-01,16.4982
1998-10-02,16.8281
1998-10-05,17.2031
1998-10-06,17.1056
1998-10-07,17.2031
1998-10-08,17.2031
1998-10-09,17.3455
1998-10-12,18.283
1998-10-13,18.2305
1998-10-14,18.7929
1998-10-15,18.283
1998-10-16,18.4704
1998-10-19,18.5605
1998-10-20,18.703
1998-10-21,18.6309
1998-10-22,18.4875
1998-10-23,18.2989
1998-10-26,18.4423
1998-10-27,18.3442
1998-10-28,17.9669
1998-10-29,18.6763
1998-10-30,19.0535
1998-11-02,19.0988
1998-11-03,19.4308
1998-11-04,19.5289
1998-11-05,19.4308
1998-11-06,19.6647
1998-11-09,19.9515
1998-11-10,19.9062
1998-11-11,19.8534
1998-11-12,19.5289
1998-11-13,19.6647
1998-11-16,19.8081
1998-11-17,19.5742
1998-11-18,19.7176
1998-11-19,17.6877
1998-11-20,18.4875
1998-11-23,18.1103
1998-11-24,18.1103
1998-11-25,18.065
1998-11-27,17.7783
1998-11-30,17.5896
1998-12-01,17.167
1998-12-02,17.733
1998-12-03,17.3557
1998-12-04,18.065
1998-12-07,18.5329
1998-12-08,18.6309
1998-12-09,18.8649
1998-12-10,18.7215
1998-12-11,18.6763
1998-12-14,18.1555
1998-12-15,17.9669
1998-12-16,17.8311
1998-12-17,18.4423
1998-12-18,17.9217
1998-12-21,18.1555
1998-12-22,18.5329
1998-12-23,18.9101
1998-12-24,18.7743
1998-12-28,18.7743
1998-12-29,18.7215
1998-12-30,18.7743
1998-12-31,19.1516
1999-01-04,19.2421
1999-01-05,19.2421
1999-01-06,19.1516
1999-01-07,19.0988
1999-01-08,19.1969
1999-01-11,19.0535
1999-01-12,18.9629
1999-01-13,19.1516
1999-01-14,18.4423
1999-01-15,18.6763
1999-01-19,18.2989
1999-01-20,17.9669
1999-01-21,18.0888
1999-01-22,18.0431
1999-01-25,18.142
1999-01-26,18.3774
1999-01-27,17.8532
1999-01-28,17.9521
1999-01-29,17.6178
1999-02-01,17.329
1999-02-02,16.9492
1999-02-03,16.9036
1999-02-04,16.6681
1999-02-05,16.4782
1999-02-08,16.7137
1999-02-09,16.7137
1999-02-10,16.5238
1999-02-11,17.0479
1999-02-12,16.7137
1999-02-16,15.9996
1999-02-17,15.9996
1999-02-18,15.954
1999-02-19,16.0527
1999-02-22,16.858
1999-02-23,16.2883
1999-02-24,16.1439
1999-02-25,16.1439
1999-02-26,16.0983
1999-03-01,16.1895
1999-03-02,16.1439
1999-03-03,12.4897
1999-03-04,12.8239
1999-03-05,12.634
1999-03-08,12.5353
1999-03-09,12.7252
1999-03-10,12.7708
1999-03-11,12.9607
1999-03-12,12.7252
1999-03-15,12.634
1999-03-16,12.5353
1999-03-17,12.4441
1999-03-18,12.6796
1999-03-19,12.4441
1999-03-22,12.5808
1999-03-23,12.5353
1999-03-24,12.5353
1999-03-25,12.5353
1999-03-26,12.4897
1999-03-29,12.5808
1999-03-30,12.5808
1999-03-31,12.5353
1999-04-01,12.5353
1999-04-05,12.9151
1999-04-06,12.5808
1999-04-07,12.8239
1999-04-08,12.5353
1999-04-09,12.3454
1999-04-12,12.5353
1999-04-13,12.5353
1999-04-14,12.7708
1999-04-15,13.2039
1999-04-16,13.2494
1999-04-19,13.6749
1999-04-20,14.389
1999-04-21,14.1534
1999-04-22,14.1002
1999-04-23,13.4849
1999-04-26,14.0547
1999-04-27,14.2902
1999-04-28,14.5789
1999-04-29,14.4644
1999-04-30,13.9818
1999-05-03,14.8474
1999-05-04,14.2192
1999-05-05,14.1733
1999-05-06,14.4644
1999-05-07,14.1273
1999-05-10,13.6983
1999-05-11,14.0813
1999-05-12,13.5986
1999-05-13,13.7442
1999-05-14,13.5986
1999-05-17,13.3152
1999-05-18,13.2616
1999-05-19,13.4531
1999-05-20,13.3152
1999-05-21,13.3152
1999-05-24,13.7902
1999-05-25,14.1733
1999-05-26,14.5104
1999-05-27,15.3684
1999-05-28,15.3224
1999-06-01,15.468
1999-06-02,15.468
1999-06-03,15.3224
1999-06-04,15.8051
1999-06-07,15.7056
1999-06-08,15.8051
1999-06-09,16.326
1999-06-10,15.9966
1999-06-11,15.9966
1999-06-14,16.3797
1999-06-15,16.2341
1999-06-16,16.4716
1999-06-17,16.6172
1999-06-18,16.6632
1999-06-21,16.2341
1999-06-22,16.0426
1999-06-23,16.0886
1999-06-24,15.943
1999-06-25,16.2341
1999-06-28,16.2801
1999-06-29,16.4716
1999-06-30,16.9543
1999-07-01,16.6172
1999-07-02,16.6172
1999-07-06,16.4257
1999-07-07,16.326
1999-07-08,16.1632
1999-07-09,16.2095
1999-07-12,16.5492
1999-07-13,17.0818
1999-07-14,16.9351
1999-07-15,16.5955
1999-07-16,17.0278
1999-07-19,16.9351
1999-07-20,16.7885
1999-07-21,17.514
1999-07-22,16.9815
1999-07-23,16.9815
1999-07-26,16.9815
1999-07-27,17.0278
1999-07-28,16.8348
1999-07-29,16.2095
1999-07-30,16.1632
1999-08-02,16.2559
1999-08-03,15.9703
1999-08-04,15.9703
1999-08-05,15.677
1999-08-06,15.291
1999-08-09,15.345
1999-08-10,15.1984
1999-08-11,15.345
1999-08-12,15.152
1999-08-13,15.0517
1999-08-16,15.152
1999-08-17,15.2447
1999-08-18,14.6658
1999-08-19,14.4265
1999-08-20,14.6195
1999-08-23,15.1984
1999-08-24,14.8125
1999-08-25,14.905
1999-08-26,15.098
1999-08-27,15.098
1999-08-30,14.9591
1999-08-31,15.345
1999-09-01,15.4839
1999-09-02,16.1632
1999-09-03,16.6959
1999-09-07,17.0818
1999-09-08,18.286
1999-09-09,18.4789
1999-09-10,18.5252
1999-09-13,18.1856
1999-09-14,18.286
1999-09-15,19.3435
1999-09-16,18.8649
1999-09-17,18.9111
1999-09-20,18.9574
1999-09-21,19.1504
1999-09-22,18.3785
1999-09-23,17.7533
1999-09-24,17.6067
1999-09-27,17.707
1999-09-28,18.1393
1999-09-29,17.9463
1999-09-30,17.8537
1999-10-01,17.6067
1999-10-04,17.5604
1999-10-05,17.2748
1999-10-06,17.707
1999-10-07,18.1393
1999-10-08,18.093
1999-10-11,17.9
1999-10-12,17.8537
1999-10-13,18.0466
1999-10-14,18.0466
1999-10-15,17.4137
1999-10-18,17.5604
1999-10-19,17.1744
1999-10-20,17.9
1999-10-21,17.4137
1999-10-22,18.0466
1999-10-25,17.7277
1999-10-26,17.3935
1999-10-27,17.4401
1999-10-28,17.1992
1999-10-29,17.0515
1999-11-01,16.9505
1999-11-02,17.5334
1999-11-03,17.7277
1999-11-04,16.9505
1999-11-05,16.8106
1999-11-08,16.7095
1999-11-09,16.2743
1999-11-10,16.5619
1999-11-11,16.5619
1999-11-12,16.2743
1999-11-15,16.422
1999-11-16,16.7562
1999-11-17,18.8935
1999-11-18,18.6059
1999-11-19,18.3106
1999-11-22,17.7277
1999-11-23,17.922
1999-11-24,17.5334
1999-11-26,17.7277
1999-11-29,17.3391
1999-11-30,18.2173
1999-12-01,17.0515
1999-12-02,17.3935
1999-12-03,18.6992
1999-12-06,18.2639
1999-12-07,17.5878
1999-12-08,16.9038
1999-12-09,17.0981
1999-12-10,17.1992
1999-12-13,16.5152
1999-12-14,16.5619
1999-12-15,16.3676
1999-12-16,16.3209
1999-12-17,16.2743
1999-12-20,15.7381
1999-12-21,15.8858
1999-12-22,15.8858
1999-12-23,15.979
1999-12-27,16.08
1999-12-28,16.5619
1999-12-29,16.3676
1999-12-30,16.5152
1999-12-31,16.7562
2000-01-03,15.9323
2000-01-04,15.6449
2000-01-05,15.1552
2000-01-06,16.1733
2000-01-07,16.3209
2000-01-10,16.3676
2000-01-11,16.3209
2000-01-12,15.979
2000-01-13,16.0334
2000-01-14,16.1266
2000-01-18,15.5905
2000-01-19,15.6915
2000-01-20,15.5905
2000-01-21,15.3962
2000-01-24,15.2563
2000-01-25,15.1552
2000-01-26,15.4972
2000-01-27,14.9609
2000-01-28,14.5497
2000-01-31,14.4557
2000-02-01,14.2597
2000-02-02,14.3537
2000-02-03,14.1578
2000-02-04,14.8947
2000-02-07,14.0166
2000-02-08,14.0638
2000-02-09,14.0638
2000-02-10,13.6718
2000-02-11,13.7658
2000-02-14,13.9148
2000-02-15,14.0638
2000-02-16,14.0638
2000-02-17,13.9618
2000-02-18,14.0638
2000-02-22,14.3537
2000-02-23,14.7457
2000-02-24,14.4086
2000-02-25,14.0638
2000-02-28,13.9618
2000-02-29,15.4827
2000-03-01,16.4155
2000-03-02,16.1176
2000-03-03,16.9015
2000-03-06,16.8545
2000-03-07,16.4155
2000-03-08,16.5645
2000-03-09,17.0505
2000-03-10,17.0505
2000-03-13,16.9015
2000-03-14,16.1725
2000-03-15,17.6384
2000-03-16,18.6184
2000-03-17,17.7403
2000-03-20,17.9834
2000-03-21,17.9363
2000-03-22,18.0304
2000-03-23,18.0774
2000-03-24,18.4224
2000-03-27,17.6854
2000-03-28,17.9834
2000-03-29,17.8344
2000-03-30,17.8344
2000-03-31,17.5914
2000-04-03,17.6854
2000-04-04,18.1793
2000-04-05,17.7403
2000-04-06,18.5243
2000-04-07,18.0774
2000-04-10,18.0304
2000-04-11,18.1793
2000-04-12,18.6184
2000-04-13,18.3283
2000-04-14,17.2465
2000-04-17,17.6384
2000-04-18,17.8814
2000-04-19,18.1793
2000-04-20,18.2264
2000-04-24,17.8814
2000-04-25,18.6184
2000-04-26,18.2264
2000-04-27,17.6384
2000-04-28,17.6384
2000-05-01,17.8814
2000-05-02,18.0663
2000-05-03,17.5215
2000-05-04,17.6715
2000-05-05,18.0663
2000-05-08,17.3715
2000-05-09,16.7319
2000-05-10,17.024
2000-05-11,17.8137
2000-05-12,18.2084
2000-05-15,18.3111
2000-05-16,18.998
2000-05-17,18.2084
2000-05-18,18.2637
2000-05-19,18.161
2000-05-22,18.0663
2000-05-23,18.161
2000-05-24,18.1137
2000-05-25,17.4188
2000-05-26,17.1741
2000-05-30,17.1266
2000-05-31,16.5818
2000-06-01,16.7319
2000-06-02,16.8819
2000-06-05,16.8819
2000-06-06,16.6292
2000-06-07,16.2896
2000-06-08,16.4318
2000-06-09,16.3371
2000-06-12,16.3371
2000-06-13,16.3371
2000-06-14,16.2896
2000-06-15,16.3844
2000-06-16,16.2344
2000-06-19,16.037
2000-06-20,15.1052
2000-06-21,15.0026
2000-06-22,15.3975
2000-06-23,15.5949
2000-06-26,15.3975
2000-06-27,15.4448
2000-06-28,15.6422
2000-06-29,14.5605
2000-06-30,14.9078
2000-07-03,14.9078
2000-07-05,15.0026
2000-07-06,15.2
2000-07-07,15.2474
2000-07-10,15.0026
2000-07-11,15.1052
2000-07-12,15.35
2000-07-13,15.3975
2000-07-14,15.7922
2000-07-17,15.6975
2000-07-18,15.8949
2000-07-19,15.9422
2000-07-20,16.3371
2000-07-21,15.5474
2000-07-24,15.7448
2000-07-25,16.123
2000-07-26,16.4257
2000-07-27,16.4257
2000-07-28,16.3221
2000-07-31,16.5211
2000-08-01,16.4257
2000-08-02,17.3173
2000-08-03,16.6246
2000-08-04,16.7202
2000-08-07,16.8237
2000-08-08,17.1661
2000-08-09,17.5164
2000-08-10,17.2696
2000-08-11,17.8189
2000-08-14,17.62
2000-08-15,17.0228
2000-08-16,17.1183
2000-08-17,17.3652
2000-08-18,17.1661
2000-08-21,17.0705
2000-08-22,17.3173
2000-08-23,16.8237
2000-08-24,17.3173
2000-08-25,16.967
2000-08-28,17.1183
2000-08-29,17.5164
2000-08-30,17.3173
2000-08-31,17.0228
2000-09-01,17.5164
2000-09-05,17.3652
2000-09-06,17.1183
2000-09-07,16.6725
2000-09-08,16.1709
2000-09-11,16.7202
2000-09-12,16.768
2000-09-13,16.768
2000-09-14,16.5211
2000-09-15,16.3699
2000-09-18,15.5259
2000-09-19,15.6772
2000-09-20,16.0753
2000-09-21,16.0275
2000-09-22,15.8285
2000-09-25,15.924
2000-09-26,15.7727
2000-09-27,15.8762
2000-09-28,16.123
2000-09-29,15.725
2000-10-02,15.725
2000-10-03,16.2266
2000-10-04,16.7202
2000-10-05,16.768
2000-10-06,16.4734
2000-10-09,16.6725
2000-10-10,16.7202
2000-10-11,16.3221
2000-10-12,15.8762
2000-10-13,16.0275
2000-10-16,16.123
2000-10-17,15.4303
2000-10-18,15.7727
2000-10-19,15.8762
2000-10-20,15.924
2000-10-23,15.7727
2000-10-24,15.7727
2000-10-25,15.6772
2000-10-26,15.8097
2000-10-27,15.8097
2000-10-30,16.4119
2000-10-31,17.2629
2000-11-01,17.1666
2000-11-02,17.3112
2000-11-03,17.014
2000-11-06,18.2666
2000-11-07,17.8171
2000-11-08,18.2666
2000-11-09,17.3674
2000-11-10,17.0623
2000-11-13,16.8134
2000-11-14,16.8615
2000-11-15,17.014
2000-11-16,16.7651
2000-11-17,16.4119
2000-11-20,16.2594
2000-11-21,16.3075
2000-11-22,16.2594
2000-11-24,16.6608
2000-11-27,16.46
2000-11-28,16.3637
2000-11-29,16.163
2000-11-30,16.0586
2000-12-01,16.5083
2000-12-04,16.2111
2000-12-05,15.9622
2000-12-06,15.4082
2000-12-07,15.2074
2000-12-08,15.3038
2000-12-11,15.4563
2000-12-12,15.609
2000-12-13,15.6571
2000-12-14,15.5046
2000-12-15,15.1593
2000-12-18,15.0549
2000-12-19,15.1031
2000-12-20,14.6534
2000-12-21,15.0549
2000-12-22,16.1068
2000-12-26,16.163
2000-12-27,17.1666
2000-12-28,17.3112
2000-12-29,17.0623
2001-01-02,17.3674
2001-01-03,17.9696
2001-01-04,18.4192
2001-01-05,18.0177
2001-01-08,17.6163
2001-01-09,17.5681
2001-01-10,18.4674
2001-01-11,18.4674
2001-01-12,18.917
2001-01-16,18.8689
2001-01-17,18.8206
2001-01-18,18.8689
2001-01-19,18.8206
2001-01-22,18.917
2001-01-23,18.62
2001-01-24,18.1141
2001-01-25,18.7725
2001-01-26,19.3747
2001-01-29,19.6156
2001-01-30,19.8905
2001-01-31,19.8258
2001-02-01,20.0603
2001-02-02,20.1896
2001-02-05,20.2947
2001-02-06,20.2301
2001-02-07,20.2058
2001-02-08,20.1815
2001-02-09,20.2624
2001-02-12,20.0361
2001-02-13,20.5859
2001-02-14,20.0927
2001-02-15,21.0629
2001-02-16,19.1143
2001-02-20,19.1385
2001-02-21,18.9606
2001-02-22,18.71
2001-02-23,18.7504
2001-02-26,19.0415
2001-02-27,18.7989
2001-02-28,18.4027
2001-03-01,18.6372
2001-03-02,18.7585
2001-03-05,19.3165
2001-03-06,19.4539
2001-03-07,19.5266
2001-03-08,19.6802
2001-03-09,19.4943
2001-03-12,19.0658
2001-03-13,18.5321
2001-03-14,18.233
2001-03-15,18.6696
2001-03-16,18.5645
2001-03-19,17.9095
2001-03-20,18.0308
2001-03-21,18.0308
2001-03-22,17.7883
2001-03-23,17.7883
2001-03-26,17.9419
2001-03-27,17.6912
2001-03-28,17.5376
2001-03-29,17.6427
2001-03-30,17.7073
2001-04-02,17.7155
2001-04-03,17.2707
2001-04-04,17.7802
2001-04-05,18.4593
2001-04-06,18.2653
2001-04-09,18.3461
2001-04-10,18.5806
2001-04-11,18.2087
2001-04-12,18.5564
2001-04-16,18.1844
2001-04-17,18.4351
2001-04-18,19.1467
2001-04-19,19.187
2001-04-20,19.1385
2001-04-23,18.7504
2001-04-24,18.9687
2001-04-25,18.7908
2001-04-26,18.9606
2001-04-27,19.3568
2001-04-30,18.993
2001-05-01,18.8394
2001-05-02,18.7181
2001-05-03,18.6777
2001-05-04,18.6696
2001-05-07,18.7187
2001-05-08,18.7187
2001-05-09,18.6046
2001-05-10,18.7675
2001-05-11,18.5069
2001-05-14,18.5232
2001-05-15,18.4906
2001-05-16,18.9386
2001-05-17,18.9142
2001-05-18,18.6535
2001-05-21,18.9794
2001-05-22,18.963
2001-05-23,18.9386
2001-05-24,18.8327
2001-05-25,18.7105
2001-05-29,18.6535
2001-05-30,18.2707
2001-05-31,18.8165
2001-06-01,18.8165
2001-06-04,18.9223
2001-06-05,19.24
2001-06-06,19.0038
2001-06-07,19.3214
2001-06-08,19.24
2001-06-11,19.4762
2001-06-12,19.2644
2001-06-13,19.1178
2001-06-14,18.7919
2001-06-15,18.906
2001-06-18,19.0771
2001-06-19,18.9794
2001-06-20,19.1749
2001-06-21,19.4192
2001-06-22,19.2319
2001-06-25,19.1097
2001-06-26,19.0934
2001-06-27,19.0282
2001-06-28,19.1993
2001-06-29,19.0689
2001-07-02,19.2807
2001-07-03,19.3214
2001-07-05,19.3784
2001-07-06,19.0364
2001-07-09,19.1993
2001-07-10,18.9223
2001-07-11,18.9386
2001-07-12,19.297
2001-07-13,19.4436
2001-07-16,19.5739
2001-07-17,19.6065
2001-07-18,19.5251
2001-07-19,19.688
2001-07-20,19.5495
2001-07-23,19.3622
2001-07-24,19.0689
2001-07-25,19.2319
2001-07-26,19.2807
2001-07-27,19.2726
2001-07-30,19.5413
2001-07-31,19.6157
2001-08-01,19.6731
2001-08-02,19.6321
2001-08-03,19.6567
2001-08-06,19.4844
2001-08-07,19.4844
2001-08-08,19.2301
2001-08-09,19.4434
2001-08-10,19.7306
2001-08-13,19.7306
2001-08-14,20.0013
2001-08-15,20.1408
2001-08-16,20.2638
2001-08-17,20.1325
2001-08-20,19.0742
2001-08-21,18.9347
2001-08-22,19.0907
2001-08-23,19.107
2001-08-24,18.9922
2001-08-27,18.9184
2001-08-28,18.8363
2001-08-29,18.9101
2001-08-30,18.139
2001-08-31,18.262
2001-09-04,18.139
2001-09-05,18.3769
2001-09-06,18.1636
2001-09-07,17.819
2001-09-10,17.458
2001-09-17,16.4079
2001-09-18,16.5885
2001-09-19,16.3095
2001-09-20,15.6614
2001-09-21,15.2512
2001-09-24,15.7188
2001-09-25,15.7845
2001-09-26,15.5711
2001-09-27,15.6039
2001-09-28,15.9403
2001-10-01,15.8008
2001-10-02,16.3751
2001-10-03,16.4325
2001-10-04,16.5639
2001-10-05,16.7197
2001-10-08,16.6213
2001-10-09,16.5393
2001-10-10,16.8017
2001-10-11,16.7689
2001-10-12,16.7361
2001-10-15,16.933
2001-10-16,17.2803
2001-10-17,17.1397
2001-10-18,17.0817
2001-10-19,17.0734
2001-10-22,17.3216
2001-10-23,17.2307
2001-10-24,17.09
2001-10-25,17.4126
2001-10-26,18.0413
2001-10-29,17.3878
2001-10-30,17.09
2001-10-31,16.9163
2001-11-01,17.2389
2001-11-02,17.5532
2001-11-05,17.8676
2001-11-06,17.9916
2001-11-07,18.1075
2001-11-08,18.3473
2001-11-09,18.1985
2001-11-12,17.9255
2001-11-13,18.0744
2001-11-14,18.3308
2001-11-15,18.5046
2001-11-16,18.5459
2001-11-19,18.6948
2001-11-20,18.4383
2001-11-21,18.5046
2001-11-23,18.6204
2001-11-26,18.9181
2001-11-27,18.794
2001-11-28,19.0257
2001-11-29,19.1746
2001-11-30,19.0422
2001-12-03,19.034
2001-12-04,19.3814
2001-12-05,20.0349
2001-12-06,19.9191
2001-12-07,20.5891
2001-12-10,20.2003
2001-12-11,20.1341
2001-12-12,19.8695
2001-12-13,19.7867
2001-12-14,19.8529
2001-12-17,20.0018
2001-12-18,20.2416
2001-12-19,20.1506
2001-12-20,19.9025
2001-12-21,19.8529
2001-12-24,19.977
2001-12-26,19.9025
2001-12-27,20.1093
2001-12-28,20.0762
2001-12-31,19.9108
2002-01-02,19.8446
2002-01-03,19.9604
2002-01-04,20.1341
2002-01-07,20.1093
2002-01-08,19.8777
2002-01-09,19.9191
2002-01-10,19.8032
2002-01-11,19.7701
2002-01-14,19.4724
2002-01-15,18.9926
2002-01-16,18.5377
2002-01-17,18.8354
2002-01-18,18.67
2002-01-22,18.4963
2002-01-23,18.6286
2002-01-24,18.8188
2002-01-25,18.9926
2002-01-28,19.1828
2002-01-29,18.6948
2002-01-30,19.0282
2002-01-31,19.2115
2002-02-01,19.1781
2002-02-04,18.6198
2002-02-05,18.3031
2002-02-06,18.3031
2002-02-07,18.0197
2002-02-08,18.053
2002-02-11,18.5365
2002-02-12,18.3948
2002-02-13,18.3114
2002-02-14,17.7446
2002-02-15,16.8612
2002-02-19,16.4194
2002-02-20,14.6858
2002-02-21,15.2026
2002-02-22,14.9192
2002-02-25,15.2108
2002-02-26,15.0441
2002-02-27,15.0859
2002-02-28,16.3111
2002-03-01,16.6695
2002-03-04,16.6527
2002-03-05,16.6195
2002-03-06,16.8778
2002-03-07,16.7361
2002-03-08,17.0945
2002-03-11,16.9445
2002-03-12,16.9279
2002-03-13,16.8695
2002-03-14,16.7862
2002-03-15,16.7528
2002-03-18,16.7361
2002-03-19,16.9695
2002-03-20,17.2529
2002-03-21,17.1446
2002-03-22,16.9861
2002-03-25,16.6861
2002-03-26,16.9695
2002-03-27,17.0445
2002-03-28,17.1028
2002-04-01,16.8945
2002-04-02,17.0112
2002-04-03,16.9861
2002-04-04,17.0195
2002-04-05,17.4779
2002-04-08,17.6279
2002-04-09,18.0114
2002-04-10,18.053
2002-04-11,17.878
2002-04-12,17.8113
2002-04-15,17.7696
2002-04-16,18.2614
2002-04-17,18.3114
2002-04-18,18.1197
2002-04-19,18.078
2002-04-22,17.6363
2002-04-23,17.2779
2002-04-24,17.3279
2002-04-25,17.1196
2002-04-26,17.1028
2002-04-29,17.2195
2002-04-30,17.3862
2002-05-01,17.5037
2002-05-02,17.6041
2002-05-03,17.7966
2002-05-06,17.7799
2002-05-07,17.4953
2002-05-08,18.0896
2002-05-09,17.7213
2002-05-10,17.5037
2002-05-13,17.8468
2002-05-14,18.5082
2002-05-15,19.3285
2002-05-16,19.2364
2002-05-17,19.1695
2002-05-20,19.0105
2002-05-21,18.8932
2002-05-22,19.0607
2002-05-23,19.4206
2002-05-24,19.295
2002-05-28,19.2783
2002-05-29,19.3452
2002-05-30,19.4708
2002-05-31,19.1276
2002-06-03,18.6672
2002-06-04,18.2236
2002-06-05,18.5333
2002-06-06,18.6588
2002-06-07,18.709
2002-06-10,18.5333
2002-06-11,18.2654
2002-06-12,18.3408
2002-06-13,18.0812
2002-06-14,18.1566
2002-06-17,18.2487
2002-06-18,18.2236
2002-06-19,18.2152
2002-06-20,18.1483
2002-06-21,18.0226
2002-06-24,17.6292
2002-06-25,17.3698
2002-06-26,17.2776
2002-06-27,17.3781
2002-06-28,17.579
2002-07-01,17.0181
2002-07-02,16.6917
2002-07-03,16.3317
2002-07-05,16.8172
2002-07-08,16.315
2002-07-09,16.0304
2002-07-10,15.7206
2002-07-11,15.7792
2002-07-12,15.7959
2002-07-15,15.9467
2002-07-16,15.662
2002-07-17,15.8127
2002-07-18,15.8127
2002-07-19,15.436
2002-07-22,14.7245
2002-07-23,14.2138
2002-07-24,14.1218
2002-07-25,13.9125
2002-07-26,13.6363
2002-07-29,14.264
2002-07-30,14.7103
2002-07-31,14.7356
2002-08-01,14.5337
2002-08-02,13.8689
2002-08-05,13.4228
2002-08-06,13.8604
2002-08-07,14.1297
2002-08-08,14.3401
2002-08-09,14.5926
2002-08-12,14.4326
2002-08-13,14.0708
2002-08-14,14.2812
2002-08-15,14.3737
2002-08-16,14.5084
2002-08-19,14.4748
2002-08-20,14.298
2002-08-21,14.3737
2002-08-22,14.9797
2002-08-23,14.6851
2002-08-26,14.8029
2002-08-27,14.7356
2002-08-28,14.5252
2002-08-29,14.2391
2002-08-30,14.2643
2002-09-03,13.5238
2002-09-04,14.0035
2002-09-05,13.9446
2002-09-06,14.2643
2002-09-09,14.3822
2002-09-10,14.8534
2002-09-11,15.3584
2002-09-12,14.7188
2002-09-13,14.6431
2002-09-16,14.5589
2002-09-17,14.197
2002-09-18,13.7595
2002-09-19,13.4312
2002-09-20,13.4985
2002-09-23,13.3555
2002-09-24,13.0188
2002-09-25,13.3807
2002-09-26,13.5911
2002-09-27,13.1535
2002-09-30,13.204
2002-10-01,13.7173
2002-10-02,13.3724
2002-10-03,13.3387
2002-10-04,13.0441
2002-10-07,12.8842
2002-10-08,13.0357
2002-10-09,12.6234
2002-10-10,13.0273
2002-10-11,13.6079
2002-10-14,13.5827
2002-10-15,14.3149
2002-10-16,13.8941
2002-10-17,14.3064
2002-10-18,14.2223
2002-10-21,14.8114
2002-10-22,14.4898
2002-10-23,14.676
2002-10-24,14.5914
2002-10-25,15.1412
2002-10-28,14.8789
2002-10-29,14.9551
2002-10-30,14.972
2002-10-31,14.6929
2002-11-01,14.9466
2002-11-04,15.0566
2002-11-05,15.1497
2002-11-06,15.0142
2002-11-07,14.7097
2002-11-08,14.6929
2002-11-11,14.2699
2002-11-12,14.3799
2002-11-13,14.5998
2002-11-14,14.9889
2002-11-15,14.9889
2002-11-18,15.2596
2002-11-19,15.3273
2002-11-20,15.5557
2002-11-21,16.0547
2002-11-22,15.9701
2002-11-25,16.1816
2002-11-26,15.8348
2002-11-27,16.3085
2002-11-29,16.1393
2002-12-02,16.0886
2002-12-03,15.5641
2002-12-04,15.4118
2002-12-05,14.9043
2002-12-06,14.8874
2002-12-09,14.4052
2002-12-10,14.3376
2002-12-11,14.1346
2002-12-12,14.1769
2002-12-13,13.8301
2002-12-16,14.1853
2002-12-17,14.0838
2002-12-18,14.0585
2002-12-19,14.0923
2002-12-20,14.1684
2002-12-23,14.2023
2002-12-24,14.0077
2002-12-26,13.9992
2002-12-27,13.8386
2002-12-30,13.9739
2002-12-31,14.1177
2003-01-02,14.3206
2003-01-03,14.2869
2003-01-06,14.5406
2003-01-07,14.253
2003-01-08,13.9908
2003-01-09,14.0161
2003-01-10,13.8301
2003-01-13,13.7708
2003-01-14,13.8047
2003-01-15,13.5594
2003-01-16,13.6524
2003-01-17,13.4917
2003-01-21,13.2042
2003-01-22,13.1196
2003-01-23,13.7116
2003-01-24,13.1872
2003-01-27,13.0011
2003-01-28,12.9841
2003-01-29,13.1618
2003-01-30,12.9747
2003-01-31,13.1788
2003-02-03,13.1449
2003-02-04,13.0343
2003-02-05,13.2895
2003-02-06,13.1874
2003-02-07,13.3151
2003-02-10,13.281
2003-02-11,13.4851
2003-02-12,13.4596
2003-02-13,13.4086
2003-02-14,13.8
2003-02-18,14.0297
2003-02-19,13.834
2003-02-20,13.7064
2003-02-21,13.9787
2003-02-24,13.7404
2003-02-25,13.7659
2003-02-26,13.5022
2003-02-27,13.8255
2003-02-28,13.7575
2003-03-03,13.6979
2003-03-04,13.5618
2003-03-05,15.7058
2003-03-06,16.0971
2003-03-07,16.4119
2003-03-10,16.3864
2003-03-11,16.5651
2003-03-12,15.995
2003-03-13,15.961
2003-03-14,15.995
2003-03-17,16.3183
2003-03-18,16.48
2003-03-19,16.7268
2003-03-20,16.9564
2003-03-21,17.3818
2003-03-24,16.7863
2003-03-25,17.1606
2003-03-26,16.9224
2003-03-27,17.3478
2003-03-28,17.0075
2003-03-31,17.0075
2003-04-01,16.999
2003-04-02,17.8242
2003-04-03,17.6796
2003-04-04,17.7562
2003-04-07,17.8242
2003-04-08,17.535
2003-04-09,17.2372
2003-04-10,17.552
2003-04-11,17.3308
2003-04-14,17.2798
2003-04-15,17.8583
2003-04-16,17.4073
2003-04-17,17.3989
2003-04-21,17.4414
2003-04-22,17.8668
2003-04-23,17.7987
2003-04-24,17.5265
2003-04-25,17.3563
2003-04-28,18.105
2003-04-29,17.7477
2003-04-30,18.0467
2003-05-01,17.9784
2003-05-02,17.9271
2003-05-05,17.816
2003-05-06,18.0125
2003-05-07,17.7733
2003-05-08,17.5341
2003-05-09,17.6878
2003-05-12,17.9356
2003-05-13,17.6366
2003-05-14,17.4999
2003-05-15,17.4828
2003-05-16,17.705
2003-05-19,17.2349
2003-05-20,17.3802
2003-05-21,17.3033
2003-05-22,17.2777
2003-05-23,17.3375
2003-05-27,17.9784
2003-05-28,17.8929
2003-05-29,17.9442
2003-05-30,18.5765
2003-06-02,18.7474
2003-06-03,18.9525
2003-06-04,20.6785
2003-06-05,20.5077
2003-06-06,20.4051
2003-06-09,20.3368
2003-06-10,20.4307
2003-06-11,20.5845
2003-06-12,20.576
2003-06-13,20.4222
2003-06-16,20.5845
2003-06-17,20.6358
2003-06-18,20.9092
2003-06-19,20.6272
2003-06-20,20.7213
2003-06-23,20.2171
2003-06-24,19.5676
2003-06-25,19.2259
2003-06-26,19.3541
2003-06-27,19.0977
2003-06-30,19.2344
2003-07-01,19.243
2003-07-02,19.6104
2003-07-03,19.4395
2003-07-07,19.3968
2003-07-08,19.3114
2003-07-09,19.2088
2003-07-10,19.0464
2003-07-11,19.6019
2003-07-14,19.9095
2003-07-15,19.5934
2003-07-16,19.2003
2003-07-17,19.2686
2003-07-18,19.4993
2003-07-21,19.0294
2003-07-22,19.6787
2003-07-23,19.7301
2003-07-24,19.2858
2003-07-25,19.8326
2003-07-28,19.542
2003-07-29,19.4907
2003-07-30,19.7395
2003-07-31,19.4135
2003-08-01,19.465
2003-08-04,19.6108
2003-08-05,19.3106
2003-08-06,19.4306
2003-08-07,19.4564
2003-08-08,19.2505
2003-08-11,19.1133
2003-08-12,19.302
2003-08-13,19.5937
2003-08-14,19.5851
2003-08-15,19.7824
2003-08-18,20.0055
2003-08-19,20.6746
2003-08-20,20.6917
2003-08-21,20.8804
2003-08-22,20.6403
2003-08-25,20.6231
2003-08-26,20.5802
2003-08-27,20.6317
2003-08-28,20.9319
2003-08-29,21.3609
2003-09-02,21.4981
2003-09-03,21.4552
2003-09-04,22.0043
2003-09-05,20.4
2003-09-08,20.7946
2003-09-09,20.5631
2003-09-10,19.6966
2003-09-11,19.5765
2003-09-12,19.302
2003-09-15,19.3878
2003-09-16,19.2849
2003-09-17,18.6328
2003-09-18,19.2334
2003-09-19,18.9246
2003-09-22,19.0018
2003-09-23,19.2676
2003-09-24,19.1047
2003-09-25,19.0189
2003-09-26,18.8473
2003-09-29,19.5336
2003-09-30,19.2591
2003-10-01,19.5336
2003-10-02,19.5679
2003-10-03,19.8853
2003-10-06,20.0226
2003-10-07,19.8767
2003-10-08,19.8853
2003-10-09,20.1341
2003-10-10,20.0483
2003-10-13,20.0913
2003-10-14,20.1942
2003-10-15,20.34
2003-10-16,20.237
2003-10-17,19.8682
2003-10-20,19.7738
2003-10-21,20.0055
2003-10-22,19.7824
2003-10-23,19.9197
2003-10-24,19.7995
2003-10-27,20.117
2003-10-28,20.3143
2003-10-29,20.2452
2003-10-30,20.4261
2003-10-31,20.1591
2003-11-03,20.693
2003-11-04,20.6414
2003-11-05,20.6069
2003-11-06,20.8825
2003-11-07,21.2873
2003-11-10,21.0977
2003-11-11,21.0634
2003-11-12,21.3131
2003-11-13,21.3303
2003-11-14,21.3992
2003-11-17,21.2528
2003-11-18,21.3131
2003-11-19,21.537
2003-11-20,21.3647
2003-11-21,21.5542
2003-11-24,21.9503
2003-11-25,21.9159
2003-11-26,22.0536
2003-11-28,22.0623
2003-12-01,22.3808
2003-12-02,22.3722
2003-12-03,22.6392
2003-12-04,22.0881
2003-12-05,22.0536
2003-12-08,22.2431
2003-12-09,22.1742
2003-12-10,22.0364
2003-12-11,22.3722
2003-12-12,22.7425
2003-12-15,22.5617
2003-12-16,22.8286
2003-12-17,22.777
2003-12-18,22.8373
2003-12-19,22.7339
2003-12-22,22.9234
2003-12-23,22.82
2003-12-24,23.0439
2003-12-26,23.0181
2003-12-29,23.199
2003-12-30,23.1559
2003-12-31,23.0956
2004-01-02,23.0009
2004-01-05,23.1128
2004-01-06,22.5101
2004-01-07,22.1914
2004-01-08,23.2248
2004-01-09,22.7425
2004-01-12,22.7253
2004-01-13,22.6737
2004-01-14,22.9061
2004-01-15,23.4487
2004-01-16,23.9309
2004-01-20,23.707
2004-01-21,23.707
2004-01-22,23.199
2004-01-23,22.8976
2004-01-26,22.8286
2004-01-27,23.2161
2004-01-28,22.7512
2004-01-29,22.4756
2004-01-30,22.3808
2004-02-02,22.2603
2004-02-03,22.0105
2004-02-04,21.6044
2004-02-05,21.9933
2004-02-06,22.7105
2004-02-09,22.7279
2004-02-10,22.7883
2004-02-11,22.8575
2004-02-12,22.9698
2004-02-13,22.5809
2004-02-17,22.9352
2004-02-18,22.9957
2004-02-19,22.7279
2004-02-20,22.7969
2004-02-23,22.7192
2004-02-24,22.6068
2004-02-25,22.7019
2004-02-26,22.7192
2004-02-27,22.5463
2004-03-01,23.0476
2004-03-02,23.3933
2004-03-03,21.1291
2004-03-04,20.9822
2004-03-05,20.7748
2004-03-08,20.7402
2004-03-09,20.5934
2004-03-10,20.239
2004-03-11,19.876
2004-03-12,20.1353
2004-03-15,19.8934
2004-03-16,19.8588
2004-03-17,19.997
2004-03-18,20.023
2004-03-19,19.7637
2004-03-22,19.7033
2004-03-23,19.4786
2004-03-24,19.5304
2004-03-25,19.565
2004-03-26,19.781
2004-03-29,19.7464
2004-03-30,19.7983
2004-03-31,19.66
2004-04-01,19.8069
2004-04-02,20.1785
2004-04-05,20.5847
2004-04-06,20.3859
2004-04-07,20.5501
2004-04-08,20.5934
2004-04-12,20.939
2004-04-13,20.7143
2004-04-14,20.6711
2004-04-15,21.0427
2004-04-16,21.1378
2004-04-19,20.9908
2004-04-20,20.8266
2004-04-21,20.9822
2004-04-22,21.5957
2004-04-23,21.0859
2004-04-26,21.3797
2004-04-27,21.2242
2004-04-28,20.8079
2004-04-29,20.3916
2004-04-30,20.5129
2004-05-03,20.6344
2004-05-04,20.3741
2004-05-05,20.4956
2004-05-06,20.3829
2004-05-07,19.8365
2004-05-10,19.7324
2004-05-11,19.767
2004-05-12,19.5589
2004-05-13,19.3421
2004-05-14,19.6456
2004-05-17,19.5242
2004-05-18,19.3421
2004-05-19,19.4461
2004-05-20,19.7324
2004-05-21,19.9145
2004-05-24,20.4783
2004-05-25,20.5737
2004-05-26,20.4176
2004-05-27,20.7038
2004-05-28,20.9987
2004-06-01,20.9467
2004-06-02,21.0941
2004-06-03,20.7211
2004-06-04,20.7819
2004-06-07,21.285
2004-06-08,21.5105
2004-06-09,21.1635
2004-06-10,21.1548
2004-06-14,20.99
2004-06-15,21.337
2004-06-16,21.1462
2004-06-17,20.964
2004-06-18,21.016
2004-06-21,21.311
2004-06-22,21.4497
2004-06-23,21.5538
2004-06-24,21.4758
2004-06-25,21.6666
2004-06-28,21.8314
2004-06-29,22.1522
2004-06-30,22.7073
2004-07-01,21.9268
2004-07-02,21.6753
2004-07-06,21.5971
2004-07-07,21.6318
2004-07-08,21.3803
2004-07-09,21.2936
2004-07-12,21.1895
2004-07-13,21.1635
2004-07-14,21.1288
2004-07-15,21.0247
2004-07-16,20.9467
2004-07-19,20.7298
2004-07-20,20.8165
2004-07-21,20.5129
2004-07-22,20.5997
2004-07-23,20.2354
2004-07-26,19.9838
2004-07-27,20.1487
2004-07-28,20.036
2004-07-29,20.2788
2004-07-30,20.062
2004-08-02,20.1924
2004-08-03,20.0618
2004-08-04,19.9399
2004-08-05,19.5916
2004-08-06,19.4697
2004-08-09,19.5655
2004-08-10,19.9921
2004-08-11,19.8789
2004-08-12,19.8006
2004-08-13,19.6786
2004-08-16,20.0879
2004-08-17,20.1227
2004-08-18,20.5843
2004-08-19,20.5407
2004-08-20,20.68
2004-08-23,20.3491
2004-08-24,20.4101
2004-08-25,20.6277
2004-08-26,20.9674
2004-08-27,21.1415
2004-08-30,21.1067
2004-08-31,21.2547
2004-09-01,21.603
2004-09-02,21.7598
2004-09-03,20.5581
2004-09-07,20.2185
2004-09-08,20.5407
2004-09-09,20.9674
2004-09-10,21.2809
2004-09-13,21.3505
2004-09-14,21.4898
2004-09-15,21.1154
2004-09-16,21.1328
2004-09-17,21.1676
2004-09-20,20.9151
2004-09-21,21.0283
2004-09-22,21.2025
2004-09-23,21.2199
2004-09-24,20.8368
2004-09-27,20.5233
2004-09-28,20.6887
2004-09-29,20.9064
2004-09-30,21.2982
2004-10-01,21.6552
2004-10-04,21.7162
2004-10-05,21.5942
2004-10-06,21.751
2004-10-07,21.7859
2004-10-08,21.7598
2004-10-11,21.7945
2004-10-12,21.8294
2004-10-13,21.9165
2004-10-14,21.542
2004-10-15,21.3331
2004-10-18,21.455
2004-10-19,21.3505
2004-10-20,21.5769
2004-10-21,21.7684
2004-10-22,21.3766
2004-10-25,21.7075
2004-10-26,21.9961
2004-10-27,22.2496
2004-10-28,22.1622
2004-10-29,22.6079
2004-11-01,22.9312
2004-11-02,22.6777
2004-11-03,23.0886
2004-11-04,23.4381
2004-11-05,23.1846
2004-11-08,23.3245
2004-11-09,23.4031
2004-11-10,23.5691
2004-11-11,23.6565
2004-11-12,23.9187
2004-11-15,23.7964
2004-11-16,23.4818
2004-11-17,23.2895
2004-11-18,23.4993
2004-11-19,23.2808
2004-11-22,23.3769
2004-11-23,23.2633
2004-11-24,24.4169
2004-11-26,24.2333
2004-11-29,23.8401
2004-11-30,23.6129
2004-12-01,23.7177
2004-12-02,24.6965
2004-12-03,25.4131
2004-12-06,25.4305
2004-12-07,25.754
2004-12-08,25.3957
2004-12-09,25.5267
2004-12-10,25.4568
2004-12-13,25.4481
2004-12-14,25.7452
2004-12-15,25.4305
2004-12-16,25.2471
2004-12-17,25.081
2004-12-20,25.2034
2004-12-21,25.1597
2004-12-22,25.3695
2004-12-23,25.4393
2004-12-27,25.0636
2004-12-28,25.4481
2004-12-29,25.5179
2004-12-30,25.3169
2004-12-31,25.2907
2005-01-03,24.8975
2005-01-04,24.4781
2005-01-05,24.4518
2005-01-06,24.6003
2005-01-07,24.6003
2005-01-10,24.3993
2005-01-11,24.1198
2005-01-12,23.9886
2005-01-13,23.6041
2005-01-14,23.709
2005-01-18,23.8576
2005-01-19,23.5953
2005-01-20,23.342
2005-01-21,23.1322
2005-01-24,22.9487
2005-01-25,23.1148
2005-01-26,22.9487
2005-01-27,23.1322
2005-01-28,23.2022
2005-01-31,23.508
2005-02-01,23.6391
2005-02-02,23.1934
2005-02-03,23.3158
2005-02-04,23.6402
2005-02-07,23.649
2005-02-08,23.6051
2005-02-09,23.5788
2005-02-10,23.649
2005-02-11,23.728
2005-02-14,23.6754
2005-02-15,23.456
2005-02-16,23.2893
2005-02-17,23.3507
2005-02-18,23.1051
2005-02-22,22.57
2005-02-23,22.956
2005-02-24,23.2455
2005-02-25,23.4648
2005-02-28,23.7543
2005-03-01,24.2455
2005-03-02,23.0525
2005-03-03,23.5087
2005-03-04,23.7017
2005-03-07,23.8332
2005-03-08,23.9121
2005-03-09,23.8069
2005-03-10,23.9736
2005-03-11,23.8157
2005-03-14,23.9033
2005-03-15,23.7192
2005-03-16,23.7104
2005-03-17,23.6139
2005-03-18,23.6314
2005-03-21,23.6402
2005-03-22,23.2981
2005-03-23,23.2017
2005-03-24,23.3332
2005-03-28,23.2367
2005-03-29,22.8595
2005-03-30,23.1139
2005-03-31,23.8069
2005-04-01,23.8157
2005-04-04,23.57
2005-04-05,23.6665
2005-04-06,23.7104
2005-04-07,23.6754
2005-04-08,23.7192
2005-04-11,23.6929
2005-04-12,23.877
2005-04-13,23.7806
2005-04-14,23.6841
2005-04-15,23.421
2005-04-18,23.263
2005-04-19,23.3507
2005-04-20,23.3683
2005-04-21,23.7104
2005-04-22,23.5525
2005-04-25,23.7017
2005-04-26,23.5174
2005-04-27,23.5088
2005-04-28,23.4559
2005-04-29,23.6232
2005-05-02,23.5353
2005-05-03,23.5617
2005-05-04,23.5353
2005-05-05,23.5
2005-05-06,23.5176
2005-05-09,23.6232
2005-05-10,23.3327
2005-05-11,23.2358
2005-05-12,24.8031
2005-05-13,24.7326
2005-05-16,24.8735
2005-05-17,25.1553
2005-05-18,25.7188
2005-05-19,25.6484
2005-05-20,25.5339
2005-05-23,25.9213
2005-05-24,25.8069
2005-05-25,25.5515
2005-05-26,25.8069
2005-05-27,25.1289
2005-05-31,25.6836
2005-06-01,25.6043
2005-06-02,25.1025
2005-06-03,25.349
2005-06-06,25.2874
2005-06-07,25.4459
2005-06-08,25.4899
2005-06-09,25.4811
2005-06-10,25.5955
2005-06-13,25.7892
2005-06-14,25.6748
2005-06-15,25.6484
2005-06-16,25.4987
2005-06-17,26.0622
2005-06-20,26.5817
2005-06-21,27.6822
2005-06-22,27.5502
2005-06-23,27.2948
2005-06-24,27.0572
2005-06-27,27.0483
2005-06-28,27.2156
2005-06-29,26.9955
2005-06-30,26.793
2005-07-01,26.9955
2005-07-05,26.6521
2005-07-06,26.2735
2005-07-07,26.3175
2005-07-08,26.4408
2005-07-11,26.6169
2005-07-12,26.1943
2005-07-13,26.0622
2005-07-14,26.027
2005-07-15,25.9653
2005-07-18,26.1502
2005-07-19,25.9565
2005-07-20,26.5377
2005-07-21,26.4584
2005-07-22,27.0395
2005-07-25,27.154
2005-07-26,27.0131
2005-07-27,27.1628
2005-07-28,27.6911
2005-07-29,27.2861
2005-08-01,27.0918
2005-08-02,27.1183
2005-08-03,27.0211
2005-08-04,26.9857
2005-08-05,26.6324
2005-08-08,26.3498
2005-08-09,26.4381
2005-08-10,26.3233
2005-08-11,26.2968
2005-08-12,26.1643
2005-08-15,26.0671
2005-08-16,25.6167
2005-08-17,25.7226
2005-08-18,25.4929
2005-08-19,25.4311
2005-08-22,25.2456
2005-08-23,25.0866
2005-08-24,24.8834
2005-08-25,24.6715
2005-08-26,24.6803
2005-08-29,25.0866
2005-08-30,24.9629
2005-08-31,25.2456
2005-09-01,25.3428
2005-09-02,25.5106
2005-09-06,25.7226
2005-09-07,25.7933
2005-09-08,25.6167
2005-09-09,25.5548
2005-09-12,25.4841
2005-09-13,26.4646
2005-09-14,24.8834
2005-09-15,24.9276
2005-09-16,24.9011
2005-09-19,24.3358
2005-09-20,24.4948
2005-09-21,24.1945
2005-09-22,24.2828
2005-09-23,23.9029
2005-09-26,23.9118
2005-09-27,24.0355
2005-09-28,24.0708
2005-09-29,24.0708
2005-09-30,24.2828
2005-10-03,24.3534
2005-10-04,24.5566
2005-10-05,24.0531
2005-10-06,23.3818
2005-10-07,23.638
2005-10-10,23.5585
2005-10-11,22.8695
2005-10-12,22.7899
2005-10-13,22.7369
2005-10-14,22.9136
2005-10-17,23.108
2005-10-18,23.055
2005-10-19,23.055
2005-10-20,22.8695
2005-10-21,22.5161
2005-10-24,22.9842
2005-10-25,22.7458
2005-10-26,22.7017
2005-10-27,22.3571
2005-10-28,22.5868
2005-10-31,23.0461
2005-11-01,23.0196
2005-11-02,23.3288
2005-11-03,23.1874
2005-11-04,23.1786
2005-11-07,23.6291
2005-11-08,23.7354
2005-11-09,23.7974
2005-11-10,23.9216
2005-11-11,24.2408
2005-11-14,24.0989
2005-11-15,24.4802
2005-11-16,24.5777
2005-11-17,24.8525
2005-11-18,24.7196
2005-11-21,24.9767
2005-11-22,25.0387
2005-11-23,25.0654
2005-11-25,25.0033
2005-11-28,24.7107
2005-11-29,24.7639
2005-11-30,24.622
2005-12-01,24.9944
2005-12-02,24.9412
2005-12-05,24.8436
2005-12-06,24.8348
2005-12-07,24.1078
2005-12-08,24.0014
2005-12-09,24.0103
2005-12-12,23.9748
2005-12-13,23.9836
2005-12-14,24.1255
2005-12-15,23.957
2005-12-16,24.1433
2005-12-19,23.8418
2005-12-20,23.824
2005-12-21,23.8772
2005-12-22,24.0723
2005-12-23,24.0812
2005-12-27,23.824
2005-12-28,23.9304
2005-12-29,23.895
2005-12-30,23.7708
2006-01-03,23.8418
2006-01-04,23.8329
2006-01-05,24.1965
2006-01-06,24.1255
2006-01-09,24.5334
2006-01-10,24.693
2006-01-11,25.1186
2006-01-12,25.2516
2006-01-13,25.2338
2006-01-17,25.021
2006-01-18,24.9412
2006-01-19,25.4288
2006-01-20,24.9678
2006-01-23,24.7905
2006-01-24,25.0565
2006-01-25,25.2072
2006-01-26,25.225
2006-01-27,25.757
2006-01-30,25.686
2006-01-31,25.553
2006-02-01,25.3039
2006-02-02,25.0636
2006-02-03,25.375
2006-02-06,25.375
2006-02-07,25.2949
2006-02-08,25.5441
2006-02-09,25.3662
2006-02-10,25.6688
2006-02-13,25.473
2006-02-14,25.5708
2006-02-15,25.7756
2006-02-16,26.2117
2006-02-17,26.3363
2006-02-21,26.0959
2006-02-22,26.452
2006-02-23,26.4342
2006-02-24,26.4787
2006-02-27,26.5588
2006-02-28,26.185
2006-03-01,25.9981
2006-03-02,25.4819
2006-03-03,25.1614
2006-03-06,24.8321
2006-03-07,24.9033
2006-03-08,24.9656
2006-03-09,24.9479
2006-03-10,24.9834
2006-03-13,24.9746
2006-03-14,25.74
2006-03-15,25.5975
2006-03-16,26.0959
2006-03-17,26.6567
2006-03-20,26.9593
2006-03-21,26.7635
2006-03-22,27.1463
2006-03-23,27.1373
2006-03-24,27.4399
2006-03-27,27.6001
2006-03-28,27.5646
2006-03-29,28.0452
2006-03-30,27.8138
2006-03-31,27.8049
2006-04-03,27.4489
2006-04-04,27.4844
2006-04-05,27.5467
2006-04-06,27.4756
2006-04-07,27.084
2006-04-10,26.9326
2006-04-11,26.6211
2006-04-12,26.728
2006-04-13,26.8436
2006-04-17,26.9059
2006-04-18,27.4133
2006-04-19,27.52
2006-04-20,27.431
2006-04-21,27.3421
2006-04-24,27.2436
2006-04-25,27.065
2006-04-26,27.2972
2006-04-27,27.0561
2006-04-28,26.9846
2006-05-01,26.8417
2006-05-02,27.4223
2006-05-03,27.6902
2006-05-04,28.3424
2006-05-05,28.8246
2006-05-08,28.9318
2006-05-09,27.9225
2006-05-10,27.8242
2006-05-11,27.7528
2006-05-12,27.6009
2006-05-15,27.5384
2006-05-16,27.0739
2006-05-17,26.9131
2006-05-18,26.663
2006-05-19,26.6898
2006-05-22,26.4843
2006-05-23,26.3951
2006-05-24,26.7702
2006-05-25,26.6452
2006-05-26,26.9935
2006-05-30,26.663
2006-05-31,26.8417
2006-06-01,27.0293
2006-06-02,26.6809
2006-06-05,26.1271
2006-06-06,25.8681
2006-06-07,25.8591
2006-06-08,25.5197
2006-06-09,25.5733
2006-06-12,25.1088
2006-06-13,24.7694
2006-06-14,24.5372
2006-06-15,25.1534
2006-06-16,24.8587
2006-06-19,24.6086
2006-06-20,24.4299
2006-06-21,24.7068
2006-06-22,24.6264
2006-06-23,24.5728
2006-06-26,24.7426
2006-06-27,24.5104
2006-06-28,24.5908
2006-06-29,25.0195
2006-06-30,25.0016
2006-07-03,24.8677
2006-07-05,24.3763
2006-07-06,24.4657
2006-07-07,24.2156
2006-07-10,24.3317
2006-07-11,24.1441
2006-07-12,23.6975
2006-07-13,23.5188
2006-07-14,23.1169
2006-07-17,22.9472
2006-07-18,23.0901
2006-07-19,23.6171
2006-07-20,23.3045
2006-07-21,23.099
2006-07-24,23.2955
2006-07-25,23.3223
2006-07-26,23.1526
2006-07-27,23.0722
2006-07-28,23.1615
2006-07-31,23.4126
2006-08-01,23.3767
2006-08-02,23.4036
2006-08-03,23.3409
2006-08-04,23.4126
2006-08-07,23.296
2006-08-08,22.9821
2006-08-09,22.7219
2006-08-10,23.2243
2006-08-11,23.0717
2006-08-14,23.3409
2006-08-15,23.8343
2006-08-16,24.2021
2006-08-17,24.4263
2006-08-18,24.2917
2006-08-21,24.0764
2006-08-22,23.924
2006-08-23,23.9419
2006-08-24,23.8612
2006-08-25,23.7535
2006-08-28,24.211
2006-08-29,24.1841
2006-08-30,24.1931
2006-08-31,24.3993
2006-09-01,24.6326
2006-09-05,24.7671
2006-09-06,24.5609
2006-09-07,24.211
2006-09-08,24.3993
2006-09-11,24.3724
2006-09-12,24.3097
2006-09-13,27.0905
2006-09-14,27.4673
2006-09-15,27.871
2006-09-18,27.6108
2006-09-19,27.6108
2006-09-20,27.6915
2006-09-21,27.4673
2006-09-22,27.0815
2006-09-25,27.2161
2006-09-26,27.7094
2006-09-27,27.548
2006-09-28,27.7543
2006-09-29,27.6287
2006-10-02,27.7005
2006-10-03,27.5929
2006-10-04,27.6556
2006-10-05,28.131
2006-10-06,28.1849
2006-10-09,28.2477
2006-10-10,28.3553
2006-10-11,28.3912
2006-10-12,28.436
2006-10-13,28.427
2006-10-16,28.75
2006-10-17,28.3374
2006-10-18,28.5258
2006-10-19,28.6424
2006-10-20,28.2387
2006-10-23,28.2298
2006-10-24,28.0772
2006-10-25,27.9427
2006-10-26,28.131
2006-10-27,28.0144
2006-10-30,28.167
2006-10-31,28.5886
2006-11-01,28.1849
2006-11-02,28.0413
2006-11-03,28.1401
2006-11-06,28.3912
2006-11-07,28.3822
2006-11-08,28.9133
2006-11-09,28.5803
2006-11-10,28.8233
2006-11-13,28.7783
2006-11-14,28.5442
2006-11-15,28.6703
2006-11-16,28.4993
2006-11-17,28.4632
2006-11-20,28.1211
2006-11-21,28.5172
2006-11-22,28.2922
2006-11-24,28.7153
2006-11-27,27.8511
2006-11-28,27.6621
2006-11-29,27.8692
2006-11-30,28.2382
2006-12-01,28.0042
2006-12-04,28.7602
2006-12-05,29.7144
2006-12-06,30.3445
2006-12-07,31.2357
2006-12-08,31.2538
2006-12-11,31.2357
2006-12-12,31.4068
2006-12-13,31.4068
2006-12-14,31.3888
2006-12-15,31.3888
2006-12-18,31.3078
2006-12-19,31.5418
2006-12-20,31.8659
2006-12-21,31.4878
2006-12-22,31.3078
2006-12-26,31.4698
2006-12-27,31.7218
2006-12-28,31.4158
2006-12-29,31.0918
2007-01-03,31.4068
2007-01-04,31.1998
2007-01-05,30.4166
2007-01-08,30.3356
2007-01-09,30.8397
2007-01-10,30.6417
2007-01-11,30.8937
2007-01-12,31.4338
2007-01-16,31.2447
2007-01-17,31.2357
2007-01-18,30.8847
2007-01-19,31.1097
2007-01-22,30.6866
2007-01-23,31.1188
2007-01-24,31.3173
2007-01-25,30.947
2007-01-26,30.7032
2007-01-29,30.7303
2007-01-30,31.1638
2007-01-31,31.3715
2007-02-01,31.7599
2007-02-02,31.7781
2007-02-05,31.498
2007-02-06,31.8503
2007-02-07,31.8323
2007-02-08,32.049
2007-02-09,31.8142
2007-02-12,31.9858
2007-02-13,32.1936
2007-02-14,32.1936
2007-02-15,32.0581
2007-02-16,31.8684
2007-02-20,31.8865
2007-02-21,32.0852
2007-02-22,32.2116
2007-02-23,32.2839
2007-02-26,32.6
2007-02-27,31.218
2007-02-28,31.2451
2007-03-01,31.1187
2007-03-02,32.8801
2007-03-05,32.32
2007-03-06,32.9704
2007-03-07,34.0905
2007-03-08,33.8647
2007-03-09,33.6479
2007-03-12,34.1447
2007-03-13,33.5665
2007-03-14,33.5847
2007-03-15,34.1266
2007-03-16,34.4248
2007-03-19,34.9125
2007-03-20,34.7951
2007-03-21,35.1654
2007-03-22,35.2196
2007-03-23,35.3913
2007-03-26,35.1745
2007-03-27,34.9576
2007-03-28,34.5332
2007-03-29,34.1266
2007-03-30,34.3344
2007-04-02,34.2892
2007-04-03,34.6325
2007-04-04,34.8312
2007-04-05,34.6325
2007-04-09,34.8674
2007-04-10,34.7047
2007-04-11,34.4337
2007-04-12,34.7951
2007-04-13,35.1564
2007-04-16,35.7345
2007-04-17,35.861
2007-04-18,36.0055
2007-04-19,35.9965
2007-04-20,36.4842
2007-04-23,36.9915
2007-04-24,37.1093
2007-04-25,37.5805
2007-04-26,37.7344
2007-04-27,38.0516
2007-04-30,38.0244
2007-05-01,37.2
2007-05-02,37.662
2007-05-03,38.0425
2007-05-04,37.9066
2007-05-07,37.7254
2007-05-08,37.816
2007-05-09,38.4864
2007-05-10,37.7526
2007-05-11,37.9157
2007-05-14,37.8975
2007-05-15,38.0878
2007-05-16,38.3053
2007-05-17,38.3505
2007-05-18,38.8942
2007-05-21,39.175
2007-05-22,39.6099
2007-05-23,38.867
2007-05-24,38.7129
2007-05-25,39.7549
2007-05-29,40.0356
2007-05-30,40.6971
2007-05-31,40.543
2007-06-01,40.7514
2007-06-04,40.3528
2007-06-05,41.5939
2007-06-06,41.1228
2007-06-07,40.6336
2007-06-08,41.3765
2007-06-11,41.8567
2007-06-12,41.5124
2007-06-13,42.2372
2007-06-14,42.2735
2007-06-15,42.5906
2007-06-18,42.7355
2007-06-19,42.9439
2007-06-20,42.3731
2007-06-21,42.2735
2007-06-22,42.3007
2007-06-25,41.6846
2007-06-26,41.5939
2007-06-27,41.6393
2007-06-28,41.44
2007-06-29,41.603
2007-07-02,42.1739
2007-07-03,42.2191
2007-07-05,42.5453
2007-07-06,42.799
2007-07-09,42.9348
2007-07-10,42.3822
2007-07-11,42.9348
2007-07-12,43.8318
2007-07-13,44.2938
2007-07-16,44.176
2007-07-17,44.167
2007-07-18,44.0764
2007-07-19,44.167
2007-07-20,37.2
2007-07-23,37.8975
2007-07-24,37.7979
2007-07-25,37.952
2007-07-26,37.4718
2007-07-27,37.3811
2007-07-30,38.5136
2007-07-31,37.5533
2007-08-01,37.1637
2007-08-02,36.2487
2007-08-03,35.0347
2007-08-06,35.388
2007-08-07,35.4604
2007-08-08,35.6417
2007-08-09,34.3279
2007-08-10,34.0108
2007-08-13,34.781
2007-08-14,33.2136
2007-08-15,32.0448
2007-08-16,32.0267
2007-08-17,32.2713
2007-08-20,32.5522
2007-08-21,32.9781
2007-08-22,33.8116
2007-08-23,33.3405
2007-08-24,34.0018
2007-08-27,33.73
2007-08-28,32.4526
2007-08-29,33.5125
2007-08-30,33.9203
2007-08-31,34.5364
2007-09-04,34.4367
2007-09-05,34.0652
2007-09-06,34.2917
2007-09-07,33.6666
2007-09-10,33.1773
2007-09-11,33.6122
2007-09-12,33.5488
2007-09-13,33.7844
2007-09-14,33.1139
2007-09-17,32.8874
2007-09-18,34.174
2007-09-19,34.4367
2007-09-20,34.2283
2007-09-21,34.5725
2007-09-24,33.7119
2007-09-25,34.4367
2007-09-26,35.7685
2007-09-27,35.9497
2007-09-28,35.2702
2007-10-01,36.5657
2007-10-02,37.2543
2007-10-03,36.7727
2007-10-04,36.9999
2007-10-05,38.7626
2007-10-08,38.3265
2007-10-09,38.0631
2007-10-10,37.1453
2007-10-11,36.7727
2007-10-12,37.0635
2007-10-15,36.1548
2007-10-16,36.3002
2007-10-17,36.5819
2007-10-18,36.5183
2007-10-19,35.019
2007-10-22,35.328
2007-10-23,37.5269
2007-10-24,38.5173
2007-10-25,37.7064
2007-10-26,37.7521
2007-10-29,38.0801
2007-10-30,36.7952
2007-10-31,36.4399
2007-11-01,35.3282
2007-11-02,35.6744
2007-11-05,35.5469
2007-11-06,36.0389
2007-11-07,35.0092
2007-11-08,34.827
2007-11-09,34.3896
2007-11-12,33.4511
2007-11-13,34.581
2007-11-14,34.4808
2007-11-15,33.5968
2007-11-16,33.2596
2007-11-19,33.3053
2007-11-20,34.0525
2007-11-21,33.8428
2007-11-23,33.8338
2007-11-26,34.581
2007-11-27,35.1368
2007-11-28,35.3464
2007-11-29,34.9363
2007-11-30,34.8179
2007-12-03,34.8908
2007-12-04,34.991
2007-12-05,36.203
2007-12-06,36.2759
2007-12-07,36.3214
2007-12-10,36.9684
2007-12-11,36.6494
2007-12-12,36.9137
2007-12-13,37.6882
2007-12-14,37.0686
2007-12-17,35.7838
2007-12-18,35.884
2007-12-19,36.1027
2007-12-20,37.424
2007-12-21,37.8979
2007-12-24,38.3079
2007-12-26,37.9069
2007-12-27,37.4057
2007-12-28,37.0777
2007-12-31,36.6859
2008-01-02,36.285
2008-01-03,36.4581
2008-01-04,35.401
2008-01-07,35.556
2008-01-08,34.6265
2008-01-09,33.8976
2008-01-10,34.3987
2008-01-11,33.6698
2008-01-14,33.9249
2008-01-15,33.6242
2008-01-16,33.2415
2008-01-17,32.3121
2008-01-18,32.2118
2008-01-22,32.2209
2008-01-23,32.4214
2008-01-24,31.9202
2008-01-25,31.9658
2008-01-28,31.9749
2008-01-29,31.7562
2008-01-30,33.0547
2008-01-31,33.713
2008-02-01,34.6914
2008-02-04,35.2034
2008-02-05,33.9873
2008-02-06,34.1428
2008-02-07,34.3987
2008-02-08,34.7462
2008-02-11,35.1394
2008-02-12,35.0936
2008-02-13,35.9441
2008-02-14,35.4503
2008-02-15,35.6332
2008-02-19,35.3132
2008-02-20,35.8526
2008-02-21,35.6606
2008-02-22,36.0904
2008-02-25,36.9682
2008-02-26,37.4619
2008-02-27,37.3065
2008-02-28,37.2059
2008-02-29,36.0538
2008-03-03,35.4868
2008-03-04,35.0846
2008-03-05,35.3589
2008-03-06,34.9291
2008-03-07,34.9657
2008-03-10,33.5027
2008-03-11,33.5666
2008-03-12,33.4204
2008-03-13,33.4569
2008-03-14,32.8352
2008-03-17,32.9083
2008-03-18,34.4079
2008-03-19,33.6581
2008-03-20,33.8319
2008-03-24,34.8468
2008-03-25,35.5875
2008-03-26,35.432
2008-03-27,34.9931
2008-03-28,35.0205
2008-03-31,32.1585
2008-04-01,32.378
2008-04-02,32.6706
2008-04-03,32.4238
2008-04-04,32.3689
2008-04-07,32.9449
2008-04-08,32.762
2008-04-09,33.3381
2008-04-10,33.6764
2008-04-11,33.4112
2008-04-14,32.6248
2008-04-15,32.6706
2008-04-16,33.8136
2008-04-17,33.3656
2008-04-18,34.1244
2008-04-21,34.1885
2008-04-22,33.5027
2008-04-23,33.7962
2008-04-24,33.9155
2008-04-25,33.7779
2008-04-28,33.4934
2008-04-29,32.796
2008-04-30,31.9334
2008-05-01,32.273
2008-05-02,32.2179
2008-05-05,31.8692
2008-05-06,32.0986
2008-05-07,32.3923
2008-05-08,32.9428
2008-05-09,32.6859
2008-05-12,33.4934
2008-05-13,34.0899
2008-05-14,34.2183
2008-05-15,34.2826
2008-05-16,34.5945
2008-05-19,35.3562
2008-05-20,35.2093
2008-05-21,35.136
2008-05-22,35.1727
2008-05-23,34.7414
2008-05-27,35.0717
2008-05-28,36.3013
2008-05-29,36.5674
2008-05-30,37.3566
2008-06-02,36.8611
2008-06-03,36.6867
2008-06-04,36.7785
2008-06-05,37.3934
2008-06-06,36.2463
2008-06-09,36.5583
2008-06-10,38.3476
2008-06-11,37.953
2008-06-12,38.1458
2008-06-13,38.8982
2008-06-16,39.2745
2008-06-17,39.1185
2008-06-18,38.8707
2008-06-19,38.9624
2008-06-20,38.311
2008-06-23,38.5312
2008-06-24,37.6411
2008-06-25,37.5676
2008-06-26,36.3747
2008-06-27,36.2738
2008-06-30,36.4482
2008-07-01,36.6042
2008-07-02,35.8425
2008-07-03,35.347
2008-07-07,35.6682
2008-07-08,36.7876
2008-07-09,36.7051
2008-07-10,36.7601
2008-07-11,36.3106
2008-07-14,36.4665
2008-07-15,35.7874
2008-07-16,35.7508
2008-07-17,37.8704
2008-07-18,37.6962
2008-07-21,37.4667
2008-07-22,37.9622
2008-07-23,37.7971
2008-07-24,36.8152
2008-07-25,37.3934
2008-07-28,36.1545
2008-07-29,36.8336
2008-07-30,37.485
2008-07-31,37.1626
2008-08-01,36.6839
2008-08-04,36.1316
2008-08-05,36.8496
2008-08-06,37.5861
2008-08-07,36.6471
2008-08-08,37.899
2008-08-11,38.3409
2008-08-12,37.9542
2008-08-13,37.9266
2008-08-14,38.6538
2008-08-15,38.8104
2008-08-18,37.8254
2008-08-19,36.9048
2008-08-20,36.8036
2008-08-21,36.8404
2008-08-22,37.3375
2008-08-25,36.6286
2008-08-26,36.8312
2008-08-27,36.9876
2008-08-28,38.1751
2008-08-29,37.3835
2008-09-02,37.3743
2008-09-03,37.5216
2008-09-04,35.7357
2008-09-05,35.4504
2008-09-08,35.6252
2008-09-09,33.8394
2008-09-10,34.2076
2008-09-11,34.6587
2008-09-12,34.7691
2008-09-15,33.0569
2008-09-16,33.6093
2008-09-17,31.6761
2008-09-18,31.2618
2008-09-19,32.3481
2008-09-22,32.0443
2008-09-23,31.446
2008-09-24,31.3079
2008-09-25,32.4494
2008-09-26,32.5599
2008-09-29,31.3079
2008-09-30,31.5196
2008-10-01,30.4886
2008-10-02,29.3932
2008-10-03,29.7522
2008-10-06,28.6291
2008-10-07,26.4382
2008-10-08,27.5704
2008-10-09,27.3035
2008-10-10,27.6165
2008-10-13,29.8258
2008-10-14,29.3747
2008-10-15,25.5728
2008-10-16,25.7661
2008-10-17,24.7812
2008-10-20,25.5637
2008-10-21,25.6373
2008-10-22,23.3359
2008-10-23,22.3602
2008-10-24,21.2003
2008-10-27,20.7032
2008-10-28,22.8982
2008-10-29,23.1111
2008-10-30,23.074
2008-10-31,24.2963
2008-11-03,24.574
2008-11-04,25.0648
2008-11-05,24.5463
2008-11-06,22.4722
2008-11-07,22.7129
2008-11-10,23.0
2008-11-11,22.426
2008-11-12,21.6204
2008-11-13,23.9444
2008-11-14,22.75
2008-11-17,22.4907
2008-11-18,22.6574
2008-11-19,21.4722
2008-11-20,20.3982
2008-11-21,21.9074
2008-11-24,23.2593
2008-11-25,23.4815
2008-11-26,24.8796
2008-11-28,25.4722
2008-12-01,23.3518
2008-12-02,24.1296
2008-12-03,24.7685
2008-12-04,23.7593
2008-12-05,24.4167
2008-12-08,25.8704
2008-12-09,25.25
2008-12-10,26.2129
2008-12-11,24.2593
2008-12-12,24.6851
2008-12-15,24.2871
2008-12-16,25.7871
2008-12-17,25.4167
2008-12-18,24.8518
2008-12-19,24.3704
2008-12-22,23.9815
2008-12-23,24.0
2008-12-24,24.3889
2008-12-26,24.8148
2008-12-29,24.4629
2008-12-30,25.75
2008-12-31,26.3611
2009-01-02,26.7037
2009-01-05,26.0278
2009-01-06,26.2037
2009-01-07,25.176
2009-01-08,25.5556
2009-01-09,25.574
2009-01-12,24.8889
2009-01-13,24.7315
2009-01-14,24.2129
2009-01-15,24.9074
2009-01-16,25.1482
2009-01-20,23.7685
2009-01-21,24.2593
2009-01-22,24.2963
2009-01-23,24.3426
2009-01-26,24.5926
2009-01-27,25.0648
2009-01-28,26.0371
2009-01-29,24.999
2009-01-30,24.2265
2009-02-02,24.273
2009-02-03,24.6546
2009-02-04,24.7942
2009-02-05,25.2689
2009-02-06,26.1624
2009-02-09,26.5068
2009-02-10,25.12
2009-02-11,25.4085
2009-02-12,25.1572
2009-02-13,25.5574
2009-02-17,24.7012
2009-02-18,24.1613
2009-02-19,24.0217
2009-02-20,23.5935
2009-02-23,22.486
2009-02-24,23.333
2009-02-25,22.9607
2009-02-26,22.3185
2009-02-27,22.1789
2009-03-02,20.6339
2009-03-03,20.7735
2009-03-04,21.6764
2009-03-05,20.5316
2009-03-06,20.1872
2009-03-09,19.7312
2009-03-10,20.7456
2009-03-11,21.0527
2009-03-12,17.4974
2009-03-13,17.9907
2009-03-16,17.4974
2009-03-17,17.9814
2009-03-18,18.4468
2009-03-19,18.6515
2009-03-20,18.6701
2009-03-23,19.5729
2009-03-24,19.5078
2009-03-25,19.3309
2009-03-26,20.1592
2009-03-27,19.7683
2009-03-30,19.0052
2009-03-31,19.0238
2009-04-01,19.4891
2009-04-02,20.7083
2009-04-03,21.2296
2009-04-06,21.2017
2009-04-07,20.5316
2009-04-08,20.8573
2009-04-09,22.3092
2009-04-13,22.0021
2009-04-14,21.9834
2009-04-15,22.0951
2009-04-16,22.9235
2009-04-17,23.0073
2009-04-20,22.03
2009-04-21,22.7094
2009-04-22,23.5475
2009-04-23,23.1356
2009-04-24,23.9033
2009-04-27,23.6131
2009-04-28,23.6412
2009-04-29,24.9239
2009-04-30,24.7179
2009-05-01,24.4276
2009-05-04,25.2609
2009-05-05,24.8958
2009-05-06,25.8321
2009-05-07,25.0269
2009-05-08,25.9258
2009-05-11,25.1112
2009-05-12,24.6242
2009-05-13,23.5008
2009-05-14,23.7255
2009-05-15,23.6693
2009-05-18,24.5588
2009-05-19,24.2404
2009-05-20,23.6318
2009-05-21,22.8828
2009-05-22,22.705
2009-05-26,23.7536
2009-05-27,23.3041
2009-05-28,23.4165
2009-05-29,23.9876
2009-06-01,25.289
2009-06-02,25.1299
2009-06-03,24.5494
2009-06-04,24.9426
2009-06-05,24.9145
2009-06-08,25.0925
2009-06-09,27.2365
2009-06-10,25.1206
2009-06-11,25.7665
2009-06-12,25.3733
2009-06-15,24.8865
2009-06-16,24.5869
2009-06-17,24.5588
2009-06-18,24.3902
2009-06-19,24.3808
2009-06-22,23.6224
2009-06-23,23.4352
2009-06-24,24.1093
2009-06-25,25.1018
2009-06-26,25.0175
2009-06-29,25.4014
2009-06-30,24.8209
2009-07-01,25.0737
2009-07-02,24.5119
2009-07-06,24.4745
2009-07-07,24.0532
2009-07-08,24.2311
2009-07-09,24.4089
2009-07-10,24.6242
2009-07-13,25.0082
2009-07-14,25.1393
2009-07-15,26.0755
2009-07-16,26.2721
2009-07-17,26.2254
2009-07-20,26.4969
2009-07-21,26.3939
2009-07-22,26.6373
2009-07-23,27.3208
2009-07-24,28.1821
2009-07-27,28.0136
2009-07-28,27.8077
2009-07-29,27.7796
2009-07-30,28.1915
2009-07-31,28.1915
2009-08-03,28.5941
2009-08-04,28.8621
2009-08-05,28.3258
2009-08-06,28.6363
2009-08-07,29.3325
2009-08-10,28.8057
2009-08-11,28.467
2009-08-12,28.7586
2009-08-13,28.5799
2009-08-14,27.9214
2009-08-17,27.2628
2009-08-18,28.1754
2009-08-19,28.006
2009-08-20,27.9966
2009-08-21,28.7774
2009-08-24,28.9656
2009-08-25,29.1537
2009-08-26,29.0784
2009-08-27,29.2101
2009-08-28,28.4387
2009-08-31,27.9214
2009-09-01,27.7802
2009-09-02,27.3851
2009-09-03,27.8931
2009-09-04,28.4575
2009-09-08,28.8527
2009-09-09,29.4077
2009-09-10,29.7182
2009-09-11,30.4708
2009-09-14,30.6495
2009-09-15,31.2986
2009-09-16,31.976
2009-09-17,31.3833
2009-09-18,32.1171
2009-09-21,31.6937
2009-09-22,32.1923
2009-09-23,31.9665
2009-09-24,31.6091
2009-09-25,30.6777
2009-09-28,30.9506
2009-09-29,31.0258
2009-09-30,30.3202
2009-10-01,29.4829
2009-10-02,28.9656
2009-10-05,29.7746
2009-10-06,30.1133
2009-10-07,30.0803
2009-10-08,30.2598
2009-10-09,30.6662
2009-10-12,30.808
2009-10-13,30.7134
2009-10-14,31.7057
2009-10-15,31.9042
2009-10-16,31.4884
2009-10-19,31.7341
2009-10-20,31.6018
2009-10-21,31.2615
2009-10-22,31.668
2009-10-23,31.0915
2009-10-26,30.137
2009-10-27,29.7117
2009-10-28,30.4961
2009-10-29,32.0082
2009-10-30,30.0141
2009-11-02,30.1086
2009-11-03,30.5056
2009-11-04,30.3922
2009-11-05,31.4884
2009-11-06,31.3749
2009-11-09,32.1688
2009-11-10,32.0364
2009-11-11,32.2444
2009-11-12,32.1215
2009-11-13,32.5752
2009-11-16,32.9437
2009-11-17,32.6697
2009-11-18,31.7341
2009-11-19,30.6284
2009-11-20,30.4678
2009-11-23,30.7041
2009-11-24,30.6284
2009-11-25,30.8836
2009-11-27,30.3638
2009-11-30,30.1086
2009-12-01,30.4205
2009-12-02,30.2881
2009-12-03,29.7968
2009-12-04,30.4772
2009-12-07,30.3165
2009-12-08,29.8062
2009-12-09,29.6078
2009-12-10,32.1972
2009-12-11,32.7074
2009-12-14,32.7925
2009-12-15,32.4334
2009-12-16,32.4807
2009-12-17,33.4635
2009-12-18,33.6431
2009-12-21,33.9832
2009-12-22,33.6903
2009-12-23,34.2762
2009-12-24,35.0606
2009-12-28,34.8999
2009-12-29,35.0039
2009-12-30,34.6826
2009-12-31,34.2384
2010-01-04,34.6826
2010-01-05,34.7299
2010-01-06,34.8432
2010-01-07,35.1646
2010-01-08,35.4291
2010-01-11,35.4575
2010-01-12,35.2874
2010-01-13,35.467
2010-01-14,35.7032
2010-01-15,35.4858
2010-01-19,35.6654
2010-01-20,35.1929
2010-01-21,34.5691
2010-01-22,33.9643
2010-01-25,33.9549
2010-01-26,33.8226
2010-01-27,33.6619
2010-01-28,32.9815
2010-01-29,32.6035
2010-02-01,33.4446
2010-02-02,33.7375
2010-02-03,33.5864
2010-02-04,32.4429
2010-02-05,32.1771
2010-02-08,31.7689
2010-02-09,32.3196
2010-02-10,32.1487
2010-02-11,32.6234
2010-02-12,33.0032
2010-02-16,34.0287
2010-02-17,34.3704
2010-02-18,34.8831
2010-02-19,35.2344
2010-02-22,37.1334
2010-02-23,36.5447
2010-02-24,37.1429
2010-02-25,37.3517
2010-02-26,37.4752
2010-03-01,38.9373
2010-03-02,38.9563
2010-03-03,38.8993
2010-03-04,38.6146
2010-03-05,39.2792
2010-03-08,38.9373
2010-03-09,38.9184
2010-03-10,38.9278
2010-03-11,38.7854
2010-03-12,36.8865
2010-03-15,36.2978
2010-03-16,36.2883
2010-03-17,36.6491
2010-03-18,36.8391
2010-03-19,36.7061
2010-03-22,37.1144
2010-03-23,37.9594
2010-03-24,37.5607
2010-03-25,37.703
2010-03-26,37.836
2010-03-29,38.2442
2010-03-30,38.5291
2010-03-31,38.3867
2010-04-01,38.3486
2010-04-05,38.3677
2010-04-06,38.5765
2010-04-07,37.8075
2010-04-08,37.9024
2010-04-09,37.9215
2010-04-12,37.7315
2010-04-13,37.7884
2010-04-14,37.6936
2010-04-15,37.5226
2010-04-16,36.9909
2010-04-19,37.2853
2010-04-20,37.2758
2010-04-21,37.6081
2010-04-22,38.0639
2010-04-23,38.2157
2010-04-26,38.7759
2010-04-27,37.5511
2010-04-28,37.5037
2010-04-29,37.741
2010-04-30,37.0384
2010-05-03,37.855
2010-05-04,36.3643
2010-05-05,36.3644
2010-05-06,35.2488
2010-05-07,33.4945
2010-05-10,35.8209
2010-05-11,35.1154
2010-05-12,35.9543
2010-05-13,35.6302
2010-05-14,34.7435
2010-05-17,34.5814
2010-05-18,34.0093
2010-05-19,33.2752
2010-05-20,31.826
2010-05-21,32.2455
2010-05-24,31.8736
2010-05-25,31.6735
2010-05-26,31.7497
2010-05-27,32.8843
2010-05-28,32.5029
2010-06-01,31.988
2010-06-02,32.646
2010-06-03,33.4182
2010-06-04,31.7783
2010-06-07,31.0823
2010-06-08,30.6914
2010-06-09,33.5327
2010-06-10,34.4574
2010-06-11,35.0676
2010-06-14,34.8579
2010-06-15,35.84
2010-06-16,35.7637
2010-06-17,35.716
2010-06-18,35.5158
2010-06-21,35.4395
2010-06-22,34.8007
2010-06-23,34.8389
2010-06-24,34.1523
2010-06-25,34.7531
2010-06-28,34.4766
2010-06-29,33.0083
2010-06-30,32.7889
2010-07-01,32.2551
2010-07-02,31.9786
2010-07-06,32.1692
2010-07-07,33.075
2010-07-08,34.0093
2010-07-09,34.057
2010-07-12,33.8758
2010-07-13,34.9056
2010-07-14,34.8675
2010-07-15,35.2488
2010-07-16,34.3144
2010-07-19,34.5338
2010-07-20,35.0104
2010-07-21,34.8103
2010-07-22,35.8686
2010-07-23,36.6313
2010-07-26,36.822
2010-07-27,36.4025
2010-07-28,36.2309
2010-07-29,36.0307
2010-07-30,36.5169
2010-08-02,37.089
2010-08-03,36.6981
2010-08-04,36.6883
2010-08-05,36.8989
2010-08-06,36.8416
2010-08-09,36.8702
2010-08-10,36.2671
2010-08-11,34.4959
2010-08-12,34.1224
2010-08-13,33.9597
2010-08-16,34.0937
2010-08-17,34.9937
2010-08-18,34.9554
2010-08-19,34.3618
2010-08-20,34.1033
2010-08-23,33.548
2010-08-24,32.8108
2010-08-25,33.1172
2010-08-26,32.8108
2010-08-27,33.6916
2010-08-30,32.9544
2010-08-31,32.7054
2010-09-01,34.314
2010-09-02,35.1661
2010-09-03,35.5777
2010-09-07,36.1427
2010-09-08,35.6065
2010-09-09,35.8458
2010-09-10,35.932
2010-09-13,36.5065
2010-09-14,36.4298
2010-09-15,38.6894
2010-09-16,38.45
2010-09-17,38.7181
2010-09-20,39.4457
2010-09-21,39.4457
2010-09-22,39.417
2010-09-23,39.0819
2010-09-24,39.9818
2010-09-27,39.7042
2010-09-28,40.0106
2010-09-29,39.8096
2010-09-30,39.9244
2010-10-01,40.1925
2010-10-04,39.551
2010-10-05,40.6904
2010-10-06,40.4885
2010-10-07,40.9882
2010-10-08,41.5936
2010-10-11,41.5841
2010-10-12,41.9493
2010-10-13,42.4971
2010-10-14,41.9973
2010-10-15,41.8051
2010-10-18,41.8147
2010-10-19,40.6518
2010-10-20,41.4976
2010-10-21,42.0453
2010-10-22,41.7186
2010-10-25,41.6609
2010-10-26,41.4014
2010-10-27,40.8056
2010-10-28,40.8345
2010-10-29,41.0362
2010-11-01,41.0459
2010-11-02,41.6321
2010-11-03,41.834
2010-11-04,42.843
2010-11-05,42.9391
2010-11-08,42.4009
2010-11-09,42.007
2010-11-10,42.228
2010-11-11,42.151
2010-11-12,42.0357
2010-11-15,42.3337
2010-11-16,41.4784
2010-11-17,42.0357
2010-11-18,42.5931
2010-11-19,43.362
2010-11-22,43.5637
2010-11-23,43.2755
2010-11-24,44.3422
2010-11-26,44.2942
2010-11-29,43.3715
2010-11-30,43.5637
2010-12-01,44.4191
2010-12-02,45.3417
2010-12-03,45.7262
2010-12-06,46.4276
2010-12-07,46.5815
2010-12-08,46.1489
2010-12-09,46.0721
2010-12-10,48.0422
2010-12-13,47.6001
2010-12-14,47.677
2010-12-15,47.6098
2010-12-16,48.1095
2010-12-17,48.071
2010-12-20,47.9653
2010-12-21,48.4171
2010-12-22,48.0903
2010-12-23,47.9269
2010-12-27,47.9845
2010-12-28,47.9845
2010-12-29,47.802
2010-12-30,47.5425
2010-12-31,47.7058
2011-01-03,47.8212
2011-01-04,47.9942
2011-01-05,47.898
2011-01-06,47.6578
2011-01-07,48.0327
2011-01-10,48.2056
2011-01-11,48.4459
2011-01-12,48.4939
2011-01-13,48.0615
2011-01-14,48.3882
2011-01-18,48.7823
2011-01-19,48.0518
2011-01-20,47.1869
2011-01-21,46.9274
2011-01-24,47.3119
2011-01-25,47.11
2011-01-26,48.1767
2011-01-27,48.1479
2011-01-28,46.7737
2011-01-31,53.2414
2011-02-01,51.7999
2011-02-02,51.5212
2011-02-03,51.9632
2011-02-04,52.2187
2011-02-07,52.5079
2011-02-08,52.9515
2011-02-09,52.3151
2011-02-10,52.5754
2011-02-11,53.1154
2011-02-14,53.7999
2011-02-15,53.0189
2011-02-16,53.53
2011-02-17,53.53
2011-02-18,53.7999
2011-02-22,51.6884
2011-02-23,50.7917
2011-02-24,51.7655
2011-02-25,52.7875
2011-02-28,52.3537
2011-03-01,51.5245
2011-03-02,52.1608
2011-03-03,53.4432
2011-03-04,53.2599
2011-03-07,52.6429
2011-03-08,53.1154
2011-03-09,53.2985
2011-03-10,51.7752
2011-03-11,54.9762
2011-03-14,54.3784
2011-03-15,54.1566
2011-03-16,53.2021
2011-03-17,53.877
2011-03-18,54.6001
2011-03-21,55.3522
2011-03-22,54.7255
2011-03-23,54.6772
2011-03-24,53.8867
2011-03-25,54.5809
2011-03-28,54.0795
2011-03-29,54.9183
2011-03-30,54.764
2011-03-31,55.5353
2011-04-01,55.95
2011-04-04,56.4513
2011-04-05,56.4899
2011-04-06,56.7887
2011-04-07,56.9526
2011-04-08,56.4706
2011-04-11,55.8922
2011-04-12,55.0822
2011-04-13,54.9762
2011-04-14,55.0051
2011-04-15,55.2751
2011-04-18,53.4238
2011-04-19,53.8578
2011-04-20,55.0051
2011-04-21,55.4486
2011-04-25,54.8122
2011-04-26,55.9211
2011-04-27,56.1718
2011-04-28,56.2006
2011-04-29,56.3357
2011-05-02,56.2489
2011-05-03,55.3232
2011-05-04,54.1759
2011-05-05,53.4624
2011-05-06,53.2256
2011-05-09,54.0089
2011-05-10,54.744
2011-05-11,54.0864
2011-05-12,53.9799
2011-05-13,53.5544
2011-05-16,53.0031
2011-05-17,52.326
2011-05-18,53.3706
2011-05-19,53.6801
2011-05-20,53.0998
2011-05-23,52.0552
2011-05-24,51.9779
2011-05-25,52.5098
2011-05-26,52.8773
2011-05-27,53.2449
2011-05-31,54.2508
2011-06-01,52.4904
2011-06-02,52.3841
2011-06-03,51.8231
2011-06-06,51.4555
2011-06-07,51.5813
2011-06-08,51.2137
2011-06-09,51.5523
2011-06-10,51.1171
2011-06-13,51.5716
2011-06-14,52.7516
2011-06-15,51.6199
2011-06-16,51.2427
2011-06-17,51.8424
2011-06-20,52.2293
2011-06-21,53.2546
2011-06-22,53.1965
2011-06-23,52.858
2011-06-24,52.3841
2011-06-27,52.6452
2011-06-28,53.6415
2011-06-29,53.6415
2011-06-30,54.4152
2011-07-01,55.9144
2011-07-05,55.4404
2011-07-06,55.4114
2011-07-07,55.7015
2011-07-08,55.2953
2011-07-11,54.125
2011-07-12,53.7769
2011-07-13,53.8542
2011-07-14,52.6936
2011-07-15,52.6162
2011-07-18,51.146
2011-07-19,52.326
2011-07-20,52.6162
2011-07-21,53.1965
2011-07-22,53.2449
2011-07-25,53.0611
2011-07-26,52.297
2011-07-27,50.1402
2011-07-28,49.5501
2011-07-29,48.0316
2011-08-01,47.3158
2011-08-02,45.7007
2011-08-03,46.4144
2011-08-04,43.7253
2011-08-05,43.2787
2011-08-08,40.2109
2011-08-09,43.9582
2011-08-10,42.0555
2011-08-11,44.8805
2011-08-12,46.7154
2011-08-15,47.3755
2011-08-16,45.8999
2011-08-17,45.9096
2011-08-18,42.8904
2011-08-19,42.7254
2011-08-22,43.2399
2011-08-23,45.1815
2011-08-24,46.5601
2011-08-25,45.997
2011-08-26,47.56
2011-08-29,49.5404
2011-08-30,49.9773
2011-08-31,49.5501
2011-09-01,48.3172
2011-09-02,46.7251
2011-09-06,46.4532
2011-09-07,47.3852
2011-09-08,42.7254
2011-09-09,41.2594
2011-09-12,40.9488
2011-09-13,41.6866
2011-09-14,42.2982
2011-09-15,42.9389
2011-09-16,43.4825
2011-09-19,43.2593
2011-09-20,42.6962
2011-09-21,41.0264
2011-09-22,40.2207
2011-09-23,40.9682
2011-09-26,42.2884
2011-09-27,42.8322
2011-09-28,41.774
2011-09-29,42.5991
2011-09-30,41.2303
2011-10-03,39.7935
2011-10-04,41.2983
2011-10-05,41.9875
2011-10-06,43.7156
2011-10-07,44.6572
2011-10-10,45.5019
2011-10-11,45.4771
2011-10-12,46.5489
2011-10-13,46.8023
2011-10-14,47.7571
2011-10-17,46.5099
2011-10-18,47.65
2011-10-19,46.9289
2011-10-20,46.4904
2011-10-21,48.5172
2011-10-24,49.9594
2011-10-25,49.3651
2011-10-26,49.8328
2011-10-27,51.9668
2011-10-28,51.2165
2011-10-31,49.862
2011-11-01,48.3516
2011-11-02,49.1311
2011-11-03,50.9436
2011-11-04,50.7584
2011-11-07,50.4856
2011-11-08,50.9825
2011-11-09,48.8876
2011-11-10,49.3358
2011-11-11,51.2067
2011-11-14,51.3919
2011-11-15,52.3371
2011-11-16,51.7913
2011-11-17,50.8949
2011-11-18,51.0021
2011-11-21,50.7584
2011-11-22,50.281
2011-11-23,48.9265
2011-11-25,48.868
2011-11-28,50.359
2011-11-29,50.6416
2011-11-30,53.1166
2011-12-01,52.8827
2011-12-02,52.2494
2011-12-05,53.0582
2011-12-06,53.4967
2011-12-07,52.5027
2011-12-08,51.1482
2011-12-09,55.2019
2011-12-12,56.5272
2011-12-13,55.2799
2011-12-14,54.8316
2011-12-15,54.4224
2011-12-16,55.1435
2011-12-19,54.0813
2011-12-20,55.5722
2011-12-21,55.6697
2011-12-22,55.7476
2011-12-23,56.0497
2011-12-27,56.0886
2011-12-28,55.1532
2011-12-29,55.9717
2011-12-30,55.7281
2012-01-03,56.42
2012-01-04,55.8255
2012-01-05,55.6793
2012-01-06,54.6952
2012-01-09,55.2311
2012-01-10,56.5174
2012-01-11,56.3908
2012-01-12,58.3688
2012-01-13,58.2324
2012-01-17,58.437
2012-01-18,58.2324
2012-01-19,58.6612
2012-01-20,58.4663
2012-01-23,58.0082
2012-01-24,57.6867
2012-01-25,59.0119
2012-01-26,57.7354
2012-01-27,57.6088
2012-01-30,57.8426
2012-01-31,58.2129
2012-02-01,58.8951
2012-02-02,59.4894
2012-02-03,60.8192
2012-02-06,60.9268
2012-02-07,61.1712
2012-02-08,61.5331
2012-02-09,62.3446
2012-02-10,61.8459
2012-02-13,62.7846
2012-02-14,62.6869
2012-02-15,61.7872
2012-02-16,62.3739
2012-02-17,62.2566
2012-02-21,62.1393
2012-02-22,61.7189
2012-02-23,61.6602
2012-02-24,61.9633
2012-02-27,62.4424
2012-02-28,62.1002
2012-02-29,61.9731
2012-03-01,61.8655
2012-03-02,61.5623
2012-03-05,60.741
2012-03-06,58.7659
2012-03-07,59.6557
2012-03-08,59.9294
2012-03-09,57.9641
2012-03-12,57.9152
2012-03-13,57.6805
2012-03-14,58.0129
2012-03-15,58.717
2012-03-16,58.6877
2012-03-19,58.717
2012-03-20,58.3552
2012-03-21,58.5508
2012-03-22,57.9445
2012-03-23,58.0326
2012-03-26,58.5116
2012-03-27,58.8344
2012-03-28,58.0423
2012-03-29,57.661
2012-03-30,58.2867
2012-04-02,58.6877
2012-04-03,58.4139
2012-04-04,57.8272
2012-04-05,57.6218
2012-04-09,56.7712
2012-04-10,56.0084
2012-04-11,56.5071
2012-04-12,57.5534
2012-04-13,57.7979
2012-04-16,57.7783
2012-04-17,58.3943
2012-04-18,57.8956
2012-04-19,57.3774
2012-04-20,58.1988
2012-04-23,57.4459
2012-04-24,57.6805
2012-04-25,57.837
2012-04-26,58.1498
2012-04-27,59.0886
2012-04-30,58.277
2012-05-01,58.3259
2012-05-02,57.8272
2012-05-03,57.4361
2012-05-04,56.4746
2012-05-07,56.2586
2012-05-08,56.4058
2012-05-09,56.5727
2012-05-10,56.7296
2012-05-11,57.3675
2012-05-14,56.8671
2012-05-15,56.4254
2012-05-16,56.239
2012-05-17,54.4432
2012-05-18,54.0114
2012-05-21,56.0918
2012-05-22,56.7689
2012-05-23,57.4264
2012-05-24,57.2007
2012-05-25,55.8465
2012-05-29,56.4647
2012-05-30,55.4343
2012-05-31,54.6101
2012-06-01,53.4129
2012-06-04,52.9025
2012-06-05,53.5404
2012-06-06,53.6386
2012-06-07,51.3521
2012-06-08,51.931
2012-06-11,51.3226
2012-06-12,52.4021
2012-06-13,51.8722
2012-06-14,52.5591
2012-06-15,52.9418
2012-06-18,52.9222
2012-06-19,53.3147
2012-06-20,52.6671
2012-06-21,51.3914
2012-06-22,51.7152
2012-06-25,51.1362
2012-06-26,51.46
2012-06-27,51.6857
2012-06-28,52.0881
2012-06-29,53.7171
2012-07-02,53.1773
2012-07-03,53.7465
2012-07-05,53.3933
2012-07-06,52.5493
2012-07-09,52.3726
2012-07-10,51.4895
2012-07-11,50.9007
2012-07-12,51.1558
2012-07-13,51.8526
2012-07-16,50.9694
2012-07-17,51.1657
2012-07-18,51.8035
2012-07-19,51.833
2012-07-20,51.0479
2012-07-23,50.3511
2012-07-24,49.2619
2012-07-25,49.7329
2012-07-26,50.9791
2012-07-27,52.4315
2012-07-30,52.4315
2012-07-31,52.4218
2012-08-01,52.205
2012-08-02,52.0375
2012-08-03,53.5055
2012-08-06,53.2591
2012-08-07,54.0769
2012-08-08,54.4217
2012-08-09,54.0079
2012-08-10,54.3331
2012-08-13,54.1163
2012-08-14,53.6139
2012-08-15,53.9488
2012-08-16,54.1656
2012-08-17,54.934
2012-08-20,54.4414
2012-08-21,53.9783
2012-08-22,54.6877
2012-08-23,54.3428
2012-08-24,54.2345
2012-08-27,54.2247
2012-08-28,53.9882
2012-08-29,54.6581
2012-08-30,54.2739
2012-08-31,54.8157
2012-09-04,54.9537
2012-09-05,54.4808
2012-09-06,55.8502
2012-09-07,56.2935
2012-09-10,56.1064
2012-09-11,56.7861
2012-09-12,57.3083
2012-09-13,61.8401
2012-09-14,63.0125
2012-09-17,62.3032
2012-09-18,62.9829
2012-09-19,64.0371
2012-09-20,63.5642
2012-09-21,63.9583
2012-09-24,63.4066
2012-09-25,62.9337
2012-09-26,62.1357
2012-09-27,62.9436
2012-09-28,62.6086
2012-10-01,63.3179
2012-10-02,63.2095
2012-10-03,63.4854
2012-10-04,63.7021
2012-10-05,63.5346
2012-10-08,63.5642
2012-10-09,63.0913
2012-10-10,62.4385
2012-10-11,62.6067
2012-10-12,62.6957
2012-10-15,62.5869
2012-10-16,62.6561
2012-10-17,63.0912
2012-10-18,62.7946
2012-10-19,62.5572
2012-10-22,62.8836
2012-10-23,61.8847
2012-10-24,61.3605
2012-10-25,61.6176
2012-10-26,61.5781
2012-10-31,62.3001
2012-11-01,63.8034
2012-11-02,63.2891
2012-11-05,60.0549
2012-11-06,60.3813
2012-11-07,59.3626
2012-11-08,58.6604
2012-11-09,58.4526
2012-11-12,58.7791
2012-11-13,58.8582
2012-11-14,58.0471
2012-11-15,57.8593
2012-11-16,58.6406
2012-11-19,59.7187
2012-11-20,59.7187
2012-11-21,59.8472
2012-11-23,60.8857
2012-11-26,60.3417
2012-11-27,58.7988
2012-11-28,59.5109
2012-11-29,58.8582
2012-11-30,58.9373
2012-12-03,58.8483
2012-12-04,58.957
2012-12-05,59.4912
2012-12-06,59.7878
2012-12-07,59.7681
2012-12-10,60.8066
2012-12-11,60.9252
2012-12-12,60.5594
2012-12-13,60.9154
2012-12-14,59.5604
2012-12-17,59.6692
2012-12-18,60.5
2012-12-19,60.0153
2012-12-20,60.134
2012-12-21,59.9956
2012-12-24,60.3516
2012-12-26,59.689
2012-12-27,59.5703
2012-12-28,59.056
2012-12-31,59.4812
2013-01-02,61.4099
2013-01-03,61.8946
2013-01-04,61.9638
2013-01-07,62.6858
2013-01-08,62.3199
2013-01-09,63.1605
2013-01-10,63.5166
2013-01-11,63.5957
2013-01-14,64.1694
2013-01-15,64.1694
2013-01-16,64.0211
2013-01-17,65.6629
2013-01-18,66.5925
2013-01-22,66.7706
2013-01-23,66.7509
2013-01-24,67.2453
2013-01-25,67.2453
2013-01-28,67.0375
2013-01-29,68.2739
2013-01-30,67.1365
2013-01-31,67.5816
2013-02-01,67.6607
2013-02-04,67.1068
2013-02-05,67.4925
2013-02-06,68.0185
2013-02-07,67.3039
2013-02-08,67.696
2013-02-11,67.4428
2013-02-12,67.413
2013-02-13,67.691
2013-02-14,67.7108
2013-02-15,67.954
2013-02-19,68.1973
2013-02-20,67.1649
2013-02-21,66.6686
2013-02-22,67.155
2013-02-25,65.507
2013-02-26,66.1623
2013-02-27,67.1351
2013-02-28,67.6612
2013-03-01,67.0855
2013-03-04,66.6487
2013-03-05,67.3833
2013-03-06,67.1947
2013-03-07,67.3833
2013-03-08,68.5149
2013-03-11,68.3759
2013-03-12,67.6811
2013-03-13,68.1675
2013-03-14,68.2568
2013-03-15,68.088
2013-03-18,67.9492
2013-03-19,68.0484
2013-03-20,68.3859
2013-03-21,67.82
2013-03-22,68.108
2013-03-25,66.8373
2013-03-26,66.9366
2013-03-27,66.5395
2013-03-28,67.8994
2013-04-01,66.6388
2013-04-02,66.6586
2013-04-03,66.2019
2013-04-04,66.6586
2013-04-05,66.3013
2013-04-08,66.3013
2013-04-09,65.6163
2013-04-10,66.8174
2013-04-11,67.4229
2013-04-12,66.4998
2013-04-15,63.9387
2013-04-16,65.2391
2013-04-17,64.2067
2013-04-18,63.5515
2013-04-19,63.0552
2013-04-22,63.7699
2013-04-23,65.1795
2013-04-24,65.3086
2013-04-25,66.1821
2013-04-26,65.1795
2013-04-29,65.9141
2013-04-30,66.1623
2013-05-01,65.666
2013-05-02,66.2913
2013-05-03,67.8656
2013-05-06,67.6963
2013-05-07,68.3539
2013-05-08,68.2443
2013-05-09,67.9553
2013-05-10,68.5432
2013-05-13,68.1148
2013-05-14,69.2407
2013-05-15,70.0876
2013-05-16,69.7987
2013-05-17,71.1438
2013-05-20,71.6819
2013-05-21,72.2698
2013-05-22,71.3631
2013-05-23,71.4328
2013-05-24,70.7353
2013-05-28,71.2136
2013-05-29,70.9147
2013-05-30,71.7118
2013-05-31,67.8557
2013-06-03,68.0749
2013-06-04,67.3973
2013-06-05,66.0721
2013-06-06,66.2315
2013-06-07,67.6963
2013-06-10,67.5169
2013-06-11,67.1482
2013-06-12,66.4009
2013-06-13,67.8059
2013-06-14,68.0151
2013-06-17,68.882
2013-06-18,69.3503
2013-06-19,67.2877
2013-06-20,65.9027
2013-06-21,65.6935
2013-06-24,64.5277
2013-06-25,64.707
2013-06-26,65.3348
2013-06-27,65.9924
2013-06-28,66.1718
2013-07-01,66.8792
2013-07-02,67.0685
2013-07-03,66.7397
2013-07-05,67.4571
2013-07-08,68.3041
2013-07-09,69.0713
2013-07-10,69.2706
2013-07-11,70.3666
2013-07-12,70.3268
2013-07-15,70.0976
2013-07-16,69.7588
2013-07-17,70.2271
2013-07-18,70.4862
2013-07-19,70.546
2013-07-22,70.7951
2013-07-23,70.4962
2013-07-24,70.0976
2013-07-25,70.4862
2013-07-26,70.0976
2013-07-29,69.4699
2013-07-30,69.4599
2013-07-31,69.95
2013-08-01,71.23
2013-08-02,71.41
2013-08-05,71.52
2013-08-06,71.75
2013-08-07,71.52
2013-08-08,71.55
2013-08-09,71.54
