date,close_price
1998-01-02,20.3308
1998-01-05,19.9662
1998-01-06,19.6938
1998-01-07,19.4798
1998-01-08,19.723
1998-01-09,19.5431
1998-01-12,19.6014
1998-01-13,19.5139
1998-01-14,19.5431
1998-01-15,19.6014
1998-01-16,19.4507
1998-01-20,19.3291
1998-01-21,19.5722
1998-01-22,20.0293
1998-01-23,19.9369
1998-01-26,20.1217
1998-01-27,20.1217
1998-01-28,19.757
1998-01-29,19.6884
1998-01-30,19.5954
1998-02-02,19.8403
1998-02-03,19.9628
1998-02-04,19.8403
1998-02-05,19.6884
1998-02-06,19.7816
1998-02-09,19.7816
1998-02-10,20.0265
1998-02-11,20.0265
1998-02-12,20.0558
1998-02-13,20.0558
1998-02-17,20.149
1998-02-18,19.9922
1998-02-19,19.9334
1998-02-20,19.9628
1998-02-23,19.8698
1998-02-24,19.8109
1998-02-25,19.904
1998-02-26,19.904
1998-02-27,19.9628
1998-03-02,19.9628
1998-03-03,20.1147
1998-03-04,19.8698
1998-03-05,19.8109
1998-03-06,20.3302
1998-03-09,20.3008
1998-03-10,20.4821
1998-03-11,20.6046
1998-03-12,20.7613
1998-03-13,20.6682
1998-03-16,20.8495
1998-03-17,21.0356
1998-03-18,21.1581
1998-03-19,21.2512
1998-03-20,21.741
1998-03-23,21.6774
1998-03-24,21.6187
1998-03-25,21.741
1998-03-26,21.6187
1998-03-27,21.2169
1998-03-30,21.3737
1998-03-31,21.7999
1998-04-01,21.7067
1998-04-02,21.8635
1998-04-03,21.8929
1998-04-06,21.6187
1998-04-07,21.4962
1998-04-08,21.2512
1998-04-09,21.2806
1998-04-13,21.3737
1998-04-14,21.648
1998-04-15,21.741
1998-04-16,21.31
1998-04-17,21.8929
1998-04-20,21.4962
1998-04-21,21.3393
1998-04-22,21.1581
1998-04-23,20.7907
1998-04-24,21.0944
1998-04-27,20.7613
1998-04-28,21.1581
1998-04-29,21.2772
1998-04-30,21.8593
1998-05-01,21.9826
1998-05-04,22.0467
1998-05-05,21.6472
1998-05-06,21.5831
1998-05-07,21.4005
1998-05-08,21.736
1998-05-11,21.8593
1998-05-12,22.0172
1998-05-13,21.8938
1998-05-14,21.9531
1998-05-15,21.9826
1998-05-18,21.9235
1998-05-19,21.7063
1998-05-20,21.8297
1998-05-21,21.5238
1998-05-22,21.4005
1998-05-26,21.1835
1998-05-27,21.3067
1998-05-28,21.6472
1998-05-29,22.1997
1998-06-01,22.5104
1998-06-02,22.5697
1998-06-03,22.5697
1998-06-04,22.3231
1998-06-05,22.476
1998-06-08,22.4167
1998-06-09,22.476
1998-06-10,22.5993
1998-06-11,22.5697
1998-06-12,22.7226
1998-06-15,22.5401
1998-06-16,22.5401
1998-06-17,22.2638
1998-06-18,22.1405
1998-06-19,22.2934
1998-06-22,22.1997
1998-06-23,22.5104
1998-06-24,22.4167
1998-06-25,21.9826
1998-06-26,22.106
1998-06-29,22.3872
1998-06-30,22.2934
1998-07-01,22.3872
1998-07-02,22.3231
1998-07-06,22.2638
1998-07-07,22.1997
1998-07-08,22.1997
1998-07-09,21.9531
1998-07-10,21.9235
1998-07-13,21.6767
1998-07-14,21.7063
1998-07-15,21.736
1998-07-16,21.9235
1998-07-17,21.736
1998-07-20,21.8938
1998-07-21,21.8297
1998-07-22,21.6472
1998-07-23,21.4005
1998-07-24,21.1835
1998-07-27,21.3067
1998-07-28,20.996
1998-07-29,21.0305
1998-07-30,21.2692
1998-07-31,21.2096
1998-08-03,21.1798
1998-08-04,20.5885
1998-08-05,20.4942
1998-08-06,20.7723
1998-08-07,21.0854
1998-08-10,20.7723
1998-08-11,20.7128
1998-08-12,21.1798
1998-08-13,20.5587
1998-08-14,20.4942
1998-08-17,20.6184
1998-08-18,20.4942
1998-08-19,20.3103
1998-08-20,20.1861
1998-08-21,20.5239
1998-08-24,20.683
1998-08-25,21.0555
1998-08-26,20.8966
1998-08-27,20.683
1998-08-28,21.0208
1998-08-31,21.3636
1998-09-01,21.0208
1998-09-02,20.5587
1998-09-03,20.4346
1998-09-04,20.5587
1998-09-08,20.7128
1998-09-09,20.4942
1998-09-10,20.683
1998-09-11,20.9612
1998-09-14,21.0854
1998-09-15,21.304
1998-09-16,21.5822
1998-09-17,21.7363
1998-09-18,21.6418
1998-09-21,21.4282
1998-09-22,21.6418
1998-09-23,21.6766
1998-09-24,21.4282
1998-09-25,21.5822
1998-09-28,21.3636
1998-09-29,21.9847
1998-09-30,22.1735
1998-10-01,22.3871
1998-10-02,22.8839
1998-10-05,23.3211
1998-10-06,23.0081
1998-10-07,23.8477
1998-10-08,24.2849
1998-10-09,23.2913
1998-10-12,22.3573
1998-10-13,22.546
1998-10-14,22.3274
1998-10-15,22.9485
1998-10-16,22.1735
1998-10-19,21.6766
1998-10-20,21.6418
1998-10-21,21.3934
1998-10-22,21.612
1998-10-23,21.4879
1998-10-26,21.766
1998-10-27,21.9847
1998-10-28,22.0492
1998-10-29,21.9917
1998-10-30,21.9617
1998-11-02,22.2719
1998-11-03,22.4271
1998-11-04,22.6474
1998-11-05,22.7724
1998-11-06,23.0227
1998-11-09,22.8025
1998-11-10,23.3681
1998-11-11,23.338
1998-11-12,23.338
1998-11-13,23.4632
1998-11-16,23.3681
1998-11-17,23.5232
1998-11-18,23.338
1998-11-19,23.1479
1998-11-20,23.1178
1998-11-23,23.1779
1998-11-24,23.0528
1998-11-25,23.1479
1998-11-27,23.338
1998-11-30,22.7424
1998-12-01,23.2729
1998-12-02,22.2419
1998-12-03,22.1168
1998-12-04,22.337
1998-12-07,22.2719
1998-12-08,22.0217
1998-12-09,21.5513
1998-12-10,21.2109
1998-12-11,21.0508
1998-12-14,21.301
1998-12-15,21.3961
1998-12-16,21.4912
1998-12-17,21.7114
1998-12-18,21.8365
1998-12-21,21.8015
1998-12-22,21.2409
1998-12-23,21.3361
1998-12-24,21.0208
1998-12-28,21.0858
1998-12-29,21.0208
1998-12-30,20.9907
1998-12-31,21.2109
1999-01-04,21.4261
1999-01-05,21.3961
1999-01-06,21.3661
1999-01-07,21.1759
1999-01-08,20.7404
1999-01-11,20.5203
1999-01-12,20.6153
1999-01-13,20.5853
1999-01-14,20.3
1999-01-15,20.1449
1999-01-19,20.4251
1999-01-20,20.4902
1999-01-21,20.6454
1999-01-22,20.9907
1999-01-25,21.1158
1999-01-26,21.0508
1999-01-27,20.6754
1999-01-28,20.6526
1999-01-29,20.2087
1999-02-01,19.5782
1999-02-02,19.7396
1999-02-03,20.0221
1999-02-04,20.0827
1999-02-05,20.118
1999-02-08,20.118
1999-02-09,19.7699
1999-02-10,19.2654
1999-02-11,19.1696
1999-02-12,18.6348
1999-02-16,18.6348
1999-02-17,18.7307
1999-02-18,19.0435
1999-02-19,18.6046
1999-02-22,18.7307
1999-02-23,18.5088
1999-02-24,18.4785
1999-02-25,18.1909
1999-02-26,18.2263
1999-03-01,18.5088
1999-03-02,18.9476
1999-03-03,18.9476
1999-03-04,18.7913
1999-03-05,19.1696
1999-03-08,19.1091
1999-03-09,18.9173
1999-03-10,19.0435
1999-03-11,19.0738
1999-03-12,19.326
1999-03-15,19.326
1999-03-16,19.326
1999-03-17,19.1091
1999-03-18,19.326
1999-03-19,18.8871
1999-03-22,18.8215
1999-03-23,18.8568
1999-03-24,19.3916
1999-03-25,19.1696
1999-03-26,19.2352
1999-03-29,19.1091
1999-03-30,18.8568
1999-03-31,18.4432
1999-04-01,18.9476
1999-04-05,18.9829
1999-04-06,18.6046
1999-04-07,18.2867
1999-04-08,18.6651
1999-04-09,18.6348
1999-04-12,18.4785
1999-04-13,18.4785
1999-04-14,18.2867
1999-04-15,18.7307
1999-04-16,18.8871
1999-04-19,19.0132
1999-04-20,19.6135
1999-04-21,19.2352
1999-04-22,19.5479
1999-04-23,19.1091
1999-04-26,19.0435
1999-04-27,19.1393
1999-04-28,19.1696
1999-04-29,19.2741
1999-04-30,19.6863
1999-05-03,19.9712
1999-05-04,19.9102
1999-05-05,19.8746
1999-05-06,19.6863
1999-05-07,19.7474
1999-05-10,20.0984
1999-05-11,19.8746
1999-05-12,19.8135
1999-05-13,20.3834
1999-05-14,20.0679
1999-05-17,20.129
1999-05-18,20.8006
1999-05-19,20.9583
1999-05-20,21.2128
1999-05-21,21.2738
1999-05-24,21.4011
1999-05-25,21.5282
1999-05-26,21.3399
1999-05-27,21.2128
1999-05-28,21.3094
1999-06-01,21.2128
1999-06-02,21.2128
1999-06-03,20.9583
1999-06-04,21.055
1999-06-07,21.1466
1999-06-08,20.9888
1999-06-09,21.0194
1999-06-10,20.419
1999-06-11,20.5767
1999-06-14,20.5767
1999-06-15,20.704
1999-06-16,20.9583
1999-06-17,20.9278
1999-06-18,20.765
1999-06-21,20.6735
1999-06-22,20.9888
1999-06-23,20.8922
1999-06-24,20.6378
1999-06-25,20.7345
1999-06-28,20.704
1999-06-29,20.765
1999-06-30,20.5106
1999-07-01,20.5106
1999-07-02,20.5767
1999-07-06,20.6735
1999-07-07,20.6378
1999-07-08,20.2562
1999-07-09,20.4495
1999-07-12,20.5767
1999-07-13,20.5462
1999-07-14,20.6378
1999-07-15,20.765
1999-07-16,20.5767
1999-07-19,20.8006
1999-07-20,20.7345
1999-07-21,20.765
1999-07-22,20.8922
1999-07-23,20.704
1999-07-26,20.9278
1999-07-27,20.7345
1999-07-28,20.5106
1999-07-29,20.2929
1999-07-30,20.4878
1999-08-02,20.2929
1999-08-03,20.6468
1999-08-04,20.7135
1999-08-05,20.616
1999-08-06,20.616
1999-08-09,20.5186
1999-08-10,20.4878
1999-08-11,20.5186
1999-08-12,20.2005
1999-08-13,20.3903
1999-08-16,20.0056
1999-08-17,20.0363
1999-08-18,19.8466
1999-08-19,19.9748
1999-08-20,20.3287
1999-08-23,20.2313
1999-08-24,20.2313
1999-08-25,20.616
1999-08-26,20.5186
1999-08-27,20.4569
1999-08-30,19.8157
1999-08-31,19.5593
1999-09-01,19.6875
1999-09-02,19.3644
1999-09-03,19.5593
1999-09-07,19.3029
1999-09-08,18.9489
1999-09-09,18.7232
1999-09-10,18.9796
1999-09-13,18.7899
1999-09-14,18.5333
1999-09-15,18.5333
1999-09-16,18.4975
1999-09-17,18.595
1999-09-20,18.3384
1999-09-21,18.241
1999-09-22,18.241
1999-09-23,17.8921
1999-09-24,18.6257
1999-09-27,18.3076
1999-09-28,18.6924
1999-09-29,18.7539
1999-09-30,18.6617
1999-10-01,19.0105
1999-10-04,19.3951
1999-10-05,19.2362
1999-10-06,19.0771
1999-10-07,18.8822
1999-10-08,18.7539
1999-10-11,18.5642
1999-10-12,18.595
1999-10-13,18.4667
1999-10-14,18.595
1999-10-15,18.3693
1999-10-18,18.2102
1999-10-19,18.1487
1999-10-20,17.9537
1999-10-21,17.9845
1999-10-22,18.1794
1999-10-25,18.3076
1999-10-26,18.595
1999-10-27,18.7899
1999-10-28,18.9352
1999-10-29,19.1009
1999-11-01,19.0025
1999-11-02,19.132
1999-11-03,18.9715
1999-11-04,18.6762
1999-11-05,18.7125
1999-11-08,18.5157
1999-11-09,18.3862
1999-11-10,17.9978
1999-11-11,18.0652
1999-11-12,18.0962
1999-11-15,18.0652
1999-11-16,17.9978
1999-11-17,17.9667
1999-11-18,17.6405
1999-11-19,17.5472
1999-11-22,17.1898
1999-11-23,16.9309
1999-11-24,16.8014
1999-11-26,16.734
1999-11-29,16.3146
1999-11-30,17.1588
1999-12-01,17.2209
1999-12-02,17.2882
1999-12-03,17.4488
1999-12-06,17.3503
1999-12-07,17.3814
1999-12-08,17.1898
1999-12-09,16.9619
1999-12-10,16.703
1999-12-13,15.9261
1999-12-14,16.0245
1999-12-15,16.1539
1999-12-16,16.0867
1999-12-17,16.0555
1999-12-20,16.0245
1999-12-21,16.3146
1999-12-22,16.0245
1999-12-23,16.2523
1999-12-27,16.1539
1999-12-28,15.895
1999-12-29,15.7655
1999-12-30,15.9261
1999-12-31,15.8276
2000-01-03,15.3771
2000-01-04,15.5687
2000-01-05,16.0245
2000-01-06,16.1229
2000-01-07,16.5735
2000-01-10,16.3456
2000-01-11,16.1851
2000-01-12,16.3818
2000-01-13,16.0867
2000-01-14,15.9572
2000-01-18,15.605
2000-01-19,16.0245
2000-01-20,15.7966
2000-01-21,16.0245
2000-01-24,16.3818
2000-01-25,15.7345
2000-01-26,15.9934
2000-01-27,16.3456
2000-01-28,15.6801
2000-01-31,15.9734
2000-02-01,16.1724
2000-02-02,16.2038
2000-02-03,16.5652
2000-02-04,16.1357
2000-02-07,16.0729
2000-02-08,16.2353
2000-02-09,16.1043
2000-02-10,15.942
2000-02-11,15.9106
2000-02-14,15.942
2000-02-15,15.8425
2000-02-16,15.7115
2000-02-17,15.5178
2000-02-18,15.0883
2000-02-22,15.1564
2000-02-23,14.795
2000-02-24,14.3028
2000-02-25,13.8471
2000-02-28,14.4703
2000-02-29,14.4703
2000-03-01,14.3393
2000-03-02,14.3709
2000-03-03,14.3393
2000-03-06,13.6481
2000-03-07,13.8157
2000-03-08,13.8471
2000-03-09,14.109
2000-03-10,13.7162
2000-03-13,13.5853
2000-03-14,13.6481
2000-03-15,14.994
2000-03-16,15.4811
2000-03-17,15.0568
2000-03-20,14.795
2000-03-21,14.5646
2000-03-22,13.9781
2000-03-23,14.1718
2000-03-24,14.0095
2000-03-27,14.0409
2000-03-28,14.0776
2000-03-29,14.4023
2000-03-30,14.5646
2000-03-31,14.7322
2000-04-03,14.7636
2000-04-04,15.0254
2000-04-05,15.3868
2000-04-06,15.2192
2000-04-07,15.1564
2000-04-10,15.4811
2000-04-11,15.4496
2000-04-12,15.7796
2000-04-13,16.2353
2000-04-14,15.811
2000-04-17,15.8739
2000-04-18,15.6801
2000-04-19,16.0048
2000-04-20,16.2353
2000-04-24,17.1518
2000-04-25,17.576
2000-04-26,18.3301
2000-04-27,17.6583
2000-04-28,18.547
2000-05-01,18.5841
2000-05-02,18.055
2000-05-03,17.8223
2000-05-04,18.2826
2000-05-05,18.5153
2000-05-08,19.3088
2000-05-09,19.4093
2000-05-10,19.6738
2000-05-11,19.9383
2000-05-12,19.5416
2000-05-15,19.97
2000-05-16,19.7743
2000-05-17,19.113
2000-05-18,19.3776
2000-05-19,19.441
2000-05-22,19.7373
2000-05-23,19.4093
2000-05-24,19.7373
2000-05-25,19.0761
2000-05-26,19.1448
2000-05-30,19.0761
2000-05-31,18.9808
2000-06-01,18.8803
2000-06-02,18.5153
2000-06-05,17.8857
2000-06-06,18.383
2000-06-07,18.2826
2000-06-08,18.2507
2000-06-09,18.383
2000-06-12,18.547
2000-06-13,18.9121
2000-06-14,18.5841
2000-06-15,19.0125
2000-06-16,19.0125
2000-06-19,18.8803
2000-06-20,18.8485
2000-06-21,18.8115
2000-06-22,18.3195
2000-06-23,18.5153
2000-06-26,18.7481
2000-06-27,18.219
2000-06-28,18.6793
2000-06-29,18.3513
2000-06-30,17.9863
2000-07-03,18.5841
2000-07-05,18.6793
2000-07-06,18.5153
2000-07-07,18.6158
2000-07-10,18.9121
2000-07-11,19.2082
2000-07-12,19.1448
2000-07-13,19.4093
2000-07-14,19.7743
2000-07-17,19.806
2000-07-18,19.5416
2000-07-19,19.8696
2000-07-20,19.806
2000-07-21,19.9383
2000-07-24,20.2346
2000-07-25,20.3668
2000-07-26,20.4355
2000-07-27,20.7953
2000-07-28,20.6832
2000-07-31,21.0835
2000-08-01,21.8521
2000-08-02,22.0869
2000-08-03,22.0869
2000-08-04,21.8841
2000-08-07,21.9536
2000-08-08,22.3165
2000-08-09,22.0496
2000-08-10,21.7827
2000-08-11,22.2524
2000-08-14,22.2204
2000-08-15,22.2844
2000-08-16,22.2844
2000-08-17,22.4499
2000-08-18,22.4873
2000-08-21,22.3859
2000-08-22,22.5194
2000-08-23,22.6847
2000-08-24,22.4179
2000-08-25,21.6866
2000-08-28,21.9162
2000-08-29,21.8201
2000-08-30,21.8841
2000-08-31,22.0176
2000-09-01,22.4873
2000-09-05,23.021
2000-09-06,23.5175
2000-09-07,23.7523
2000-09-08,24.4889
2000-09-11,25.1187
2000-09-12,24.9533
2000-09-13,25.3216
2000-09-14,25.2201
2000-09-15,25.4229
2000-09-18,25.4551
2000-09-19,24.7184
2000-09-20,24.3555
2000-09-21,24.1526
2000-09-22,24.6543
2000-09-25,24.8519
2000-09-26,26.357
2000-09-27,26.5225
2000-09-28,26.6239
2000-09-29,27.1577
2000-10-02,27.7235
2000-10-03,27.2218
2000-10-04,26.6239
2000-10-05,26.0902
2000-10-06,26.2236
2000-10-09,26.2557
2000-10-10,26.72
2000-10-11,26.8215
2000-10-12,26.656
2000-10-13,26.688
2000-10-16,26.8215
2000-10-17,26.9548
2000-10-18,26.0902
2000-10-19,24.6864
2000-10-20,23.4214
2000-10-23,23.32
2000-10-24,22.9197
2000-10-25,22.5514
2000-10-26,22.4499
2000-10-27,22.6207
2000-10-30,23.5928
2000-10-31,23.4582
2000-11-01,23.8298
2000-11-02,23.6628
2000-11-03,23.4258
2000-11-06,23.2913
2000-11-07,23.1889
2000-11-08,23.3236
2000-11-09,23.6951
2000-11-10,23.8298
2000-11-13,23.5605
2000-11-14,23.3612
2000-11-15,23.6951
2000-11-16,23.8998
2000-11-17,24.573
2000-11-20,24.5029
2000-11-21,24.2337
2000-11-22,24.3359
2000-11-24,24.3036
2000-11-27,24.266
2000-11-28,24.7722
2000-11-29,25.0092
2000-11-30,25.0415
2000-12-01,25.3107
2000-12-04,24.9068
2000-12-05,24.573
2000-12-06,24.7398
2000-12-07,24.8422
2000-12-08,24.8045
2000-12-11,24.573
2000-12-12,24.6376
2000-12-13,24.7075
2000-12-14,24.3359
2000-12-15,24.2014
2000-12-18,24.7398
2000-12-19,24.8745
2000-12-20,25.4453
2000-12-21,25.58
2000-12-22,25.2461
2000-12-26,25.4453
2000-12-27,25.4776
2000-12-28,25.5477
2000-12-29,25.6123
2001-01-02,25.0092
2001-01-03,23.4582
2001-01-04,21.6756
2001-01-05,22.1496
2001-01-08,22.6181
2001-01-09,22.3811
2001-01-10,22.2142
2001-01-11,21.8103
2001-01-12,21.8803
2001-01-16,21.2717
2001-01-17,21.4764
2001-01-18,22.1496
2001-01-19,22.0472
2001-01-22,22.5158
2001-01-23,23.1566
2001-01-24,23.1889
2001-01-25,23.6628
2001-01-26,23.7274
2001-01-29,23.749
2001-01-30,23.5399
2001-01-31,23.453
2001-02-01,22.8013
2001-02-02,22.823
2001-02-05,23.3553
2001-02-06,23.6594
2001-02-07,24.3221
2001-02-08,24.0505
2001-02-09,24.6371
2001-02-12,24.1808
2001-02-13,24.2297
2001-02-14,24.0614
2001-02-15,24.007
2001-02-16,24.7402
2001-02-20,24.9847
2001-02-21,25.5549
2001-02-22,25.6473
2001-02-23,25.7505
2001-02-26,25.1096
2001-02-27,25.2508
2001-02-28,25.2345
2001-03-01,24.9792
2001-03-02,25.1585
2001-03-05,24.9575
2001-03-06,25.0064
2001-03-07,25.0661
2001-03-08,25.2834
2001-03-09,25.2454
2001-03-12,25.1368
2001-03-13,24.5012
2001-03-14,23.9527
2001-03-15,24.1536
2001-03-16,23.8441
2001-03-19,23.616
2001-03-20,23.6812
2001-03-21,23.5345
2001-03-22,22.4754
2001-03-23,22.3233
2001-03-26,23.0511
2001-03-27,23.1651
2001-03-28,24.045
2001-03-29,24.5773
2001-03-30,24.8814
2001-04-02,25.3866
2001-04-03,25.8157
2001-04-04,25.6636
2001-04-05,25.4735
2001-04-06,24.7566
2001-04-09,25.631
2001-04-10,26.1415
2001-04-11,25.6691
2001-04-12,25.9677
2001-04-16,26.7281
2001-04-17,27.0106
2001-04-18,26.6086
2001-04-19,26.0981
2001-04-20,25.9189
2001-04-23,26.5
2001-04-24,26.7173
2001-04-25,27.2224
2001-04-26,27.3473
2001-04-27,27.4704
2001-04-30,27.4704
2001-05-01,27.1092
2001-05-02,26.7153
2001-05-03,26.5346
2001-05-04,26.8027
2001-05-07,26.6277
2001-05-08,26.2063
2001-05-09,26.9013
2001-05-10,26.7372
2001-05-11,26.5511
2001-05-14,27.1257
2001-05-15,26.7973
2001-05-16,27.0326
2001-05-17,27.35
2001-05-18,27.0983
2001-05-21,27.0764
2001-05-22,27.0053
2001-05-23,27.0819
2001-05-24,27.0654
2001-05-25,26.6769
2001-05-29,26.5456
2001-05-30,26.6387
2001-05-31,27.2953
2001-06-01,27.1695
2001-06-04,27.2351
2001-06-05,26.7043
2001-06-06,26.2118
2001-06-07,25.9109
2001-06-08,26.469
2001-06-11,26.9068
2001-06-12,27.1038
2001-06-13,26.4198
2001-06-14,25.4293
2001-06-15,25.4731
2001-06-18,25.6098
2001-06-19,25.7521
2001-06-20,25.6372
2001-06-21,24.9587
2001-06-22,25.2542
2001-06-25,25.3909
2001-06-26,25.4566
2001-06-27,25.9491
2001-06-28,25.9054
2001-06-29,25.9656
2001-07-02,26.2994
2001-07-03,26.5128
2001-07-05,26.7973
2001-07-06,26.7153
2001-07-09,27.0326
2001-07-10,27.0272
2001-07-11,26.7317
2001-07-12,26.0476
2001-07-13,24.3239
2001-07-16,24.2583
2001-07-17,24.0503
2001-07-18,24.4334
2001-07-19,24.4607
2001-07-20,23.514
2001-07-23,23.016
2001-07-24,22.135
2001-07-25,23.0981
2001-07-26,23.722
2001-07-27,23.12
2001-07-30,23.4983
2001-07-31,23.3822
2001-08-01,23.327
2001-08-02,23.5976
2001-08-03,23.9675
2001-08-06,23.719
2001-08-07,23.8074
2001-08-08,23.5369
2001-08-09,23.9233
2001-08-10,24.2657
2001-08-13,23.8682
2001-08-14,24.1111
2001-08-15,24.0614
2001-08-16,24.4313
2001-08-17,24.5252
2001-08-20,24.5693
2001-08-21,24.4478
2001-08-22,24.4424
2001-08-23,24.5252
2001-08-24,24.5362
2001-08-27,24.6521
2001-08-28,24.5804
2001-08-29,24.6908
2001-08-30,24.5197
2001-08-31,24.5749
2001-09-04,24.7571
2001-09-05,24.7239
2001-09-06,24.6466
2001-09-07,24.343
2001-09-10,24.1
2001-09-17,23.6031
2001-09-18,23.0565
2001-09-19,22.6203
2001-09-20,22.9406
2001-09-21,22.3056
2001-09-24,21.886
2001-09-25,21.8529
2001-09-26,21.1904
2001-09-27,21.3394
2001-09-28,21.9081
2001-10-01,21.9302
2001-10-02,21.9025
2001-10-03,22.1511
2001-10-04,22.416
2001-10-05,22.5707
2001-10-08,22.3554
2001-10-09,22.013
2001-10-10,21.875
2001-10-11,21.6099
2001-10-12,21.5216
2001-10-15,21.2511
2001-10-16,21.3615
2001-10-17,21.4112
2001-10-18,21.0468
2001-10-19,22.2339
2001-10-22,22.1621
2001-10-23,22.8247
2001-10-24,22.2891
2001-10-25,22.8854
2001-10-26,22.935
2001-10-29,23.432
2001-10-30,23.3707
2001-10-31,23.4153
2001-11-01,23.5491
2001-11-02,23.2982
2001-11-05,23.7107
2001-11-06,23.772
2001-11-07,23.9671
2001-11-08,24.1343
2001-11-09,24.1232
2001-11-12,23.9671
2001-11-13,23.9838
2001-11-14,23.5268
2001-11-15,23.2816
2001-11-16,23.3428
2001-11-19,22.9861
2001-11-20,23.3261
2001-11-21,22.975
2001-11-23,23.0697
2001-11-26,22.9304
2001-11-27,22.7353
2001-11-28,22.6851
2001-11-29,22.975
2001-11-30,23.2481
2001-12-03,23.1924
2001-12-04,22.9582
2001-12-05,22.975
2001-12-06,22.7408
2001-12-07,22.9527
2001-12-10,22.6071
2001-12-11,21.9382
2001-12-12,22.1278
2001-12-13,22.1278
2001-12-14,22.0999
2001-12-17,21.8212
2001-12-18,22.2894
2001-12-19,22.8523
2001-12-20,22.5458
2001-12-21,22.5681
2001-12-24,22.7966
2001-12-26,22.9861
2001-12-27,23.1812
2001-12-28,23.3651
2001-12-31,23.2982
2002-01-02,23.6438
2002-01-03,23.6326
2002-01-04,23.5156
2002-01-07,23.5379
2002-01-08,23.1644
2002-01-09,23.3763
2002-01-10,23.432
2002-01-11,23.3707
2002-01-14,23.5937
2002-01-15,23.694
2002-01-16,23.878
2002-01-17,23.7052
2002-01-18,23.7776
2002-01-22,23.4153
2002-01-23,23.8389
2002-01-24,23.7052
2002-01-25,23.6884
2002-01-28,23.2035
2002-01-29,22.5737
2002-01-30,22.3435
2002-01-31,22.4448
2002-02-01,22.7206
2002-02-04,22.8726
2002-02-05,22.8896
2002-02-06,23.0528
2002-02-07,23.43
2002-02-08,23.3849
2002-02-11,23.5256
2002-02-12,24.0267
2002-02-13,24.2293
2002-02-14,23.8577
2002-02-15,23.7958
2002-02-19,23.4412
2002-02-20,23.2892
2002-02-21,23.0753
2002-02-22,23.3061
2002-02-25,22.9627
2002-02-26,22.867
2002-02-27,22.9345
2002-02-28,22.8445
2002-03-01,23.0246
2002-03-04,23.7339
2002-03-05,23.931
2002-03-06,24.3532
2002-03-07,24.3081
2002-03-08,24.173
2002-03-11,24.4827
2002-03-12,24.2068
2002-03-13,24.1618
2002-03-14,24.1168
2002-03-15,24.1055
2002-03-18,24.2068
2002-03-19,24.28
2002-03-20,24.3982
2002-03-21,24.9893
2002-03-22,24.7473
2002-03-25,24.9105
2002-03-26,24.8542
2002-03-27,25.2764
2002-03-28,25.5298
2002-04-01,25.5523
2002-04-02,25.9801
2002-04-03,25.7549
2002-04-04,25.8
2002-04-05,25.5466
2002-04-08,25.5016
2002-04-09,25.0231
2002-04-10,25.3891
2002-04-11,25.1357
2002-04-12,25.1807
2002-04-15,24.8823
2002-04-16,25.0794
2002-04-17,25.147
2002-04-18,25.496
2002-04-19,25.8056
2002-04-22,25.6593
2002-04-23,25.9745
2002-04-24,25.6705
2002-04-25,25.496
2002-04-26,25.192
2002-04-29,24.9194
2002-04-30,24.9137
2002-05-01,24.8001
2002-05-02,24.7433
2002-05-03,24.8398
2002-05-06,24.7717
2002-05-07,24.7319
2002-05-08,24.7036
2002-05-09,24.5956
2002-05-10,24.2378
2002-05-13,24.2662
2002-05-14,24.3457
2002-05-15,23.9765
2002-05-16,23.2948
2002-05-17,23.0562
2002-05-20,23.1358
2002-05-21,23.0847
2002-05-22,23.4539
2002-05-23,23.5788
2002-05-24,23.5788
2002-05-28,23.4254
2002-05-29,23.1471
2002-05-30,22.9313
2002-05-31,22.7949
2002-06-03,22.386
2002-06-04,22.5791
2002-06-05,22.2099
2002-06-06,21.8123
2002-06-07,21.9089
2002-06-10,22.0963
2002-06-11,22.0395
2002-06-12,22.2837
2002-06-13,22.2894
2002-06-14,22.1985
2002-06-17,22.4087
2002-06-18,22.3519
2002-06-19,21.8066
2002-06-20,21.5965
2002-06-21,21.7271
2002-06-24,21.6362
2002-06-25,21.5566
2002-06-26,21.6703
2002-06-27,21.9997
2002-06-28,22.4371
2002-07-01,22.2099
2002-07-02,21.693
2002-07-03,21.8237
2002-07-05,22.0338
2002-07-08,21.7611
2002-07-09,21.108
2002-07-10,19.0005
2002-07-11,19.597
2002-07-12,19.2618
2002-07-15,19.4493
2002-07-16,19.3754
2002-07-17,18.9665
2002-07-18,18.5859
2002-07-19,17.4384
2002-07-22,16.8704
2002-07-23,16.007
2002-07-24,17.5123
2002-07-25,18.1201
2002-07-26,18.1541
2002-07-29,18.2451
2002-07-30,19.9135
2002-07-31,19.5512
2002-08-01,18.9242
2002-08-02,18.5216
2002-08-05,18.6251
2002-08-06,18.9013
2002-08-07,19.0278
2002-08-08,18.9817
2002-08-09,19.2003
2002-08-12,19.4765
2002-08-13,18.8322
2002-08-14,19.2981
2002-08-15,19.091
2002-08-16,18.884
2002-08-19,18.976
2002-08-20,19.1199
2002-08-21,19.2809
2002-08-22,19.6605
2002-08-23,19.3268
2002-08-26,19.672
2002-08-27,19.6088
2002-08-28,20.0113
2002-08-29,19.5915
2002-08-30,19.1831
2002-09-03,18.8494
2002-09-04,18.6999
2002-09-05,18.7862
2002-09-06,18.6366
2002-09-09,18.5619
2002-09-10,18.3318
2002-09-11,18.2168
2002-09-12,17.538
2002-09-13,17.9924
2002-09-16,17.7681
2002-09-17,17.1296
2002-09-18,17.6473
2002-09-19,17.026
2002-09-20,16.6866
2002-09-23,15.9044
2002-09-24,15.3752
2002-09-25,15.6686
2002-09-26,16.077
2002-09-27,15.7951
2002-09-30,15.9332
2002-10-01,16.3358
2002-10-02,15.9906
2002-10-03,15.0934
2002-10-04,13.8739
2002-10-07,13.1377
2002-10-08,13.8797
2002-10-09,12.9536
2002-10-10,13.454
2002-10-11,14.2535
2002-10-14,13.9545
2002-10-15,14.4894
2002-10-16,14.1616
2002-10-17,14.6677
2002-10-18,14.9093
2002-10-21,15.8641
2002-10-22,15.5708
2002-10-23,15.9906
2002-10-24,15.9849
2002-10-25,16.2955
2002-10-28,16.0712
2002-10-29,16.008
2002-10-30,16.4138
2002-10-31,16.5772
2002-11-01,16.7642
2002-11-04,17.5118
2002-11-05,17.2374
2002-11-06,17.7163
2002-11-07,17.2315
2002-11-08,16.6999
2002-11-11,15.596
2002-11-12,15.7362
2002-11-13,15.8121
2002-11-14,16.3261
2002-11-15,16.4021
2002-11-18,16.9277
2002-11-19,16.8051
2002-11-20,17.0329
2002-11-21,17.3775
2002-11-22,18.055
2002-11-25,18.2303
2002-11-26,18.3238
2002-11-27,18.6918
2002-11-29,18.7618
2002-12-02,18.8378
2002-12-03,18.0493
2002-12-04,17.4652
2002-12-05,17.6404
2002-12-06,17.7221
2002-12-09,17.8799
2002-12-10,17.7981
2002-12-11,18.1194
2002-12-12,18.2829
2002-12-13,18.6217
2002-12-16,18.5399
2002-12-17,18.6918
2002-12-18,19.6322
2002-12-19,19.3284
2002-12-20,19.6731
2002-12-23,19.6848
2002-12-24,19.714
2002-12-26,19.7315
2002-12-27,19.6731
2002-12-30,20.0061
2002-12-31,19.8659
2003-01-02,20.4325
2003-01-03,20.5844
2003-01-06,21.6415
2003-01-07,20.8238
2003-01-08,20.964
2003-01-09,20.9115
2003-01-10,20.8647
2003-01-13,20.7012
2003-01-14,20.561
2003-01-15,20.4091
2003-01-16,20.3857
2003-01-17,19.825
2003-01-21,19.5679
2003-01-22,19.4979
2003-01-23,19.9126
2003-01-24,18.7035
2003-01-27,18.1719
2003-01-28,18.3296
2003-01-29,18.4464
2003-01-30,18.0827
2003-01-31,18.4439
2003-02-03,18.8287
2003-02-04,18.136
2003-02-05,18.0413
2003-02-06,18.2781
2003-02-07,18.0353
2003-02-10,17.9643
2003-02-11,17.6682
2003-02-12,17.2242
2003-02-13,17.4551
2003-02-14,17.6387
2003-02-18,18.0886
2003-02-19,18.0946
2003-02-20,17.7511
2003-02-21,18.065
2003-02-24,17.7985
2003-02-25,17.9406
2003-02-26,17.834
2003-02-27,18.0294
2003-02-28,18.0767
2003-03-03,18.1774
2003-03-04,18.3551
2003-03-05,18.5505
2003-03-06,18.7163
2003-03-07,18.8228
2003-03-10,18.3551
2003-03-11,18.2367
2003-03-12,18.509
2003-03-13,18.657
2003-03-14,18.7222
2003-03-17,19.0241
2003-03-18,19.0774
2003-03-19,19.1604
2003-03-20,19.1781
2003-03-21,19.5807
2003-03-24,19.1485
2003-03-25,19.3557
2003-03-26,19.2373
2003-03-27,19.48
2003-03-28,19.48
2003-03-31,19.6873
2003-04-01,19.8768
2003-04-02,19.7879
2003-04-03,19.7702
2003-04-04,19.9715
2003-04-07,19.7524
2003-04-08,19.7051
2003-04-09,19.5393
2003-04-10,19.563
2003-04-11,19.4919
2003-04-14,19.4267
2003-04-15,19.6814
2003-04-16,19.5926
2003-04-17,19.7702
2003-04-21,19.7938
2003-04-22,20.0722
2003-04-23,19.9419
2003-04-24,20.161
2003-04-25,19.8886
2003-04-28,20.2734
2003-04-29,20.1389
2003-04-30,19.929
2003-05-01,19.6293
2003-05-02,19.3655
2003-05-05,19.5872
2003-05-06,19.8691
2003-05-07,20.0969
2003-05-08,20.3847
2003-05-09,20.4447
2003-05-12,20.5765
2003-05-13,20.3847
2003-05-14,20.5166
2003-05-15,20.7864
2003-05-16,21.5478
2003-05-19,21.3379
2003-05-20,21.4279
2003-05-21,21.2601
2003-05-22,21.6437
2003-05-23,22.6629
2003-05-27,23.3105
2003-05-28,22.9028
2003-05-29,22.3272
2003-05-30,22.6869
2003-06-02,22.651
2003-06-03,22.8129
2003-06-04,22.8968
2003-06-05,22.651
2003-06-06,22.5371
2003-06-09,22.693
2003-06-10,22.645
2003-06-11,22.7828
2003-06-12,22.8728
2003-06-13,22.8429
2003-06-16,23.3345
2003-06-17,23.3405
2003-06-18,23.4124
2003-06-19,23.4184
2003-06-20,23.2865
2003-06-23,23.0886
2003-06-24,23.0227
2003-06-25,22.9447
2003-06-26,23.0167
2003-06-27,22.8249
2003-06-30,22.615
2003-07-01,22.4532
2003-07-02,22.615
2003-07-03,22.3992
2003-07-07,22.3692
2003-07-08,22.2913
2003-07-09,22.0155
2003-07-10,21.7457
2003-07-11,22.1653
2003-07-14,22.1594
2003-07-15,21.8955
2003-07-16,21.5958
2003-07-17,21.6857
2003-07-18,21.9735
2003-07-21,21.7337
2003-07-22,21.9915
2003-07-23,22.0994
2003-07-24,21.9316
2003-07-25,22.0155
2003-07-28,21.5118
2003-07-29,21.1641
2003-07-30,21.0032
2003-07-31,20.8212
2003-08-01,20.6937
2003-08-04,20.5299
2003-08-05,20.0323
2003-08-06,20.2871
2003-08-07,20.1476
2003-08-08,20.2325
2003-08-11,20.1476
2003-08-12,20.2932
2003-08-13,20.2628
2003-08-14,20.3114
2003-08-15,20.5541
2003-08-18,20.2993
2003-08-19,20.4813
2003-08-20,20.6816
2003-08-21,20.6876
2003-08-22,20.3599
2003-08-25,20.5662
2003-08-26,20.6087
2003-08-27,20.5724
2003-08-28,20.7059
2003-08-29,20.7969
2003-09-02,21.2035
2003-09-03,21.5129
2003-09-04,21.5919
2003-09-05,21.5554
2003-09-08,21.7254
2003-09-09,21.6222
2003-09-10,21.6343
2003-09-11,21.5919
2003-09-12,21.9377
2003-09-15,21.8831
2003-09-16,21.9924
2003-09-17,21.871
2003-09-18,22.2594
2003-09-19,22.2533
2003-09-22,21.8407
2003-09-23,21.8285
2003-09-24,21.428
2003-09-25,21.2338
2003-09-26,21.3309
2003-09-29,21.6465
2003-09-30,21.5797
2003-10-01,21.786
2003-10-02,21.962
2003-10-03,22.1016
2003-10-06,21.7922
2003-10-07,21.6646
2003-10-08,21.5433
2003-10-09,21.6405
2003-10-10,21.5251
2003-10-13,21.3977
2003-10-14,21.4644
2003-10-15,21.2641
2003-10-16,21.3066
2003-10-17,21.4462
2003-10-20,21.3916
2003-10-21,21.4826
2003-10-22,21.6405
2003-10-23,21.4098
2003-10-24,21.9439
2003-10-27,21.9377
2003-10-28,22.0227
2003-10-29,22.2533
2003-10-30,22.4314
2003-10-31,22.4437
2003-11-03,22.6649
2003-11-04,22.5728
2003-11-05,22.5912
2003-11-06,22.5113
2003-11-07,22.3884
2003-11-10,22.4191
2003-11-11,22.4007
2003-11-12,22.6096
2003-11-13,23.3284
2003-11-14,23.4206
2003-11-17,23.3038
2003-11-18,22.9107
2003-11-19,23.2056
2003-11-20,23.1441
2003-11-21,23.396
2003-11-24,24.0842
2003-11-25,24.1947
2003-11-26,24.2009
2003-11-28,24.1886
2003-12-01,24.3176
2003-12-02,24.2746
2003-12-03,24.1579
2003-12-04,24.1456
2003-12-05,23.9429
2003-12-08,23.9244
2003-12-09,23.8015
2003-12-10,23.7339
2003-12-11,23.8569
2003-12-12,23.9183
2003-12-15,23.9121
2003-12-16,23.783
2003-12-17,23.9552
2003-12-18,23.9613
2003-12-19,23.9674
2003-12-22,24.0227
2003-12-23,24.0043
2003-12-24,23.9429
2003-12-26,24.0227
2003-12-29,24.3791
2003-12-30,24.7354
2003-12-31,24.6248
2004-01-02,24.7538
2004-01-05,24.6985
2004-01-06,24.3913
2004-01-07,24.0657
2004-01-08,24.1763
2004-01-09,24.0534
2004-01-12,24.0534
2004-01-13,24.0965
2004-01-14,24.3299
2004-01-15,24.1517
2004-01-16,24.035
2004-01-20,23.8999
2004-01-21,24.1456
2004-01-22,24.1456
2004-01-23,23.8569
2004-01-26,23.4513
2004-01-27,23.5803
2004-01-28,24.1395
2004-01-29,24.3445
2004-01-30,24.3134
2004-02-02,24.2575
2004-02-03,24.1642
2004-02-04,23.5924
2004-02-05,23.2319
2004-02-06,23.2258
2004-02-09,23.1698
2004-02-10,23.1823
2004-02-11,23.3625
2004-02-12,23.263
2004-02-13,23.3314
2004-02-17,23.5179
2004-02-18,24.0337
2004-02-19,23.897
2004-02-20,23.5675
2004-02-23,23.6111
2004-02-24,23.58
2004-02-25,23.6484
2004-02-26,23.8721
2004-02-27,24.2387
2004-03-01,24.4439
2004-03-02,24.1642
2004-03-03,24.1145
2004-03-04,24.2947
2004-03-05,24.5868
2004-03-08,24.4066
2004-03-09,24.2512
2004-03-10,23.841
2004-03-11,23.6546
2004-03-12,23.8845
2004-03-15,23.7726
2004-03-16,23.754
2004-03-17,24.2512
2004-03-18,24.214
2004-03-19,24.1145
2004-03-22,23.8224
2004-03-23,23.8472
2004-03-24,23.7665
2004-03-25,23.7665
2004-03-26,23.6546
2004-03-29,23.9964
2004-03-30,24.2823
2004-03-31,24.4563
2004-04-01,24.6117
2004-04-02,24.5122
2004-04-05,24.5496
2004-04-06,24.5745
2004-04-07,24.4812
2004-04-08,24.4377
2004-04-12,24.0212
2004-04-13,23.7851
2004-04-14,23.6297
2004-04-15,23.9902
2004-04-16,24.4874
2004-04-19,24.475
2004-04-20,24.2512
2004-04-21,24.3631
2004-04-22,24.5682
2004-04-23,24.8292
2004-04-26,24.562
2004-04-27,24.6738
2004-04-28,24.8043
2004-04-29,24.3771
2004-04-30,24.5468
2004-05-03,24.4902
2004-05-04,24.5468
2004-05-05,24.2765
2004-05-06,24.4022
2004-05-07,23.893
2004-05-10,23.4845
2004-05-11,23.2016
2004-05-12,23.3713
2004-05-13,23.5473
2004-05-14,23.7296
2004-05-17,23.6793
2004-05-18,23.6919
2004-05-19,23.7736
2004-05-20,24.069
2004-05-21,23.9684
2004-05-24,24.2953
2004-05-25,24.6788
2004-05-26,24.9302
2004-05-27,24.9993
2004-05-28,25.3262
2004-06-01,25.1439
2004-06-02,25.1125
2004-06-03,24.9993
2004-06-04,24.9491
2004-06-07,25.5337
2004-06-08,25.2319
2004-06-09,25.1125
2004-06-10,25.3011
2004-06-14,25.0937
2004-06-15,25.5274
2004-06-16,25.5526
2004-06-17,25.5965
2004-06-18,25.716
2004-06-21,25.8417
2004-06-22,25.6971
2004-06-23,25.7537
2004-06-24,25.7349
2004-06-25,25.452
2004-06-28,25.5965
2004-06-29,25.2319
2004-06-30,25.3766
2004-07-01,25.2445
2004-07-02,25.496
2004-07-06,25.5526
2004-07-07,25.584
2004-07-08,25.5526
2004-07-09,25.5337
2004-07-12,25.5462
2004-07-13,25.408
2004-07-14,25.4582
2004-07-15,25.4206
2004-07-16,25.5902
2004-07-19,25.7537
2004-07-20,25.7663
2004-07-21,25.4206
2004-07-22,25.3137
2004-07-23,25.1817
2004-07-26,25.0999
2004-07-27,25.0623
2004-07-28,25.3137
2004-07-29,25.4599
2004-07-30,25.765
2004-08-02,25.7905
2004-08-03,25.9366
2004-08-04,26.191
2004-08-05,26.0574
2004-08-06,26.102
2004-08-09,26.1719
2004-08-10,26.3118
2004-08-11,26.3563
2004-08-12,26.6995
2004-08-13,26.8013
2004-08-16,26.9665
2004-08-17,26.7631
2004-08-18,27.1763
2004-08-19,26.3499
2004-08-20,26.3118
2004-08-23,26.2482
2004-08-24,26.0574
2004-08-25,26.28
2004-08-26,26.4261
2004-08-27,26.4071
2004-08-30,26.636
2004-08-31,26.833
2004-09-01,26.9411
2004-09-02,26.8458
2004-09-03,26.6423
2004-09-07,26.7376
2004-09-08,26.6868
2004-09-09,26.6677
2004-09-10,26.6614
2004-09-13,26.6677
2004-09-14,26.6614
2004-09-15,26.4961
2004-09-16,26.6868
2004-09-17,26.5406
2004-09-20,26.6677
2004-09-21,26.7885
2004-09-22,26.5914
2004-09-23,26.28
2004-09-24,26.2418
2004-09-27,26.2482
2004-09-28,26.4516
2004-09-29,26.2545
2004-09-30,26.3689
2004-10-01,26.636
2004-10-04,26.7631
2004-10-05,26.8394
2004-10-06,26.8966
2004-10-07,26.8458
2004-10-08,26.9284
2004-10-11,26.8902
2004-10-12,27.0809
2004-10-13,26.7503
2004-10-14,26.744
2004-10-15,27.0301
2004-10-18,26.8521
2004-10-19,26.8139
2004-10-20,26.7948
2004-10-21,26.8458
2004-10-22,26.7631
2004-10-25,26.8458
2004-10-26,27.0682
2004-10-27,27.3734
2004-10-28,27.441
2004-10-29,27.396
2004-11-01,27.4281
2004-11-02,27.1582
2004-11-03,27.7752
2004-11-04,28.4181
2004-11-05,28.2059
2004-11-08,28.5466
2004-11-09,28.5787
2004-11-10,28.4823
2004-11-11,28.823
2004-11-12,29.0544
2004-11-15,28.8166
2004-11-16,28.868
2004-11-17,28.7201
2004-11-18,28.7973
2004-11-19,28.5273
2004-11-22,29.048
2004-11-23,28.9645
2004-11-24,29.0609
2004-11-26,29.1894
2004-11-29,28.8552
2004-11-30,28.3794
2004-12-01,28.1416
2004-12-02,28.116
2004-12-03,28.1802
2004-12-06,28.3409
2004-12-07,28.0323
2004-12-08,27.8266
2004-12-09,27.8395
2004-12-10,27.7816
2004-12-13,28.1481
2004-12-14,28.3023
2004-12-15,28.4052
2004-12-16,28.4437
2004-12-17,28.3667
2004-12-20,28.2959
2004-12-21,28.4437
2004-12-22,28.6495
2004-12-23,28.5273
2004-12-27,28.2766
2004-12-28,28.4566
2004-12-29,28.6173
2004-12-30,28.7394
2004-12-31,28.6045
2005-01-03,28.3667
2005-01-04,28.3345
2005-01-05,27.7302
2005-01-06,27.441
2005-01-07,27.6467
2005-01-10,27.6981
2005-01-11,27.5245
2005-01-12,27.4089
2005-01-13,27.3574
2005-01-14,27.3703
2005-01-18,27.3639
2005-01-19,27.3252
2005-01-20,27.2096
2005-01-21,27.1196
2005-01-24,27.3639
2005-01-25,26.9975
2005-01-26,27.2224
2005-01-27,27.4024
2005-01-28,27.2884
2005-01-31,27.1324
2005-02-01,26.9179
2005-02-02,27.0739
2005-02-03,26.9438
2005-02-04,27.1909
2005-02-07,27.1389
2005-02-08,27.2104
2005-02-09,27.1324
2005-02-10,27.1259
2005-02-11,27.2039
2005-02-14,27.3339
2005-02-15,27.2949
2005-02-16,27.3468
2005-02-17,27.3143
2005-02-18,27.2624
2005-02-22,26.7098
2005-02-23,26.6513
2005-02-24,26.8854
2005-02-25,27.2949
2005-02-28,27.1714
2005-03-01,27.4509
2005-03-02,27.5159
2005-03-03,27.6068
2005-03-04,27.9124
2005-03-07,28.0684
2005-03-08,27.8539
2005-03-09,27.2039
2005-03-10,27.5743
2005-03-11,27.4574
2005-03-14,27.9579
2005-03-15,27.7759
2005-03-16,27.4314
2005-03-17,27.5679
2005-03-18,27.4899
2005-03-21,27.5679
2005-03-22,27.2299
2005-03-23,27.2754
2005-03-24,27.4054
2005-03-28,27.3729
2005-03-29,27.1454
2005-03-30,27.3404
2005-03-31,27.6654
2005-04-01,27.6329
2005-04-04,27.8084
2005-04-05,27.997
2005-04-06,27.9189
2005-04-07,28.1464
2005-04-08,28.1009
2005-04-11,28.3349
2005-04-12,28.5754
2005-04-13,28.5039
2005-04-14,28.1789
2005-04-15,27.6914
2005-04-18,27.8149
2005-04-19,27.9384
2005-04-20,27.5614
2005-04-21,27.5289
2005-04-22,27.6719
2005-04-25,27.932
2005-04-26,27.6979
2005-04-27,27.6068
2005-04-28,27.4063
2005-04-29,27.5444
2005-05-02,27.735
2005-05-03,27.7087
2005-05-04,27.735
2005-05-05,27.6627
2005-05-06,27.8928
2005-05-09,28.2675
2005-05-10,28.1821
2005-05-11,28.3595
2005-05-12,27.9782
2005-05-13,27.5839
2005-05-16,28.0835
2005-05-17,28.3135
2005-05-18,28.3266
2005-05-19,28.6028
2005-05-20,28.6159
2005-05-23,28.4648
2005-05-24,28.4581
2005-05-25,28.399
2005-05-26,28.5502
2005-05-27,28.8329
2005-05-31,28.9972
2005-06-01,29.4245
2005-06-02,29.3062
2005-06-03,29.293
2005-06-06,29.3456
2005-06-07,29.477
2005-06-08,29.5166
2005-06-09,29.5626
2005-06-10,29.2799
2005-06-13,29.1944
2005-06-14,29.2667
2005-06-15,29.0432
2005-06-16,29.0301
2005-06-17,29.3325
2005-06-20,29.2733
2005-06-21,29.2536
2005-06-22,29.4113
2005-06-23,29.3522
2005-06-24,29.0695
2005-06-27,29.247
2005-06-28,29.602
2005-06-29,29.4048
2005-06-30,29.1878
2005-07-01,29.4902
2005-07-05,29.4837
2005-07-06,28.9644
2005-07-07,29.2207
2005-07-08,29.5099
2005-07-11,29.6349
2005-07-12,29.4573
2005-07-13,29.6809
2005-07-14,29.5099
2005-07-15,29.4968
2005-07-18,30.0162
2005-07-19,30.0556
2005-07-20,30.0227
2005-07-21,29.7335
2005-07-22,29.9438
2005-07-25,29.8321
2005-07-26,29.9109
2005-07-27,29.9767
2005-07-28,30.0198
2005-07-29,30.3853
2005-08-01,30.3919
2005-08-02,30.7971
2005-08-03,30.8037
2005-08-04,30.4782
2005-08-05,30.0331
2005-08-08,29.4619
2005-08-09,29.5283
2005-08-10,29.5349
2005-08-11,29.6479
2005-08-12,29.5482
2005-08-15,29.6412
2005-08-16,29.2094
2005-08-17,29.0833
2005-08-18,29.515
2005-08-19,29.5948
2005-08-22,29.7608
2005-08-23,30.0331
2005-08-24,29.7608
2005-08-25,29.9468
2005-08-26,29.8272
2005-08-29,29.6545
2005-08-30,29.4088
2005-08-31,29.8471
2005-09-01,30.0531
2005-09-02,30.1262
2005-09-06,30.2989
2005-09-07,30.2922
2005-09-08,30.0399
2005-09-09,30.5182
2005-09-12,30.4849
2005-09-13,30.2989
2005-09-14,30.1394
2005-09-15,30.1262
2005-09-16,30.3254
2005-09-19,29.5415
2005-09-20,29.4752
2005-09-21,29.05
2005-09-22,28.7311
2005-09-23,29.2427
2005-09-26,29.2293
2005-09-27,29.3688
2005-09-28,29.0965
2005-09-29,29.4884
2005-09-30,29.329
2005-10-03,29.7343
2005-10-04,29.4752
2005-10-05,28.9836
2005-10-06,28.1864
2005-10-07,28.5518
2005-10-10,28.2661
2005-10-11,28.3658
2005-10-12,27.8144
2005-10-13,27.1169
2005-10-14,27.0438
2005-10-17,27.3161
2005-10-18,27.1169
2005-10-19,26.9242
2005-10-20,26.4924
2005-10-21,26.798
2005-10-24,27.6084
2005-10-25,27.6749
2005-10-26,27.4756
2005-10-27,26.9043
2005-10-28,27.4827
2005-10-31,28.0745
2005-11-01,27.6038
2005-11-02,27.8728
2005-11-03,27.2203
2005-11-04,27.4289
2005-11-07,27.0186
2005-11-08,27.2943
2005-11-09,27.6374
2005-11-10,27.6912
2005-11-11,27.5836
2005-11-14,27.5836
2005-11-15,27.5836
2005-11-16,27.6172
2005-11-17,27.9333
2005-11-18,28.1149
2005-11-21,28.1956
2005-11-22,28.0477
2005-11-23,28.0745
2005-11-25,28.1486
2005-11-28,28.0611
2005-11-29,28.1754
2005-11-30,27.8526
2005-12-01,28.2225
2005-12-02,27.9602
2005-12-05,28.283
2005-12-06,28.0948
2005-12-07,27.8458
2005-12-08,28.1283
2005-12-09,28.4445
2005-12-12,28.2562
2005-12-13,28.5387
2005-12-14,28.7741
2005-12-15,28.9086
2005-12-16,29.0431
2005-12-19,28.6799
2005-12-20,28.8077
2005-12-21,28.5992
2005-12-22,28.579
2005-12-23,28.6328
2005-12-27,28.5117
2005-12-28,28.2427
2005-12-29,28.0543
2005-12-30,27.8593
2006-01-03,28.5454
2006-01-04,28.6261
2006-01-05,28.4849
2006-01-06,28.7741
2006-01-09,28.5454
2006-01-10,28.4714
2006-01-11,28.283
2006-01-12,28.1082
2006-01-13,28.0611
2006-01-17,28.4109
2006-01-18,28.6395
2006-01-19,29.1978
2006-01-20,28.9153
2006-01-23,29.2113
2006-01-24,29.5206
2006-01-25,29.5072
2006-01-26,29.3324
2006-01-27,29.2987
2006-01-30,28.9657
2006-01-31,28.993
2006-02-01,28.7616
2006-02-02,28.3534
2006-02-03,28.0608
2006-02-06,28.0336
2006-02-07,28.2717
2006-02-08,28.2445
2006-02-09,28.3874
2006-02-10,28.4078
2006-02-13,28.4146
2006-02-14,28.0812
2006-02-15,28.0064
2006-02-16,28.054
2006-02-17,28.3738
2006-02-21,28.2513
2006-02-22,28.4419
2006-02-23,28.2717
2006-02-24,28.088
2006-02-27,28.0812
2006-02-28,27.9043
2006-03-01,27.7069
2006-03-02,27.3395
2006-03-03,27.1899
2006-03-06,26.6591
2006-03-07,26.5434
2006-03-08,27.0062
2006-03-09,26.8565
2006-03-10,26.9517
2006-03-13,26.836
2006-03-14,26.9517
2006-03-15,27.047
2006-03-16,27.3872
2006-03-17,27.2511
2006-03-20,27.0742
2006-03-21,27.115
2006-03-22,27.2783
2006-03-23,27.2374
2006-03-24,27.1626
2006-03-27,27.1626
2006-03-28,27.0606
2006-03-29,27.1899
2006-03-30,26.7544
2006-03-31,26.6182
2006-04-03,26.557
2006-04-04,27.1626
2006-04-05,27.5981
2006-04-06,27.1695
2006-04-07,26.9517
2006-04-10,26.9654
2006-04-11,26.6455
2006-04-12,26.768
2006-04-13,26.7271
2006-04-17,26.8292
2006-04-18,27.2239
2006-04-19,27.2511
2006-04-20,27.2783
2006-04-21,27.3532
2006-04-24,27.8839
2006-04-25,27.6049
2006-04-26,27.4552
2006-04-27,27.4277
2006-04-28,27.5931
2006-05-01,27.29
2006-05-02,27.7447
2006-05-03,27.6
2006-05-04,27.6206
2006-05-05,27.8686
2006-05-08,27.8067
2006-05-09,27.2762
2006-05-10,27.5793
2006-05-11,27.283
2006-05-12,27.097
2006-05-15,27.2142
2006-05-16,27.104
2006-05-17,26.8697
2006-05-18,26.8973
2006-05-19,27.097
2006-05-22,27.3726
2006-05-23,26.8077
2006-05-24,26.6836
2006-05-25,26.8903
2006-05-26,26.9592
2006-05-30,26.7732
2006-05-31,27.1384
2006-06-01,27.4484
2006-06-02,27.7792
2006-06-05,27.4967
2006-06-06,27.3588
2006-06-07,27.4553
2006-06-08,27.6758
2006-06-09,27.6689
2006-06-12,27.7585
2006-06-13,27.3658
2006-06-14,27.1591
2006-06-15,27.2486
2006-06-16,27.3864
2006-06-19,26.973
2006-06-20,27.0488
2006-06-21,26.9248
2006-06-22,26.9592
2006-06-23,26.9524
2006-06-26,27.104
2006-06-27,27.0833
2006-06-28,27.2417
2006-06-29,27.5242
2006-06-30,27.5035
2006-07-03,27.7998
2006-07-05,27.848
2006-07-06,27.9031
2006-07-07,28.2407
2006-07-10,28.3716
2006-07-11,28.6679
2006-07-12,28.4819
2006-07-13,28.4336
2006-07-14,28.0616
2006-07-17,28.2683
2006-07-18,28.2339
2006-07-19,28.4612
2006-07-20,28.6472
2006-07-21,29.1709
2006-07-24,29.598
2006-07-25,30.2525
2006-07-26,30.1285
2006-07-27,29.9632
2006-07-28,30.193
2006-07-31,30.0189
2006-08-01,30.3325
2006-08-02,30.3116
2006-08-03,30.2558
2006-08-04,30.4092
2006-08-07,30.3673
2006-08-08,30.3254
2006-08-09,30.4719
2006-08-10,30.5764
2006-08-11,30.4092
2006-08-14,30.6043
2006-08-15,30.7367
2006-08-16,30.5415
2006-08-17,30.6879
2006-08-18,31.2664
2006-08-21,31.817
2006-08-22,31.803
2006-08-23,31.4336
2006-08-24,31.601
2006-08-25,31.587
2006-08-28,31.6985
2006-08-29,31.817
2006-08-30,31.5452
2006-08-31,32.0122
2006-09-01,31.8519
2006-09-05,31.5034
2006-09-06,31.4825
2006-09-07,31.3082
2006-09-08,31.3013
2006-09-11,31.4616
2006-09-12,31.12
2006-09-13,31.0782
2006-09-14,31.0922
2006-09-15,31.148
2006-09-18,30.9737
2006-09-19,31.0782
2006-09-20,31.1758
2006-09-21,31.1689
2006-09-22,31.1549
2006-09-25,31.6358
2006-09-26,31.3918
2006-09-27,31.9634
2006-09-28,31.8658
2006-09-29,31.3989
2006-10-02,31.7612
2006-10-03,31.9843
2006-10-04,32.1933
2006-10-05,32.1933
2006-10-06,31.9913
2006-10-09,31.9355
2006-10-10,32.0261
2006-10-11,32.1097
2006-10-12,32.1933
2006-10-13,32.0261
2006-10-16,32.284
2006-10-17,32.737
2006-10-18,33.0019
2006-10-19,33.4061
2006-10-20,33.3504
2006-10-23,33.6222
2006-10-24,33.6849
2006-10-25,33.8661
2006-10-26,33.6013
2006-10-27,33.4967
2006-10-30,33.7044
2006-10-31,33.6763
2006-11-01,33.8453
2006-11-02,33.7327
2006-11-03,33.5212
2006-11-06,33.5071
2006-11-07,33.5565
2006-11-08,33.5565
2006-11-09,33.4931
2006-11-10,33.6763
2006-11-13,33.789
2006-11-14,33.634
2006-11-15,33.6481
2006-11-16,33.8313
2006-11-17,33.8947
2006-11-20,33.7679
2006-11-21,33.7749
2006-11-22,33.8172
2006-11-24,33.7819
2006-11-27,33.7749
2006-11-28,33.9934
2006-11-29,34.5289
2006-11-30,34.7403
2006-12-01,34.7896
2006-12-04,35.1561
2006-12-05,35.2054
2006-12-06,35.0504
2006-12-07,34.6416
2006-12-08,34.5571
2006-12-11,34.5641
2006-12-12,34.9024
2006-12-13,35.1702
2006-12-14,35.3886
2006-12-15,35.4097
2006-12-18,35.2336
2006-12-19,35.6634
2006-12-20,35.6282
2006-12-21,35.4238
2006-12-22,35.4732
2006-12-26,35.7621
2006-12-27,35.896
2006-12-28,35.6
2006-12-29,35.6353
2007-01-03,36.3188
2007-01-04,36.3469
2007-01-05,35.5648
2007-01-08,35.6846
2007-01-09,35.3182
2007-01-10,35.4872
2007-01-11,35.4168
2007-01-12,35.1561
2007-01-16,35.149
2007-01-17,35.1278
2007-01-18,35.1278
2007-01-19,35.5506
2007-01-22,35.748
2007-01-23,35.8326
2007-01-24,36.1708
2007-01-25,35.6212
2007-01-26,35.6564
2007-01-29,35.7621
2007-01-30,34.9682
2007-01-31,34.6976
2007-02-01,34.4128
2007-02-02,34.6762
2007-02-05,34.4911
2007-02-06,34.6264
2007-02-07,34.4484
2007-02-08,34.3771
2007-02-09,34.3344
2007-02-12,34.1279
2007-02-13,34.1992
2007-02-14,34.2205
2007-02-15,34.1778
2007-02-16,34.2846
2007-02-20,34.4555
2007-02-21,34.2276
2007-02-22,34.1138
2007-02-23,34.1565
2007-02-26,34.605
2007-02-27,33.8218
2007-02-28,33.779
2007-03-01,34.0852
2007-03-02,33.6224
2007-03-05,33.2522
2007-03-06,33.5227
2007-03-07,33.2592
2007-03-08,33.1382
2007-03-09,33.3376
2007-03-12,33.8574
2007-03-13,33.3376
2007-03-14,33.6011
2007-03-15,33.7933
2007-03-16,33.4516
2007-03-19,33.6011
2007-03-20,34.1992
2007-03-21,34.4627
2007-03-22,34.1279
2007-03-23,34.4697
2007-03-26,34.3416
2007-03-27,34.5195
2007-03-28,34.4697
2007-03-29,34.6549
2007-03-30,34.3273
2007-04-02,35.0821
2007-04-03,35.0749
2007-04-04,35.1533
2007-04-05,35.253
2007-04-09,35.31
2007-04-10,35.4595
2007-04-11,34.9112
2007-04-12,34.9397
2007-04-13,34.9824
2007-04-16,34.9468
2007-04-17,35.0251
2007-04-18,34.9539
2007-04-19,34.6762
2007-04-20,35.1249
2007-04-23,35.4168
2007-04-24,35.6589
2007-04-25,35.9579
2007-04-26,35.6161
2007-04-27,35.3605
2007-04-30,34.7632
2007-05-01,35.1086
2007-05-02,35.2885
2007-05-03,35.1662
2007-05-04,35.2309
2007-05-07,35.3965
2007-05-08,35.3965
2007-05-09,35.2022
2007-05-10,34.8064
2007-05-11,35.0654
2007-05-14,35.1734
2007-05-15,35.051
2007-05-16,35.0438
2007-05-17,34.9503
2007-05-18,34.8856
2007-05-21,35.0222
2007-05-22,34.8999
2007-05-23,33.4751
2007-05-24,32.8347
2007-05-25,32.662
2007-05-29,32.9067
2007-05-30,33.1586
2007-05-31,33.396
2007-06-01,33.2737
2007-06-04,32.9715
2007-06-05,32.6692
2007-06-06,32.331
2007-06-07,31.0718
2007-06-08,31.1005
2007-06-11,31.3667
2007-06-12,30.9422
2007-06-13,31.3811
2007-06-14,31.4747
2007-06-15,31.6833
2007-06-18,31.2588
2007-06-19,31.2372
2007-06-20,30.4385
2007-06-21,30.0355
2007-06-22,29.6181
2007-06-25,29.3375
2007-06-26,29.2727
2007-06-27,29.1936
2007-06-28,29.1361
2007-06-29,28.6323
2007-07-02,29.172
2007-07-03,29.4599
2007-07-05,29.1288
2007-07-06,28.7763
2007-07-09,28.7042
2007-07-10,28.2869
2007-07-11,28.4165
2007-07-12,28.8914
2007-07-13,29.2512
2007-07-16,28.7042
2007-07-17,28.7907
2007-07-18,28.7834
2007-07-19,29.208
2007-07-20,28.6179
2007-07-23,28.8482
2007-07-24,28.0206
2007-07-25,28.2798
2007-07-26,28.0854
2007-07-27,27.5818
2007-07-30,27.5276
2007-07-31,27.3234
2007-08-01,28.1404
2007-08-02,28.0602
2007-08-03,27.068
2007-08-06,28.104
2007-08-07,28.9576
2007-08-08,29.6215
2007-08-09,29.7456
2007-08-10,29.6143
2007-08-13,28.7825
2007-08-14,28.4031
2007-08-15,28.0383
2007-08-16,29.0962
2007-08-17,29.7382
2007-08-20,29.2203
2007-08-21,28.8482
2007-08-22,29.0452
2007-08-23,29.0379
2007-08-24,29.1181
2007-08-27,28.3302
2007-08-28,28.2864
2007-08-29,28.9503
2007-08-30,28.7752
2007-08-31,29.0817
2007-09-04,29.5486
2007-09-05,29.1765
2007-09-06,29.3735
2007-09-07,29.0305
2007-09-10,29.1838
2007-09-11,29.2275
2007-09-12,29.2275
2007-09-13,29.0962
2007-09-14,29.14
2007-09-17,28.9867
2007-09-18,29.3443
2007-09-19,29.3954
2007-09-20,29.1838
2007-09-21,29.1692
2007-09-24,29.0452
2007-09-25,28.9431
2007-09-26,29.1473
2007-09-27,29.067
2007-09-28,28.8117
2007-10-01,29.3225
2007-10-02,29.4538
2007-10-03,29.6726
2007-10-04,29.7382
2007-10-05,30.0009
2007-10-08,30.052
2007-10-09,30.3658
2007-10-10,30.3877
2007-10-11,30.643
2007-10-12,30.7014
2007-10-15,30.57
2007-10-16,30.5335
2007-10-17,30.3803
2007-10-18,30.4096
2007-10-19,29.6581
2007-10-22,29.6143
2007-10-23,29.3662
2007-10-24,29.3954
2007-10-25,30.1833
2007-10-26,30.0666
2007-10-29,30.0812
2007-10-30,30.1146
2007-10-31,29.8263
2007-11-01,29.176
2007-11-02,29.139
2007-11-05,31.2083
2007-11-06,31.0309
2007-11-07,30.3141
2007-11-08,30.6762
2007-11-09,30.8461
2007-11-12,30.7944
2007-11-13,31.4004
2007-11-14,31.2231
2007-11-15,31.5482
2007-11-16,31.696
2007-11-19,31.4447
2007-11-20,31.7773
2007-11-21,31.8956
2007-11-23,31.9103
2007-11-26,31.5187
2007-11-27,31.1713
2007-11-28,31.6221
2007-11-29,31.4891
2007-11-30,31.696
2007-12-03,31.7921
2007-12-04,32.2356
2007-12-05,32.5532
2007-12-06,32.6346
2007-12-07,32.5829
2007-12-10,32.7011
2007-12-11,32.036
2007-12-12,32.0433
2007-12-13,32.2946
2007-12-14,31.5851
2007-12-17,31.2231
2007-12-18,31.3413
2007-12-19,31.3191
2007-12-20,31.356
2007-12-21,31.8142
2007-12-24,31.9325
2007-12-26,31.8881
2007-12-27,31.4596
2007-12-28,31.393
2007-12-31,31.3043
2008-01-02,30.824
2008-01-03,30.7279
2008-01-04,30.3954
2008-01-07,31.0087
2008-01-08,30.6762
2008-01-09,31.2822
2008-01-10,31.4447
2008-01-11,31.26
2008-01-14,31.297
2008-01-15,31.0309
2008-01-16,30.8314
2008-01-17,30.0481
2008-01-18,29.5233
2008-01-22,28.8213
2008-01-23,29.8411
2008-01-24,29.3459
2008-01-25,28.6587
2008-01-28,28.9174
2008-01-29,29.1465
2008-01-30,28.4003
2008-01-31,28.7074
2008-02-01,28.625
2008-02-04,29.2018
2008-02-05,28.3854
2008-02-06,28.318
2008-02-07,27.9959
2008-02-08,27.891
2008-02-11,27.7487
2008-02-12,28.1756
2008-02-13,27.509
2008-02-14,27.4566
2008-02-15,27.4267
2008-02-19,27.7113
2008-02-20,27.6364
2008-02-21,27.2769
2008-02-22,27.5166
2008-02-25,27.6513
2008-02-26,27.8461
2008-02-27,27.7113
2008-02-28,27.5315
2008-02-29,26.6852
2008-03-03,26.7901
2008-03-04,26.8425
2008-03-05,26.6777
2008-03-06,25.9662
2008-03-07,26.0637
2008-03-10,26.0187
2008-03-11,26.5878
2008-03-12,26.1685
2008-03-13,26.1385
2008-03-14,25.9662
2008-03-17,26.2283
2008-03-18,26.7376
2008-03-19,26.528
2008-03-20,26.8575
2008-03-24,26.7901
2008-03-25,26.6029
2008-03-26,26.5354
2008-03-27,26.4455
2008-03-28,26.0637
2008-03-31,26.2359
2008-04-01,26.9174
2008-04-02,27.3069
2008-04-03,27.2844
2008-04-04,27.3143
2008-04-07,27.3743
2008-04-08,27.6065
2008-04-09,27.5465
2008-04-10,27.247
2008-04-11,27.0373
2008-04-14,27.0672
2008-04-15,27.2619
2008-04-16,27.5166
2008-04-17,27.4342
2008-04-18,27.1196
2008-04-21,26.8351
2008-04-22,26.483
2008-04-23,26.4306
2008-04-24,26.4081
2008-04-25,26.4606
2008-04-28,26.5354
2008-04-29,25.8936
2008-04-30,25.7719
2008-05-01,26.4333
2008-05-02,26.2965
2008-05-05,25.6731
2008-05-06,25.9772
2008-05-07,25.2626
2008-05-08,25.4907
2008-05-09,25.6351
2008-05-12,26.0381
2008-05-13,25.7264
2008-05-14,25.8708
2008-05-15,25.7112
2008-05-16,25.9849
2008-05-19,26.1521
2008-05-20,26.0077
2008-05-21,25.8632
2008-05-22,26.1977
2008-05-23,25.8556
2008-05-27,26.0305
2008-05-28,25.9164
2008-05-29,25.7719
2008-05-30,25.6351
2008-06-02,25.3007
2008-06-03,25.0802
2008-06-04,25.0726
2008-06-05,25.1106
2008-06-06,24.6544
2008-06-09,24.9205
2008-06-10,24.9357
2008-06-11,24.8293
2008-06-12,24.8977
2008-06-13,24.8597
2008-06-16,24.7533
2008-06-17,24.6848
2008-06-18,24.7457
2008-06-19,24.7836
2008-06-20,24.4416
2008-06-23,24.4796
2008-06-24,24.3656
2008-06-25,24.5556
2008-06-26,24.0766
2008-06-27,23.6282
2008-06-30,23.438
2008-07-01,23.7878
2008-07-02,23.5293
2008-07-03,23.4152
2008-07-07,23.3316
2008-07-08,23.8334
2008-07-09,24.3656
2008-07-10,24.6393
2008-07-11,24.3579
2008-07-14,23.8866
2008-07-15,23.7802
2008-07-16,23.6357
2008-07-17,23.7497
2008-07-18,23.8486
2008-07-21,24.5328
2008-07-22,24.7457
2008-07-23,24.1831
2008-07-24,24.3047
2008-07-25,23.8638
2008-07-28,24.2135
2008-07-29,24.3884
2008-07-30,25.0952
2008-07-31,25.9531
2008-08-01,25.4816
2008-08-04,25.3811
2008-08-05,25.9917
2008-08-06,25.8062
2008-08-07,25.7444
2008-08-08,26.7878
2008-08-11,27.0505
2008-08-12,27.0196
2008-08-13,26.9423
2008-08-14,26.7337
2008-08-15,27.0505
2008-08-18,27.1664
2008-08-19,27.0273
2008-08-20,27.0427
2008-08-21,27.12
2008-08-22,27.2591
2008-08-25,26.9577
2008-08-26,27.0582
2008-08-27,27.6069
2008-08-28,27.8311
2008-08-29,27.2437
2008-09-02,26.6409
2008-09-03,26.5405
2008-09-04,26.3859
2008-09-05,26.5791
2008-09-08,27.4215
2008-09-09,27.3519
2008-09-10,27.236
2008-09-11,27.7461
2008-09-12,27.7074
2008-09-15,28.233
2008-09-16,27.9857
2008-09-17,26.8341
2008-09-18,27.2823
2008-09-19,27.3519
2008-09-22,26.5405
2008-09-23,27.0582
2008-09-24,27.12
2008-09-25,27.6456
2008-09-26,27.5374
2008-09-29,26.7413
2008-09-30,26.5018
2008-10-01,27.3442
2008-10-02,27.2746
2008-10-03,26.8495
2008-10-06,26.2236
2008-10-07,25.2652
2008-10-08,25.2188
2008-10-09,23.8585
2008-10-10,22.336
2008-10-13,24.2914
2008-10-14,24.0208
2008-10-15,22.9775
2008-10-16,23.5339
2008-10-17,23.7426
2008-10-20,25.8449
2008-10-21,24.6314
2008-10-22,23.6421
2008-10-23,24.2218
2008-10-24,22.6374
2008-10-27,21.8259
2008-10-28,23.4566
2008-10-29,23.9358
2008-10-30,25.1084
2008-10-31,24.8332
2008-11-03,25.6195
2008-11-04,25.7611
2008-11-05,23.7716
2008-11-06,23.0718
2008-11-07,23.8581
2008-11-10,23.5435
2008-11-11,23.7952
2008-11-12,22.8437
2008-11-13,22.9695
2008-11-14,22.9617
2008-11-17,22.883
2008-11-18,22.6707
2008-11-19,22.3955
2008-11-20,21.1609
2008-11-21,22.7729
2008-11-24,22.8673
2008-11-25,23.1032
2008-11-26,23.1111
2008-11-28,23.9053
2008-12-01,22.5449
2008-12-02,22.8673
2008-12-03,23.52
2008-12-04,22.7887
2008-12-05,23.6772
2008-12-08,24.0547
2008-12-09,23.7952
2008-12-10,24.212
2008-12-11,23.457
2008-12-12,23.3313
2008-12-15,23.1739
2008-12-16,24.6052
2008-12-17,24.1097
2008-12-18,23.9289
2008-12-19,23.6144
2008-12-22,24.0704
2008-12-23,23.9761
2008-12-24,24.1648
2008-12-26,24.385
2008-12-29,24.2827
2008-12-30,25.132
2008-12-31,25.3208
2009-01-02,25.9577
2009-01-05,26.4374
2009-01-06,25.7532
2009-01-07,25.7376
2009-01-08,25.9498
2009-01-09,25.879
2009-01-12,25.9498
2009-01-13,25.5488
2009-01-14,25.2421
2009-01-15,25.3364
2009-01-16,25.6746
2009-01-20,25.3286
2009-01-21,25.6746
2009-01-22,25.6982
2009-01-23,25.6825
2009-01-26,26.7205
2009-01-27,26.9407
2009-01-28,27.1609
2009-01-29,27.1647
2009-01-30,26.6776
2009-02-02,27.3404
2009-02-03,27.2924
2009-02-04,27.3005
2009-02-05,27.3883
2009-02-06,27.5799
2009-02-09,27.3564
2009-02-10,26.7894
2009-02-11,26.6377
2009-02-12,26.4541
2009-02-13,26.6616
2009-02-17,24.7931
2009-02-18,24.4658
2009-02-19,24.3859
2009-02-20,22.9327
2009-02-23,20.9923
2009-02-24,21.3517
2009-02-25,21.3277
2009-02-26,21.144
2009-02-27,20.9923
2009-03-02,19.9064
2009-03-03,19.052
2009-03-04,19.1478
2009-03-05,18.6527
2009-03-06,18.7486
2009-03-09,18.3334
2009-03-10,18.8524
2009-03-11,19.1159
2009-03-12,19.3394
2009-03-13,19.3874
2009-03-16,19.5231
2009-03-17,20.0661
2009-03-18,20.9604
2009-03-19,21.0722
2009-03-20,20.8965
2009-03-23,21.5912
2009-03-24,21.2957
2009-03-25,21.2479
2009-03-26,21.184
2009-03-27,21.0881
2009-03-30,20.7847
2009-03-31,21.168
2009-04-01,21.6551
2009-04-02,22.1502
2009-04-03,22.0304
2009-04-06,21.9745
2009-04-07,22.0064
2009-04-08,22.206
2009-04-09,22.2779
2009-04-13,22.0624
2009-04-14,21.8787
2009-04-15,22.198
2009-04-16,22.1821
2009-04-17,22.1102
2009-04-20,21.5513
2009-04-21,21.5194
2009-04-22,21.3996
2009-04-23,21.7988
2009-04-24,21.8308
2009-04-27,21.7909
2009-04-28,21.5912
2009-04-29,22.32
2009-04-30,22.3364
2009-05-01,22.4992
2009-05-04,22.6702
2009-05-05,23.0855
2009-05-06,22.947
2009-05-07,22.9063
2009-05-08,22.8167
2009-05-11,22.5318
2009-05-12,22.5399
2009-05-13,22.0188
2009-05-14,21.8233
2009-05-15,21.237
2009-05-18,21.408
2009-05-19,21.465
2009-05-20,20.9682
2009-05-21,20.8787
2009-05-22,21.3022
2009-05-26,22.3607
2009-05-27,22.1816
2009-05-28,22.3038
2009-05-29,22.4748
2009-06-01,22.9878
2009-06-02,22.6132
2009-06-03,22.548
2009-06-04,22.8656
2009-06-05,23.0447
2009-06-08,22.8901
2009-06-09,22.9959
2009-06-10,23.1181
2009-06-11,23.6962
2009-06-12,24.1685
2009-06-15,23.6229
2009-06-16,23.46
2009-06-17,23.5333
2009-06-18,23.9975
2009-06-19,23.5903
2009-06-22,23.8428
2009-06-23,23.7776
2009-06-24,23.7287
2009-06-25,24.1685
2009-06-26,24.2662
2009-06-29,24.6407
2009-06-30,24.5268
2009-07-01,24.9421
2009-07-02,24.4046
2009-07-06,24.6815
2009-07-07,24.2255
2009-07-08,24.0056
2009-07-09,23.8264
2009-07-10,24.0219
2009-07-13,24.2988
2009-07-14,24.5349
2009-07-15,24.999
2009-07-16,25.1212
2009-07-17,24.8036
2009-07-20,24.8444
2009-07-21,25.2515
2009-07-22,25.0479
2009-07-23,25.96
2009-07-24,26.416
2009-07-27,26.416
2009-07-28,26.3589
2009-07-29,26.245
2009-07-30,26.621
2009-07-31,26.4472
2009-08-03,26.4472
2009-08-04,26.3727
2009-08-05,26.3147
2009-08-06,26.3893
2009-08-07,26.7286
2009-08-10,26.8446
2009-08-11,26.8528
2009-08-12,27.0018
2009-08-13,27.0432
2009-08-14,27.0515
2009-08-17,26.7452
2009-08-18,26.7121
2009-08-19,26.9853
2009-08-20,27.0681
2009-08-21,27.6309
2009-08-24,27.573
2009-08-25,27.5647
2009-08-26,27.6309
2009-08-27,27.5647
2009-08-28,27.5151
2009-08-31,27.217
2009-09-01,27.0847
2009-09-02,26.9273
2009-09-03,26.7039
2009-09-04,26.7784
2009-09-08,26.8611
2009-09-09,26.7039
2009-09-10,26.7286
2009-09-11,26.8528
2009-09-14,27.1094
2009-09-15,27.4571
2009-09-16,27.5895
2009-09-17,27.4157
2009-09-18,27.3661
2009-09-21,27.2501
2009-09-22,27.2999
2009-09-23,27.2005
2009-09-24,27.0267
2009-09-25,26.9191
2009-09-28,27.1757
2009-09-29,27.333
2009-09-30,27.1591
2009-10-01,26.5879
2009-10-02,26.1989
2009-10-05,26.9191
2009-10-06,27.0847
2009-10-07,27.0267
2009-10-08,27.1178
2009-10-09,27.5895
2009-10-12,27.722
2009-10-13,27.5399
2009-10-14,27.4819
2009-10-15,27.9207
2009-10-16,28.1442
2009-10-19,28.5332
2009-10-20,28.2269
2009-10-21,27.8545
2009-10-22,28.1442
2009-10-23,27.6971
2009-10-26,27.424
2009-10-27,27.6393
2009-10-28,27.3909
2009-10-29,26.9744
2009-10-30,26.352
2009-11-02,26.352
2009-11-03,26.7894
2009-11-04,26.9324
2009-11-05,27.4033
2009-11-06,27.6053
2009-11-09,28.2613
2009-11-10,28.337
2009-11-11,28.2529
2009-11-12,27.8324
2009-11-13,27.9585
2009-11-16,28.2361
2009-11-17,28.1183
2009-11-18,28.9426
2009-11-19,28.7071
2009-11-20,28.6146
2009-11-23,29.0435
2009-11-24,29.3968
2009-11-25,29.7417
2009-11-27,29.3548
2009-11-30,29.5313
2009-12-01,29.952
2009-12-02,30.4986
2009-12-03,30.4986
2009-12-04,30.4735
2009-12-07,30.5996
2009-12-08,30.7342
2009-12-09,30.9865
2009-12-10,31.18
2009-12-11,31.7266
2009-12-14,31.7015
2009-12-15,31.4995
2009-12-16,31.5501
2009-12-17,31.3145
2009-12-18,31.2388
2009-12-21,31.365
2009-12-22,31.1211
2009-12-23,31.1547
2009-12-24,31.2136
2009-12-28,31.4155
2009-12-29,31.4995
2009-12-30,31.2557
2009-12-31,30.8015
2010-01-04,31.0201
2010-01-05,30.5828
2010-01-06,30.9108
2010-01-07,30.8519
2010-01-08,31.0454
2010-01-11,31.5248
2010-01-12,31.4744
2010-01-13,31.6762
2010-01-14,31.7519
2010-01-15,31.2388
2010-01-19,31.5501
2010-01-20,31.4239
2010-01-21,30.9444
2010-01-22,30.2715
2010-01-25,30.6332
2010-01-26,31.0286
2010-01-27,30.8183
2010-01-28,30.832
2010-01-29,30.5759
2010-02-01,30.7893
2010-02-02,30.9856
2010-02-03,31.0111
2010-02-04,30.2346
2010-02-05,30.1578
2010-02-08,29.6969
2010-02-09,29.9615
2010-02-10,29.8847
2010-02-11,30.1407
2010-02-12,30.098
2010-02-16,31.0111
2010-02-17,31.2501
2010-02-18,31.4463
2010-02-19,31.8474
2010-02-22,31.7279
2010-02-23,31.7024
2010-02-24,32.0949
2010-02-25,32.0267
2010-02-26,31.0794
2010-03-01,31.2415
2010-03-02,31.8645
2010-03-03,32.0949
2010-03-04,32.1973
2010-03-05,32.4277
2010-03-08,32.2741
2010-03-09,32.1035
2010-03-10,31.9072
2010-03-11,31.9669
2010-03-12,31.873
2010-03-15,31.873
2010-03-16,32.1973
2010-03-17,32.3424
2010-03-18,32.3851
2010-03-19,32.1973
2010-03-22,32.2143
2010-03-23,32.2997
2010-03-24,31.9754
2010-03-25,31.8389
2010-03-26,32.0522
2010-03-29,32.6069
2010-03-30,32.4789
2010-03-31,32.2058
2010-04-01,32.4874
2010-04-05,32.8032
2010-04-06,33.3408
2010-04-07,32.9483
2010-04-08,32.9141
2010-04-09,32.4277
2010-04-12,32.3679
2010-04-13,32.3766
2010-04-14,32.5045
2010-04-15,32.4362
2010-04-16,32.0352
2010-04-19,32.001
2010-04-20,32.496
2010-04-21,32.7264
2010-04-22,32.6922
2010-04-23,32.7776
2010-04-26,32.5728
2010-04-27,31.6768
2010-04-28,32.1973
2010-04-29,32.5039
2010-04-30,32.3309
2010-05-03,33.0059
2010-05-04,32.2443
2010-05-05,32.2011
2010-05-06,31.1193
2010-05-07,30.3924
2010-05-10,30.7126
2010-05-11,30.8943
2010-05-12,31.526
2010-05-13,31.5519
2010-05-14,31.2751
2010-05-17,31.5347
2010-05-18,31.4568
2010-05-19,31.3962
2010-05-20,30.401
2010-05-21,30.427
2010-05-24,30.2886
2010-05-25,29.8559
2010-05-26,29.8645
2010-05-27,30.3837
2010-05-28,30.401
2010-06-01,30.0808
2010-06-02,30.7559
2010-06-03,31.1106
2010-06-04,30.0548
2010-06-07,30.0722
2010-06-08,30.825
2010-06-09,30.2279
2010-06-10,30.8338
2010-06-11,30.851
2010-06-14,30.9548
2010-06-15,31.4914
2010-06-16,31.6991
2010-06-17,32.2702
2010-06-18,32.6077
2010-06-21,32.4088
2010-06-22,31.7337
2010-06-23,31.2751
2010-06-24,31.7164
2010-06-25,31.7164
2010-06-28,31.9587
2010-06-29,31.7596
2010-06-30,31.4914
2010-07-01,31.2751
2010-07-02,31.3616
2010-07-06,31.751
2010-07-07,32.6943
2010-07-08,33.0404
2010-07-09,33.0404
2010-07-12,33.1962
2010-07-13,33.3953
2010-07-14,33.4299
2010-07-15,33.4472
2010-07-16,32.7116
2010-07-19,33.0664
2010-07-20,33.0491
2010-07-21,32.7808
2010-07-22,33.5337
2010-07-23,33.7847
2010-07-26,34.252
2010-07-27,34.6933
2010-07-28,34.3558
2010-07-29,33.5705
2010-07-30,33.36
2010-08-02,33.8073
2010-08-03,34.2897
2010-08-04,34.6404
2010-08-05,34.7368
2010-08-06,34.5088
2010-08-09,34.6141
2010-08-10,34.8596
2010-08-11,34.2282
2010-08-12,34.5177
2010-08-13,34.693
2010-08-16,34.579
2010-08-17,35.2718
2010-08-18,34.886
2010-08-19,34.3949
2010-08-20,34.4738
2010-08-23,34.8333
2010-08-24,35.0701
2010-08-25,35.0175
2010-08-26,34.7368
2010-08-27,35.4385
2010-08-30,34.8333
2010-08-31,34.9298
2010-09-01,35.8506
2010-09-02,35.7016
2010-09-03,35.9646
2010-09-07,35.7717
2010-09-08,35.2543
2010-09-09,35.605
2010-09-10,35.5612
2010-09-13,36.1137
2010-09-14,36.1576
2010-09-15,36.026
2010-09-16,35.4736
2010-09-17,35.3595
2010-09-20,35.9032
2010-09-21,35.8243
2010-09-22,35.8857
2010-09-23,35.377
2010-09-24,36.1225
2010-09-27,36.3768
2010-09-28,36.5609
2010-09-29,36.2716
2010-09-30,36.2453
2010-10-01,36.5172
2010-10-04,36.1838
2010-10-05,36.5172
2010-10-06,36.2892
2010-10-07,36.1049
2010-10-08,36.1576
2010-10-11,36.1576
2010-10-12,36.0084
2010-10-13,36.1751
2010-10-14,36.2803
2010-10-15,36.5172
2010-10-18,36.6925
2010-10-19,36.6486
2010-10-20,37.1485
2010-10-21,36.9994
2010-10-22,36.9907
2010-10-25,36.8591
2010-10-26,36.7101
2010-10-27,36.6311
2010-10-28,36.5112
2010-10-29,36.5912
2010-11-01,36.3868
2010-11-02,37.2928
2010-11-03,37.0974
2010-11-04,37.5149
2010-11-05,37.4526
2010-11-08,37.0708
2010-11-09,36.902
2010-11-10,36.751
2010-11-11,36.7422
2010-11-12,36.3514
2010-11-15,36.6711
2010-11-16,36.227
2010-11-17,36.1471
2010-11-18,36.3958
2010-11-19,36.2714
2010-11-22,36.4047
2010-11-23,36.0938
2010-11-24,36.1737
2010-11-26,36.0672
2010-11-29,35.8895
2010-11-30,35.9428
2010-12-01,36.4402
2010-12-02,36.5112
2010-12-03,36.4135
2010-12-06,36.3602
2010-12-07,36.0139
2010-12-08,35.8541
2010-12-09,35.9872
2010-12-10,36.2803
2010-12-13,36.4135
2010-12-14,36.6533
2010-12-15,36.307
2010-12-16,36.7333
2010-12-17,36.8487
2010-12-20,36.7422
2010-12-21,36.751
2010-12-22,36.9376
2010-12-23,37.1062
2010-12-27,37.1241
2010-12-28,37.1507
2010-12-29,37.0441
2010-12-30,36.8843
2010-12-31,36.8399
2011-01-03,36.831
2011-01-04,36.9997
2011-01-05,36.7777
2011-01-06,36.822
2011-01-07,36.9376
2011-01-10,36.7155
2011-01-11,36.6889
2011-01-12,36.8399
2011-01-13,36.822
2011-01-14,36.8487
2011-01-18,36.7333
2011-01-19,36.751
2011-01-20,36.902
2011-01-21,36.9553
2011-01-24,37.3195
2011-01-25,37.4082
2011-01-26,37.2129
2011-01-27,37.4882
2011-01-28,36.782
2011-01-31,36.6381
2011-02-01,37.0068
2011-02-02,36.8809
2011-02-03,36.9169
2011-02-04,36.8809
2011-02-07,37.2136
2011-02-08,37.2767
2011-02-09,37.4744
2011-02-10,37.6813
2011-02-11,37.7263
2011-02-14,37.4475
2011-02-15,37.5104
2011-02-16,37.2676
2011-02-17,37.5644
2011-02-18,37.6273
2011-02-22,37.2046
2011-02-23,37.4835
2011-02-24,37.3396
2011-02-25,37.5375
2011-02-28,37.9601
2011-03-01,38.3738
2011-03-02,38.6886
2011-03-03,39.0663
2011-03-04,38.9944
2011-03-07,39.0123
2011-03-08,39.399
2011-03-09,39.5789
2011-03-10,38.7875
2011-03-11,39.1562
2011-03-14,39.1742
2011-03-15,38.077
2011-03-16,37.5284
2011-03-17,37.3306
2011-03-18,37.2586
2011-03-21,37.7173
2011-03-22,37.2856
2011-03-23,37.5375
2011-03-24,37.8342
2011-03-25,37.9151
2011-03-28,37.8072
2011-03-29,37.9421
2011-03-30,38.4907
2011-03-31,38.4728
2011-04-01,38.8954
2011-04-04,38.8504
2011-04-05,38.5716
2011-04-06,38.8954
2011-04-07,38.6975
2011-04-08,38.6796
2011-04-11,38.1489
2011-04-12,37.8522
2011-04-13,37.8431
2011-04-14,38.2389
2011-04-15,38.6076
2011-04-18,38.1399
2011-04-19,38.2029
2011-04-20,38.3738
2011-04-21,38.3558
2011-04-25,38.4188
2011-04-26,38.6886
2011-04-27,38.8324
2011-04-28,39.0736
2011-04-29,39.4651
2011-05-02,39.9112
2011-05-03,40.1571
2011-05-04,40.1571
2011-05-05,39.9295
2011-05-06,40.2208
2011-05-09,40.3755
2011-05-10,40.9945
2011-05-11,41.0583
2011-05-12,41.4771
2011-05-13,41.1767
2011-05-16,41.1858
2011-05-17,41.4224
2011-05-18,41.2222
2011-05-19,41.3678
2011-05-20,41.3406
2011-05-23,40.858
2011-05-24,40.7578
2011-05-25,40.8125
2011-05-26,40.9673
2011-05-27,40.94
2011-05-31,41.2039
2011-06-01,40.503
2011-06-02,40.3118
2011-06-03,39.7656
2011-06-06,39.538
2011-06-07,39.6745
2011-06-08,39.6745
2011-06-09,39.4378
2011-06-10,39.2831
2011-06-13,39.2649
2011-06-14,39.6472
2011-06-15,39.3103
2011-06-16,39.6472
2011-06-17,39.9203
2011-06-20,40.1934
2011-06-21,40.3027
2011-06-22,40.1024
2011-06-23,39.811
2011-06-24,39.8293
2011-06-27,40.1843
2011-06-28,40.3937
2011-06-29,40.4665
2011-06-30,40.5758
2011-07-01,41.0401
2011-07-05,40.8671
2011-07-06,40.8216
2011-07-07,40.9217
2011-07-08,40.7852
2011-07-11,40.2754
2011-07-12,40.5758
2011-07-13,40.4119
2011-07-14,39.9567
2011-07-15,39.9477
2011-07-18,39.4196
2011-07-19,39.9658
2011-07-20,40.0751
2011-07-21,40.6395
2011-07-22,40.4028
2011-07-25,40.1115
2011-07-26,39.7929
2011-07-27,39.3923
2011-07-28,39.1853
2011-07-29,39.0931
2011-08-01,38.8351
2011-08-02,38.19
2011-08-03,38.0057
2011-08-04,36.7155
2011-08-05,36.909
2011-08-08,35.0106
2011-08-09,36.5403
2011-08-10,35.84
2011-08-11,38.1807
2011-08-12,37.8121
2011-08-15,38.9641
2011-08-16,38.8351
2011-08-17,39.0286
2011-08-18,38.6692
2011-08-19,38.4481
2011-08-22,38.1715
2011-08-23,39.1853
2011-08-24,40.0424
2011-08-25,39.5816
2011-08-26,39.6553
2011-08-29,40.54
2011-08-30,40.5216
2011-08-31,40.7059
2011-09-01,40.3004
2011-09-02,39.7659
2011-09-06,39.5816
2011-09-07,39.9409
2011-09-08,39.7843
2011-09-09,38.6232
2011-09-12,38.9088
2011-09-13,39.4157
2011-09-14,39.8949
2011-09-15,40.1714
2011-09-16,40.7059
2011-09-19,40.3649
2011-09-20,41.0377
2011-09-21,40.1346
2011-09-22,39.3788
2011-09-23,39.6737
2011-09-26,39.6276
2011-09-27,39.6553
2011-09-28,39.1761
2011-09-29,39.7659
2011-09-30,39.6
2011-10-03,38.6877
2011-10-04,39.0102
2011-10-05,39.0931
2011-10-06,39.7382
2011-10-07,39.6737
2011-10-10,40.7888
2011-10-11,40.494
2011-10-12,40.8165
2011-10-13,40.8718
2011-10-14,41.139
2011-10-17,40.9179
2011-10-18,41.5168
2011-10-19,41.7473
2011-10-20,41.9316
2011-10-21,42.503
2011-10-24,42.5122
2011-10-25,41.8395
2011-10-26,42.0146
2011-10-27,43.3231
2011-10-28,43.2718
2011-10-31,42.5075
2011-11-01,41.3892
2011-11-02,42.6101
2011-11-03,43.4675
2011-11-04,43.0108
2011-11-07,43.1786
2011-11-08,43.5234
2011-11-09,42.4889
2011-11-10,42.7778
2011-11-11,43.7099
2011-11-14,43.1692
2011-11-15,43.3184
2011-11-16,42.8151
2011-11-17,42.5168
2011-11-18,43.1413
2011-11-21,42.9642
2011-11-22,42.2559
2011-11-23,41.6781
2011-11-25,41.6501
2011-11-28,42.1906
2011-11-29,42.9735
2011-11-30,44.1758
2011-12-01,44.0266
2011-12-02,43.393
2011-12-05,43.3743
2011-12-06,43.5141
2011-12-07,43.1879
2011-12-08,42.3584
2011-12-09,43.1692
2011-12-12,43.0761
2011-12-13,42.8804
2011-12-14,42.2187
2011-12-15,43.1227
2011-12-16,43.5234
2011-12-19,43.0947
2011-12-20,44.0826
2011-12-21,44.5113
2011-12-22,44.6325
2011-12-23,45.0892
2011-12-27,45.3874
2011-12-28,45.0426
2011-12-29,45.2569
2011-12-30,44.9028
2012-01-03,44.5766
2012-01-04,44.2783
2012-01-05,44.3156
2012-01-06,44.1478
2012-01-09,43.9614
2012-01-10,44.5486
2012-01-11,44.3063
2012-01-12,44.4088
2012-01-13,44.3622
2012-01-17,44.4368
2012-01-18,44.502
2012-01-19,44.269
2012-01-20,44.4833
2012-01-23,44.297
2012-01-24,44.2131
2012-01-25,44.9959
2012-01-26,45.2009
2012-01-27,44.9587
2012-01-30,44.5209
2012-01-31,44.5209
2012-02-01,44.8884
2012-02-02,44.8412
2012-02-03,44.7754
2012-02-06,44.5587
2012-02-07,45.4349
2012-02-08,45.3124
2012-02-09,45.1899
2012-02-10,44.6905
2012-02-13,44.8036
2012-02-14,44.5587
2012-02-15,44.6905
2012-02-16,45.1522
2012-02-17,45.0957
2012-02-21,44.6529
2012-02-22,44.6434
2012-02-23,44.7659
2012-02-24,44.8507
2012-02-27,44.7754
2012-02-28,44.4361
2012-02-29,44.3324
2012-03-01,44.1347
2012-03-02,43.9178
2012-03-05,43.7389
2012-03-06,43.7483
2012-03-07,44.0687
2012-03-08,44.4173
2012-03-09,44.7188
2012-03-12,45.2748
2012-03-13,45.3312
2012-03-14,44.4361
2012-03-15,44.1911
2012-03-16,44.276
2012-03-19,44.0969
2012-03-20,44.276
2012-03-21,44.3608
2012-03-22,44.3796
2012-03-23,44.5115
2012-03-26,44.9261
2012-03-27,45.1522
2012-03-28,44.7754
2012-03-29,44.8884
2012-03-30,45.1522
2012-04-02,45.3218
2012-04-03,45.3784
2012-04-04,44.9921
2012-04-05,44.4456
2012-04-09,44.1441
2012-04-10,43.4468
2012-04-11,43.4562
2012-04-12,43.6164
2012-04-13,43.5504
2012-04-16,43.9744
2012-04-17,44.4738
2012-04-18,44.4456
2012-04-19,44.3608
2012-04-20,45.0109
2012-04-23,44.7188
2012-04-24,45.3124
2012-04-25,45.6422
2012-04-26,45.6045
2012-04-27,45.9235
2012-04-30,46.0093
2012-05-01,45.9426
2012-05-02,45.4853
2012-05-03,45.3424
2012-05-04,45.571
2012-05-07,45.4568
2012-05-08,45.6092
2012-05-09,45.7997
2012-05-10,46.6189
2012-05-11,46.3141
2012-05-14,46.1617
2012-05-15,45.7044
2012-05-16,46.095
2012-05-17,45.895
2012-05-18,45.533
2012-05-21,45.933
2012-05-22,46.3998
2012-05-23,46.3046
2012-05-24,46.5712
2012-05-25,46.7428
2012-05-29,46.9809
2012-05-30,46.5617
2012-05-31,46.9809
2012-06-01,47.0857
2012-06-04,47.4572
2012-06-05,47.943
2012-06-06,48.4097
2012-06-07,48.4859
2012-06-08,48.6098
2012-06-11,48.3621
2012-06-12,48.8384
2012-06-13,48.7622
2012-06-14,49.1146
2012-06-15,49.5433
2012-06-18,49.6005
2012-06-19,49.3432
2012-06-20,48.7241
2012-06-21,48.3717
2012-06-22,48.2288
2012-06-25,48.2478
2012-06-26,48.305
2012-06-27,48.8193
2012-06-28,48.9908
2012-06-29,49.229
2012-07-02,49.7719
2012-07-03,49.6576
2012-07-05,49.5814
2012-07-06,49.6576
2012-07-09,49.5909
2012-07-10,49.7529
2012-07-11,49.6576
2012-07-12,49.7719
2012-07-13,50.5626
2012-07-16,50.3339
2012-07-17,50.753
2012-07-18,50.7721
2012-07-19,50.7912
2012-07-20,51.2103
2012-07-23,50.715
2012-07-24,50.3339
2012-07-25,50.153
2012-07-26,50.9721
2012-07-27,51.7437
2012-07-30,51.9025
2012-07-31,51.5081
2012-08-01,51.3734
2012-08-02,51.1906
2012-08-03,52.0179
2012-08-06,51.9794
2012-08-07,51.3446
2012-08-08,51.3253
2012-08-09,51.258
2012-08-10,51.3734
2012-08-13,51.181
2012-08-14,51.2099
2012-08-15,51.1906
2012-08-16,51.2868
2012-08-17,50.8252
2012-08-20,50.652
2012-08-21,50.5655
2012-08-22,50.3442
2012-08-23,49.5555
2012-08-24,49.7767
2012-08-27,49.7287
2012-08-28,49.6228
2012-08-29,49.719
2012-08-30,49.6036
2012-08-31,49.4882
2012-09-04,50.2576
2012-09-05,49.921
2012-09-06,50.5366
2012-09-07,50.373
2012-09-10,50.4116
2012-09-11,50.373
2012-09-12,50.248
2012-09-13,51.5369
2012-09-14,51.4119
2012-09-17,50.7194
2012-09-18,50.0653
2012-09-19,50.3538
2012-09-20,50.4212
2012-09-21,50.5559
2012-09-24,51.383
2012-09-25,51.2099
2012-09-26,51.3927
2012-09-27,50.6424
2012-09-28,50.8252
2012-10-01,50.4981
2012-10-02,50.6135
2012-10-03,51.1618
2012-10-04,51.3157
2012-10-05,51.2484
2012-10-08,51.2676
2012-10-09,51.1233
2012-10-10,50.8444
2012-10-11,50.8925
2012-10-12,50.7194
2012-10-15,51.0175
2012-10-16,51.1137
2012-10-17,51.8159
2012-10-18,52.0948
2012-10-19,51.6043
2012-10-22,51.6716
2012-10-23,50.8444
2012-10-24,50.729
2012-10-25,51.0463
2012-10-26,50.854
2012-10-31,51.5004
2012-11-01,51.3255
2012-11-02,50.7326
2012-11-05,50.3341
2012-11-06,50.1106
2012-11-07,48.9346
2012-11-08,48.7888
2012-11-09,47.9627
2012-11-12,47.8655
2012-11-13,48.2154
2012-11-14,47.9142
2012-11-15,47.7489
2012-11-16,48.4098
2012-11-19,48.1182
2012-11-20,48.2154
2012-11-21,48.0891
2012-11-23,47.8946
2012-11-26,48.3514
2012-11-27,48.507
2012-11-28,49.0804
2012-11-29,49.3914
2012-11-30,49.9939
2012-12-03,49.9939
2012-12-04,49.9939
2012-12-05,50.2078
2012-12-06,50.0037
2012-12-07,49.8871
2012-12-10,50.1008
2012-12-11,50.0426
2012-12-12,49.7607
2012-12-13,49.3428
2012-12-14,49.3331
2012-12-17,50.2467
2012-12-18,50.6257
2012-12-19,50.4216
2012-12-20,50.7034
2012-12-21,50.6937
2012-12-24,50.4702
2012-12-26,49.9065
2012-12-27,49.6539
2012-12-28,49.2165
2012-12-31,49.4692
2013-01-02,50.8737
2013-01-03,50.8251
2013-01-04,50.9321
2013-01-07,50.4267
2013-01-08,50.4558
2013-01-09,50.4558
2013-01-10,50.689
2013-01-11,50.4169
2013-01-14,50.5043
2013-01-15,50.6404
2013-01-16,50.4267
2013-01-17,50.6598
2013-01-18,50.9321
2013-01-22,51.3402
2013-01-23,51.0583
2013-01-24,51.6026
2013-01-25,51.8263
2013-01-28,51.7531
2013-01-29,52.0252
2013-01-30,52.389
2013-01-31,52.438
2013-02-01,52.44
2013-02-04,52.3006
2013-02-05,52.3792
2013-02-06,52.6394
2013-02-07,52.6148
2013-02-08,52.929
2013-02-11,53.1746
2013-02-12,53.5084
2013-02-13,53.5575
2013-02-14,53.3611
2013-02-15,53.3513
2013-02-19,53.9309
2013-02-20,53.7934
2013-02-21,53.6068
2013-02-22,54.3924
2013-02-25,53.4495
2013-02-26,53.7834
2013-02-27,54.2351
2013-02-28,54.9716
2013-03-01,55.0403
2013-03-04,55.8359
2013-03-05,56.1404
2013-03-06,56.2484
2013-03-07,56.0028
2013-03-08,56.0225
2013-03-11,55.993
2013-03-12,55.885
2013-03-13,55.9832
2013-03-14,55.9636
2013-03-15,55.9341
2013-03-18,55.5413
2013-03-19,55.6395
2013-03-20,55.993
2013-03-21,55.6886
2013-03-22,55.6788
2013-03-25,55.6788
2013-03-26,55.993
2013-03-27,56.16
2013-03-28,56.8866
2013-04-01,56.592
2013-04-02,56.651
2013-04-03,56.5626
2013-04-04,56.9554
2013-04-05,57.0929
2013-04-08,57.5937
2013-04-09,57.1518
2013-04-10,57.6625
2013-04-11,58.2123
2013-04-12,58.3989
2013-04-15,57.3285
2013-04-16,57.8391
2013-04-17,57.3383
2013-04-18,57.4857
2013-04-19,58.34
2013-04-22,58.8506
2013-04-23,58.7917
2013-04-24,59.2238
2013-04-25,59.6068
2013-04-26,59.6362
2013-04-29,60.2258
2013-04-30,60.414
2013-05-01,60.0078
2013-05-02,59.9681
2013-05-03,60.9987
2013-05-06,60.1168
2013-05-07,60.8302
2013-05-08,60.2159
2013-05-09,58.9079
2013-05-10,58.7593
2013-05-13,58.462
2013-05-14,58.8187
2013-05-15,59.6808
2013-05-16,59.4826
2013-05-17,60.0078
2013-05-20,59.5916
2013-05-21,59.5421
2013-05-22,58.5413
2013-05-23,57.9071
2013-05-24,57.1243
2013-05-28,56.8865
2013-05-29,55.4695
2013-05-30,56.3613
2013-05-31,56.0542
2013-06-03,56.0145
2013-06-04,55.4299
2013-06-05,55.1029
2013-06-06,55.8164
2013-06-07,56.183
2013-06-10,56.1929
2013-06-11,56.1632
2013-06-12,55.7173
2013-06-13,56.7973
2013-06-14,57.055
2013-06-17,56.8667
2013-06-18,55.7173
2013-06-19,53.8544
2013-06-20,51.7835
2013-06-21,52.269
2013-06-24,52.0213
2013-06-25,52.923
2013-06-26,54.1616
2013-06-27,54.6471
2013-06-28,55.0038
2013-07-01,54.3498
2013-07-02,54.5778
2013-07-03,54.2904
2013-07-05,54.33
2013-07-08,55.6182
2013-07-09,56.2424
2013-07-10,56.5496
2013-07-11,57.4414
2013-07-12,57.2829
2013-07-15,58.5115
2013-07-16,58.026
2013-07-17,58.4422
2013-07-18,59.2745
2013-07-19,59.3835
2013-07-22,59.4132
2013-07-23,59.3934
2013-07-24,58.2341
2013-07-25,58.9376
2013-07-26,59.1061
2013-07-29,59.007
2013-07-30,59.24
2013-07-31,58.91
2013-08-01,59.21
2013-08-02,59.0
2013-08-05,58.33
2013-08-06,57.53
2013-08-07,57.6
2013-08-08,58.02
2013-08-09,57.71
