date,close_price
1998-01-02,15.7938
1998-01-05,15.8922
1998-01-06,15.9633
1998-01-07,16.2695
1998-01-08,16.2367
1998-01-09,16.5102
1998-01-12,16.5102
1998-01-13,17.2977
1998-01-14,17.5
1998-01-15,17.8445
1998-01-16,18.0469
1998-01-20,18.2875
1998-01-21,17.8773
1998-01-22,17.8773
1998-01-23,17.943
1998-01-26,17.9102
1998-01-27,17.8773
1998-01-28,17.9102
1998-01-29,17.8063
1998-01-30,17.9102
1998-02-02,18.0469
1998-02-03,17.943
1998-02-04,18.0797
1998-02-05,17.943
1998-02-06,18.118
1998-02-09,18.2547
1998-02-10,18.2547
1998-02-11,17.943
1998-02-12,17.7734
1998-02-13,17.6695
1998-02-17,17.5711
1998-02-18,17.2594
1998-02-19,17.3305
1998-02-20,17.4344
1998-02-23,17.3961
1998-02-24,17.3961
1998-02-25,17.3961
1998-02-26,17.2977
1998-02-27,16.8875
1998-03-02,16.7125
1998-03-03,16.5102
1998-03-04,16.3023
1998-03-05,16.3734
1998-03-06,16.7836
1998-03-09,16.6469
1998-03-10,16.5102
1998-03-11,16.5758
1998-03-12,16.6642
1998-03-13,16.3226
1998-03-16,16.3887
1998-03-17,16.6311
1998-03-18,16.4603
1998-03-19,16.5264
1998-03-20,16.5981
1998-03-23,16.4934
1998-03-24,16.5595
1998-03-25,16.7358
1998-03-26,16.5264
1998-03-27,16.6642
1998-03-30,16.6311
1998-03-31,17.0112
1998-04-01,17.0773
1998-04-02,17.4905
1998-04-03,17.7329
1998-04-06,17.8375
1998-04-07,17.799
1998-04-08,17.6282
1998-04-09,17.4244
1998-04-13,17.3858
1998-04-14,17.3197
1998-04-15,17.2481
1998-04-16,17.2151
1998-04-17,17.0112
1998-04-20,17.0443
1998-04-21,16.9066
1998-04-22,16.9066
1998-04-23,16.7358
1998-04-24,16.5595
1998-04-27,16.5595
1998-04-28,16.6642
1998-04-29,16.9396
1998-04-30,16.9396
1998-05-01,16.9396
1998-05-04,17.1104
1998-05-05,16.6972
1998-05-06,16.8349
1998-05-07,16.9066
1998-05-08,16.6642
1998-05-11,16.4603
1998-05-12,16.5595
1998-05-13,16.5595
1998-05-14,16.5981
1998-05-15,16.5264
1998-05-18,16.5264
1998-05-19,16.2841
1998-05-20,16.2841
1998-05-21,16.218
1998-05-22,16.0472
1998-05-26,16.1133
1998-05-27,15.9756
1998-05-28,16.0802
1998-05-29,16.4603
1998-06-01,16.4934
1998-06-02,16.5264
1998-06-03,16.3887
1998-06-04,16.251
1998-06-05,16.0472
1998-06-08,16.0472
1998-06-09,15.9095
1998-06-10,15.7332
1998-06-11,15.6166
1998-06-12,14.9559
1998-06-15,14.9893
1998-06-16,14.7117
1998-06-17,14.8505
1998-06-18,14.9226
1998-06-19,14.9226
1998-06-22,15.0226
1998-06-23,14.9226
1998-06-24,14.8505
1998-06-25,14.8505
1998-06-26,14.9893
1998-06-29,15.4778
1998-06-30,15.4778
1998-07-01,15.4778
1998-07-02,15.6832
1998-07-06,15.6166
1998-07-07,15.822
1998-07-08,15.8553
1998-07-09,15.9275
1998-07-10,15.9608
1998-07-13,15.8942
1998-07-14,15.7165
1998-07-15,15.4778
1998-07-16,15.6166
1998-07-17,15.3723
1998-07-20,15.3723
1998-07-21,15.339
1998-07-22,15.1613
1998-07-23,14.9893
1998-07-24,14.8838
1998-07-27,14.8172
1998-07-28,14.745
1998-07-29,14.6784
1998-07-30,14.8505
1998-07-31,14.6451
1998-08-03,14.2287
1998-08-04,13.8789
1998-08-05,13.7735
1998-08-06,13.568
1998-08-07,14.0177
1998-08-10,14.1898
1998-08-11,13.9844
1998-08-12,14.3675
1998-08-13,14.4674
1998-08-14,14.4008
1998-08-17,14.4341
1998-08-18,14.4674
1998-08-19,14.5396
1998-08-20,14.4341
1998-08-21,14.3675
1998-08-24,14.5396
1998-08-25,14.4341
1998-08-26,14.5063
1998-08-27,14.4341
1998-08-28,14.3675
1998-08-31,13.0462
1998-09-01,12.9796
1998-09-02,12.9074
1998-09-03,12.7686
1998-09-04,12.8019
1998-09-08,13.1184
1998-09-09,13.3814
1998-09-10,13.062
1998-09-11,13.0284
1998-09-14,13.3422
1998-09-15,13.062
1998-09-16,13.1013
1998-09-17,13.5215
1998-09-18,13.8353
1998-09-21,14.1491
1998-09-22,15.3035
1998-09-23,16.357
1998-09-24,16.144
1998-09-25,15.5837
1998-09-28,15.5837
1998-09-29,15.4436
1998-09-30,15.0962
1998-10-01,15.0625
1998-10-02,14.7824
1998-10-05,14.6759
1998-10-06,14.3229
1998-10-07,13.8353
1998-10-08,13.6953
1998-10-09,14.0427
1998-10-12,14.2892
1998-10-13,14.1491
1998-10-14,14.0819
1998-10-15,14.2556
1998-10-16,14.3957
1998-10-19,14.4629
1998-10-20,15.2026
1998-10-21,15.2699
1998-10-22,15.3427
1998-10-23,15.2026
1998-10-26,15.0962
1998-10-27,15.0625
1998-10-28,14.9224
1998-10-29,15.0625
1998-10-30,14.9561
1998-11-02,15.1298
1998-11-03,14.8832
1998-11-04,15.5164
1998-11-05,15.6229
1998-11-06,15.5837
1998-11-09,15.41
1998-11-10,15.1298
1998-11-11,14.9561
1998-11-12,14.5358
1998-11-13,14.5358
1998-11-16,14.5694
1998-11-17,14.5358
1998-11-18,14.5694
1998-11-19,14.5694
1998-11-20,14.7095
1998-11-23,14.6759
1998-11-24,14.6759
1998-11-25,14.7431
1998-11-27,14.7095
1998-11-30,14.8496
1998-12-01,14.9224
1998-12-02,15.0233
1998-12-03,15.1634
1998-12-04,15.2362
1998-12-07,15.5021
1998-12-08,15.536
1998-12-09,15.2874
1998-12-10,15.1857
1998-12-11,15.1123
1998-12-14,15.4286
1998-12-15,15.6772
1998-12-16,15.6772
1998-12-17,15.6094
1998-12-18,15.536
1998-12-21,15.6433
1998-12-22,15.6772
1998-12-23,15.6772
1998-12-24,15.6433
1998-12-28,15.5699
1998-12-29,15.6772
1998-12-30,15.4682
1998-12-31,15.4682
1999-01-04,15.4682
1999-01-05,15.6094
1999-01-06,15.5699
1999-01-07,15.4286
1999-01-08,15.2535
1999-01-11,15.1857
1999-01-12,15.1123
1999-01-13,14.971
1999-01-14,14.8637
1999-01-15,14.6886
1999-01-19,14.8637
1999-01-20,15.0049
1999-01-21,15.0784
1999-01-22,15.0784
1999-01-25,14.971
1999-01-26,14.9032
1999-01-27,14.7225
1999-01-28,14.6886
1999-01-29,14.4061
1999-02-01,14.6547
1999-02-02,14.7959
1999-02-03,14.9371
1999-02-04,14.8298
1999-02-05,14.762
1999-02-08,14.762
1999-02-09,14.5473
1999-02-10,14.3722
1999-02-11,14.3722
1999-02-12,14.2648
1999-02-16,14.1575
1999-02-17,14.3383
1999-02-18,14.4061
1999-02-19,14.4795
1999-02-22,14.6547
1999-02-23,14.5134
1999-02-24,14.4795
1999-02-25,14.44
1999-02-26,14.3722
1999-03-01,14.6208
1999-03-02,14.762
1999-03-03,14.9371
1999-03-04,15.2535
1999-03-05,15.1857
1999-03-08,15.2535
1999-03-09,15.2196
1999-03-10,15.2196
1999-03-11,15.3449
1999-03-12,15.2709
1999-03-15,15.2367
1999-03-16,14.7753
1999-03-17,14.8095
1999-03-18,14.6329
1999-03-19,14.6329
1999-03-22,14.5247
1999-03-23,14.2741
1999-03-24,13.9209
1999-03-25,13.9893
1999-03-26,14.0292
1999-03-29,14.2741
1999-03-30,14.4564
1999-03-31,14.2399
1999-04-01,14.1317
1999-04-05,14.2399
1999-04-06,13.9209
1999-04-07,13.8469
1999-04-08,13.7444
1999-04-09,13.5279
1999-04-12,13.7444
1999-04-13,14.1716
1999-04-14,14.3823
1999-04-15,14.5988
1999-04-16,15.1683
1999-04-19,15.5215
1999-04-20,15.3791
1999-04-21,15.4133
1999-04-22,15.5557
1999-04-23,15.9487
1999-04-26,15.8063
1999-04-27,15.5955
1999-04-28,15.7721
1999-04-29,15.8063
1999-04-30,15.8803
1999-05-03,16.1651
1999-05-04,16.1993
1999-05-05,16.2677
1999-05-06,16.3075
1999-05-07,16.4499
1999-05-10,16.6607
1999-05-11,16.6265
1999-05-12,16.4841
1999-05-13,16.4499
1999-05-14,16.3417
1999-05-17,16.0911
1999-05-18,15.8405
1999-05-19,16.2335
1999-05-20,16.4499
1999-05-21,16.5525
1999-05-24,16.2335
1999-05-25,16.2677
1999-05-26,16.3417
1999-05-27,16.4499
1999-05-28,16.5923
1999-06-01,16.5183
1999-06-02,16.5525
1999-06-03,16.5525
1999-06-04,16.4841
1999-06-07,16.5525
1999-06-08,16.5183
1999-06-09,16.4499
1999-06-10,16.4841
1999-06-11,16.5011
1999-06-14,16.5757
1999-06-15,16.7536
1999-06-16,16.7192
1999-06-17,16.5757
1999-06-18,16.6101
1999-06-21,16.4666
1999-06-22,16.4322
1999-06-23,16.392
1999-06-24,16.105
1999-06-25,16.0706
1999-06-28,16.0706
1999-06-29,15.9271
1999-06-30,16.0706
1999-07-01,15.7836
1999-07-02,15.5713
1999-07-06,15.3876
1999-07-07,15.2097
1999-07-08,15.1752
1999-07-09,15.2843
1999-07-12,15.2843
1999-07-13,15.4278
1999-07-14,15.3876
1999-07-15,15.4278
1999-07-16,15.1752
1999-07-19,15.1752
1999-07-20,14.7792
1999-07-21,14.6357
1999-07-22,14.5267
1999-07-23,14.7103
1999-07-26,14.4578
1999-07-27,14.6702
1999-07-28,14.5267
1999-07-29,14.4234
1999-07-30,14.5669
1999-08-02,14.5669
1999-08-03,14.6357
1999-08-04,14.5669
1999-08-05,14.4922
1999-08-06,14.4578
1999-08-09,14.5267
1999-08-10,14.5267
1999-08-11,14.6013
1999-08-12,14.7448
1999-08-13,14.7103
1999-08-16,14.7103
1999-08-17,14.8137
1999-08-18,15.1006
1999-08-19,14.9227
1999-08-20,14.9571
1999-08-23,14.7792
1999-08-24,14.7103
1999-08-25,14.7448
1999-08-26,14.5669
1999-08-27,14.6357
1999-08-30,14.6702
1999-08-31,14.8137
1999-09-01,14.8538
1999-09-02,14.8538
1999-09-03,14.9973
1999-09-07,14.9227
1999-09-08,15.0662
1999-09-09,14.8883
1999-09-10,14.9973
1999-09-13,14.9395
1999-09-14,14.9395
1999-09-15,14.9047
1999-09-16,14.9047
1999-09-17,15.0147
1999-09-20,14.98
1999-09-21,14.87
1999-09-22,14.6501
1999-09-23,14.4706
1999-09-24,14.4012
1999-09-27,14.3259
1999-09-28,14.1812
1999-09-29,14.1812
1999-09-30,14.4359
1999-10-01,14.2159
1999-10-04,14.2159
1999-10-05,14.3606
1999-10-06,14.2564
1999-10-07,14.0712
1999-10-08,14.0018
1999-10-11,14.0712
1999-10-12,14.1117
1999-10-13,13.7818
1999-10-14,13.8223
1999-10-15,13.8223
1999-10-18,13.5676
1999-10-19,13.4924
1999-10-20,13.4577
1999-10-21,13.3882
1999-10-22,13.4229
1999-10-25,13.313
1999-10-26,13.313
1999-10-27,13.3882
1999-10-28,13.3882
1999-10-29,13.9265
1999-11-01,14.0712
1999-11-02,14.4706
1999-11-03,14.87
1999-11-04,14.87
1999-11-05,14.5459
1999-11-08,14.3259
1999-11-09,14.1117
1999-11-10,14.2544
1999-11-11,14.0346
1999-11-12,13.8446
1999-11-15,13.6961
1999-11-16,14.1059
1999-11-17,13.9218
1999-11-18,13.8446
1999-11-19,13.9218
1999-11-22,13.8861
1999-11-23,13.7733
1999-11-24,13.7376
1999-11-26,13.7376
1999-11-29,13.5119
1999-11-30,13.5119
1999-12-01,13.6604
1999-12-02,13.5119
1999-12-03,13.5476
1999-12-06,13.3635
1999-12-07,13.4763
1999-12-08,13.3635
1999-12-09,13.2922
1999-12-10,13.0665
1999-12-13,12.8265
1999-12-14,12.7485
1999-12-15,12.6345
1999-12-16,12.7485
1999-12-17,13.6124
1999-12-20,13.5764
1999-12-21,13.6124
1999-12-22,13.4985
1999-12-23,13.4985
1999-12-27,13.4985
1999-12-28,13.5764
1999-12-29,13.6484
1999-12-30,13.6844
1999-12-31,13.6124
2000-01-03,13.6124
2000-01-04,13.5764
2000-01-05,13.6844
2000-01-06,14.2484
2000-01-07,14.4343
2000-01-10,14.7763
2000-01-11,14.6263
2000-01-12,14.6983
2000-01-13,14.5123
2000-01-14,14.4763
2000-01-18,14.2484
2000-01-19,14.1344
2000-01-20,14.0624
2000-01-21,13.7624
2000-01-24,13.7984
2000-01-25,13.6844
2000-01-26,13.7984
2000-01-27,13.7264
2000-01-28,13.5764
2000-01-31,13.6124
2000-02-01,13.7984
2000-02-02,13.7984
2000-02-03,13.7264
2000-02-04,13.7264
2000-02-07,13.5764
2000-02-08,13.5764
2000-02-09,13.6124
2000-02-10,13.6124
2000-02-11,13.4985
2000-02-14,13.4985
2000-02-15,13.5764
2000-02-16,13.6124
2000-02-17,13.7624
2000-02-18,13.4625
2000-02-22,13.4265
2000-02-23,13.2765
2000-02-24,13.3125
2000-02-25,13.1985
2000-02-28,13.1625
2000-02-29,13.2345
2000-03-01,13.0845
2000-03-02,13.0485
2000-03-03,13.1265
2000-03-06,13.0125
2000-03-07,12.8985
2000-03-08,12.7485
2000-03-09,12.7125
2000-03-10,12.5986
2000-03-13,12.8107
2000-03-14,12.7683
2000-03-15,12.8471
2000-03-16,12.9987
2000-03-17,13.1139
2000-03-20,13.0351
2000-03-21,13.1503
2000-03-22,13.1503
2000-03-23,13.2655
2000-03-24,13.1866
2000-03-27,13.0351
2000-03-28,13.1503
2000-03-29,13.1866
2000-03-30,13.1866
2000-03-31,12.8835
2000-04-03,13.1503
2000-04-04,13.1503
2000-04-05,13.3382
2000-04-06,13.4534
2000-04-07,13.4898
2000-04-10,13.5262
2000-04-11,13.6414
2000-04-12,13.7202
2000-04-13,13.6777
2000-04-14,13.605
2000-04-17,13.7202
2000-04-18,13.6777
2000-04-19,13.6414
2000-04-20,13.5686
2000-04-24,13.4534
2000-04-25,13.3746
2000-04-26,13.8293
2000-04-27,13.6414
2000-04-28,13.605
2000-05-01,13.8717
2000-05-02,13.8293
2000-05-03,13.9081
2000-05-04,13.8293
2000-05-05,13.7565
2000-05-08,13.605
2000-05-09,13.5262
2000-05-10,13.4898
2000-05-11,13.4898
2000-05-12,13.417
2000-05-15,13.605
2000-05-16,13.605
2000-05-17,13.5262
2000-05-18,13.5686
2000-05-19,13.5686
2000-05-22,13.5686
2000-05-23,13.6414
2000-05-24,13.5686
2000-05-25,13.4534
2000-05-26,13.4898
2000-05-30,13.5686
2000-05-31,13.5262
2000-06-01,13.5262
2000-06-02,13.9445
2000-06-05,13.8293
2000-06-06,13.6777
2000-06-07,13.4898
2000-06-08,13.8293
2000-06-09,13.6777
2000-06-12,13.9081
2000-06-13,14.0428
2000-06-14,14.4223
2000-06-15,14.5387
2000-06-16,14.4652
2000-06-19,14.3489
2000-06-20,14.655
2000-06-21,14.655
2000-06-22,14.808
2000-06-23,14.7284
2000-06-26,14.808
2000-06-27,15.1141
2000-06-28,14.8815
2000-06-29,14.7284
2000-06-30,14.3856
2000-07-03,14.7284
2000-07-05,14.9243
2000-07-06,14.961
2000-07-07,14.9978
2000-07-10,15.2304
2000-07-11,15.2671
2000-07-12,15.2671
2000-07-13,15.0773
2000-07-14,15.2671
2000-07-17,15.3038
2000-07-18,15.3406
2000-07-19,15.2671
2000-07-20,15.3038
2000-07-21,15.4569
2000-07-24,15.5732
2000-07-25,15.4936
2000-07-26,15.8425
2000-07-27,15.9527
2000-07-28,15.9956
2000-07-31,15.6466
2000-08-01,16.4118
2000-08-02,16.3017
2000-08-03,16.069
2000-08-04,15.6099
2000-08-07,15.4202
2000-08-08,15.4936
2000-08-09,15.4569
2000-08-10,15.2671
2000-08-11,15.4202
2000-08-14,15.3406
2000-08-15,15.3038
2000-08-16,15.3406
2000-08-17,15.3038
2000-08-18,15.3038
2000-08-21,15.3038
2000-08-22,15.3038
2000-08-23,15.0773
2000-08-24,14.8815
2000-08-25,14.6182
2000-08-28,14.5387
2000-08-29,14.4652
2000-08-30,14.655
2000-08-31,14.961
2000-09-01,14.6917
2000-09-05,14.6917
2000-09-06,14.808
2000-09-07,14.961
2000-09-08,15.2671
2000-09-11,15.4202
2000-09-12,15.4936
2000-09-13,15.5366
2000-09-14,15.1064
2000-09-15,15.5808
2000-09-18,14.904
2000-09-19,14.866
2000-09-20,14.866
2000-09-21,14.8281
2000-09-22,14.866
2000-09-25,14.7901
2000-09-26,14.9862
2000-09-27,15.4606
2000-09-28,15.1823
2000-09-29,15.1064
2000-10-02,14.7079
2000-10-03,14.6699
2000-10-04,14.3156
2000-10-05,14.5497
2000-10-06,14.7079
2000-10-09,14.6319
2000-10-10,14.6319
2000-10-11,14.5118
2000-10-12,14.4738
2000-10-13,14.7458
2000-10-16,14.7079
2000-10-17,14.4738
2000-10-18,14.0753
2000-10-19,14.1955
2000-10-20,14.3916
2000-10-23,14.2714
2000-10-24,14.0753
2000-10-25,13.759
2000-10-26,13.8792
2000-10-27,13.9171
2000-10-30,13.9171
2000-10-31,14.1575
2000-11-01,14.2334
2000-11-02,14.1575
2000-11-03,13.6388
2000-11-06,13.759
2000-11-07,13.6831
2000-11-08,13.759
2000-11-09,13.9994
2000-11-10,13.759
2000-11-13,13.6831
2000-11-14,13.6388
2000-11-15,13.4806
2000-11-16,13.6008
2000-11-17,13.4806
2000-11-20,13.5249
2000-11-21,13.6388
2000-11-22,13.6388
2000-11-24,13.6008
2000-11-27,13.5629
2000-11-28,13.6388
2000-11-29,13.721
2000-11-30,13.7969
2000-12-01,13.9171
2000-12-04,14.0753
2000-12-05,14.4738
2000-12-06,14.4738
2000-12-07,14.6319
2000-12-08,14.5497
2000-12-11,14.5877
2000-12-12,14.6699
2000-12-13,14.7285
2000-12-14,14.7733
2000-12-15,15.0479
2000-12-18,15.3672
2000-12-19,15.6483
2000-12-20,15.4503
2000-12-21,15.4886
2000-12-22,15.3672
2000-12-26,15.2906
2000-12-27,15.4886
2000-12-28,15.7696
2000-12-29,15.5716
2001-01-02,15.4886
2001-01-03,15.7313
2001-01-04,16.006
2001-01-05,15.891
2001-01-08,15.8463
2001-01-09,15.9293
2001-01-10,16.006
2001-01-11,16.089
2001-01-12,16.0507
2001-01-16,16.287
2001-01-17,16.3253
2001-01-18,16.4467
2001-01-19,16.6894
2001-01-22,16.6894
2001-01-23,16.6447
2001-01-24,16.6063
2001-01-25,16.766
2001-01-26,16.766
2001-01-29,16.6255
2001-01-30,16.7469
2001-01-31,16.766
2001-02-01,16.6063
2001-02-02,16.5425
2001-02-05,16.4914
2001-02-06,16.5361
2001-02-07,16.5425
2001-02-08,16.4339
2001-02-09,16.3189
2001-02-12,16.4786
2001-02-13,16.3317
2001-02-14,16.3636
2001-02-15,16.5105
2001-02-16,16.4786
2001-02-20,16.3189
2001-02-21,16.1529
2001-02-22,16.0954
2001-02-23,16.0634
2001-02-26,16.1592
2001-02-27,16.2167
2001-02-28,16.4467
2001-03-01,16.485
2001-03-02,16.6255
2001-03-05,16.6063
2001-03-06,16.6
2001-03-07,16.683
2001-03-08,16.6702
2001-03-09,16.7021
2001-03-12,16.6
2001-03-13,16.793
2001-03-14,16.7544
2001-03-15,16.6062
2001-03-16,16.4516
2001-03-19,16.5483
2001-03-20,16.5998
2001-03-21,16.5805
2001-03-22,16.5483
2001-03-23,16.5418
2001-03-26,16.7479
2001-03-27,16.8897
2001-03-28,16.6771
2001-03-29,16.7479
2001-03-30,16.9863
2001-04-02,17.07
2001-04-03,17.012
2001-04-04,17.1409
2001-04-05,17.1602
2001-04-06,17.1344
2001-04-09,17.1473
2001-04-10,17.2311
2001-04-11,16.9412
2001-04-12,16.8832
2001-04-16,16.7866
2001-04-17,17.0958
2001-04-18,17.4243
2001-04-19,17.3728
2001-04-20,17.2182
2001-04-23,17.2182
2001-04-24,17.1151
2001-04-25,17.2311
2001-04-26,17.4114
2001-04-27,17.6755
2001-04-30,17.5467
2001-05-01,17.5596
2001-05-02,17.5982
2001-05-03,17.6498
2001-05-04,17.6884
2001-05-07,17.6047
2001-05-08,17.405
2001-05-09,17.5531
2001-05-10,17.2826
2001-05-11,17.2955
2001-05-14,17.3728
2001-05-15,17.3985
2001-05-16,17.4501
2001-05-17,17.5402
2001-05-18,17.5209
2001-05-21,17.3985
2001-05-22,17.6304
2001-05-23,17.7013
2001-05-24,17.8043
2001-05-25,17.7786
2001-05-29,17.7142
2001-05-30,17.8108
2001-05-31,17.7915
2001-06-01,17.7915
2001-06-04,17.843
2001-06-05,18.0491
2001-06-06,18.1071
2001-06-07,18.1651
2001-06-08,18.1715
2001-06-11,18.2231
2001-06-12,18.6353
2001-06-13,18.6678
2001-06-14,18.7392
2001-06-15,18.7522
2001-06-18,18.869
2001-06-19,19.1221
2001-06-20,19.213
2001-06-21,19.3039
2001-06-22,19.2779
2001-06-25,19.2
2001-06-26,19.2584
2001-06-27,19.4077
2001-06-28,19.4791
2001-06-29,19.3428
2001-07-02,19.4726
2001-07-03,19.57
2001-07-05,19.5765
2001-07-06,19.6739
2001-07-09,19.3753
2001-07-10,19.2584
2001-07-11,19.1027
2001-07-12,19.0313
2001-07-13,19.0702
2001-07-16,18.9664
2001-07-17,18.9858
2001-07-18,19.226
2001-07-19,19.2649
2001-07-20,19.2844
2001-07-23,19.3753
2001-07-24,19.2065
2001-07-25,19.1416
2001-07-26,19.213
2001-07-27,19.1156
2001-07-30,19.1221
2001-07-31,19.1676
2001-08-01,19.2779
2001-08-02,19.6349
2001-08-03,19.6349
2001-08-06,19.8491
2001-08-07,19.9075
2001-08-08,20.1347
2001-08-09,20.7124
2001-08-10,21.7315
2001-08-13,21.6081
2001-08-14,21.8029
2001-08-15,22.2313
2001-08-16,22.0625
2001-08-17,22.0885
2001-08-20,22.3611
2001-08-21,22.4455
2001-08-22,22.5169
2001-08-23,22.4844
2001-08-24,22.3611
2001-08-27,22.3221
2001-08-28,22.1988
2001-08-29,21.8548
2001-08-30,21.5757
2001-08-31,21.5108
2001-09-04,21.3939
2001-09-05,21.2706
2001-09-06,21.0629
2001-09-07,20.972
2001-09-10,21.1733
2001-09-17,21.1935
2001-09-18,21.7591
2001-09-19,22.358
2001-09-20,22.1318
2001-09-21,21.8922
2001-09-24,21.6394
2001-09-25,21.7791
2001-09-26,21.8922
2001-09-27,21.9255
2001-09-28,22.2316
2001-10-01,22.3381
2001-10-02,22.185
2001-10-03,21.7192
2001-10-04,21.9654
2001-10-05,22.2249
2001-10-08,22.2582
2001-10-09,22.4778
2001-10-10,22.6308
2001-10-11,22.9769
2001-10-12,22.6375
2001-10-15,22.8504
2001-10-16,22.9835
2001-10-17,22.8904
2001-10-18,22.5976
2001-10-19,22.4778
2001-10-22,22.1118
2001-10-23,22.1584
2001-10-24,21.8922
2001-10-25,21.6527
2001-10-26,21.9455
2001-10-29,21.9588
2001-10-30,21.8057
2001-10-31,21.8856
2001-11-01,22.185
2001-11-02,22.3314
2001-11-05,22.1517
2001-11-06,22.4978
2001-11-07,22.5976
2001-11-08,22.9369
2001-11-09,22.6441
2001-11-12,22.7573
2001-11-13,22.9902
2001-11-14,23.07
2001-11-15,23.243
2001-11-16,23.1166
2001-11-19,22.9569
2001-11-20,22.9037
2001-11-21,23.0567
2001-11-23,23.1898
2001-11-26,22.917
2001-11-27,22.6242
2001-11-28,22.7573
2001-11-29,22.724
2001-11-30,22.6175
2001-12-03,22.4645
2001-12-04,22.5643
2001-12-05,22.6575
2001-12-06,22.9769
2001-12-07,23.2164
2001-12-10,23.1432
2001-12-11,23.1831
2001-12-12,23.1089
2001-12-13,22.8865
2001-12-14,23.1157
2001-12-17,23.2437
2001-12-18,22.9134
2001-12-19,22.7786
2001-12-20,22.482
2001-12-21,22.3876
2001-12-24,22.6572
2001-12-26,22.7247
2001-12-27,22.5157
2001-12-28,22.5494
2001-12-31,22.5831
2002-01-02,22.846
2002-01-03,23.1089
2002-01-04,23.2572
2002-01-07,23.1696
2002-01-08,23.1898
2002-01-09,23.2033
2002-01-10,23.21
2002-01-11,23.2572
2002-01-14,23.5943
2002-01-15,23.8302
2002-01-16,23.9988
2002-01-17,24.2617
2002-01-18,24.1808
2002-01-22,24.1673
2002-01-23,24.0662
2002-01-24,24.3493
2002-01-25,24.5178
2002-01-28,24.5246
2002-01-29,24.6392
2002-01-30,24.8414
2002-01-31,24.7605
2002-02-01,24.9358
2002-02-04,24.9762
2002-02-05,24.929
2002-02-06,25.0302
2002-02-07,24.9965
2002-02-08,24.9627
2002-02-11,25.2526
2002-02-12,25.0706
2002-02-13,25.1515
2002-02-14,25.1043
2002-02-15,25.138
2002-02-19,25.0234
2002-02-20,25.2257
2002-02-21,24.8684
2002-02-22,24.9627
2002-02-25,25.0908
2002-02-26,24.956
2002-02-27,24.8684
2002-02-28,24.7807
2002-03-01,24.9493
2002-03-04,25.0436
2002-03-05,25.4751
2002-03-06,25.7717
2002-03-07,25.6773
2002-03-08,25.3537
2002-03-11,24.9627
2002-03-12,24.9358
2002-03-13,25.0927
2002-03-14,25.4953
2002-03-15,25.352
2002-03-18,25.3042
2002-03-19,25.2428
2002-03-20,25.2018
2002-03-21,25.2496
2002-03-22,25.5226
2002-03-25,25.4748
2002-03-26,25.4748
2002-03-27,25.4339
2002-03-28,25.2564
2002-04-01,25.4816
2002-04-02,25.6932
2002-04-03,25.741
2002-04-04,25.6249
2002-04-05,25.7
2002-04-08,25.7137
2002-04-09,25.8638
2002-04-10,26.3347
2002-04-11,26.2937
2002-04-12,26.5121
2002-04-15,26.7305
2002-04-16,26.2937
2002-04-17,25.9389
2002-04-18,26.0139
2002-04-19,25.9457
2002-04-22,25.8638
2002-04-23,25.6249
2002-04-24,25.816
2002-04-25,25.6727
2002-04-26,25.5499
2002-04-29,25.4748
2002-04-30,25.9116
2002-05-01,26.2732
2002-05-02,26.5053
2002-05-03,26.6349
2002-05-06,26.4234
2002-05-07,26.1914
2002-05-08,26.0344
2002-05-09,25.8843
2002-05-10,25.0108
2002-05-13,24.6832
2002-05-14,24.3966
2002-05-15,24.3488
2002-05-16,24.4648
2002-05-17,24.4989
2002-05-20,24.3352
2002-05-21,24.1373
2002-05-22,24.0485
2002-05-23,24.4102
2002-05-24,24.2192
2002-05-28,24.4375
2002-05-29,24.9562
2002-05-30,24.9971
2002-05-31,25.0722
2002-06-03,25.0654
2002-06-04,25.079
2002-06-05,25.0722
2002-06-06,24.7105
2002-06-07,24.5126
2002-06-10,24.4853
2002-06-11,24.9766
2002-06-12,24.7561
2002-06-13,24.7631
2002-06-14,24.7009
2002-06-17,24.8598
2002-06-18,24.846
2002-06-19,24.9496
2002-06-20,24.998
2002-06-21,25.4264
2002-06-24,25.0187
2002-06-25,25.2122
2002-06-26,25.0394
2002-06-27,25.3503
2002-06-28,25.7718
2002-07-01,25.4954
2002-07-02,25.2467
2002-07-03,25.1362
2002-07-05,25.2053
2002-07-08,25.074
2002-07-09,24.8114
2002-07-10,24.6525
2002-07-11,24.1758
2002-07-12,24.1136
2002-07-15,23.8372
2002-07-16,23.8441
2002-07-17,24.0307
2002-07-18,23.015
2002-07-19,23.167
2002-07-22,22.8008
2002-07-23,22.3655
2002-07-24,22.6972
2002-07-25,23.4572
2002-07-26,24.0514
2002-07-29,25.4056
2002-07-30,25.7718
2002-07-31,25.8893
2002-08-01,25.8478
2002-08-02,25.1845
2002-08-05,25.0809
2002-08-06,24.6318
2002-08-07,24.5143
2002-08-08,24.2725
2002-08-09,22.0477
2002-08-12,21.8404
2002-08-13,21.6331
2002-08-14,21.6953
2002-08-15,21.7299
2002-08-16,22.0961
2002-08-19,21.9026
2002-08-20,21.7575
2002-08-21,22.1237
2002-08-22,21.799
2002-08-23,22.0753
2002-08-26,22.1444
2002-08-27,22.0961
2002-08-28,22.1237
2002-08-29,22.1582
2002-08-30,22.1721
2002-09-03,22.1237
2002-09-04,22.2826
2002-09-05,22.1721
2002-09-06,22.2273
2002-09-09,22.5382
2002-09-10,22.255
2002-09-11,22.4301
2002-09-12,22.2479
2002-09-13,22.395
2002-09-16,22.339
2002-09-17,22.367
2002-09-18,22.2479
2002-09-19,22.339
2002-09-20,22.4511
2002-09-23,22.5071
2002-09-24,22.36
2002-09-25,22.2479
2002-09-26,22.6893
2002-09-27,22.4721
2002-09-30,22.339
2002-10-01,22.2619
2002-10-02,22.1988
2002-10-03,22.1428
2002-10-04,21.8274
2002-10-07,21.4631
2002-10-08,21.0917
2002-10-09,20.3139
2002-10-10,20.6362
2002-10-11,20.8464
2002-10-14,20.6923
2002-10-15,21.1758
2002-10-16,21.1057
2002-10-17,21.3019
2002-10-18,21.3369
2002-10-21,21.2599
2002-10-22,20.9656
2002-10-23,20.9515
2002-10-24,20.9165
2002-10-25,21.0917
2002-10-28,20.9025
2002-10-29,20.7133
2002-10-30,20.6572
2002-10-31,20.7413
2002-11-01,20.454
2002-11-04,20.7904
2002-11-05,20.6923
2002-11-06,20.9726
2002-11-07,21.1477
2002-11-08,20.8675
2002-11-11,20.8464
2002-11-12,21.2178
2002-11-13,21.358
2002-11-14,21.6453
2002-11-15,21.6943
2002-11-18,21.5472
2002-11-19,21.6172
2002-11-20,21.7083
2002-11-21,21.6733
2002-11-22,21.6242
2002-11-25,21.7434
2002-11-26,21.7574
2002-11-27,21.7924
2002-11-29,21.7994
2002-12-02,22.0867
2002-12-03,22.1778
2002-12-04,21.8835
2002-12-05,21.8695
2002-12-06,21.8485
2002-12-09,21.8975
2002-12-10,21.8975
2002-12-11,21.8483
2002-12-12,21.9051
2002-12-13,22.0473
2002-12-16,22.2393
2002-12-17,22.2464
2002-12-18,22.1113
2002-12-19,22.1469
2002-12-20,22.2322
2002-12-23,22.7583
2002-12-24,22.6943
2002-12-26,22.6161
2002-12-27,22.6659
2002-12-30,22.8223
2002-12-31,22.9716
2003-01-02,23.1707
2003-01-03,23.3129
2003-01-06,23.7466
2003-01-07,23.4622
2003-01-08,23.2347
2003-01-09,23.0996
2003-01-10,22.9787
2003-01-13,22.8365
2003-01-14,22.7441
2003-01-15,22.5521
2003-01-16,22.2393
2003-01-17,21.9336
2003-01-21,21.962
2003-01-22,21.8838
2003-01-23,22.0829
2003-01-24,21.7629
2003-01-27,21.6492
2003-01-28,21.5923
2003-01-29,21.8554
2003-01-30,21.6918
2003-01-31,21.9976
2003-02-03,22.1042
2003-02-04,22.1611
2003-02-05,22.1255
2003-02-06,22.1895
2003-02-07,22.0544
2003-02-10,22.2677
2003-02-11,22.1895
2003-02-12,22.0402
2003-02-13,22.2037
2003-02-14,22.1753
2003-02-18,22.3388
2003-02-19,22.4881
2003-02-20,22.9574
2003-02-21,23.2489
2003-02-24,23.1565
2003-02-25,23.3129
2003-02-26,23.2347
2003-02-27,23.448
2003-02-28,23.4622
2003-03-03,23.6186
2003-03-04,23.5973
2003-03-05,23.647
2003-03-06,23.6115
2003-03-07,23.5973
2003-03-10,23.3626
2003-03-11,23.2844
2003-03-12,23.1691
2003-03-13,23.1402
2003-03-14,20.855
2003-03-17,22.0589
2003-03-18,21.6913
2003-03-19,21.8427
2003-03-20,22.0733
2003-03-21,22.7149
2003-03-24,22.1598
2003-03-25,22.2968
2003-03-26,22.5635
2003-03-27,22.4626
2003-03-28,22.3184
2003-03-31,21.9292
2003-04-01,22.3617
2003-04-02,22.7005
2003-04-03,22.787
2003-04-04,23.0465
2003-04-07,22.9816
2003-04-08,23.0465
2003-04-09,22.9023
2003-04-10,23.1114
2003-04-11,22.8303
2003-04-14,22.9168
2003-04-15,23.0249
2003-04-16,23.1402
2003-04-17,23.5007
2003-04-21,23.789
2003-04-22,24.0197
2003-04-23,24.0341
2003-04-24,23.8972
2003-04-25,23.7314
2003-04-28,23.5223
2003-04-29,23.6449
2003-04-30,23.1402
2003-05-01,23.3205
2003-05-02,23.6953
2003-05-05,23.8107
2003-05-06,23.7962
2003-05-07,23.6376
2003-05-08,23.7169
2003-05-09,24.1927
2003-05-12,24.7334
2003-05-13,24.719
2003-05-14,24.5748
2003-05-15,24.8559
2003-05-16,24.9424
2003-05-19,24.6901
2003-05-20,24.7118
2003-05-21,24.8631
2003-05-22,25.2308
2003-05-23,25.202
2003-05-27,25.0506
2003-05-28,25.0145
2003-05-29,24.1639
2003-05-30,24.6325
2003-06-02,24.8703
2003-06-03,24.928
2003-06-04,25.5912
2003-06-05,25.5912
2003-06-06,25.8219
2003-06-09,25.8868
2003-06-10,25.9156
2003-06-11,25.9877
2003-06-12,25.4624
2003-06-13,24.9806
2003-06-16,25.5427
2003-06-17,25.3821
2003-06-18,24.9441
2003-06-19,24.8784
2003-06-20,24.747
2003-06-23,24.5134
2003-06-24,24.4404
2003-06-25,24.4915
2003-06-26,24.9587
2003-06-27,24.8565
2003-06-30,24.82
2003-07-01,24.893
2003-07-02,25.477
2003-07-03,25.8493
2003-07-07,26.0245
2003-07-08,25.9588
2003-07-09,25.769
2003-07-10,25.2726
2003-07-11,25.2799
2003-07-14,25.6741
2003-07-15,25.8201
2003-07-16,25.8712
2003-07-17,25.6814
2003-07-18,25.769
2003-07-21,25.6522
2003-07-22,25.6741
2003-07-23,25.5427
2003-07-24,25.8566
2003-07-25,26.0756
2003-07-28,25.8055
2003-07-29,26.3019
2003-07-30,26.6231
2003-07-31,26.4333
2003-08-01,26.2435
2003-08-04,26.1559
2003-08-05,25.9807
2003-08-06,25.9369
2003-08-07,27.01
2003-08-08,26.9808
2003-08-11,26.9443
2003-08-12,27.2509
2003-08-13,27.01
2003-08-14,27.0319
2003-08-15,26.9078
2003-08-18,26.9005
2003-08-19,26.8202
2003-08-20,26.6523
2003-08-21,26.8202
2003-08-22,26.6742
2003-08-25,26.3749
2003-08-26,26.499
2003-08-27,26.9224
2003-08-28,26.9443
2003-08-29,26.9443
2003-09-02,27.5137
2003-09-03,27.8422
2003-09-04,28.0174
2003-09-05,27.9736
2003-09-08,27.9298
2003-09-09,27.7911
2003-09-10,27.4261
2003-09-11,27.8843
2003-09-12,27.9582
2003-09-15,27.8399
2003-09-16,27.7365
2003-09-17,27.8621
2003-09-18,28.0838
2003-09-19,28.4384
2003-09-22,28.3941
2003-09-23,28.4015
2003-09-24,28.4901
2003-09-25,28.298
2003-09-26,28.3867
2003-09-29,28.7413
2003-09-30,28.9778
2003-10-01,29.2881
2003-10-02,29.3694
2003-10-03,29.9013
2003-10-06,30.1008
2003-10-07,29.9383
2003-10-08,30.086
2003-10-09,30.2855
2003-10-10,30.1008
2003-10-13,30.2116
2003-10-14,30.256
2003-10-15,30.2043
2003-10-16,30.2855
2003-10-17,30.1082
2003-10-20,30.1378
2003-10-21,30.1452
2003-10-22,30.1378
2003-10-23,29.5615
2003-10-24,29.3324
2003-10-27,29.6132
2003-10-28,29.3398
2003-10-29,29.4063
2003-10-30,29.9309
2003-10-31,29.5467
2003-11-03,30.0122
2003-11-04,30.086
2003-11-05,30.256
2003-11-06,30.5811
2003-11-07,31.7411
2003-11-10,32.0662
2003-11-11,31.5859
2003-11-12,31.9553
2003-11-13,32.2804
2003-11-14,32.5169
2003-11-17,32.1474
2003-11-18,32.2952
2003-11-19,32.3469
2003-11-20,32.2952
2003-11-21,31.8519
2003-11-24,31.9627
2003-11-25,32.2287
2003-11-26,32.5169
2003-11-28,32.805
2003-12-01,33.3665
2003-12-02,33.433
2003-12-03,33.5217
2003-12-04,33.4257
2003-12-05,33.0045
2003-12-08,33.6251
2003-12-09,33.7286
2003-12-10,33.4774
2003-12-11,33.8351
2003-12-12,33.9172
2003-12-15,33.5665
2003-12-16,33.7381
2003-12-17,33.6262
2003-12-18,33.3799
2003-12-19,33.253
2003-12-22,33.2008
2003-12-23,32.8351
2003-12-24,32.8501
2003-12-26,32.7754
2003-12-29,32.9247
2003-12-30,33.2008
2003-12-31,32.8277
2004-01-02,32.8351
2004-01-05,32.671
2004-01-06,32.753
2004-01-07,32.7232
2004-01-08,32.8874
2004-01-09,33.1486
2004-01-12,33.156
2004-01-13,33.1038
2004-01-14,33.3426
2004-01-15,33.5665
2004-01-16,33.1709
2004-01-20,33.2083
2004-01-21,33.4769
2004-01-22,33.7829
2004-01-23,34.1187
2004-01-26,34.9918
2004-01-27,34.8948
2004-01-28,34.6336
2004-01-29,35.059
2004-01-30,35.4619
2004-02-02,35.753
2004-02-03,35.2679
2004-02-04,34.8202
2004-02-05,34.9097
2004-02-06,35.9246
2004-02-09,35.8948
2004-02-10,35.8948
2004-02-11,36.3798
2004-02-12,35.8798
2004-02-13,36.044
2004-02-17,36.2082
2004-02-18,36.1858
2004-02-19,36.0067
2004-02-20,35.9172
2004-02-23,35.7828
2004-02-24,35.7306
2004-02-25,35.7754
2004-02-26,35.5888
2004-02-27,35.5366
2004-03-01,35.7903
2004-03-02,36.0813
2004-03-03,36.5365
2004-03-04,36.5365
2004-03-05,37.1336
2004-03-08,36.6933
2004-03-09,36.7903
2004-03-10,36.0888
2004-03-11,35.6597
2004-03-12,36.1267
2004-03-15,35.8932
2004-03-16,35.848
2004-03-17,36.4733
2004-03-18,36.7068
2004-03-19,36.7821
2004-03-22,36.5938
2004-03-23,36.1041
2004-03-24,36.059
2004-03-25,36.6164
2004-03-26,36.4431
2004-03-29,36.5335
2004-03-30,36.4356
2004-03-31,36.6616
2004-04-01,37.2265
2004-04-02,37.2868
2004-04-05,36.0062
2004-04-06,33.6108
2004-04-07,34.8236
2004-04-08,33.9046
2004-04-12,33.0459
2004-04-13,32.4282
2004-04-14,32.0742
2004-04-15,32.5487
2004-04-16,32.4659
2004-04-19,32.6466
2004-04-20,31.6825
2004-04-21,31.5921
2004-04-22,31.8482
2004-04-23,31.7955
2004-04-26,31.8256
2004-04-27,32.0064
2004-04-28,31.7277
2004-04-29,31.4188
2004-04-30,31.4791
2004-05-03,32.1646
2004-05-04,32.7822
2004-05-05,32.6391
2004-05-06,32.6542
2004-05-07,31.3887
2004-05-10,31.0648
2004-05-11,30.8463
2004-05-12,30.4019
2004-05-13,30.432
2004-05-14,30.6806
2004-05-17,31.0723
2004-05-18,31.6448
2004-05-19,31.6448
2004-05-20,32.2173
2004-05-21,32.1947
2004-05-24,32.7898
2004-05-25,33.4828
2004-05-26,34.4771
2004-05-27,34.2511
2004-05-28,34.6277
2004-06-01,34.3189
2004-06-02,35.1098
2004-06-03,35.4865
2004-06-04,36.0138
2004-06-07,35.6748
2004-06-08,35.8104
2004-06-09,35.2228
2004-06-10,35.0194
2004-06-14,34.2438
2004-06-15,34.7839
2004-06-16,34.7763
2004-06-17,35.0805
2004-06-18,35.0273
2004-06-21,35.4989
2004-06-22,35.5978
2004-06-23,35.8031
2004-06-24,35.8944
2004-06-25,35.4913
2004-06-28,35.8031
2004-06-29,34.7306
2004-06-30,35.0045
2004-07-01,35.2403
2004-07-02,35.8792
2004-07-06,35.7499
2004-07-07,36.4116
2004-07-08,36.0693
2004-07-09,35.7347
2004-07-12,35.9705
2004-07-13,35.7575
2004-07-14,36.1911
2004-07-15,36.5638
2004-07-16,36.5638
2004-07-19,36.8148
2004-07-20,36.6855
2004-07-21,36.1758
2004-07-22,35.4532
2004-07-23,35.0501
2004-07-26,34.6317
2004-07-27,34.7611
2004-07-28,35.5293
2004-07-29,35.2174
2004-07-30,35.6282
2004-08-02,35.9781
2004-08-03,36.366
2004-08-04,36.6474
2004-08-05,36.2443
2004-08-06,36.5181
2004-08-09,36.1911
2004-08-10,36.5105
2004-08-11,36.5105
2004-08-12,36.1987
2004-08-13,36.2443
2004-08-16,36.8908
2004-08-17,37.1951
2004-08-18,37.7427
2004-08-19,37.294
2004-08-20,37.8036
2004-08-23,38.4197
2004-08-24,38.9522
2004-08-25,38.6555
2004-08-26,38.6707
2004-08-27,38.5871
2004-08-30,38.6023
2004-08-31,38.6555
2004-09-01,38.7392
2004-09-02,39.2792
2004-09-03,39.4618
2004-09-07,39.9334
2004-09-08,39.5759
2004-09-09,38.7924
2004-09-10,38.8457
2004-09-13,39.0605
2004-09-14,38.3315
2004-09-15,38.6308
2004-09-16,39.6975
2004-09-17,39.6361
2004-09-20,38.8994
2004-09-21,39.0222
2004-09-22,38.5847
2004-09-23,37.9938
2004-09-24,38.1243
2004-09-27,37.7176
2004-09-28,37.9785
2004-09-29,37.9708
2004-09-30,37.9401
2004-10-01,38.7229
2004-10-04,38.8456
2004-10-05,39.0375
2004-10-06,39.1987
2004-10-07,38.815
2004-10-08,38.9915
2004-10-11,38.8763
2004-10-12,39.2831
2004-10-13,38.8533
2004-10-14,39.3675
2004-10-15,39.897
2004-10-18,40.1732
2004-10-19,39.7819
2004-10-20,39.7205
2004-10-21,40.0505
2004-10-22,39.6207
2004-10-25,39.4442
2004-10-26,39.521
2004-10-27,39.6744
2004-10-28,40.1809
2004-10-29,39.9814
2004-11-01,40.4572
2004-11-02,39.9737
2004-11-03,40.4649
2004-11-04,41.2706
2004-11-05,40.979
2004-11-08,41.0558
2004-11-09,40.8255
2004-11-10,41.0481
2004-11-11,41.8538
2004-11-12,43.051
2004-11-15,43.734
2004-11-16,43.5114
2004-11-17,42.0227
2004-11-18,41.3704
2004-11-19,40.6721
2004-11-22,40.3574
2004-11-23,41.1248
2004-11-24,41.4395
2004-11-26,41.3627
2004-11-29,40.8332
2004-11-30,40.8793
2004-12-01,41.7387
2004-12-02,41.4855
2004-12-03,42.4754
2004-12-06,42.9052
2004-12-07,42.3757
2004-12-08,43.051
2004-12-09,43.6342
2004-12-10,43.8414
2004-12-13,43.6567
2004-12-14,43.6258
2004-12-15,43.5949
2004-12-16,43.4092
2004-12-17,43.5407
2004-12-20,43.6877
2004-12-21,44.0126
2004-12-22,44.4767
2004-12-23,43.796
2004-12-27,43.7805
2004-12-28,43.6258
2004-12-29,43.68
2004-12-30,43.8656
2004-12-31,43.123
2005-01-03,42.7904
2005-01-04,42.0943
2005-01-05,40.7406
2005-01-06,40.8257
2005-01-07,40.9185
2005-01-10,40.8335
2005-01-11,40.7948
2005-01-12,40.6787
2005-01-13,40.8489
2005-01-14,41.1661
2005-01-18,42.5816
2005-01-19,42.3805
2005-01-20,42.1561
2005-01-21,42.1484
2005-01-24,41.9473
2005-01-25,41.1196
2005-01-26,41.3517
2005-01-27,40.787
2005-01-28,41.0578
2005-01-31,40.6787
2005-02-01,40.9959
2005-02-02,42.1175
2005-02-03,42.218
2005-02-04,42.6589
2005-02-07,42.5274
2005-02-08,42.7672
2005-02-09,43.0766
2005-02-10,43.0147
2005-02-11,43.2855
2005-02-14,43.3551
2005-02-15,43.6026
2005-02-16,43.9352
2005-02-17,44.0899
2005-02-18,43.7882
2005-02-22,43.0921
2005-02-23,43.0844
2005-02-24,42.3418
2005-02-25,42.5893
2005-02-28,42.1329
2005-03-01,42.9219
2005-03-02,43.0379
2005-03-03,43.3551
2005-03-04,44.8015
2005-03-07,45.4126
2005-03-08,45.2115
2005-03-09,44.2137
2005-03-10,44.6933
2005-03-11,44.4748
2005-03-14,44.9036
2005-03-15,45.4493
2005-03-16,45.4649
2005-03-17,45.9015
2005-03-18,45.8391
2005-03-21,45.1063
2005-03-22,44.085
2005-03-23,44.3657
2005-03-24,44.3189
2005-03-28,44.3657
2005-03-29,44.1786
2005-03-30,44.2254
2005-03-31,44.3189
2005-04-01,43.9213
2005-04-04,43.7732
2005-04-05,44.0772
2005-04-06,44.0305
2005-04-07,44.241
2005-04-08,44.0617
2005-04-11,44.1552
2005-04-12,44.9348
2005-04-13,45.0361
2005-04-14,44.2721
2005-04-15,44.2721
2005-04-18,44.1708
2005-04-19,44.4203
2005-04-20,44.0227
2005-04-21,44.3969
2005-04-22,44.163
2005-04-25,44.7243
2005-04-26,44.8256
2005-04-27,45.1687
2005-04-28,45.0205
2005-04-29,45.6676
2005-05-02,45.5974
2005-05-03,45.5974
2005-05-04,46.4627
2005-05-05,46.8136
2005-05-06,46.1743
2005-05-09,47.2579
2005-05-10,47.2891
2005-05-11,47.8348
2005-05-12,47.7101
2005-05-13,47.4372
2005-05-16,47.8426
2005-05-17,48.4039
2005-05-18,48.2246
2005-05-19,48.9886
2005-05-20,48.9574
2005-05-23,49.1445
2005-05-24,48.5052
2005-05-25,47.5853
2005-05-26,47.1955
2005-05-27,47.102
2005-05-31,46.9305
2005-06-01,47.7413
2005-06-02,47.6711
2005-06-03,47.6165
2005-06-06,48.2636
2005-06-07,48.856
2005-06-08,49.4095
2005-06-09,48.7937
2005-06-10,48.5754
2005-06-13,49.407
2005-06-14,50.3414
2005-06-15,50.0273
2005-06-16,49.7132
2005-06-17,49.831
2005-06-20,49.8388
2005-06-21,49.352
2005-06-22,49.3284
2005-06-23,49.1007
2005-06-24,49.1164
2005-06-27,49.085
2005-06-28,49.2499
2005-06-29,49.4305
2005-06-30,49.4619
2005-07-01,49.8388
2005-07-05,50.3728
2005-07-06,50.2158
2005-07-07,50.31
2005-07-08,51.7156
2005-07-11,51.9668
2005-07-12,51.9354
2005-07-13,51.9904
2005-07-14,51.056
2005-07-15,51.0795
2005-07-18,51.213
2005-07-19,51.4643
2005-07-20,52.3123
2005-07-21,51.268
2005-07-22,51.3544
2005-07-25,51.4721
2005-07-26,51.9668
2005-07-27,51.8019
2005-07-28,52.5322
2005-07-29,52.4223
2005-08-01,51.1109
2005-08-02,51.0324
2005-08-03,51.2287
2005-08-04,50.8675
2005-08-05,49.4384
2005-08-08,47.9386
2005-08-09,48.2919
2005-08-10,48.3155
2005-08-11,48.6846
2005-08-12,48.9201
2005-08-15,49.4462
2005-08-16,51.5035
2005-08-17,51.6606
2005-08-18,51.9433
2005-08-19,51.7705
2005-08-22,51.8255
2005-08-23,51.9197
2005-08-24,52.1553
2005-08-25,52.6264
2005-08-26,52.3752
2005-08-29,52.0532
2005-08-30,51.9433
2005-08-31,53.129
2005-09-01,53.5923
2005-09-02,53.3803
2005-09-06,54.9821
2005-09-07,54.3461
2005-09-08,54.3147
2005-09-09,55.2256
2005-09-12,54.3304
2005-09-13,53.7926
2005-09-14,53.7452
2005-09-15,53.3576
2005-09-16,53.6661
2005-09-19,52.7328
2005-09-20,52.1949
2005-09-21,51.5542
2005-09-22,51.4593
2005-09-23,51.5621
2005-09-26,51.839
2005-09-27,51.6412
2005-09-28,51.4356
2005-09-29,52.2661
2005-09-30,53.0412
2005-10-03,52.9938
2005-10-04,51.7994
2005-10-05,50.9452
2005-10-06,50.7949
2005-10-07,50.6288
2005-10-10,50.2096
2005-10-11,49.9882
2005-10-12,49.126
2005-10-13,49.0311
2005-10-14,49.9407
2005-10-17,50.2729
2005-10-18,49.917
2005-10-19,50.961
2005-10-20,49.7351
2005-10-21,50.2966
2005-10-24,51.4119
2005-10-25,51.4277
2005-10-26,51.1271
2005-10-27,50.2966
2005-10-28,51.7203
2005-10-31,52.3215
2005-11-01,51.6254
2005-11-02,52.1633
2005-11-03,51.7678
2005-11-04,52.013
2005-11-07,52.6616
2005-11-08,52.7407
2005-11-09,53.2152
2005-11-10,54.196
2005-11-11,54.6706
2005-11-14,54.6627
2005-11-15,55.2322
2005-11-16,54.5045
2005-11-17,55.6039
2005-11-18,55.4932
2005-11-21,55.5881
2005-11-22,55.9203
2005-11-23,56.0785
2005-11-25,56.2999
2005-11-28,56.1971
2005-11-29,56.5135
2005-11-30,55.8254
2005-12-01,56.5135
2005-12-02,56.6321
2005-12-05,55.9519
2005-12-06,55.4536
2005-12-07,55.0186
2005-12-08,55.2401
2005-12-09,55.6197
2005-12-12,55.1926
2005-12-13,55.7981
2005-12-14,56.1805
2005-12-15,55.5511
2005-12-16,55.5272
2005-12-19,55.4714
2005-12-20,55.1687
2005-12-21,55.583
2005-12-22,55.5192
2005-12-23,56.0371
2005-12-27,55.5431
2005-12-28,55.1528
2005-12-29,54.4836
2005-12-30,54.0295
2006-01-03,55.6865
2006-01-04,55.9255
2006-01-05,56.8974
2006-01-06,57.2719
2006-01-09,57.9172
2006-01-10,58.4669
2006-01-11,58.5306
2006-01-12,58.2199
2006-01-13,57.0249
2006-01-17,56.8656
2006-01-18,56.2681
2006-01-19,57.0249
2006-01-20,56.0371
2006-01-23,56.4035
2006-01-24,56.8417
2006-01-25,56.9851
2006-01-26,56.9373
2006-01-27,57.8614
2006-01-30,57.3675
2006-01-31,57.7578
2006-02-01,57.949
2006-02-02,57.5507
2006-02-03,56.6664
2006-02-06,57.7977
2006-02-07,58.0765
2006-02-08,58.2757
2006-02-09,58.913
2006-02-10,59.1201
2006-02-13,59.391
2006-02-14,59.8053
2006-02-15,60.1319
2006-02-16,60.5302
2006-02-17,61.1038
2006-02-21,60.7055
2006-02-22,61.7332
2006-02-23,61.9244
2006-02-24,61.6296
2006-02-27,61.9801
2006-02-28,62.1156
2006-03-01,62.2749
2006-03-02,62.4024
2006-03-03,62.3864
2006-03-06,63.2548
2006-03-07,61.5021
2006-03-08,64.0913
2006-03-09,65.6527
2006-03-10,66.0351
2006-03-13,65.7061
2006-03-14,65.7542
2006-03-15,66.8683
2006-03-16,66.5156
2006-03-17,66.163
2006-03-20,65.4336
2006-03-21,65.3535
2006-03-22,65.658
2006-03-23,65.5779
2006-03-24,64.9207
2006-03-27,63.4299
2006-03-28,64.4077
2006-03-29,65.8985
2006-03-30,65.0649
2006-03-31,65.2092
2006-04-03,63.2055
2006-04-04,62.5483
2006-04-05,62.7807
2006-04-06,62.1475
2006-04-07,60.8571
2006-04-10,60.1839
2006-04-11,60.7369
2006-04-12,60.809
2006-04-13,59.8312
2006-04-17,59.2621
2006-04-18,61.2739
2006-04-19,62.0433
2006-04-20,62.1395
2006-04-21,62.1716
2006-04-24,61.7468
2006-04-25,61.9471
2006-04-26,61.6265
2006-04-27,61.9151
2006-04-28,61.6506
2006-05-01,60.6487
2006-05-02,59.743
2006-05-03,60.8731
2006-05-04,62.1315
2006-05-05,61.9632
2006-05-08,62.7566
2006-05-09,62.3399
2006-05-10,62.7005
2006-05-11,60.4484
2006-05-12,59.1339
2006-05-15,59.8072
2006-05-16,59.0698
2006-05-17,57.7714
2006-05-18,57.6351
2006-05-19,58.2042
2006-05-22,57.9397
2006-05-23,57.4187
2006-05-24,57.8195
2006-05-25,58.4847
2006-05-26,59.0297
2006-05-30,58.1721
2006-05-31,57.8248
2006-06-01,59.4066
2006-06-02,60.1087
2006-06-05,59.4792
2006-06-06,58.8175
2006-06-07,58.9789
2006-06-08,58.6964
2006-06-09,59.2371
2006-06-12,58.1799
2006-06-13,58.1315
2006-06-14,58.1638
2006-06-15,59.2936
2006-06-16,59.221
2006-06-19,59.4066
2006-06-20,58.5673
2006-06-21,59.0757
2006-06-22,58.5754
2006-06-23,58.3252
2006-06-26,59.0596
2006-06-27,58.7126
2006-06-28,58.9627
2006-06-29,60.706
2006-06-30,61.3597
2006-07-03,62.4088
2006-07-05,62.893
2006-07-06,63.2804
2006-07-07,63.1352
2006-07-10,63.7566
2006-07-11,63.7808
2006-07-12,64.4103
2006-07-13,63.3934
2006-07-14,62.4411
2006-07-17,61.9004
2006-07-18,61.7955
2006-07-19,62.4653
2006-07-20,62.2474
2006-07-21,61.0207
2006-07-24,62.3039
2006-07-25,62.5864
2006-07-26,63.0625
2006-07-27,63.5548
2006-07-28,64.4668
2006-07-31,64.8057
2006-08-01,64.6605
2006-08-02,64.9672
2006-08-03,67.3076
2006-08-04,69.1396
2006-08-07,67.7757
2006-08-08,66.557
2006-08-09,66.4118
2006-08-10,66.896
2006-08-11,66.3553
2006-08-14,67.2834
2006-08-15,68.4939
2006-08-16,69.2848
2006-08-17,69.4624
2006-08-18,69.4947
2006-08-21,71.0926
2006-08-22,69.7771
2006-08-23,68.7118
2006-08-24,68.9055
2006-08-25,68.6796
2006-08-28,69.1073
2006-08-29,69.3091
2006-08-30,70.0838
2006-08-31,69.8659
2006-09-01,69.8821
2006-09-05,70.2452
2006-09-06,69.8659
2006-09-07,69.1477
2006-09-08,69.9547
2006-09-11,70.0112
2006-09-12,70.6488
2006-09-13,71.4194
2006-09-14,71.4357
2006-09-15,72.2798
2006-09-18,70.9974
2006-09-19,72.223
2006-09-20,70.9081
2006-09-21,70.1289
2006-09-22,70.4454
2006-09-25,70.137
2006-09-26,69.65
2006-09-27,70.0071
2006-09-28,69.8204
2006-09-29,69.8854
2006-10-02,69.5364
2006-10-03,70.2993
2006-10-04,72.2474
2006-10-05,72.637
2006-10-06,71.5412
2006-10-09,72.1013
2006-10-10,71.8902
2006-10-11,72.4665
2006-10-12,72.6613
2006-10-13,72.1581
2006-10-16,72.6694
2006-10-17,71.8902
2006-10-18,72.5396
2006-10-19,71.9876
2006-10-20,71.6143
2006-10-23,72.2717
2006-10-24,71.947
2006-10-25,72.1743
2006-10-26,72.6857
2006-10-27,71.7035
2006-10-30,72.3448
2006-10-31,72.7344
2006-11-01,72.0688
2006-11-02,70.5672
2006-11-03,70.137
2006-11-06,71.2652
2006-11-07,70.6321
2006-11-08,70.6646
2006-11-09,70.2588
2006-11-10,70.6484
2006-11-13,70.8188
2006-11-14,71.5737
2006-11-15,71.8009
2006-11-16,72.2555
2006-11-17,72.2636
2006-11-20,76.2165
2006-11-21,77.1255
2006-11-22,77.4746
2006-11-24,78.0671
2006-11-27,76.6954
2006-11-28,76.7197
2006-11-29,77.3772
2006-11-30,78.0752
2006-12-01,77.3853
2006-12-04,79.2197
2006-12-05,78.3025
2006-12-06,77.5314
2006-12-07,76.9713
2006-12-08,77.1905
2006-12-11,77.8236
2006-12-12,78.5216
2006-12-13,78.3671
2006-12-14,79.2075
2006-12-15,78.4161
2006-12-18,78.3508
2006-12-19,77.902
2006-12-20,78.5629
2006-12-21,77.7878
2006-12-22,76.8659
2006-12-26,77.3064
2006-12-27,79.0443
2006-12-28,79.5502
2006-12-29,79.5338
2007-01-03,80.8311
2007-01-04,80.3497
2007-01-05,79.1993
2007-01-08,79.4196
2007-01-09,80.619
2007-01-10,82.5037
2007-01-11,83.5154
2007-01-12,83.9234
2007-01-16,85.4817
2007-01-17,85.2125
2007-01-18,84.6332
2007-01-19,84.8535
2007-01-22,83.6052
2007-01-23,84.0213
2007-01-24,85.0248
2007-01-25,85.4083
2007-01-26,86.3711
2007-01-29,86.42
2007-01-30,87.701
2007-01-31,88.7698
2007-02-01,89.2267
2007-02-02,89.3654
2007-02-05,89.8305
2007-02-06,91.1359
2007-02-07,94.0405
2007-02-08,94.065
2007-02-09,91.3889
2007-02-12,89.1941
2007-02-13,90.4424
2007-02-14,89.9937
2007-02-15,91.0299
2007-02-16,91.3807
2007-02-20,91.9029
2007-02-21,90.7769
2007-02-22,89.7163
2007-02-23,86.673
2007-02-26,86.7138
2007-02-27,84.0866
2007-02-28,82.4874
2007-03-01,81.9652
2007-03-02,79.7541
2007-03-05,77.0617
2007-03-06,79.9255
2007-03-07,78.5303
2007-03-08,79.542
2007-03-09,80.8066
2007-03-12,80.6271
2007-03-13,77.7985
2007-03-14,78.4545
2007-03-15,79.988
2007-03-16,78.6021
2007-03-19,79.1762
2007-03-20,78.5529
2007-03-21,80.2012
2007-03-22,79.6928
2007-03-23,79.8404
2007-03-26,78.4299
2007-03-27,77.2736
2007-03-28,76.757
2007-03-29,77.1342
2007-03-30,77.7329
2007-04-02,78.7251
2007-04-03,79.9552
2007-04-04,79.7338
2007-04-05,79.127
2007-04-09,78.8071
2007-04-10,79.1352
2007-04-11,77.3638
2007-04-12,76.511
2007-04-13,77.167
2007-04-16,76.716
2007-04-17,78.9794
2007-04-18,78.8481
2007-04-19,78.3233
2007-04-20,78.4381
2007-04-23,79.6436
2007-04-24,78.8071
2007-04-25,78.8973
2007-04-26,78.6267
2007-04-27,78.2495
2007-04-30,76.6258
2007-05-01,75.0513
2007-05-02,75.2235
2007-05-03,75.2481
2007-05-04,73.7474
2007-05-07,74.1328
2007-05-08,73.854
2007-05-09,73.5916
2007-05-10,72.1893
2007-05-11,72.1565
2007-05-14,72.9438
2007-05-15,71.9269
2007-05-16,70.6394
2007-05-17,68.6385
2007-05-18,68.171
2007-05-21,69.3437
2007-05-22,69.7784
2007-05-23,69.0075
2007-05-24,67.392
2007-05-25,67.7118
2007-05-29,69.7046
2007-05-30,73.2718
2007-05-31,73.3784
2007-06-01,73.1488
2007-06-04,73.5424
2007-06-05,72.2385
2007-06-06,71.4431
2007-06-07,68.8107
2007-06-08,69.0239
2007-06-11,67.7036
2007-06-12,66.7688
2007-06-13,68.2875
2007-06-14,67.5119
2007-06-15,68.5681
2007-06-18,68.172
2007-06-19,68.1638
2007-06-20,66.3815
2007-06-21,65.6306
2007-06-22,65.3583
2007-06-25,63.9391
2007-06-26,63.9886
2007-06-27,65.7461
2007-06-28,64.5497
2007-06-29,63.2377
2007-07-02,65.2676
2007-07-03,65.3913
2007-07-05,66.2577
2007-07-06,66.3072
2007-07-09,66.6373
2007-07-10,63.4688
2007-07-11,63.1305
2007-07-12,63.9309
2007-07-13,64.921
2007-07-16,64.9045
2007-07-17,64.3682
2007-07-18,63.4688
2007-07-19,64.4507
2007-07-20,62.9655
2007-07-23,61.7608
2007-07-24,60.8201
2007-07-25,59.7805
2007-07-26,58.5428
2007-07-27,57.6021
2007-07-30,58.4273
2007-07-31,57.7589
2007-08-01,60.1518
2007-08-02,61.1419
2007-08-03,59.4834
2007-08-06,60.5643
2007-08-07,60.8531
2007-08-08,63.4523
2007-08-09,62.7922
2007-08-10,58.9223
2007-08-13,58.3035
2007-08-14,57.3958
2007-08-15,57.074
2007-08-16,60.2508
2007-08-17,62.0743
2007-08-20,62.6189
2007-08-21,62.9655
2007-08-22,63.8401
2007-08-23,62.5116
2007-08-24,62.0991
2007-08-27,60.8036
2007-08-28,58.1467
2007-08-29,60.4901
2007-08-30,60.6303
2007-08-31,62.4786
2007-09-04,63.9639
2007-09-05,62.2888
2007-09-06,63.4275
2007-09-07,61.2987
2007-09-10,60.4019
2007-09-11,60.7923
2007-09-12,61.1578
2007-09-13,63.4672
2007-09-14,63.6251
2007-09-17,63.9241
2007-09-18,65.4111
2007-09-19,66.2003
2007-09-20,64.8712
2007-09-21,64.5887
2007-09-24,66.3914
2007-09-25,65.2284
2007-09-26,64.8961
2007-09-27,65.2699
2007-09-28,65.3197
2007-10-01,67.0061
2007-10-02,68.8586
2007-10-03,68.7589
2007-10-04,69.4567
2007-10-05,71.0102
2007-10-08,69.0995
2007-10-09,69.7724
2007-10-10,69.5315
2007-10-11,68.7257
2007-10-12,68.5346
2007-10-15,67.1473
2007-10-16,65.4444
2007-10-17,64.9875
2007-10-18,64.8545
2007-10-19,62.8442
2007-10-22,63.5586
2007-10-23,64.273
2007-10-24,64.6718
2007-10-25,64.7133
2007-10-26,65.0955
2007-10-29,65.2201
2007-10-30,65.6188
2007-10-31,67.1889
2007-11-01,63.758
2007-11-02,63.1349
2007-11-05,61.8972
2007-11-06,61.5483
2007-11-07,59.2389
2007-11-08,59.5047
2007-11-09,62.271
2007-11-12,63.2512
2007-11-13,65.3114
2007-11-14,63.974
2007-11-15,63.4922
2007-11-16,62.5036
2007-11-19,61.9387
2007-11-20,61.5649
2007-11-21,62.0965
2007-11-23,63.3426
2007-11-26,59.5545
2007-11-27,61.3572
2007-11-28,63.4672
2007-11-29,63.1848
2007-11-30,64.3229
2007-12-03,63.2845
2007-12-04,61.8141
2007-12-05,64.3727
2007-12-06,66.5991
2007-12-07,65.5939
2007-12-10,67.9282
2007-12-11,64.2838
2007-12-12,64.3757
2007-12-13,63.9495
2007-12-14,61.0324
2007-12-17,61.0408
2007-12-18,62.4199
2007-12-19,62.9548
2007-12-20,63.2139
2007-12-21,64.2169
2007-12-24,65.7716
2007-12-26,65.0611
2007-12-27,62.7459
2007-12-28,61.0324
2007-12-31,61.35
2008-01-02,61.9351
2008-01-03,60.4223
2008-01-04,58.4831
2008-01-07,58.3745
2008-01-08,55.6329
2008-01-09,58.1655
2008-01-10,59.762
2008-01-11,60.2467
2008-01-14,61.0157
2008-01-15,60.1047
2008-01-16,60.3972
2008-01-17,60.1297
2008-01-18,60.3638
2008-01-22,62.3112
2008-01-23,67.7191
2008-01-24,66.0558
2008-01-25,64.4008
2008-01-28,66.7328
2008-01-29,65.688
2008-01-30,64.1751
2008-01-31,65.2617
2008-02-01,67.8277
2008-02-04,67.1841
2008-02-05,64.685
2008-02-06,63.7489
2008-02-07,64.451
2008-02-08,61.6426
2008-02-11,60.765
2008-02-12,62.3447
2008-02-13,62.8629
2008-02-14,61.6175
2008-02-15,61.8515
2008-02-19,61.0073
2008-02-20,63.2223
2008-02-21,62.796
2008-02-22,63.5817
2008-02-25,66.7495
2008-02-26,67.1758
2008-02-27,67.3346
2008-02-28,68.4713
2008-02-29,67.8946
2008-03-03,69.023
2008-03-04,68.0952
2008-03-05,67.8528
2008-03-06,64.9943
2008-03-07,65.897
2008-03-10,66.365
2008-03-11,71.0373
2008-03-12,70.5244
2008-03-13,72.4594
2008-03-14,71.4751
2008-03-17,71.1554
2008-03-18,74.8738
2008-03-19,75.2356
2008-03-20,77.5827
2008-03-24,79.2148
2008-03-25,75.7235
2008-03-26,74.8738
2008-03-27,74.4868
2008-03-28,74.0325
2008-03-31,74.6299
2008-04-01,79.3578
2008-04-02,77.1873
2008-04-03,77.9697
2008-04-04,76.3713
2008-04-07,77.4902
2008-04-08,76.2199
2008-04-09,75.2692
2008-04-10,77.12
2008-04-11,75.5889
2008-04-14,75.9254
2008-04-15,78.0539
2008-04-16,80.7207
2008-04-17,80.2412
2008-04-18,79.2401
2008-04-21,78.6596
2008-04-22,79.2485
2008-04-23,79.2905
2008-04-24,81.6629
2008-04-25,81.2255
2008-04-28,80.3253
2008-04-29,78.1127
2008-04-30,76.4554
2008-05-01,78.4577
2008-05-02,77.3892
2008-05-05,78.525
2008-05-06,78.7774
2008-05-07,76.8172
2008-05-08,77.1958
2008-05-09,72.6444
2008-05-12,73.0903
2008-05-13,75.1767
2008-05-14,73.7549
2008-05-15,75.2103
2008-05-16,75.1683
2008-05-19,74.5205
2008-05-20,73.3595
2008-05-21,71.9714
2008-05-22,72.2995
2008-05-23,72.0976
2008-05-27,72.9894
2008-05-28,72.3416
2008-05-29,73.7802
2008-05-30,74.327
2008-06-02,71.9209
2008-06-03,73.0398
2008-06-04,73.7549
2008-06-05,75.6646
2008-06-06,72.0471
2008-06-09,71.8705
2008-06-10,71.8368
2008-06-11,71.2099
2008-06-12,70.16
2008-06-13,72.6324
2008-06-16,72.3276
2008-06-17,69.3556
2008-06-18,68.1532
2008-06-19,70.1346
2008-06-20,69.7282
2008-06-23,68.0178
2008-06-24,68.8984
2008-06-25,70.1431
2008-06-26,68.5766
2008-06-27,67.3827
2008-06-30,68.5681
2008-07-01,68.6697
2008-07-02,68.1278
2008-07-03,67.8823
2008-07-07,65.5876
2008-07-08,70.3632
2008-07-09,64.7325
2008-07-10,66.1719
2008-07-11,66.536
2008-07-14,64.1059
2008-07-15,64.8002
2008-07-16,69.4487
2008-07-17,70.8543
2008-07-18,71.4386
2008-07-21,69.3895
2008-07-22,71.7772
2008-07-23,72.3192
2008-07-24,67.442
2008-07-25,69.3133
2008-07-28,67.5521
2008-07-29,72.0228
2008-07-30,70.922
2008-07-31,69.4826
2008-08-01,68.8814
2008-08-04,69.1862
2008-08-05,72.8102
2008-08-06,71.718
2008-08-07,67.823
2008-08-08,73.2421
2008-08-11,74.5714
2008-08-12,73.2252
2008-08-13,72.3361
2008-08-14,74.3174
2008-08-15,74.8763
2008-08-18,74.4106
2008-08-19,71.9889
2008-08-20,72.8441
2008-08-21,71.591
2008-08-22,74.5037
2008-08-25,72.4462
2008-08-26,73.132
2008-08-27,73.911
2008-08-28,76.1294
2008-08-29,75.071
2008-09-02,77.0862
2008-09-03,77.6789
2008-09-04,75.342
2008-09-05,74.9694
2008-09-08,78.839
2008-09-09,74.0041
2008-09-10,73.1066
2008-09-11,75.7148
2008-09-12,76.1324
2008-09-15,73.4054
2008-09-16,77.7089
2008-09-17,73.7719
2008-09-18,84.0575
2008-09-19,86.0771
2008-09-22,77.8196
2008-09-23,78.5355
2008-09-24,77.2998
2008-09-25,79.1575
2008-09-26,82.9667
2008-09-29,78.6548
2008-09-30,85.1568
2008-10-01,84.6455
2008-10-02,78.1435
2008-10-03,74.999
2008-10-06,72.2039
2008-10-07,65.5996
2008-10-08,65.7445
2008-10-09,61.1854
2008-10-10,75.4592
2008-10-13,75.2802
2008-10-14,69.8008
2008-10-15,61.3132
2008-10-16,65.949
2008-10-17,64.6963
2008-10-20,67.4744
2008-10-21,64.1765
2008-10-22,60.2225
2008-10-23,62.387
2008-10-24,60.1032
2008-10-27,56.4815
2008-10-28,66.716
2008-10-29,64.6196
2008-10-30,67.2443
2008-10-31,71.7182
2008-11-03,67.8067
2008-11-04,71.8034
2008-11-05,64.4748
2008-11-06,60.5889
2008-11-07,65.6848
2008-11-10,61.9012
2008-11-11,59.6515
2008-11-12,55.8679
2008-11-13,61.7478
2008-11-14,54.5215
2008-11-17,54.5556
2008-11-18,55.2458
2008-11-19,48.5478
2008-11-20,45.4715
2008-11-21,51.6071
2008-11-24,60.0094
2008-11-25,60.4525
2008-11-26,61.833
2008-11-28,59.5578
2008-12-01,48.2581
2008-12-02,55.2799
2008-12-03,57.2228
2008-12-04,55.6719
2008-12-05,59.5919
2008-12-08,65.1395
2008-12-09,60.2821
2008-12-10,64.5088
2008-12-11,55.5801
2008-12-12,59.9241
2008-12-15,58.5569
2008-12-16,65.5574
2008-12-17,66.1891
2008-12-18,61.8278
2008-12-19,65.1161
2008-12-22,64.718
2008-12-23,63.9392
2008-12-24,63.7229
2008-12-26,64.6834
2008-12-29,62.3816
2008-12-30,65.0901
2008-12-31,68.9495
2009-01-02,65.618
2009-01-05,62.4162
2009-01-06,64.095
2009-01-07,59.751
2009-01-08,58.4703
2009-01-09,56.6185
2009-01-12,55.3465
2009-01-13,56.307
2009-01-14,54.3946
2009-01-15,55.9695
2009-01-16,58.4011
2009-01-20,51.9111
2009-01-21,57.631
2009-01-22,53.6331
2009-01-23,55.5801
2009-01-26,55.433
2009-01-27,56.7224
2009-01-28,60.7029
2009-01-29,55.1301
2009-01-30,53.3043
2009-02-02,54.9311
2009-02-03,54.2908
2009-02-04,54.2302
2009-02-05,53.5206
2009-02-06,56.2637
2009-02-09,56.8954
2009-02-10,52.3005
2009-02-11,53.6331
2009-02-12,54.0571
2009-02-13,50.0074
2009-02-17,46.5201
2009-02-18,47.7489
2009-02-19,44.5818
2009-02-20,47.7402
2009-02-23,44.1664
2009-02-24,48.32
2009-02-25,46.9787
2009-02-26,45.326
2009-02-27,47.9652
2009-03-02,43.6559
2009-03-03,43.2059
2009-03-04,43.3271
2009-03-05,41.4406
2009-03-06,42.6867
2009-03-09,43.5607
2009-03-10,48.7094
2009-03-11,47.0739
2009-03-12,50.7319
2009-03-13,49.4644
2009-03-16,46.1691
2009-03-17,49.9277
2009-03-18,51.4399
2009-03-19,48.2932
2009-03-20,45.2251
2009-03-23,51.5972
2009-03-24,46.9471
2009-03-25,48.6078
2009-03-26,49.884
2009-03-27,47.2268
2009-03-30,45.0503
2009-03-31,48.3019
2009-04-01,47.5589
2009-04-02,50.7406
2009-04-03,54.4118
2009-04-06,53.9747
2009-04-07,49.7179
2009-04-08,51.6059
2009-04-09,56.8941
2009-04-13,56.09
2009-04-14,51.3874
2009-04-15,56.055
2009-04-16,56.999
2009-04-17,56.1337
2009-04-20,51.8245
2009-04-21,55.4956
2009-04-22,53.223
2009-04-23,56.2299
2009-04-24,58.7297
2009-04-27,56.3085
2009-04-28,55.3295
2009-04-29,57.5585
2009-04-30,58.249
2009-05-01,56.6581
2009-05-04,59.9709
2009-05-05,55.9414
2009-05-06,57.1302
2009-05-07,54.4467
2009-05-08,57.6808
2009-05-11,55.0498
2009-05-12,55.9589
2009-05-13,53.9485
2009-05-14,55.4781
2009-05-15,53.6775
2009-05-18,57.8644
2009-05-19,56.527
2009-05-20,56.2124
2009-05-21,56.2299
2009-05-22,56.0725
2009-05-26,58.6511
2009-05-27,56.8767
2009-05-28,57.3924
2009-05-29,58.1616
2009-06-01,58.7734
2009-06-02,57.034
2009-06-03,57.8906
2009-06-04,59.4377
2009-06-05,58.1091
2009-06-08,57.7857
2009-06-09,58.3014
2009-06-10,58.0392
2009-06-11,57.8898
2009-06-12,59.494
2009-06-15,57.3874
2009-06-16,57.0261
2009-06-17,56.0213
2009-06-18,56.6471
2009-06-19,56.982
2009-06-22,54.5846
2009-06-23,54.8314
2009-06-24,56.3298
2009-06-25,56.885
2009-06-26,57.0261
2009-06-29,56.9115
2009-06-30,57.7047
2009-07-01,58.6038
2009-07-02,56.224
2009-07-06,58.1983
2009-07-07,55.7657
2009-07-08,56.0654
2009-07-09,55.184
2009-07-10,54.9812
2009-07-13,57.079
2009-07-14,57.2288
2009-07-15,58.7183
2009-07-16,59.0004
2009-07-17,58.2953
2009-07-20,59.3265
2009-07-21,59.3529
2009-07-22,59.4323
2009-07-23,61.8914
2009-07-24,61.433
2009-07-27,61.8914
2009-07-28,61.909
2009-07-29,61.7415
2009-07-30,63.3457
2009-07-31,64.1213
2009-08-03,64.844
2009-08-04,66.2807
2009-08-05,68.6604
2009-08-06,66.3953
2009-08-07,68.1316
2009-08-10,66.5627
2009-08-11,64.0596
2009-08-12,64.3593
2009-08-13,63.9626
2009-08-14,62.8697
2009-08-17,59.5997
2009-08-18,59.6791
2009-08-19,59.397
2009-08-20,60.7279
2009-08-21,61.9531
2009-08-24,62.1646
2009-08-25,62.5788
2009-08-26,62.3585
2009-08-27,63.2223
2009-08-28,63.0107
2009-08-31,62.1998
2009-09-01,59.5733
2009-09-02,59.6174
2009-09-03,60.7455
2009-09-04,61.4683
2009-09-08,61.9795
2009-09-09,62.3144
2009-09-10,62.7904
2009-09-11,62.1509
2009-09-14,64.709
2009-09-15,66.3967
2009-09-16,68.564
2009-09-17,68.2887
2009-09-18,69.1325
2009-09-21,68.191
2009-09-22,70.5004
2009-09-23,68.262
2009-09-24,66.2635
2009-09-25,65.9348
2009-09-28,69.3634
2009-09-29,67.9423
2009-09-30,66.8408
2009-10-01,64.6646
2009-10-02,63.6964
2009-10-05,64.2205
2009-10-06,64.2471
2009-10-07,64.256
2009-10-08,64.0517
2009-10-09,64.4159
2009-10-12,64.2471
2009-10-13,63.4921
2009-10-14,65.5173
2009-10-15,66.0059
2009-10-16,64.9489
2009-10-19,65.9348
2009-10-20,65.9348
2009-10-21,64.6468
2009-10-22,66.3789
2009-10-23,66.2457
2009-10-26,65.917
2009-10-27,65.695
2009-10-28,63.4477
2009-10-29,66.3612
2009-10-30,65.3841
2009-11-02,65.6062
2009-11-03,66.7342
2009-11-04,66.3345
2009-11-05,68.1732
2009-11-06,67.4271
2009-11-09,70.3494
2009-11-10,69.8964
2009-11-11,70.687
2009-11-12,69.9053
2009-11-13,71.0156
2009-11-16,72.2769
2009-11-17,71.06
2009-11-18,71.6818
2009-11-19,70.2339
2009-11-20,69.8342
2009-11-23,70.8202
2009-11-24,70.0829
2009-11-25,70.0474
2009-11-27,67.8978
2009-11-30,70.9534
2009-12-01,70.9712
2009-12-02,71.1133
2009-12-03,69.1769
2009-12-04,70.9268
2009-12-07,69.5056
2009-12-08,68.6617
2009-12-09,68.3153
2009-12-10,68.1199
2009-12-11,69.4433
2009-12-14,70.7495
2009-12-15,70.0248
2009-12-16,71.0626
2009-12-17,71.0
2009-12-18,70.9463
2009-12-21,72.0288
2009-12-22,73.4155
2009-12-23,74.2207
2009-12-24,75.2675
2009-12-28,74.9365
2009-12-29,73.8897
2009-12-30,74.0239
2009-12-31,72.8609
2010-01-04,71.671
2010-01-05,72.3777
2010-01-06,71.8231
2010-01-07,71.8141
2010-01-08,70.4632
2010-01-11,70.991
2010-01-12,69.819
2010-01-13,71.0894
2010-01-14,70.8121
2010-01-15,70.6421
2010-01-19,72.0825
2010-01-20,71.3936
2010-01-21,70.5169
2010-01-22,69.5417
2010-01-25,70.4095
2010-01-26,70.1232
2010-01-27,71.5457
2010-01-28,70.2395
2010-01-29,70.8658
2010-02-01,71.9841
2010-02-02,72.5298
2010-02-03,71.3936
2010-02-04,68.5933
2010-02-05,69.4254
2010-02-08,67.9402
2010-02-09,67.8329
2010-02-10,68.0923
2010-02-11,68.6739
2010-02-12,68.486
2010-02-16,69.8817
2010-02-17,70.4542
2010-02-18,71.501
2010-02-19,72.9324
2010-02-22,72.673
2010-02-23,71.7783
2010-02-24,72.9414
2010-02-25,73.2366
2010-02-26,73.5497
2010-03-01,75.7506
2010-03-02,76.1264
2010-03-03,75.8848
2010-03-04,76.6453
2010-03-05,78.1841
2010-03-08,78.1841
2010-03-09,78.3719
2010-03-10,78.6224
2010-03-11,79.4521
2010-03-12,80.1371
2010-03-15,80.083
2010-03-16,81.8496
2010-03-17,82.6518
2010-03-18,82.787
2010-03-19,82.0299
2010-03-22,82.769
2010-03-23,83.0304
2010-03-24,83.8596
2010-03-25,83.0304
2010-03-26,83.0664
2010-03-29,83.427
2010-03-30,83.9858
2010-03-31,82.9042
2010-04-01,83.2377
2010-04-05,84.4815
2010-04-06,85.2837
2010-04-07,84.0759
2010-04-08,83.8596
2010-04-09,85.2837
2010-04-12,84.6708
2010-04-13,85.7884
2010-04-14,85.8245
2010-04-15,84.121
2010-04-16,82.787
2010-04-19,83.3909
2010-04-20,84.4365
2010-04-21,85.1305
2010-04-22,86.5636
2010-04-23,86.7078
2010-04-26,87.6993
2010-04-27,85.509
2010-04-28,85.6532
2010-04-29,89.3847
2010-04-30,87.3658
2010-05-03,90.3582
2010-05-04,88.6096
2010-05-05,87.3568
2010-05-06,85.3378
2010-05-07,84.0579
2010-05-10,88.6186
2010-05-11,88.2761
2010-05-12,88.889
2010-05-13,87.9877
2010-05-14,84.4725
2010-05-17,84.806
2010-05-18,82.1921
2010-05-19,81.8857
2010-05-20,78.4606
2010-05-21,81.5342
2010-05-24,80.2182
2010-05-25,81.0114
2010-05-26,81.2458
2010-05-27,84.8511
2010-05-28,83.7064
2010-06-01,82.1471
2010-06-02,83.6793
2010-06-03,82.8501
2010-06-04,78.9384
2010-06-07,77.992
2010-06-08,79.7405
2010-06-09,79.2989
2010-06-10,81.9758
2010-06-11,82.9211
2010-06-14,83.2576
2010-06-15,85.0944
2010-06-16,85.1944
2010-06-17,85.4308
2010-06-18,85.3126
2010-06-21,84.2851
2010-06-22,83.3485
2010-06-23,84.7579
2010-06-24,82.812
2010-06-25,84.8307
2010-06-28,83.3212
2010-06-29,81.1207
2010-06-30,79.884
2010-07-01,80.1204
2010-07-02,78.811
2010-07-06,77.9926
2010-07-07,81.7845
2010-07-08,82.9575
2010-07-09,84.0578
2010-07-12,84.4306
2010-07-13,86.8676
2010-07-14,86.7766
2010-07-15,86.0855
2010-07-16,83.0484
2010-07-19,83.9123
2010-07-20,85.84
2010-07-21,84.4942
2010-07-22,87.3313
2010-07-23,87.8314
2010-07-26,89.8229
2010-07-27,89.6865
2010-07-28,89.6228
2010-07-29,89.7501
2010-07-30,89.2864
2010-08-02,92.469
2010-08-03,92.0598
2010-08-04,92.7418
2010-08-05,91.887
2010-08-06,90.2684
2010-08-09,92.0598
2010-08-10,91.4051
2010-08-11,89.4773
2010-08-12,89.1136
2010-08-13,89.3046
2010-08-16,89.5773
2010-08-17,93.0419
2010-08-18,92.3962
2010-08-19,89.541
2010-08-20,88.9317
2010-08-23,88.2588
2010-08-24,87.4132
2010-08-25,89.15
2010-08-26,88.2134
2010-08-27,89.0954
2010-08-30,88.5498
2010-08-31,89.25
2010-09-01,91.4233
2010-09-02,93.1237
2010-09-03,94.1058
2010-09-07,93.2965
2010-09-08,93.0601
2010-09-09,92.1507
2010-09-10,92.7691
2010-09-13,94.9768
2010-09-14,95.0227
2010-09-15,95.4168
2010-09-16,94.5369
2010-09-17,94.2711
2010-09-20,95.1235
2010-09-21,92.7039
2010-09-22,92.7681
2010-09-23,89.6886
2010-09-24,92.6306
2010-09-27,90.7793
2010-09-28,90.1835
2010-09-29,88.818
2010-09-30,89.0013
2010-10-01,89.7803
2010-10-04,89.3129
2010-10-05,89.7253
2010-10-06,88.2956
2010-10-07,89.0563
2010-10-08,89.5145
2010-10-11,90.0552
2010-10-12,91.3842
2010-10-13,92.8322
2010-10-14,93.5654
2010-10-15,92.5573
2010-10-18,93.3271
2010-10-19,92.3282
2010-10-20,93.9412
2010-10-21,94.262
2010-10-22,94.4178
2010-10-25,93.7579
2010-10-26,92.9697
2010-10-27,91.7874
2010-10-28,91.5308
2010-10-29,91.1001
2010-11-01,94.0878
2010-11-02,94.7202
2010-11-03,93.8037
2010-11-04,95.9208
2010-11-05,95.9942
2010-11-08,95.4351
2010-11-09,92.6581
2010-11-10,94.4453
2010-11-11,93.8404
2010-11-12,92.6673
2010-11-15,91.2375
2010-11-16,87.0491
2010-11-17,87.5165
2010-11-18,88.2589
2010-11-19,89.0196
2010-11-22,89.8353
2010-11-23,88.7172
2010-11-24,90.1194
2010-11-26,89.8261
2010-11-29,89.2945
2010-11-30,88.5339
2010-12-01,90.0094
2010-12-02,90.9717
2010-12-03,90.7976
2010-12-06,90.6235
2010-12-07,91.3842
2010-12-08,90.3852
2010-12-09,90.651
2010-12-10,92.1632
2010-12-13,91.7856
2010-12-14,91.6193
2010-12-15,90.797
2010-12-16,90.021
2010-12-17,90.8709
2010-12-20,92.5339
2010-12-21,92.7371
2010-12-22,93.3654
2010-12-23,92.5616
2010-12-27,93.6795
2010-12-28,93.9566
2010-12-29,93.9844
2010-12-30,93.7534
2010-12-31,93.7072
2011-01-03,95.7027
2011-01-04,93.2915
2011-01-05,94.2061
2011-01-06,94.0305
2011-01-07,93.9844
2011-01-10,93.4578
2011-01-11,93.0697
2011-01-12,93.6148
2011-01-13,94.5572
2011-01-14,95.7674
2011-01-18,96.8021
2011-01-19,95.6935
2011-01-20,95.9522
2011-01-21,97.3934
2011-01-24,97.0793
2011-01-25,98.5852
2011-01-26,98.8716
2011-01-27,100.322
2011-01-28,98.345
2011-01-31,100.701
2011-02-01,100.571
2011-02-02,100.83
2011-02-03,101.542
2011-02-04,100.839
2011-02-07,101.865
2011-02-08,101.846
2011-02-09,102.124
2011-02-10,102.382
2011-02-11,102.872
2011-02-14,102.521
2011-02-15,101.708
2011-02-16,102.41
2011-02-17,101.948
2011-02-18,103.112
2011-02-22,102.318
2011-02-23,100.812
2011-02-24,100.701
2011-02-25,102.151
2011-02-28,103.768
2011-03-01,101.44
2011-03-02,100.747
2011-03-03,102.022
2011-03-04,100.839
2011-03-07,100.867
2011-03-08,104.064
2011-03-09,103.796
2011-03-10,101.902
2011-03-11,102.99
2011-03-14,102.096
2011-03-15,101.464
2011-03-16,99.2859
2011-03-17,100.347
2011-03-18,100.151
2011-03-21,101.631
2011-03-22,100.542
2011-03-23,99.7419
2011-03-24,99.9746
2011-03-25,100.505
2011-03-28,100.347
2011-03-29,101.324
2011-03-30,102.562
2011-03-31,103.241
2011-04-01,103.25
2011-04-04,103.883
2011-04-05,103.353
2011-04-06,103.129
2011-04-07,102.403
2011-04-08,100.961
2011-04-11,101.156
2011-04-12,100.747
2011-04-13,100.319
2011-04-14,101.994
2011-04-15,103.734
2011-04-18,102.915
2011-04-19,103.985
2011-04-20,104.497
2011-04-21,104.423
2011-04-25,106.033
2011-04-26,107.503
2011-04-27,108.443
2011-04-28,110.518
2011-04-29,109.141
2011-05-02,108.676
2011-05-03,108.285
2011-05-04,108.257
2011-05-05,107.643
2011-05-06,107.996
2011-05-09,109.532
2011-05-10,111.421
2011-05-11,110.9
2011-05-12,109.346
2011-05-13,108.21
2011-05-16,108.75
2011-05-17,108.834
2011-05-18,109.429
2011-05-19,109.141
2011-05-20,108.136
2011-05-23,105.912
2011-05-24,105.912
2011-05-25,106.479
2011-05-26,107.559
2011-05-27,107.885
2011-05-31,110.109
2011-06-01,107.205
2011-06-02,107.019
2011-06-03,107.987
2011-06-06,106.498
2011-06-07,107.689
2011-06-08,108.145
2011-06-09,107.084
2011-06-10,104.32
2011-06-13,104.019
2011-06-14,105.052
2011-06-15,103.071
2011-06-16,103.972
2011-06-17,104.864
2011-06-20,105.277
2011-06-21,105.436
2011-06-22,104.789
2011-06-23,102.048
2011-06-24,103.963
2011-06-27,104.301
2011-06-28,104.976
2011-06-29,106.506
2011-06-30,106.985
2011-07-01,108.665
2011-07-05,110.289
2011-07-06,110.861
2011-07-07,111.687
2011-07-08,112.072
2011-07-11,111.133
2011-07-12,112.344
2011-07-13,111.011
2011-07-14,110.533
2011-07-15,111.809
2011-07-18,110.73
2011-07-19,112.738
2011-07-20,113.639
2011-07-21,115.394
2011-07-22,115.61
2011-07-25,115.019
2011-07-26,115.075
2011-07-27,111.875
2011-07-28,112.016
2011-07-29,112.504
2011-08-01,111.631
2011-08-02,109.294
2011-08-03,109.988
2011-08-04,104.235
2011-08-05,103.625
2011-08-08,95.9383
2011-08-09,105.943
2011-08-10,102.527
2011-08-11,110.382
2011-08-12,109.679
2011-08-15,112.447
2011-08-16,112.86
2011-08-17,112.644
2011-08-18,108.712
2011-08-19,106.807
2011-08-22,108.243
2011-08-23,112.081
2011-08-24,112.616
2011-08-25,110.561
2011-08-26,112.673
2011-08-29,114.972
2011-08-30,115.826
2011-08-31,115.751
2011-09-01,113.752
2011-09-02,111.096
2011-09-06,111.715
2011-09-07,115.986
2011-09-08,116.305
2011-09-09,113.292
2011-09-12,113.973
2011-09-13,113.557
2011-09-14,115.317
2011-09-15,116.168
2011-09-16,116.367
2011-09-19,113.964
2011-09-20,114.276
2011-09-21,110.445
2011-09-22,108.657
2011-09-23,107.427
2011-09-26,108.572
2011-09-27,108.95
2011-09-28,106.907
2011-09-29,107.304
2011-09-30,105.337
2011-10-03,100.105
2011-10-04,103.936
2011-10-05,104.154
2011-10-06,105.98
2011-10-07,102.3
2011-10-10,108.345
2011-10-11,105.876
2011-10-12,108.193
2011-10-13,107.418
2011-10-14,108.761
2011-10-17,107.503
2011-10-18,110.871
2011-10-19,108.969
2011-10-20,109.802
2011-10-21,113.217
2011-10-24,116.433
2011-10-25,115.695
2011-10-26,117.937
2011-10-27,124.105
2011-10-28,124.285
2011-10-31,122.166
2011-11-01,119.385
2011-11-02,120.917
2011-11-03,120.312
2011-11-04,117.852
2011-11-07,118.722
2011-11-08,119.924
2011-11-09,115.459
2011-11-10,117.388
2011-11-11,118.968
2011-11-14,116.376
2011-11-15,118.344
2011-11-16,117.578
2011-11-17,116.376
2011-11-18,118.316
2011-11-21,116.565
2011-11-22,117.237
2011-11-23,115.468
2011-11-25,115.695
2011-11-28,118.949
2011-11-29,119.81
2011-11-30,124.871
2011-12-01,122.468
2011-12-02,122.743
2011-12-05,121.409
2011-12-06,122.194
2011-12-07,123.159
2011-12-08,120.406
2011-12-09,123.348
2011-12-12,121.187
2011-12-13,119.557
2011-12-14,121.072
2011-12-15,120.92
2011-12-16,122.368
2011-12-19,121.825
2011-12-20,124.846
2011-12-21,125.208
2011-12-22,126.98
2011-12-23,128.21
2011-12-27,129.353
2011-12-28,127.59
2011-12-29,128.867
2011-12-30,128.219
2012-01-03,128.772
2012-01-04,125.094
2012-01-05,126.79
2012-01-06,126.294
2012-01-09,125.913
2012-01-10,127.409
2012-01-11,127.81
2012-01-12,127.505
2012-01-13,128.477
2012-01-17,128.601
2012-01-18,129.087
2012-01-19,129.325
2012-01-20,129.268
2012-01-23,129.62
2012-01-24,129.201
2012-01-25,129.515
2012-01-26,130.087
2012-01-27,131.164
2012-01-30,130.506
2012-01-31,132.412
2012-02-01,131.907
2012-02-02,132.793
2012-02-03,134.823
2012-02-06,132.298
2012-02-07,132.86
2012-02-08,132.879
2012-02-09,131.659
2012-02-10,131.202
2012-02-13,133.47
2012-02-14,131.955
2012-02-15,130.249
2012-02-16,132.994
2012-02-17,132.107
2012-02-21,130.592
2012-02-22,129.887
2012-02-23,131.802
2012-02-24,130.687
2012-02-27,129.401
2012-02-28,128.61
2012-02-29,127.924
2012-03-01,127.876
2012-03-02,127.047
2012-03-05,127.228
2012-03-06,125.075
2012-03-07,124.817
2012-03-08,123.14
2012-03-09,124.408
2012-03-12,124.81
2012-03-13,127.395
2012-03-14,127.155
2012-03-15,128.587
2012-03-16,131.057
2012-03-19,131.652
2012-03-20,131.681
2012-03-21,131.441
2012-03-22,130.24
2012-03-23,131.806
2012-03-26,132.508
2012-03-27,131.96
2012-03-28,131.672
2012-03-29,132.162
2012-03-30,132.642
2012-04-02,133.334
2012-04-03,132.969
2012-04-04,131.345
2012-04-05,131.105
2012-04-09,130.288
2012-04-10,129.125
2012-04-11,131.576
2012-04-12,132.527
2012-04-13,131.508
2012-04-16,132.623
2012-04-17,133.334
2012-04-18,132.344
2012-04-19,132.556
2012-04-20,134.286
2012-04-23,133.228
2012-04-24,136.073
2012-04-25,136.871
2012-04-26,137.044
2012-04-27,138.322
2012-04-30,137.63
2012-05-01,139.341
2012-05-02,139.86
2012-05-03,139.321
2012-05-04,135.006
2012-05-07,135.266
2012-05-08,135.074
2012-05-09,133.872
2012-05-10,133.642
2012-05-11,133.882
2012-05-14,131.566
2012-05-15,130.586
2012-05-16,128.75
2012-05-17,125.607
2012-05-18,125.396
2012-05-21,128.0
2012-05-22,126.866
2012-05-23,126.886
2012-05-24,127.664
2012-05-25,128.029
2012-05-29,129.404
2012-05-30,127.453
2012-05-31,128.366
2012-06-01,126.905
2012-06-04,127.491
2012-06-05,128.539
2012-06-06,130.912
2012-06-07,131.364
2012-06-08,133.2
2012-06-11,131.455
2012-06-12,132.337
2012-06-13,131.484
2012-06-14,132.773
2012-06-15,133.635
2012-06-18,134.884
2012-06-19,135.301
2012-06-20,135.001
2012-06-21,133.702
2012-06-22,133.828
2012-06-25,133.179
2012-06-26,135.621
2012-06-27,135.65
2012-06-28,136.531
2012-06-29,139.718
2012-07-02,140.551
2012-07-03,140.532
2012-07-05,139.65
2012-07-06,140.154
2012-07-09,140.319
2012-07-10,139.699
2012-07-11,139.738
2012-07-12,140.299
2012-07-13,142.111
2012-07-16,142.731
2012-07-17,144.155
2012-07-18,143.37
2012-07-19,141.627
2012-07-20,141.133
2012-07-23,141.016
2012-07-24,140.629
2012-07-25,140.532
2012-07-26,142.411
2012-07-27,144.61
2012-07-30,145.211
2012-07-31,144.262
2012-08-01,143.961
2012-08-02,143.99
2012-08-03,143.37
2012-08-06,141.985
2012-08-07,141.016
2012-08-08,140.551
2012-08-09,139.03
2012-08-10,140.057
2012-08-13,139.205
2012-08-14,138.595
2012-08-15,139.253
2012-08-16,140.319
2012-08-17,140.774
2012-08-20,138.11
2012-08-21,138.081
2012-08-22,138.13
2012-08-23,136.88
2012-08-24,138.197
2012-08-27,137.936
2012-08-28,139.05
2012-08-29,139.127
2012-08-30,139.999
2012-08-31,141.123
2012-09-04,142.053
2012-09-05,141.723
2012-09-06,142.721
2012-09-07,142.13
2012-09-10,140.841
2012-09-11,140.578
2012-09-12,141.983
2012-09-13,143.896
2012-09-14,145.087
2012-09-17,144.091
2012-09-18,142.042
2012-09-19,140.636
2012-09-20,138.762
2012-09-21,138.196
2012-09-24,137.415
2012-09-25,136.361
2012-09-26,136.059
2012-09-27,135.668
2012-09-28,135.639
2012-10-01,135.59
2012-10-02,135.903
2012-10-03,136.322
2012-10-04,135.639
2012-10-05,135.766
2012-10-08,135.834
2012-10-09,135.288
2012-10-10,135.161
2012-10-11,134.292
2012-10-12,133.248
2012-10-15,134.107
2012-10-16,134.575
2012-10-17,133.892
2012-10-18,134.37
2012-10-19,134.77
2012-10-22,133.501
2012-10-23,133.902
2012-10-24,134.507
2012-10-25,133.853
2012-10-26,133.179
2012-10-31,135.122
2012-11-01,136.283
2012-11-02,137.064
2012-11-05,136.781
2012-11-06,137.474
2012-11-07,139.992
2012-11-08,138.616
2012-11-09,142.305
2012-11-12,141.856
2012-11-13,143.33
2012-11-14,141.446
2012-11-15,140.783
2012-11-16,140.402
2012-11-19,141.632
2012-11-20,140.978
2012-11-21,140.783
2012-11-23,141.788
2012-11-26,141.915
2012-11-27,139.211
2012-11-28,138.928
2012-11-29,137.884
2012-11-30,137.552
2012-12-03,139.065
2012-12-04,139.065
2012-12-05,138.03
2012-12-06,138.265
2012-12-07,138.987
2012-12-10,138.722
2012-12-11,139.086
2012-12-12,138.368
2012-12-13,137.217
2012-12-14,137.679
2012-12-17,139.843
2012-12-18,141.24
2012-12-19,141.407
2012-12-20,143.689
2012-12-21,142.755
2012-12-24,143.483
2012-12-26,141.928
2012-12-27,142.155
2012-12-28,141.299
2012-12-31,142.351
2013-01-02,143.561
2013-01-03,143.109
2013-01-04,143.797
2013-01-07,143.571
2013-01-08,142.431
2013-01-09,143.011
2013-01-10,143.778
2013-01-11,144.565
2013-01-14,143.807
2013-01-15,145.312
2013-01-16,145.509
2013-01-17,145.637
2013-01-18,147.791
2013-01-22,148.352
2013-01-23,148.322
2013-01-24,149.325
2013-01-25,150.259
2013-01-28,151.076
2013-01-29,151.804
2013-01-30,151.214
2013-01-31,151.48
2013-02-01,152.955
2013-02-04,153.742
2013-02-05,154.401
2013-02-06,154.421
2013-02-07,153.378
2013-02-08,154.873
2013-02-11,154.244
2013-02-12,154.499
2013-02-13,153.496
2013-02-14,151.735
2013-02-15,148.509
2013-02-19,150.083
2013-02-20,150.043
2013-02-21,149.325
2013-02-22,149.945
2013-02-25,147.555
2013-02-26,148.666
2013-02-27,149.325
2013-02-28,148.745
2013-03-01,149.365
2013-03-04,150.269
2013-03-05,151.361
2013-03-06,150.123
2013-03-07,147.968
2013-03-08,148.125
2013-03-11,147.59
2013-03-12,145.914
2013-03-13,145.696
2013-03-14,145.984
2013-03-15,147.055
2013-03-18,147.164
2013-03-19,148.82
2013-03-20,149.882
2013-03-21,149.574
2013-03-22,149.326
2013-03-25,149.058
2013-03-26,150.13
2013-03-27,149.921
2013-03-28,151.082
2013-04-01,151.042
2013-04-02,151.677
2013-04-03,150.963
2013-04-04,153.204
2013-04-05,153.71
2013-04-08,155.327
2013-04-09,156.051
2013-04-10,155.783
2013-04-11,157.38
2013-04-12,157.053
2013-04-15,153.948
2013-04-16,155.049
2013-04-17,155.129
2013-04-18,155.307
2013-04-19,157.717
2013-04-22,156.388
2013-04-23,157.281
2013-04-24,158.064
2013-04-25,157.826
2013-04-26,158.848
2013-04-29,160.554
2013-04-30,163.768
2013-05-01,163.768
2013-05-02,164.403
2013-05-03,165.037
2013-05-06,165.275
2013-05-07,165.355
2013-05-08,164.204
2013-05-09,163.192
2013-05-10,162.964
2013-05-13,163.867
2013-05-14,163.232
2013-05-15,165.88
2013-05-16,163.788
2013-05-17,166.049
2013-05-20,165.424
2013-05-21,166.079
2013-05-22,161.645
2013-05-23,159.007
2013-05-24,161.189
2013-05-28,159.547
2013-05-29,156.17
2013-05-30,152.897
2013-05-31,150.655
2013-06-03,154.028
2013-06-04,150.368
2013-06-05,150.001
2013-06-06,152.599
2013-06-07,152.659
2013-06-10,150.51
2013-06-11,149.03
2013-06-12,147.89
2013-06-13,152.44
2013-06-14,151.93
2013-06-17,153.31
2013-06-18,152.35
2013-06-19,149.19
2013-06-20,146.06
2013-06-21,150.01
2013-06-24,149.08
2013-06-25,150.72
2013-06-26,151.52
2013-06-27,153.97
2013-06-28,153.49
2013-07-01,151.79
2013-07-02,154.47
2013-07-03,152.65
2013-07-05,152.79
2013-07-08,152.93
2013-07-09,155.12
2013-07-10,155.28
2013-07-11,159.57
2013-07-12,158.89
2013-07-15,159.61
2013-07-16,160.27
2013-07-17,161.57
2013-07-18,162.93
2013-07-19,162.68
2013-07-22,163.36
2013-07-23,163.0
2013-07-24,159.12
2013-07-25,160.0
2013-07-26,160.97
2013-07-29,159.44
2013-07-30,159.56
2013-07-31,159.24
2013-08-01,160.87
2013-08-02,160.77
2013-08-05,162.32
2013-08-06,162.16
2013-08-07,162.76
2013-08-08,161.45
2013-08-09,163.12
