date,close_price
1998-01-02,2.71898
1998-01-05,2.75519
1998-01-06,2.72895
1998-01-07,2.50906
1998-01-08,2.5353
1998-01-09,2.44346
1998-01-12,2.4697
1998-01-13,2.55839
1998-01-14,2.55209
1998-01-15,2.42404
1998-01-16,2.41407
1998-01-20,2.49279
1998-01-21,2.84073
1998-01-22,2.78825
1998-01-23,2.85385
1998-01-26,2.72895
1998-01-27,2.75519
1998-01-28,2.82761
1998-01-29,2.82079
1998-01-30,2.72265
1998-02-02,2.94569
1998-02-03,2.94884
1998-02-04,2.99135
1998-02-05,2.95881
1998-02-06,2.50276
1998-02-09,2.50591
1998-02-10,2.42719
1998-02-11,2.47337
1998-02-12,2.49594
1998-02-13,2.45028
1998-02-17,2.45658
1998-02-18,2.48649
1998-02-19,2.47652
1998-02-20,2.45658
1998-02-23,2.67017
1998-02-24,2.65023
1998-02-25,2.66335
1998-02-26,2.70586
1998-02-27,2.67962
1998-03-02,2.59775
1998-03-03,2.58148
1998-03-04,2.58778
1998-03-05,2.51273
1998-03-06,2.54527
1998-03-09,2.49961
1998-03-10,2.51903
1998-03-11,2.6009
1998-03-12,2.56521
1998-03-13,2.529
1998-03-16,2.56154
1998-03-17,2.52585
1998-03-18,2.54842
1998-03-19,2.54527
1998-03-20,2.50591
1998-03-23,2.51903
1998-03-24,2.49594
1998-03-25,2.5353
1998-03-26,2.58463
1998-03-27,2.62399
1998-03-30,2.6009
1998-03-31,2.80767
1998-04-01,2.81082
1998-04-02,2.80767
1998-04-03,2.9226
1998-04-06,2.86015
1998-04-07,2.80137
1998-04-08,2.76201
1998-04-09,2.82079
1998-04-13,2.80767
1998-04-14,2.86697
1998-04-15,2.87327
1998-04-16,2.93887
1998-04-17,2.91945
1998-04-20,3.08634
1998-04-21,3.14249
1998-04-22,3.01759
1998-04-23,2.96511
1998-04-24,2.98505
1998-04-27,2.87642
1998-04-28,2.83076
1998-04-29,2.94569
1998-04-30,2.94884
1998-05-01,2.91578
1998-05-04,2.99135
1998-05-05,2.95881
1998-05-06,2.92575
1998-05-07,2.90266
1998-05-08,2.95199
1998-05-11,2.88009
1998-05-12,2.87012
1998-05-13,2.94569
1998-05-14,2.90266
1998-05-15,3.00447
1998-05-18,2.93887
1998-05-19,2.94884
1998-05-20,2.91945
1998-05-21,2.91263
1998-05-22,2.90948
1998-05-26,2.81082
1998-05-27,2.81764
1998-05-28,2.78143
1998-05-29,2.72895
1998-06-01,2.64393
1998-06-02,2.67647
1998-06-03,2.64026
1998-06-04,2.68329
1998-06-05,2.72265
1998-06-08,2.71583
1998-06-09,2.78143
1998-06-10,2.70271
1998-06-11,2.58463
1998-06-12,2.57151
1998-06-15,2.45028
1998-06-16,2.54527
1998-06-17,2.57151
1998-06-18,2.58778
1998-06-19,2.58463
1998-06-22,2.64393
1998-06-23,2.69956
1998-06-24,2.91945
1998-06-25,2.95881
1998-06-26,2.84073
1998-06-29,2.93257
1998-06-30,2.94884
1998-07-01,2.94202
1998-07-02,2.84703
1998-07-06,2.88639
1998-07-07,2.83391
1998-07-08,2.87327
1998-07-09,2.98505
1998-07-10,2.95881
1998-07-13,2.94569
1998-07-14,2.95514
1998-07-15,3.01759
1998-07-16,3.02441
1998-07-17,3.00132
1998-07-20,2.97193
1998-07-21,3.01759
1998-07-22,3.52297
1998-07-23,3.33247
1998-07-24,3.30938
1998-07-27,3.29311
1998-07-28,3.20809
1998-07-29,3.21754
1998-07-30,3.2569
1998-07-31,3.27369
1998-08-03,3.19497
1998-08-04,3.09001
1998-08-05,3.05065
1998-08-06,3.09631
1998-08-07,3.10313
1998-08-10,3.09473
1998-08-11,2.97823
1998-08-12,2.88639
1998-08-13,2.81082
1998-08-14,2.86697
1998-08-17,2.83391
1998-08-18,2.93729
1998-08-19,2.9289
1998-08-20,2.90266
1998-08-21,2.82394
1998-08-24,2.82761
1998-08-25,2.80137
1998-08-26,2.70586
1998-08-27,2.57308
1998-08-28,2.41407
1998-08-31,2.31593
1998-09-01,2.49279
1998-09-02,2.48649
1998-09-03,2.31908
1998-09-04,2.24351
1998-09-08,2.57833
1998-09-09,2.6009
1998-09-10,2.33535
1998-09-11,2.38783
1998-09-14,2.43401
1998-09-15,2.49594
1998-09-16,2.46655
1998-09-17,2.47652
1998-09-18,2.51903
1998-09-21,2.59145
1998-09-22,2.64708
1998-09-23,2.69641
1998-09-24,2.64195
1998-09-25,2.79212
1998-09-28,2.68946
1998-09-29,2.66215
1998-09-30,2.61464
1998-10-01,2.53273
1998-10-02,2.59062
1998-10-05,2.39949
1998-10-06,2.41314
1998-10-07,2.32085
1998-10-08,2.1401
1998-10-09,2.23566
1998-10-12,2.30065
1998-10-13,2.26624
1998-10-14,2.48468
1998-10-15,2.61464
1998-10-16,2.59062
1998-10-19,2.59717
1998-10-20,2.69656
1998-10-21,2.8227
1998-10-22,2.79867
1998-10-23,2.9625
1998-10-26,2.97287
1998-10-27,2.94557
1998-10-28,3.01383
1998-10-29,2.98325
1998-10-30,3.03786
1998-11-02,3.18803
1998-11-03,3.15035
1998-11-04,3.00345
1998-11-05,3.08864
1998-11-06,3.10612
1998-11-09,3.09902
1998-11-10,3.09902
1998-11-11,3.00018
1998-11-12,3.01711
1998-11-13,3.00018
1998-11-16,2.9625
1998-11-17,3.01055
1998-11-18,3.1296
1998-11-19,3.02421
1998-11-20,3.01711
1998-11-23,3.08864
1998-11-24,3.00018
1998-11-25,2.9898
1998-11-27,3.00018
1998-11-30,3.00018
1998-12-01,2.95922
1998-12-02,2.95212
1998-12-03,2.93192
1998-12-04,2.95212
1998-12-07,2.91117
1998-12-08,2.75772
1998-12-09,2.79212
1998-12-10,2.81233
1998-12-11,2.84291
1998-12-14,2.69656
1998-12-15,2.81233
1998-12-16,2.83635
1998-12-17,2.85328
1998-12-18,2.74407
1998-12-21,2.80577
1998-12-22,2.77465
1998-12-23,2.81943
1998-12-24,2.7883
1998-12-28,2.83308
1998-12-29,2.82598
1998-12-30,2.80577
1998-12-31,2.82598
1999-01-04,3.01711
1999-01-05,3.11267
1999-01-06,3.24919
1999-01-07,3.26284
1999-01-08,3.28687
1999-01-11,3.38244
1999-01-12,3.32455
1999-01-13,3.21151
1999-01-14,3.30872
1999-01-15,3.49493
1999-01-19,3.63145
1999-01-20,3.38571
1999-01-21,3.23554
1999-01-22,3.22899
1999-01-25,3.17438
1999-01-26,3.26994
1999-01-27,3.23882
1999-01-28,3.51568
1999-01-29,3.59049
1999-02-01,3.46763
1999-02-02,3.42667
1999-02-03,3.63145
1999-02-04,3.57357
1999-02-05,3.65875
1999-02-08,3.80893
1999-02-09,3.70681
1999-02-10,3.61452
1999-02-11,3.71336
1999-02-12,3.65875
1999-02-16,3.68606
1999-02-17,3.55445
1999-02-18,3.49165
1999-02-19,3.53916
1999-02-22,3.90449
1999-02-23,4.01698
1999-02-24,3.9591
1999-02-25,3.96238
1999-02-26,3.9864
1999-03-01,3.93889
1999-03-02,4.03064
1999-03-03,3.9864
1999-03-04,4.06832
1999-03-05,4.17753
1999-03-08,4.24252
1999-03-09,4.35501
1999-03-10,4.35173
1999-03-11,4.38559
1999-03-12,4.23214
1999-03-15,4.47788
1999-03-16,4.41289
1999-03-17,4.39597
1999-03-18,4.48115
1999-03-19,4.62477
1999-03-22,4.79188
1999-03-23,4.49481
1999-03-24,4.77167
1999-03-25,5.36854
1999-03-26,6.1194
1999-03-29,6.27995
1999-03-30,6.41647
1999-03-31,6.79873
1999-04-01,7.48133
1999-04-05,8.12298
1999-04-06,7.92858
1999-04-07,7.56652
1999-04-08,8.09895
1999-04-09,7.9455
1999-04-12,8.69309
1999-04-13,9.2561
1999-04-14,8.62811
1999-04-15,8.5735
1999-04-16,7.80571
1999-04-19,6.78508
1999-04-20,7.68611
1999-04-21,10.659
1999-04-22,10.553
1999-04-23,10.4406
1999-04-26,11.1401
1999-04-27,10.8124
1999-04-28,10.3963
1999-04-29,10.8741
1999-04-30,10.9217
1999-05-03,11.9183
1999-05-04,11.4677
1999-05-05,12.2323
1999-05-06,11.85
1999-05-07,11.7031
1999-05-10,11.577
1999-05-11,11.9046
1999-05-12,12.751
1999-05-13,12.5599
1999-05-14,12.3207
1999-05-17,11.85
1999-05-18,11.3105
1999-05-19,11.2089
1999-05-20,11.1674
1999-05-21,10.9359
1999-05-24,10.1571
1999-05-25,9.99987
1999-05-26,10.7032
1999-05-27,10.5394
1999-05-28,10.6213
1999-06-01,10.2664
1999-06-02,10.7851
1999-06-03,11.1881
1999-06-04,11.9592
1999-06-07,11.9385
1999-06-08,11.4612
1999-06-09,11.9527
1999-06-10,12.075
1999-06-11,11.8839
1999-06-14,11.2493
1999-06-15,12.4103
1999-06-16,12.9214
1999-06-17,13.0929
1999-06-18,14.1708
1999-06-21,14.2528
1999-06-22,14.2866
1999-06-23,14.6143
1999-06-24,13.9797
1999-06-25,13.8366
1999-06-28,14.635
1999-06-29,14.9496
1999-06-30,15.7064
1999-07-01,15.2357
1999-07-02,15.7414
1999-07-06,15.4814
1999-07-07,15.2226
1999-07-08,15.5087
1999-07-09,16.2252
1999-07-12,16.1236
1999-07-13,15.7687
1999-07-14,16.3552
1999-07-15,16.7101
1999-07-16,17.2835
1999-07-19,17.3654
1999-07-20,17.775
1999-07-21,17.1339
1999-07-22,16.4709
1999-07-23,16.8882
1999-07-26,16.6763
1999-07-27,16.8434
1999-07-28,17.4473
1999-07-29,17.0716
1999-07-30,17.0105
1999-08-02,16.6009
1999-08-03,15.263
1999-08-04,15.5699
1999-08-05,15.6322
1999-08-06,16.1302
1999-08-09,16.1029
1999-08-10,16.1094
1999-08-11,16.3344
1999-08-12,16.5736
1999-08-13,17.4615
1999-08-16,17.6931
1999-08-17,18.8945
1999-08-18,18.2534
1999-08-19,18.0207
1999-08-20,19.0998
1999-08-23,20.0347
1999-08-24,19.5771
1999-08-25,20.7511
1999-08-26,20.82
1999-08-27,20.0685
1999-08-30,19.932
1999-08-31,20.9565
1999-09-01,18.4368
1999-09-02,18.2872
1999-09-03,17.8023
1999-09-07,18.1299
1999-09-08,18.3549
1999-09-09,18.1299
1999-09-10,18.0961
1999-09-13,16.8062
1999-09-14,18.6695
1999-09-15,18.9829
1999-09-16,19.5563
1999-09-17,20.7511
1999-09-20,20.4781
1999-09-21,19.9113
1999-09-22,20.7446
1999-09-23,20.3416
1999-09-24,20.7511
1999-09-27,21.0788
1999-09-28,21.1334
1999-09-29,20.5054
1999-09-30,20.6627
1999-10-01,20.4027
1999-10-04,20.738
1999-10-05,21.2634
1999-10-06,22.3009
1999-10-07,21.9252
1999-10-08,23.3592
1999-10-11,24.1915
1999-10-12,23.1878
1999-10-13,22.3959
1999-10-14,22.2671
1999-10-15,21.6249
1999-10-18,21.3791
1999-10-19,21.6522
1999-10-20,22.0617
1999-10-21,23.5296
1999-10-22,23.4816
1999-10-25,23.0447
1999-10-26,22.6832
1999-10-27,22.7312
1999-10-28,23.7885
1999-10-29,24.328
1999-11-01,24.601
1999-11-02,24.5191
1999-11-03,28.4302
1999-11-04,28.8332
1999-11-05,32.1643
1999-11-08,31.6247
1999-11-09,32.7377
1999-11-10,34.9089
1999-11-11,37.4613
1999-11-12,41.12
1999-11-15,40.1851
1999-11-16,39.7275
1999-11-17,37.4274
1999-11-18,38.8745
1999-11-19,40.0617
1999-11-22,39.3245
1999-11-23,39.4206
1999-11-24,40.9355
1999-11-26,42.1576
1999-11-29,40.5739
1999-11-30,39.5702
1999-12-01,39.6729
1999-12-02,40.7989
1999-12-03,42.103
1999-12-06,43.0925
1999-12-07,43.6593
1999-12-08,42.6764
1999-12-09,43.1132
1999-12-10,42.7561
1999-12-13,45.6045
1999-12-14,45.9529
1999-12-15,46.3602
1999-12-16,47.9461
1999-12-17,49.6935
1999-12-20,51.1133
1999-12-21,54.2784
1999-12-22,53.2977
1999-12-23,50.9495
1999-12-27,55.9604
1999-12-28,54.3494
1999-12-29,71.8645
1999-12-30,71.2092
1999-12-31,76.6438
2000-01-03,78.3083
2000-01-04,70.8291
2000-01-05,68.3696
2000-01-06,61.1613
2000-01-07,65.5081
2000-01-10,69.1603
2000-01-11,63.1272
2000-01-12,60.2875
2000-01-13,62.5549
2000-01-14,61.4365
2000-01-18,60.8598
2000-01-19,63.9747
2000-01-20,67.9065
2000-01-21,67.522
2000-01-24,61.4889
2000-01-25,64.9838
2000-01-26,54.4728
2000-01-27,52.306
2000-01-28,48.2737
2000-01-31,55.2111
2000-02-01,59.2784
2000-02-02,62.035
2000-02-03,60.7812
2000-02-04,60.1259
2000-02-07,58.2692
2000-02-08,60.672
2000-02-09,58.4876
2000-02-10,59.8507
2000-02-11,57.994
2000-02-14,55.5388
2000-02-15,55.0451
2000-02-16,53.3807
2000-02-17,56.7926
2000-02-18,58.9507
2000-02-22,56.9018
2000-02-23,64.2193
2000-02-24,61.1088
2000-02-25,58.3697
2000-02-28,62.083
2000-02-29,62.0088
2000-03-01,60.7244
2000-03-02,57.7493
2000-03-03,57.6401
2000-03-06,58.2124
2000-03-07,55.9451
2000-03-08,56.4387
2000-03-09,55.5388
2000-03-10,59.4356
2000-03-13,56.8188
2000-03-14,54.6651
2000-03-15,55.9189
2000-03-16,58.077
2000-03-17,59.523
2000-03-20,56.5742
2000-03-21,58.8197
2000-03-22,58.7585
2000-03-23,62.7471
2000-03-24,64.0009
2000-03-27,65.3115
2000-03-28,67.6924
2000-03-29,68.9986
2000-03-30,63.3718
2000-03-31,65.2241
2000-04-03,61.6811
2000-04-04,64.1101
2000-04-05,61.6549
2000-04-06,60.8074
2000-04-07,66.3949
2000-04-10,61.7336
2000-04-11,60.0691
2000-04-12,54.6651
2000-04-13,55.2286
2000-04-14,46.0894
2000-04-17,50.078
2000-04-18,48.9552
2000-04-19,50.3488
2000-04-20,47.815
2000-04-24,43.6342
2000-04-25,45.8185
2000-04-26,42.5945
2000-04-27,45.2156
2000-04-28,47.2908
2000-05-01,47.8631
2000-05-02,49.7765
2000-05-03,48.4921
2000-05-04,46.5525
2000-05-05,48.0029
2000-05-08,45.1326
2000-05-09,45.7879
2000-05-10,42.7867
2000-05-11,43.3677
2000-05-12,42.7605
2000-05-15,45.5433
2000-05-16,47.5092
2000-05-17,44.9972
2000-05-18,42.3498
2000-05-19,38.9903
2000-05-22,38.6146
2000-05-23,34.8008
2000-05-24,33.5557
2000-05-25,30.1438
2000-05-26,29.0516
2000-05-30,33.3678
2000-05-31,28.9686
2000-06-01,30.17
2000-06-02,31.6466
2000-06-05,29.2962
2000-06-06,30.0345
2000-06-07,32.5203
2000-06-08,33.8571
2000-06-09,34.5212
2000-06-12,35.823
2000-06-13,35.5565
2000-06-14,30.7161
2000-06-15,26.9765
2000-06-16,28.6977
2000-06-19,28.5055
2000-06-20,27.4701
2000-06-21,28.1517
2000-06-22,29.8642
2000-06-23,29.0254
2000-06-26,28.2347
2000-06-27,27.8852
2000-06-28,27.6886
2000-06-29,26.9241
2000-06-30,26.1858
2000-07-03,26.378
2000-07-05,25.5654
2000-07-06,26.9241
2000-07-07,24.6829
2000-07-10,23.9752
2000-07-11,23.0447
2000-07-12,26.6488
2000-07-13,27.0857
2000-07-14,27.5226
2000-07-17,30.5282
2000-07-18,28.4225
2000-07-19,27.658
2000-07-20,27.5794
2000-07-21,27.4134
2000-07-24,27.907
2000-07-25,29.9253
2000-07-26,29.9821
2000-07-27,28.6409
2000-07-28,27.0595
2000-07-31,28.3701
2000-08-01,27.5226
2000-08-02,27.0595
2000-08-03,27.9594
2000-08-04,27.9856
2000-08-07,27.7978
2000-08-08,26.5396
2000-08-09,26.8411
2000-08-10,26.8411
2000-08-11,26.8673
2000-08-14,27.3041
2000-08-15,26.8148
2000-08-16,26.4566
2000-08-17,26.4304
2000-08-18,26.129
2000-08-21,25.7751
2000-08-22,24.7703
2000-08-23,24.6567
2000-08-24,26.4785
2000-08-25,25.6921
2000-08-28,25.8581
2000-08-29,26.378
2000-08-30,25.5042
2000-08-31,26.212
2000-09-01,25.9411
2000-09-05,26.0503
2000-09-06,26.9765
2000-09-07,28.0162
2000-09-08,26.9241
2000-09-11,25.4212
2000-09-12,26.7843
2000-09-13,27.9594
2000-09-14,27.3871
2000-09-15,28.9424
2000-09-18,30.5806
2000-09-19,33.8571
2000-09-20,32.765
2000-09-21,31.4019
2000-09-22,31.865
2000-09-25,30.4976
2000-09-26,32.1359
2000-09-27,31.865
2000-09-28,32.6033
2000-09-29,31.2359
2000-10-02,31.0787
2000-10-03,31.7296
2000-10-04,34.1848
2000-10-05,36.2337
2000-10-06,34.0756
2000-10-09,34.6784
2000-10-10,34.9493
2000-10-11,30.7991
2000-10-12,27.9594
2000-10-13,30.5719
2000-10-16,33.6125
2000-10-17,32.4373
2000-10-18,32.682
2000-10-19,33.6125
2000-10-20,32.7737
2000-10-23,32.1665
2000-10-24,31.2621
2000-10-25,28.7239
2000-10-26,31.4019
2000-10-27,32.7125
2000-10-30,29.6982
2000-10-31,28.4531
2000-11-01,26.8935
2000-11-02,27.4134
2000-11-03,30.9345
2000-11-06,30.7991
2000-11-07,32.2451
2000-11-08,30.3622
2000-11-09,31.5898
2000-11-10,32.3543
2000-11-13,32.848
2000-11-14,35.1415
2000-11-15,36.723
2000-11-16,38.501
2000-11-17,38.7719
2000-11-20,36.9414
2000-11-21,38.1428
2000-11-22,34.5124
2000-11-24,36.9982
2000-11-27,39.0995
2000-11-28,36.4783
2000-11-29,36.2075
2000-11-30,35.0585
2000-12-01,36.2337
2000-12-04,39.2917
2000-12-05,43.4682
2000-12-06,43.359
2000-12-07,45.6263
2000-12-08,44.9972
2000-12-11,43.4682
2000-12-12,39.318
2000-12-13,40.03
2000-12-14,38.4442
2000-12-15,34.7309
2000-12-18,37.3127
2000-12-19,36.5351
2000-12-20,33.6387
2000-12-21,33.0926
2000-12-22,37.0506
2000-12-26,36.5875
2000-12-27,39.2218
2000-12-28,39.0733
2000-12-29,35.7706
2001-01-02,30.8995
2001-01-03,36.6443
2001-01-04,34.211
2001-01-05,32.2451
2001-01-08,33.9401
2001-01-09,32.0572
2001-01-10,31.5548
2001-01-11,30.7991
2001-01-12,31.4282
2001-01-16,30.9913
2001-01-17,31.865
2001-01-18,31.8912
2001-01-19,30.6374
2001-01-22,32.9834
2001-01-23,33.844
2001-01-24,32.3281
2001-01-25,32.3281
2001-01-26,35.3381
2001-01-29,37.9244
2001-01-30,37.3521
2001-01-31,36.6968
2001-02-01,37.1904
2001-02-02,37.9244
2001-02-05,37.7627
2001-02-06,36.1769
2001-02-07,37.8719
2001-02-08,37.0244
2001-02-09,34.6216
2001-02-12,36.2337
2001-02-13,35.1939
2001-02-14,36.4259
2001-02-15,37.3783
2001-02-16,35.2682
2001-02-20,32.9834
2001-02-21,31.1005
2001-02-22,29.2438
2001-02-23,26.8673
2001-02-26,27.5488
2001-02-27,24.3029
2001-02-28,23.9272
2001-03-01,26.7318
2001-03-02,26.4566
2001-03-05,27.4614
2001-03-06,25.7838
2001-03-07,25.1766
2001-03-08,25.0368
2001-03-09,22.7433
2001-03-12,21.0788
2001-03-13,22.9617
2001-03-14,22.5336
2001-03-15,22.8
2001-03-16,21.9525
2001-03-19,25.4212
2001-03-20,23.5908
2001-03-21,25.4475
2001-03-22,24.8752
2001-03-23,25.7227
2001-03-26,24.7397
2001-03-27,26.1858
2001-03-28,23.9752
2001-03-29,23.8922
2001-03-30,24.6305
2001-04-02,22.4899
2001-04-03,20.0128
2001-04-04,19.1697
2001-04-05,20.9172
2001-04-06,19.5498
2001-04-09,19.7464
2001-04-10,21.3147
2001-04-11,22.302
2001-04-12,23.1539
2001-04-16,21.1137
2001-04-17,22.1753
2001-04-18,25.7314
2001-04-19,28.9861
2001-04-20,27.8808
2001-04-23,25.4125
2001-04-24,26.0154
2001-04-25,27.4876
2001-04-26,25.3601
2001-04-27,24.5868
2001-04-30,25.0543
2001-05-01,26.9503
2001-05-02,26.2338
2001-05-03,25.8013
2001-05-04,26.8804
2001-05-07,26.426
2001-05-08,27.1119
2001-05-09,25.9105
2001-05-10,25.6877
2001-05-11,25.3339
2001-05-14,24.8664
2001-05-15,25.9979
2001-05-16,28.2652
2001-05-17,28.9511
2001-05-18,28.4968
2001-05-21,30.9301
2001-05-22,30.5107
2001-05-23,29.8249
2001-05-24,30.5544
2001-05-25,29.4972
2001-05-29,28.9118
2001-05-30,27.0071
2001-05-31,26.5221
2001-06-01,26.8585
2001-06-04,27.0071
2001-06-05,27.7628
2001-06-06,27.2954
2001-06-07,28.3526
2001-06-08,26.8454
2001-06-11,26.1246
2001-06-12,25.2552
2001-06-13,23.7044
2001-06-14,22.4986
2001-06-15,21.5419
2001-06-18,21.8389
2001-06-19,21.9787
2001-06-20,21.1705
2001-06-21,22.8831
2001-06-22,23.6039
2001-06-25,23.7437
2001-06-26,23.3418
2001-06-27,24.2242
2001-06-28,25.1198
2001-06-29,24.8795
2001-07-02,25.2509
2001-07-03,27.8721
2001-07-05,26.7624
2001-07-06,25.513
2001-07-09,26.9677
2001-07-10,25.7926
2001-07-11,24.5475
2001-07-12,27.6886
2001-07-13,28.6104
2001-07-16,28.0031
2001-07-17,28.239
2001-07-18,27.3391
2001-07-19,28.606
2001-07-20,28.1735
2001-07-23,26.5615
2001-07-24,25.2509
2001-07-25,26.0591
2001-07-26,26.1071
2001-07-27,27.6012
2001-07-30,27.9289
2001-07-31,27.623
2001-08-01,28.5361
2001-08-02,29.8117
2001-08-03,29.2045
2001-08-06,29.4404
2001-08-07,29.5715
2001-08-08,28.4793
2001-08-09,28.7239
2001-08-10,27.9594
2001-08-13,29.0472
2001-08-14,28.8113
2001-08-15,27.8371
2001-08-16,28.2478
2001-08-17,26.8236
2001-08-20,27.7148
2001-08-21,27.3828
2001-08-22,27.7934
2001-08-23,27.5531
2001-08-24,28.8681
2001-08-27,28.4313
2001-08-28,27.4483
2001-08-29,27.3129
2001-08-30,26.0984
2001-08-31,25.6877
2001-09-04,23.7524
2001-09-05,23.2282
2001-09-06,21.1662
2001-09-07,21.5069
2001-09-10,22.1098
2001-09-17,20.0915
2001-09-18,20.2356
2001-09-19,19.7857
2001-09-20,19.8905
2001-09-21,19.6459
2001-09-24,20.6594
2001-09-25,21.2579
2001-09-26,20.2269
2001-09-27,20.8167
2001-09-28,20.773
2001-10-01,19.6284
2001-10-02,20.0259
2001-10-03,19.5891
2001-10-04,18.462
2001-10-05,16.8062
2001-10-08,17.9989
2001-10-09,17.763
2001-10-10,19.6284
2001-10-11,21.6904
2001-10-12,21.5899
2001-10-15,22.0792
2001-10-16,21.7341
2001-10-17,20.406
2001-10-18,20.7511
2001-10-19,21.1181
2001-10-22,21.0657
2001-10-23,21.52
2001-10-24,23.2456
2001-10-25,24.3553
2001-10-26,24.1194
2001-10-29,22.9224
2001-10-30,21.3409
2001-10-31,21.4589
2001-11-01,22.4986
2001-11-02,23.3068
2001-11-05,23.2063
2001-11-06,23.8529
2001-11-07,24.0364
2001-11-08,24.6218
2001-11-09,24.2679
2001-11-12,24.5038
2001-11-13,25.1285
2001-11-14,25.312
2001-11-15,25.7358
2001-11-16,26.2382
2001-11-19,27.2211
2001-11-20,25.9105
2001-11-21,26.0678
2001-11-23,26.7712
2001-11-26,26.3867
2001-11-27,26.2163
2001-11-28,25.0324
2001-11-29,25.5348
2001-11-30,25.6091
2001-12-03,25.1285
2001-12-04,26.1727
2001-12-05,26.8367
2001-12-06,26.1989
2001-12-07,24.9014
2001-12-10,24.9145
2001-12-11,25.1591
2001-12-12,25.0892
2001-12-13,24.032
2001-12-14,24.4033
2001-12-17,23.4466
2001-12-18,23.4248
2001-12-19,22.835
2001-12-20,21.6249
2001-12-21,21.8608
2001-12-24,21.7778
2001-12-26,22.0923
2001-12-27,22.6908
2001-12-28,22.6428
2001-12-31,22.0967
2002-01-02,22.5772
2002-01-03,22.6078
2002-01-04,22.0181
2002-01-07,20.6026
2002-01-08,21.0133
2002-01-09,20.2487
2002-01-10,20.4104
2002-01-11,20.323
2002-01-14,20.5895
2002-01-15,20.3274
2002-01-16,19.8774
2002-01-17,20.6245
2002-01-18,19.6546
2002-01-22,18.1256
2002-01-23,19.0517
2002-01-24,19.0954
2002-01-25,20.1046
2002-01-28,19.8119
2002-01-29,18.9076
2002-01-30,19.4318
2002-01-31,19.2221
2002-02-01,18.5974
2002-02-04,17.7892
2002-02-05,17.3523
2002-02-06,17.6669
2002-02-07,17.2038
2002-02-08,16.1772
2002-02-11,17.9639
2002-02-12,17.6931
2002-02-13,18.3003
2002-02-14,17.5926
2002-02-15,16.2776
2002-02-19,16.2383
2002-02-20,15.7053
2002-02-21,14.2812
2002-02-22,14.2331
2002-02-25,15.6879
2002-02-26,15.1811
2002-02-27,14.6918
2002-02-28,14.4646
2002-03-01,15.7228
2002-03-04,16.946
2002-03-05,17.0247
2002-03-06,17.4266
2002-03-07,18.0644
2002-03-08,19.1304
2002-03-11,19.0867
2002-03-12,18.4969
2002-03-13,17.9202
2002-03-14,17.7892
2002-03-15,18.2872
2002-03-18,19.0692
2002-03-19,18.7809
2002-03-20,17.5664
2002-03-21,18.2479
2002-03-22,17.7368
2002-03-25,17.2737
2002-03-26,17.3873
2002-03-27,16.5834
2002-03-28,16.4699
2002-04-01,17.147
2002-04-02,16.3213
2002-04-03,16.4349
2002-04-04,16.0155
2002-04-05,15.7228
2002-04-08,15.7621
2002-04-09,15.3253
2002-04-10,15.417
2002-04-11,15.1025
2002-04-12,15.6092
2002-04-15,15.8757
2002-04-16,17.2387
2002-04-17,17.3829
2002-04-18,16.7713
2002-04-19,16.3475
2002-04-22,15.3384
2002-04-23,14.0671
2002-04-24,14.5608
2002-04-25,14.22
2002-04-26,13.5603
2002-04-29,12.8002
2002-04-30,13.1497
2002-05-01,12.9225
2002-05-02,12.5599
2002-05-03,11.8303
2002-05-06,11.5682
2002-05-07,10.8343
2002-05-08,12.8089
2002-05-09,12.3677
2002-05-10,11.7954
2002-05-13,12.6779
2002-05-14,13.32
2002-05-15,13.9841
2002-05-16,14.0496
2002-05-17,14.2113
2002-05-20,13.9186
2002-05-21,14.2418
2002-05-22,13.7045
2002-05-23,13.8224
2002-05-24,13.5472
2002-05-28,13.7394
2002-05-29,13.5996
2002-05-30,13.6302
2002-05-31,13.888
2002-06-03,13.6739
2002-06-04,14.1195
2002-06-05,14.2637
2002-06-06,13.4467
2002-06-07,13.521
2002-06-10,13.7132
2002-06-11,13.6783
2002-06-12,14.2812
2002-06-13,14.1938
2002-06-14,13.0929
2002-06-17,12.7871
2002-06-18,12.6735
2002-06-19,12.2366
2002-06-20,11.5595
2002-06-21,11.4066
2002-06-24,11.7692
2002-06-25,11.5027
2002-06-26,11.826
2002-06-27,11.9832
2002-06-28,12.0095
2002-07-01,11.5682
2002-07-02,10.8561
2002-07-03,11.5245
2002-07-05,12.4944
2002-07-08,11.8697
2002-07-09,12.0444
2002-07-10,11.5726
2002-07-11,12.1886
2002-07-12,12.2497
2002-07-15,12.6866
2002-07-16,13.0186
2002-07-17,13.0972
2002-07-18,13.2589
2002-07-19,13.106
2002-07-22,12.822
2002-07-23,12.3677
2002-07-24,12.7128
2002-07-25,11.1969
2002-07-26,11.341
2002-07-29,12.2497
2002-07-30,12.0619
2002-07-31,11.992
2002-08-01,11.1925
2002-08-02,11.1619
2002-08-05,10.393
2002-08-06,10.9348
2002-08-07,10.8212
2002-08-08,11.2799
2002-08-09,11.3323
2002-08-12,11.2799
2002-08-13,11.4677
2002-08-14,12.1449
2002-08-15,12.4769
2002-08-16,12.7084
2002-08-19,13.071
2002-08-20,12.8439
2002-08-21,12.7871
2002-08-22,13.2021
2002-08-23,12.8264
2002-08-26,13.0448
2002-08-27,12.5512
2002-08-28,11.957
2002-08-29,12.324
2002-08-30,12.1405
2002-09-03,11.7517
2002-09-04,11.8347
2002-09-05,11.7036
2002-09-06,12.3983
2002-09-09,13.0361
2002-09-10,12.9138
2002-09-11,12.7871
2002-09-12,12.2934
2002-09-13,12.4507
2002-09-16,11.957
2002-09-17,11.7779
2002-09-18,11.341
2002-09-19,11.2231
2002-09-20,12.2191
2002-09-23,12.0007
2002-09-24,11.9832
2002-09-25,12.3939
2002-09-26,12.5861
2002-09-27,12.5031
2002-09-30,12.1012
2002-10-01,12.9706
2002-10-02,12.6036
2002-10-03,12.7346
2002-10-04,12.8045
2002-10-07,12.8264
2002-10-08,12.5381
2002-10-09,12.1973
2002-10-10,13.0448
2002-10-11,13.6958
2002-10-14,14.2768
2002-10-15,15.4476
2002-10-16,14.9408
2002-10-17,15.6922
2002-10-18,15.7709
2002-10-21,16.1378
2002-10-22,16.0767
2002-10-23,15.9238
2002-10-24,15.5
2002-10-25,15.9369
2002-10-28,15.4432
2002-10-29,14.6612
2002-10-30,14.7311
2002-10-31,15.0413
2002-11-01,15.5918
2002-11-04,15.5393
2002-11-05,15.5568
2002-11-06,15.5524
2002-11-07,15.2554
2002-11-08,15.2117
2002-11-11,14.4166
2002-11-12,15.085
2002-11-13,15.3471
2002-11-14,16.6664
2002-11-15,17.2562
2002-11-18,16.8019
2002-11-19,16.1597
2002-11-20,17.0815
2002-11-21,17.7106
2002-11-22,17.7368
2002-11-25,18.2916
2002-11-26,17.6843
2002-11-27,18.2129
2002-11-29,17.9901
2002-12-02,18.6411
2002-12-03,17.846
2002-12-04,17.4746
2002-12-05,17.3043
2002-12-06,18.1168
2002-12-09,17.1208
2002-12-10,17.3567
2002-12-11,17.2781
2002-12-12,16.8325
2002-12-13,16.4262
2002-12-16,17.2125
2002-12-17,17.2868
2002-12-18,16.7757
2002-12-19,16.4436
2002-12-20,16.4699
2002-12-23,17.0247
2002-12-24,16.8456
2002-12-26,16.6053
2002-12-27,16.2951
2002-12-30,16.0417
2002-12-31,15.8233
2003-01-02,16.1903
2003-01-03,15.5524
2003-01-06,16.2951
2003-01-07,16.2995
2003-01-08,16.0068
2003-01-09,16.9067
2003-01-10,16.7757
2003-01-13,16.8587
2003-01-14,17.1645
2003-01-15,16.7669
2003-01-16,16.7626
2003-01-17,16.1378
2003-01-21,16.1684
2003-01-22,16.0199
2003-01-23,16.6577
2003-01-24,16.0767
2003-01-27,15.8801
2003-01-28,16.1684
2003-01-29,16.6009
2003-01-30,16.3825
2003-01-31,16.4742
2003-02-03,16.3606
2003-02-04,15.9631
2003-02-05,15.8539
2003-02-06,15.9893
2003-02-07,15.9019
2003-02-10,16.3737
2003-02-11,16.4043
2003-02-12,15.9718
2003-02-13,14.8098
2003-02-14,15.1243
2003-02-18,15.3427
2003-02-19,15.4432
2003-02-20,15.1636
2003-02-21,15.4214
2003-02-24,15.3864
2003-02-25,15.216
2003-02-26,14.67
2003-02-27,14.9408
2003-02-28,15.1418
2003-03-03,14.8534
2003-03-04,15.0195
2003-03-05,15.583
2003-03-06,15.2816
2003-03-07,15.3864
2003-03-10,14.9758
2003-03-11,15.0544
2003-03-12,15.3694
2003-03-13,16.4587
2003-03-14,16.3581
2003-03-17,17.0625
2003-03-18,17.1456
2003-03-19,17.0625
2003-03-20,16.8656
2003-03-21,17.1544
2003-03-24,16.6644
2003-03-25,16.9269
2003-03-26,16.8044
2003-03-27,16.4762
2003-03-28,16.3756
2003-03-31,15.7456
2003-04-01,15.7587
2003-04-02,14.9406
2003-04-03,14.9712
2003-04-04,14.9844
2003-04-07,15.0194
2003-04-08,14.1662
2003-04-09,14.0481
2003-04-10,14.0875
2003-04-11,13.9475
2003-04-14,14.4812
2003-04-15,14.4375
2003-04-16,14.2887
2003-04-17,14.3806
2003-04-21,14.385
2003-04-22,14.4812
2003-04-23,14.4725
2003-04-24,14.2756
2003-04-25,13.5975
2003-04-28,13.6019
2003-04-29,13.9212
2003-04-30,13.9169
2003-05-01,14.0481
2003-05-02,14.0744
2003-05-05,14.2231
2003-05-06,14.2975
2003-05-07,13.9694
2003-05-08,13.3612
2003-05-09,13.6019
2003-05-12,13.5844
2003-05-13,13.7112
2003-05-14,13.4531
2003-05-15,13.2737
2003-05-16,13.2519
2003-05-19,13.3044
2003-05-20,13.5625
2003-05-21,13.7681
2003-05-22,13.6937
2003-05-23,13.5144
2003-05-27,13.8512
2003-05-28,13.7942
2003-05-29,14.2412
2003-05-30,14.6706
2003-06-02,14.5961
2003-06-03,15.2096
2003-06-04,15.1876
2003-06-05,15.3016
2003-06-06,14.7232
2003-06-09,14.5172
2003-06-10,14.7275
2003-06-11,14.7188
2003-06-12,14.7056
2003-06-13,14.4208
2003-06-16,14.7319
2003-06-17,14.7407
2003-06-18,15.6346
2003-06-19,16.156
2003-06-20,15.8887
2003-06-23,15.7661
2003-06-24,15.7222
2003-06-25,15.5776
2003-06-26,15.9589
2003-06-27,15.8318
2003-06-30,15.7441
2003-07-01,15.9063
2003-07-02,16.4672
2003-07-03,16.4759
2003-07-07,17.4399
2003-07-08,17.2822
2003-07-09,17.1244
2003-07-10,16.787
2003-07-11,16.9579
2003-07-14,16.8133
2003-07-15,16.5723
2003-07-16,16.3708
2003-07-17,15.674
2003-07-18,15.5908
2003-07-21,15.2928
2003-07-22,15.8625
2003-07-23,15.8756
2003-07-24,16.2262
2003-07-25,16.511
2003-07-28,16.9229
2003-07-29,16.6337
2003-07-30,16.2787
2003-07-31,16.4365
2003-08-01,16.0246
2003-08-04,16.3708
2003-08-05,15.8186
2003-08-06,16.029
2003-08-07,15.9545
2003-08-08,15.4988
2003-08-11,15.7222
2003-08-12,16.1517
2003-08-13,16.5592
2003-08-14,16.7651
2003-08-15,16.8046
2003-08-18,17.1201
2003-08-19,16.9798
2003-08-20,16.8966
2003-08-21,16.9535
2003-08-22,17.0543
2003-08-25,17.0675
2003-08-26,17.3216
2003-08-27,17.9976
2003-08-28,17.9844
2003-08-29,18.0985
2003-09-02,18.059
2003-09-03,17.6947
2003-09-04,18.059
2003-09-05,18.0634
2003-09-08,18.6385
2003-09-09,18.3575
2003-09-10,17.9098
2003-09-11,18.0151
2003-09-12,18.7482
2003-09-15,19.0379
2003-09-16,19.6744
2003-09-17,19.3408
2003-09-18,20.0607
2003-09-19,19.7886
2003-09-22,19.5822
2003-09-23,19.6832
2003-09-24,19.0994
2003-09-25,18.7965
2003-09-26,18.318
2003-09-29,18.9721
2003-09-30,18.3312
2003-10-01,18.599
2003-10-02,18.8799
2003-10-03,19.2442
2003-10-06,19.253
2003-10-07,19.1696
2003-10-08,18.9984
2003-10-09,19.1169
2003-10-10,19.4023
2003-10-13,19.6964
2003-10-14,19.591
2003-10-15,19.3496
2003-10-16,19.613
2003-10-17,18.994
2003-10-20,19.4857
2003-10-21,19.8325
2003-10-22,19.3276
2003-10-23,19.2574
2003-10-24,19.3672
2003-10-27,19.4286
2003-10-28,20.5875
2003-10-29,20.8157
2003-10-30,21.0221
2003-10-31,20.807
2003-11-03,21.202
2003-11-04,20.8245
2003-11-05,20.4558
2003-11-06,20.5524
2003-11-07,21.1186
2003-11-10,20.5085
2003-11-11,20.3504
2003-11-12,20.9518
2003-11-13,20.943
2003-11-14,20.8157
2003-11-17,20.4777
2003-11-18,19.9817
2003-11-19,20.2187
2003-11-20,19.6744
2003-11-21,19.3057
2003-11-24,19.8237
2003-11-25,20.0611
2003-11-26,19.5775
2003-11-28,19.6258
2003-12-01,20.0127
2003-12-02,19.7533
2003-12-03,19.5555
2003-12-04,21.6614
2003-12-05,21.7361
2003-12-08,21.6394
2003-12-09,21.3448
2003-12-10,21.4064
2003-12-11,22.0615
2003-12-12,22.422
2003-12-15,22.0131
2003-12-16,21.8372
2003-12-17,21.7141
2003-12-18,22.5934
2003-12-19,22.4352
2003-12-22,22.9495
2003-12-23,23.4991
2003-12-24,23.2045
2003-12-26,23.3013
2003-12-29,24.0135
2003-12-30,23.8816
2003-12-31,23.6222
2004-01-02,23.5255
2004-01-05,24.0399
2004-01-06,23.8332
2004-01-07,24.4927
2004-01-08,25.904
2004-01-09,25.9567
2004-01-12,26.4403
2004-01-13,26.0491
2004-01-14,26.4359
2004-01-15,26.3392
2004-01-16,26.2865
2004-01-20,25.8732
2004-01-21,25.8512
2004-01-22,25.1038
2004-01-23,24.9499
2004-01-26,25.6797
2004-01-27,25.1478
2004-01-28,24.9016
2004-01-29,25.3017
2004-01-30,25.7897
2004-02-02,25.2753
2004-02-03,25.1873
2004-02-04,24.8488
2004-02-05,25.073
2004-02-06,25.4072
2004-02-09,25.1566
2004-02-10,25.5259
2004-02-11,26.1194
2004-02-12,25.8072
2004-02-13,25.4116
2004-02-17,26.2029
2004-02-18,25.882
2004-02-19,25.9347
2004-02-20,26.1546
2004-02-23,27.4295
2004-02-24,26.9196
2004-02-25,27.3774
2004-02-26,28.0024
2004-02-27,27.8307
2004-03-01,27.6063
2004-03-02,27.3422
2004-03-03,27.2145
2004-03-04,27.527
2004-03-05,28.1036
2004-03-08,28.02
2004-03-09,28.0816
2004-03-10,27.9936
2004-03-11,27.1573
2004-03-12,27.7251
2004-03-15,27.6283
2004-03-16,28.2357
2004-03-17,28.4426
2004-03-18,28.5306
2004-03-19,28.3897
2004-03-22,27.4214
2004-03-23,27.0737
2004-03-24,27.3422
2004-03-25,27.6943
2004-03-26,27.2101
2004-03-29,28.8827
2004-03-30,28.8563
2004-03-31,29.1292
2004-04-01,29.1424
2004-04-02,29.9611
2004-04-05,30.432
2004-04-06,30.0711
2004-04-07,30.1063
2004-04-08,29.7058
2004-04-12,30.0315
2004-04-13,29.5605
2004-04-14,29.5517
2004-04-15,29.0896
2004-04-16,28.5526
2004-04-19,29.2304
2004-04-20,28.4161
2004-04-21,28.9619
2004-04-22,29.9259
2004-04-23,29.4945
2004-04-26,29.182
2004-04-27,29.0368
2004-04-28,28.6582
2004-04-29,28.3369
2004-04-30,27.4874
2004-05-03,28.13
2004-05-04,28.5614
2004-05-05,28.6494
2004-05-06,28.1476
2004-05-07,27.8704
2004-05-10,28.042
2004-05-11,28.4602
2004-05-12,28.1565
2004-05-13,28.3413
2004-05-14,28.1256
2004-05-17,27.6019
2004-05-18,28.1829
2004-05-19,28.0244
2004-05-20,28.2929
2004-05-21,28.6978
2004-05-24,28.9135
2004-05-25,29.4857
2004-05-26,29.3535
2004-05-27,29.4064
2004-05-28,29.5387
2004-06-01,30.0015
2004-06-02,29.9839
2004-06-03,29.8252
2004-06-04,29.6974
2004-06-07,30.2792
2004-06-08,30.5702
2004-06-09,30.1823
2004-06-10,30.7553
2004-06-14,30.288
2004-06-15,30.5569
2004-06-16,30.3542
2004-06-17,30.1029
2004-06-18,29.305
2004-06-21,28.8202
2004-06-22,30.0324
2004-06-23,29.9222
2004-06-24,30.2925
2004-06-25,30.2925
2004-06-28,30.2087
2004-06-29,31.5708
2004-06-30,32.2717
2004-07-01,31.7956
2004-07-02,31.8882
2004-07-06,31.1212
2004-07-07,31.5179
2004-07-08,31.1168
2004-07-09,31.1432
2004-07-12,30.6407
2004-07-13,31.0066
2004-07-14,30.7156
2004-07-15,30.363
2004-07-16,30.1249
2004-07-19,30.1294
2004-07-20,30.579
2004-07-21,29.8208
2004-07-22,31.9235
2004-07-23,31.1961
2004-07-26,31.1344
2004-07-27,31.0242
2004-07-28,30.795
2004-07-29,30.9272
2004-07-30,30.5349
2004-08-02,31.7692
2004-08-03,31.3151
2004-08-04,31.3945
2004-08-05,30.7994
2004-08-06,29.8208
2004-08-09,30.2307
2004-08-10,30.6495
2004-08-11,30.1999
2004-08-12,30.5305
2004-08-13,30.4952
2004-08-16,30.795
2004-08-17,30.6539
2004-08-18,31.7295
2004-08-19,31.324
2004-08-20,32.8139
2004-08-23,33.4927
2004-08-24,33.3781
2004-08-25,33.8813
2004-08-26,33.5545
2004-08-27,34.005
2004-08-30,33.3691
2004-08-31,33.5987
2004-09-01,33.5722
2004-09-02,34.2611
2004-09-03,34.0492
2004-09-07,34.7558
2004-09-08,34.8971
2004-09-09,34.9236
2004-09-10,34.8794
2004-09-13,35.6302
2004-09-14,36.1336
2004-09-15,35.8333
2004-09-16,35.692
2004-09-17,34.3318
2004-09-20,33.8725
2004-09-21,34.7646
2004-09-22,34.1375
2004-09-23,34.2346
2004-09-24,33.793
2004-09-27,33.5722
2004-09-28,33.7312
2004-09-29,34.3583
2004-09-30,34.4201
2004-10-01,35.6567
2004-10-04,36.1866
2004-10-05,36.4251
2004-10-06,36.8756
2004-10-07,36.5664
2004-10-08,36.2661
2004-10-11,36.4339
2004-10-12,36.7342
2004-10-13,36.5841
2004-10-14,37.2112
2004-10-15,37.5821
2004-10-18,38.4566
2004-10-19,37.8295
2004-10-20,38.3241
2004-10-21,38.8629
2004-10-22,37.0875
2004-10-25,36.3544
2004-10-26,34.7823
2004-10-27,36.1955
2004-10-28,36.6282
2004-10-29,36.6901
2004-11-01,35.7273
2004-11-02,36.0365
2004-11-03,35.2415
2004-11-04,33.6517
2004-11-05,33.7224
2004-11-08,34.1463
2004-11-09,34.4555
2004-11-10,34.2523
2004-11-11,35.321
2004-11-12,35.4624
2004-11-15,35.4712
2004-11-16,34.9854
2004-11-17,35.9835
2004-11-18,36.4339
2004-11-19,35.5154
2004-11-22,36.2484
2004-11-23,35.9746
2004-11-24,36.7431
2004-11-26,36.3544
2004-11-29,36.6724
2004-11-30,36.7607
2004-12-01,37.9796
2004-12-02,38.5096
2004-12-03,38.4654
2004-12-06,38.4035
2004-12-07,37.9524
2004-12-08,38.6159
2004-12-09,38.4035
2004-12-10,38.3328
2004-12-13,38.8193
2004-12-14,38.8901
2004-12-15,39.1378
2004-12-16,38.4655
2004-12-17,38.4035
2004-12-20,38.0585
2004-12-21,38.9432
2004-12-22,39.359
2004-12-23,39.4563
2004-12-27,38.5009
2004-12-28,38.3947
2004-12-29,37.855
2004-12-30,37.7223
2004-12-31,37.5631
2005-01-03,37.3773
2005-01-04,37.3331
2005-01-05,37.4216
2005-01-06,38.1824
2005-01-07,38.2001
2005-01-10,38.2089
2005-01-11,38.1381
2005-01-12,38.147
2005-01-13,37.3242
2005-01-14,37.3154
2005-01-18,37.7577
2005-01-19,36.3599
2005-01-20,33.4052
2005-01-21,33.4494
2005-01-24,32.3701
2005-01-25,32.4497
2005-01-26,32.6797
2005-01-27,31.9101
2005-01-28,32.2108
2005-01-31,32.9097
2005-02-01,32.547
2005-02-02,32.1843
2005-02-03,31.9454
2005-02-04,32.6266
2005-02-07,31.8216
2005-02-08,32.0339
2005-02-09,31.5562
2005-02-10,31.3439
2005-02-11,32.0074
2005-02-14,32.9097
2005-02-15,32.6532
2005-02-16,31.8835
2005-02-17,31.3616
2005-02-18,30.645
2005-02-22,30.5477
2005-02-23,30.3438
2005-02-24,31.4784
2005-02-25,32.7372
2005-02-28,31.8951
2005-03-01,32.1876
2005-03-02,32.1965
2005-03-03,31.3987
2005-03-04,31.6026
2005-03-07,33.1361
2005-03-08,32.2319
2005-03-09,32.6397
2005-03-10,32.8613
2005-03-11,33.1539
2005-03-14,33.1893
2005-03-15,33.7744
2005-03-16,33.6592
2005-03-17,32.7638
2005-03-18,32.3383
2005-03-21,32.3826
2005-03-22,31.9926
2005-03-23,32.2054
2005-03-24,31.8064
2005-03-28,32.099
2005-03-29,31.638
2005-03-30,32.684
2005-03-31,32.4624
2005-04-01,31.5228
2005-04-04,32.0103
2005-04-05,31.6114
2005-04-06,31.1327
2005-04-07,31.1239
2005-04-08,30.9643
2005-04-11,30.6008
2005-04-12,30.6718
2005-04-13,29.218
2005-04-14,29.7498
2005-04-15,29.0052
2005-04-18,28.8811
2005-04-19,29.0938
2005-04-20,29.4041
2005-04-21,30.7604
2005-04-22,30.1399
2005-04-25,30.7604
2005-04-26,30.592
2005-04-27,31.3366
2005-04-28,30.8491
2005-04-29,30.8668
2005-05-02,31.0263
2005-05-03,30.8934
2005-05-04,31.5405
2005-05-05,31.1593
2005-05-06,31.5405
2005-05-09,31.9394
2005-05-10,31.4873
2005-05-11,31.9749
2005-05-12,31.6114
2005-05-13,31.2302
2005-05-16,31.3189
2005-05-17,31.9926
2005-05-18,32.3472
2005-05-19,32.4358
2005-05-20,33.0652
2005-05-23,32.9677
2005-05-24,32.8791
2005-05-25,32.6747
2005-05-26,33.2612
2005-05-27,33.0212
2005-05-31,33.119
2005-06-01,33.8654
2005-06-02,33.9632
2005-06-03,33.3856
2005-06-06,33.5811
2005-06-07,33.1279
2005-06-08,32.8613
2005-06-09,32.4703
2005-06-10,31.9282
2005-06-13,32.1326
2005-06-14,31.1285
2005-06-15,30.9596
2005-06-16,31.0396
2005-06-17,31.0485
2005-06-20,31.2884
2005-06-21,31.2262
2005-06-22,31.0396
2005-06-23,30.2221
2005-06-24,29.8844
2005-06-27,29.8488
2005-06-28,29.8666
2005-06-29,29.7689
2005-06-30,29.3512
2005-07-01,29.9466
2005-07-05,29.8844
2005-07-06,29.7067
2005-07-07,29.7511
2005-07-08,30.8796
2005-07-11,31.2084
2005-07-12,31.2084
2005-07-13,31.0041
2005-07-14,31.3684
2005-07-15,31.6083
2005-07-18,31.2529
2005-07-19,31.8038
2005-07-20,32.0349
2005-07-21,34.7185
2005-07-22,34.914
2005-07-25,34.8962
2005-07-26,35.1984
2005-07-27,35.6604
2005-07-28,35.3494
2005-07-29,35.145
2005-08-01,34.6918
2005-08-02,35.225
2005-08-03,35.4383
2005-08-04,35.1273
2005-08-05,34.8162
2005-08-08,34.8518
2005-08-09,34.443
2005-08-10,34.9495
2005-08-11,35.9981
2005-08-12,36.1758
2005-08-15,36.8601
2005-08-16,35.7315
2005-08-17,35.5805
2005-08-18,35.4827
2005-08-19,35.7848
2005-08-22,35.9715
2005-08-23,35.847
2005-08-24,35.3306
2005-08-25,35.6601
2005-08-26,35.5443
2005-08-29,35.6601
2005-08-30,35.4018
2005-08-31,35.4108
2005-09-01,35.6245
2005-09-02,35.5622
2005-09-06,36.1232
2005-09-07,36.052
2005-09-08,37.1296
2005-09-09,38.0737
2005-09-12,37.9045
2005-09-13,38.1449
2005-09-14,37.4948
2005-09-15,37.6462
2005-09-16,38.4745
2005-09-19,38.0113
2005-09-20,38.6793
2005-09-21,38.9465
2005-09-22,39.2493
2005-09-23,39.8638
2005-09-26,39.5165
2005-09-27,39.5432
2005-09-28,39.6768
2005-09-29,40.0597
2005-09-30,39.7569
2005-10-03,40.1488
2005-10-04,40.5852
2005-10-05,40.2646
2005-10-06,39.2671
2005-10-07,39.1691
2005-10-10,38.9376
2005-10-11,38.6704
2005-10-12,37.762
2005-10-13,37.1296
2005-10-14,37.281
2005-10-17,37.5215
2005-10-18,37.8243
2005-10-19,39.0266
2005-10-20,38.5724
2005-10-21,40.0508
2005-10-24,40.6386
2005-10-25,40.1666
2005-10-26,39.8905
2005-10-27,38.3587
2005-10-28,36.6487
2005-10-31,35.3128
2005-11-01,35.1525
2005-11-02,35.954
2005-11-03,39.3384
2005-11-04,39.8905
2005-11-07,39.6234
2005-11-08,40.3269
2005-11-09,39.846
2005-11-10,40.6297
2005-11-11,40.416
2005-11-14,40.6119
2005-11-15,40.0063
2005-11-16,40.0865
2005-11-17,40.5229
2005-11-18,40.9771
2005-11-21,40.9415
2005-11-22,40.8435
2005-11-23,40.9058
2005-11-25,41.1018
2005-11-28,40.986
2005-11-29,40.6208
2005-11-30,40.4783
2005-12-01,40.603
2005-12-02,40.1933
2005-12-05,39.7024
2005-12-06,39.8719
2005-12-07,40.1664
2005-12-08,39.4704
2005-12-09,39.6845
2005-12-12,40.336
2005-12-13,40.8536
2005-12-14,41.2195
2005-12-15,40.8447
2005-12-16,40.1575
2005-12-19,39.0777
2005-12-20,39.2473
2005-12-21,39.2562
2005-12-22,39.6042
2005-12-23,39.631
2005-12-27,38.926
2005-12-28,38.9885
2005-12-29,38.8011
2005-12-30,38.3906
2006-01-03,39.274
2006-01-04,40.4788
2006-01-05,40.3092
2006-01-06,42.2189
2006-01-09,42.4777
2006-01-10,42.2725
2006-01-11,43.5664
2006-01-12,43.7895
2006-01-13,43.4058
2006-01-17,42.9418
2006-01-18,42.6384
2006-01-19,43.4058
2006-01-20,42.0048
2006-01-23,41.862
2006-01-24,42.8436
2006-01-25,42.4866
2006-01-26,42.2636
2006-01-27,42.7722
2006-01-30,43.4058
2006-01-31,42.7008
2006-02-01,42.7901
2006-02-02,41.862
2006-02-03,41.0856
2006-02-06,41.0321
2006-02-07,40.7376
2006-02-08,41.9691
2006-02-09,41.2373
2006-02-10,41.7103
2006-02-13,40.9785
2006-02-14,42.5045
2006-02-15,42.1475
2006-02-16,42.8436
2006-02-17,43.1292
2006-02-21,41.9512
2006-02-22,42.7828
2006-02-23,41.9692
2006-02-24,42.1391
2006-02-27,43.1673
2006-02-28,42.1391
2006-03-01,42.9259
2006-03-02,42.7381
2006-03-03,42.7203
2006-03-06,42.2374
2006-03-07,42.8633
2006-03-08,44.3833
2006-03-09,42.9795
2006-03-10,42.917
2006-03-13,42.9795
2006-03-14,43.972
2006-03-15,44.4816
2006-03-16,44.6694
2006-03-17,45.3668
2006-03-20,45.0628
2006-03-21,44.3833
2006-03-22,44.4459
2006-03-23,44.3565
2006-03-24,44.1329
2006-03-27,44.4459
2006-03-28,44.1508
2006-03-29,45.3489
2006-03-30,45.4562
2006-03-31,45.2774
2006-04-03,45.7691
2006-04-04,46.3503
2006-04-05,46.1536
2006-04-06,46.252
2006-04-07,46.404
2006-04-10,46.1268
2006-04-11,46.0195
2006-04-12,45.635
2006-04-13,46.0642
2006-04-17,45.5814
2006-04-18,46.5828
2006-04-19,46.8868
2006-04-20,46.3056
2006-04-21,45.9301
2006-04-24,46.7705
2006-04-25,46.091
2006-04-26,45.6708
2006-04-27,46.4576
2006-04-28,45.9658
2006-05-01,45.2148
2006-05-02,45.7244
2006-05-03,46.2967
2006-05-04,46.7169
2006-05-05,47.0119
2006-05-08,47.0745
2006-05-09,47.1282
2006-05-10,46.2251
2006-05-11,44.124
2006-05-12,43.8021
2006-05-15,43.4534
2006-05-16,42.917
2006-05-17,41.9334
2006-05-18,41.4953
2006-05-19,42.1033
2006-05-22,41.692
2006-05-23,40.7085
2006-05-24,40.8882
2006-05-25,41.2916
2006-05-26,41.2288
2006-05-30,40.153
2006-05-31,40.3772
2006-06-01,42.0894
2006-06-02,42.0984
2006-06-05,40.9509
2006-06-06,41.444
2006-06-07,40.7358
2006-06-08,39.8931
2006-06-09,39.0235
2006-06-12,37.0154
2006-06-13,37.4995
2006-06-14,38.7456
2006-06-15,40.2248
2006-06-16,39.3014
2006-06-19,38.889
2006-06-20,39.2924
2006-06-21,39.6152
2006-06-22,37.0692
2006-06-23,35.6707
2006-06-26,35.9307
2006-06-27,34.6846
2006-06-28,35.3928
2006-06-29,36.3789
2006-06-30,35.9127
2006-07-03,35.33
2006-07-05,34.2453
2006-07-06,34.4604
2006-07-07,34.0481
2006-07-10,33.8329
2006-07-11,34.8011
2006-07-12,33.7074
2006-07-13,32.8289
2006-07-14,32.6047
2006-07-17,32.8109
2006-07-18,33.5371
2006-07-19,32.9275
2006-07-20,32.0489
2006-07-21,30.9373
2006-07-24,31.7262
2006-07-25,30.7759
2006-07-26,31.3407
2006-07-27,30.9463
2006-07-28,32.0131
2006-07-31,31.6007
2006-08-01,30.8925
2006-08-02,30.8208
2006-08-03,31.269
2006-08-04,31.6276
2006-08-07,31.009
2006-08-08,30.3098
2006-08-09,30.0408
2006-08-10,30.3636
2006-08-11,29.8077
2006-08-14,30.1305
2006-08-15,31.6903
2006-08-16,33.806
2006-08-17,33.3847
2006-08-18,33.4923
2006-08-21,33.3398
2006-08-22,33.6267
2006-08-23,32.9702
2006-08-24,33.4558
2006-08-25,33.5817
2006-08-28,33.4019
2006-08-29,33.8156
2006-08-30,34.1214
2006-08-31,33.9055
2006-09-01,34.4991
2006-09-05,35.2455
2006-09-06,34.2563
2006-09-07,33.249
2006-09-08,32.8623
2006-09-11,33.0961
2006-09-12,33.8516
2006-09-13,33.6357
2006-09-14,33.4468
2006-09-15,33.177
2006-09-18,32.8803
2006-09-19,33.3479
2006-09-20,34.3012
2006-09-21,34.5171
2006-09-22,34.0224
2006-09-25,34.7779
2006-09-26,34.571
2006-09-27,34.3192
2006-09-28,33.258
2006-09-29,32.7094
2006-10-02,31.1895
2006-10-03,31.873
2006-10-04,32.1428
2006-10-05,32.5475
2006-10-06,32.7094
2006-10-09,32.6015
2006-10-10,33.267
2006-10-11,33.9325
2006-10-12,34.9757
2006-10-13,35.7582
2006-10-16,35.8211
2006-10-17,35.0297
2006-10-18,34.2473
2006-10-19,34.3102
2006-10-20,34.0674
2006-10-23,34.2293
2006-10-24,33.0511
2006-10-25,33.7077
2006-10-26,34.1304
2006-10-27,33.3839
2006-10-30,33.0331
2006-10-31,32.7004
2006-11-01,32.1518
2006-11-02,32.7094
2006-11-03,32.8263
2006-11-06,32.4845
2006-11-07,32.7094
2006-11-08,32.5655
2006-11-09,31.3604
2006-11-10,31.6751
2006-11-13,32.5475
2006-11-14,33.7706
2006-11-15,33.9595
2006-11-16,33.9595
2006-11-17,33.7976
2006-11-20,33.4109
2006-11-21,33.7886
2006-11-22,33.5638
2006-11-24,33.9325
2006-11-27,32.7903
2006-11-28,32.2687
2006-11-29,32.9252
2006-11-30,32.9072
2006-12-01,32.6644
2006-12-04,33.7256
2006-12-05,34.9617
2006-12-06,35.3136
2006-12-07,35.3858
2006-12-08,35.6835
2006-12-11,35.1151
2006-12-12,35.0339
2006-12-13,34.691
2006-12-14,35.5482
2006-12-15,35.6113
2006-12-18,35.2775
2006-12-19,34.7362
2006-12-20,34.6189
2006-12-21,34.7722
2006-12-22,34.1497
2006-12-26,33.9241
2006-12-27,33.9512
2006-12-28,33.9873
2006-12-29,34.0685
2007-01-03,33.7708
2007-01-04,35.3316
2007-01-05,34.9437
2007-01-08,34.5286
2007-01-09,34.1677
2007-01-10,34.7542
2007-01-11,35.6203
2007-01-12,35.7286
2007-01-16,35.6023
2007-01-17,35.3677
2007-01-18,34.7722
2007-01-19,35.088
2007-01-22,34.7722
2007-01-23,34.4474
2007-01-24,34.7722
2007-01-25,34.4474
2007-01-26,33.8429
2007-01-29,33.5181
2007-01-30,33.5362
2007-01-31,33.9963
2007-02-01,33.7437
2007-02-02,33.5813
2007-02-05,34.2399
2007-02-06,33.9783
2007-02-07,33.8881
2007-02-08,34.4745
2007-02-09,34.5557
2007-02-12,34.3572
2007-02-13,34.4023
2007-02-14,35.7827
2007-02-15,37.3075
2007-02-16,38.4263
2007-02-20,38.5346
2007-02-21,37.9301
2007-02-22,38.5887
2007-02-23,39.121
2007-02-26,38.4263
2007-02-27,36.4143
2007-02-28,36.496
2007-03-01,36.2789
2007-03-02,35.754
2007-03-05,35.392
2007-03-06,35.8264
2007-03-07,35.8988
2007-03-08,36.3784
2007-03-09,36.4055
2007-03-12,36.2879
2007-03-13,37.9349
2007-03-14,39.0932
2007-03-15,39.5728
2007-03-16,39.4642
2007-03-19,38.8217
2007-03-20,38.9394
2007-03-21,39.5909
2007-03-22,39.3013
2007-03-23,38.5683
2007-03-26,38.3602
2007-03-27,38.5683
2007-03-28,38.505
2007-03-29,38.2607
2007-03-30,38.5774
2007-04-02,38.9846
2007-04-03,39.5728
2007-04-04,39.4733
2007-04-05,39.1746
2007-04-09,38.6588
2007-04-10,38.9213
2007-04-11,38.134
2007-04-12,38.5955
2007-04-13,38.4959
2007-04-16,39.2651
2007-04-17,39.1927
2007-04-18,38.8941
2007-04-19,39.1927
2007-04-20,39.3013
2007-04-23,38.8579
2007-04-24,40.1339
2007-04-25,41.0479
2007-04-26,40.9845
2007-04-27,40.3692
2007-04-30,39.6362
2007-05-01,39.5819
2007-05-02,40.0977
2007-05-03,40.0253
2007-05-04,39.8624
2007-05-07,39.781
2007-05-08,39.971
2007-05-09,40.0615
2007-05-10,39.7538
2007-05-11,40.5863
2007-05-14,40.0343
2007-05-15,39.9076
2007-05-16,40.7221
2007-05-17,40.5502
2007-05-18,40.8759
2007-05-21,41.6904
2007-05-22,41.9347
2007-05-23,40.5683
2007-05-24,39.4009
2007-05-25,39.2651
2007-05-29,40.0524
2007-05-30,38.8269
2007-05-31,38.963
2007-06-01,38.7905
2007-06-04,38.3003
2007-06-05,38.5364
2007-06-06,38.382
2007-06-07,37.2291
2007-06-08,38.0371
2007-06-11,37.565
2007-06-12,37.9554
2007-06-13,38.7088
2007-06-14,38.7179
2007-06-15,38.6271
2007-06-18,38.4456
2007-06-19,38.7542
2007-06-20,39.1264
2007-06-21,39.5713
2007-06-22,39.081
2007-06-25,38.5636
2007-06-26,38.9176
2007-06-27,39.4078
2007-06-28,39.4986
2007-06-29,39.3534
2007-07-02,39.9071
2007-07-03,39.7165
2007-07-05,39.5168
2007-07-06,39.5531
2007-07-09,39.6166
2007-07-10,39.2172
2007-07-11,39.8073
2007-07-12,41.0601
2007-07-13,41.1599
2007-07-16,40.9057
2007-07-17,40.8785
2007-07-18,40.9693
2007-07-19,39.3988
2007-07-20,38.9993
2007-07-23,38.727
2007-07-24,39.2081
2007-07-25,38.4456
2007-07-26,38.5182
2007-07-27,37.919
2007-07-30,38.6271
2007-07-31,37.8373
2007-08-01,37.4924
2007-08-02,38.1551
2007-08-03,36.9114
2007-08-06,37.8918
2007-08-07,36.8388
2007-08-08,36.3213
2007-08-09,34.8688
2007-08-10,34.4149
2007-08-13,35.3409
2007-08-14,34.3423
2007-08-15,32.681
2007-08-16,33.6251
2007-08-17,34.0427
2007-08-20,33.9156
2007-08-21,33.489
2007-08-22,33.8339
2007-08-23,34.3786
2007-08-24,34.6873
2007-08-27,35.0322
2007-08-28,34.3877
2007-08-29,35.3991
2007-08-30,35.5723
2007-08-31,36.3194
2007-09-04,36.4288
2007-09-05,35.4629
2007-09-06,35.4173
2007-09-07,34.4879
2007-09-10,33.5039
2007-09-11,34.6429
2007-09-12,34.4971
2007-09-13,35.6725
2007-09-14,35.9458
2007-09-17,35.5176
2007-09-18,36.2556
2007-09-19,36.4652
2007-09-20,37.0028
2007-09-21,37.2488
2007-09-24,37.914
2007-09-25,37.8502
2007-09-26,38.5245
2007-09-27,38.4333
2007-09-28,38.4424
2007-10-01,38.3604
2007-10-02,38.242
2007-10-03,38.5609
2007-10-04,39.0165
2007-10-05,39.4903
2007-10-08,38.9345
2007-10-09,38.8525
2007-10-10,38.5791
2007-10-11,37.7773
2007-10-12,38.3696
2007-10-15,37.5768
2007-10-16,37.2579
2007-10-17,37.6315
2007-10-18,37.75
2007-10-19,36.775
2007-10-22,37.2124
2007-10-23,37.4584
2007-10-24,37.4948
2007-10-25,37.1759
2007-10-26,37.6315
2007-10-29,37.9231
2007-10-30,38.0962
2007-10-31,38.9254
2007-11-01,37.6679
2007-11-02,37.6224
2007-11-05,37.2488
2007-11-06,37.8502
2007-11-07,37.6133
2007-11-08,36.4561
2007-11-09,34.6884
2007-11-12,34.0141
2007-11-13,35.6634
2007-11-14,36.5928
2007-11-15,37.2033
2007-11-16,37.6771
2007-11-19,38.0871
2007-11-20,37.6133
2007-11-21,36.9026
2007-11-23,36.6292
2007-11-26,35.6816
2007-11-27,36.283
2007-11-28,37.8046
2007-11-29,37.7135
2007-11-30,37.1212
2007-12-03,36.4379
2007-12-04,35.8092
2007-12-05,36.9337
2007-12-06,36.9429
2007-12-07,36.7325
2007-12-10,37.0526
2007-12-11,36.7874
2007-12-12,37.5098
2007-12-13,36.5131
2007-12-14,36.0193
2007-12-17,35.7815
2007-12-18,35.37
2007-12-19,35.0134
2007-12-20,35.7724
2007-12-21,36.5131
2007-12-24,36.8514
2007-12-26,36.8697
2007-12-27,36.3119
2007-12-28,36.1564
2007-12-31,35.9553
2008-01-02,35.1414
2008-01-03,34.6476
2008-01-04,33.9252
2008-01-07,33.3309
2008-01-08,32.9194
2008-01-09,34.5288
2008-01-10,34.7482
2008-01-11,35.3243
2008-01-14,36.5405
2008-01-15,36.0376
2008-01-16,36.5679
2008-01-17,35.7175
2008-01-18,35.0134
2008-01-22,33.7424
2008-01-23,33.5412
2008-01-24,36.8514
2008-01-25,36.5771
2008-01-28,37.0252
2008-01-29,36.8148
2008-01-30,36.8697
2008-01-31,38.4425
2008-02-01,38.5431
2008-02-04,38.2322
2008-02-05,37.272
2008-02-06,36.2662
2008-02-07,37.4092
2008-02-08,38.2048
2008-02-11,38.223
2008-02-12,37.4184
2008-02-13,38.3968
2008-02-14,37.3909
2008-02-15,38.5248
2008-02-19,38.3694
2008-02-20,39.5764
2008-02-21,38.7168
2008-02-22,39.5032
2008-02-25,40.0336
2008-02-26,39.8873
2008-02-27,40.1441
2008-02-28,39.7038
2008-02-29,38.9057
2008-03-03,37.7956
2008-03-04,37.869
2008-03-05,38.0525
2008-03-06,37.0893
2008-03-07,36.8966
2008-03-10,35.9793
2008-03-11,36.0802
2008-03-12,36.4379
2008-03-13,36.8416
2008-03-14,35.9884
2008-03-17,35.3646
2008-03-18,36.8141
2008-03-19,34.8234
2008-03-20,34.9793
2008-03-24,36.6031
2008-03-25,37.4287
2008-03-26,37.126
2008-03-27,36.5297
2008-03-28,36.7865
2008-03-31,37.5755
2008-04-01,38.8506
2008-04-02,38.4928
2008-04-03,38.447
2008-04-04,38.5846
2008-04-07,38.2635
2008-04-08,38.6213
2008-04-09,38.025
2008-04-10,39.0616
2008-04-11,38.0066
2008-04-14,37.9699
2008-04-15,37.7681
2008-04-16,38.7589
2008-04-17,38.5662
2008-04-18,39.0249
2008-04-21,39.1075
2008-04-22,38.1626
2008-04-23,38.3736
2008-04-24,39.5845
2008-04-25,39.6671
2008-04-28,39.7129
2008-04-29,40.1166
2008-04-30,39.5937
2008-05-01,40.667
2008-05-02,40.6487
2008-05-05,40.3276
2008-05-06,40.8688
2008-05-07,39.9148
2008-05-08,40.5111
2008-05-09,40.1166
2008-05-12,40.9239
2008-05-13,40.9147
2008-05-14,40.4744
2008-05-15,41.2633
2008-05-16,43.0613
2008-05-19,43.41
2008-05-20,42.2541
2008-05-21,42.355
2008-05-22,42.1256
2008-05-23,43.7494
2008-05-27,44.731
2008-05-28,44.4454
2008-05-29,45.3749
2008-05-30,44.657
2008-06-02,43.8931
2008-06-03,43.3409
2008-06-04,44.6478
2008-06-05,45.4394
2008-06-06,43.4421
2008-06-09,43.3777
2008-06-10,43.6446
2008-06-11,42.669
2008-06-12,45.1541
2008-06-13,46.01
2008-06-16,45.5682
2008-06-17,44.8963
2008-06-18,45.1817
2008-06-19,46.3229
2008-06-20,44.6478
2008-06-23,44.0496
2008-06-24,42.5033
2008-06-25,43.3225
2008-06-26,41.5646
2008-06-27,42.0063
2008-06-30,40.9019
2008-07-01,42.0984
2008-07-02,41.4725
2008-07-03,42.3377
2008-07-07,41.7302
2008-07-08,43.709
2008-07-09,42.8623
2008-07-10,44.3165
2008-07-11,44.5006
2008-07-14,44.068
2008-07-15,43.2397
2008-07-16,43.212
2008-07-17,41.8591
2008-07-18,41.583
2008-07-21,41.675
2008-07-22,40.6626
2008-07-23,40.7178
2008-07-24,48.495
2008-07-25,50.0965
2008-07-28,49.1945
2008-07-29,50.5291
2008-07-30,51.0077
2008-07-31,50.8052
2008-08-01,50.9617
2008-08-04,48.6975
2008-08-05,51.2286
2008-08-06,51.1458
2008-08-07,50.8328
2008-08-08,51.3206
2008-08-11,50.0137
2008-08-12,49.9124
2008-08-13,50.9801
2008-08-14,51.9005
2008-08-15,51.9097
2008-08-18,50.9341
2008-08-19,50.3358
2008-08-20,50.6027
2008-08-21,50.391
2008-08-22,50.9893
2008-08-25,49.6363
2008-08-26,49.2406
2008-08-27,49.8683
2008-08-28,49.7391
2008-08-29,48.6313
2008-09-02,47.2743
2008-09-03,45.5295
2008-09-04,44.8556
2008-09-05,44.0433
2008-09-08,42.834
2008-09-09,42.0123
2008-09-10,43.1847
2008-09-11,45.3634
2008-09-12,44.2925
2008-09-15,43.3971
2008-09-16,44.2833
2008-09-17,41.6708
2008-09-18,42.9909
2008-09-19,44.5602
2008-09-22,42.4278
2008-09-23,42.4185
2008-09-24,41.7169
2008-09-25,43.0278
2008-09-26,42.3078
2008-09-29,37.3135
2008-09-30,39.6122
2008-10-01,38.3382
2008-10-02,37.692
2008-10-03,37.5443
2008-10-06,37.0089
2008-10-07,36.1873
2008-10-08,37.729
2008-10-09,36.9074
2008-10-10,35.9657
2008-10-13,38.7536
2008-10-14,37.2951
2008-10-15,33.6117
2008-10-16,35.9657
2008-10-17,36.7689
2008-10-20,37.092
2008-10-21,33.704
2008-10-22,32.7163
2008-10-23,32.6609
2008-10-24,32.4578
2008-10-27,31.3777
2008-10-28,35.7903
2008-10-29,35.3011
2008-10-30,36.575
2008-10-31,35.3288
2008-11-03,34.221
2008-11-04,34.9964
2008-11-05,32.2362
2008-11-06,30.9161
2008-11-07,33.0486
2008-11-10,32.6517
2008-11-11,32.347
2008-11-12,30.1407
2008-11-13,32.1901
2008-11-14,30.3253
2008-11-17,29.2083
2008-11-18,29.116
2008-11-19,27.8605
2008-11-20,27.1312
2008-11-21,27.7682
2008-11-24,30.0207
2008-11-25,30.1684
2008-11-26,30.5469
2008-11-28,30.99
2008-12-01,27.7313
2008-12-02,28.239
2008-12-03,27.9067
2008-12-04,27.6944
2008-12-05,29.5222
2008-12-08,30.9254
2008-12-09,30.9809
2008-12-10,32.094
2008-12-11,30.2481
2008-12-12,31.4354
2008-12-15,31.3983
2008-12-16,33.439
2008-12-17,32.7247
2008-12-18,31.5374
2008-12-19,32.4557
2008-12-22,32.2609
2008-12-23,31.7044
2008-12-24,31.5745
2008-12-26,31.9177
2008-12-29,31.5653
2008-12-30,32.465
2008-12-31,33.3369
2009-01-02,34.2738
2009-01-05,33.7172
2009-01-06,34.4036
2009-01-07,32.901
2009-01-08,32.5763
2009-01-09,32.4557
2009-01-12,32.3815
2009-01-13,32.6505
2009-01-14,31.2963
2009-01-15,32.3815
2009-01-16,33.5132
2009-01-20,31.6766
2009-01-21,33.1514
2009-01-22,33.541
2009-01-23,34.0697
2009-01-26,33.8378
2009-01-27,33.1236
2009-01-28,33.9306
2009-01-29,32.4928
2009-01-30,32.0198
2009-02-02,32.734
2009-02-03,31.6673
2009-02-04,31.4076
2009-02-05,32.4279
2009-02-06,33.6059
2009-02-09,33.9491
2009-02-10,32.5299
2009-02-11,32.094
2009-02-12,33.003
2009-02-13,33.2071
2009-02-17,32.2609
2009-02-18,31.8528
2009-02-19,31.5189
2009-02-20,31.5745
2009-02-23,30.4615
2009-02-24,31.927
2009-02-25,31.6565
2009-02-26,31.4608
2009-02-27,31.3303
2009-03-02,30.6873
2009-03-03,31.321
2009-03-04,32.2622
2009-03-05,32.374
2009-03-06,31.4142
2009-03-09,30.7898
2009-03-10,32.7747
2009-03-11,32.8959
2009-03-12,34.2751
2009-03-13,34.1539
2009-03-16,33.455
2009-03-17,34.6479
2009-03-18,35.3002
2009-03-19,35.0299
2009-03-20,34.4894
2009-03-23,35.9711
2009-03-24,35.3747
2009-03-25,35.6636
2009-03-26,36.726
2009-03-27,36.288
2009-03-30,35.2815
2009-03-31,36.1668
2009-04-01,36.8937
2009-04-02,38.1331
2009-04-03,38.2636
2009-04-06,37.7883
2009-04-07,36.6887
2009-04-08,37.341
2009-04-09,38.6457
2009-04-13,38.1425
2009-04-14,38.1145
2009-04-15,38.1331
2009-04-16,38.7295
2009-04-17,38.0679
2009-04-20,37.0055
2009-04-21,37.574
2009-04-22,37.2758
2009-04-23,37.8163
2009-04-24,38.4313
2009-04-27,40.0528
2009-04-28,39.2607
2009-04-29,40.0528
2009-04-30,39.2794
2009-05-01,39.8199
2009-05-04,40.407
2009-05-05,40.5654
2009-05-06,40.6399
2009-05-07,39.4098
2009-05-08,38.888
2009-05-11,39.1489
2009-05-12,38.0213
2009-05-13,37.2851
2009-05-14,37.7045
2009-05-15,37.9654
2009-05-18,39.1396
2009-05-19,39.4191
2009-05-20,39.6055
2009-05-21,38.7575
2009-05-22,38.5711
2009-05-26,40.3417
2009-05-27,39.612
2009-05-28,40.1733
2009-05-29,40.613
2009-06-01,41.586
2009-06-02,41.0247
2009-06-03,40.4821
2009-06-04,42.3906
2009-06-05,42.4374
2009-06-08,42.5216
2009-06-09,43.111
2009-06-10,42.9987
2009-06-11,42.9894
2009-06-12,42.9987
2009-06-15,41.3989
2009-06-16,40.6972
2009-06-17,42.2877
2009-06-18,42.4093
2009-06-19,42.9707
2009-06-22,41.6235
2009-06-23,41.7451
2009-06-24,42.3719
2009-06-25,43.4478
2009-06-26,43.2326
2009-06-29,43.1204
2009-06-30,42.2316
2009-07-01,42.1754
2009-07-02,41.8948
2009-07-06,42.2971
2009-07-07,40.8189
2009-07-08,40.8282
2009-07-09,40.2575
2009-07-10,40.6411
2009-07-13,41.3428
2009-07-14,41.6889
2009-07-15,43.0642
2009-07-16,43.6536
2009-07-17,44.2618
2009-07-20,43.9437
2009-07-21,44.8792
2009-07-22,45.3096
2009-07-23,44.2524
2009-07-24,44.3179
2009-07-27,43.5227
2009-07-28,43.401
2009-07-29,43.2888
2009-07-30,43.4478
2009-07-31,43.2701
2009-08-03,43.9062
2009-08-04,43.2607
2009-08-05,42.8958
2009-08-06,42.6245
2009-08-07,43.0736
2009-08-10,42.7836
2009-08-11,42.531
2009-08-12,43.4291
2009-08-13,43.5881
2009-08-14,43.0923
2009-08-17,42.1193
2009-08-18,42.2035
2009-08-19,42.7274
2009-08-20,44.0934
2009-08-21,44.243
2009-08-24,44.2992
2009-08-25,44.1214
2009-08-26,44.629
2009-08-27,44.3943
2009-08-28,44.3568
2009-08-31,43.6337
2009-09-01,42.6103
2009-09-02,42.6291
2009-09-03,42.3849
2009-09-04,42.8638
2009-09-08,43.2018
2009-09-09,43.3521
2009-09-10,43.8497
2009-09-11,43.7464
2009-09-14,43.3708
2009-09-15,42.9859
2009-09-16,42.8732
2009-09-17,42.2722
2009-09-18,41.7089
2009-09-21,42.122
2009-09-22,41.8122
2009-09-23,41.5117
2009-09-24,41.9906
2009-09-25,41.9718
2009-09-28,43.2018
2009-09-29,42.7042
2009-09-30,42.2065
2009-10-01,40.1877
2009-10-02,38.9389
2009-10-05,39.3896
2009-10-06,40.0469
2009-10-07,39.568
2009-10-08,38.892
2009-10-09,39.1924
2009-10-12,38.9765
2009-10-13,38.723
2009-10-14,39.6619
2009-10-15,39.8215
2009-10-16,39.3051
2009-10-19,39.5023
2009-10-20,38.7417
2009-10-21,38.8169
2009-10-22,38.5539
2009-10-23,38.2159
2009-10-26,38.1971
2009-10-27,38.4976
2009-10-28,39.183
2009-10-29,39.7276
2009-10-30,38.8826
2009-11-02,39.2582
2009-11-03,39.5774
2009-11-04,39.0985
2009-11-05,41.1267
2009-11-06,41.2488
2009-11-09,41.9906
2009-11-10,41.6244
2009-11-11,41.953
2009-11-12,42.1032
2009-11-13,42.9765
2009-11-16,42.7136
2009-11-17,43.1267
2009-11-18,42.7136
2009-11-19,42.3286
2009-11-20,42.4037
2009-11-23,42.8657
2009-11-24,42.9034
2009-11-25,42.8186
2009-11-27,42.4039
2009-11-30,42.4039
2009-12-01,42.385
2009-12-02,42.4133
2009-12-03,42.0457
2009-12-04,42.6018
2009-12-07,42.2814
2009-12-08,42.0175
2009-12-09,42.1777
2009-12-10,42.9411
2009-12-11,42.2814
2009-12-14,42.0269
2009-12-15,42.2814
2009-12-16,42.1588
2009-12-17,41.8101
2009-12-18,41.9892
2009-12-21,42.7998
2009-12-22,43.2145
2009-12-23,43.3276
2009-12-24,43.403
2009-12-28,43.5915
2009-12-29,44.025
2009-12-30,44.157
2009-12-31,43.648
2010-01-04,44.2324
2010-01-05,45.3163
2010-01-06,44.845
2010-01-07,46.1928
2010-01-08,46.6358
2010-01-11,46.4661
2010-01-12,45.6839
2010-01-13,45.9101
2010-01-14,45.5519
2010-01-15,45.8064
2010-01-19,46.5227
2010-01-20,45.5613
2010-01-21,45.3163
2010-01-22,44.0439
2010-01-25,44.2889
2010-01-26,44.2229
2010-01-27,44.4209
2010-01-28,37.9458
2010-01-29,37.0127
2010-02-01,37.4839
2010-02-02,36.9373
2010-02-03,37.2954
2010-02-04,35.9853
2010-02-05,35.9005
2010-02-08,35.3539
2010-02-09,35.7214
2010-02-10,35.2408
2010-02-11,35.8817
2010-02-12,36.6734
2010-02-16,36.7299
2010-02-17,37.1446
2010-02-18,37.5405
2010-02-19,37.3049
2010-02-22,36.7205
2010-02-23,36.3058
2010-02-24,35.8608
2010-02-25,35.1318
2010-02-26,34.7342
2010-03-01,33.636
2010-03-02,35.9554
2010-03-03,36.6371
2010-03-04,37.1483
2010-03-05,36.7033
2010-03-08,36.7128
2010-03-09,36.5992
2010-03-10,36.8169
2010-03-11,36.9968
2010-03-12,36.8359
2010-03-15,36.7696
2010-03-16,36.9116
2010-03-17,36.8075
2010-03-18,38.3127
2010-03-19,37.8488
2010-03-22,38.1328
2010-03-23,38.379
2010-03-24,38.0476
2010-03-25,39.9316
2010-03-26,39.657
2010-03-29,39.4582
2010-03-30,39.8937
2010-03-31,39.7233
2010-04-01,40.0168
2010-04-05,40.2913
2010-04-06,40.1398
2010-04-07,40.4901
2010-04-08,40.1398
2010-04-09,39.9505
2010-04-12,39.9978
2010-04-13,40.0262
2010-04-14,40.3292
2010-04-15,40.4428
2010-04-16,40.5658
2010-04-19,40.5185
2010-04-20,41.0013
2010-04-21,40.3197
2010-04-22,37.1577
2010-04-23,36.1448
2010-04-26,36.0596
2010-04-27,35.946
2010-04-28,36.7317
2010-04-29,36.8927
2010-04-30,36.6181
2010-05-03,36.4856
2010-05-04,35.5673
2010-05-05,35.5957
2010-05-06,34.8573
2010-05-07,34.7153
2010-05-10,35.378
2010-05-11,35.52
2010-05-12,36.1732
2010-05-13,35.9554
2010-05-14,35.2549
2010-05-17,35.3685
2010-05-18,34.7342
2010-05-19,34.5354
2010-05-20,33.7307
2010-05-21,33.9579
2010-05-24,33.7307
2010-05-25,33.6739
2010-05-26,33.2169
2010-05-27,33.8165
2010-05-28,33.8831
2010-06-01,33.312
2010-06-02,34.2829
2010-06-03,34.7016
2010-06-04,33.5881
2010-06-07,33.293
2010-06-08,33.5595
2010-06-09,33.1027
2010-06-10,33.3596
2010-06-11,33.6356
2010-06-14,33.0551
2010-06-15,33.845
2010-06-16,33.3406
2010-06-17,34.0259
2010-06-18,33.9593
2010-06-21,33.8831
2010-06-22,33.8546
2010-06-23,33.6356
2010-06-24,33.0646
2010-06-25,32.9599
2010-06-28,32.3983
2010-06-29,31.5227
2010-06-30,31.2753
2010-07-01,30.3806
2010-07-02,30.866
2010-07-06,31.0373
2010-07-07,31.7797
2010-07-08,32.3222
2010-07-09,32.2556
2010-07-12,33.4072
2010-07-13,34.2448
2010-07-14,35.1299
2010-07-15,35.1394
2010-07-16,34.2733
2010-07-19,35.0157
2010-07-20,34.8634
2010-07-21,34.2924
2010-07-22,37.2714
2010-07-23,37.1382
2010-07-26,37.3285
2010-07-27,37.3095
2010-07-28,36.8622
2010-07-29,36.9097
2010-07-30,36.3101
2010-08-02,36.8336
2010-08-03,36.5576
2010-08-04,36.5671
2010-08-05,36.6147
2010-08-06,36.767
2010-08-09,37.8615
2010-08-10,37.8806
2010-08-11,37.4903
2010-08-12,36.4053
2010-08-13,36.1293
2010-08-16,36.786
2010-08-17,37.1762
2010-08-18,37.1953
2010-08-19,36.2721
2010-08-20,37.1096
2010-08-23,36.6052
2010-08-24,36.234
2010-08-25,36.8463
2010-08-26,36.6359
2010-08-27,36.9994
2010-08-30,36.6933
2010-08-31,36.6359
2010-09-01,37.9177
2010-09-02,38.2716
2010-09-03,38.5968
2010-09-07,38.8934
2010-09-08,39.0464
2010-09-09,39.1516
2010-09-10,38.6255
2010-09-13,39.2568
2010-09-14,39.3429
2010-09-15,40.1273
2010-09-16,40.156
2010-09-17,40.7012
2010-09-20,41.1412
2010-09-21,41.6291
2010-09-22,41.3804
2010-09-23,41.7343
2010-09-24,42.5665
2010-09-27,42.6622
2010-09-28,42.1935
2010-09-29,42.3752
2010-09-30,43.1787
2010-10-01,42.3656
2010-10-04,41.9926
2010-10-05,42.3178
2010-10-06,42.6909
2010-10-07,42.5952
2010-10-08,42.8056
2010-10-11,42.1839
2010-10-12,42.8343
2010-10-13,43.3891
2010-10-14,43.0735
2010-10-15,42.863
2010-10-18,42.5569
2010-10-19,42.2795
2010-10-20,42.4422
2010-10-21,42.0404
2010-10-22,42.27
2010-10-25,42.423
2010-10-26,41.9926
2010-10-27,42.5187
2010-10-28,42.5282
2010-10-29,43.15
2010-11-01,43.3413
2010-11-02,43.4178
2010-11-03,43.7335
2010-11-04,46.3066
2010-11-05,46.2397
2010-11-08,45.7136
2010-11-09,45.771
2010-11-10,45.6083
2010-11-11,45.8283
2010-11-12,45.417
2010-11-15,44.8718
2010-11-16,44.4222
2010-11-17,45.924
2010-11-18,45.704
2010-11-19,45.8857
2010-11-22,45.7417
2010-11-23,45.2327
2010-11-24,46.1451
2010-11-26,45.6937
2010-11-29,45.4536
2010-11-30,45.0311
2010-12-01,46.0202
2010-12-02,46.5484
2010-12-03,46.8654
2010-12-06,46.4044
2010-12-07,46.5292
2010-12-08,46.9134
2010-12-09,47.0766
2010-12-10,47.528
2010-12-13,47.1535
2010-12-14,47.1823
2010-12-15,47.1343
2010-12-16,47.6721
2010-12-17,47.48
2010-12-20,47.48
2010-12-21,47.9698
2010-12-22,48.0178
2010-12-23,47.4032
2010-12-27,47.6817
2010-12-28,47.8929
2010-12-29,48.037
2010-12-30,47.7681
2010-12-31,47.5088
2011-01-03,48.2002
2011-01-04,49.0069
2011-01-05,49.9289
2011-01-06,50.6107
2011-01-07,49.7176
2011-01-10,49.6504
2011-01-11,49.9769
2011-01-12,50.1882
2011-01-13,49.756
2011-01-14,49.9769
2011-01-18,50.9181
2011-01-19,50.0057
2011-01-20,49.2951
2011-01-21,49.199
2011-01-24,49.3911
2011-01-25,49.4487
2011-01-26,49.8329
2011-01-27,52.6659
2011-01-28,51.6191
2011-01-31,51.9744
2011-02-01,52.858
2011-02-02,51.8592
2011-02-03,52.8772
2011-02-04,53.0596
2011-02-07,52.8676
2011-02-08,53.8375
2011-02-09,53.9144
2011-02-10,54.6346
2011-02-11,55.2397
2011-02-14,55.8543
2011-02-15,56.2864
2011-02-16,56.2096
2011-02-17,56.6034
2011-02-18,56.8146
2011-02-22,55.9215
2011-02-23,54.9869
2011-02-24,55.7769
2011-02-25,56.8753
2011-02-28,57.4438
2011-03-01,55.9793
2011-03-02,55.0061
2011-03-03,56.7115
2011-03-04,55.9889
2011-03-07,55.5264
2011-03-08,55.1025
2011-03-09,52.9346
2011-03-10,52.0482
2011-03-11,51.6146
2011-03-14,51.4701
2011-03-15,51.1425
2011-03-16,48.7145
2011-03-17,50.3428
2011-03-18,49.784
2011-03-21,51.7206
2011-03-22,50.574
2011-03-23,50.4873
2011-03-24,51.7591
2011-03-25,50.8438
2011-03-28,50.2464
2011-03-29,51.9326
2011-03-30,52.5588
2011-03-31,52.8672
2011-04-01,52.501
2011-04-04,51.104
2011-04-05,50.6126
2011-04-06,51.6339
2011-04-07,51.2099
2011-04-08,51.6628
2011-04-11,51.4508
2011-04-12,50.3139
2011-04-13,50.7089
2011-04-14,50.7089
2011-04-15,51.1618
2011-04-18,51.3063
2011-04-19,51.4412
2011-04-20,53.2237
2011-04-21,54.8423
2011-04-25,54.7556
2011-04-26,55.1314
2011-04-27,56.0467
2011-04-28,55.5168
2011-04-29,55.035
2011-05-02,55.141
2011-05-03,54.4377
2011-05-04,54.0234
2011-05-05,54.1004
2011-05-06,54.5533
2011-05-09,54.6207
2011-05-10,54.7845
2011-05-11,54.5436
2011-05-12,55.2374
2011-05-13,55.0061
2011-05-16,54.64
2011-05-17,54.2642
2011-05-18,54.3799
2011-05-19,55.1892
2011-05-20,55.353
2011-05-23,54.3606
2011-05-24,54.2546
2011-05-25,55.1783
2011-05-26,55.275
2011-05-27,55.4974
2011-05-31,56.571
2011-06-01,55.333
2011-06-02,55.8843
2011-06-03,55.2363
2011-06-06,54.627
2011-06-07,54.6656
2011-06-08,54.4625
2011-06-09,54.0757
2011-06-10,52.799
2011-06-13,52.5668
2011-06-14,53.7758
2011-06-15,52.3347
2011-06-16,51.2708
2011-06-17,50.971
2011-06-20,51.7447
2011-06-21,52.6345
2011-06-22,52.2187
2011-06-23,53.1472
2011-06-24,52.4411
2011-06-27,52.8957
2011-06-28,53.6114
2011-06-29,53.6211
2011-06-30,54.9268
2011-07-01,55.923
2011-07-05,56.2422
2011-07-06,56.7354
2011-07-07,57.2867
2011-07-08,57.3835
2011-07-11,56.3099
2011-07-12,54.743
2011-07-13,54.2594
2011-07-14,53.1181
2011-07-15,53.1858
2011-07-18,53.4663
2011-07-19,55.0525
2011-07-20,55.3427
2011-07-21,55.0912
2011-07-22,55.5264
2011-07-25,54.9171
2011-07-26,54.6076
2011-07-27,52.8763
2011-07-28,53.1762
2011-07-29,53.0891
2011-08-01,52.3347
2011-08-02,51.2611
2011-08-03,52.0349
2011-08-04,49.6266
2011-08-05,49.4718
2011-08-08,46.1544
2011-08-09,48.0404
2011-08-10,45.6998
2011-08-11,47.9437
2011-08-12,48.8335
2011-08-15,49.5395
2011-08-16,49.4041
2011-08-17,49.2494
2011-08-18,46.5219
2011-08-19,44.9744
2011-08-22,44.8196
2011-08-23,46.4542
2011-08-24,46.5367
2011-08-25,45.6331
2011-08-26,47.5082
2011-08-29,49.4707
2011-08-30,49.8107
2011-08-31,49.8982
2011-09-01,49.6456
2011-09-02,48.3049
2011-09-06,48.13
2011-09-07,50.1508
2011-09-08,50.1216
2011-09-09,49.0918
2011-09-12,49.869
2011-09-13,50.8406
2011-09-14,51.6372
2011-09-15,52.0064
2011-09-16,52.2299
2011-09-19,52.1522
2011-09-20,51.6372
2011-09-21,50.2965
2011-09-22,48.5575
2011-09-23,48.8489
2011-09-26,49.1015
2011-09-27,50.2674
2011-09-28,49.6844
2011-09-29,48.6546
2011-09-30,47.3139
2011-10-03,46.3715
2011-10-04,48.1106
2011-10-05,49.2764
2011-10-06,49.393
2011-10-07,48.7712
2011-10-10,50.5394
2011-10-11,50.1994
2011-10-12,50.6268
2011-10-13,51.7733
2011-10-14,53.3569
2011-10-17,51.9773
2011-10-18,52.9974
2011-10-19,51.1029
2011-10-20,50.5783
2011-10-21,50.5005
2011-10-24,52.0744
2011-10-25,50.7434
2011-10-26,50.1896
2011-10-27,51.8801
2011-10-28,51.6955
2011-10-31,50.2188
2011-11-01,48.7226
2011-11-02,50.7823
2011-11-03,54.6004
2011-11-04,54.8336
2011-11-07,55.2902
2011-11-08,55.4262
2011-11-09,53.8815
2011-11-10,53.6386
2011-11-11,55.0668
2011-11-14,55.4651
2011-11-15,55.7663
2011-11-16,55.1833
2011-11-17,54.6684
2011-11-18,54.0952
2011-11-21,52.998
2011-11-22,53.1248
2011-11-23,50.8329
2011-11-25,50.8036
2011-11-28,52.5787
2011-11-29,51.8764
2011-11-30,53.4174
2011-12-01,53.3492
2011-12-02,53.1053
2011-12-05,53.0858
2011-12-06,53.5247
2011-12-07,53.1053
2011-12-08,52.6567
2011-12-09,53.8856
2011-12-12,53.4857
2011-12-13,52.9103
2011-12-14,51.8862
2011-12-15,51.2523
2011-12-16,51.2718
2011-12-19,50.6671
2011-12-20,52.7737
2011-12-21,52.1105
2011-12-22,53.0176
2011-12-23,53.2614
2011-12-27,53.5247
2011-12-28,52.9298
2011-12-29,53.515
2011-12-30,53.3784
2012-01-03,53.8661
2012-01-04,54.3927
2012-01-05,54.7048
2012-01-06,54.7633
2012-01-09,54.578
2012-01-10,54.3732
2012-01-11,54.2659
2012-01-12,54.9779
2012-01-13,55.1145
2012-01-17,55.7191
2012-01-18,56.1483
2012-01-19,56.5579
2012-01-20,56.2848
2012-01-23,56.7042
2012-01-24,57.1919
2012-01-25,57.543
2012-01-26,56.3531
2012-01-27,56.4116
2012-01-30,57.1431
2012-01-31,57.4162
2012-02-01,58.0891
2012-02-02,59.2693
2012-02-03,59.5716
2012-02-06,59.5326
2012-02-07,60.0495
2012-02-08,59.9617
2012-02-09,60.4396
2012-02-10,60.1568
2012-02-13,60.2055
2012-02-14,60.108
2012-02-15,60.0105
2012-02-16,60.7225
2012-02-17,61.015
2012-02-21,61.1906
2012-02-22,60.9858
2012-02-23,61.9026
2012-02-24,61.8831
2012-02-27,61.805
2012-02-28,61.1223
2012-02-29,60.9021
2012-03-01,61.2838
2012-03-02,61.0978
2012-03-05,60.7455
2012-03-06,60.266
2012-03-07,61.4012
2012-03-08,61.9591
2012-03-09,62.5071
2012-03-12,62.4777
2012-03-13,63.3879
2012-03-14,63.7109
2012-03-15,63.8577
2012-03-16,63.9457
2012-03-19,65.2865
2012-03-20,65.355
2012-03-21,65.0321
2012-03-22,64.8657
2012-03-23,65.3061
2012-03-26,67.1166
2012-03-27,67.0383
2012-03-28,66.6468
2012-03-29,66.4903
2012-03-30,66.6175
2012-04-02,66.7936
2012-04-03,66.6664
2012-04-04,66.0596
2012-04-05,65.7954
2012-04-09,65.0908
2012-04-10,64.8363
2012-04-11,64.7874
2012-04-12,66.8719
2012-04-13,65.218
2012-04-16,64.8363
2012-04-17,65.9031
2012-04-18,65.6095
2012-04-19,61.2348
2012-04-20,60.9119
2012-04-23,60.3149
2012-04-24,60.5596
2012-04-25,61.8905
2012-04-26,62.5267
2012-04-27,62.8007
2012-04-30,62.4386
2012-05-01,62.282
2012-05-02,62.8692
2012-05-03,62.2233
2012-05-04,60.5889
2012-05-07,60.6672
2012-05-08,61.4012
2012-05-09,60.6868
2012-05-10,61.0489
2012-05-11,60.5889
2012-05-14,60.1485
2012-05-15,60.1681
2012-05-16,57.8683
2012-05-17,55.9109
2012-05-18,54.717
2012-05-21,56.0577
2012-05-22,56.6351
2012-05-23,56.8896
2012-05-24,55.8326
2012-05-25,56.1067
2012-05-29,57.1636
2012-05-30,56.515
2012-05-31,56.2693
2012-06-01,54.1954
2012-06-04,54.9228
2012-06-05,56.2398
2012-06-06,57.3701
2012-06-07,57.0458
2012-06-08,57.7141
2012-06-11,56.6919
2012-06-12,58.3825
2012-06-13,57.891
2012-06-14,55.7582
2012-06-15,55.5518
2012-06-18,55.8172
2012-06-19,56.0432
2012-06-20,56.0236
2012-06-21,54.1168
2012-06-22,54.6869
2012-06-25,52.6032
2012-06-26,53.0553
2012-06-27,53.989
2012-06-28,53.3895
2012-06-29,54.6476
2012-07-02,54.7164
2012-07-03,55.2963
2012-07-05,55.2963
2012-07-06,54.3822
2012-07-09,54.3724
2012-07-10,54.2446
2012-07-11,53.4878
2012-07-12,52.7801
2012-07-13,54.0578
2012-07-16,53.3698
2012-07-17,53.5369
2012-07-18,55.0407
2012-07-19,57.4782
2012-07-20,56.6919
2012-07-23,56.3479
2012-07-24,55.827
2012-07-25,56.2595
2012-07-26,57.2817
2012-07-27,58.2547
2012-07-30,58.1073
2012-07-31,58.7167
2012-08-01,58.4414
2012-08-02,57.9304
2012-08-03,59.2671
2012-08-06,59.0803
2012-08-07,60.2794
2012-08-08,60.3286
2012-08-09,60.8691
2012-08-10,60.9281
2012-08-13,60.9674
2012-08-14,61.2525
2012-08-15,61.4687
2012-08-16,61.4883
2012-08-17,62.196
2012-08-20,61.6751
2012-08-21,60.9183
2012-08-22,61.1247
2012-08-23,60.9576
2012-08-24,61.3114
2012-08-27,61.2525
2012-08-28,60.9379
2012-08-29,61.0657
2012-08-30,60.1615
2012-08-31,60.5644
2012-09-04,59.788
2012-09-05,59.8966
2012-09-06,61.7619
2012-09-07,61.1007
2012-09-10,60.4888
2012-09-11,61.0809
2012-09-12,61.6533
2012-09-13,63.0252
2012-09-14,64.022
2012-09-17,63.9134
2012-09-18,64.17
2012-09-19,64.2588
2012-09-20,63.3509
2012-09-21,63.4199
2012-09-24,62.8377
2012-09-25,61.9494
2012-09-26,61.4658
2012-09-27,62.6699
2012-09-28,61.6928
2012-10-01,61.0513
2012-10-02,60.9428
2012-10-03,61.2586
2012-10-04,61.7915
2012-10-05,61.7915
2012-10-08,60.6171
2012-10-09,59.5907
2012-10-10,58.9393
2012-10-11,58.4853
2012-10-12,58.1497
2012-10-15,58.5741
2012-10-16,59.6301
2012-10-17,60.1433
2012-10-18,59.1564
2012-10-19,57.9524
2012-10-22,57.9228
2012-10-23,57.6168
2012-10-24,56.8569
2012-10-25,56.6891
2012-10-26,58.1794
2012-10-31,57.8339
2012-11-01,58.959
2012-11-02,58.5544
2012-11-05,59.5907
2012-11-06,59.5314
2012-11-07,57.4786
2012-11-08,59.9558
2012-11-09,60.8243
2012-11-12,60.8342
2012-11-13,61.2882
2012-11-14,60.9131
2012-11-15,60.6072
2012-11-16,61.1697
2012-11-19,61.2882
2012-11-20,61.298
2012-11-21,61.3573
2012-11-23,62.2652
2012-11-26,61.6632
2012-11-27,61.3869
2012-11-28,61.8606
2012-11-29,62.512
2012-11-30,62.8969
2012-12-03,62.4922
2012-12-04,62.6699
2012-12-05,62.9375
2012-12-06,63.5618
2012-12-07,63.2249
2012-12-10,63.3041
2012-12-11,63.7896
2012-12-12,62.8484
2012-12-13,62.1647
2012-12-14,59.2219
2012-12-17,61.4612
2012-12-18,62.7988
2012-12-19,62.026
2012-12-20,62.2737
2012-12-21,61.0946
2012-12-24,61.4315
2012-12-26,60.9856
2012-12-27,61.0748
2012-12-28,60.1434
2012-12-31,61.2432
2013-01-02,64.0776
2013-01-03,63.7903
2013-01-04,62.9481
2013-01-07,63.394
2013-01-08,63.295
2013-01-09,64.3155
2013-01-10,64.1074
2013-01-11,64.3056
2013-01-14,63.5228
2013-01-15,63.8398
2013-01-16,64.1569
2013-01-17,64.583
2013-01-18,63.9984
2013-01-22,63.9686
2013-01-23,64.4245
2013-01-24,63.8398
2013-01-25,62.9977
2013-01-28,63.1406
2013-01-29,62.8979
2013-01-30,62.8285
2013-01-31,65.4245
2013-02-01,66.0983
2013-02-04,65.0777
2013-02-05,66.2964
2013-02-06,66.564
2013-02-07,65.8753
2013-02-08,66.2568
2013-02-11,66.5937
2013-02-12,65.2462
2013-02-13,64.8102
2013-02-14,64.8994
2013-02-15,64.8003
2013-02-19,65.0091
2013-02-20,64.7416
2013-02-21,64.2065
2013-02-22,64.3155
2013-02-25,64.3049
2013-02-26,64.721
2013-02-27,65.0876
2013-02-28,65.1074
2013-03-01,65.6029
2013-03-04,65.9999
2013-03-05,67.2384
2013-03-06,66.2137
2013-03-07,66.4325
2013-03-08,66.2734
2013-03-11,66.333
2013-03-12,66.6214
2013-03-13,66.4226
2013-03-14,66.154
2013-03-15,64.6424
2013-03-18,64.165
2013-03-19,64.3639
2013-03-20,65.3385
2013-03-21,65.0303
2013-03-22,65.438
2013-03-25,65.3684
2013-03-26,66.2634
2013-03-27,66.2833
2013-03-28,66.5916
2013-04-01,65.5772
2013-04-02,65.8457
2013-04-03,65.6568
2013-04-04,65.4678
2013-04-05,64.8214
2013-04-08,65.438
2013-04-09,65.5971
2013-04-10,66.88
2013-04-11,66.6712
2013-04-12,66.3529
2013-04-15,65.2689
2013-04-16,65.4479
2013-04-17,63.9661
2013-04-18,63.2799
2013-04-19,63.6578
2013-04-22,64.1551
2013-04-23,64.9805
2013-04-24,65.7363
2013-04-25,62.0567
2013-04-26,61.2412
2013-04-29,61.2611
2013-04-30,61.2412
2013-05-01,61.5793
2013-05-02,62.5838
2013-05-03,63.4092
2013-05-06,63.5286
2013-05-07,63.5584
2013-05-08,63.7772
2013-05-09,63.6777
2013-05-10,64.1949
2013-05-13,64.4932
2013-05-14,64.9109
2013-05-15,65.1993
2013-05-16,65.1794
2013-05-17,66.164
2013-05-20,65.7363
2013-05-21,65.4181
2013-05-22,64.8015
2013-05-23,63.5485
2013-05-24,63.817
2013-05-28,63.7772
2013-05-29,63.817
2013-05-30,63.807
2013-05-31,63.2302
2013-06-03,63.13
2013-06-04,63.76
2013-06-05,63.16
2013-06-06,62.87
2013-06-07,62.01
2013-06-10,61.99
2013-06-11,61.67
2013-06-12,61.13
2013-06-13,62.0
2013-06-14,61.39
2013-06-17,62.06
2013-06-18,62.33
2013-06-19,61.99
2013-06-20,60.93
2013-06-21,60.65
2013-06-24,59.97
2013-06-25,61.84
2013-06-26,61.36
2013-06-27,61.08
2013-06-28,61.25
2013-07-01,60.94
2013-07-02,60.94
2013-07-03,60.91
2013-07-05,60.91
2013-07-08,59.95
2013-07-09,59.42
2013-07-10,60.45
2013-07-11,61.33
2013-07-12,61.92
2013-07-15,61.28
2013-07-16,61.85
2013-07-17,62.63
2013-07-18,61.13
2013-07-19,61.43
2013-07-22,62.19
2013-07-23,62.31
2013-07-24,61.33
2013-07-25,63.48
2013-07-26,64.56
2013-07-29,64.21
2013-07-30,64.57
2013-07-31,64.47
2013-08-01,65.27
2013-08-02,66.7
2013-08-05,66.2
2013-08-06,65.53
2013-08-07,65.22
2013-08-08,66.35
2013-08-09,66.25
