date,close_price
1998-01-02,20.3678
1998-01-05,20.8176
1998-01-06,20.1907
1998-01-07,19.7409
1998-01-08,19.3532
1998-01-09,19.023
1998-01-12,18.7837
1998-01-13,18.3052
1998-01-14,18.8459
1998-01-15,18.7837
1998-01-16,19.2049
1998-01-20,19.0852
1998-01-21,19.0517
1998-01-22,18.9656
1998-01-23,18.487
1998-01-26,18.5444
1998-01-27,18.6641
1998-01-28,19.023
1998-01-29,18.8459
1998-01-30,18.8459
1998-02-02,19.3819
1998-02-03,19.5638
1998-02-04,19.6834
1998-02-05,19.7121
1998-02-06,19.4441
1998-02-09,18.755
1998-02-10,18.9656
1998-02-11,18.7837
1998-02-12,18.3674
1998-02-13,18.2477
1998-02-17,18.1568
1998-02-18,18.487
1998-02-19,18.4535
1998-02-20,18.6928
1998-02-23,18.6928
1998-02-24,18.9656
1998-02-25,19.0852
1998-02-26,19.023
1998-02-27,19.1427
1998-03-02,19.1139
1998-03-03,19.6212
1998-03-04,19.5159
1998-03-05,19.5016
1998-03-06,19.7121
1998-03-09,19.5016
1998-03-10,19.7409
1998-03-11,19.6212
1998-03-12,19.5638
1998-03-13,19.4872
1998-03-16,19.8605
1998-03-17,19.9227
1998-03-18,19.9709
1998-03-19,19.9709
1998-03-20,19.9997
1998-03-23,19.9131
1998-03-24,19.8794
1998-03-25,20.1537
1998-03-26,20.2115
1998-03-27,19.942
1998-03-30,19.942
1998-03-31,20.1537
1998-04-01,20.1826
1998-04-02,20.2403
1998-04-03,20.1537
1998-04-06,20.1826
1998-04-07,19.9997
1998-04-08,19.7302
1998-04-09,19.8361
1998-04-13,20.1537
1998-04-14,20.3318
1998-04-15,20.813
1998-04-16,20.481
1998-04-17,20.6927
1998-04-20,20.5146
1998-04-21,20.6927
1998-04-22,21.7177
1998-04-23,21.7755
1998-04-24,21.6551
1998-04-27,20.813
1998-04-28,20.9044
1998-04-29,21.4145
1998-04-30,20.9622
1998-05-01,21.0536
1998-05-04,20.813
1998-05-05,20.5146
1998-05-06,20.7841
1998-05-07,20.5146
1998-05-08,20.9333
1998-05-11,20.6927
1998-05-12,20.813
1998-05-13,20.7553
1998-05-14,20.7841
1998-05-15,20.4521
1998-05-18,20.3943
1998-05-19,20.4521
1998-05-20,20.6927
1998-05-21,20.4521
1998-05-22,20.3029
1998-05-26,19.942
1998-05-27,19.7928
1998-05-28,19.7591
1998-05-29,19.7302
1998-06-01,19.4896
1998-06-02,19.5955
1998-06-03,19.6388
1998-06-04,19.5185
1998-06-05,19.6388
1998-06-08,19.7014
1998-06-09,19.6099
1998-06-10,19.4319
1998-06-11,19.249
1998-06-12,19.1287
1998-06-15,18.877
1998-06-16,18.6979
1998-06-17,19.361
1998-06-18,19.303
1998-06-19,19.24
1998-06-22,19.211
1998-06-23,19.1481
1998-06-24,19.182
1998-06-25,19.361
1998-06-26,19.424
1998-06-29,19.7241
1998-06-30,19.8741
1998-07-01,20.1161
1998-07-02,20.2081
1998-07-06,20.058
1998-07-07,19.937
1998-07-08,20.0871
1998-07-09,20.179
1998-07-10,20.3291
1998-07-13,20.0871
1998-07-14,20.2081
1998-07-15,20.2371
1998-07-16,20.4211
1998-07-17,20.3581
1998-07-20,20.634
1998-07-21,20.271
1998-07-22,19.937
1998-07-23,19.816
1998-07-24,19.482
1998-07-27,19.453
1998-07-28,19.545
1998-07-29,19.6031
1998-07-30,20.1016
1998-07-31,19.6031
1998-08-03,19.545
1998-08-04,18.848
1998-08-05,18.301
1998-08-06,18.606
1998-08-07,18.606
1998-08-10,18.393
1998-08-11,18.272
1998-08-12,18.151
1998-08-13,18.151
1998-08-14,18.2429
1998-08-17,18.1219
1998-08-18,18.7851
1998-08-19,18.4559
1998-08-20,18.0445
1998-08-21,17.6379
1998-08-24,17.7299
1998-08-25,17.7299
1998-08-26,19.211
1998-08-27,16.6989
1998-08-28,17.0329
1998-08-31,16.6069
1998-09-01,16.4569
1998-09-02,16.4859
1998-09-03,16.3649
1998-09-04,16.4278
1998-09-08,17.3669
1998-09-09,16.5198
1998-09-10,16.3649
1998-09-11,17.0329
1998-09-14,17.212
1998-09-15,17.022
1998-09-16,17.6602
1998-09-17,16.9294
1998-09-18,16.8709
1998-09-21,17.2022
1998-09-22,17.2363
1998-09-23,17.7235
1998-09-24,16.9586
1998-09-25,17.4458
1998-09-28,17.5384
1998-09-29,17.5384
1998-09-30,17.6309
1998-10-01,16.9148
1998-10-02,17.0512
1998-10-05,17.022
1998-10-06,16.7784
1998-10-07,16.0768
1998-10-08,14.7371
1998-10-09,14.9222
1998-10-12,15.6189
1998-10-13,15.7748
1998-10-14,16.2912
1998-10-15,17.4458
1998-10-16,17.6602
1998-10-19,17.6894
1998-10-20,17.7819
1998-10-21,18.0255
1998-10-22,17.9963
1998-10-23,17.8453
1998-10-26,17.9963
1998-10-27,17.7235
1998-10-28,17.9037
1998-10-29,17.9671
1998-10-30,17.9963
1998-11-02,18.0889
1998-11-03,18.3325
1998-11-04,18.576
1998-11-05,18.9414
1998-11-06,18.9073
1998-11-09,18.9414
1998-11-10,18.9707
1998-11-11,18.9073
1998-11-12,18.9999
1998-11-13,18.9999
1998-11-16,19.0291
1998-11-17,19.4578
1998-11-18,19.336
1998-11-19,19.4286
1998-11-20,19.794
1998-11-23,19.8525
1998-11-24,19.8232
1998-11-25,19.6722
1998-11-27,19.7599
1998-11-30,18.9073
1998-12-01,18.8489
1998-12-02,18.9999
1998-12-03,18.6053
1998-12-04,19.4286
1998-12-07,19.1217
1998-12-08,18.576
1998-12-09,18.8196
1998-12-10,18.5127
1998-12-11,18.6978
1998-12-14,18.3617
1998-12-15,18.7487
1998-12-16,18.6556
1998-12-17,19.3615
1998-12-18,19.4252
1998-12-21,18.9938
1998-12-22,19.087
1998-12-23,19.3615
1998-12-24,19.3026
1998-12-28,19.4546
1998-12-29,19.6065
1998-12-30,19.6359
1998-12-31,19.7928
1999-01-04,19.9742
1999-01-05,20.0379
1999-01-06,20.3418
1999-01-07,19.7585
1999-01-08,19.5281
1999-01-11,19.6065
1999-01-12,19.6065
1999-01-13,19.0576
1999-01-14,18.5674
1999-01-15,19.6703
1999-01-19,19.0232
1999-01-20,19.0576
1999-01-21,19.2389
1999-01-22,18.5968
1999-01-25,18.4105
1999-01-26,18.8419
1999-01-27,18.136
1999-01-28,18.4448
1999-01-29,18.7193
1999-02-01,18.288
1999-02-02,18.1998
1999-02-03,18.5331
1999-02-04,17.9547
1999-02-05,17.7096
1999-02-08,17.5871
1999-02-09,17.7684
1999-02-10,17.739
1999-02-11,18.136
1999-02-12,17.7978
1999-02-16,18.2292
1999-02-17,17.6459
1999-02-18,17.8321
1999-02-19,17.7978
1999-02-22,18.0429
1999-02-23,18.3811
1999-02-24,18.1066
1999-02-25,18.2586
1999-02-26,18.5037
1999-03-01,18.6262
1999-03-02,18.4448
1999-03-03,18.3223
1999-03-04,18.6262
1999-03-05,18.7487
1999-03-08,18.5037
1999-03-09,18.5037
1999-03-10,18.7193
1999-03-11,18.7487
1999-03-12,18.5968
1999-03-15,18.8125
1999-03-16,18.778
1999-03-17,18.1612
1999-03-18,18.5658
1999-03-19,18.2846
1999-03-22,18.4425
1999-03-23,18.1958
1999-03-24,18.0724
1999-03-25,17.7912
1999-03-26,17.4557
1999-03-29,17.6086
1999-03-30,17.4853
1999-03-31,17.1153
1999-04-01,17.1449
1999-04-05,17.2386
1999-04-06,17.2682
1999-04-07,17.8257
1999-04-08,17.5445
1999-04-09,17.4557
1999-04-12,17.8257
1999-04-13,17.3324
1999-04-14,17.5445
1999-04-15,17.579
1999-04-16,17.6679
1999-04-19,18.255
1999-04-20,18.3191
1999-04-21,18.3487
1999-04-22,18.3783
1999-04-23,18.4079
1999-04-26,18.3783
1999-04-27,18.4079
1999-04-28,18.4721
1999-04-29,18.6891
1999-04-30,18.625
1999-05-03,18.9654
1999-05-04,18.995
1999-05-05,19.1825
1999-05-06,19.148
1999-05-07,19.2417
1999-05-10,18.7187
1999-05-11,18.9654
1999-05-12,18.9654
1999-05-13,19.0592
1999-05-14,18.8125
1999-05-17,18.7187
1999-05-18,18.6891
1999-05-19,18.625
1999-05-20,18.3783
1999-05-21,18.7484
1999-05-24,18.4721
1999-05-25,18.3783
1999-05-26,18.625
1999-05-27,18.0083
1999-05-28,18.6546
1999-06-01,18.0379
1999-06-02,18.4079
1999-06-03,18.625
1999-06-04,18.8717
1999-06-07,18.9013
1999-06-08,18.7187
1999-06-09,18.8125
1999-06-10,18.5658
1999-06-11,18.4079
1999-06-14,18.4721
1999-06-15,18.6556
1999-06-16,18.8146
1999-06-17,19.1225
1999-06-18,18.6904
1999-06-21,18.7798
1999-06-22,18.8742
1999-06-23,18.75
1999-06-24,18.5662
1999-06-25,18.8146
1999-06-28,18.8742
1999-06-29,19.1225
1999-06-30,19.0629
1999-07-01,19.2765
1999-07-02,19.0629
1999-07-06,19.0927
1999-07-07,19.3411
1999-07-08,18.904
1999-07-09,18.9686
1999-07-12,18.6904
1999-07-13,18.4421
1999-07-14,18.3179
1999-07-15,18.2533
1999-07-16,18.2831
1999-07-19,18.3775
1999-07-20,18.1292
1999-07-21,18.159
1999-07-22,18.2831
1999-07-23,18.1937
1999-07-26,18.0695
1999-07-27,18.3179
1999-07-28,17.9454
1999-07-29,17.7566
1999-07-30,17.6325
1999-08-02,17.697
1999-08-03,17.697
1999-08-04,17.851
1999-08-05,17.697
1999-08-06,17.6623
1999-08-09,17.3245
1999-08-10,17.2003
1999-08-11,18.005
1999-08-12,17.6325
1999-08-13,17.9454
1999-08-16,17.8113
1999-08-17,17.9752
1999-08-18,18.0348
1999-08-19,18.005
1999-08-20,18.3179
1999-08-23,18.3775
1999-08-24,18.3775
1999-08-25,18.3179
1999-08-26,18.2533
1999-08-27,18.2533
1999-08-30,17.106
1999-08-31,17.4487
1999-09-01,17.8212
1999-09-02,17.2897
1999-09-03,17.7566
1999-09-07,17.6027
1999-09-08,17.4785
1999-09-09,17.3841
1999-09-10,17.2301
1999-09-13,17.1649
1999-09-14,16.6346
1999-09-15,16.7897
1999-09-16,16.5745
1999-09-17,16.0392
1999-09-20,15.8841
1999-09-21,15.604
1999-09-22,15.7291
1999-09-23,15.2888
1999-09-24,15.4489
1999-09-27,15.3238
1999-09-28,15.0387
1999-09-29,14.8536
1999-09-30,15.0086
1999-10-01,15.0086
1999-10-04,15.5089
1999-10-05,15.1037
1999-10-06,15.2888
1999-10-07,15.0387
1999-10-08,15.4789
1999-10-11,15.1637
1999-10-12,15.0086
1999-10-13,14.5384
1999-10-14,14.4133
1999-10-15,13.7279
1999-10-18,14.0731
1999-10-19,13.5078
1999-10-20,13.5378
1999-10-21,13.5728
1999-10-22,13.823
1999-10-25,13.883
1999-10-26,13.6629
1999-10-27,14.1982
1999-10-28,15.1337
1999-10-29,15.0387
1999-11-01,15.1337
1999-11-02,15.2888
1999-11-03,15.1337
1999-11-04,15.4489
1999-11-05,15.5389
1999-11-08,15.604
1999-11-09,15.5089
1999-11-10,15.3839
1999-11-11,15.2288
1999-11-12,15.634
1999-11-15,15.634
1999-11-16,15.574
1999-11-17,15.1988
1999-11-18,14.9786
1999-11-19,14.6985
1999-11-22,14.3833
1999-11-23,14.2282
1999-11-24,14.1331
1999-11-26,14.0881
1999-11-29,13.7579
1999-11-30,13.7579
1999-12-01,13.823
1999-12-02,13.5728
1999-12-03,14.0081
1999-12-06,13.5378
1999-12-07,13.0725
1999-12-08,12.7874
1999-12-09,12.6323
1999-12-10,12.9124
1999-12-13,12.5372
1999-12-14,12.4112
1999-12-15,12.6335
1999-12-16,12.0322
1999-12-17,12.3505
1999-12-20,12.0019
1999-12-21,12.5072
1999-12-22,12.2849
1999-12-23,12.5072
1999-12-27,12.1282
1999-12-28,11.8452
1999-12-29,12.6032
1999-12-30,12.6639
1999-12-31,12.6992
2000-01-03,11.8755
2000-01-04,11.4662
2000-01-05,11.4965
2000-01-06,11.4965
2000-01-07,11.633
2000-01-10,11.0872
2000-01-11,11.2438
2000-01-12,11.4662
2000-01-13,12.0019
2000-01-14,12.1282
2000-01-18,12.1939
2000-01-19,12.2849
2000-01-20,11.6532
2000-01-21,11.6532
2000-01-24,11.4662
2000-01-25,11.5268
2000-01-26,11.9412
2000-01-27,11.9715
2000-01-28,11.4662
2000-01-31,12.1939
2000-02-01,12.2849
2000-02-02,12.0322
2000-02-03,12.1282
2000-02-04,11.9058
2000-02-07,11.8149
2000-02-08,11.9412
2000-02-09,12.1282
2000-02-10,12.0676
2000-02-11,12.0019
2000-02-14,11.7492
2000-02-15,11.8755
2000-02-16,11.8452
2000-02-17,11.5622
2000-02-18,11.0215
2000-02-22,10.9912
2000-02-23,10.7638
2000-02-24,10.5162
2000-02-25,10.2332
2000-02-28,10.7385
2000-02-29,10.2332
2000-03-01,10.0462
2000-03-02,9.72782
2000-03-03,9.75814
2000-03-06,9.82384
2000-03-07,9.66718
2000-03-08,9.3185
2000-03-09,9.79352
2000-03-10,9.6975
2000-03-13,9.79352
2000-03-14,9.79352
2000-03-15,10.5059
2000-03-16,11.9819
2000-03-17,11.5975
2000-03-20,11.2131
2000-03-21,11.6283
2000-03-22,11.659
2000-03-23,11.7871
2000-03-24,11.6897
2000-03-27,11.2746
2000-03-28,11.4028
2000-03-29,11.4694
2000-03-30,11.2439
2000-03-31,11.7256
2000-04-03,12.5866
2000-04-04,12.2996
2000-04-05,11.946
2000-04-06,11.659
2000-04-07,11.3054
2000-04-10,11.3413
2000-04-11,11.2439
2000-04-12,11.3054
2000-04-13,11.1773
2000-04-14,10.5777
2000-04-17,10.5367
2000-04-18,10.8595
2000-04-19,10.7007
2000-04-20,10.8288
2000-04-24,11.1465
2000-04-25,11.2746
2000-04-26,11.1465
2000-04-27,10.7007
2000-04-28,10.4752
2000-05-01,10.5367
2000-05-02,10.4752
2000-05-03,10.4444
2000-05-04,10.3163
2000-05-05,9.86531
2000-05-08,10.4085
2000-05-09,10.4444
2000-05-10,10.2189
2000-05-11,10.3778
2000-05-12,10.5725
2000-05-15,10.7007
2000-05-16,10.6033
2000-05-17,10.634
2000-05-18,10.9723
2000-05-19,10.8288
2000-05-22,11.1773
2000-05-23,11.2439
2000-05-24,11.2746
2000-05-25,11.2746
2000-05-26,11.4028
2000-05-30,11.659
2000-05-31,11.659
2000-06-01,12.0331
2000-06-02,12.5866
2000-06-05,12.0741
2000-06-06,11.8537
2000-06-07,12.0126
2000-06-08,11.8179
2000-06-09,11.7256
2000-06-12,11.8537
2000-06-13,11.659
2000-06-14,11.8972
2000-06-15,11.414
2000-06-16,10.6268
2000-06-19,11.1831
2000-06-20,11.0887
2000-06-21,10.7895
2000-06-22,10.7843
2000-06-23,10.8892
2000-06-26,11.0204
2000-06-27,10.9207
2000-06-28,10.9207
2000-06-29,10.7895
2000-06-30,10.3645
2000-07-03,11.0204
2000-07-05,11.2513
2000-07-06,11.0887
2000-07-07,11.351
2000-07-10,11.4822
2000-07-11,11.351
2000-07-12,11.2198
2000-07-13,11.3143
2000-07-14,11.4822
2000-07-17,11.1201
2000-07-18,11.1516
2000-07-19,11.0204
2000-07-20,11.3143
2000-07-21,11.2513
2000-07-24,11.2513
2000-07-25,11.0887
2000-07-26,10.6583
2000-07-27,10.6741
2000-07-28,10.5639
2000-07-31,10.4694
2000-08-01,10.6268
2000-08-02,10.6268
2000-08-03,10.9889
2000-08-04,11.351
2000-08-07,11.3143
2000-08-08,11.4822
2000-08-09,11.4455
2000-08-10,11.5452
2000-08-11,11.6134
2000-08-14,11.6449
2000-08-15,11.5137
2000-08-16,11.351
2000-08-17,11.351
2000-08-18,11.2513
2000-08-21,11.4455
2000-08-22,11.6134
2000-08-23,11.4822
2000-08-24,11.2513
2000-08-25,11.1831
2000-08-28,11.2513
2000-08-29,11.1831
2000-08-30,11.2198
2000-08-31,11.4455
2000-09-01,11.5452
2000-09-05,11.7446
2000-09-06,12.07
2000-09-07,12.1697
2000-09-08,12.663
2000-09-11,12.8257
2000-09-12,13.0566
2000-09-13,13.1578
2000-09-14,13.1631
2000-09-15,13.1313
2000-09-18,12.8023
2000-09-19,12.7652
2000-09-20,12.537
2000-09-21,12.2718
2000-09-22,11.9057
2000-09-25,11.9375
2000-09-26,12.0065
2000-09-27,12.2028
2000-09-28,12.3354
2000-09-29,12.1391
2000-10-02,12.4999
2000-10-03,12.4787
2000-10-04,12.2718
2000-10-05,12.1391
2000-10-06,11.7412
2000-10-09,11.5396
2000-10-10,11.2743
2000-10-11,11.078
2000-10-12,10.7756
2000-10-13,11.2425
2000-10-16,11.1417
2000-10-17,11.009
2000-10-18,10.9082
2000-10-19,11.5396
2000-10-20,11.078
2000-10-23,10.8764
2000-10-24,10.9772
2000-10-25,11.2743
2000-10-26,11.4388
2000-10-27,11.5396
2000-10-30,11.9693
2000-10-31,12.4681
2000-11-01,12.4575
2000-11-02,12.5158
2000-11-03,12.6166
2000-11-06,12.866
2000-11-07,12.8341
2000-11-08,12.866
2000-11-09,12.7015
2000-11-10,12.2028
2000-11-13,12.3673
2000-11-14,12.4044
2000-11-15,12.102
2000-11-16,12.2028
2000-11-17,12.102
2000-11-20,11.9057
2000-11-21,12.1391
2000-11-22,12.0383
2000-11-24,12.2028
2000-11-27,12.3036
2000-11-28,12.4044
2000-11-29,12.7333
2000-11-30,12.8341
2000-12-01,12.866
2000-12-04,12.935
2000-12-05,13.0994
2000-12-06,13.1631
2000-12-07,13.3329
2000-12-08,13.63
2000-12-11,13.8953
2000-12-12,13.561
2000-12-13,13.4373
2000-12-14,13.2068
2000-12-15,13.1692
2000-12-18,13.6733
2000-12-19,14.1451
2000-12-20,14.1076
2000-12-21,14.3757
2000-12-22,14.7457
2000-12-26,14.8154
2000-12-27,14.9119
2000-12-28,14.9119
2000-12-29,14.6813
2001-01-02,14.4776
2001-01-03,15.1478
2001-01-04,15.3837
2001-01-05,15.0138
2001-01-08,14.8797
2001-01-09,14.6813
2001-01-10,14.7457
2001-01-11,15.0138
2001-01-12,14.8475
2001-01-16,15.2175
2001-01-17,15.4481
2001-01-18,15.1961
2001-01-19,15.1156
2001-01-22,15.6358
2001-01-23,15.55
2001-01-24,15.55
2001-01-25,15.55
2001-01-26,15.7537
2001-01-29,15.8502
2001-01-30,15.92
2001-01-31,15.9521
2001-02-01,15.9843
2001-02-02,15.9789
2001-02-05,16.054
2001-02-06,15.8878
2001-02-07,15.9843
2001-02-08,15.9843
2001-02-09,16.054
2001-02-12,16.054
2001-02-13,16.054
2001-02-14,15.9521
2001-02-15,16.0862
2001-02-16,16.3543
2001-02-20,16.0862
2001-02-21,16.0862
2001-02-22,16.0862
2001-02-23,16.1184
2001-02-26,16.2899
2001-02-27,16.2202
2001-02-28,16.0218
2001-03-01,16.2899
2001-03-02,16.6921
2001-03-05,16.7243
2001-03-06,16.6921
2001-03-07,17.1586
2001-03-08,17.1264
2001-03-09,16.7296
2001-03-12,15.9843
2001-03-13,16.2899
2001-03-14,15.6622
2001-03-15,15.9003
2001-03-16,15.7271
2001-03-19,15.5593
2001-03-20,15.2238
2001-03-21,14.6826
2001-03-22,14.4445
2001-03-23,14.9857
2001-03-26,15.1859
2001-03-27,15.3591
2001-03-28,15.1859
2001-03-29,15.2887
2001-03-30,15.3916
2001-04-02,15.6297
2001-04-03,15.6026
2001-04-04,15.1535
2001-04-05,15.7271
2001-04-06,15.5918
2001-04-09,15.7217
2001-04-10,16.1925
2001-04-11,16.3062
2001-04-12,16.3928
2001-04-16,16.2845
2001-04-17,16.2088
2001-04-18,16.8203
2001-04-19,16.7933
2001-04-20,16.6093
2001-04-23,16.6093
2001-04-24,16.4902
2001-04-25,16.4686
2001-04-26,16.3441
2001-04-27,16.7446
2001-04-30,16.4848
2001-05-01,16.2575
2001-05-02,16.3874
2001-05-03,16.5064
2001-05-04,16.5335
2001-05-07,16.4848
2001-05-08,16.3278
2001-05-09,16.2629
2001-05-10,16.2575
2001-05-11,16.1709
2001-05-14,16.3278
2001-05-15,16.3928
2001-05-16,16.7716
2001-05-17,16.6093
2001-05-18,16.5606
2001-05-21,16.4577
2001-05-22,16.7446
2001-05-23,16.6742
2001-05-24,16.6526
2001-05-25,16.5822
2001-05-29,16.7121
2001-05-30,16.5768
2001-05-31,16.7824
2001-06-01,16.8095
2001-06-04,16.9015
2001-06-05,17.0747
2001-06-06,16.9502
2001-06-07,16.8961
2001-06-08,16.7229
2001-06-11,16.6363
2001-06-12,16.566
2001-06-13,16.4729
2001-06-14,16.167
2001-06-15,16.4292
2001-06-18,16.5603
2001-06-19,16.806
2001-06-20,17.03
2001-06-21,17.4451
2001-06-22,17.0737
2001-06-25,17.1228
2001-06-26,17.0682
2001-06-27,17.1119
2001-06-28,17.3358
2001-06-29,17.1993
2001-07-02,17.4997
2001-07-03,17.4888
2001-07-05,17.4232
2001-07-06,17.1283
2001-07-09,17.1283
2001-07-10,16.877
2001-07-11,16.9317
2001-07-12,17.2047
2001-07-13,17.4232
2001-07-16,17.2703
2001-07-17,17.4724
2001-07-18,17.6308
2001-07-19,17.4833
2001-07-20,17.3085
2001-07-23,17.2758
2001-07-24,17.1283
2001-07-25,17.0464
2001-07-26,17.2648
2001-07-27,17.3959
2001-07-30,17.4778
2001-07-31,17.5051
2001-08-01,17.6035
2001-08-02,17.5598
2001-08-03,17.6089
2001-08-06,17.6089
2001-08-07,17.6417
2001-08-08,17.4888
2001-08-09,17.4669
2001-08-10,17.4833
2001-08-13,17.4942
2001-08-14,17.4396
2001-08-15,17.3031
2001-08-16,17.3795
2001-08-17,17.2102
2001-08-20,17.2266
2001-08-21,17.1611
2001-08-22,17.2921
2001-08-23,17.1829
2001-08-24,16.8497
2001-08-27,16.4674
2001-08-28,16.4456
2001-08-29,16.2107
2001-08-30,16.0905
2001-08-31,16.0632
2001-09-04,16.2762
2001-09-05,16.1506
2001-09-06,15.8065
2001-09-07,15.4952
2001-09-10,15.4733
2001-09-17,15.1424
2001-09-18,15.501
2001-09-19,15.4127
2001-09-20,15.0155
2001-09-21,14.8666
2001-09-24,15.33
2001-09-25,15.4624
2001-09-26,15.4734
2001-09-27,15.5286
2001-09-28,15.9202
2001-10-01,15.9919
2001-10-02,16.0306
2001-10-03,15.9478
2001-10-04,15.7382
2001-10-05,15.3189
2001-10-08,14.5301
2001-10-09,14.7397
2001-10-10,14.9328
2001-10-11,14.9438
2001-10-12,14.817
2001-10-15,14.9769
2001-10-16,15.1755
2001-10-17,14.8666
2001-10-18,14.7287
2001-10-19,14.817
2001-10-22,15.1148
2001-10-23,15.1259
2001-10-24,15.2197
2001-10-25,15.4072
2001-10-26,15.4844
2001-10-29,15.2417
2001-10-30,15.01
2001-10-31,14.8832
2001-11-01,15.1866
2001-11-02,15.2362
2001-11-05,15.6003
2001-11-06,15.8982
2001-11-07,15.8926
2001-11-08,15.8926
2001-11-09,15.9257
2001-11-12,15.8595
2001-11-13,16.0637
2001-11-14,16.1409
2001-11-15,16.0637
2001-11-16,15.9257
2001-11-19,16.1023
2001-11-20,16.0306
2001-11-21,15.8982
2001-11-23,16.0857
2001-11-26,16.2071
2001-11-27,16.0802
2001-11-28,16.0526
2001-11-29,16.0361
2001-11-30,15.8651
2001-12-03,15.7216
2001-12-04,15.9423
2001-12-05,16.2567
2001-12-06,16.3726
2001-12-07,16.3119
2001-12-10,16.1464
2001-12-11,16.2567
2001-12-12,16.3785
2001-12-13,16.1112
2001-12-14,16.2003
2001-12-17,16.3785
2001-12-18,16.5177
2001-12-19,16.7015
2001-12-20,16.7405
2001-12-21,16.7126
2001-12-24,16.6737
2001-12-26,16.618
2001-12-27,16.6068
2001-12-28,16.6904
2001-12-31,16.7071
2002-01-02,16.6848
2002-01-03,16.7739
2002-01-04,16.902
2002-01-07,16.98
2002-01-08,16.824
2002-01-09,16.8352
2002-01-10,16.9354
2002-01-11,16.7015
2002-01-14,16.7238
2002-01-15,17.0245
2002-01-16,16.902
2002-01-17,17.1025
2002-01-18,17.1359
2002-01-22,17.225
2002-01-23,17.3531
2002-01-24,17.4199
2002-01-25,17.5647
2002-01-28,17.5257
2002-01-29,17.0356
2002-01-30,17.2417
2002-01-31,17.3809
2002-02-01,17.4199
2002-02-04,17.0913
2002-02-05,17.1637
2002-02-06,17.0524
2002-02-07,17.0858
2002-02-08,17.3698
2002-02-11,17.3976
2002-02-12,17.3865
2002-02-13,17.5981
2002-02-14,17.7541
2002-02-15,17.6371
2002-02-19,17.3754
2002-02-20,17.6427
2002-02-21,17.4533
2002-02-22,17.5758
2002-02-25,17.8487
2002-02-26,18.0214
2002-02-27,18.116
2002-02-28,18.1272
2002-03-01,18.3221
2002-03-04,18.7008
2002-03-05,18.7175
2002-03-06,19.0294
2002-03-07,18.9625
2002-03-08,18.9681
2002-03-11,19.241
2002-03-12,19.2187
2002-03-13,19.1401
2002-03-14,19.0558
2002-03-15,19.4827
2002-03-18,19.3254
2002-03-19,19.4097
2002-03-20,19.2243
2002-03-21,19.1513
2002-03-22,19.2187
2002-03-25,18.9604
2002-03-26,19.185
2002-03-27,19.4546
2002-03-28,19.3535
2002-04-01,19.3423
2002-04-02,19.3872
2002-04-03,19.0221
2002-04-04,19.0951
2002-04-05,19.0558
2002-04-08,19.1513
2002-04-09,19.2861
2002-04-10,19.4714
2002-04-11,19.2861
2002-04-12,19.4658
2002-04-15,19.3254
2002-04-16,19.5669
2002-04-17,19.6399
2002-04-18,19.6287
2002-04-19,19.7185
2002-04-22,19.5444
2002-04-23,19.4658
2002-04-24,19.5613
2002-04-25,19.5725
2002-04-26,19.449
2002-04-29,19.5164
2002-04-30,19.7859
2002-05-01,19.7803
2002-05-02,19.9207
2002-05-03,19.9713
2002-05-06,19.8702
2002-05-07,19.9769
2002-05-08,20.0387
2002-05-09,19.8253
2002-05-10,19.6287
2002-05-13,19.887
2002-05-14,20.1229
2002-05-15,20.1341
2002-05-16,20.2015
2002-05-17,20.2689
2002-05-20,19.9657
2002-05-21,19.9994
2002-05-22,19.9207
2002-05-23,20.1678
2002-05-24,20.1285
2002-05-28,19.9376
2002-05-29,20.0274
2002-05-30,20.0162
2002-05-31,20.2521
2002-06-03,19.9488
2002-06-04,19.8028
2002-06-05,20.0106
2002-06-06,19.741
2002-06-07,19.9095
2002-06-10,20.0499
2002-06-11,19.7972
2002-06-12,19.8206
2002-06-13,19.3223
2002-06-14,19.5998
2002-06-17,20.0585
2002-06-18,20.1378
2002-06-19,20.1038
2002-06-20,19.9226
2002-06-21,19.8093
2002-06-24,19.7357
2002-06-25,19.6677
2002-06-26,19.5092
2002-06-27,19.5261
2002-06-28,19.7923
2002-07-01,19.6734
2002-07-02,19.9339
2002-07-03,19.7187
2002-07-05,20.1887
2002-07-08,20.2567
2002-07-09,19.8546
2002-07-10,19.4412
2002-07-11,19.5318
2002-07-12,19.2826
2002-07-15,19.1694
2002-07-16,19.0278
2002-07-17,19.0504
2002-07-18,18.2916
2002-07-19,17.9915
2002-07-22,17.4138
2002-07-23,16.706
2002-07-24,17.7026
2002-07-25,18.235
2002-07-26,18.5748
2002-07-29,19.7583
2002-07-30,19.764
2002-07-31,19.9339
2002-08-01,19.2883
2002-08-02,19.226
2002-08-05,18.6257
2002-08-06,19.2203
2002-08-07,19.3959
2002-08-08,20.0358
2002-08-09,20.0868
2002-08-12,19.9848
2002-08-13,19.679
2002-08-14,20.1944
2002-08-15,20.3416
2002-08-16,20.217
2002-08-19,20.4605
2002-08-20,20.1774
2002-08-21,20.1264
2002-08-22,20.285
2002-08-23,19.8716
2002-08-26,20.1038
2002-08-27,20.1321
2002-08-28,19.9339
2002-08-29,20.0981
2002-08-30,20.251
2002-09-03,19.5205
2002-09-04,19.9679
2002-09-05,19.9792
2002-09-06,20.2793
2002-09-09,20.3529
2002-09-10,20.0018
2002-09-11,20.0414
2002-09-12,19.2421
2002-09-13,19.459
2002-09-16,19.6132
2002-09-17,19.1164
2002-09-18,18.7853
2002-09-19,18.1229
2002-09-20,18.2771
2002-09-23,18.4712
2002-09-24,18.0087
2002-09-25,18.5626
2002-09-26,18.9337
2002-09-27,18.5283
2002-09-30,18.6654
2002-10-01,19.4476
2002-10-02,18.357
2002-10-03,17.2265
2002-10-04,16.2159
2002-10-07,15.4793
2002-10-08,16.1017
2002-10-09,15.6449
2002-10-10,16.4785
2002-10-11,17.6719
2002-10-14,17.8831
2002-10-15,18.7853
2002-10-16,18.4655
2002-10-17,18.8195
2002-10-18,19.0251
2002-10-21,19.3049
2002-10-22,19.2649
2002-10-23,19.4419
2002-10-24,19.0879
2002-10-25,19.5904
2002-10-28,19.3848
2002-10-29,19.1393
2002-10-30,19.4134
2002-10-31,19.362
2002-11-01,19.9501
2002-11-04,19.7045
2002-11-05,19.9272
2002-11-06,19.6189
2002-11-07,18.8252
2002-11-08,18.6825
2002-11-11,18.3513
2002-11-12,18.5911
2002-11-13,18.5512
2002-11-14,19.1164
2002-11-15,19.4647
2002-11-18,19.0993
2002-11-19,19.0422
2002-11-20,19.5333
2002-11-21,19.9044
2002-11-22,20.03
2002-11-25,20.0243
2002-11-26,19.8644
2002-11-27,20.0243
2002-11-29,19.8359
2002-12-02,19.7045
2002-12-03,19.4305
2002-12-04,19.2992
2002-12-05,18.9908
2002-12-06,19.1964
2002-12-09,18.9052
2002-12-10,19.2592
2002-12-11,19.2881
2002-12-12,18.9771
2002-12-13,18.8792
2002-12-16,19.2708
2002-12-17,19.2247
2002-12-18,19.0347
2002-12-19,18.8965
2002-12-20,19.2593
2002-12-23,19.1499
2002-12-24,19.1441
2002-12-26,19.1902
2002-12-27,19.0001
2002-12-30,19.219
2002-12-31,19.2075
2003-01-02,19.8986
2003-01-03,19.6164
2003-01-06,20.2787
2003-01-07,20.0598
2003-01-08,19.8467
2003-01-09,20.1865
2003-01-10,20.0138
2003-01-13,20.0541
2003-01-14,20.2038
2003-01-15,19.9504
2003-01-16,19.7028
2003-01-17,19.7028
2003-01-21,19.4206
2003-01-22,19.1902
2003-01-23,19.4263
2003-01-24,18.8677
2003-01-27,18.6718
2003-01-28,18.8389
2003-01-29,19.0116
2003-01-30,18.5509
2003-01-31,18.9195
2003-02-03,18.8965
2003-02-04,18.6373
2003-02-05,18.4818
2003-02-06,18.4875
2003-02-07,18.2572
2003-02-10,18.5048
2003-02-11,18.2456
2003-02-12,17.9346
2003-02-13,17.9346
2003-02-14,18.2226
2003-02-18,18.3378
2003-02-19,18.2744
2003-02-20,18.1938
2003-02-21,18.4875
2003-02-24,18.0441
2003-02-25,18.3724
2003-02-26,18.0671
2003-02-27,18.5336
2003-02-28,18.597
2003-03-03,18.4011
2003-03-04,18.1132
2003-03-05,18.5048
2003-03-06,18.4703
2003-03-07,18.5451
2003-03-10,17.8713
2003-03-11,17.6639
2003-03-12,17.6989
2003-03-13,18.1583
2003-03-14,18.1874
2003-03-17,18.6818
2003-03-18,18.5015
2003-03-19,18.7225
2003-03-20,18.9435
2003-03-21,19.4263
2003-03-24,18.9959
2003-03-25,19.0366
2003-03-26,18.961
2003-03-27,18.9144
2003-03-28,18.961
2003-03-31,18.8447
2003-04-01,19.1297
2003-04-02,19.5135
2003-04-03,19.0133
2003-04-04,19.1006
2003-04-07,18.7865
2003-04-08,18.7807
2003-04-09,18.3677
2003-04-10,18.7341
2003-04-11,18.7865
2003-04-14,19.1471
2003-04-15,19.4844
2003-04-16,19.0308
2003-04-17,19.182
2003-04-21,19.2053
2003-04-22,19.688
2003-04-23,19.6647
2003-04-24,19.5193
2003-04-25,19.3914
2003-04-28,19.6706
2003-04-29,19.6706
2003-04-30,19.5659
2003-05-01,19.4961
2003-05-02,19.7462
2003-05-05,19.5252
2003-05-06,19.6182
2003-05-07,19.5542
2003-05-08,19.3681
2003-05-09,19.467
2003-05-12,19.5775
2003-05-13,19.595
2003-05-14,19.5601
2003-05-15,19.7287
2003-05-16,19.7171
2003-05-19,19.3158
2003-05-20,19.4961
2003-05-21,19.5775
2003-05-22,19.403
2003-05-23,19.4961
2003-05-27,19.9032
2003-05-28,19.973
2003-05-29,19.8509
2003-05-30,20.415
2003-06-02,20.3452
2003-06-03,20.4732
2003-06-04,20.8803
2003-06-05,20.9385
2003-06-06,20.9036
2003-06-09,20.5546
2003-06-10,20.7117
2003-06-11,20.9051
2003-06-12,20.8523
2003-06-13,20.7174
2003-06-16,21.0986
2003-06-17,20.8523
2003-06-18,20.8992
2003-06-19,20.4769
2003-06-20,20.5355
2003-06-23,20.1777
2003-06-24,20.2305
2003-06-25,20.1777
2003-06-26,20.1777
2003-06-27,19.9959
2003-06-30,19.8727
2003-07-01,20.1367
2003-07-02,20.1015
2003-07-03,20.0135
2003-07-07,20.3302
2003-07-08,20.4652
2003-07-09,20.5707
2003-07-10,20.2892
2003-07-11,20.4828
2003-07-14,20.9872
2003-07-15,20.9989
2003-07-16,21.0634
2003-07-17,21.04
2003-07-18,21.2042
2003-07-21,21.1221
2003-07-22,21.2805
2003-07-23,21.3685
2003-07-24,21.1632
2003-07-25,21.4916
2003-07-28,21.3685
2003-07-29,21.2453
2003-07-30,21.2511
2003-07-31,21.169
2003-08-01,20.8406
2003-08-04,20.9344
2003-08-05,20.5297
2003-08-06,20.6939
2003-08-07,20.8347
2003-08-08,20.8347
2003-08-11,20.6822
2003-08-12,20.864
2003-08-13,20.7643
2003-08-14,21.0459
2003-08-15,20.9813
2003-08-18,21.128
2003-08-19,20.8757
2003-08-20,20.864
2003-08-21,20.7643
2003-08-22,20.4182
2003-08-25,20.4945
2003-08-26,20.5707
2003-08-27,20.5062
2003-08-28,20.6059
2003-08-29,20.6411
2003-09-02,20.8757
2003-09-03,20.9285
2003-09-04,20.9989
2003-09-05,20.9755
2003-09-08,21.1162
2003-09-09,20.9344
2003-09-10,20.3127
2003-09-11,20.52
2003-09-12,20.4904
2003-09-15,20.4075
2003-09-16,20.6265
2003-09-17,20.4489
2003-09-18,20.7509
2003-09-19,20.7094
2003-09-22,20.5259
2003-09-23,20.6798
2003-09-24,20.4726
2003-09-25,20.4016
2003-09-26,20.295
2003-09-29,20.3483
2003-09-30,20.3128
2003-10-01,20.8515
2003-10-02,20.8456
2003-10-03,20.8515
2003-10-06,21.1416
2003-10-07,21.3962
2003-10-08,21.3784
2003-10-09,21.5028
2003-10-10,21.4317
2003-10-13,21.6034
2003-10-14,21.6567
2003-10-15,21.5205
2003-10-16,21.6093
2003-10-17,21.6093
2003-10-20,21.4317
2003-10-21,21.3488
2003-10-22,21.1475
2003-10-23,21.2541
2003-10-24,21.1712
2003-10-27,21.6034
2003-10-28,21.7751
2003-10-29,21.6152
2003-10-30,21.7633
2003-10-31,21.7337
2003-11-03,22.0297
2003-11-04,22.0593
2003-11-05,22.0593
2003-11-06,22.2073
2003-11-07,22.3079
2003-11-10,22.2842
2003-11-11,22.1185
2003-11-12,22.3849
2003-11-13,22.3553
2003-11-14,22.2606
2003-11-17,22.1126
2003-11-18,21.7988
2003-11-19,21.7988
2003-11-20,21.556
2003-11-21,21.5442
2003-11-24,21.781
2003-11-25,21.8106
2003-11-26,21.9468
2003-11-28,21.9705
2003-12-01,22.1007
2003-12-02,21.8935
2003-12-03,22.0119
2003-12-04,21.781
2003-12-05,21.556
2003-12-08,22.0237
2003-12-09,21.8284
2003-12-10,21.6152
2003-12-11,21.9705
2003-12-12,21.9645
2003-12-15,21.5975
2003-12-16,21.7573
2003-12-17,21.6082
2003-12-18,21.8471
2003-12-19,21.7874
2003-12-22,22.0322
2003-12-23,22.0143
2003-12-24,21.8112
2003-12-26,21.8531
2003-12-29,22.092
2003-12-30,22.1517
2003-12-31,22.1935
2004-01-02,21.8769
2004-01-05,22.1158
2004-01-06,22.0501
2004-01-07,22.0979
2004-01-08,22.0561
2004-01-09,22.0501
2004-01-12,21.9307
2004-01-13,21.6619
2004-01-14,21.65
2004-01-15,21.9367
2004-01-16,21.9008
2004-01-20,21.9426
2004-01-21,22.4861
2004-01-22,22.5459
2004-01-23,23.7284
2004-01-26,23.4178
2004-01-27,23.2984
2004-01-28,22.8445
2004-01-29,22.3368
2004-01-30,22.3906
2004-02-02,22.1875
2004-02-03,22.0263
2004-02-04,21.8351
2004-02-05,21.859
2004-02-06,22.1278
2004-02-09,21.9486
2004-02-10,22.092
2004-02-11,22.2831
2004-02-12,22.1099
2004-02-13,22.1039
2004-02-17,22.086
2004-02-18,22.0501
2004-02-19,22.0024
2004-02-20,21.8889
2004-02-23,21.859
2004-02-24,21.8471
2004-02-25,21.7754
2004-02-26,21.7694
2004-02-27,22.0561
2004-03-01,22.0322
2004-03-02,21.9426
2004-03-03,22.1696
2004-03-04,22.2293
2004-03-05,22.5518
2004-03-08,22.5936
2004-03-09,22.5578
2004-03-10,22.1995
2004-03-11,21.6978
2004-03-12,22.0024
2004-03-15,21.8411
2004-03-16,22.0411
2004-03-17,21.9747
2004-03-18,22.1317
2004-03-19,21.884
2004-03-22,21.6908
2004-03-23,21.6243
2004-03-24,21.4371
2004-03-25,21.8357
2004-03-26,21.733
2004-03-29,22.0471
2004-03-30,22.0894
2004-03-31,22.0351
2004-04-01,22.2887
2004-04-02,22.0834
2004-04-05,21.733
2004-04-06,21.8659
2004-04-07,21.721
2004-04-08,21.6545
2004-04-12,21.5277
2004-04-13,21.1532
2004-04-14,20.8693
2004-04-15,20.6156
2004-04-16,21.0807
2004-04-19,20.8451
2004-04-20,20.7726
2004-04-21,21.2075
2004-04-22,21.6183
2004-04-23,21.6002
2004-04-26,21.431
2004-04-27,21.5156
2004-04-28,21.0807
2004-04-29,20.8451
2004-04-30,20.972
2004-05-03,20.978
2004-05-04,21.1411
2004-05-05,21.0686
2004-05-06,21.1592
2004-05-07,20.7968
2004-05-10,20.5371
2004-05-11,20.7545
2004-05-12,21.129
2004-05-13,21.1048
2004-05-14,21.1471
2004-05-17,21.0928
2004-05-18,21.2981
2004-05-19,21.425
2004-05-20,21.5579
2004-05-21,21.8478
2004-05-24,21.9928
2004-05-25,22.18
2004-05-26,22.3975
2004-05-27,22.6753
2004-05-28,22.9592
2004-06-01,22.7659
2004-06-02,22.8807
2004-06-03,22.7478
2004-06-04,22.8263
2004-06-07,23.0257
2004-06-08,23.0679
2004-06-09,22.7599
2004-06-10,22.923
2004-06-14,22.5908
2004-06-15,22.6354
2004-06-16,22.5682
2004-06-17,22.3544
2004-06-18,22.2628
2004-06-21,22.2689
2004-06-22,22.7392
2004-06-23,22.7392
2004-06-24,22.6048
2004-06-25,22.391
2004-06-28,22.6781
2004-06-29,22.4582
2004-06-30,22.4888
2004-07-01,22.7803
2004-07-02,23.0367
2004-07-06,23.1347
2004-07-07,23.2252
2004-07-08,23.0367
2004-07-09,22.7727
2004-07-12,22.7727
2004-07-13,22.7652
2004-07-14,22.5163
2004-07-15,22.7727
2004-07-16,22.637
2004-07-19,22.6747
2004-07-20,22.735
2004-07-21,22.456
2004-07-22,22.3278
2004-07-23,22.3278
2004-07-26,22.3882
2004-07-27,22.5163
2004-07-28,22.5013
2004-07-29,22.5496
2004-07-30,22.6716
2004-08-02,22.7555
2004-08-03,22.8546
2004-08-04,22.9842
2004-08-05,22.8851
2004-08-06,22.8851
2004-08-09,22.8851
2004-08-10,23.152
2004-08-11,23.3808
2004-08-12,23.2969
2004-08-13,23.3579
2004-08-16,23.7011
2004-08-17,23.7087
2004-08-18,24.0671
2004-08-19,23.9604
2004-08-20,24.0519
2004-08-23,23.9375
2004-08-24,23.9451
2004-08-25,24.1205
2004-08-26,24.1891
2004-08-27,24.1052
2004-08-30,24.3188
2004-08-31,24.6162
2004-09-01,24.8678
2004-09-02,24.9746
2004-09-03,24.8831
2004-09-07,25.2949
2004-09-08,25.1347
2004-09-09,25.1347
2004-09-10,25.1805
2004-09-13,25.4245
2004-09-14,25.3483
2004-09-15,25.3635
2004-09-16,25.4931
2004-09-17,25.3177
2004-09-20,25.333
2004-09-21,25.272
2004-09-22,25.1576
2004-09-23,24.9212
2004-09-24,24.8678
2004-09-27,24.7839
2004-09-28,24.8526
2004-09-29,25.2491
2004-09-30,25.2034
2004-10-01,25.6838
2004-10-04,25.6533
2004-10-05,25.6304
2004-10-06,25.5541
2004-10-07,25.4703
2004-10-08,25.4626
2004-10-11,25.7524
2004-10-12,25.7677
2004-10-13,25.5923
2004-10-14,25.394
2004-10-15,26.1261
2004-10-18,25.9202
2004-10-19,26.0117
2004-10-20,26.1413
2004-10-21,26.2405
2004-10-22,25.9202
2004-10-25,25.8821
2004-10-26,26.2405
2004-10-27,26.5379
2004-10-28,26.825
2004-10-29,26.9559
2004-11-01,26.8943
2004-11-02,26.9251
2004-11-03,27.0791
2004-11-04,27.5025
2004-11-05,27.3332
2004-11-08,27.2562
2004-11-09,27.1792
2004-11-10,27.2716
2004-11-11,27.3486
2004-11-12,27.2947
2004-11-15,27.5256
2004-11-16,27.4564
2004-11-17,27.3332
2004-11-18,27.3871
2004-11-19,26.8558
2004-11-22,26.9636
2004-11-23,26.7788
2004-11-24,27.0329
2004-11-26,27.0098
2004-11-29,26.9482
2004-11-30,26.9097
2004-12-01,27.5179
2004-12-02,27.3948
2004-12-03,27.3101
2004-12-06,27.2716
2004-12-07,26.7788
2004-12-08,26.8866
2004-12-09,26.748
2004-12-10,26.8866
2004-12-13,27.1407
2004-12-14,27.0945
2004-12-15,27.2023
2004-12-16,26.9944
2004-12-17,27.1176
2004-12-20,27.21
2004-12-21,27.2947
2004-12-22,27.3332
2004-12-23,27.3332
2004-12-27,27.2023
2004-12-28,27.3332
2004-12-29,27.3332
2004-12-30,27.3024
2004-12-31,27.3332
2005-01-03,27.0252
2005-01-04,26.9867
2005-01-05,26.9251
2005-01-06,26.9867
2005-01-07,26.9174
2005-01-10,26.7711
2005-01-11,26.6941
2005-01-12,26.4246
2005-01-13,25.7471
2005-01-14,25.8626
2005-01-18,25.5084
2005-01-19,25.5623
2005-01-20,25.4314
2005-01-21,25.2928
2005-01-24,25.3775
2005-01-25,25.2004
2005-01-26,25.5392
2005-01-27,25.2851
2005-01-28,24.7405
2005-01-31,24.9039
2005-02-01,25.0906
2005-02-02,24.8805
2005-02-03,24.9194
2005-02-04,25.1295
2005-02-07,25.0828
2005-02-08,25.0439
2005-02-09,25.0984
2005-02-10,25.1217
2005-02-11,25.4951
2005-02-14,25.4951
2005-02-15,25.5807
2005-02-16,25.4796
2005-02-17,25.4329
2005-02-18,25.394
2005-02-22,25.1295
2005-02-23,24.9583
2005-02-24,25.0672
2005-02-25,25.2073
2005-02-28,25.0361
2005-03-01,25.5185
2005-03-02,25.4562
2005-03-03,25.7674
2005-03-04,26.2187
2005-03-07,26.4054
2005-03-08,26.2576
2005-03-09,25.9697
2005-03-10,26.0942
2005-03-11,25.7908
2005-03-14,26.1175
2005-03-15,25.9464
2005-03-16,25.6274
2005-03-17,25.8764
2005-03-18,25.5418
2005-03-21,25.4951
2005-03-22,25.1061
2005-03-23,25.1762
2005-03-24,24.9894
2005-03-28,25.0906
2005-03-29,24.9817
2005-03-30,25.3473
2005-03-31,25.1606
2005-04-01,25.1373
2005-04-04,25.1217
2005-04-05,25.2073
2005-04-06,25.4407
2005-04-07,25.4796
2005-04-08,25.3318
2005-04-11,25.1061
2005-04-12,25.5574
2005-04-13,24.9116
2005-04-14,24.6004
2005-04-15,25.3551
2005-04-18,25.1061
2005-04-19,25.1295
2005-04-20,24.8883
2005-04-21,25.145
2005-04-22,25.2851
2005-04-25,25.5885
2005-04-26,25.4796
2005-04-27,25.853
2005-04-28,25.8372
2005-04-29,26.3166
2005-05-02,26.4817
2005-05-03,26.3559
2005-05-04,26.9533
2005-05-05,26.749
2005-05-06,26.2223
2005-05-09,26.466
2005-05-10,26.1359
2005-05-11,26.3245
2005-05-12,25.9944
2005-05-13,25.8214
2005-05-16,26.4581
2005-05-17,26.7018
2005-05-18,27.0084
2005-05-19,26.9612
2005-05-20,26.6625
2005-05-23,26.5682
2005-05-24,26.3874
2005-05-25,26.2852
2005-05-26,26.3481
2005-05-27,26.5053
2005-05-31,26.4817
2005-06-01,26.7726
2005-06-02,26.7018
2005-06-03,26.411
2005-06-06,26.4267
2005-06-07,26.3402
2005-06-08,26.3402
2005-06-09,26.3166
2005-06-10,26.2538
2005-06-13,26.2459
2005-06-14,26.2773
2005-06-15,26.3795
2005-06-16,26.4896
2005-06-17,26.7175
2005-06-20,26.7961
2005-06-21,26.6861
2005-06-22,26.9298
2005-06-23,26.6075
2005-06-24,26.5839
2005-06-27,26.6861
2005-06-28,26.9062
2005-06-29,26.9926
2005-06-30,26.6468
2005-07-01,26.8354
2005-07-05,27.1105
2005-07-06,26.7804
2005-07-07,26.8433
2005-07-08,27.197
2005-07-11,27.3621
2005-07-12,27.5114
2005-07-13,27.6215
2005-07-14,27.7708
2005-07-15,27.3542
2005-07-18,26.9612
2005-07-19,27.1341
2005-07-20,27.2363
2005-07-21,27.0634
2005-07-22,27.0084
2005-07-25,26.9062
2005-07-26,27.0162
2005-07-27,26.9298
2005-07-28,27.0411
2005-07-29,26.6997
2005-08-01,26.7156
2005-08-02,26.8188
2005-08-03,26.8346
2005-08-04,26.525
2005-08-05,26.1201
2005-08-08,26.1598
2005-08-09,26.3424
2005-08-10,26.3821
2005-08-11,26.5171
2005-08-12,26.3424
2005-08-15,26.4615
2005-08-16,26.1916
2005-08-17,26.2471
2005-08-18,26.1519
2005-08-19,26.271
2005-08-22,26.4139
2005-08-23,26.1519
2005-08-24,25.9375
2005-08-25,25.9693
2005-08-26,25.5564
2005-08-29,25.7946
2005-08-30,25.9613
2005-08-31,25.9375
2005-09-01,25.747
2005-09-02,25.8184
2005-09-06,26.0645
2005-09-07,25.9137
2005-09-08,25.6755
2005-09-09,25.8343
2005-09-12,25.8581
2005-09-13,25.5406
2005-09-14,25.4215
2005-09-15,25.5644
2005-09-16,25.9137
2005-09-19,25.5406
2005-09-20,25.5247
2005-09-21,25.0642
2005-09-22,25.0721
2005-09-23,25.2071
2005-09-26,24.8895
2005-09-27,24.7625
2005-09-28,24.6037
2005-09-29,24.8181
2005-09-30,24.6911
2005-10-03,24.6434
2005-10-04,23.9765
2005-10-05,23.8892
2005-10-06,23.913
2005-10-07,24.0242
2005-10-10,23.6907
2005-10-11,23.4525
2005-10-12,23.4763
2005-10-13,23.6589
2005-10-14,25.3262
2005-10-17,24.9134
2005-10-18,24.5402
2005-10-19,25.1118
2005-10-20,25.0007
2005-10-21,25.2865
2005-10-24,25.9931
2005-10-25,25.6676
2005-10-26,25.6835
2005-10-27,25.5961
2005-10-28,26.038
2005-10-31,26.1343
2005-11-01,26.0941
2005-11-02,26.4632
2005-11-03,26.2305
2005-11-04,26.391
2005-11-07,26.7922
2005-11-08,26.7441
2005-11-09,26.7922
2005-11-10,27.1694
2005-11-11,27.2656
2005-11-14,27.1212
2005-11-15,26.8965
2005-11-16,26.8243
2005-11-17,27.2737
2005-11-18,27.2576
2005-11-21,27.386
2005-11-22,27.37
2005-11-23,27.4582
2005-11-25,27.5786
2005-11-28,27.5706
2005-11-29,27.394
2005-11-30,27.0249
2005-12-01,27.4341
2005-12-02,27.4823
2005-12-05,27.2095
2005-12-06,27.1854
2005-12-07,26.9126
2005-12-08,26.8083
2005-12-09,27.1453
2005-12-12,27.049
2005-12-13,27.4181
2005-12-14,27.5625
2005-12-15,27.5304
2005-12-16,28.0039
2005-12-19,27.7551
2005-12-20,27.8193
2005-12-21,27.8674
2005-12-22,27.8594
2005-12-23,27.9798
2005-12-27,27.7391
2005-12-28,27.6989
2005-12-29,27.5625
2005-12-30,27.4101
2006-01-03,27.6508
2006-01-04,27.7391
2006-01-05,27.9637
2006-01-06,28.0039
2006-01-09,28.1724
2006-01-10,28.1162
2006-01-11,27.8995
2006-01-12,27.4823
2006-01-13,27.8353
2006-01-17,27.5786
2006-01-18,27.7551
2006-01-19,28.0199
2006-01-20,27.0169
2006-01-23,26.9447
2006-01-24,26.9848
2006-01-25,26.9367
2006-01-26,27.1613
2006-01-27,27.3619
2006-01-30,27.1106
2006-01-31,26.9647
2006-02-01,27.1511
2006-02-02,27.0295
2006-02-03,26.8593
2006-02-06,26.9971
2006-02-07,26.8917
2006-02-08,27.0863
2006-02-09,27.2241
2006-02-10,27.4268
2006-02-13,27.4349
2006-02-14,27.8321
2006-02-15,28.0186
2006-02-16,28.2456
2006-02-17,28.2699
2006-02-21,28.051
2006-02-22,28.5618
2006-02-23,28.3591
2006-02-24,28.4564
2006-02-27,28.6023
2006-02-28,28.197
2006-03-01,28.3267
2006-03-02,28.0916
2006-03-03,27.9375
2006-03-06,27.8078
2006-03-07,27.9862
2006-03-08,28.1727
2006-03-09,27.9862
2006-03-10,28.2943
2006-03-13,28.4321
2006-03-14,28.805
2006-03-15,28.9753
2006-03-16,29.0726
2006-03-17,29.1861
2006-03-20,29.4374
2006-03-21,29.2752
2006-03-22,29.259
2006-03-23,29.1779
2006-03-24,29.105
2006-03-27,29.0158
2006-03-28,28.7888
2006-03-29,28.7726
2006-03-30,28.4969
2006-03-31,28.5375
2006-04-03,28.5213
2006-04-04,28.7888
2006-04-05,28.578
2006-04-06,28.4807
2006-04-07,28.278
2006-04-10,28.7564
2006-04-11,28.4321
2006-04-12,28.5537
2006-04-13,28.6834
2006-04-17,28.8212
2006-04-18,29.0563
2006-04-19,28.8293
2006-04-20,28.8618
2006-04-21,28.9266
2006-04-24,28.9509
2006-04-25,28.7807
2006-04-26,29.0401
2006-04-27,29.572
2006-04-28,29.8667
2006-05-01,29.4492
2006-05-02,29.4573
2006-05-03,29.4082
2006-05-04,29.5556
2006-05-05,29.7766
2006-05-08,29.8258
2006-05-09,29.8667
2006-05-10,29.7357
2006-05-11,29.3345
2006-05-12,29.1954
2006-05-15,29.5392
2006-05-16,29.6293
2006-05-17,29.3837
2006-05-18,29.1053
2006-05-19,29.2936
2006-05-22,29.31
2006-05-23,29.2199
2006-05-24,29.0807
2006-05-25,28.172
2006-05-26,28.1392
2006-05-30,27.6726
2006-05-31,27.7135
2006-06-01,28.0983
2006-06-02,28.1228
2006-06-05,27.7954
2006-06-06,27.7135
2006-06-07,27.8199
2006-06-08,27.8854
2006-06-09,27.8854
2006-06-12,27.779
2006-06-13,27.5579
2006-06-14,27.2386
2006-06-15,27.6152
2006-06-16,27.648
2006-06-19,27.4433
2006-06-20,27.5416
2006-06-21,27.4433
2006-06-22,27.3451
2006-06-23,26.9603
2006-06-26,27.0421
2006-06-27,26.7883
2006-06-28,26.9439
2006-06-29,27.255
2006-06-30,27.1404
2006-07-03,27.5088
2006-07-05,27.1649
2006-07-06,27.1813
2006-07-07,27.1977
2006-07-10,27.2878
2006-07-11,27.4024
2006-07-12,26.8047
2006-07-13,26.5673
2006-07-14,27.9264
2006-07-17,29.0152
2006-07-18,29.0971
2006-07-19,29.6457
2006-07-20,29.4246
2006-07-21,29.3591
2006-07-24,29.703
2006-07-25,29.662
2006-07-26,30.1205
2006-07-27,29.6866
2006-07-28,30.29
2006-07-31,29.9676
2006-08-01,30.2404
2006-08-02,30.3479
2006-08-03,30.4471
2006-08-04,30.5793
2006-08-07,30.4719
2006-08-08,30.0916
2006-08-09,29.9593
2006-08-10,30.1991
2006-08-11,30.1247
2006-08-14,29.7857
2006-08-15,30.3561
2006-08-16,30.3892
2006-08-17,30.4719
2006-08-18,30.3148
2006-08-21,30.29
2006-08-22,30.4801
2006-08-23,30.4057
2006-08-24,30.5959
2006-08-25,30.3396
2006-08-28,30.0833
2006-08-29,29.8684
2006-08-30,29.8518
2006-08-31,29.7609
2006-09-01,29.8766
2006-09-05,29.9593
2006-09-06,30.0255
2006-09-07,29.8022
2006-09-08,29.918
2006-09-11,29.8353
2006-09-12,30.0668
2006-09-13,30.2983
2006-09-14,30.4057
2006-09-15,30.5628
2006-09-18,30.2652
2006-09-19,30.1495
2006-09-20,30.2817
2006-09-21,30.0916
2006-09-22,29.9924
2006-09-25,30.1412
2006-09-26,30.5711
2006-09-27,30.5876
2006-09-28,30.662
2006-09-29,30.4388
2006-10-02,30.3396
2006-10-03,30.5711
2006-10-04,30.9431
2006-10-05,31.2076
2006-10-06,31.2903
2006-10-09,31.1498
2006-10-10,31.1663
2006-10-11,31.282
2006-10-12,31.406
2006-10-13,32.1087
2006-10-16,31.9764
2006-10-17,31.9764
2006-10-18,31.7202
2006-10-19,31.4474
2006-10-20,31.3647
2006-10-23,31.3895
2006-10-24,31.4474
2006-10-25,31.4226
2006-10-26,31.5218
2006-10-27,31.406
2006-10-30,31.59
2006-10-31,31.6484
2006-11-01,31.5149
2006-11-02,31.1561
2006-11-03,31.0727
2006-11-06,31.3897
2006-11-07,31.348
2006-11-08,31.1644
2006-11-09,31.0476
2006-11-10,31.1144
2006-11-13,30.8724
2006-11-14,30.8641
2006-11-15,30.6638
2006-11-16,30.8974
2006-11-17,30.8807
2006-11-20,30.8807
2006-11-21,30.4969
2006-11-22,30.7055
2006-11-24,31.0643
2006-11-27,30.3384
2006-11-28,30.4385
2006-11-29,30.7389
2006-11-30,30.5887
2006-12-01,30.6471
2006-12-04,30.7222
2006-12-05,30.7222
2006-12-06,30.6555
2006-12-07,30.6137
2006-12-08,30.6054
2006-12-11,30.4719
2006-12-12,30.6638
2006-12-13,30.9392
2006-12-14,31.1561
2006-12-15,31.1478
2006-12-18,31.2145
2006-12-19,31.2563
2006-12-20,31.2816
2006-12-21,31.349
2006-12-22,31.408
2006-12-26,31.6439
2006-12-27,31.8882
2006-12-28,31.6944
2006-12-29,31.4922
2007-01-03,32.0567
2007-01-04,31.8882
2007-01-05,31.3321
2007-01-08,31.1047
2007-01-09,31.1889
2007-01-10,31.3237
2007-01-11,31.3911
2007-01-12,31.2058
2007-01-16,31.0625
2007-01-17,30.9025
2007-01-18,31.3406
2007-01-19,30.7003
2007-01-22,30.5739
2007-01-23,30.2537
2007-01-24,30.4981
2007-01-25,30.3548
2007-01-26,30.4391
2007-01-29,30.5739
2007-01-30,30.5065
2007-01-31,30.5233
2007-02-01,30.5149
2007-02-02,30.7087
2007-02-05,30.9783
2007-02-06,31.2142
2007-02-07,31.3743
2007-02-08,31.4669
2007-02-09,31.2479
2007-02-12,31.2479
2007-02-13,31.4248
2007-02-14,31.4417
2007-02-15,31.3911
2007-02-16,31.4922
2007-02-20,31.6439
2007-02-21,31.349
2007-02-22,31.5175
2007-02-23,31.2226
2007-02-26,30.9025
2007-02-27,29.8746
2007-02-28,30.1527
2007-03-01,30.06
2007-03-02,29.7314
2007-03-05,29.2259
2007-03-06,30.0179
2007-03-07,29.5882
2007-03-08,29.7988
2007-03-09,29.9673
2007-03-12,30.0094
2007-03-13,28.9816
2007-03-14,29.2596
2007-03-15,29.4636
2007-03-16,29.4295
2007-03-19,29.7701
2007-03-20,30.0935
2007-03-21,30.9363
2007-03-22,30.7661
2007-03-23,30.7831
2007-03-26,30.6469
2007-03-27,30.4426
2007-03-28,29.7615
2007-03-29,30.2893
2007-03-30,30.0935
2007-04-02,29.5913
2007-04-03,30.0595
2007-04-04,30.0425
2007-04-05,30.051
2007-04-09,29.5828
2007-04-10,29.6338
2007-04-11,29.2763
2007-04-12,29.2337
2007-04-13,29.4976
2007-04-16,29.4295
2007-04-17,29.106
2007-04-18,29.7871
2007-04-19,29.7275
2007-04-20,30.2638
2007-04-23,30.068
2007-04-24,29.8296
2007-04-25,30.2468
2007-04-26,30.1616
2007-04-27,30.1021
2007-04-30,29.8552
2007-05-01,29.8467
2007-05-02,29.8467
2007-05-03,30.4937
2007-05-04,30.5192
2007-05-07,30.698
2007-05-08,30.4426
2007-05-09,30.8342
2007-05-10,30.4256
2007-05-11,30.7661
2007-05-14,30.4851
2007-05-15,30.6128
2007-05-16,30.9108
2007-05-17,30.8853
2007-05-18,31.0811
2007-05-21,30.8767
2007-05-22,30.6554
2007-05-23,30.383
2007-05-24,30.2553
2007-05-25,30.5277
2007-05-29,30.417
2007-05-30,30.3404
2007-05-31,30.3574
2007-06-01,30.5277
2007-06-04,30.3489
2007-06-05,30.0169
2007-06-06,29.7615
2007-06-07,29.2678
2007-06-08,29.3699
2007-06-11,29.387
2007-06-12,28.9613
2007-06-13,29.2422
2007-06-14,29.38
2007-06-15,29.7069
2007-06-18,29.5778
2007-06-19,29.5348
2007-06-20,29.3456
2007-06-21,29.3111
2007-06-22,28.8638
2007-06-25,28.6143
2007-06-26,28.6917
2007-06-27,28.8638
2007-06-28,28.8982
2007-06-29,28.4336
2007-07-02,29.1649
2007-07-03,29.3111
2007-07-05,29.1563
2007-07-06,29.0617
2007-07-09,28.924
2007-07-10,28.4164
2007-07-11,28.3906
2007-07-12,29.1907
2007-07-13,29.2767
2007-07-16,29.466
2007-07-17,28.9068
2007-07-18,28.6229
2007-07-19,28.4336
2007-07-20,28.0551
2007-07-23,27.9174
2007-07-24,27.255
2007-07-25,27.4701
2007-07-26,26.7216
2007-07-27,26.0677
2007-07-30,26.5151
2007-07-31,25.8871
2007-08-01,26.3344
2007-08-02,26.257
2007-08-03,24.9923
2007-08-06,26.3344
2007-08-07,26.713
2007-08-08,27.2894
2007-08-09,25.9731
2007-08-10,26.4033
2007-08-13,26.1796
2007-08-14,25.4311
2007-08-15,24.9493
2007-08-16,26.2398
2007-08-17,27.5991
2007-08-20,27.84
2007-08-21,27.9432
2007-08-22,28.1927
2007-08-23,28.0551
2007-08-24,28.0895
2007-08-27,27.5045
2007-08-28,26.5753
2007-08-29,27.0743
2007-08-30,26.8936
2007-08-31,26.9625
2007-09-04,26.9453
2007-09-05,26.4119
2007-09-06,26.5323
2007-09-07,26.1882
2007-09-10,26.0247
2007-09-11,26.5495
2007-09-12,26.5323
2007-09-13,26.8461
2007-09-14,26.8113
2007-09-17,26.7939
2007-09-18,27.9951
2007-09-19,27.8994
2007-09-20,27.3074
2007-09-21,26.5849
2007-09-24,26.1323
2007-09-25,25.6796
2007-09-26,25.7144
2007-09-27,26.0104
2007-09-28,25.6274
2007-10-01,26.4108
2007-10-02,26.6372
2007-10-03,26.6981
2007-10-04,26.7677
2007-10-05,27.0028
2007-10-08,26.7764
2007-10-09,26.9331
2007-10-10,26.3238
2007-10-11,26.0452
2007-10-12,25.6535
2007-10-15,25.3837
2007-10-16,24.8352
2007-10-17,24.4087
2007-10-18,23.4686
2007-10-19,22.9898
2007-10-22,23.19
2007-10-23,23.1813
2007-10-24,22.9201
2007-10-25,22.9985
2007-10-26,23.5121
2007-10-29,23.5034
2007-10-30,23.4599
2007-10-31,23.634
2007-11-01,22.4675
2007-11-02,21.9887
2007-11-05,21.8233
2007-11-06,22.215
2007-11-07,20.8136
2007-11-08,21.4403
2007-11-09,21.8233
2007-11-12,21.9452
2007-11-13,23.0681
2007-11-14,22.2325
2007-11-15,21.5012
2007-11-16,21.2053
2007-11-19,20.6569
2007-11-20,20.4741
2007-11-21,20.5002
2007-11-23,21.0834
2007-11-26,20.0214
2007-11-27,21.3968
2007-11-28,22.5545
2007-11-29,22.1541
2007-11-30,23.0246
2007-12-03,22.6329
2007-12-04,22.2847
2007-12-05,23.042
2007-12-06,23.3902
2007-12-07,22.9898
2007-12-10,23.8081
2007-12-11,22.2238
2007-12-12,21.4577
2007-12-13,21.2836
2007-12-14,20.9093
2007-12-17,21.1219
2007-12-18,21.2457
2007-12-19,20.9803
2007-12-20,20.9715
2007-12-21,21.5818
2007-12-24,21.7145
2007-12-26,21.6526
2007-12-27,21.2811
2007-12-28,20.8919
2007-12-31,20.883
2008-01-02,20.5735
2008-01-03,20.5823
2008-01-04,18.4418
2008-01-07,18.4064
2008-01-08,17.2389
2008-01-09,17.3274
2008-01-10,17.7077
2008-01-11,18.0703
2008-01-14,18.0084
2008-01-15,18.0084
2008-01-16,18.716
2008-01-17,17.3008
2008-01-18,17.0001
2008-01-22,17.7431
2008-01-23,19.2467
2008-01-24,19.8747
2008-01-25,20.1666
2008-01-28,20.9803
2008-01-29,22.1213
2008-01-30,21.4049
2008-01-31,22.2982
2008-02-01,22.7847
2008-02-04,22.1921
2008-02-05,21.4845
2008-02-06,20.883
2008-02-07,21.4314
2008-02-08,20.485
2008-02-11,20.3966
2008-02-12,20.9538
2008-02-13,20.8654
2008-02-14,20.1931
2008-02-15,20.3081
2008-02-19,19.9101
2008-02-20,20.5027
2008-02-21,19.8747
2008-02-22,20.4231
2008-02-25,20.4231
2008-02-26,20.485
2008-02-27,20.4939
2008-02-28,19.4059
2008-02-29,18.716
2008-03-03,18.2207
2008-03-04,18.4241
2008-03-05,18.5303
2008-03-06,17.6458
2008-03-07,17.9996
2008-03-10,17.6281
2008-03-11,19.3529
2008-03-12,18.9371
2008-03-13,18.9991
2008-03-14,18.2512
2008-03-17,17.5579
2008-03-18,17.9991
2008-03-19,18.3683
2008-03-20,19.5748
2008-03-24,19.908
2008-03-25,19.917
2008-03-26,19.0886
2008-03-27,18.5214
2008-03-28,17.666
2008-03-31,17.765
2008-04-01,19.3137
2008-04-02,19.5298
2008-04-03,19.6199
2008-04-04,18.8185
2008-04-07,19.0346
2008-04-08,18.5214
2008-04-09,18.1432
2008-04-10,17.9361
2008-04-11,17.801
2008-04-14,16.7115
2008-04-15,18.1252
2008-04-16,18.2602
2008-04-17,19.5658
2008-04-18,19.4218
2008-04-21,18.8815
2008-04-22,18.7465
2008-04-23,18.3323
2008-04-24,19.6919
2008-04-25,19.98
2008-04-28,20.0791
2008-04-29,20.1331
2008-04-30,19.7369
2008-05-01,20.7454
2008-05-02,21.1505
2008-05-05,20.6193
2008-05-06,20.5473
2008-05-07,19.7099
2008-05-08,19.3137
2008-05-09,19.0706
2008-05-12,19.6018
2008-05-13,19.2957
2008-05-14,19.0166
2008-05-15,19.1877
2008-05-16,18.1702
2008-05-19,17.756
2008-05-20,17.783
2008-05-21,17.0447
2008-05-22,17.2338
2008-05-23,16.8016
2008-05-27,17.1347
2008-05-28,16.3154
2008-05-29,16.7566
2008-05-30,16.0452
2008-06-02,15.568
2008-06-03,15.0278
2008-06-04,14.7937
2008-06-05,14.8927
2008-06-06,13.9203
2008-06-09,12.9208
2008-06-10,12.9749
2008-06-11,12.3266
2008-06-12,12.1645
2008-06-13,12.2947
2008-06-16,12.7487
2008-06-17,11.7666
2008-06-18,10.5622
2008-06-19,10.3213
2008-06-20,10.4139
2008-06-23,10.0618
2008-06-24,10.488
2008-06-25,10.7289
2008-06-26,10.2657
2008-06-27,9.9692
2008-06-30,10.0896
2008-07-01,10.6826
2008-07-02,9.83022
2008-07-03,9.58006
2008-07-07,8.91298
2008-07-08,10.0989
2008-07-09,8.93151
2008-07-10,8.774
2008-07-11,7.91235
2008-07-14,6.56892
2008-07-15,6.38362
2008-07-16,7.40278
2008-07-17,9.04269
2008-07-18,9.36697
2008-07-21,9.70051
2008-07-22,10.451
2008-07-23,10.9513
2008-07-24,9.39476
2008-07-25,8.47752
2008-07-28,8.05133
2008-07-29,8.81106
2008-07-30,8.99637
2008-07-31,8.774
2008-08-01,8.81106
2008-08-04,8.73694
2008-08-05,9.18167
2008-08-06,9.39476
2008-08-07,8.78327
2008-08-08,8.91298
2008-08-11,9.26505
2008-08-12,8.37561
2008-08-13,7.75485
2008-08-14,8.2459
2008-08-15,8.42193
2008-08-18,7.82897
2008-08-19,7.68999
2008-08-20,7.91235
2008-08-21,7.52322
2008-08-22,7.82897
2008-08-25,7.57881
2008-08-26,7.70852
2008-08-27,7.85676
2008-08-28,8.26443
2008-08-29,8.60723
2008-09-02,10.2564
2008-09-03,10.1916
2008-09-04,9.7283
2008-09-05,10.2657
2008-09-08,11.359
2008-09-09,10.6826
2008-09-10,10.4324
2008-09-11,10.3676
2008-09-12,10.8401
2008-09-15,10.6159
2008-09-16,10.9804
2008-09-17,10.2141
2008-09-18,12.27
2008-09-19,16.8116
2008-09-22,14.6343
2008-09-23,13.083
2008-09-24,12.3634
2008-09-25,13.0923
2008-09-26,13.7184
2008-09-29,9.37302
2008-09-30,9.31695
2008-10-01,9.93372
2008-10-02,11.1486
2008-10-03,12.7653
2008-10-06,11.2607
2008-10-07,10.2608
2008-10-08,9.31695
2008-10-09,7.19564
2008-10-10,8.41049
2008-10-13,8.29835
2008-10-14,10.6066
2008-10-15,10.4757
2008-10-16,10.7467
2008-10-17,10.0646
2008-10-20,9.92438
2008-10-21,10.5225
2008-10-22,9.99914
2008-10-23,9.17678
2008-10-24,8.3918
2008-10-27,9.28892
2008-10-28,10.7187
2008-10-29,10.7374
2008-10-30,10.0926
2008-10-31,10.3449
2008-11-03,10.971
2008-11-04,11.6812
2008-11-05,10.6439
2008-11-06,9.95241
2008-11-07,10.2701
2008-11-10,10.0272
2008-11-11,9.70944
2008-11-12,9.05529
2008-11-13,9.77486
2008-11-14,9.06464
2008-11-17,8.42918
2008-11-18,8.90577
2008-11-19,8.13014
2008-11-20,7.15826
2008-11-21,7.56944
2008-11-24,8.4946
2008-11-25,8.77495
2008-11-26,9.31695
2008-11-28,9.52254
2008-12-01,7.82176
2008-12-02,8.65346
2008-12-03,9.3263
2008-12-04,9.0366
2008-12-05,8.98988
2008-12-08,9.33564
2008-12-09,8.4759
2008-12-10,8.41049
2008-12-11,7.75634
2008-12-12,8.28901
2008-12-15,7.83543
2008-12-16,8.17569
2008-12-17,8.27021
2008-12-18,7.89214
2008-12-19,7.65585
2008-12-22,7.75037
2008-12-23,7.68421
2008-12-24,7.81653
2008-12-26,7.78818
2008-12-29,7.48572
2008-12-30,7.46682
2008-12-31,7.56134
2009-01-02,8.12844
2009-01-05,8.22295
2009-01-06,8.32692
2009-01-07,7.45737
2009-01-08,7.3723
2009-01-09,6.75794
2009-01-12,6.62562
2009-01-13,6.83356
2009-01-14,6.47439
2009-01-15,5.77497
2009-01-16,5.74662
2009-01-20,4.43283
2009-01-21,4.68803
2009-01-22,4.01696
2009-01-23,4.44228
2009-01-26,3.83738
2009-01-27,3.85628
2009-01-28,4.33832
2009-01-29,3.89409
2009-01-30,3.21357
2009-02-02,2.73153
2009-02-03,2.46689
2009-02-04,2.37237
2009-02-05,2.71263
2009-02-06,3.97915
2009-02-09,4.38557
2009-02-10,3.06234
2009-02-11,3.50657
2009-02-12,3.3837
2009-02-13,3.21357
2009-02-17,2.93947
2009-02-18,2.82605
2009-02-19,2.50469
2009-02-20,2.66537
2009-02-23,2.5425
2009-02-24,3.08124
2009-02-25,3.51602
2009-02-26,3.70505
2009-02-27,3.63889
2009-03-02,3.4026
2009-03-03,3.25137
2009-03-04,3.34589
2009-03-05,2.93947
2009-03-06,2.80715
2009-03-09,3.0907
2009-03-10,3.53492
2009-03-11,3.34589
2009-03-12,3.49712
2009-03-13,3.66725
2009-03-16,3.7155
2009-03-17,3.91923
2009-03-18,4.80202
2009-03-19,4.16175
2009-03-20,3.85132
2009-03-23,4.46249
2009-03-24,4.23936
2009-03-25,4.6177
2009-03-26,4.41398
2009-03-27,4.24906
2009-03-30,3.82222
2009-03-31,4.10355
2009-04-01,4.24906
2009-04-02,4.24906
2009-04-03,4.37518
2009-04-06,4.16175
2009-04-07,3.89012
2009-04-08,3.73491
2009-04-09,4.16175
2009-04-13,4.86023
2009-04-14,4.5983
2009-04-15,4.84083
2009-04-16,6.4706
2009-04-17,7.01386
2009-04-20,5.67512
2009-04-21,5.97585
2009-04-22,5.64601
2009-04-23,5.67512
2009-04-24,5.34528
2009-04-27,4.77292
2009-04-28,4.5692
2009-04-29,4.52069
2009-04-30,4.34607
2009-05-01,4.27817
2009-05-04,5.36468
2009-05-05,5.29678
2009-05-06,5.65571
2009-05-07,5.07365
2009-05-08,6.31539
2009-05-11,5.73332
2009-05-12,5.18036
2009-05-13,4.5983
2009-05-14,4.81172
2009-05-15,4.65651
2009-05-18,5.26767
2009-05-19,5.05425
2009-05-20,4.71471
2009-05-21,4.03564
2009-05-22,3.89012
2009-05-26,3.7155
2009-05-27,3.83192
2009-05-28,3.91923
2009-05-29,4.01624
2009-06-01,3.90953
2009-06-02,3.88042
2009-06-03,3.92893
2009-06-04,3.97743
2009-06-05,3.89982
2009-06-08,3.94833
2009-06-09,3.92893
2009-06-10,3.89012
2009-06-11,4.21996
2009-06-12,4.29757
2009-06-15,4.21972
2009-06-16,4.11277
2009-06-17,3.88914
2009-06-18,3.96692
2009-06-19,4.02526
2009-06-22,3.71413
2009-06-23,3.66552
2009-06-24,3.71413
2009-06-25,3.8308
2009-06-26,3.80164
2009-06-29,3.92803
2009-06-30,3.88914
2009-07-01,3.85997
2009-07-02,3.69468
2009-07-06,3.70441
2009-07-07,3.72385
2009-07-08,3.68496
2009-07-09,3.69468
2009-07-10,3.79191
2009-07-13,3.93776
2009-07-14,3.97665
2009-07-15,4.11277
2009-07-16,4.09332
2009-07-17,3.91831
2009-07-20,3.89886
2009-07-21,3.32522
2009-07-22,3.403
2009-07-23,3.56829
2009-07-24,3.59746
2009-07-27,3.92803
2009-07-28,3.81136
2009-07-29,3.77247
2009-07-30,4.12249
2009-07-31,4.28778
2009-08-03,4.30722
2009-08-04,4.48224
2009-08-05,4.58919
2009-08-06,4.48224
2009-08-07,4.78364
2009-08-10,4.87115
2009-08-11,4.62808
2009-08-12,4.64752
2009-08-13,5.04616
2009-08-14,5.46424
2009-08-17,5.11422
2009-08-18,5.25034
2009-08-19,5.37674
2009-08-20,5.33785
2009-08-21,5.70731
2009-08-24,5.52258
2009-08-25,5.67815
2009-08-26,5.6587
2009-08-27,5.74621
2009-08-28,5.80454
2009-08-31,5.66842
2009-09-01,5.38646
2009-09-02,5.05588
2009-09-03,5.08505
2009-09-04,5.38646
2009-09-08,5.4448
2009-09-09,5.49341
2009-09-10,5.4448
2009-09-11,5.35729
2009-09-14,5.36702
2009-09-15,5.90275
2009-09-16,6.18522
2009-09-17,6.07807
2009-09-18,5.98067
2009-09-21,6.37029
2009-09-22,6.63328
2009-09-23,6.42873
2009-09-24,6.19496
2009-09-25,6.2047
2009-09-28,6.40925
2009-09-29,6.29237
2009-09-30,6.00989
2009-10-01,5.80534
2009-10-02,5.63001
2009-10-05,5.7956
2009-10-06,5.7469
2009-10-07,5.8443
2009-10-08,5.78586
2009-10-09,5.81508
2009-10-12,5.85404
2009-10-13,5.81508
2009-10-14,5.95145
2009-10-15,5.92223
2009-10-16,5.68845
2009-10-19,5.56183
2009-10-20,5.67871
2009-10-21,5.57157
2009-10-22,5.64949
2009-10-23,5.39624
2009-10-26,4.98714
2009-10-27,4.9287
2009-10-28,4.7144
2009-10-29,5.04558
2009-10-30,4.72414
2009-11-02,4.63648
2009-11-03,4.69492
2009-11-04,4.53907
2009-11-05,4.69492
2009-11-06,4.62674
2009-11-09,4.83129
2009-11-10,4.69492
2009-11-11,4.70466
2009-11-12,4.6657
2009-11-13,4.70466
2009-11-16,4.80207
2009-11-17,5.05532
2009-11-18,5.25013
2009-11-19,5.21117
2009-11-20,5.29883
2009-11-23,5.54235
2009-11-24,5.59105
2009-11-25,5.65923
2009-11-27,5.4352
2009-11-30,5.69819
2009-12-01,5.63975
2009-12-02,5.69819
2009-12-03,5.36702
2009-12-04,5.55209
2009-12-07,5.49364
2009-12-08,5.52287
2009-12-09,5.40598
2009-12-10,5.3865
2009-12-11,5.41572
2009-12-14,5.4352
2009-12-15,5.21077
2009-12-16,5.18149
2009-12-17,5.20101
2009-12-18,5.3181
2009-12-21,5.34738
2009-12-22,5.40593
2009-12-23,5.2498
2009-12-24,5.29859
2009-12-28,5.21077
2009-12-29,5.24004
2009-12-30,5.19125
2009-12-31,5.17173
2010-01-04,5.29859
2010-01-05,5.46447
2010-01-06,5.53278
2010-01-07,6.02068
2010-01-08,6.0402
2010-01-11,6.16705
2010-01-12,6.09874
2010-01-13,6.19632
2010-01-14,6.38173
2010-01-15,6.36221
2010-01-19,6.36221
2010-01-20,6.56713
2010-01-21,6.69398
2010-01-22,6.44027
2010-01-25,6.37197
2010-01-26,5.95237
2010-01-27,6.01092
2010-01-28,6.28415
2010-01-29,6.18657
2010-02-01,6.46955
2010-02-02,6.40124
2010-02-03,6.21584
2010-02-04,5.96213
2010-02-05,6.02068
2010-02-08,6.07923
2010-02-09,6.14753
2010-02-10,6.21584
2010-02-11,6.23536
2010-02-12,6.19632
2010-02-16,6.44027
2010-02-17,6.28415
2010-02-18,6.26463
2010-02-19,6.411
2010-02-22,6.65495
2010-02-23,6.35245
2010-02-24,6.47931
2010-02-25,6.37197
2010-02-26,6.58664
2010-03-01,6.47931
2010-03-02,6.45003
2010-03-03,6.45979
2010-03-04,6.49882
2010-03-05,6.66471
2010-03-08,6.81108
2010-03-09,6.73301
2010-03-10,7.11357
2010-03-11,7.19164
2010-03-12,7.15261
2010-03-15,7.07454
2010-03-16,7.3384
2010-03-17,7.52406
2010-03-18,7.32863
2010-03-19,7.24068
2010-03-22,7.44589
2010-03-23,7.53383
2010-03-24,7.69994
2010-03-25,7.51429
2010-03-26,7.45566
2010-03-29,7.44589
2010-03-30,7.45566
2010-03-31,7.66086
2010-04-01,7.58269
2010-04-05,8.00286
2010-04-06,8.36441
2010-04-07,8.18852
2010-04-08,8.40349
2010-04-09,8.39372
2010-04-12,8.52075
2010-04-13,8.14943
2010-04-14,8.62824
2010-04-15,8.32532
2010-04-16,8.12012
2010-04-19,8.12989
2010-04-20,8.58915
2010-04-21,8.58915
2010-04-22,8.71618
2010-04-23,8.7455
2010-04-26,8.46212
2010-04-27,8.25692
2010-04-28,8.29601
2010-04-29,8.45235
2010-04-30,8.63801
2010-05-03,8.62824
2010-05-04,8.39372
2010-05-05,8.47189
2010-05-06,8.0224
2010-05-07,7.83675
2010-05-10,8.31555
2010-05-11,8.48167
2010-05-12,8.59892
2010-05-13,8.55007
2010-05-14,8.07126
2010-05-17,8.09081
2010-05-18,7.72926
2010-05-19,7.63154
2010-05-20,7.12343
2010-05-21,7.29931
2010-05-24,7.04525
2010-05-25,7.28954
2010-05-26,7.23091
2010-05-27,7.69994
2010-05-28,7.45566
2010-06-01,7.25046
2010-06-02,7.49474
2010-06-03,7.46543
2010-06-04,6.95731
2010-06-07,6.75211
2010-06-08,6.93777
2010-06-09,6.64462
2010-06-10,6.98663
2010-06-11,6.87914
2010-06-14,7.01594
2010-06-15,7.1921
2010-06-16,7.00618
2010-06-17,6.9964
2010-06-18,6.98661
2010-06-21,7.01597
2010-06-22,6.84962
2010-06-23,6.91812
2010-06-24,6.6637
2010-06-25,6.83005
2010-06-28,6.9279
2010-06-29,6.61478
2010-06-30,6.43864
2010-07-01,6.25273
2010-07-02,6.10595
2010-07-06,6.26251
2010-07-07,6.47779
2010-07-08,6.69306
2010-07-09,6.9964
2010-07-12,7.08447
2010-07-13,7.22146
2010-07-14,6.97683
2010-07-15,6.85941
2010-07-16,6.40929
2010-07-19,6.52671
2010-07-20,6.42886
2010-07-21,6.06681
2010-07-22,6.45821
2010-07-23,6.49736
2010-07-26,6.93769
2010-07-27,7.05511
2010-07-28,7.13339
2010-07-29,7.22146
2010-07-30,7.18232
2010-08-02,7.53458
2010-08-03,7.41716
2010-08-04,7.43673
2010-08-05,7.28995
2010-08-06,7.23124
2010-08-09,7.43673
2010-08-10,7.51501
2010-08-11,7.01597
2010-08-12,6.98661
2010-08-13,6.98661
2010-08-16,7.01597
2010-08-17,6.98661
2010-08-18,7.0649
2010-08-19,6.79091
2010-08-20,6.68327
2010-08-23,6.70284
2010-08-24,6.41907
2010-08-25,6.35058
2010-08-26,6.2038
2010-08-27,6.45821
2010-08-30,6.26251
2010-08-31,6.29187
2010-09-01,6.69306
2010-09-02,6.78113
2010-09-03,6.74198
2010-09-07,6.41907
2010-09-08,6.72241
2010-09-09,6.76156
2010-09-10,6.7322
2010-09-13,7.12361
2010-09-14,6.98661
2010-09-15,6.84943
2010-09-16,6.80044
2010-09-17,6.70245
2010-09-20,6.90823
2010-09-21,6.94742
2010-09-22,6.78084
2010-09-23,6.62406
2010-09-24,6.80044
2010-09-27,6.83963
2010-09-28,6.95722
2010-09-29,7.05521
2010-09-30,7.1336
2010-10-01,7.04541
2010-10-04,7.1042
2010-10-05,7.38837
2010-10-06,7.33938
2010-10-07,7.21199
2010-10-08,7.27079
2010-10-11,7.1728
2010-10-12,7.31978
2010-10-13,7.1434
2010-10-14,7.03561
2010-10-15,6.91803
2010-10-18,7.20219
2010-10-19,7.20219
2010-10-20,7.114
2010-10-21,7.1336
2010-10-22,6.99642
2010-10-25,6.88863
2010-10-26,6.33989
2010-10-27,6.2419
2010-10-28,6.17331
2010-10-29,6.2027
2010-11-01,6.11451
2010-11-02,5.98713
2010-11-03,6.17331
2010-11-04,6.39868
2010-11-05,6.32029
2010-11-08,6.2223
2010-11-09,6.08512
2010-11-10,6.13411
2010-11-11,6.2811
2010-11-12,6.03612
2010-11-15,6.07532
2010-11-16,5.81075
2010-11-17,5.42859
2010-11-18,5.20322
2010-11-19,5.3698
2010-11-22,5.24241
2010-11-23,5.11503
2010-11-24,5.13462
2010-11-26,5.19342
2010-11-29,5.26201
2010-11-30,5.26201
2010-12-01,5.55598
2010-12-02,5.94793
2010-12-03,5.96753
2010-12-06,5.93813
2010-12-07,5.89894
2010-12-08,6.2125
2010-12-09,6.36929
2010-12-10,6.33989
2010-12-13,6.41828
2010-12-14,6.08512
2010-12-15,6.18326
2010-12-16,6.02623
2010-12-17,6.13419
2010-12-20,6.19308
2010-12-21,6.32067
2010-12-22,6.78196
2010-12-23,6.63474
2010-12-27,6.63474
2010-12-28,6.674
2010-12-29,6.72307
2010-12-30,6.78196
2010-12-31,6.87029
2011-01-03,6.92918
2011-01-04,6.90955
2011-01-05,7.0764
2011-01-06,7.0077
2011-01-07,6.88992
2011-01-10,6.91937
2011-01-11,7.0764
2011-01-12,7.13529
2011-01-13,7.10584
2011-01-14,7.3414
2011-01-18,7.41992
2011-01-19,7.0077
2011-01-20,7.08622
2011-01-21,7.26288
2011-01-24,7.15492
2011-01-25,6.89974
2011-01-26,6.86048
2011-01-27,7.03714
2011-01-28,6.7427
2011-01-31,6.96844
2011-02-01,7.16473
2011-02-02,7.11566
2011-02-03,7.39047
2011-02-04,7.69473
2011-02-07,7.65547
2011-02-08,7.64565
2011-02-09,7.45917
2011-02-10,7.57695
2011-02-11,7.87139
2011-02-14,7.76343
2011-02-15,7.68491
2011-02-16,7.61621
2011-02-17,7.55732
2011-02-18,7.63584
2011-02-22,7.25307
2011-02-23,7.25307
2011-02-24,7.26288
2011-02-25,7.41992
2011-02-28,7.48862
2011-03-01,7.29232
2011-03-02,7.33158
2011-03-03,7.51806
2011-03-04,7.3414
2011-03-07,7.27269
2011-03-08,7.49843
2011-03-09,7.58677
2011-03-10,7.20399
2011-03-11,7.36103
2011-03-14,7.26288
2011-03-15,7.18436
2011-03-16,7.07624
2011-03-17,7.23349
2011-03-18,6.99761
2011-03-21,7.11555
2011-03-22,7.18435
2011-03-23,7.03693
2011-03-24,6.99761
2011-03-25,7.05658
2011-03-28,7.01727
2011-03-29,7.0271
2011-03-30,7.09589
2011-03-31,7.12538
2011-04-01,7.16469
2011-04-04,7.17452
2011-04-05,7.07624
2011-04-06,7.30228
2011-04-07,7.204
2011-04-08,7.14504
2011-04-11,7.13521
2011-04-12,7.15486
2011-04-13,7.09589
2011-04-14,7.12538
2011-04-15,7.05658
2011-04-18,6.86002
2011-04-19,7.05658
2011-04-20,6.94847
2011-04-21,7.0271
2011-04-25,7.0271
2011-04-26,7.23349
2011-04-27,7.25314
2011-04-28,7.31211
2011-04-29,7.204
2011-05-02,7.22366
2011-05-03,7.24332
2011-05-04,7.25314
2011-05-05,6.98779
2011-05-06,6.9583
2011-05-09,7.00744
2011-05-10,7.01727
2011-05-11,7.01727
2011-05-12,7.05658
2011-05-13,6.92882
2011-05-16,7.00744
2011-05-17,7.12538
2011-05-18,6.99761
2011-05-19,6.97796
2011-05-20,6.84036
2011-05-23,6.72243
2011-05-24,6.65363
2011-05-25,6.69294
2011-05-26,6.82071
2011-05-27,6.86002
2011-05-31,6.92882
2011-06-01,6.43741
2011-06-02,6.43741
2011-06-03,6.24085
2011-06-06,5.95583
2011-06-07,5.97549
2011-06-08,6.04429
2011-06-09,6.00497
2011-06-10,6.04429
2011-06-13,5.95583
2011-06-14,6.14257
2011-06-15,6.03427
2011-06-16,6.07364
2011-06-17,6.17208
2011-06-20,6.10317
2011-06-21,6.21146
2011-06-22,6.11302
2011-06-23,6.07364
2011-06-24,5.84724
2011-06-27,5.84724
2011-06-28,5.84724
2011-06-29,6.0638
2011-06-30,6.11302
2011-07-01,6.21146
2011-07-05,6.07364
2011-07-06,5.92599
2011-07-07,6.0638
2011-07-08,6.07364
2011-07-11,5.80786
2011-07-12,5.89645
2011-07-13,5.84724
2011-07-14,5.79802
2011-07-15,5.88661
2011-07-18,5.7488
2011-07-19,5.80786
2011-07-20,5.93583
2011-07-21,6.14255
2011-07-22,6.12286
2011-07-25,6.10317
2011-07-26,6.31974
2011-07-27,6.03427
2011-07-28,6.07364
2011-07-29,6.02442
2011-08-01,5.83739
2011-08-02,5.62083
2011-08-03,5.67989
2011-08-04,5.27629
2011-08-05,5.0302
2011-08-08,4.36082
2011-08-09,4.68566
2011-08-10,4.1541
2011-08-11,4.41988
2011-08-12,4.24269
2011-08-15,4.4691
2011-08-16,4.33128
2011-08-17,4.4691
2011-08-18,4.12456
2011-08-19,3.78987
2011-08-22,3.83909
2011-08-23,3.95722
2011-08-24,4.10488
2011-08-25,3.99659
2011-08-26,4.05566
2011-08-29,4.3805
2011-08-30,4.41004
2011-08-31,4.4691
2011-09-01,4.24269
2011-09-02,4.07535
2011-09-06,3.83909
2011-09-07,4.3116
2011-09-08,4.13441
2011-09-09,3.92769
2011-09-12,3.93753
2011-09-13,3.83909
2011-09-14,3.78975
2011-09-15,3.85883
2011-09-16,3.94765
2011-09-19,3.75027
2011-09-20,3.7404
2011-09-21,3.5825
2011-09-22,3.38511
2011-09-23,3.37524
2011-09-26,3.56276
2011-09-27,3.56276
2011-09-28,3.40485
2011-09-29,3.50354
2011-09-30,3.30616
2011-10-03,3.00022
2011-10-04,3.13838
2011-10-05,3.28642
2011-10-06,3.64171
2011-10-07,3.36537
2011-10-10,3.56276
2011-10-11,3.59236
2011-10-12,3.77001
2011-10-13,3.62197
2011-10-14,3.67132
2011-10-17,3.41472
2011-10-18,3.77001
2011-10-19,3.66145
2011-10-20,3.63184
2011-10-21,3.72066
2011-10-24,3.8687
2011-10-25,3.67132
2011-10-26,3.77988
2011-10-27,4.17464
2011-10-28,4.21412
2011-10-31,3.89831
2011-11-01,3.65158
2011-11-02,3.82922
2011-11-03,3.92792
2011-11-04,3.95752
2011-11-07,4.10556
2011-11-08,4.33255
2011-11-09,4.02661
2011-11-10,4.06608
2011-11-11,4.10556
2011-11-14,3.96739
2011-11-15,3.997
2011-11-16,3.98713
2011-11-17,3.89831
2011-11-18,4.03648
2011-11-21,3.92792
2011-11-22,3.83909
2011-11-23,3.64171
2011-11-25,3.56276
2011-11-28,3.72066
2011-11-29,3.53315
2011-11-30,4.03648
2011-12-01,4.06608
2011-12-02,4.18451
2011-12-05,4.24373
2011-12-06,4.11543
2011-12-07,4.10556
2011-12-08,3.94765
2011-12-09,4.06608
2011-12-12,3.94765
2011-12-13,3.96739
2011-12-14,3.94758
2011-12-15,3.9179
2011-12-16,3.93768
2011-12-19,3.78928
2011-12-20,4.0663
2011-12-21,4.16524
2011-12-22,4.35322
2011-12-23,4.34333
2011-12-27,4.30375
2011-12-28,4.19492
2011-12-29,4.31364
2011-12-30,4.26418
2012-01-03,4.30375
2012-01-04,4.28396
2012-01-05,4.47194
2012-01-06,4.37301
2012-01-09,4.49173
2012-01-10,4.65003
2012-01-11,4.74897
2012-01-12,4.65003
2012-01-13,4.74897
2012-01-17,4.74897
2012-01-18,4.8479
2012-01-19,4.88748
2012-01-20,4.8479
2012-01-23,4.88748
2012-01-24,5.15461
2012-01-25,5.26344
2012-01-26,5.10514
2012-01-27,5.26344
2012-01-30,5.10514
2012-01-31,5.17439
2012-02-01,5.27333
2012-02-02,5.38216
2012-02-03,5.57014
2012-02-06,5.55035
2012-02-07,5.52067
2012-02-08,5.4811
2012-02-09,5.61961
2012-02-10,5.61961
2012-02-13,5.68887
2012-02-14,5.58993
2012-02-15,5.70865
2012-02-16,5.83727
2012-02-17,5.9461
2012-02-21,5.91642
2012-02-22,5.73833
2012-02-23,5.83727
2012-02-24,5.73833
2012-02-27,5.77791
2012-02-28,5.77791
2012-02-29,5.70865
2012-03-01,5.7878
2012-03-02,5.87685
2012-03-05,5.86695
2012-03-06,5.69876
2012-03-07,5.75812
2012-03-08,5.72844
2012-03-09,5.73833
2012-03-12,5.56025
2012-03-13,5.70865
2012-03-14,6.09516
2012-03-15,6.39248
2012-03-16,6.36275
2012-03-19,6.29337
2012-03-20,6.4123
2012-03-21,6.52132
2012-03-22,6.37266
2012-03-23,6.37266
2012-03-26,6.54115
2012-03-27,6.52132
2012-03-28,6.49159
2012-03-29,6.47177
2012-03-30,6.53123
2012-04-02,6.51141
2012-04-03,6.5907
2012-04-04,6.42222
2012-04-05,6.37266
2012-04-09,6.14471
2012-04-10,6.02578
2012-04-11,6.12489
2012-04-12,6.24382
2012-04-13,6.0456
2012-04-16,6.15462
2012-04-17,6.24382
2012-04-18,6.15462
2012-04-19,6.06543
2012-04-20,6.00596
2012-04-23,6.02578
2012-04-24,6.39248
2012-04-25,6.5907
2012-04-26,6.68981
2012-04-27,6.81865
2012-04-30,6.68981
2012-05-01,6.79883
2012-05-02,6.73936
2012-05-03,6.90785
2012-05-04,6.64025
2012-05-07,6.63034
2012-05-08,6.64025
2012-05-09,6.5015
2012-05-10,6.60061
2012-05-11,6.5907
2012-05-14,6.40239
2012-05-15,6.26364
2012-05-16,6.21409
2012-05-17,6.14471
2012-05-18,6.07534
2012-05-21,6.14471
2012-05-22,6.24382
2012-05-23,6.27355
2012-05-24,6.28346
2012-05-25,6.28346
2012-05-29,6.38257
2012-05-30,6.15462
2012-05-31,6.23391
2012-06-01,5.83748
2012-06-04,5.50051
2012-06-05,5.60953
2012-06-06,5.89694
2012-06-07,6.03569
2012-06-08,6.10507
2012-06-11,5.95641
2012-06-12,6.1348
2012-06-13,6.1348
2012-06-14,6.28371
2012-06-15,6.40283
2012-06-18,6.57159
2012-06-19,6.69071
2012-06-20,6.69071
2012-06-21,6.44254
2012-06-22,6.651
2012-06-25,6.36312
2012-06-26,6.32341
2012-06-27,6.36312
2012-06-28,6.49217
2012-06-29,6.69071
2012-07-02,6.78998
2012-07-03,6.80983
2012-07-05,6.69071
2012-07-06,6.651
2012-07-09,6.57159
2012-07-10,6.40283
2012-07-11,6.51203
2012-07-12,6.42268
2012-07-13,6.64107
2012-07-16,6.59144
2012-07-17,6.7999
2012-07-18,6.68078
2012-07-19,6.59144
2012-07-20,6.34327
2012-07-23,6.33334
2012-07-24,6.58151
2012-07-25,6.85947
2012-07-26,7.00837
2012-07-27,7.058
2012-07-30,7.00837
2012-07-31,6.91903
2012-08-01,6.78998
2012-08-02,6.67086
2012-08-03,6.88925
2012-08-06,6.94881
2012-08-07,6.89917
2012-08-08,6.84954
2012-08-09,6.9091
2012-08-10,6.93888
2012-08-13,6.9091
2012-08-14,6.98851
2012-08-15,6.99844
2012-08-16,7.07786
2012-08-17,7.09771
2012-08-20,7.06793
2012-08-21,6.97859
2012-08-22,7.04808
2012-08-23,6.94881
2012-08-24,7.12749
2012-08-27,7.04808
2012-08-28,7.06793
2012-08-29,7.00837
2012-08-30,6.95873
2012-08-31,6.91903
2012-09-04,6.95873
2012-09-05,6.92895
2012-09-06,7.15727
2012-09-07,7.3161
2012-09-10,7.38559
2012-09-11,7.27639
2012-09-12,7.27639
2012-09-13,7.53484
2012-09-14,7.54478
2012-09-17,7.34598
2012-09-18,7.24657
2012-09-19,7.63425
2012-09-20,7.53484
2012-09-21,7.46526
2012-09-24,7.40562
2012-09-25,7.16705
2012-09-26,7.10741
2012-09-27,7.23663
2012-09-28,7.15711
2012-10-01,7.08752
2012-10-02,7.11735
2012-10-03,7.25651
2012-10-04,7.45532
2012-10-05,7.5249
2012-10-08,7.45532
2012-10-09,7.38574
2012-10-10,7.5249
2012-10-11,7.5746
2012-10-12,7.22669
2012-10-15,7.34598
2012-10-16,7.06764
2012-10-17,7.14717
2012-10-18,7.16705
2012-10-19,7.08752
2012-10-22,7.03782
2012-10-23,6.52092
2012-10-24,6.43146
2012-10-25,6.57062
2012-10-26,6.5408
2012-10-31,6.4911
2012-11-01,6.6402
2012-11-02,6.65015
2012-11-05,6.55074
2012-11-06,6.74955
2012-11-07,6.50104
2012-11-08,6.35193
2012-11-09,6.42152
2012-11-12,6.4911
2012-11-13,6.43146
2012-11-14,6.21277
2012-11-15,6.28235
2012-11-16,6.29229
2012-11-19,6.41158
2012-11-20,6.58056
2012-11-21,6.5408
2012-11-23,6.5408
2012-11-26,6.61038
2012-11-27,6.55074
2012-11-28,6.5905
2012-11-29,6.62032
2012-11-30,6.63026
2012-12-03,6.55074
2012-12-04,6.43146
2012-12-05,6.51098
2012-12-06,6.4911
2012-12-07,6.5905
2012-12-10,6.67997
2012-12-11,6.70979
2012-12-12,6.73964
2012-12-13,6.69982
2012-12-14,6.66995
2012-12-17,6.88896
2012-12-18,7.02834
2012-12-19,7.03829
2012-12-20,7.13784
2012-12-21,7.08807
2012-12-24,6.90887
2012-12-26,6.98852
2012-12-27,6.95865
2012-12-28,6.91883
2012-12-31,7.09802
2013-01-02,7.2673
2013-01-03,7.28721
2013-01-04,7.55599
2013-01-07,7.41663
2013-01-08,7.34694
2013-01-09,7.2673
2013-01-10,7.30712
2013-01-11,7.18766
2013-01-14,7.14784
2013-01-15,7.2673
2013-01-16,7.33698
2013-01-17,7.41663
2013-01-18,7.39671
2013-01-22,7.70533
2013-01-23,7.61573
2013-01-24,7.63564
2013-01-25,7.64559
2013-01-28,7.6804
2013-01-29,7.67044
2013-01-30,7.77995
2013-01-31,7.76502
2013-02-01,7.84466
2013-02-04,7.77497
2013-02-05,7.86457
2013-02-06,7.90439
2013-02-07,7.91434
2013-02-08,7.88448
2013-02-11,7.88448
2013-02-12,7.89443
2013-02-13,7.81977
2013-02-14,7.86457
2013-02-15,7.80484
2013-02-19,7.90443
2013-02-20,7.66551
2013-02-21,7.56595
2013-02-22,7.72523
2013-02-25,7.44645
2013-02-26,7.4813
2013-02-27,7.57587
2013-02-28,7.61569
2013-03-01,7.67542
2013-03-04,7.82479
2013-03-05,7.88452
2013-03-06,8.00398
2013-03-07,8.18318
2013-03-08,8.10354
2013-03-11,8.28273
2013-03-12,8.09358
2013-03-13,8.21319
2013-03-14,8.28296
2013-03-15,8.34277
2013-03-18,8.23312
2013-03-19,8.27299
2013-03-20,8.3627
2013-03-21,8.20322
2013-03-22,8.18329
2013-03-25,8.26303
2013-03-26,8.26303
2013-03-27,8.19325
2013-03-28,8.15338
2013-04-01,7.99391
2013-04-02,8.01384
2013-04-03,7.85436
2013-04-04,7.94407
2013-04-05,7.95403
2013-04-08,8.01384
2013-04-09,8.04374
2013-04-10,8.18329
2013-04-11,8.19325
2013-04-12,8.07364
2013-04-15,7.77462
2013-04-16,7.9341
2013-04-17,7.76465
2013-04-18,7.64504
2013-04-19,7.79456
2013-04-22,7.69488
2013-04-23,7.97397
2013-04-24,8.18329
2013-04-25,8.28296
2013-04-26,8.34277
2013-04-29,8.38264
2013-04-30,8.44244
2013-05-01,8.3926
2013-05-02,8.42251
2013-05-03,8.53215
2013-05-06,8.67169
2013-05-07,8.68166
2013-05-08,8.78133
2013-05-09,8.77137
2013-05-10,8.7913
2013-05-13,8.80127
2013-05-14,8.96075
2013-05-15,9.11026
2013-05-16,8.92088
2013-05-17,9.00062
2013-05-20,9.1302
2013-05-21,9.14016
2013-05-22,8.99065
2013-05-23,8.97072
2013-05-24,9.06042
2013-05-28,9.20994
2013-05-29,9.22987
2013-05-30,9.34948
2013-05-31,9.12023
2013-06-03,9.08036
2013-06-04,8.95078
2013-06-05,8.84114
2013-06-06,9.00062
2013-06-07,9.20994
2013-06-10,9.32954
2013-06-11,9.18003
2013-06-12,9.07
2013-06-13,9.16
2013-06-14,8.98
2013-06-17,8.98
2013-06-18,9.11
2013-06-19,9.08
2013-06-20,9.08
2013-06-21,9.13
2013-06-24,9.08
2013-06-25,9.28
2013-06-26,9.53
2013-06-27,9.71
2013-06-28,9.56
2013-07-01,9.73
2013-07-02,9.82
2013-07-03,9.88
2013-07-05,10.18
2013-07-08,10.15
2013-07-09,10.2
2013-07-10,10.13
2013-07-11,9.88
2013-07-12,9.99
2013-07-15,9.94
2013-07-16,9.75
2013-07-17,9.98
2013-07-18,10.22
2013-07-19,10.23
2013-07-22,10.4
2013-07-23,10.41
2013-07-24,10.22
2013-07-25,10.18
2013-07-26,10.23
2013-07-29,10.06
2013-07-30,10.03
2013-07-31,10.0
2013-08-01,10.25
2013-08-02,10.25
2013-08-05,10.25
2013-08-06,10.02
2013-08-07,9.91
2013-08-08,9.93
2013-08-09,9.93
