date,close_price
1998-01-02,16.9877
1998-01-05,16.6135
1998-01-06,16.3684
1998-01-07,16.3168
1998-01-08,15.7233
1998-01-09,15.1599
1998-01-12,15.2674
1998-01-13,16.2609
1998-01-14,15.9125
1998-01-15,15.9383
1998-01-16,15.9125
1998-01-20,16.4501
1998-01-21,16.721
1998-01-22,16.6393
1998-01-23,15.9383
1998-01-26,16.1017
1998-01-27,16.02
1998-01-28,16.6393
1998-01-29,16.7726
1998-01-30,16.6651
1998-02-02,17.6328
1998-02-03,17.2586
1998-02-04,18.037
1998-02-05,17.8478
1998-02-06,18.7337
1998-02-09,19.0305
1998-02-10,19.2455
1998-02-11,19.2455
1998-02-12,18.923
1998-02-13,18.8714
1998-02-17,18.8155
1998-02-18,18.923
1998-02-19,19.0305
1998-02-20,19.0563
1998-02-23,19.0563
1998-02-24,19.0563
1998-02-25,19.353
1998-02-26,19.4606
1998-02-27,19.4864
1998-03-02,19.5939
1998-03-03,19.9164
1998-03-04,20.2132
1998-03-05,19.9723
1998-03-06,20.1057
1998-03-09,20.024
1998-03-10,19.9981
1998-03-11,20.1616
1998-03-12,20.2949
1998-03-13,20.4024
1998-03-16,20.5357
1998-03-17,20.2949
1998-03-18,20.2949
1998-03-19,20.4282
1998-03-20,20.5099
1998-03-23,20.3207
1998-03-24,20.3207
1998-03-25,20.4282
1998-03-26,20.4841
1998-03-27,20.454
1998-03-30,20.2132
1998-03-31,20.7508
1998-04-01,20.454
1998-04-02,20.9142
1998-04-03,20.9658
1998-04-06,20.3766
1998-04-07,20.4841
1998-04-08,20.6432
1998-04-09,20.6691
1998-04-13,20.9658
1998-04-14,21.3959
1998-04-15,21.3701
1998-04-16,21.2367
1998-04-17,21.2367
1998-04-20,22.3893
1998-04-21,22.3119
1998-04-22,22.742
1998-04-23,22.0668
1998-04-24,22.1743
1998-04-27,21.6109
1998-04-28,21.8259
1998-04-29,21.9894
1998-04-30,23.0903
1998-05-01,23.2495
1998-05-04,23.2796
1998-05-05,22.9011
1998-05-06,22.7119
1998-05-07,22.742
1998-05-08,23.2237
1998-05-11,22.9011
1998-05-12,23.0086
1998-05-13,23.3871
1998-05-14,23.4645
1998-05-15,22.4194
1998-05-18,22.4968
1998-05-19,22.3635
1998-05-20,22.6861
1998-05-21,22.8194
1998-05-22,22.7678
1998-05-26,22.041
1998-05-27,21.9894
1998-05-28,22.2302
1998-05-29,21.7743
1998-06-01,21.9076
1998-06-02,22.3635
1998-06-03,23.3871
1998-06-04,23.8688
1998-06-05,23.9763
1998-06-08,24.5956
1998-06-09,25.374
1998-06-10,24.7031
1998-06-11,24.4622
1998-06-12,23.843
1998-06-15,23.9247
1998-06-16,23.6795
1998-06-17,24.6773
1998-06-18,24.5397
1998-06-19,24.2472
1998-06-22,24.1397
1998-06-23,24.0322
1998-06-24,24.1096
1998-06-25,24.0838
1998-06-26,24.0021
1998-06-29,24.1096
1998-06-30,24.0838
1998-07-01,24.058
1998-07-02,23.6537
1998-07-06,23.2796
1998-07-07,22.6861
1998-07-08,23.572
1998-07-09,23.4387
1998-07-10,23.2237
1998-07-13,23.0344
1998-07-14,23.0903
1998-07-15,23.1419
1998-07-16,22.8194
1998-07-17,22.3635
1998-07-20,23.7354
1998-07-21,24.7289
1998-07-22,24.7547
1998-07-23,24.5397
1998-07-24,23.9247
1998-07-27,23.4645
1998-07-28,23.7096
1998-07-29,24.1655
1998-07-30,23.9505
1998-07-31,23.0344
1998-08-03,23.0645
1998-08-04,22.957
1998-08-05,23.4387
1998-08-06,24.2988
1998-08-07,24.5698
1998-08-10,24.4321
1998-08-11,23.9763
1998-08-12,24.6214
1998-08-13,24.5397
1998-08-14,24.0322
1998-08-17,24.273
1998-08-18,24.4881
1998-08-19,24.4321
1998-08-20,23.6537
1998-08-21,23.0903
1998-08-24,22.6861
1998-08-25,23.0903
1998-08-26,22.6861
1998-08-27,21.5593
1998-08-28,21.2066
1998-08-31,20.6432
1998-09-01,20.024
1998-09-02,19.4606
1998-09-03,18.7079
1998-09-04,17.7661
1998-09-08,19.3272
1998-09-09,19.6756
1998-09-10,18.3596
1998-09-11,18.8413
1998-09-14,19.4606
1998-09-15,19.8089
1998-09-16,19.9981
1998-09-17,19.8089
1998-09-18,19.8906
1998-09-21,20.1057
1998-09-22,20.0541
1998-09-23,19.9981
1998-09-24,19.7831
1998-09-25,19.3272
1998-09-28,18.5187
1998-09-29,18.7639
1998-09-30,18.5746
1998-10-01,17.4177
1998-10-02,17.121
1998-10-05,15.6158
1998-10-06,14.5965
1998-10-07,13.8181
1998-10-08,12.9579
1998-10-09,13.3579
1998-10-12,15.0782
1998-10-13,15.3233
1998-10-14,15.5641
1998-10-15,17.1769
1998-10-16,16.6909
1998-10-19,17.6328
1998-10-20,18.2521
1998-10-21,17.4435
1998-10-22,17.822
1998-10-23,17.6887
1998-10-26,17.6328
1998-10-27,17.0694
1998-10-28,16.7984
1998-10-29,17.0952
1998-10-30,17.2586
1998-11-02,18.5187
1998-11-03,19.7831
1998-11-04,20.3207
1998-11-05,20.6174
1998-11-06,20.4282
1998-11-09,20.3465
1998-11-10,19.7014
1998-11-11,19.8089
1998-11-12,19.4606
1998-11-13,19.4606
1998-11-16,19.3272
1998-11-17,19.3014
1998-11-18,19.1939
1998-11-19,19.4606
1998-11-20,19.4606
1998-11-23,20.4282
1998-11-24,21.0217
1998-11-25,20.9916
1998-11-27,21.0475
1998-11-30,20.5357
1998-12-01,19.3014
1998-12-02,18.923
1998-12-03,17.822
1998-12-04,17.8478
1998-12-07,18.6262
1998-12-08,18.4112
1998-12-09,19.6756
1998-12-10,19.3014
1998-12-11,18.8972
1998-12-14,18.5187
1998-12-15,18.6821
1998-12-16,18.4112
1998-12-17,18.1188
1998-12-18,18.0886
1998-12-21,18.2779
1998-12-22,17.9553
1998-12-23,16.6135
1998-12-24,16.9877
1998-12-28,17.1769
1998-12-29,17.0436
1998-12-30,17.6328
1998-12-31,19.1939
1999-01-04,18.4413
1999-01-05,17.9553
1999-01-06,18.0112
1999-01-07,18.4671
1999-01-08,20.1315
1999-01-11,20.4282
1999-01-12,19.624
1999-01-13,19.4864
1999-01-14,19.0305
1999-01-15,19.1939
1999-01-19,19.2197
1999-01-20,19.9465
1999-01-21,19.8089
1999-01-22,20.2132
1999-01-25,15.9125
1999-01-26,16.2093
1999-01-27,16.2351
1999-01-28,16.2351
1999-01-29,16.2609
1999-02-01,17.3102
1999-02-02,16.8285
1999-02-03,17.0694
1999-02-04,16.721
1999-02-05,16.7726
1999-02-08,16.3426
1999-02-09,15.9125
1999-02-10,15.4007
1999-02-11,15.4308
1999-02-12,15.4566
1999-02-16,15.3233
1999-02-17,14.7556
1999-02-18,14.6223
1999-02-19,14.2998
1999-02-22,15.0782
1999-02-23,15.5383
1999-02-24,15.6717
1999-02-25,15.5383
1999-02-26,15.4824
1999-03-01,15.6158
1999-03-02,15.6459
1999-03-03,15.59
1999-03-04,15.8867
1999-03-05,15.5641
1999-03-08,15.4824
1999-03-09,15.4566
1999-03-10,14.489
1999-03-11,14.1105
1999-03-12,14.0331
1999-03-15,14.4073
1999-03-16,14.4073
1999-03-17,14.1922
1999-03-18,12.9579
1999-03-19,13.2246
1999-03-22,13.0913
1999-03-23,13.1171
1999-03-24,13.4654
1999-03-25,14.5707
1999-03-26,13.9514
1999-03-29,13.9256
1999-03-30,14.003
1999-03-31,14.2739
1999-04-01,14.0331
1999-04-05,14.4632
1999-04-06,14.003
1999-04-07,13.5729
1999-04-08,13.173
1999-04-09,12.8504
1999-04-12,13.3321
1999-04-13,13.6288
1999-04-14,14.2739
1999-04-15,14.7556
1999-04-16,14.8115
1999-04-19,15.7233
1999-04-20,15.0266
1999-04-21,10.7775
1999-04-22,10.7517
1999-04-23,10.9409
1999-04-26,11.3452
1999-04-27,10.9667
1999-04-28,10.7517
1999-04-29,10.67
1999-04-30,10.27
1999-05-03,10.8592
1999-05-04,10.885
1999-05-05,11.1302
1999-05-06,11.0484
1999-05-07,11.0226
1999-05-10,12.472
1999-05-11,12.2053
1999-05-12,11.8011
1999-05-13,11.9086
1999-05-14,11.7753
1999-05-17,11.7753
1999-05-18,11.7451
1999-05-19,12.3644
1999-05-20,12.1236
1999-05-21,12.2569
1999-05-24,12.1236
1999-05-25,12.1752
1999-05-26,12.1494
1999-05-27,12.1494
1999-05-28,12.1752
1999-06-01,12.4462
1999-06-02,12.5537
1999-06-03,12.5795
1999-06-04,12.3386
1999-06-07,12.472
1999-06-08,12.2827
1999-06-09,12.4204
1999-06-10,12.472
1999-06-11,12.3386
1999-06-14,12.4204
1999-06-15,12.3128
1999-06-16,12.4462
1999-06-17,12.6354
1999-06-18,12.4204
1999-06-21,12.5795
1999-06-22,12.3128
1999-06-23,11.3968
1999-06-24,11.2635
1999-06-25,10.9925
1999-06-28,10.9409
1999-06-29,11.1302
1999-06-30,11.156
1999-07-01,11.0226
1999-07-02,11.1818
1999-07-06,11.5301
1999-07-07,11.1302
1999-07-08,10.8076
1999-07-09,10.8076
1999-07-12,10.7259
1999-07-13,10.6184
1999-07-14,10.4291
1999-07-15,10.3775
1999-07-16,10.7001
1999-07-19,10.6184
1999-07-20,10.6184
1999-07-21,11.4226
1999-07-22,11.1302
1999-07-23,11.1302
1999-07-26,11.2076
1999-07-27,11.2377
1999-07-28,11.3452
1999-07-29,11.2635
1999-07-30,11.3452
1999-08-02,11.1818
1999-08-03,11.2635
1999-08-04,11.2076
1999-08-05,11.2635
1999-08-06,11.2635
1999-08-09,11.2635
1999-08-10,11.3151
1999-08-11,11.2893
1999-08-12,11.3452
1999-08-13,11.4527
1999-08-16,11.4785
1999-08-17,11.371
1999-08-18,11.371
1999-08-19,11.3452
1999-08-20,11.4785
1999-08-23,11.5301
1999-08-24,11.5043
1999-08-25,11.3968
1999-08-26,11.5301
1999-08-27,11.4527
1999-08-30,11.2635
1999-08-31,11.2377
1999-09-01,11.2076
1999-09-02,11.0226
1999-09-03,10.9667
1999-09-07,10.885
1999-09-08,10.7775
1999-09-09,10.7775
1999-09-10,10.8334
1999-09-13,10.8592
1999-09-14,10.67
1999-09-15,10.2958
1999-09-16,10.27
1999-09-17,10.3216
1999-09-20,10.3216
1999-09-21,10.0249
1999-09-22,9.5174
1999-09-23,9.5174
1999-09-24,9.70233
1999-09-27,10.1324
1999-09-28,9.89156
1999-09-29,9.89156
1999-09-30,10.3216
1999-10-01,9.86575
1999-10-04,9.75824
1999-10-05,9.59481
1999-10-06,9.48729
1999-10-07,9.46149
1999-10-08,9.27226
1999-10-11,9.08733
1999-10-12,9.05723
1999-10-13,8.97981
1999-10-14,9.03142
1999-10-15,8.9239
1999-10-18,8.94971
1999-10-19,9.00562
1999-10-20,10.4291
1999-10-21,11.156
1999-10-22,12.2827
1999-10-25,11.2377
1999-10-26,11.2893
1999-10-27,11.2635
1999-10-28,11.4226
1999-10-29,11.6376
1999-11-01,11.8011
1999-11-02,11.5602
1999-11-03,11.9602
1999-11-04,12.6612
1999-11-05,12.8504
1999-11-08,12.6354
1999-11-09,12.3644
1999-11-10,12.4978
1999-11-11,12.5279
1999-11-12,12.3128
1999-11-15,12.5537
1999-11-16,12.5795
1999-11-17,12.4204
1999-11-18,12.4462
1999-11-19,12.3644
1999-11-22,12.2311
1999-11-23,12.0677
1999-11-24,12.1752
1999-11-26,12.1236
1999-11-29,11.7753
1999-11-30,11.9602
1999-12-01,11.7451
1999-12-02,11.8527
1999-12-03,12.0161
1999-12-06,12.2311
1999-12-07,12.1494
1999-12-08,12.3644
1999-12-09,11.9903
1999-12-10,11.9602
1999-12-13,11.6118
1999-12-14,11.8269
1999-12-15,11.9086
1999-12-16,12.0161
1999-12-17,11.8527
1999-12-20,11.8828
1999-12-21,12.0978
1999-12-22,12.1752
1999-12-23,12.2569
1999-12-27,12.2053
1999-12-28,12.4978
1999-12-29,12.5537
1999-12-30,12.6053
1999-12-31,12.2827
2000-01-03,12.0161
2000-01-04,11.3452
2000-01-05,11.1302
2000-01-06,11.1
2000-01-07,11.3151
2000-01-10,11.4527
2000-01-11,11.3452
2000-01-12,11.2893
2000-01-13,11.2635
2000-01-14,11.0484
2000-01-18,10.885
2000-01-19,11.1302
2000-01-20,10.9151
2000-01-21,11.0226
2000-01-24,11.3968
2000-01-25,11.5602
2000-01-26,16.3985
2000-01-27,17.4995
2000-01-28,17.121
2000-01-31,16.7726
2000-02-01,17.1769
2000-02-02,16.8285
2000-02-03,17.4435
2000-02-04,17.1769
2000-02-07,17.6586
2000-02-08,18.5746
2000-02-09,19.7014
2000-02-10,19.3014
2000-02-11,18.923
2000-02-14,18.6563
2000-02-15,18.8155
2000-02-16,18.9789
2000-02-17,18.6821
2000-02-18,18.2521
2000-02-22,17.3919
2000-02-23,17.5812
2000-02-24,17.8478
2000-02-25,17.8478
2000-02-28,17.2027
2000-02-29,18.0628
2000-03-01,18.8155
2000-03-02,18.3596
2000-03-03,17.7403
2000-03-06,17.7962
2000-03-07,17.607
2000-03-08,16.6393
2000-03-09,17.121
2000-03-10,17.2285
2000-03-13,16.5834
2000-03-14,16.8544
2000-03-15,17.5511
2000-03-16,17.5253
2000-03-17,17.3661
2000-03-20,16.7468
2000-03-21,16.3985
2000-03-22,16.7468
2000-03-23,16.8802
2000-03-24,16.5576
2000-03-27,16.9877
2000-03-28,16.9877
2000-03-29,17.5812
2000-03-30,18.8714
2000-03-31,20.4024
2000-04-03,20.2691
2000-04-04,20.1616
2000-04-05,20.3465
2000-04-06,20.725
2000-04-07,21.3959
2000-04-10,21.5593
2000-04-11,21.4518
2000-04-12,21.3443
2000-04-13,20.9142
2000-04-14,20.1616
2000-04-17,21.0991
2000-04-18,21.0733
2000-04-19,24.6472
2000-04-20,24.6773
2000-04-24,23.843
2000-04-25,25.1074
2000-04-26,24.7547
2000-04-27,25.2407
2000-04-28,26.3416
2000-05-01,27.0126
2000-05-02,25.9933
2000-05-03,25.0514
2000-05-04,26.2341
2000-05-05,26.475
2000-05-08,26.5825
2000-05-09,26.2083
2000-05-10,25.8041
2000-05-11,26.1008
2000-05-12,26.6126
2000-05-15,26.5309
2000-05-16,27.0126
2000-05-17,26.1008
2000-05-18,25.8299
2000-05-19,25.4299
2000-05-22,24.9998
2000-05-23,25.9675
2000-05-24,25.159
2000-05-25,25.7223
2000-05-26,24.9998
2000-05-30,25.8041
2000-05-31,25.6707
2000-06-01,26.5051
2000-06-02,27.2276
2000-06-05,27.391
2000-06-06,27.2276
2000-06-07,26.6384
2000-06-08,26.7717
2000-06-09,26.4234
2000-06-12,25.6965
2000-06-13,25.7525
2000-06-14,25.8557
2000-06-15,25.8041
2000-06-16,25.9159
2000-06-19,25.7525
2000-06-20,25.8041
2000-06-21,25.8557
2000-06-22,24.4106
2000-06-23,24.8407
2000-06-26,24.8407
2000-06-27,24.7289
2000-06-28,25.4858
2000-06-29,25.589
2000-06-30,24.6257
2000-07-03,25.9159
2000-07-05,25.8557
2000-07-06,26.3459
2000-07-07,27.0943
2000-07-10,26.6126
2000-07-11,26.2341
2000-07-12,26.991
2000-07-13,27.0943
2000-07-14,27.2061
2000-07-17,29.8897
2000-07-18,29.5715
2000-07-19,29.4596
2000-07-20,29.5715
2000-07-21,29.2446
2000-07-24,29.193
2000-07-25,29.1414
2000-07-26,28.8145
2000-07-27,29.2962
2000-07-28,29.0296
2000-07-31,29.5715
2000-08-01,29.6231
2000-08-02,29.3564
2000-08-03,29.2962
2000-08-04,29.3564
2000-08-07,29.0296
2000-08-08,28.9264
2000-08-09,28.1178
2000-08-10,28.4963
2000-08-11,28.7629
2000-08-14,28.7629
2000-08-15,27.9544
2000-08-16,28.0662
2000-08-17,28.3845
2000-08-18,28.2813
2000-08-21,28.2813
2000-08-22,28.1694
2000-08-23,28.1178
2000-08-24,27.791
2000-08-25,28.2813
2000-08-28,27.4727
2000-08-29,27.5243
2000-08-30,27.2061
2000-08-31,27.0943
2000-09-01,26.5008
2000-09-05,26.1825
2000-09-06,26.3976
2000-09-07,26.0191
2000-09-08,26.1825
2000-09-11,26.7158
2000-09-12,26.9308
2000-09-13,26.9308
2000-09-14,27.1459
2000-09-15,27.2577
2000-09-18,25.9159
2000-09-19,26.2857
2000-09-20,26.2857
2000-09-21,27.2577
2000-09-22,27.8512
2000-09-25,27.6362
2000-09-26,27.791
2000-09-27,29.1414
2000-09-28,29.6747
2000-09-29,30.0531
2000-10-02,30.6982
2000-10-03,30.7498
2000-10-04,31.6616
2000-10-05,31.9884
2000-10-06,32.3067
2000-10-09,32.4185
2000-10-10,28.1178
2000-10-11,27.6362
2000-10-12,27.2061
2000-10-13,29.0812
2000-10-16,27.8512
2000-10-17,26.6642
2000-10-18,23.8171
2000-10-19,25.2708
2000-10-20,25.6406
2000-10-23,27.6362
2000-10-24,26.0707
2000-10-25,26.1309
2000-10-26,24.0322
2000-10-27,24.9439
2000-10-30,24.6257
2000-10-31,26.3459
2000-11-01,25.374
2000-11-02,26.561
2000-11-03,26.0191
2000-11-06,26.7158
2000-11-07,27.2577
2000-11-08,27.6362
2000-11-09,25.7525
2000-11-10,25.7525
2000-11-13,25.7008
2000-11-14,26.0191
2000-11-15,27.7394
2000-11-16,26.3976
2000-11-17,27.1459
2000-11-20,27.0427
2000-11-21,27.0427
2000-11-22,26.991
2000-11-24,27.2577
2000-11-27,27.6362
2000-11-28,26.6642
2000-11-29,25.9675
2000-11-30,25.7525
2000-12-01,25.6406
2000-12-04,27.4727
2000-12-05,27.4727
2000-12-06,25.4256
2000-12-07,26.3976
2000-12-08,26.6642
2000-12-11,25.9675
2000-12-12,26.6126
2000-12-13,26.2857
2000-12-14,26.6642
2000-12-15,23.9204
2000-12-18,22.3635
2000-12-19,22.3119
2000-12-20,21.1851
2000-12-21,22.4753
2000-12-22,22.5786
2000-12-26,22.5786
2000-12-27,22.2001
2000-12-28,22.957
2000-12-29,22.742
2001-01-02,20.6432
2001-01-03,23.172
2001-01-04,22.5269
2001-01-05,19.8949
2001-01-08,19.6799
2001-01-09,18.2263
2001-01-10,19.5681
2001-01-11,19.8347
2001-01-12,19.8347
2001-01-16,19.7831
2001-01-17,19.9465
2001-01-18,19.8949
2001-01-19,19.4649
2001-01-22,19.5165
2001-01-23,19.4649
2001-01-24,21.34
2001-01-25,21.6152
2001-01-26,22.0969
2001-01-29,22.3893
2001-01-30,23.4129
2001-01-31,23.2237
2001-02-01,22.8882
2001-02-02,22.6474
2001-02-05,22.699
2001-02-06,22.7936
2001-02-07,22.7936
2001-02-08,22.7936
2001-02-09,22.8022
2001-02-12,22.7936
2001-02-13,22.7936
2001-02-14,22.8194
2001-02-15,22.9226
2001-02-16,22.3463
2001-02-20,21.727
2001-02-21,21.6238
2001-02-22,21.5722
2001-02-23,20.3078
2001-02-26,21.2453
2001-02-27,20.9013
2001-02-28,20.6863
2001-03-01,20.6605
2001-03-02,21.297
2001-03-05,20.8239
2001-03-06,20.9615
2001-03-07,21.0733
2001-03-08,21.0303
2001-03-09,20.7035
2001-03-12,20.153
2001-03-13,19.353
2001-03-14,19.5251
2001-03-15,19.6713
2001-03-16,19.5165
2001-03-19,19.5251
2001-03-20,18.9316
2001-03-21,18.6477
2001-03-22,18.6391
2001-03-23,18.9058
2001-03-26,19.353
2001-03-27,19.7745
2001-03-28,19.353
2001-03-29,19.4821
2001-03-30,19.224
2001-04-02,18.8886
2001-04-03,17.6328
2001-04-04,18.3467
2001-04-05,19.7229
2001-04-06,19.224
2001-04-09,18.0456
2001-04-10,18.837
2001-04-11,19.2842
2001-04-12,19.052
2001-04-16,18.7165
2001-04-17,18.923
2001-04-18,22.3635
2001-04-19,23.6537
2001-04-20,23.2409
2001-04-23,22.9656
2001-04-24,23.0258
2001-04-25,23.9204
2001-04-26,23.6881
2001-04-27,24.1268
2001-04-30,23.9462
2001-05-01,24.2042
2001-05-02,25.1504
2001-05-03,24.0838
2001-05-04,24.0924
2001-05-07,24.6601
2001-05-08,23.3957
2001-05-09,23.4559
2001-05-10,23.4387
2001-05-11,23.4215
2001-05-14,24.058
2001-05-15,24.6859
2001-05-16,25.9159
2001-05-17,25.7697
2001-05-18,25.8643
2001-05-21,26.1911
2001-05-22,25.8041
2001-05-23,25.5374
2001-05-24,24.9611
2001-05-25,25.0041
2001-05-29,24.5139
2001-05-30,24.0408
2001-05-31,24.2816
2001-06-01,24.0236
2001-06-04,24.316
2001-06-05,24.6085
2001-06-06,24.3418
2001-06-07,23.9032
2001-06-08,24.0064
2001-06-11,23.6709
2001-06-12,24.0838
2001-06-13,24.0666
2001-06-14,23.2237
2001-06-15,23.172
2001-06-18,23.0086
2001-06-19,22.6302
2001-06-20,23.0258
2001-06-21,21.9335
2001-06-22,21.9335
2001-06-25,21.512
2001-06-26,21.34
2001-06-27,21.856
2001-06-28,21.7786
2001-06-29,21.4432
2001-07-02,20.9357
2001-07-03,22.5872
2001-07-05,22.1227
2001-07-06,21.4002
2001-07-09,20.7981
2001-07-10,19.8433
2001-07-11,20.497
2001-07-12,21.1077
2001-07-13,20.9873
2001-07-16,20.6863
2001-07-17,21.4948
2001-07-18,20.9099
2001-07-19,21.813
2001-07-20,22.0367
2001-07-23,21.77
2001-07-24,21.598
2001-07-25,22.0625
2001-07-26,22.3721
2001-07-27,22.3119
2001-07-30,22.3807
2001-07-31,22.4065
2001-08-01,22.699
2001-08-02,23.0946
2001-08-03,22.957
2001-08-06,22.9656
2001-08-07,23.2237
2001-08-08,23.2237
2001-08-09,23.2237
2001-08-10,23.2925
2001-08-13,23.4129
2001-08-14,23.4129
2001-08-15,23.3183
2001-08-16,23.7053
2001-08-17,23.2237
2001-08-20,23.2323
2001-08-21,22.9226
2001-08-22,23.0086
2001-08-23,22.0453
2001-08-24,22.5786
2001-08-27,22.5269
2001-08-28,22.0539
2001-08-29,21.5808
2001-08-30,21.5464
2001-08-31,21.4604
2001-09-04,21.1507
2001-09-05,21.2797
2001-09-06,20.6518
2001-09-07,20.4282
2001-09-10,19.7487
2001-09-17,18.794
2001-09-18,18.5187
2001-09-19,18.0628
2001-09-20,16.9103
2001-09-21,16.4716
2001-09-24,16.9447
2001-09-25,16.506
2001-09-26,16.1533
2001-09-27,16.205
2001-09-28,17.2027
2001-10-01,17.2027
2001-10-02,17.1425
2001-10-03,17.9166
2001-10-04,18.923
2001-10-05,18.3123
2001-10-08,17.8564
2001-10-09,17.5468
2001-10-10,18.966
2001-10-11,20.1014
2001-10-12,19.9723
2001-10-15,20.0326
2001-10-16,19.6283
2001-10-17,18.8284
2001-10-18,18.4069
2001-10-19,18.4757
2001-10-22,18.2865
2001-10-23,17.8822
2001-10-24,17.9768
2001-10-25,18.6047
2001-10-26,19.0864
2001-10-29,18.7854
2001-10-30,17.994
2001-10-31,17.7962
2001-11-01,18.2091
2001-11-02,18.1403
2001-11-05,18.9746
2001-11-06,19.7143
2001-11-07,19.6541
2001-11-08,20.3078
2001-11-09,19.9121
2001-11-12,19.3702
2001-11-13,20.3336
2001-11-14,21.5894
2001-11-15,21.9335
2001-11-16,21.813
2001-11-19,22.3635
2001-11-20,22.2775
2001-11-21,22.2689
2001-11-23,22.6646
2001-11-26,22.9656
2001-11-27,22.5527
2001-11-28,21.8474
2001-11-29,22.4667
2001-11-30,23.043
2001-12-03,21.9679
2001-12-04,22.4925
2001-12-05,23.5247
2001-12-06,23.7225
2001-12-07,23.7741
2001-12-10,23.6795
2001-12-11,23.843
2001-12-12,23.1634
2001-12-13,22.7248
2001-12-14,22.2689
2001-12-17,22.3635
2001-12-18,23.2581
2001-12-19,23.1376
2001-12-20,22.785
2001-12-21,22.5786
2001-12-24,22.8968
2001-12-26,22.7334
2001-12-27,22.9226
2001-12-28,23.2237
2001-12-31,22.9054
2002-01-02,22.7936
2002-01-03,23.1204
2002-01-04,23.7741
2002-01-07,23.2667
2002-01-08,23.1376
2002-01-09,22.6732
2002-01-10,22.2345
2002-01-11,21.9679
2002-01-14,21.727
2002-01-15,21.3916
2002-01-16,21.4346
2002-01-17,20.9873
2002-01-18,20.7465
2002-01-22,21.0733
2002-01-23,21.0647
2002-01-24,21.6668
2002-01-25,21.1679
2002-01-28,21.5464
2002-01-29,21.5464
2002-01-30,21.813
2002-01-31,22.5441
2002-02-01,22.3635
2002-02-04,21.7614
2002-02-05,21.5636
2002-02-06,21.1593
2002-02-07,20.8583
2002-02-08,21.2367
2002-02-11,22.1227
2002-02-12,22.0625
2002-02-13,22.6818
2002-02-14,22.7162
2002-02-15,22.3979
2002-02-19,22.0367
2002-02-20,22.1571
2002-02-21,21.5636
2002-02-22,22.0883
2002-02-25,22.1055
2002-02-26,22.1399
2002-02-27,22.3033
2002-02-28,22.4925
2002-03-01,22.785
2002-03-04,23.843
2002-03-05,23.7999
2002-03-06,24.9611
2002-03-07,25.159
2002-03-08,25.5632
2002-03-11,26.475
2002-03-12,26.0793
2002-03-13,25.7955
2002-03-14,25.0299
2002-03-15,25.4256
2002-03-18,25.4944
2002-03-19,25.3224
2002-03-20,25.3482
2002-03-21,25.0815
2002-03-22,25.1934
2002-03-25,24.5913
2002-03-26,25.4428
2002-03-27,25.374
2002-03-28,25.3826
2002-04-01,24.9267
2002-04-02,24.4967
2002-04-03,22.3549
2002-04-04,21.8818
2002-04-05,21.9507
2002-04-08,22.5183
2002-04-09,22.9828
2002-04-10,23.7483
2002-04-11,23.2065
2002-04-12,23.8085
2002-04-15,23.6795
2002-04-16,24.359
2002-04-17,22.9828
2002-04-18,22.6474
2002-04-19,22.3635
2002-04-22,22.1657
2002-04-23,22.4753
2002-04-24,22.5613
2002-04-25,22.6216
2002-04-26,22.5269
2002-04-29,22.3119
2002-04-30,22.5786
2002-05-01,22.9054
2002-05-02,22.6818
2002-05-03,22.3807
2002-05-06,21.9507
2002-05-07,21.2453
2002-05-08,21.5292
2002-05-09,21.5722
2002-05-10,21.34
2002-05-13,22.3893
2002-05-14,22.8022
2002-05-15,22.7678
2002-05-16,23.0516
2002-05-17,22.9914
2002-05-20,22.5958
2002-05-21,22.6818
2002-05-22,22.2345
2002-05-23,22.3549
2002-05-24,21.8216
2002-05-28,21.4776
2002-05-29,21.0647
2002-05-30,21.1077
2002-05-31,21.2884
2002-06-03,19.9981
2002-06-04,19.8777
2002-06-05,20.1874
2002-06-06,20.2132
2002-06-07,20.2046
2002-06-10,20.2648
2002-06-11,20.7551
2002-06-12,20.5314
2002-06-13,20.0154
2002-06-14,20.0842
2002-06-17,20.7379
2002-06-18,20.7551
2002-06-19,20.7809
2002-06-20,20.54
2002-06-21,20.6088
2002-06-24,20.3594
2002-06-25,20.0412
2002-06-26,19.181
2002-06-27,19.4133
2002-06-28,20.11
2002-07-01,19.7831
2002-07-02,19.7487
2002-07-03,19.7401
2002-07-05,21.0389
2002-07-08,20.9099
2002-07-09,20.5572
2002-07-10,19.8777
2002-07-11,19.9379
2002-07-12,19.7487
2002-07-15,19.7143
2002-07-16,18.6219
2002-07-17,19.6971
2002-07-18,18.0628
2002-07-19,16.5232
2002-07-22,16.1275
2002-07-23,16.3426
2002-07-24,15.8179
2002-07-25,16.0759
2002-07-26,15.9125
2002-07-29,17.736
2002-07-30,17.1941
2002-07-31,17.1425
2002-08-01,16.721
2002-08-02,15.4566
2002-08-05,14.8115
2002-08-06,15.4394
2002-08-07,15.061
2002-08-08,15.276
2002-08-09,15.6889
2002-08-12,15.3104
2002-08-13,15.1556
2002-08-14,15.1814
2002-08-15,15.6803
2002-08-16,15.4824
2002-08-19,15.8007
2002-08-20,15.534
2002-08-21,15.4738
2002-08-22,16.2136
2002-08-23,15.7147
2002-08-26,15.8781
2002-08-27,15.5685
2002-08-28,15.276
2002-08-29,14.9664
2002-08-30,14.8889
2002-09-03,14.2524
2002-09-04,14.5449
2002-09-05,13.745
2002-09-06,14.6223
2002-09-09,14.7427
2002-09-10,14.7427
2002-09-11,14.8889
2002-09-12,14.4245
2002-09-13,14.4245
2002-09-16,14.3213
2002-09-17,14.4503
2002-09-18,14.3471
2002-09-19,13.8654
2002-09-20,14.2782
2002-09-23,14.0804
2002-09-24,13.4697
2002-09-25,13.745
2002-09-26,14.5449
2002-09-27,13.9858
2002-09-30,13.5643
2002-10-01,13.4611
2002-10-02,12.3601
2002-10-03,12.4978
2002-10-04,11.371
2002-10-07,10.5109
2002-10-08,10.8807
2002-10-09,10.3388
2002-10-10,10.7259
2002-10-11,11.2162
2002-10-14,11.3452
2002-10-15,12.4892
2002-10-16,11.7322
2002-10-17,13.3579
2002-10-18,13.5041
2002-10-21,14.1062
2002-10-22,13.8912
2002-10-23,14.046
2002-10-24,15.1556
2002-10-25,15.1728
2002-10-28,14.7341
2002-10-29,14.4073
2002-10-30,14.5105
2002-10-31,14.3729
2002-11-01,14.7943
2002-11-04,14.9922
2002-11-05,15.104
2002-11-06,15.0696
2002-11-07,14.6825
2002-11-08,14.6395
2002-11-11,14.0546
2002-11-12,14.3213
2002-11-13,14.6137
2002-11-14,15.0868
2002-11-15,15.0696
2002-11-18,15.3706
2002-11-19,15.2846
2002-11-20,15.9125
2002-11-21,17.7188
2002-11-22,17.3489
2002-11-25,17.1081
2002-11-26,16.1361
2002-11-27,17.1511
2002-11-29,16.9017
2002-12-02,16.9275
2002-12-03,16.1705
2002-12-04,16.1361
2002-12-05,15.8437
2002-12-06,15.4824
2002-12-09,14.6653
2002-12-10,14.9147
2002-12-11,14.5793
2002-12-12,14.4933
2002-12-13,14.175
2002-12-16,13.9772
2002-12-17,13.8912
2002-12-18,13.8482
2002-12-19,13.745
2002-12-20,13.6245
2002-12-23,13.5041
2002-12-24,13.5557
2002-12-26,13.831
2002-12-27,13.5041
2002-12-30,13.4783
2002-12-31,13.788
2003-01-02,14.3729
2003-01-03,14.3901
2003-01-06,14.2524
2003-01-07,14.089
2003-01-08,13.7364
2003-01-09,13.7364
2003-01-10,13.745
2003-01-13,13.4955
2003-01-14,13.5041
2003-01-15,13.4697
2003-01-16,13.4095
2003-01-17,13.1515
2003-01-21,12.9794
2003-01-22,12.8762
2003-01-23,13.1859
2003-01-24,12.7386
2003-01-27,12.7472
2003-01-28,12.7902
2003-01-29,12.8848
2003-01-30,12.8332
2003-01-31,13.0052
2003-02-03,13.0655
2003-02-04,12.7214
2003-02-05,12.7558
2003-02-06,12.644
2003-02-07,12.4204
2003-02-10,12.2225
2003-02-11,11.9043
2003-02-12,11.3796
2003-02-13,11.328
2003-02-14,11.5086
2003-02-18,11.7839
2003-02-19,11.7236
2003-02-20,11.715
2003-02-21,12.2483
2003-02-24,11.6118
2003-02-25,11.6892
2003-02-26,11.6118
2003-02-27,11.543
2003-02-28,11.5774
2003-03-03,11.7408
2003-03-04,11.2506
2003-03-05,11.0785
2003-03-06,10.7345
2003-03-07,10.7775
2003-03-10,10.2356
2003-03-11,10.3216
2003-03-12,10.098
2003-03-13,10.3904
2003-03-14,10.7689
2003-03-17,11.4914
2003-03-18,11.7494
2003-03-19,12.0677
2003-03-20,12.2311
2003-03-21,12.6612
2003-03-24,11.7925
2003-03-25,12.1021
2003-03-26,11.9215
2003-03-27,11.8441
2003-03-28,11.7753
2003-03-31,11.4484
2003-04-01,11.5946
2003-04-02,11.9387
2003-04-03,11.8355
2003-04-04,11.7408
2003-04-07,11.9559
2003-04-08,11.7667
2003-04-09,11.5258
2003-04-10,11.7753
2003-04-11,11.7236
2003-04-14,12.1451
2003-04-15,12.1365
2003-04-16,12.0849
2003-04-17,12.3515
2003-04-21,12.1021
2003-04-22,12.7558
2003-04-23,12.945
2003-04-24,12.601
2003-04-25,12.4806
2003-04-28,13.0311
2003-04-29,13.4869
2003-04-30,13.9514
2003-05-01,14.046
2003-05-02,14.3557
2003-05-05,14.6653
2003-05-06,14.7771
2003-05-07,14.6309
2003-05-08,14.6739
2003-05-09,15.0954
2003-05-12,15.3878
2003-05-13,15.2674
2003-05-14,14.6653
2003-05-15,15.1384
2003-05-16,14.9664
2003-05-19,14.3127
2003-05-20,13.9084
2003-05-21,13.7364
2003-05-22,13.9858
2003-05-23,14.2524
2003-05-27,14.5707
2003-05-28,14.5793
2003-05-29,14.4073
2003-05-30,14.6051
2003-06-02,14.9061
2003-06-03,14.9147
2003-06-04,15.1126
2003-06-05,15.0266
2003-06-06,15.4566
2003-06-09,16.2996
2003-06-10,16.4114
2003-06-11,16.7382
2003-06-12,16.592
2003-06-13,16.4888
2003-06-16,17.1941
2003-06-17,16.8931
2003-06-18,16.6952
2003-06-19,16.5834
2003-06-20,16.506
2003-06-23,16.0673
2003-06-24,15.6201
2003-06-25,15.7061
2003-06-26,15.9813
2003-06-27,15.9641
2003-06-30,16.248
2003-07-01,16.0759
2003-07-02,16.3082
2003-07-03,16.0759
2003-07-07,16.9017
2003-07-08,17.5898
2003-07-09,17.5898
2003-07-10,16.8156
2003-07-11,17.4952
2003-07-14,17.9424
2003-07-15,17.4435
2003-07-16,17.1941
2003-07-17,15.9555
2003-07-18,18.0628
2003-07-21,17.3317
2003-07-22,17.4349
2003-07-23,17.4607
2003-07-24,17.8392
2003-07-25,17.9768
2003-07-28,18.5359
2003-07-29,18.3467
2003-07-30,18.0628
2003-07-31,18.6907
2003-08-01,19.0864
2003-08-04,18.8198
2003-08-05,17.9166
2003-08-06,17.7618
2003-08-07,17.607
2003-08-08,17.564
2003-08-11,17.7446
2003-08-12,17.9424
2003-08-13,17.8908
2003-08-14,18.2865
2003-08-15,18.5789
2003-08-18,19.0176
2003-08-19,19.2068
2003-08-20,19.0864
2003-08-21,19.1982
2003-08-22,18.6477
2003-08-25,18.6133
2003-08-26,18.4069
2003-08-27,18.3381
2003-08-28,18.5617
2003-08-29,19.095
2003-09-02,19.4907
2003-09-03,19.31
2003-09-04,19.1466
2003-09-05,18.7682
2003-09-08,18.8628
2003-09-09,18.7768
2003-09-10,18.2091
2003-09-11,18.0972
2003-09-12,18.2951
2003-09-15,18.0112
2003-09-16,18.7165
2003-09-17,18.7165
2003-09-18,18.8112
2003-09-19,18.8542
2003-09-22,18.4585
2003-09-23,18.4069
2003-09-24,17.9252
2003-09-25,17.1167
2003-09-26,16.6952
2003-09-29,16.678
2003-09-30,16.7296
2003-10-01,16.9877
2003-10-02,16.7468
2003-10-03,18.5875
2003-10-06,18.2607
2003-10-07,18.037
2003-10-08,18.1661
2003-10-09,19.0348
2003-10-10,19.8433
2003-10-13,20.4196
2003-10-14,21.0389
2003-10-15,20.9873
2003-10-16,21.0733
2003-10-17,20.067
2003-10-20,20.5916
2003-10-21,20.153
2003-10-22,19.6541
2003-10-23,19.9035
2003-10-24,20.2304
2003-10-27,20.1186
2003-10-28,20.3422
2003-10-29,20.2906
2003-10-30,20.4024
2003-10-31,20.2906
2003-11-03,20.325
2003-11-04,20.2304
2003-11-05,20.3594
2003-11-06,20.6432
2003-11-07,20.4626
2003-11-10,20.282
2003-11-11,19.8003
2003-11-12,20.1616
2003-11-13,20.0412
2003-11-14,19.8777
2003-11-17,19.4735
2003-11-18,19.0004
2003-11-19,18.966
2003-11-20,18.8886
2003-11-21,18.9574
2003-11-24,19.2412
2003-11-25,19.4907
2003-11-26,19.138
2003-11-28,19.1466
2003-12-01,19.2928
2003-12-02,18.9488
2003-12-03,18.7854
2003-12-04,18.6047
2003-12-05,18.0026
2003-12-08,18.4413
2003-12-09,18.0112
2003-12-10,17.779
2003-12-11,18.3467
2003-12-12,18.4241
2003-12-15,18.4069
2003-12-16,18.6993
2003-12-17,18.5617
2003-12-18,18.9316
2003-12-19,19.1294
2003-12-22,19.1036
2003-12-23,19.3272
2003-12-24,19.31
2003-12-26,19.3444
2003-12-29,19.8089
2003-12-30,19.8605
2003-12-31,20.0584
2004-01-02,20.3422
2004-01-05,21.0475
2004-01-06,21.3486
2004-01-07,21.4002
2004-01-08,22.3549
2004-01-09,21.9507
2004-01-12,22.0883
2004-01-13,22.2001
2004-01-14,22.4065
2004-01-15,22.3291
2004-01-16,22.0109
2004-01-20,21.9765
2004-01-21,22.3377
2004-01-22,22.1055
2004-01-23,22.0797
2004-01-26,22.0453
2004-01-27,22.2087
2004-01-28,20.9529
2004-01-29,20.8239
2004-01-30,20.2992
2004-02-02,19.5251
2004-02-03,19.5251
2004-02-04,19.224
2004-02-05,19.8003
2004-02-06,20.2476
2004-02-09,20.0412
2004-02-10,19.8605
2004-02-11,20.067
2004-02-12,19.6971
2004-02-13,19.5337
2004-02-17,19.7487
2004-02-18,19.0176
2004-02-19,18.8714
2004-02-20,18.8886
2004-02-23,18.5875
2004-02-24,18.6907
2004-02-25,18.7509
2004-02-26,19.0434
2004-02-27,19.3186
2004-03-01,19.095
2004-03-02,19.6541
2004-03-03,19.5079
2004-03-04,20.2218
2004-03-05,19.3702
2004-03-08,19.1466
2004-03-09,18.6391
2004-03-10,18.2091
2004-03-11,18.2005
2004-03-12,18.5273
2004-03-15,17.9252
2004-03-16,18.5359
2004-03-17,18.88
2004-03-18,18.5617
2004-03-19,18.7768
2004-03-22,18.923
2004-03-23,18.9316
2004-03-24,19.0348
2004-03-25,19.9895
2004-03-26,20.1616
2004-03-29,20.4626
2004-03-30,20.3336
2004-03-31,20.2734
2004-04-01,20.5744
2004-04-02,21.7614
2004-04-05,21.813
2004-04-06,21.3744
2004-04-07,21.3916
2004-04-08,21.426
2004-04-12,21.6324
2004-04-13,21.297
2004-04-14,21.3486
2004-04-15,21.383
2004-04-16,21.6754
2004-04-19,21.9335
2004-04-20,22.0711
2004-04-21,22.4065
2004-04-22,22.9054
2004-04-23,24.7203
2004-04-26,24.3934
2004-04-27,24.8407
2004-04-28,24.1182
2004-04-29,23.6365
2004-04-30,23.4817
2004-05-03,23.4645
2004-05-04,23.5505
2004-05-05,24.101
2004-05-06,23.929
2004-05-07,24.3676
2004-05-10,23.8602
2004-05-11,24.5311
2004-05-12,23.972
2004-05-13,24.1612
2004-05-14,23.8516
2004-05-17,23.0172
2004-05-18,23.086
2004-05-19,23.1204
2004-05-20,22.9398
2004-05-21,23.1812
2004-05-24,22.9829
2004-05-25,23.414
2004-05-26,23.8623
2004-05-27,24.1554
2004-05-28,24.1036
2004-06-01,24.4312
2004-06-02,24.914
2004-06-03,24.5692
2004-06-04,24.845
2004-06-07,25.8623
2004-06-08,25.6554
2004-06-09,25.4054
2004-06-10,25.5606
2004-06-14,25.1209
2004-06-15,25.5692
2004-06-16,25.4485
2004-06-17,25.2761
2004-06-18,24.9571
2004-06-21,24.6123
2004-06-22,25.345
2004-06-23,25.6899
2004-06-24,26.095
2004-06-25,26.4657
2004-06-28,26.2157
2004-06-29,26.0433
2004-06-30,25.7157
2004-07-01,25.0174
2004-07-02,24.6985
2004-07-06,24.8019
2004-07-07,24.3623
2004-07-08,23.8278
2004-07-09,23.5088
2004-07-12,23.4312
2004-07-13,23.3709
2004-07-14,22.9312
2004-07-15,23.5605
2004-07-16,23.5261
2004-07-19,23.1295
2004-07-20,23.7847
2004-07-21,23.1036
2004-07-22,22.5174
2004-07-23,24.5088
2004-07-26,24.8623
2004-07-27,24.8278
2004-07-28,24.2071
2004-07-29,24.0519
2004-07-30,24.0692
2004-08-02,24.164
2004-08-03,24.0088
2004-08-04,23.6036
2004-08-05,22.914
2004-08-06,21.6812
2004-08-09,21.9829
2004-08-10,22.8364
2004-08-11,22.5002
2004-08-12,21.9485
2004-08-13,21.6467
2004-08-16,22.3191
2004-08-17,22.4312
2004-08-18,22.8192
2004-08-19,22.9398
2004-08-20,23.2588
2004-08-23,22.0147
2004-08-24,22.1011
2004-08-25,22.4207
2004-08-26,22.4467
2004-08-27,22.2825
2004-08-30,21.8678
2004-08-31,21.2198
2004-09-01,21.1247
2004-09-02,21.79
2004-09-03,22.2047
2004-09-07,22.0147
2004-09-08,22.2566
2004-09-09,22.8959
2004-09-10,23.0342
2004-09-13,22.9996
2004-09-14,23.3798
2004-09-15,23.0687
2004-09-16,23.4662
2004-09-17,23.6908
2004-09-20,23.3279
2004-09-21,23.639
2004-09-22,23.3971
2004-09-23,22.9391
2004-09-24,23.3539
2004-09-27,23.0515
2004-09-28,22.9219
2004-09-29,23.0947
2004-09-30,22.2393
2004-10-01,22.8268
2004-10-04,22.7491
2004-10-05,22.4985
2004-10-06,22.438
2004-10-07,22.7231
2004-10-08,21.9974
2004-10-11,22.0838
2004-10-12,22.3084
2004-10-13,21.8764
2004-10-14,21.8073
2004-10-15,22.2825
2004-10-18,23.4403
2004-10-19,23.1983
2004-10-20,22.9651
2004-10-21,23.5871
2004-10-22,22.87
2004-10-25,22.6972
2004-10-26,22.5935
2004-10-27,23.2847
2004-10-28,22.9478
2004-10-29,22.9737
2004-11-01,23.0947
2004-11-02,23.5094
2004-11-03,23.5958
2004-11-04,23.7772
2004-11-05,24.3993
2004-11-08,24.0969
2004-11-09,23.855
2004-11-10,23.9932
2004-11-11,23.6649
2004-11-12,23.9759
2004-11-15,24.3647
2004-11-16,24.2006
2004-11-17,24.3042
2004-11-18,24.1833
2004-11-19,24.0191
2004-11-22,24.0018
2004-11-23,23.8979
2004-11-24,23.9672
2004-11-26,23.5949
2004-11-29,23.5689
2004-11-30,23.4477
2004-12-01,23.7594
2004-12-02,23.7767
2004-12-03,23.6901
2004-12-06,23.8027
2004-12-07,23.0926
2004-12-08,23.3351
2004-12-09,23.5169
2004-12-10,23.4303
2004-12-13,23.2918
2004-12-14,23.4996
2004-12-15,23.11
2004-12-16,22.6597
2004-12-17,22.6078
2004-12-20,22.7376
2004-12-21,23.032
2004-12-22,23.5775
2004-12-23,25.4651
2004-12-27,25.1361
2004-12-28,25.2746
2004-12-29,25.6643
2004-12-30,25.6123
2004-12-31,25.4911
2005-01-03,24.7551
2005-01-04,24.833
2005-01-05,24.3222
2005-01-06,24.7897
2005-01-07,24.5213
2005-01-10,25.0062
2005-01-11,24.6166
2005-01-12,24.8763
2005-01-13,24.4867
2005-01-14,24.7465
2005-01-18,25.0062
2005-01-19,24.8937
2005-01-20,24.8504
2005-01-21,24.6339
2005-01-24,24.7811
2005-01-25,25.0322
2005-01-26,25.2054
2005-01-27,25.6556
2005-01-28,26.0885
2005-01-31,26.2877
2005-02-01,25.8028
2005-02-02,25.5431
2005-02-03,25.2833
2005-02-04,25.1707
2005-02-07,25.1101
2005-02-08,25.0582
2005-02-09,24.7465
2005-02-10,24.911
2005-02-11,24.9629
2005-02-14,24.6685
2005-02-15,24.5646
2005-02-16,24.6425
2005-02-17,24.3135
2005-02-18,24.2789
2005-02-22,23.8113
2005-02-23,23.9589
2005-02-24,24.8704
2005-02-25,25.2784
2005-02-28,25.3305
2005-03-01,25.3131
2005-03-02,25.2003
2005-03-03,24.8617
2005-03-04,24.9746
2005-03-07,25.1829
2005-03-08,25.4086
2005-03-09,24.5752
2005-03-10,24.4884
2005-03-11,24.5752
2005-03-14,24.8096
2005-03-15,24.0457
2005-03-16,23.7419
2005-03-17,24.0283
2005-03-18,24.0023
2005-03-21,24.037
2005-03-22,23.82
2005-03-23,23.8287
2005-03-24,23.2644
2005-03-28,23.6117
2005-03-29,23.5596
2005-03-30,23.1863
2005-03-31,23.4294
2005-04-01,22.7262
2005-04-04,22.353
2005-04-05,22.6568
2005-04-06,22.8825
2005-04-07,22.8044
2005-04-08,22.4485
2005-04-11,22.1186
2005-04-12,21.9623
2005-04-13,21.4849
2005-04-14,21.4415
2005-04-15,21.5717
2005-04-18,21.5196
2005-04-19,22.0231
2005-04-20,22.1186
2005-04-21,22.5092
2005-04-22,21.0422
2005-04-25,21.7974
2005-04-26,21.4936
2005-04-27,21.1029
2005-04-28,21.0595
2005-04-29,21.4936
2005-05-02,21.8495
2005-05-03,21.9884
2005-05-04,22.188
2005-05-05,22.1967
2005-05-06,22.6568
2005-05-09,22.5005
2005-05-10,22.1099
2005-05-11,22.1533
2005-05-12,21.9276
2005-05-13,22.0491
2005-05-16,22.0405
2005-05-17,21.9971
2005-05-18,22.5092
2005-05-19,22.3616
2005-05-20,22.2141
2005-05-23,22.423
2005-05-24,22.3708
2005-05-25,21.8311
2005-05-26,22.188
2005-05-27,22.1706
2005-05-31,21.7266
2005-06-01,21.9878
2005-06-02,22.0226
2005-06-03,21.8572
2005-06-06,21.9704
2005-06-07,21.9181
2005-06-08,21.2479
2005-06-09,21.7354
2005-06-10,21.509
2005-06-13,21.6657
2005-06-14,21.9007
2005-06-15,21.7354
2005-06-16,21.6744
2005-06-17,21.7789
2005-06-20,21.3785
2005-06-21,21.4481
2005-06-22,21.5613
2005-06-23,21.2218
2005-06-24,21.0912
2005-06-27,21.1173
2005-06-28,21.7789
2005-06-29,21.7354
2005-06-30,21.7005
2005-07-01,21.9094
2005-07-05,22.3099
2005-07-06,22.2924
2005-07-07,22.3012
2005-07-08,22.6842
2005-07-11,22.8844
2005-07-12,23.2325
2005-07-13,24.7558
2005-07-14,24.4599
2005-07-15,24.4164
2005-07-18,24.4164
2005-07-19,25.8961
2005-07-20,25.783
2005-07-21,25.4957
2005-07-22,29.7958
2005-07-25,29.3083
2005-07-26,29.5956
2005-07-27,29.4041
2005-07-28,29.4998
2005-07-29,29.465
2005-08-01,29.1604
2005-08-02,28.9166
2005-08-03,29.378
2005-08-04,29.0298
2005-08-05,28.7513
2005-08-08,28.2203
2005-08-09,28.6468
2005-08-10,28.6555
2005-08-11,29.2039
2005-08-12,29.0994
2005-08-15,29.526
2005-08-16,29.0298
2005-08-17,29.0298
2005-08-18,28.7687
2005-08-19,28.8296
2005-08-22,29.0037
2005-08-23,28.4018
2005-08-24,28.4193
2005-08-25,28.9427
2005-08-26,28.7595
2005-08-29,28.6897
2005-08-30,28.681
2005-08-31,29.3701
2005-09-01,29.3526
2005-09-02,29.1607
2005-09-06,30.1028
2005-09-07,29.8498
2005-09-08,29.7452
2005-09-09,30.2249
2005-09-12,30.7134
2005-09-13,30.7657
2005-09-14,30.4604
2005-09-15,29.9196
2005-09-16,30.8355
2005-09-19,30.0069
2005-09-20,29.6841
2005-09-21,29.9283
2005-09-22,30.1377
2005-09-23,30.7919
2005-09-26,30.9228
2005-09-27,31.1321
2005-09-28,31.4112
2005-09-29,30.853
2005-09-30,31.0536
2005-10-03,31.2455
2005-10-04,30.3819
2005-10-05,29.7452
2005-10-06,29.7015
2005-10-07,30.1639
2005-10-10,29.7713
2005-10-11,29.4224
2005-10-12,29.1084
2005-10-13,28.9165
2005-10-14,29.7801
2005-10-17,29.3701
2005-10-18,28.7769
2005-10-19,28.9078
2005-10-20,28.3059
2005-10-21,32.5103
2005-10-24,32.7371
2005-10-25,32.2661
2005-10-26,32.1091
2005-10-27,31.3415
2005-10-28,31.9608
2005-10-31,32.0916
2005-11-01,32.3446
2005-11-02,32.8505
2005-11-03,33.3216
2005-11-04,32.8854
2005-11-07,32.9203
2005-11-08,31.7602
2005-11-09,31.4374
2005-11-10,32.1876
2005-11-11,32.5627
2005-11-14,32.048
2005-11-15,31.8474
2005-11-16,32.5452
2005-11-17,32.8244
2005-11-18,32.7546
2005-11-21,32.8156
2005-11-22,33.4274
2005-11-23,33.6546
2005-11-25,33.7944
2005-11-28,33.6546
2005-11-29,33.6284
2005-11-30,33.4011
2005-12-01,34.1527
2005-12-02,33.8468
2005-12-05,33.6633
2005-12-06,33.8119
2005-12-07,33.0166
2005-12-08,33.1652
2005-12-09,33.6546
2005-12-12,34.0915
2005-12-13,34.0566
2005-12-14,34.3712
2005-12-15,34.3624
2005-12-16,34.2576
2005-12-19,33.7157
2005-12-20,33.873
2005-12-21,33.8468
2005-12-22,32.868
2005-12-23,33.4274
2005-12-27,33.2089
2005-12-28,33.27
2005-12-29,33.2875
2005-12-30,33.0953
2006-01-03,32.7544
2006-01-04,32.737
2006-01-05,32.8418
2006-01-06,33.4536
2006-01-09,33.672
2006-01-10,34.5285
2006-01-11,34.6071
2006-01-12,34.6071
2006-01-13,34.4586
2006-01-17,32.8506
2006-01-18,33.1215
2006-01-19,33.3312
2006-01-20,32.1252
2006-01-23,31.933
2006-01-24,32.6758
2006-01-25,33.1652
2006-01-26,33.541
2006-01-27,31.5484
2006-01-30,32.335
2006-01-31,31.9242
2006-02-01,32.4398
2006-02-02,32.3175
2006-02-03,31.7844
2006-02-06,31.5047
2006-02-07,31.496
2006-02-08,31.933
2006-02-09,31.6708
2006-02-10,31.4348
2006-02-13,31.5659
2006-02-14,31.9155
2006-02-15,32.2213
2006-02-16,32.1514
2006-02-17,32.5272
2006-02-21,31.2163
2006-02-22,32.2039
2006-02-23,31.9323
2006-02-24,32.0987
2006-02-27,32.4403
2006-02-28,31.4769
2006-03-01,32.4753
2006-03-02,32.0725
2006-03-03,31.9236
2006-03-06,31.582
2006-03-07,31.074
2006-03-08,31.3806
2006-03-09,31.3806
2006-03-10,31.7046
2006-03-13,32.1338
2006-03-14,32.9483
2006-03-15,33.5614
2006-03-16,33.3512
2006-03-17,33.5789
2006-03-20,33.6051
2006-03-21,33.1234
2006-03-22,34.0343
2006-03-23,34.481
2006-03-24,34.4897
2006-03-27,34.1219
2006-03-28,34.1744
2006-03-29,34.3934
2006-03-30,33.6051
2006-03-31,33.8942
2006-04-03,33.7978
2006-04-04,34.2182
2006-04-05,33.9993
2006-04-06,33.9467
2006-04-07,34.0868
2006-04-10,33.5438
2006-04-11,33.3599
2006-04-12,33.3336
2006-04-13,33.8416
2006-04-17,33.3862
2006-04-18,35.4356
2006-04-19,36.6793
2006-04-20,35.9611
2006-04-21,36.9858
2006-04-24,37.2661
2006-04-25,36.5654
2006-04-26,37.1347
2006-04-27,36.9508
2006-04-28,36.942
2006-05-01,36.5304
2006-05-02,36.434
2006-05-03,36.4603
2006-05-04,37.1522
2006-05-05,37.4938
2006-05-08,37.5901
2006-05-09,38.4747
2006-05-10,38.1156
2006-05-11,37.958
2006-05-12,38.028
2006-05-15,37.739
2006-05-16,37.5901
2006-05-17,36.6355
2006-05-18,36.0224
2006-05-19,36.3202
2006-05-22,35.7334
2006-05-23,36.2862
2006-05-24,36.4003
2006-05-25,36.3213
2006-05-26,36.5494
2006-05-30,35.5578
2006-05-31,35.8474
2006-06-01,36.8215
2006-06-02,36.4266
2006-06-05,35.5227
2006-06-06,35.3121
2006-06-07,35.2507
2006-06-08,33.9519
2006-06-09,35.0313
2006-06-12,33.9519
2006-06-13,33.1972
2006-06-14,34.145
2006-06-15,35.4437
2006-06-16,35.277
2006-06-19,35.1893
2006-06-20,35.0313
2006-06-21,35.628
2006-06-22,35.628
2006-06-23,35.786
2006-06-26,35.6192
2006-06-27,35.2946
2006-06-28,35.3472
2006-06-29,36.4266
2006-06-30,36.8566
2006-07-03,36.6986
2006-07-05,36.0492
2006-07-06,36.2072
2006-07-07,35.1278
2006-07-10,34.6978
2006-07-11,35.3121
2006-07-12,34.5662
2006-07-13,32.1091
2006-07-14,31.0824
2006-07-17,30.8893
2006-07-18,31.1877
2006-07-19,31.4773
2006-07-20,29.0728
2006-07-21,28.5726
2006-07-24,29.4063
2006-07-25,30.512
2006-07-26,28.0987
2006-07-27,28.0285
2006-07-28,28.5287
2006-07-31,28.4234
2006-08-01,28.2392
2006-08-02,28.5024
2006-08-03,29.1957
2006-08-04,28.6077
2006-08-07,28.0812
2006-08-08,28.2479
2006-08-09,27.7565
2006-08-10,28.3796
2006-08-11,27.6775
2006-08-14,27.6951
2006-08-15,28.1075
2006-08-16,28.441
2006-08-17,28.8008
2006-08-18,28.792
2006-08-21,28.3445
2006-08-22,27.8179
2006-08-23,27.3605
2006-08-24,26.6039
2006-08-25,26.859
2006-08-28,27.0262
2006-08-29,27.0438
2006-08-30,27.3957
2006-08-31,27.1933
2006-09-01,27.7476
2006-09-05,27.6156
2006-09-06,26.903
2006-09-07,26.5687
2006-09-08,26.815
2006-09-11,26.3927
2006-09-12,27.4396
2006-09-13,28.1171
2006-09-14,28.0467
2006-09-15,28.1523
2006-09-18,28.6889
2006-09-19,28.3458
2006-09-20,29.0144
2006-09-21,28.5921
2006-09-22,28.1523
2006-09-25,28.3722
2006-09-26,28.4866
2006-09-27,28.8121
2006-09-28,30.2549
2006-09-29,29.9206
2006-10-02,29.7358
2006-10-03,29.3575
2006-10-04,30.3341
2006-10-05,30.422
2006-10-06,29.9909
2006-10-09,30.2109
2006-10-10,29.947
2006-10-11,30.1141
2006-10-12,30.9675
2006-10-13,30.9059
2006-10-16,31.6801
2006-10-17,32.0672
2006-10-18,31.9968
2006-10-19,31.7857
2006-10-20,31.0203
2006-10-23,32.3663
2006-10-24,32.2431
2006-10-25,32.9293
2006-10-26,32.9469
2006-10-27,32.3311
2006-10-30,32.8941
2006-10-31,32.1288
2006-11-01,31.6009
2006-11-02,32.0056
2006-11-03,32.076
2006-11-06,32.12
2006-11-07,32.8238
2006-11-08,32.8062
2006-11-09,32.5159
2006-11-10,32.5422
2006-11-13,32.771
2006-11-14,33.0349
2006-11-15,33.9235
2006-11-16,33.8355
2006-11-17,34.1434
2006-11-20,34.1081
2006-11-21,34.2756
2006-11-22,34.6723
2006-11-24,34.399
2006-11-27,33.3676
2006-11-28,33.4557
2006-11-29,33.8172
2006-11-30,34.0376
2006-12-01,33.2265
2006-12-04,33.8172
2006-12-05,33.2794
2006-12-06,33.4028
2006-12-07,33.491
2006-12-08,32.9973
2006-12-11,33.3676
2006-12-12,32.9003
2006-12-13,33.1031
2006-12-14,33.4645
2006-12-15,33.0678
2006-12-18,32.6711
2006-12-19,32.7946
2006-12-20,32.7328
2006-12-21,32.9092
2006-12-22,32.8034
2006-12-26,32.9003
2006-12-27,32.9973
2006-12-28,32.9092
2006-12-29,32.7593
2007-01-03,34.0993
2007-01-04,34.2491
2007-01-05,33.8701
2007-01-08,33.9406
2007-01-09,33.4028
2007-01-10,33.6673
2007-01-11,34.2932
2007-01-12,34.0552
2007-01-16,33.5968
2007-01-17,33.6232
2007-01-18,32.7857
2007-01-19,32.7946
2007-01-22,33.6232
2007-01-23,35.6949
2007-01-24,36.3208
2007-01-25,35.7214
2007-01-26,35.0778
2007-01-29,35.4128
2007-01-30,35.2277
2007-01-31,35.8536
2007-02-01,36.3473
2007-02-02,36.6206
2007-02-05,36.2415
2007-02-06,36.4619
2007-02-07,36.3032
2007-02-08,36.4795
2007-02-09,35.8536
2007-02-12,35.4922
2007-02-13,35.9947
2007-02-14,36.4266
2007-02-15,36.3561
2007-02-16,36.4972
2007-02-20,36.2591
2007-02-21,36.4443
2007-02-22,36.8066
2007-02-23,36.6917
2007-02-26,36.4266
2007-02-27,35.0392
2007-02-28,34.5001
2007-03-01,34.1289
2007-03-02,33.3778
2007-03-05,33.148
2007-03-06,33.9434
2007-03-07,33.908
2007-03-08,34.0936
2007-03-09,33.6606
2007-03-12,33.1303
2007-03-13,31.902
2007-03-14,32.2908
2007-03-15,32.4676
2007-03-16,32.9359
2007-03-19,33.3955
2007-03-20,33.4662
2007-03-21,34.288
2007-03-22,34.3587
2007-03-23,34.2615
2007-03-26,34.1555
2007-03-27,34.1201
2007-03-28,34.0141
2007-03-29,32.7857
2007-03-30,32.6708
2007-04-02,32.6797
2007-04-03,33.1569
2007-04-04,31.195
2007-04-05,31.3276
2007-04-09,31.3541
2007-04-10,31.7429
2007-04-11,31.5573
2007-04-12,32.1848
2007-04-13,32.0169
2007-04-16,32.5206
2007-04-17,32.6266
2007-04-18,32.8741
2007-04-19,32.9359
2007-04-20,30.002
2007-04-23,29.3039
2007-04-24,29.5602
2007-04-25,30.1964
2007-04-26,30.1434
2007-04-27,30.2229
2007-04-30,29.4629
2007-05-01,29.4629
2007-05-02,29.8695
2007-05-03,30.4527
2007-05-04,30.2671
2007-05-07,30.3113
2007-05-08,30.4792
2007-05-09,30.7355
2007-05-10,30.4969
2007-05-11,30.9122
2007-05-14,30.6736
2007-05-15,30.5234
2007-05-16,31.0006
2007-05-17,30.6648
2007-05-18,30.8769
2007-05-21,30.9653
2007-05-22,30.8327
2007-05-23,30.7176
2007-05-24,30.177
2007-05-25,30.4694
2007-05-29,30.177
2007-05-30,30.7796
2007-05-31,31.1607
2007-06-01,31.3823
2007-06-04,31.6304
2007-06-05,31.0809
2007-06-06,30.9303
2007-06-07,30.8505
2007-06-08,31.595
2007-06-11,31.2493
2007-06-12,30.9657
2007-06-13,31.3823
2007-06-14,31.3734
2007-06-15,31.462
2007-06-18,31.6747
2007-06-19,31.8165
2007-06-20,31.8608
2007-06-21,32.2597
2007-06-22,32.1267
2007-06-25,32.2597
2007-06-26,32.3571
2007-06-27,32.5078
2007-06-28,32.8534
2007-06-29,32.3306
2007-07-02,32.8091
2007-07-03,32.9421
2007-07-05,32.8003
2007-07-06,32.9332
2007-07-09,33.4029
2007-07-10,32.9332
2007-07-11,33.0573
2007-07-12,33.6068
2007-07-13,33.6777
2007-07-16,33.5536
2007-07-17,33.5625
2007-07-18,33.3941
2007-07-19,33.6422
2007-07-20,33.5536
2007-07-23,33.332
2007-07-24,31.9938
2007-07-25,32.1444
2007-07-26,31.4266
2007-07-27,30.6733
2007-07-30,30.6467
2007-07-31,30.1504
2007-08-01,30.434
2007-08-02,30.5137
2007-08-03,29.6186
2007-08-06,29.8845
2007-08-07,29.7604
2007-08-08,30.2213
2007-08-09,28.8742
2007-08-10,30.0529
2007-08-13,29.2641
2007-08-14,29.1932
2007-08-15,27.979
2007-08-16,28.2715
2007-08-17,28.5817
2007-08-20,28.4399
2007-08-21,28.626
2007-08-22,28.5728
2007-08-23,28.4661
2007-08-24,28.9017
2007-08-27,28.4394
2007-08-28,27.8527
2007-08-29,28.5728
2007-08-30,28.475
2007-08-31,28.3772
2007-09-04,27.8704
2007-09-05,27.0703
2007-09-06,27.4793
2007-09-07,26.6792
2007-09-10,26.5458
2007-09-11,26.7859
2007-09-12,26.7236
2007-09-13,27.0081
2007-09-14,27.097
2007-09-17,26.6703
2007-09-18,27.7371
2007-09-19,28.4039
2007-09-20,27.4171
2007-09-21,27.4526
2007-09-24,26.9637
2007-09-25,27.2659
2007-09-26,26.2258
2007-09-27,26.6081
2007-09-28,26.5014
2007-10-01,27.1326
2007-10-02,27.257
2007-10-03,27.6037
2007-10-04,27.4882
2007-10-05,29.0439
2007-10-08,28.635
2007-10-09,28.9106
2007-10-10,28.4039
2007-10-11,28.4394
2007-10-12,28.3061
2007-10-15,28.0127
2007-10-16,28.1194
2007-10-17,28.5105
2007-10-18,28.8306
2007-10-19,27.0526
2007-10-22,26.8659
2007-10-23,27.0614
2007-10-24,26.7859
2007-10-25,26.6169
2007-10-26,26.6258
2007-10-29,26.4569
2007-10-30,26.5014
2007-10-31,26.7592
2007-11-01,26.3236
2007-11-02,25.9235
2007-11-05,25.559
2007-11-06,25.4079
2007-11-07,24.5367
2007-11-08,24.7322
2007-11-09,24.1899
2007-11-12,23.9055
2007-11-13,24.0833
2007-11-14,23.8255
2007-11-15,23.212
2007-11-16,22.9187
2007-11-19,22.4386
2007-11-20,22.8475
2007-11-21,22.1781
2007-11-23,22.4816
2007-11-26,22.0175
2007-11-27,21.9282
2007-11-28,22.8653
2007-11-29,23.1063
2007-11-30,24.0702
2007-12-03,22.312
2007-12-04,22.3834
2007-12-05,22.9813
2007-12-06,23.4633
2007-12-07,23.9898
2007-12-10,24.1237
2007-12-11,23.374
2007-12-12,23.8827
2007-12-13,22.9367
2007-12-14,22.6779
2007-12-17,22.3388
2007-12-18,22.428
2007-12-19,23.0974
2007-12-20,23.4633
2007-12-21,23.9809
2007-12-24,24.4896
2007-12-26,24.2397
2007-12-27,24.0969
2007-12-28,24.5432
2007-12-31,24.0969
2008-01-02,22.8028
2008-01-03,21.8836
2008-01-04,21.3392
2008-01-07,21.3927
2008-01-08,20.527
2008-01-09,20.6609
2008-01-10,21.2142
2008-01-11,21.1696
2008-01-14,21.6158
2008-01-15,21.0893
2008-01-16,20.8126
2008-01-17,19.8934
2008-01-18,19.7416
2008-01-22,20.0629
2008-01-23,20.9643
2008-01-24,21.6158
2008-01-25,20.8037
2008-01-28,21.7586
2008-01-29,22.1603
2008-01-30,24.9537
2008-01-31,24.7574
2008-02-01,24.4896
2008-02-04,23.9898
2008-02-05,23.0349
2008-02-06,23.0617
2008-02-07,23.3651
2008-02-08,23.1063
2008-02-11,22.8921
2008-02-12,22.9367
2008-02-13,23.615
2008-02-14,23.4276
2008-02-15,23.2134
2008-02-19,22.9635
2008-02-20,23.3116
2008-02-21,23.0338
2008-02-22,23.1414
2008-02-25,23.5895
2008-02-26,24.8263
2008-02-27,25.0862
2008-02-28,24.6202
2008-02-29,24.1541
2008-03-03,23.8942
2008-03-04,23.8046
2008-03-05,23.6164
2008-03-06,22.6484
2008-03-07,22.1017
2008-03-10,21.8149
2008-03-11,23.1145
2008-03-12,22.8814
2008-03-13,22.98
2008-03-14,22.5588
2008-03-17,21.9493
2008-03-18,23.0965
2008-03-19,22.5857
2008-03-20,22.8366
2008-03-24,24.2706
2008-03-25,24.1541
2008-03-26,23.6343
2008-03-27,23.4371
2008-03-28,23.222
2008-03-31,23.0876
2008-04-01,23.5447
2008-04-02,23.6074
2008-04-03,23.3385
2008-04-04,23.1682
2008-04-07,22.98
2008-04-08,22.5588
2008-04-09,22.0658
2008-04-10,21.8239
2008-04-11,21.08
2008-04-14,20.9993
2008-04-15,21.2054
2008-04-16,21.5371
2008-04-17,21.4743
2008-04-18,21.7253
2008-04-21,21.6536
2008-04-22,21.4922
2008-04-23,20.8111
2008-04-24,21.1158
2008-04-25,21.0889
2008-04-28,21.2413
2008-04-29,21.5998
2008-04-30,21.2503
2008-05-01,21.8866
2008-05-02,22.4154
2008-05-05,22.0569
2008-05-06,21.9404
2008-05-07,21.8507
2008-05-08,21.6984
2008-05-09,21.9941
2008-05-12,22.6843
2008-05-13,22.7022
2008-05-14,22.9442
2008-05-15,22.98
2008-05-16,22.7739
2008-05-19,22.7918
2008-05-20,22.514
2008-05-21,22.2529
2008-05-22,21.3527
2008-05-23,21.4517
2008-05-27,21.6678
2008-05-28,21.6498
2008-05-29,22.1449
2008-05-30,22.0999
2008-06-02,22.1899
2008-06-03,22.2979
2008-06-04,22.523
2008-06-05,22.8651
2008-06-06,22.1809
2008-06-09,22.0909
2008-06-10,22.3159
2008-06-11,21.8298
2008-06-12,21.9288
2008-06-13,22.748
2008-06-16,22.9011
2008-06-17,22.631
2008-06-18,22.604
2008-06-19,23.1981
2008-06-20,22.658
2008-06-23,22.478
2008-06-24,21.9468
2008-06-25,22.2889
2008-06-26,21.4787
2008-06-27,21.3257
2008-06-30,21.5958
2008-07-01,21.5328
2008-07-02,20.5515
2008-07-03,20.4615
2008-07-07,20.1555
2008-07-08,20.3715
2008-07-09,20.0474
2008-07-10,20.6236
2008-07-11,20.8576
2008-07-14,20.5605
2008-07-15,20.2815
2008-07-16,21.2537
2008-07-17,21.7668
2008-07-18,21.2267
2008-07-21,21.1457
2008-07-22,21.1187
2008-07-23,21.4787
2008-07-24,23.3422
2008-07-25,22.811
2008-07-28,22.2709
2008-07-29,22.8921
2008-07-30,23.4862
2008-07-31,22.793
2008-08-01,22.9101
2008-08-04,22.532
2008-08-05,23.6752
2008-08-06,23.4232
2008-08-07,23.2251
2008-08-08,24.1883
2008-08-11,24.9625
2008-08-12,24.3864
2008-08-13,24.4764
2008-08-14,25.0255
2008-08-15,25.4576
2008-08-18,23.8823
2008-08-19,23.2881
2008-08-20,23.4052
2008-08-21,23.2967
2008-08-22,23.6402
2008-08-25,23.1702
2008-08-26,23.1792
2008-08-27,23.3871
2008-08-28,23.4323
2008-08-29,23.143
2008-09-02,23.3419
2008-09-03,23.6493
2008-09-04,22.5916
2008-09-05,22.7181
2008-09-08,23.3419
2008-09-09,23.6402
2008-09-10,23.351
2008-09-11,23.6041
2008-09-12,24.0832
2008-09-15,22.8357
2008-09-16,22.6639
2008-09-17,21.4887
2008-09-18,23.0526
2008-09-19,25.376
2008-09-22,23.8572
2008-09-23,23.5046
2008-09-24,23.4504
2008-09-25,23.1973
2008-09-26,23.0436
2008-09-29,20.9191
2008-09-30,22.3294
2008-10-01,21.57
2008-10-02,19.9789
2008-10-03,19.3009
2008-10-06,19.0388
2008-10-07,18.3607
2008-10-08,18.3698
2008-10-09,16.9143
2008-10-10,17.8726
2008-10-13,18.5687
2008-10-14,17.7098
2008-10-15,16.2182
2008-10-16,16.851
2008-10-17,16.8691
2008-10-20,17.9539
2008-10-21,16.9776
2008-10-22,15.5402
2008-10-23,14.7808
2008-10-24,14.3378
2008-10-27,14.4192
2008-10-28,15.6125
2008-10-29,15.5944
2008-10-30,16.4894
2008-10-31,17.0409
2008-11-03,17.3573
2008-11-04,18.1347
2008-11-05,17.0137
2008-11-06,16.164
2008-11-07,16.5075
2008-11-10,16.2724
2008-11-11,16.2634
2008-11-12,15.6396
2008-11-13,17.3573
2008-11-14,16.0826
2008-11-17,16.1911
2008-11-18,16.5346
2008-11-19,15.8656
2008-11-20,15.052
2008-11-21,16.5717
2008-11-24,16.872
2008-11-25,17.3543
2008-11-26,18.3008
2008-11-28,19.0106
2008-12-01,17.236
2008-12-02,17.6365
2008-12-03,17.7366
2008-12-04,17.1359
2008-12-05,18.2007
2008-12-08,17.6547
2008-12-09,17.3816
2008-12-10,18.0005
2008-12-11,16.6627
2008-12-12,16.5444
2008-12-15,16.3533
2008-12-16,17.4635
2008-12-17,17.864
2008-12-18,17.7093
2008-12-19,18.0733
2008-12-22,16.9994
2008-12-23,17.1814
2008-12-24,17.236
2008-12-26,17.5091
2008-12-29,17.418
2008-12-30,18.1734
2008-12-31,18.9833
2009-01-02,19.411
2009-01-05,18.7376
2009-01-06,18.8377
2009-01-07,17.864
2009-01-08,17.8731
2009-01-09,17.4089
2009-01-12,17.0722
2009-01-13,17.2906
2009-01-14,16.3806
2009-01-15,16.9357
2009-01-16,16.9175
2009-01-20,15.9438
2009-01-21,16.3988
2009-01-22,15.8983
2009-01-23,15.8346
2009-01-26,16.0166
2009-01-27,16.508
2009-01-28,16.7355
2009-01-29,15.5798
2009-01-30,15.3796
2009-02-02,14.9428
2009-02-03,15.4433
2009-02-04,15.3068
2009-02-05,15.9256
2009-02-06,16.6081
2009-02-09,16.4716
2009-02-10,15.8164
2009-02-11,15.962
2009-02-12,16.1986
2009-02-13,15.9984
2009-02-17,15.143
2009-02-18,15.325
2009-02-19,14.9701
2009-02-20,15.143
2009-02-23,14.6754
2009-02-24,15.0604
2009-02-25,14.6937
2009-02-26,14.2904
2009-02-27,14.1438
2009-03-02,13.3738
2009-03-03,13.3096
2009-03-04,13.8138
2009-03-05,13.4838
2009-03-06,13.2271
2009-03-09,13.2271
2009-03-10,14.2813
2009-03-11,14.3271
2009-03-12,15.2712
2009-03-13,15.0879
2009-03-16,14.8679
2009-03-17,15.2712
2009-03-18,15.9404
2009-03-19,15.7112
2009-03-20,15.3721
2009-03-23,16.6095
2009-03-24,16.0504
2009-03-25,16.1329
2009-03-26,17.3153
2009-03-27,16.8937
2009-03-30,15.9679
2009-03-31,16.3345
2009-04-01,16.7103
2009-04-02,18.1128
2009-04-03,18.2503
2009-04-06,17.8928
2009-04-07,17.352
2009-04-08,17.4987
2009-04-09,18.782
2009-04-13,18.5345
2009-04-14,17.9845
2009-04-15,18.3878
2009-04-16,19.0844
2009-04-17,19.6986
2009-04-20,18.5895
2009-04-21,20.2852
2009-04-22,21.651
2009-04-23,19.5428
2009-04-24,21.4494
2009-04-27,21.1102
2009-04-28,20.8627
2009-04-29,22.1369
2009-04-30,21.9902
2009-05-01,21.7244
2009-05-04,21.7885
2009-05-05,21.5869
2009-05-06,21.8527
2009-05-07,21.5594
2009-05-08,21.7702
2009-05-11,21.816
2009-05-12,21.3027
2009-05-13,20.3036
2009-05-14,20.3402
2009-05-15,20.1019
2009-05-18,20.7527
2009-05-19,20.7619
2009-05-20,20.7069
2009-05-21,20.2093
2009-05-22,19.9697
2009-05-26,20.2277
2009-05-27,19.5182
2009-05-28,19.426
2009-05-29,19.6932
2009-06-01,20.836
2009-06-02,21.1032
2009-06-03,20.3568
2009-06-04,20.3383
2009-06-05,21.0203
2009-06-08,21.3428
2009-06-09,21.352
2009-06-10,21.0203
2009-06-11,21.1677
2009-06-12,20.6885
2009-06-15,20.237
2009-06-16,19.9513
2009-06-17,20.2646
2009-06-18,20.4213
2009-06-19,20.4028
2009-06-22,19.9052
2009-06-23,19.7946
2009-06-24,20.0342
2009-06-25,21.1585
2009-06-26,21.4257
2009-06-29,21.5548
2009-06-30,21.7575
2009-07-01,21.7022
2009-07-02,20.1079
2009-07-06,19.8315
2009-07-07,19.1127
2009-07-08,18.9468
2009-07-09,19.3431
2009-07-10,19.2048
2009-07-13,19.4352
2009-07-14,19.6656
2009-07-15,20.8452
2009-07-16,20.6609
2009-07-17,20.8544
2009-07-20,21.2506
2009-07-21,21.6377
2009-07-22,21.1769
2009-07-23,22.6514
2009-07-24,22.9924
2009-07-27,22.9002
2009-07-28,22.7988
2009-07-29,22.4579
2009-07-30,22.6422
2009-07-31,22.8726
2009-08-03,23.6282
2009-08-04,24.2456
2009-08-05,23.4808
2009-08-06,23.7849
2009-08-07,25.6095
2009-08-10,24.8907
2009-08-11,24.1351
2009-08-12,24.688
2009-08-13,24.8262
2009-08-14,24.3009
2009-08-17,23.7572
2009-08-18,23.8494
2009-08-19,23.8125
2009-08-20,24.0245
2009-08-21,24.4689
2009-08-24,24.3763
2009-08-25,24.4318
2009-08-26,24.5892
2009-08-27,24.978
2009-08-28,24.8021
2009-08-31,24.3392
2009-09-01,23.793
2009-09-02,23.6264
2009-09-03,23.8393
2009-09-04,24.1726
2009-09-08,23.9412
2009-09-09,24.4318
2009-09-10,24.867
2009-09-11,24.941
2009-09-14,24.8855
2009-09-15,24.6818
2009-09-16,24.867
2009-09-17,25.0521
2009-09-18,25.3854
2009-09-21,25.1262
2009-09-22,25.0706
2009-09-23,24.6448
2009-09-24,23.9412
2009-09-25,23.469
2009-09-28,23.8763
2009-09-29,23.6079
2009-09-30,23.1542
2009-10-01,22.2747
2009-10-02,22.0062
2009-10-05,23.0616
2009-10-06,23.3857
2009-10-07,23.2283
2009-10-08,24.006
2009-10-09,24.0615
2009-10-12,24.08
2009-10-13,23.8208
2009-10-14,24.1911
2009-10-15,24.4503
2009-10-16,24.4318
2009-10-19,24.5892
2009-10-20,24.4689
2009-10-21,22.8302
2009-10-22,24.2744
2009-10-23,23.8208
2009-10-26,23.9319
2009-10-27,23.4968
2009-10-28,22.071
2009-10-29,22.4321
2009-10-30,21.5063
2009-11-02,21.6544
2009-11-03,21.6637
2009-11-04,21.6915
2009-11-05,22.3858
2009-11-06,22.2469
2009-11-09,22.571
2009-11-10,22.5154
2009-11-11,22.3858
2009-11-12,21.9785
2009-11-13,21.9414
2009-11-16,22.4228
2009-11-17,22.4043
2009-11-18,22.1914
2009-11-19,21.6359
2009-11-20,21.5156
2009-11-23,21.832
2009-11-24,21.3853
2009-11-25,21.1527
2009-11-27,20.6502
2009-11-30,20.8177
2009-12-01,21.162
2009-12-02,21.2737
2009-12-03,21.5621
2009-12-04,23.9259
2009-12-07,23.8142
2009-12-08,23.5536
2009-12-09,23.3954
2009-12-10,23.9073
2009-12-11,24.0748
2009-12-14,24.7634
2009-12-15,24.7169
2009-12-16,24.8193
2009-12-17,24.3074
2009-12-18,24.2888
2009-12-21,24.8286
2009-12-22,25.1543
2009-12-23,25.266
2009-12-24,25.2194
2009-12-28,25.2753
2009-12-29,25.3962
2009-12-30,25.359
2009-12-31,24.8844
2010-01-04,25.2194
2010-01-05,25.5731
2010-01-06,26.7456
2010-01-07,27.2016
2010-01-08,27.1644
2010-01-11,27.304
2010-01-12,26.3362
2010-01-13,26.4664
2010-01-14,26.8294
2010-01-15,26.606
2010-01-19,26.8852
2010-01-20,26.1593
2010-01-21,25.3869
2010-01-22,24.7448
2010-01-25,24.5308
2010-01-26,24.568
2010-01-27,25.0426
2010-01-28,25.0426
2010-01-29,25.0984
2010-02-01,24.9682
2010-02-02,25.3962
2010-02-03,25.1729
2010-02-04,24.5308
2010-02-05,24.5587
2010-02-08,24.568
2010-02-09,24.7448
2010-02-10,24.9309
2010-02-11,25.3125
2010-02-12,25.1729
2010-02-16,25.9918
2010-02-17,26.2245
2010-02-18,26.3268
2010-02-19,26.6433
2010-02-22,26.1686
2010-02-23,25.4674
2010-02-24,25.8975
2010-02-25,25.8882
2010-02-26,26.0751
2010-03-01,26.9914
2010-03-02,26.8979
2010-03-03,26.9072
2010-03-04,26.9166
2010-03-05,27.9637
2010-03-08,27.7206
2010-03-09,27.8889
2010-03-10,28.1974
2010-03-11,28.3283
2010-03-12,28.1787
2010-03-15,28.2909
2010-03-16,28.8425
2010-03-17,29.338
2010-03-18,29.3754
2010-03-19,29.1043
2010-03-22,29.338
2010-03-23,29.5063
2010-03-24,28.8332
2010-03-25,28.7584
2010-03-26,28.9173
2010-03-29,29.123
2010-03-30,29.0295
2010-03-31,28.4592
2010-04-01,28.4686
2010-04-05,29.1604
2010-04-06,29.497
2010-04-07,29.0202
2010-04-08,28.8986
2010-04-09,29.0763
2010-04-12,29.0763
2010-04-13,29.1324
2010-04-14,29.2165
2010-04-15,29.2633
2010-04-16,28.6743
2010-04-19,28.506
2010-04-20,28.6929
2010-04-21,29.0576
2010-04-22,29.8803
2010-04-23,30.0673
2010-04-26,29.8242
2010-04-27,29.3567
2010-04-28,26.3369
2010-04-29,26.0751
2010-04-30,25.589
2010-05-03,26.1686
2010-05-04,25.3272
2010-05-05,25.2337
2010-05-06,24.7102
2010-05-07,23.8687
2010-05-10,25.5048
2010-05-11,25.4581
2010-05-12,25.8601
2010-05-13,25.6918
2010-05-14,24.841
2010-05-17,25.3179
2010-05-18,25.1028
2010-05-19,24.7663
2010-05-20,23.233
2010-05-21,23.6936
2010-05-24,23.9192
2010-05-25,23.3083
2010-05-26,23.4304
2010-05-27,24.0413
2010-05-28,23.7876
2010-06-01,23.2425
2010-06-02,23.4962
2010-06-03,23.7218
2010-06-04,22.1898
2010-06-07,21.4474
2010-06-08,21.5883
2010-06-09,21.6353
2010-06-10,22.735
2010-06-11,22.688
2010-06-14,22.4718
2010-06-15,23.0357
2010-06-16,22.9417
2010-06-17,23.0075
2010-06-18,23.2519
2010-06-21,23.5244
2010-06-22,23.1861
2010-06-23,23.468
2010-06-24,23.4586
2010-06-25,23.6278
2010-06-28,23.3929
2010-06-29,22.312
2010-06-30,22.1429
2010-07-01,22.0959
2010-07-02,21.9549
2010-07-06,22.0395
2010-07-07,23.1015
2010-07-08,23.2613
2010-07-09,23.891
2010-07-12,23.5056
2010-07-13,24.3045
2010-07-14,23.6936
2010-07-15,23.468
2010-07-16,22.5658
2010-07-19,22.6222
2010-07-20,23.1203
2010-07-21,22.8195
2010-07-22,24.1259
2010-07-23,24.4549
2010-07-26,24.7462
2010-07-27,24.5395
2010-07-28,24.0413
2010-07-29,23.6278
2010-07-30,23.6842
2010-08-02,24.2669
2010-08-03,24.1541
2010-08-04,24.8026
2010-08-05,24.3891
2010-08-06,23.797
2010-08-09,24.1541
2010-08-10,23.562
2010-08-11,22.2838
2010-08-12,22.3872
2010-08-13,22.312
2010-08-16,22.1992
2010-08-17,22.5846
2010-08-18,22.547
2010-08-19,21.7669
2010-08-20,21.4474
2010-08-23,20.7952
2010-08-24,20.3603
2010-08-25,20.8046
2010-08-26,20.6534
2010-08-27,21.126
2010-08-30,20.5399
2010-08-31,20.3414
2010-09-01,21.3717
2010-09-02,21.7404
2010-09-03,22.6951
2010-09-07,22.0807
2010-09-08,22.1374
2010-09-09,22.5533
2010-09-10,22.3832
2010-09-13,22.8841
2010-09-14,22.7234
2010-09-15,22.7045
2010-09-16,22.6006
2010-09-17,23.1771
2010-09-20,23.7254
2010-09-21,23.6309
2010-09-22,23.3756
2010-09-23,23.1204
2010-09-24,23.8199
2010-09-27,23.5174
2010-09-28,23.9617
2010-09-29,24.009
2010-09-30,24.6045
2010-10-01,24.6234
2010-10-04,23.9995
2010-10-05,24.8975
2010-10-06,24.7462
2010-10-07,24.6423
2010-10-08,25.0676
2010-10-11,25.1432
2010-10-12,25.3795
2010-10-13,25.7387
2010-10-14,25.4835
2010-10-15,25.285
2010-10-18,25.6064
2010-10-19,25.0582
2010-10-20,25.6537
2010-10-21,25.5402
2010-10-22,25.8616
2010-10-25,25.9372
2010-10-26,25.9089
2010-10-27,25.7387
2010-10-28,25.7765
2010-10-29,25.6442
2010-11-01,25.786
2010-11-02,26.079
2010-11-03,26.2964
2010-11-04,26.7879
2010-11-05,26.8447
2010-11-08,26.5611
2010-11-09,26.0885
2010-11-10,26.2397
2010-11-11,26.2964
2010-11-12,26.1168
2010-11-15,26.0885
2010-11-16,25.5591
2010-11-17,25.5213
2010-11-18,25.9939
2010-11-19,25.6631
2010-11-22,25.948
2010-11-23,25.7675
2010-11-24,26.7268
2010-11-26,26.5084
2010-11-29,26.5748
2010-11-30,26.3374
2010-12-01,27.3632
2010-12-02,28.3699
2010-12-03,28.256
2010-12-06,28.1325
2010-12-07,28.2085
2010-12-08,28.3889
2010-12-09,28.6644
2010-12-10,28.6644
2010-12-13,28.6644
2010-12-14,29.0063
2010-12-15,28.7403
2010-12-16,28.6834
2010-12-17,28.9208
2010-12-20,28.8068
2010-12-21,29.2437
2010-12-22,29.2912
2010-12-23,29.3482
2010-12-27,29.3292
2010-12-28,29.4052
2010-12-29,29.3197
2010-12-30,29.3577
2010-12-31,29.0918
2011-01-03,29.3767
2011-01-04,28.9113
2011-01-05,30.013
2011-01-06,30.1745
2011-01-07,30.146
2011-01-10,30.355
2011-01-11,30.7539
2011-01-12,31.2953
2011-01-13,31.2193
2011-01-14,31.3712
2011-01-18,32.1501
2011-01-19,31.3427
2011-01-20,31.1623
2011-01-21,31.1908
2011-01-24,31.6847
2011-01-25,32.1216
2011-01-26,32.0171
2011-01-27,29.9656
2011-01-28,29.2247
2011-01-31,29.7946
2011-02-01,30.203
2011-02-02,30.203
2011-02-03,31.1528
2011-02-04,31.8556
2011-02-07,31.8366
2011-02-08,31.8841
2011-02-09,31.6847
2011-02-10,31.5612
2011-02-11,31.5327
2011-02-14,31.1813
2011-02-15,30.8678
2011-02-16,30.9533
2011-02-17,30.8868
2011-02-18,30.9723
2011-02-22,30.393
2011-02-23,29.7634
2011-02-24,30.0114
2011-02-25,30.4407
2011-02-28,30.4216
2011-03-01,29.8874
2011-03-02,30.0877
2011-03-03,31.6617
2011-03-04,31.2897
2011-03-07,30.6219
2011-03-08,31.2706
2011-03-09,29.9064
2011-03-10,28.7903
2011-03-11,29.3055
2011-03-14,28.7999
2011-03-15,28.7712
2011-03-16,28.4755
2011-03-17,28.2561
2011-03-18,28.361
2011-03-21,28.9143
2011-03-22,28.3133
2011-03-23,28.1416
2011-03-24,28.0844
2011-03-25,28.361
2011-03-28,27.989
2011-03-29,28.2943
2011-03-30,28.7235
2011-03-31,29.2101
2011-04-01,29.6393
2011-04-04,29.5535
2011-04-05,29.8969
2011-04-06,29.8969
2011-04-07,29.6298
2011-04-08,28.962
2011-04-11,28.6663
2011-04-12,28.5805
2011-04-13,28.6377
2011-04-14,28.6663
2011-04-15,28.714
2011-04-18,27.8841
2011-04-19,28.2561
2011-04-20,28.838
2011-04-21,29.2005
2011-04-25,29.5726
2011-04-26,29.5153
2011-04-27,29.1337
2011-04-28,28.7808
2011-04-29,28.9239
2011-05-02,28.7331
2011-05-03,28.5423
2011-05-04,28.0558
2011-05-05,27.636
2011-05-06,27.5025
2011-05-09,27.4739
2011-05-10,27.6933
2011-05-11,27.5216
2011-05-12,27.6933
2011-05-13,27.0732
2011-05-16,26.31
2011-05-17,26.186
2011-05-18,26.9396
2011-05-19,26.6058
2011-05-20,26.3577
2011-05-23,26.0318
2011-05-24,26.0797
2011-05-25,26.2523
2011-05-26,26.5783
2011-05-27,26.4057
2011-05-31,26.4153
2011-06-01,25.6579
2011-06-02,25.4661
2011-06-03,25.5332
2011-06-06,25.2168
2011-06-07,25.6387
2011-06-08,25.1305
2011-06-09,25.1113
2011-06-10,24.6415
2011-06-13,24.4689
2011-06-14,25.0634
2011-06-15,24.4498
2011-06-16,24.6415
2011-06-17,24.7949
2011-06-20,25.2935
2011-06-21,25.7346
2011-06-22,25.3798
2011-06-23,25.4469
2011-06-24,24.91
2011-06-27,25.1593
2011-06-28,25.4086
2011-06-29,25.2743
2011-06-30,25.9359
2011-07-01,26.4249
2011-07-05,25.8784
2011-07-06,26.0701
2011-07-07,26.6646
2011-07-08,25.5907
2011-07-11,24.862
2011-07-12,24.7662
2011-07-13,24.7662
2011-07-14,24.2868
2011-07-15,24.2963
2011-07-18,23.8457
2011-07-19,24.6032
2011-07-20,24.7662
2011-07-21,28.5247
2011-07-22,28.1508
2011-07-25,27.8919
2011-07-26,26.8756
2011-07-27,26.0414
2011-07-28,26.0414
2011-07-29,26.2811
2011-08-01,25.7537
2011-08-02,24.8141
2011-08-03,24.5936
2011-08-04,23.7306
2011-08-05,23.1458
2011-08-08,21.3144
2011-08-09,22.5129
2011-08-10,20.998
2011-08-11,22.1774
2011-08-12,22.1102
2011-08-15,22.4267
2011-08-16,22.1007
2011-08-17,21.7938
2011-08-18,20.5761
2011-08-19,20.4131
2011-08-22,21.0076
2011-08-23,21.6635
2011-08-24,21.8951
2011-08-25,21.403
2011-08-26,21.8372
2011-08-29,22.6092
2011-08-30,23.111
2011-08-31,23.0434
2011-09-01,22.4934
2011-09-02,21.6828
2011-09-06,21.3644
2011-09-07,21.9144
2011-09-08,21.3065
2011-09-09,20.438
2011-09-12,20.1485
2011-09-13,20.66
2011-09-14,21.0942
2011-09-15,21.6925
2011-09-16,21.8951
2011-09-19,21.374
2011-09-20,21.239
2011-09-21,20.245
2011-09-22,19.3862
2011-09-23,19.6371
2011-09-26,20.2257
2011-09-27,20.7082
2011-09-28,20.3222
2011-09-29,21.1521
2011-09-30,20.4863
2011-10-03,19.8976
2011-10-04,21.1425
2011-10-05,21.7407
2011-10-06,22.1364
2011-10-07,22.3004
2011-10-10,23.0724
2011-10-11,22.8312
2011-10-12,23.3233
2011-10-13,23.4294
2011-10-14,24.819
2011-10-17,23.4873
2011-10-18,24.0856
2011-10-19,23.6803
2011-10-20,23.6031
2011-10-21,24.4812
2011-10-24,25.1567
2011-10-25,24.3461
2011-10-26,25.6585
2011-10-27,26.2761
2011-10-28,26.2954
2011-10-31,25.5138
2011-11-01,24.8093
2011-11-02,25.4366
2011-11-03,26.2182
2011-11-04,25.8997
2011-11-07,25.6199
2011-11-08,25.9191
2011-11-09,24.6935
2011-11-10,25.4076
2011-11-11,25.9769
2011-11-14,25.5331
2011-11-15,25.8997
2011-11-16,25.6006
2011-11-17,24.9541
2011-11-18,24.6742
2011-11-21,24.1988
2011-11-22,24.2183
2011-11-23,23.3353
2011-11-25,23.3256
2011-11-28,24.1212
2011-11-29,23.9757
2011-11-30,25.7028
2011-12-01,25.6058
2011-12-02,26.2461
2011-12-05,27.0127
2011-12-06,26.6828
2011-12-07,26.5857
2011-12-08,26.6246
2011-12-09,27.3329
2011-12-12,26.8089
2011-12-13,26.382
2011-12-14,25.6543
2011-12-15,25.9065
2011-12-16,26.3044
2011-12-19,25.8774
2011-12-20,26.6828
2011-12-21,26.8186
2011-12-22,27.5463
2011-12-23,27.7598
2011-12-27,27.6434
2011-12-28,26.9156
2011-12-29,27.4978
2011-12-30,27.6628
2012-01-03,27.8083
2012-01-04,27.6628
2012-01-05,27.6822
2012-01-06,27.6142
2012-01-09,27.7695
2012-01-10,28.0218
2012-01-11,27.8859
2012-01-12,28.0218
2012-01-13,27.5657
2012-01-17,27.8762
2012-01-18,28.4487
2012-01-19,29.1182
2012-01-20,29.1861
2012-01-23,28.8562
2012-01-24,28.798
2012-01-25,29.3608
2012-01-26,28.8659
2012-01-27,26.9156
2012-01-30,26.8671
2012-01-31,26.8962
2012-02-01,27.5463
2012-02-02,27.294
2012-02-03,28.7204
2012-02-06,28.5942
2012-02-07,28.6524
2012-02-08,28.6719
2012-02-09,28.8465
2012-02-10,28.2449
2012-02-13,28.4196
2012-02-14,28.5166
2012-02-15,28.1867
2012-02-16,28.4196
2012-02-17,28.2934
2012-02-21,28.3808
2012-02-22,28.4295
2012-02-23,28.3417
2012-02-24,28.1466
2012-02-27,28.2832
2012-02-28,27.9516
2012-02-29,27.7273
2012-03-01,28.0686
2012-03-02,27.4444
2012-03-05,27.581
2012-03-06,27.1031
2012-03-07,27.7078
2012-03-08,28.3319
2012-03-09,28.6635
2012-03-12,28.7903
2012-03-13,29.4828
2012-03-14,29.5608
2012-03-15,30.0192
2012-03-16,29.9119
2012-03-19,30.1167
2012-03-20,29.8046
2012-03-21,29.7363
2012-03-22,29.434
2012-03-23,29.6973
2012-03-26,30.224
2012-03-27,29.9997
2012-03-28,29.7266
2012-03-29,29.4047
2012-03-30,29.5413
2012-04-02,30.0094
2012-04-03,29.8046
2012-04-04,29.2389
2012-04-05,29.0049
2012-04-09,28.3027
2012-04-10,27.7273
2012-04-11,28.0979
2012-04-12,28.7903
2012-04-13,28.3319
2012-04-16,28.3709
2012-04-17,29.2487
2012-04-18,28.9269
2012-04-19,28.1564
2012-04-20,28.2247
2012-04-23,27.7663
2012-04-24,28.1271
2012-04-25,29.7461
2012-04-26,29.5608
2012-04-27,29.8924
2012-04-30,29.0536
2012-05-01,29.2194
2012-05-02,29.6096
2012-05-03,29.2975
2012-05-04,28.8878
2012-05-07,28.8586
2012-05-08,28.6343
2012-05-09,27.9906
2012-05-10,28.1661
2012-05-11,28.7318
2012-05-14,28.4685
2012-05-15,28.2637
2012-05-16,28.0394
2012-05-17,27.5127
2012-05-18,27.3957
2012-05-21,28.1174
2012-05-22,28.0979
2012-05-23,28.1861
2012-05-24,28.1665
2012-05-25,27.9704
2012-05-29,28.5782
2012-05-30,27.8233
2012-05-31,27.8821
2012-06-01,26.0586
2012-06-04,25.8233
2012-06-05,26.2939
2012-06-06,26.99
2012-06-07,26.9508
2012-06-08,27.6959
2012-06-11,27.2155
2012-06-12,27.8527
2012-06-13,27.441
2012-06-14,27.8135
2012-06-15,28.2449
2012-06-18,28.4508
2012-06-19,28.8429
2012-06-20,28.441
2012-06-21,27.5292
2012-06-22,27.5978
2012-06-25,26.7645
2012-06-26,26.6469
2012-06-27,26.9802
2012-06-28,26.7841
2012-06-29,27.9704
2012-07-02,27.9312
2012-07-03,28.49
2012-07-05,28.6664
2012-07-06,27.9704
2012-07-09,27.7547
2012-07-10,27.6763
2012-07-11,27.6861
2012-07-12,27.137
2012-07-13,27.5978
2012-07-16,27.6076
2012-07-17,27.7449
2012-07-18,28.0488
2012-07-19,28.3723
2012-07-20,27.5684
2012-07-23,27.3331
2012-07-24,26.7743
2012-07-25,25.5684
2012-07-26,25.8625
2012-07-27,26.5096
2012-07-30,26.6469
2012-07-31,26.4802
2012-08-01,26.3135
2012-08-02,26.2351
2012-08-03,27.0096
2012-08-06,26.7939
2012-08-07,27.2057
2012-08-08,27.1076
2012-08-09,27.6076
2012-08-10,27.6959
2012-08-13,27.8429
2012-08-14,27.6272
2012-08-15,27.9017
2012-08-16,28.4017
2012-08-17,28.4704
2012-08-20,28.4214
2012-08-21,28.1861
2012-08-22,27.6244
2012-08-23,27.7919
2012-08-24,27.6441
2012-08-27,26.422
2012-08-28,26.0771
2012-08-29,26.6388
2012-08-30,26.1362
2012-08-31,25.9785
2012-09-04,25.5646
2012-09-05,25.3576
2012-09-06,26.6388
2012-09-07,26.6881
2012-09-10,26.7768
2012-09-11,26.8458
2012-09-12,26.4811
2012-09-13,26.5304
2012-09-14,27.0527
2012-09-17,26.6487
2012-09-18,26.6782
2012-09-19,26.5206
2012-09-20,26.1165
2012-09-21,26.353
2012-09-24,26.56
2012-09-25,26.0179
2012-09-26,25.9292
2012-09-27,26.4023
2012-09-28,26.2545
2012-10-01,25.9588
2012-10-02,25.5843
2012-10-03,25.5055
2012-10-04,25.8603
2012-10-05,25.9194
2012-10-08,25.7814
2012-10-09,25.1211
2012-10-10,24.993
2012-10-11,25.0718
2012-10-12,24.855
2012-10-15,24.9339
2012-10-16,25.1211
2012-10-17,25.3872
2012-10-18,25.5646
2012-10-19,26.8556
2012-10-22,26.4023
2012-10-23,26.4516
2012-10-24,26.3727
2012-10-25,26.6487
2012-10-26,26.3727
2012-10-31,26.5206
2012-11-01,27.2991
2012-11-02,27.2499
2012-11-05,27.1217
2012-11-06,27.5849
2012-11-07,26.9148
2012-11-08,26.629
2012-11-09,26.3136
2012-11-12,26.284
2012-11-13,26.5994
2012-11-14,26.3333
2012-11-15,26.491
2012-11-16,26.284
2012-11-19,26.6585
2012-11-20,26.5994
2012-11-21,26.976
2012-11-23,26.9859
2012-11-26,27.7193
2012-11-27,27.4418
2012-11-28,27.5706
2012-11-29,27.6301
2012-11-30,28.0463
2012-12-03,28.0067
2012-12-04,28.1355
2012-12-05,28.0463
2012-12-06,28.3536
2012-12-07,28.9878
2012-12-10,29.1563
2012-12-11,29.4437
2012-12-12,29.3347
2012-12-13,29.2455
2012-12-14,29.4734
2012-12-17,29.5824
2012-12-18,30.1969
2012-12-19,30.7122
2012-12-20,31.2276
2012-12-21,31.2474
2012-12-24,31.178
2012-12-26,31.3267
2012-12-27,31.4159
2012-12-28,31.1681
2012-12-31,31.4753
2013-01-02,32.2186
2013-01-03,32.5555
2013-01-04,33.061
2013-01-07,32.3375
2013-01-08,32.2781
2013-01-09,32.4861
2013-01-10,32.4465
2013-01-11,32.5853
2013-01-14,32.9619
2013-01-15,33.2195
2013-01-16,32.8429
2013-01-17,33.4475
2013-01-18,33.6754
2013-01-22,33.6853
2013-01-23,33.2393
2013-01-24,33.725
2013-01-25,33.3979
2013-01-28,33.5961
2013-01-29,33.2691
2013-01-30,35.4097
2013-01-31,34.934
2013-02-01,35.1719
2013-02-04,34.5376
2013-02-05,35.2809
2013-02-06,35.5088
2013-02-07,35.2115
2013-02-08,35.1521
2013-02-11,35.048
2013-02-12,34.9737
2013-02-13,34.8795
2013-02-14,34.8746
2013-02-15,35.1719
2013-02-19,36.3611
2013-02-20,35.162
2013-02-21,34.5946
2013-02-22,35.3412
2013-02-25,34.6742
2013-02-26,34.8136
2013-02-27,35.3412
2013-02-28,35.4209
2013-03-01,35.0177
2013-03-04,34.7339
2013-03-05,35.5204
2013-03-06,35.7096
2013-03-07,35.7792
2013-03-08,36.2073
2013-03-11,36.2272
2013-03-12,35.6697
2013-03-13,35.9286
2013-03-14,36.1177
2013-03-15,35.5901
2013-03-18,35.3611
2013-03-19,35.62
2013-03-20,36.4761
2013-03-21,36.1078
2013-03-22,36.1575
2013-03-25,36.3367
2013-03-26,36.7947
2013-03-27,36.8644
2013-03-28,37.392
2013-04-01,37.1829
2013-04-02,36.8345
2013-04-03,36.506
2013-04-04,36.267
2013-04-05,35.2317
2013-04-08,35.6
2013-04-09,35.3014
2013-04-10,36.3666
2013-04-11,36.4861
2013-04-12,36.2073
2013-04-15,34.9828
2013-04-16,35.839
2013-04-17,35.2616
2013-04-18,34.8932
2013-04-19,35.9286
2013-04-22,36.3865
2013-04-23,36.4861
2013-04-24,33.0017
2013-04-25,32.7429
2013-04-26,32.2252
2013-04-29,32.6234
2013-04-30,32.6533
2013-05-01,31.1998
2013-05-02,31.15
2013-05-03,32.723
2013-05-06,33.161
2013-05-07,33.3103
2013-05-08,33.4198
2013-05-09,33.609
2013-05-10,34.1267
2013-05-13,33.8977
2013-05-14,34.6145
2013-05-15,35.3711
2013-05-16,35.3213
2013-05-17,35.9584
2013-05-20,35.4209
2013-05-21,35.5801
2013-05-22,35.29
2013-05-23,35.0
2013-05-24,34.81
2013-05-28,35.16
2013-05-29,34.75
2013-05-30,34.83
2013-05-31,34.81
2013-06-03,34.21
2013-06-04,34.04
2013-06-05,33.32
2013-06-06,33.84
2013-06-07,34.15
2013-06-10,33.81
2013-06-11,33.43
2013-06-12,33.26
2013-06-13,34.22
2013-06-14,33.61
2013-06-17,34.26
2013-06-18,34.39
2013-06-19,33.93
2013-06-20,32.96
2013-06-21,32.6
2013-06-24,32.18
2013-06-25,32.69
2013-06-26,32.78
2013-06-27,33.12
2013-06-28,33.3
2013-07-01,33.52
2013-07-02,33.28
2013-07-03,31.56
2013-07-05,32.36
2013-07-08,32.73
2013-07-09,33.55
2013-07-10,33.65
2013-07-11,34.15
2013-07-12,34.48
2013-07-15,34.7
2013-07-16,34.61
2013-07-17,35.06
2013-07-18,35.52
2013-07-19,36.47
2013-07-22,35.87
2013-07-23,35.84
2013-07-24,36.84
2013-07-25,36.71
2013-07-26,36.32
2013-07-29,36.17
2013-07-30,36.47
2013-07-31,37.24
2013-08-01,38.32
2013-08-02,38.21
2013-08-05,38.6
2013-08-06,38.36
2013-08-07,37.82
2013-08-08,38.65
2013-08-09,38.54
