date,close_price
1998-01-02,12.9103
1998-01-05,12.3794
1998-01-06,11.737
1998-01-07,12.4926
1998-01-08,12.5776
1998-01-09,11.4598
1998-01-12,11.3167
1998-01-13,11.5403
1998-01-14,12.4077
1998-01-15,12.0723
1998-01-16,12.1841
1998-01-20,12.1305
1998-01-21,12.0992
1998-01-22,12.1573
1998-01-23,12.1305
1998-01-26,12.0992
1998-01-27,12.2423
1998-01-28,12.9129
1998-01-29,12.9398
1998-01-30,13.3019
1998-02-02,13.7491
1998-02-03,13.7491
1998-02-04,14.0308
1998-02-05,14.0844
1998-02-06,14.5315
1998-02-09,14.8669
1998-02-10,14.7014
1998-02-11,14.5897
1998-02-12,13.9995
1998-02-13,13.9995
1998-02-17,13.9726
1998-02-18,13.9726
1998-02-19,12.2423
1998-02-20,12.6894
1998-02-23,12.7162
1998-02-24,12.9666
1998-02-25,13.1365
1998-02-26,13.1365
1998-02-27,12.9934
1998-03-02,13.1052
1998-03-03,12.9934
1998-03-04,12.828
1998-03-05,12.8012
1998-03-06,12.743
1998-03-09,12.743
1998-03-10,12.9398
1998-03-11,13.1902
1998-03-12,13.0247
1998-03-13,12.7162
1998-03-16,12.6313
1998-03-17,12.1841
1998-03-18,12.3227
1998-03-19,12.3809
1998-03-20,12.0992
1998-03-23,11.5984
1998-03-24,11.7102
1998-03-25,11.9069
1998-03-26,12.5195
1998-03-27,12.828
1998-03-30,12.8012
1998-03-31,13.2751
1998-04-01,13.217
1998-04-02,13.4718
1998-04-03,12.9129
1998-04-06,12.9398
1998-04-07,12.8547
1998-04-08,12.9398
1998-04-09,13.0205
1998-04-13,13.1907
1998-04-14,13.8897
1998-04-15,13.6926
1998-04-16,13.7508
1998-04-17,13.7508
1998-04-20,13.5537
1998-04-21,13.6119
1998-04-22,13.7508
1998-04-23,13.4148
1998-04-24,13.0518
1998-04-27,12.8278
1998-04-28,13.3028
1998-04-29,13.6657
1998-04-30,13.8046
1998-05-01,14.4229
1998-05-04,14.1989
1998-05-05,13.8897
1998-05-06,13.9166
1998-05-07,13.9166
1998-05-08,14.2526
1998-05-11,14.3378
1998-05-12,14.06
1998-05-13,13.7239
1998-05-14,13.7777
1998-05-15,14.6469
1998-05-18,14.8127
1998-05-19,14.983
1998-05-20,14.8978
1998-05-21,14.8709
1998-05-22,15.095
1998-05-26,14.8441
1998-05-27,14.8978
1998-05-28,15.1219
1998-05-29,14.7858
1998-06-01,14.7007
1998-06-02,14.7589
1998-06-03,15.1219
1998-06-04,14.8127
1998-06-05,14.7007
1998-06-08,14.7589
1998-06-09,14.508
1998-06-10,14.1989
1998-06-11,14.2526
1998-06-12,13.4417
1998-06-15,13.1639
1998-06-16,13.0787
1998-06-17,13.2176
1998-06-18,12.6307
1998-06-19,12.4918
1998-06-22,12.2946
1998-06-23,11.6225
1998-06-24,11.6494
1998-06-25,11.6494
1998-06-26,11.5374
1998-06-29,11.3716
1998-06-30,11.6763
1998-07-01,12.2095
1998-07-02,12.3215
1998-07-06,12.2677
1998-07-07,12.0975
1998-07-08,12.0706
1998-07-09,12.1557
1998-07-10,11.8735
1998-07-13,11.7881
1998-07-14,11.5905
1998-07-15,11.7612
1998-07-16,11.622
1998-07-17,11.2537
1998-07-20,11.1729
1998-07-21,11.1415
1998-07-22,10.89
1998-07-23,10.6924
1998-07-24,10.7238
1998-07-27,9.87958
1998-07-28,10.0502
1998-07-29,10.2433
1998-07-30,10.3287
1998-07-31,10.3017
1998-08-03,9.85264
1998-08-04,9.65504
1998-08-05,9.34518
1998-08-06,9.0937
1998-08-07,9.0937
1998-08-10,8.84222
1998-08-11,8.61769
1998-08-12,8.64463
1998-08-13,8.50542
1998-08-14,8.4201
1998-08-17,8.50542
1998-08-18,8.70301
1998-08-19,8.72996
1998-08-20,9.15208
1998-08-21,9.12065
1998-08-24,8.98144
1998-08-25,8.98144
1998-08-26,8.92755
1998-08-27,8.53236
1998-08-28,8.08329
1998-08-31,7.63422
1998-09-01,7.5489
1998-09-02,7.6926
1998-09-03,7.63422
1998-09-04,7.63422
1998-09-08,7.60728
1998-09-09,7.29742
1998-09-10,7.5489
1998-09-11,7.74649
1998-09-14,7.71954
1998-09-15,7.58033
1998-09-16,7.63422
1998-09-17,7.49501
1998-09-18,7.66116
1998-09-21,7.52195
1998-09-22,7.46806
1998-09-23,7.46806
1998-09-24,7.3558
1998-09-25,7.24353
1998-09-28,7.46806
1998-09-29,7.49501
1998-09-30,7.60728
1998-10-01,7.5489
1998-10-02,7.3558
1998-10-05,7.29742
1998-10-06,6.73608
1998-10-07,6.51154
1998-10-08,6.20168
1998-10-09,6.31395
1998-10-12,6.287
1998-10-13,6.34113
1998-10-14,6.5982
1998-10-15,6.71095
1998-10-16,6.71095
1998-10-19,7.10333
1998-10-20,7.30177
1998-10-21,7.21608
1998-10-22,7.97828
1998-10-23,8.00533
1998-10-26,8.14515
1998-10-27,8.09103
1998-10-28,8.0324
1998-10-29,8.0324
1998-10-30,8.00533
1998-11-02,7.72571
1998-11-03,7.61296
1998-11-04,7.41452
1998-11-05,7.18902
1998-11-06,7.77983
1998-11-09,8.11809
1998-11-10,7.95121
1998-11-11,7.95121
1998-11-12,8.00533
1998-11-13,8.06397
1998-11-16,8.06397
1998-11-17,8.06397
1998-11-18,7.77983
1998-11-19,7.66708
1998-11-20,7.72571
1998-11-23,7.91964
1998-11-24,8.00533
1998-11-25,8.23084
1998-11-27,8.28947
1998-11-30,8.28947
1998-12-01,8.2579
1998-12-02,8.23084
1998-12-03,8.23084
1998-12-04,8.2579
1998-12-07,8.11809
1998-12-08,8.51497
1998-12-09,8.45634
1998-12-10,8.74047
1998-12-11,8.88029
1998-12-14,8.51497
1998-12-15,8.4834
1998-12-16,8.40222
1998-12-17,8.17672
1998-12-18,8.45634
1998-12-21,8.11809
1998-12-22,8.28947
1998-12-23,8.45634
1998-12-24,8.34359
1998-12-28,8.51497
1998-12-29,8.62772
1998-12-30,8.62772
1998-12-31,9.10579
1999-01-04,8.88029
1999-01-05,9.13285
1999-01-06,9.2456
1999-01-07,9.30423
1999-01-08,9.35835
1999-01-11,9.30423
1999-01-12,9.13458
1999-01-13,9.33365
1999-01-14,9.38794
1999-01-15,9.38794
1999-01-19,9.55986
1999-01-20,9.41509
1999-01-21,9.33365
1999-01-22,9.30198
1999-01-25,9.4739
1999-01-26,9.4739
1999-01-27,9.86752
1999-01-28,10.0937
1999-01-29,10.0123
1999-02-01,10.0123
1999-02-02,9.98062
1999-02-03,9.95348
1999-02-04,9.98062
1999-02-05,9.95348
1999-02-08,9.95348
1999-02-09,10.0937
1999-02-10,10.0394
1999-02-11,10.0394
1999-02-12,9.95348
1999-02-16,10.0937
1999-02-17,9.92633
1999-02-18,10.2657
1999-02-19,10.2928
1999-02-22,10.1525
1999-02-23,10.2385
1999-02-24,10.1797
1999-02-25,10.0666
1999-02-26,10.0666
1999-03-01,10.0937
1999-03-02,10.0394
1999-03-03,10.1254
1999-03-04,10.605
1999-03-05,10.8312
1999-03-08,11.1434
1999-03-09,10.8583
1999-03-10,10.1797
1999-03-11,9.98062
1999-03-12,10.3516
1999-03-15,10.3199
1999-03-16,10.2928
1999-03-17,10.1254
1999-03-18,9.98062
1999-03-19,9.55986
1999-03-22,10.2068
1999-03-23,9.89919
1999-03-24,10.2928
1999-03-25,10.6909
1999-03-26,10.8855
1999-03-29,10.8583
1999-03-30,10.8583
1999-03-31,10.6909
1999-04-01,10.519
1999-04-05,10.519
1999-04-06,10.9714
1999-04-07,11.1705
1999-04-08,10.7181
1999-04-09,10.8583
1999-04-12,11.3696
1999-04-13,11.1434
1999-04-14,11.9667
1999-04-15,12.502
1999-04-16,13.1008
1999-04-19,13.2414
1999-04-20,12.7606
1999-04-21,12.1073
1999-04-22,11.7943
1999-04-23,11.7671
1999-04-26,11.7943
1999-04-27,12.0801
1999-04-28,12.6744
1999-04-29,12.7288
1999-04-30,12.9284
1999-05-03,12.9874
1999-05-04,12.9284
1999-05-05,12.9284
1999-05-06,12.9874
1999-05-07,13.128
1999-05-10,13.1008
1999-05-11,13.0418
1999-05-12,13.128
1999-05-13,13.1008
1999-05-14,13.1008
1999-05-17,13.1552
1999-05-18,13.1008
1999-05-19,13.441
1999-05-20,14.008
1999-05-21,14.8019
1999-05-24,14.5751
1999-05-25,14.5161
1999-05-26,14.6023
1999-05-27,14.4027
1999-05-28,14.8019
1999-06-01,14.7429
1999-06-02,14.7429
1999-06-03,14.6023
1999-06-04,14.4027
1999-06-07,14.7429
1999-06-08,15.2555
1999-06-09,15.2555
1999-06-10,15.3372
1999-06-11,15.1421
1999-06-14,14.9697
1999-06-15,15.5368
1999-06-16,16.2172
1999-06-17,16.3306
1999-06-18,16.5302
1999-06-21,16.5302
1999-06-22,16.3896
1999-06-23,16.2172
1999-06-24,15.877
1999-06-25,15.5096
1999-06-28,15.2555
1999-06-29,15.1421
1999-06-30,14.7429
1999-07-01,15.1966
1999-07-02,15.31
1999-07-06,14.7429
1999-07-07,15.1693
1999-07-08,15.2555
1999-07-09,15.2238
1999-07-12,15.3372
1999-07-13,15.2827
1999-07-14,15.9671
1999-07-15,15.9944
1999-07-16,15.908
1999-07-19,15.8808
1999-07-20,15.6535
1999-07-21,15.4808
1999-07-22,15.5126
1999-07-23,15.4263
1999-07-26,15.5126
1999-07-27,15.8535
1999-07-28,15.5672
1999-07-29,15.8808
1999-07-30,15.7944
1999-08-02,16.3898
1999-08-03,16.0489
1999-08-04,16.1626
1999-08-05,16.4216
1999-08-06,16.1944
1999-08-09,16.1626
1999-08-10,16.1944
1999-08-11,16.2489
1999-08-12,16.3626
1999-08-13,16.2217
1999-08-16,16.2217
1999-08-17,16.2489
1999-08-18,16.4489
1999-08-19,16.2762
1999-08-20,16.1944
1999-08-23,16.1944
1999-08-24,16.308
1999-08-25,16.5625
1999-08-26,16.7898
1999-08-27,15.9944
1999-08-30,16.1626
1999-08-31,16.3353
1999-09-01,16.6171
1999-09-02,16.5035
1999-09-03,16.7625
1999-09-07,17.0171
1999-09-08,17.2989
1999-09-09,17.1852
1999-09-10,17.3307
1999-09-13,17.2716
1999-09-14,16.8762
1999-09-15,16.7625
1999-09-16,16.9307
1999-09-17,16.9307
1999-09-20,17.0443
1999-09-21,17.0443
1999-09-22,16.9898
1999-09-23,16.4762
1999-09-24,16.5353
1999-09-27,16.8762
1999-09-28,16.5898
1999-09-29,16.7625
1999-09-30,17.358
1999-10-01,16.8444
1999-10-04,16.958
1999-10-05,16.7625
1999-10-06,16.3626
1999-10-07,16.1626
1999-10-08,15.8217
1999-10-11,16.1353
1999-10-12,15.9372
1999-10-13,15.4546
1999-10-14,15.5957
1999-10-15,15.3134
1999-10-18,15.1996
1999-10-19,15.2542
1999-10-20,15.2542
1999-10-21,15.0857
1999-10-22,14.7715
1999-10-25,14.685
1999-10-26,13.6332
1999-10-27,14.0293
1999-10-28,14.257
1999-10-29,14.1158
1999-11-01,14.0612
1999-11-02,13.9155
1999-11-03,13.8608
1999-11-04,13.8608
1999-11-05,13.9747
1999-11-08,14.3162
1999-11-09,14.9127
1999-11-10,15.0539
1999-11-11,15.6822
1999-11-12,15.7369
1999-11-15,15.6549
1999-11-16,16.5064
1999-11-17,17.1348
1999-11-18,17.3033
1999-11-19,17.3898
1999-11-22,17.1894
1999-11-23,17.276
1999-11-24,17.1894
1999-11-26,16.8479
1999-11-29,16.8206
1999-11-30,16.8479
1999-12-01,16.7933
1999-12-02,16.9618
1999-12-03,16.9344
1999-12-06,17.1894
1999-12-07,17.021
1999-12-08,17.0756
1999-12-09,16.5064
1999-12-10,16.1103
1999-12-13,15.8507
1999-12-14,15.8507
1999-12-15,15.6549
1999-12-16,15.4819
1999-12-17,15.5092
1999-12-20,15.3134
1999-12-21,15.7096
1999-12-22,15.5411
1999-12-23,16.7341
1999-12-27,16.7614
1999-12-28,16.9344
1999-12-29,17.1621
1999-12-30,16.9344
1999-12-31,17.2168
2000-01-03,16.1649
2000-01-04,15.4546
2000-01-05,15.2815
2000-01-06,15.2269
2000-01-07,15.4819
2000-01-10,15.5957
2000-01-11,15.368
2000-01-12,15.5413
2000-01-13,15.4592
2000-01-14,15.3725
2000-01-18,15.2858
2000-01-19,15.2584
2000-01-20,15.7421
2000-01-21,16.682
2000-01-24,16.5132
2000-01-25,15.8835
2000-01-26,16.3718
2000-01-27,15.7695
2000-01-28,15.9428
2000-01-31,15.3999
2000-02-01,15.231
2000-02-02,15.5732
2000-02-03,16.3124
2000-02-04,16.4539
2000-02-07,16.3398
2000-02-08,16.1117
2000-02-09,15.1443
2000-02-10,15.231
2000-02-11,14.2865
2000-02-14,15.117
2000-02-15,15.1443
2000-02-16,15.1991
2000-02-17,15.085
2000-02-18,14.1451
2000-02-22,14.1177
2000-02-23,14.4599
2000-02-24,14.031
2000-02-25,13.1777
2000-02-28,12.434
2000-02-29,12.6074
2000-03-01,12.1511
2000-03-02,14.0903
2000-03-03,15.5139
2000-03-06,14.7428
2000-03-07,14.3458
2000-03-08,13.9169
2000-03-09,13.9169
2000-03-10,14.5147
2000-03-13,15.0576
2000-03-14,14.3732
2000-03-15,14.688
2000-03-16,15.9428
2000-03-17,15.5139
2000-03-20,15.3451
2000-03-21,15.3999
2000-03-22,15.2858
2000-03-23,15.4866
2000-03-24,15.3999
2000-03-27,15.2858
2000-03-28,15.628
2000-03-29,15.085
2000-03-30,15.1443
2000-03-31,15.5139
2000-04-03,14.9709
2000-04-04,14.2591
2000-04-05,14.031
2000-04-06,13.9762
2000-04-07,13.7481
2000-04-10,13.6888
2000-04-11,14.2044
2000-04-12,13.7197
2000-04-13,13.8066
2000-04-14,13.6649
2000-04-17,13.8615
2000-04-18,14.3188
2000-04-19,14.3188
2000-04-20,14.4652
2000-04-24,13.7792
2000-04-25,14.0079
2000-04-26,14.0079
2000-04-27,14.2365
2000-04-28,14.3188
2000-05-01,15.2655
2000-05-02,15.0917
2000-05-03,15.1192
2000-05-04,15.0048
2000-05-05,15.3204
2000-05-08,15.0917
2000-05-09,14.7487
2000-05-10,15.0048
2000-05-11,15.3798
2000-05-12,15.3478
2000-05-15,15.4622
2000-05-16,15.549
2000-05-17,15.9515
2000-05-18,15.6085
2000-05-19,15.7228
2000-05-22,15.0368
2000-05-23,14.4652
2000-05-24,15.0917
2000-05-25,14.6938
2000-05-26,14.5795
2000-05-30,15.3204
2000-05-31,15.9515
2000-06-01,15.9789
2000-06-02,15.9789
2000-06-05,15.892
2000-06-06,15.9515
2000-06-07,16.0933
2000-06-08,16.1207
2000-06-09,15.9789
2000-06-12,16.0658
2000-06-13,16.2945
2000-06-14,16.2945
2000-06-15,16.4911
2000-06-16,16.4088
2000-06-19,16.2625
2000-06-20,15.9195
2000-06-21,14.9774
2000-06-22,15.6359
2000-06-23,15.1192
2000-06-26,15.0917
2000-06-27,15.0643
2000-06-28,15.1512
2000-06-29,15.0048
2000-06-30,11.7761
2000-07-03,11.8904
2000-07-05,11.7212
2000-07-06,11.6343
2000-07-07,11.4331
2000-07-10,11.8356
2000-07-11,12.4895
2000-07-12,12.6908
2000-07-13,13.3831
2000-07-14,13.5252
2000-07-17,13.9562
2000-07-18,12.9796
2000-07-19,12.5532
2000-07-20,12.8375
2000-07-21,12.6678
2000-07-24,12.7825
2000-07-25,12.2919
2000-07-26,12.0947
2000-07-27,11.8655
2000-07-28,11.7509
2000-07-31,12.7229
2000-08-01,12.5807
2000-08-02,12.6357
2000-08-03,12.2369
2000-08-04,12.324
2000-08-07,12.3515
2000-08-08,12.324
2000-08-09,12.3515
2000-08-10,12.4661
2000-08-11,12.8971
2000-08-14,13.0117
2000-08-15,13.0667
2000-08-16,13.1263
2000-08-17,13.2685
2000-08-18,13.3831
2000-08-21,13.3556
2000-08-22,13.296
2000-08-23,13.4381
2000-08-24,13.4381
2000-08-25,14.3551
2000-08-28,14.4147
2000-08-29,14.6714
2000-08-30,14.5293
2000-08-31,14.8456
2000-09-01,14.731
2000-09-05,14.7585
2000-09-06,14.8135
2000-09-07,14.9006
2000-09-08,14.9006
2000-09-11,14.9282
2000-09-12,15.2445
2000-09-13,15.6159
2000-09-14,15.7305
2000-09-15,15.9322
2000-09-18,15.8451
2000-09-19,15.3866
2000-09-20,15.3041
2000-09-21,14.9878
2000-09-22,14.786
2000-09-25,14.9282
2000-09-26,15.0153
2000-09-27,14.1579
2000-09-28,14.8731
2000-09-29,15.1895
2000-10-02,14.8135
2000-10-03,15.272
2000-10-04,15.6755
2000-10-05,15.3316
2000-10-06,14.786
2000-10-09,14.5018
2000-10-10,14.3275
2000-10-11,13.8691
2000-10-12,14.2129
2000-10-13,15.2238
2000-10-16,15.4214
2000-10-17,14.7919
2000-10-18,14.6494
2000-10-19,15.1365
2000-10-20,15.1365
2000-10-23,15.2789
2000-10-24,15.4536
2000-10-25,15.0216
2000-10-26,14.7046
2000-10-27,14.7643
2000-10-30,15.0768
2000-10-31,16.0555
2000-11-01,15.6236
2000-11-02,16.0555
2000-11-03,15.7982
2000-11-06,15.3938
2000-11-07,15.4214
2000-11-08,15.3065
2000-11-09,15.1641
2000-11-10,15.1089
2000-11-13,14.8194
2000-11-14,14.7321
2000-11-15,14.6494
2000-11-16,14.5345
2000-11-17,14.677
2000-11-20,15.0216
2000-11-21,14.994
2000-11-22,14.5345
2000-11-24,15.3387
2000-11-27,15.3387
2000-11-28,14.8194
2000-11-29,14.7321
2000-11-30,14.1899
2000-12-01,14.6494
2000-12-04,14.7046
2000-12-05,14.9343
2000-12-06,14.7919
2000-12-07,14.7046
2000-12-08,14.9619
2000-12-11,15.0492
2000-12-12,14.7321
2000-12-13,14.7919
2000-12-14,14.7643
2000-12-15,14.4472
2000-12-18,14.4472
2000-12-19,14.2726
2000-12-20,13.9004
2000-12-21,13.8131
2000-12-22,14.2175
2000-12-26,14.7046
2000-12-27,15.3938
2000-12-28,15.4536
2000-12-29,15.2514
2001-01-02,15.3663
2001-01-03,15.9131
2001-01-04,15.596
2001-01-05,15.3387
2001-01-08,15.3663
2001-01-09,15.2789
2001-01-10,15.7742
2001-01-11,16.0045
2001-01-12,15.5439
2001-01-16,15.4288
2001-01-17,15.8341
2001-01-18,16.7552
2001-01-19,16.8104
2001-01-22,17.1006
2001-01-23,17.446
2001-01-24,17.3861
2001-01-25,17.271
2001-01-26,16.6953
2001-01-29,16.921
2001-01-30,16.7552
2001-01-31,17.6441
2001-02-01,17.2295
2001-02-02,16.9578
2001-02-05,17.2019
2001-02-06,17.271
2001-02-07,17.2203
2001-02-08,17.0085
2001-02-09,17.0131
2001-02-12,17.2526
2001-02-13,17.4921
2001-02-14,17.4921
2001-02-15,17.4552
2001-02-16,16.9026
2001-02-20,17.469
2001-02-21,17.0407
2001-02-22,16.9532
2001-02-23,17.1559
2001-02-26,17.4552
2001-02-27,17.5059
2001-02-28,17.8697
2001-03-01,16.7183
2001-03-02,16.5848
2001-03-05,17.0085
2001-03-06,17.2157
2001-03-07,17.3355
2001-03-08,17.3861
2001-03-09,17.271
2001-03-12,16.8335
2001-03-13,16.9947
2001-03-14,16.7644
2001-03-15,16.769
2001-03-16,15.9538
2001-03-19,16.7874
2001-03-20,16.6769
2001-03-21,16.1611
2001-03-22,15.9768
2001-03-23,16.313
2001-03-26,16.0275
2001-03-27,16.4696
2001-03-28,16.5802
2001-03-29,16.3729
2001-03-30,16.3959
2001-04-02,16.3683
2001-04-03,15.659
2001-04-04,15.659
2001-04-05,16.5387
2001-04-06,15.9676
2001-04-09,16.3729
2001-04-10,16.9844
2001-04-11,17.0768
2001-04-12,17.3537
2001-04-16,17.5891
2001-04-17,18.0414
2001-04-18,18.5537
2001-04-19,18.946
2001-04-20,18.4706
2001-04-23,18.429
2001-04-24,18.6921
2001-04-25,18.946
2001-04-26,19.4306
2001-04-27,19.809
2001-04-30,19.4121
2001-05-01,19.1537
2001-05-02,18.6506
2001-05-03,19.2644
2001-05-04,20.0306
2001-05-07,20.3075
2001-05-08,20.3121
2001-05-09,20.326
2001-05-10,20.3952
2001-05-11,20.2429
2001-05-14,20.0675
2001-05-15,20.1921
2001-05-16,20.4921
2001-05-17,20.9998
2001-05-18,19.1721
2001-05-21,20.4321
2001-05-22,19.9752
2001-05-23,19.846
2001-05-24,19.6613
2001-05-25,19.4767
2001-05-29,19.1121
2001-05-30,18.669
2001-05-31,18.9598
2001-06-01,19.1075
2001-06-04,19.5183
2001-06-05,20.0721
2001-06-06,19.9752
2001-06-07,19.8275
2001-06-08,19.846
2001-06-11,19.989
2001-06-12,19.846
2001-06-13,19.846
2001-06-14,19.2552
2001-06-15,18.9413
2001-06-18,18.7383
2001-06-19,18.5952
2001-06-20,19.0152
2001-06-21,19.1998
2001-06-22,19.1537
2001-06-25,18.2721
2001-06-26,18.3275
2001-06-27,18.9783
2001-06-28,19.4813
2001-06-29,19.486
2001-07-02,19.1306
2001-07-03,18.7844
2001-07-05,18.706
2001-07-06,18.226
2001-07-09,17.5106
2001-07-10,16.8414
2001-07-11,16.3106
2001-07-12,16.4445
2001-07-13,17.2744
2001-07-16,17.5288
2001-07-17,18.0237
2001-07-18,17.7323
2001-07-19,18.0792
2001-07-20,17.9312
2001-07-23,17.9497
2001-07-24,17.5565
2001-07-25,17.5704
2001-07-26,17.2744
2001-07-27,17.2513
2001-07-30,16.6038
2001-07-31,17.4132
2001-08-01,18.0375
2001-08-02,18.0144
2001-08-03,18.3197
2001-08-06,18.4168
2001-08-07,18.5602
2001-08-08,19.1337
2001-08-09,19.1707
2001-08-10,19.5592
2001-08-13,19.7534
2001-08-14,19.6517
2001-08-15,19.3094
2001-08-16,19.425
2001-08-17,19.3418
2001-08-20,19.3603
2001-08-21,19.3557
2001-08-22,19.9477
2001-08-23,19.5545
2001-08-24,20.2113
2001-08-27,19.6655
2001-08-28,18.6758
2001-08-29,19.5453
2001-08-30,19.5638
2001-08-31,19.1938
2001-09-04,19.4158
2001-09-05,19.1938
2001-09-06,18.6527
2001-09-07,18.5139
2001-09-10,18.0144
2001-09-17,17.575
2001-09-18,17.1588
2001-09-19,16.1829
2001-09-20,15.2672
2001-09-21,15.2625
2001-09-24,16.1875
2001-09-25,17.0293
2001-09-26,16.7102
2001-09-27,16.6362
2001-09-28,16.5575
2001-10-01,16.3818
2001-10-02,16.7425
2001-10-03,17.1125
2001-10-04,17.0293
2001-10-05,16.9044
2001-10-08,17.0247
2001-10-09,16.65
2001-10-10,17.6213
2001-10-11,18.1162
2001-10-12,17.871
2001-10-15,18.1282
2001-10-16,18.9067
2001-10-17,17.9846
2001-10-18,18.2858
2001-10-19,18.814
2001-10-22,19.7408
2001-10-23,18.9531
2001-10-24,19.1616
2001-10-25,19.7269
2001-10-26,19.9077
2001-10-29,19.486
2001-10-30,19.2635
2001-10-31,19.143
2001-11-01,19.3145
2001-11-02,19.9262
2001-11-05,19.4535
2001-11-06,19.1616
2001-11-07,17.3775
2001-11-08,18.0819
2001-11-09,18.1097
2001-11-12,18.1514
2001-11-13,18.258
2001-11-14,19.2774
2001-11-15,19.0179
2001-11-16,19.1523
2001-11-19,19.3284
2001-11-20,18.9994
2001-11-21,18.9809
2001-11-23,19.1384
2001-11-26,19.3006
2001-11-27,19.2821
2001-11-28,19.194
2001-11-29,19.8799
2001-11-30,19.4674
2001-12-03,20.1811
2001-12-04,20.3618
2001-12-05,20.6584
2001-12-06,20.042
2001-12-07,20.7279
2001-12-10,20.1625
2001-12-11,20.8484
2001-12-12,20.9642
2001-12-13,20.7186
2001-12-14,19.4952
2001-12-17,20.6954
2001-12-18,20.9225
2001-12-19,21.2098
2001-12-20,21.9513
2001-12-21,22.8688
2001-12-24,23.4063
2001-12-26,23.7122
2001-12-27,23.638
2001-12-28,23.4017
2001-12-31,23.0402
2002-01-02,23.17
2002-01-03,23.4063
2002-01-04,24.0041
2002-01-07,23.7261
2002-01-08,23.5222
2002-01-09,23.2766
2002-01-10,22.6556
2002-01-11,22.6754
2002-01-14,21.9188
2002-01-15,22.1741
2002-01-16,21.8213
2002-01-17,21.7517
2002-01-18,22.1416
2002-01-22,21.8399
2002-01-23,22.2344
2002-01-24,22.2994
2002-01-25,22.6615
2002-01-28,22.9771
2002-01-29,22.8796
2002-01-30,23.3345
2002-01-31,23.1628
2002-02-01,23.1349
2002-02-04,21.9049
2002-02-05,22.0348
2002-02-06,21.1482
2002-02-07,21.06
2002-02-08,20.4798
2002-02-11,21.19
2002-02-12,21.5939
2002-02-13,21.8445
2002-02-14,21.7702
2002-02-15,21.812
2002-02-19,20.7258
2002-02-20,20.5819
2002-02-21,19.6396
2002-02-22,20.0203
2002-02-25,20.6284
2002-02-26,21.3525
2002-02-27,21.9931
2002-02-28,21.6356
2002-03-01,21.9095
2002-03-04,23.2556
2002-03-05,22.7357
2002-03-06,23.2324
2002-03-07,23.4413
2002-03-08,23.9983
2002-03-11,23.5806
2002-03-12,22.8936
2002-03-13,22.7729
2002-03-14,22.9121
2002-03-15,22.6522
2002-03-18,22.7265
2002-03-19,22.3783
2002-03-20,22.2576
2002-03-21,22.448
2002-03-22,22.1555
2002-03-25,21.696
2002-03-26,22.2066
2002-03-27,22.8564
2002-03-28,23.0653
2002-04-01,22.0441
2002-04-02,22.3041
2002-04-03,21.5567
2002-04-04,21.631
2002-04-05,21.6449
2002-04-08,21.5799
2002-04-09,21.6031
2002-04-10,21.812
2002-04-11,21.4175
2002-04-12,21.856
2002-04-15,21.5863
2002-04-16,22.0885
2002-04-17,22.2978
2002-04-18,22.2373
2002-04-19,21.763
2002-04-22,21.7397
2002-04-23,21.6607
2002-04-24,21.6328
2002-04-25,21.5305
2002-04-26,21.3956
2002-04-29,21.3445
2002-04-30,21.1585
2002-05-01,21.0468
2002-05-02,21.1538
2002-05-03,20.8655
2002-05-06,20.6981
2002-05-07,20.3912
2002-05-08,20.6934
2002-05-09,20.3214
2002-05-10,20.4144
2002-05-13,20.8283
2002-05-14,21.1538
2002-05-15,21.5398
2002-05-16,20.9027
2002-05-17,20.8004
2002-05-20,20.7492
2002-05-21,20.1401
2002-05-22,20.0843
2002-05-23,20.526
2002-05-24,18.2893
2002-05-28,18.2056
2002-05-29,18.1265
2002-05-30,17.6708
2002-05-31,18.1358
2002-06-03,17.9033
2002-06-04,17.8336
2002-06-05,18.3032
2002-06-06,18.266
2002-06-07,18.187
2002-06-10,18.373
2002-06-11,18.3683
2002-06-12,18.3683
2002-06-13,18.3683
2002-06-14,17.7406
2002-06-17,18.1358
2002-06-18,18.1591
2002-06-19,18.1451
2002-06-20,17.908
2002-06-21,18.0428
2002-06-24,17.8429
2002-06-25,17.3732
2002-06-26,17.2058
2002-06-27,17.4941
2002-06-28,17.3453
2002-07-01,17.1128
2002-07-02,16.9454
2002-07-03,16.9268
2002-07-05,17.4848
2002-07-08,17.2058
2002-07-09,16.6477
2002-07-10,15.9781
2002-07-11,15.4154
2002-07-12,16.7128
2002-07-15,16.4378
2002-07-16,16.1301
2002-07-17,16.242
2002-07-18,16.0835
2002-07-19,15.9017
2002-07-22,15.5427
2002-07-23,14.6476
2002-07-24,15.1464
2002-07-25,14.9227
2002-07-26,14.9879
2002-07-29,15.5707
2002-07-30,15.2863
2002-07-31,13.8411
2002-08-01,14.0742
2002-08-02,13.291
2002-08-05,12.7642
2002-08-06,13.3469
2002-08-07,13.5194
2002-08-08,14.1721
2002-08-09,14.3586
2002-08-12,14.27
2002-08-13,14.2653
2002-08-14,14.7921
2002-08-15,15.1977
2002-08-16,15.4168
2002-08-19,15.911
2002-08-20,15.552
2002-08-21,15.9389
2002-08-22,16.8154
2002-08-23,16.5403
2002-08-26,16.8433
2002-08-27,16.5497
2002-08-28,16.3865
2002-08-29,16.3212
2002-08-30,16.2466
2002-09-03,15.7338
2002-09-04,16.3166
2002-09-05,16.1301
2002-09-06,16.573
2002-09-09,16.6848
2002-09-10,16.8014
2002-09-11,16.7641
2002-09-12,16.3678
2002-09-13,16.4424
2002-09-16,16.2746
2002-09-17,16.0368
2002-09-18,15.8364
2002-09-19,15.6546
2002-09-20,15.7665
2002-09-23,15.2723
2002-09-24,15.263
2002-09-25,15.5007
2002-09-26,15.9716
2002-09-27,15.7431
2002-09-30,16.0182
2002-10-01,16.545
2002-10-02,16.489
2002-10-03,16.1301
2002-10-04,15.841
2002-10-07,15.8597
2002-10-08,15.6406
2002-10-09,14.9646
2002-10-10,15.2
2002-10-11,15.8824
2002-10-14,16.0787
2002-10-15,16.6162
2002-10-16,16.1301
2002-10-17,17.3968
2002-10-18,17.6211
2002-10-21,17.7987
2002-10-22,17.1864
2002-10-23,17.0135
2002-10-24,17.1958
2002-10-25,17.8595
2002-10-28,17.995
2002-10-29,17.8268
2002-10-30,18.1493
2002-10-31,18.0184
2002-11-01,18.2755
2002-11-04,18.4157
2002-11-05,18.2942
2002-11-06,18.9719
2002-11-07,18.5933
2002-11-08,18.1166
2002-11-11,17.4061
2002-11-12,17.9016
2002-11-13,18.2895
2002-11-14,18.3456
2002-11-15,18.411
2002-11-18,18.0184
2002-11-19,17.9483
2002-11-20,18.3923
2002-11-21,18.6915
2002-11-22,19.3972
2002-11-25,19.6777
2002-11-26,19.2617
2002-11-27,19.9581
2002-11-29,19.7057
2002-12-02,20.1451
2002-12-03,19.7525
2002-12-04,19.1635
2002-12-05,19.1869
2002-12-06,19.2944
2002-12-09,18.6774
2002-12-10,18.8083
2002-12-11,18.3596
2002-12-12,18.0324
2002-12-13,17.5043
2002-12-16,17.364
2002-12-17,17.7239
2002-12-18,17.5977
2002-12-19,17.2939
2002-12-20,17.7847
2002-12-23,17.8268
2002-12-24,17.5463
2002-12-26,17.4528
2002-12-27,17.0602
2002-12-30,17.0369
2002-12-31,17.1724
2003-01-02,17.7847
2003-01-03,18.0651
2003-01-06,18.2334
2003-01-07,18.0838
2003-01-08,17.7847
2003-01-09,18.1773
2003-01-10,18.4998
2003-01-13,18.5279
2003-01-14,18.5326
2003-01-15,18.4614
2003-01-16,17.9414
2003-01-17,17.5058
2003-01-21,17.1451
2003-01-22,17.0889
2003-01-23,17.2669
2003-01-24,16.8031
2003-01-27,16.3722
2003-01-28,16.3113
2003-01-29,16.2363
2003-01-30,15.7913
2003-01-31,16.2785
2003-02-03,15.9974
2003-02-04,15.9505
2003-02-05,16.0114
2003-02-06,15.4118
2003-02-07,15.3697
2003-02-10,15.4587
2003-02-11,15.4072
2003-02-12,15.3135
2003-02-13,15.2151
2003-02-14,15.2198
2003-02-18,15.6835
2003-02-19,15.1917
2003-02-20,15.4306
2003-02-21,15.112
2003-02-24,14.7139
2003-02-25,14.6857
2003-02-26,14.5686
2003-02-27,13.8566
2003-02-28,13.5146
2003-03-03,13.3273
2003-03-04,13.2383
2003-03-05,12.8682
2003-03-06,12.7932
2003-03-07,12.8822
2003-03-10,12.7651
2003-03-11,12.5637
2003-03-12,12.545
2003-03-13,12.8494
2003-03-14,13.1211
2003-03-17,13.7489
2003-03-18,14.0299
2003-03-19,14.1236
2003-03-20,14.1845
2003-03-21,14.5874
2003-03-24,14.0112
2003-03-25,14.133
2003-03-26,13.777
2003-03-27,13.9222
2003-03-28,13.9831
2003-03-31,13.5146
2003-04-01,13.5849
2003-04-02,14.0346
2003-04-03,13.9831
2003-04-04,13.8191
2003-04-07,13.9456
2003-04-08,13.8144
2003-04-09,13.7723
2003-04-10,13.9128
2003-04-11,13.8004
2003-04-14,14.1894
2003-04-15,14.1941
2003-04-16,14.0673
2003-04-17,14.2317
2003-04-21,14.5371
2003-04-22,14.6828
2003-04-23,14.4854
2003-04-24,14.5183
2003-04-25,14.2129
2003-04-28,14.8237
2003-04-29,14.3586
2003-04-30,14.3727
2003-05-01,14.2176
2003-05-02,14.7814
2003-05-05,14.7861
2003-05-06,15.1338
2003-05-07,15.4251
2003-05-08,15.2795
2003-05-09,15.7728
2003-05-12,15.9795
2003-05-13,16.0735
2003-05-14,15.9748
2003-05-15,15.9748
2003-05-16,15.6366
2003-05-19,15.9795
2003-05-20,15.8715
2003-05-21,15.7634
2003-05-22,15.9044
2003-05-23,15.9514
2003-05-27,15.8809
2003-05-28,15.8574
2003-05-29,16.4823
2003-05-30,17.2387
2003-06-02,17.173
2003-06-03,17.3468
2003-06-04,17.3609
2003-06-05,17.2763
2003-06-06,17.0931
2003-06-09,16.6937
2003-06-10,17.0367
2003-06-11,17.3844
2003-06-12,17.6193
2003-06-13,17.3938
2003-06-16,17.7039
2003-06-17,18.0281
2003-06-18,18.0281
2003-06-19,17.7744
2003-06-20,17.8542
2003-06-23,17.4596
2003-06-24,17.1495
2003-06-25,17.3374
2003-06-26,17.4925
2003-06-27,17.5159
2003-06-30,17.4549
2003-07-01,17.3092
2003-07-02,17.7932
2003-07-03,17.6287
2003-07-07,18.0422
2003-07-08,18.4181
2003-07-09,18.4369
2003-07-10,18.3617
2003-07-11,18.5496
2003-07-14,18.4744
2003-07-15,18.5159
2003-07-16,18.1533
2003-07-17,17.9649
2003-07-18,18.0591
2003-07-21,17.9178
2003-07-22,18.3558
2003-07-23,18.4264
2003-07-24,18.2051
2003-07-25,18.3652
2003-07-28,18.5865
2003-07-29,18.3652
2003-07-30,18.6101
2003-07-31,18.7655
2003-08-01,18.9585
2003-08-04,18.4405
2003-08-05,18.1298
2003-08-06,18.012
2003-08-07,18.0026
2003-08-08,18.2475
2003-08-11,18.2663
2003-08-12,18.6854
2003-08-13,18.9209
2003-08-14,19.2317
2003-08-15,19.2317
2003-08-18,20.1075
2003-08-19,20.3948
2003-08-20,20.2488
2003-08-21,20.5596
2003-08-22,20.3195
2003-08-25,19.8109
2003-08-26,19.5425
2003-08-27,19.825
2003-08-28,19.8297
2003-08-29,20.0746
2003-09-02,20.5737
2003-09-03,20.7103
2003-09-04,20.8892
2003-09-05,20.9834
2003-09-08,21.5297
2003-09-09,21.3225
2003-09-10,21.0258
2003-09-11,21.1953
2003-09-12,20.9363
2003-09-15,20.9458
2003-09-16,21.5391
2003-09-17,21.7557
2003-09-18,21.9959
2003-09-19,21.525
2003-09-22,21.1718
2003-09-23,21.4543
2003-09-24,20.7762
2003-09-25,20.2959
2003-09-26,20.1264
2003-09-29,20.5361
2003-09-30,20.4654
2003-10-01,20.9976
2003-10-02,21.4119
2003-10-03,21.7698
2003-10-06,21.9912
2003-10-07,22.3396
2003-10-08,22.2878
2003-10-09,22.5845
2003-10-10,22.2784
2003-10-13,22.4244
2003-10-14,22.4856
2003-10-15,22.4516
2003-10-16,22.4045
2003-10-17,21.9799
2003-10-20,21.994
2003-10-21,21.8997
2003-10-22,21.5128
2003-10-23,21.0363
2003-10-24,20.7674
2003-10-27,21.2203
2003-10-28,22.4092
2003-10-29,23.1687
2003-10-30,23.2206
2003-10-31,23.3527
2003-11-03,23.8717
2003-11-04,23.8339
2003-11-05,23.7584
2003-11-06,24.1642
2003-11-07,24.3293
2003-11-10,23.933
2003-11-11,23.5461
2003-11-12,24.0604
2003-11-13,23.9943
2003-11-14,23.565
2003-11-17,23.1404
2003-11-18,23.0744
2003-11-19,23.1734
2003-11-20,23.1263
2003-11-21,23.1168
2003-11-24,23.6547
2003-11-25,23.683
2003-11-26,23.7207
2003-11-28,23.6547
2003-12-01,24.0793
2003-12-02,24.2491
2003-12-03,23.8056
2003-12-04,24.0038
2003-12-05,23.4848
2003-12-08,23.5273
2003-12-09,22.9753
2003-12-10,22.7158
2003-12-11,22.9517
2003-12-12,22.8621
2003-12-15,22.7394
2003-12-16,22.8149
2003-12-17,23.4471
2003-12-18,23.4188
2003-12-19,23.2489
2003-12-22,22.9376
2003-12-23,22.697
2003-12-24,22.7394
2003-12-26,22.7158
2003-12-29,22.9093
2003-12-30,23.3433
2003-12-31,23.2395
2004-01-02,23.5933
2004-01-05,24.1925
2004-01-06,24.1217
2004-01-07,24.6926
2004-01-08,24.9049
2004-01-09,24.485
2004-01-12,24.6454
2004-01-13,24.4708
2004-01-14,24.6259
2004-01-15,24.5645
2004-01-16,24.6448
2004-01-20,24.7866
2004-01-21,24.5692
2004-01-22,24.5125
2004-01-23,24.4416
2004-01-26,24.7346
2004-01-27,23.9311
2004-01-28,23.5152
2004-01-29,23.1512
2004-01-30,22.9243
2004-02-02,22.948
2004-02-03,23.3497
2004-02-04,22.7683
2004-02-05,23.2505
2004-02-06,23.5813
2004-02-09,23.6144
2004-02-10,23.9264
2004-02-11,24.3423
2004-02-12,24.0209
2004-02-13,24.1438
2004-02-17,24.4605
2004-02-18,24.3801
2004-02-19,23.6002
2004-02-20,23.0661
2004-02-23,22.9196
2004-02-24,22.9338
2004-02-25,22.896
2004-02-26,22.9385
2004-02-27,22.9574
2004-03-01,23.2032
2004-03-02,22.9007
2004-03-03,22.9101
2004-03-04,23.0898
2004-03-05,23.137
2004-03-08,22.8629
2004-03-09,22.8062
2004-03-10,22.6974
2004-03-11,22.3193
2004-03-12,22.4611
2004-03-15,21.9459
2004-03-16,21.979
2004-03-17,22.3382
2004-03-18,22.239
2004-03-19,21.9317
2004-03-22,21.4165
2004-03-23,21.5016
2004-03-24,21.4307
2004-03-25,21.8845
2004-03-26,22.0168
2004-03-29,22.1822
2004-03-30,22.5509
2004-03-31,22.8109
2004-04-01,22.981
2004-04-02,23.397
2004-04-05,23.6995
2004-04-06,23.5057
2004-04-07,23.5293
2004-04-08,23.1701
2004-04-12,23.2694
2004-04-13,22.5935
2004-04-14,22.5214
2004-04-15,22.474
2004-04-16,22.6161
2004-04-19,22.7345
2004-04-20,22.474
2004-04-21,22.6872
2004-04-22,23.2745
2004-04-23,23.4829
2004-04-26,23.3124
2004-04-27,23.6392
2004-04-28,23.104
2004-04-29,23.0519
2004-04-30,23.0614
2004-05-03,23.4071
2004-05-04,24.397
2004-05-05,24.6859
2004-05-06,24.6101
2004-05-07,23.9802
2004-05-10,23.6297
2004-05-11,24.037
2004-05-12,23.8807
2004-05-13,23.895
2004-05-14,23.7623
2004-05-17,23.2698
2004-05-18,23.535
2004-05-19,23.5587
2004-05-20,23.3503
2004-05-21,23.966
2004-05-24,24.1555
2004-05-25,24.7664
2004-05-26,24.5202
2004-05-27,24.9985
2004-05-28,25.0269
2004-06-01,25.0364
2004-06-02,24.9322
2004-06-03,24.1081
2004-06-04,24.6101
2004-06-07,25.2306
2004-06-08,25.1738
2004-06-09,25.259
2004-06-10,25.2069
2004-06-14,24.2881
2004-06-15,25.1738
2004-06-16,25.0506
2004-06-17,25.2306
2004-06-18,25.4674
2004-06-21,25.3017
2004-06-22,25.1738
2004-06-23,25.2685
2004-06-24,25.3538
2004-06-25,26.7605
2004-06-28,27.0778
2004-06-29,27.0778
2004-06-30,26.9499
2004-07-01,26.8126
2004-07-02,26.751
2004-07-06,26.211
2004-07-07,26.4384
2004-07-08,25.8605
2004-07-09,26.0121
2004-07-12,25.8937
2004-07-13,26.1116
2004-07-14,26.0195
2004-07-15,26.1049
2004-07-16,26.0954
2004-07-19,26.029
2004-07-20,26.2757
2004-07-21,25.9863
2004-07-22,26.0954
2004-07-23,25.7443
2004-07-26,25.5024
2004-07-27,26.0859
2004-07-28,25.9151
2004-07-29,25.5972
2004-07-30,26.5699
2004-08-02,26.5367
2004-08-03,26.4513
2004-08-04,26.3943
2004-08-05,25.9436
2004-08-06,25.194
2004-08-09,25.0659
2004-08-10,25.1845
2004-08-11,25.2272
2004-08-12,24.729
2004-08-13,24.7385
2004-08-16,25.1228
2004-08-17,25.3268
2004-08-18,26.0005
2004-08-19,25.8819
2004-08-20,26.1903
2004-08-23,26.3659
2004-08-24,26.1144
2004-08-25,26.3801
2004-08-26,26.2093
2004-08-27,26.5225
2004-08-30,26.2995
2004-08-31,26.1334
2004-09-01,26.2947
2004-09-02,26.3089
2004-09-03,25.9863
2004-09-07,26.3327
2004-09-08,26.1713
2004-09-09,26.3516
2004-09-10,26.6173
2004-09-13,26.7454
2004-09-14,27.0871
2004-09-15,27.0396
2004-09-16,27.0681
2004-09-17,27.5995
2004-09-20,27.8367
2004-09-21,27.5188
2004-09-22,27.1487
2004-09-23,26.9684
2004-09-24,26.8214
2004-09-27,26.3469
2004-09-28,27.1725
2004-09-29,27.2057
2004-09-30,27.2436
2004-10-01,27.8177
2004-10-04,27.8984
2004-10-05,27.7228
2004-10-06,27.7561
2004-10-07,29.6302
2004-10-08,29.132
2004-10-11,28.9564
2004-10-12,29.0656
2004-10-13,28.7273
2004-10-14,28.5135
2004-10-15,28.6323
2004-10-18,28.7226
2004-10-19,28.8509
2004-10-20,29.1788
2004-10-21,29.1503
2004-10-22,28.8081
2004-10-25,28.7511
2004-10-26,28.9887
2004-10-27,29.3308
2004-10-28,28.8936
2004-10-29,29.2073
2004-11-01,28.9221
2004-11-02,28.7843
2004-11-03,29.0077
2004-11-04,29.0837
2004-11-05,29.2881
2004-11-08,29.9106
2004-11-09,29.6635
2004-11-10,29.5875
2004-11-11,29.6778
2004-11-12,29.6873
2004-11-15,30.0864
2004-11-16,29.768
2004-11-17,29.7918
2004-11-18,29.9106
2004-11-19,29.0837
2004-11-22,29.2976
2004-11-23,28.8936
2004-11-24,29.5209
2004-11-26,29.4211
2004-11-29,29.3166
2004-11-30,29.2405
2004-12-01,29.5875
2004-12-02,29.7253
2004-12-03,29.8821
2004-12-06,29.5922
2004-12-07,28.7083
2004-12-08,28.5657
2004-12-09,28.9364
2004-12-10,28.6988
2004-12-13,28.6037
2004-12-14,28.7986
2004-12-15,28.6608
2004-12-16,28.4279
2004-12-17,28.4184
2004-12-20,28.4707
2004-12-21,28.9126
2004-12-22,28.8033
2004-12-23,28.6798
2004-12-27,28.4659
2004-12-28,28.656
2004-12-29,28.7035
2004-12-30,28.8556
2004-12-31,28.8984
2005-01-03,28.5277
2005-01-04,28.1
2005-01-05,28.1285
2005-01-06,28.2331
2005-01-07,28.2093
2005-01-10,28.3139
2005-01-11,28.3471
2005-01-12,28.2971
2005-01-13,28.1162
2005-01-14,28.2067
2005-01-18,28.2638
2005-01-19,28.0924
2005-01-20,27.8306
2005-01-21,27.5688
2005-01-24,27.1165
2005-01-25,27.0403
2005-01-26,27.7163
2005-01-27,28.0258
2005-01-28,27.802
2005-01-31,27.6306
2005-02-01,27.226
2005-02-02,27.4545
2005-02-03,27.5021
2005-02-04,28.4114
2005-02-07,28.5161
2005-02-08,29.6158
2005-02-09,29.8777
2005-02-10,30.3442
2005-02-11,30.8583
2005-02-14,30.8631
2005-02-15,30.7393
2005-02-16,30.9298
2005-02-17,30.6965
2005-02-18,30.6536
2005-02-22,29.9348
2005-02-23,30.0348
2005-02-24,29.711
2005-02-25,30.3252
2005-02-28,30.687
2005-03-01,31.163
2005-03-02,31.0964
2005-03-03,31.5772
2005-03-04,31.7295
2005-03-07,31.9152
2005-03-08,31.6105
2005-03-09,31.5724
2005-03-10,31.7057
2005-03-11,31.5677
2005-03-14,32.0247
2005-03-15,32.0009
2005-03-16,31.8247
2005-03-17,32.0247
2005-03-18,32.0866
2005-03-21,32.058
2005-03-22,32.039
2005-03-23,32.0057
2005-03-24,31.7771
2005-03-28,31.5772
2005-03-29,31.0488
2005-03-30,31.4582
2005-03-31,31.2059
2005-04-01,30.6822
2005-04-04,30.725
2005-04-05,31.0964
2005-04-06,30.9345
2005-04-07,31.244
2005-04-08,31.2249
2005-04-11,30.8536
2005-04-12,30.9345
2005-04-13,30.3795
2005-04-14,30.3795
2005-04-15,29.9789
2005-04-18,29.7739
2005-04-19,30.4939
2005-04-20,30.656
2005-04-21,30.8992
2005-04-22,30.6322
2005-04-25,31.2235
2005-04-26,30.6131
2005-04-27,30.2269
2005-04-28,29.4735
2005-04-29,32.263
2005-05-02,33.0355
2005-05-03,33.7269
2005-05-04,33.5504
2005-05-05,33.1022
2005-05-06,33.4026
2005-05-09,33.3502
2005-05-10,33.1594
2005-05-11,33.231
2005-05-12,33.1642
2005-05-13,32.9067
2005-05-16,32.9019
2005-05-17,33.5552
2005-05-18,33.8795
2005-05-19,34.2848
2005-05-20,33.684
2005-05-23,33.5695
2005-05-24,33.1737
2005-05-25,32.7064
2005-05-26,32.8447
2005-05-27,33.3788
2005-05-31,33.4074
2005-06-01,33.3168
2005-06-02,33.2977
2005-06-03,32.983
2005-06-06,33.1118
2005-06-07,33.4455
2005-06-08,33.3502
2005-06-09,33.8938
2005-06-10,33.6315
2005-06-13,33.4455
2005-06-14,33.2882
2005-06-15,33.8747
2005-06-16,33.9462
2005-06-17,33.8985
2005-06-20,34.4898
2005-06-21,34.5184
2005-06-22,34.4564
2005-06-23,33.5981
2005-06-24,33.2643
2005-06-27,33.3073
2005-06-28,33.9367
2005-06-29,34.0654
2005-06-30,34.0177
2005-07-01,34.1417
2005-07-05,33.8985
2005-07-06,33.7889
2005-07-07,33.8509
2005-07-08,34.0845
2005-07-11,34.5709
2005-07-12,35.5198
2005-07-13,35.6803
2005-07-14,35.9811
2005-07-15,36.1817
2005-07-18,36.2247
2005-07-19,37.1128
2005-07-20,37.5331
2005-07-21,37.0173
2005-07-22,36.8407
2005-07-25,36.4921
2005-07-26,35.5991
2005-07-27,35.5609
2005-07-28,37.6047
2005-07-29,36.6162
2005-08-01,36.5732
2005-08-02,36.5159
2005-08-03,36.769
2005-08-04,36.43
2005-08-05,36.3822
2005-08-08,36.1339
2005-08-09,35.8044
2005-08-10,35.8665
2005-08-11,36.0336
2005-08-12,36.3393
2005-08-15,36.5732
2005-08-16,35.8761
2005-08-17,35.5275
2005-08-18,35.7567
2005-08-19,35.9095
2005-08-22,36.1053
2005-08-23,36.1148
2005-08-24,35.8856
2005-08-25,35.814
2005-08-26,35.6803
2005-08-29,35.4511
2005-08-30,35.4606
2005-08-31,36.7404
2005-09-01,37.0555
2005-09-02,36.8932
2005-09-06,37.6954
2005-09-07,37.8864
2005-09-08,37.9628
2005-09-09,38.3257
2005-09-12,38.5358
2005-09-13,38.1156
2005-09-14,38.0774
2005-09-15,37.8291
2005-09-16,37.8196
2005-09-19,37.6381
2005-09-20,37.5617
2005-09-21,37.3038
2005-09-22,37.4376
2005-09-23,37.9628
2005-09-26,37.8005
2005-09-27,37.619
2005-09-28,37.0173
2005-09-29,37.4471
2005-09-30,37.4758
2005-10-03,37.5331
2005-10-04,37.4758
2005-10-05,36.5589
2005-10-06,35.814
2005-10-07,35.7949
2005-10-10,35.3651
2005-10-11,34.8685
2005-10-12,34.2114
2005-10-13,34.0393
2005-10-14,34.0967
2005-10-17,34.0584
2005-10-18,33.7906
2005-10-19,33.9341
2005-10-20,33.4176
2005-10-21,33.6567
2005-10-24,34.3453
2005-10-25,34.4506
2005-10-26,34.594
2005-10-27,33.2359
2005-10-28,35.4357
2005-10-31,36.153
2005-11-01,35.3974
2005-11-02,35.6939
2005-11-03,35.7704
2005-11-04,35.9235
2005-11-07,35.9139
2005-11-08,36.0191
2005-11-09,36.5451
2005-11-10,36.2486
2005-11-11,36.2965
2005-11-14,36.4112
2005-11-15,36.0765
2005-11-16,36.086
2005-11-17,36.7651
2005-11-18,37.4442
2005-11-21,37.5781
2005-11-22,38.0945
2005-11-23,38.4102
2005-11-25,38.9362
2005-11-28,37.8267
2005-11-29,37.5972
2005-11-30,37.5876
2005-12-01,38.391
2005-12-02,38.7067
2005-12-05,38.0563
2005-12-06,38.3528
2005-12-07,38.1806
2005-12-08,37.6259
2005-12-09,37.5398
2005-12-12,37.7598
2005-12-13,37.645
2005-12-14,37.6833
2005-12-15,37.5398
2005-12-16,37.3772
2005-12-19,37.0425
2005-12-20,37.8363
2005-12-21,37.7502
2005-12-22,37.6068
2005-12-23,37.8937
2005-12-27,37.2338
2005-12-28,37.5972
2005-12-29,37.5494
2005-12-30,37.7311
2006-01-03,37.7502
2006-01-04,38.2476
2006-01-05,38.6684
2006-01-06,39.797
2006-01-09,39.7683
2006-01-10,39.3762
2006-01-11,39.2602
2006-01-12,38.379
2006-01-13,38.4077
2006-01-17,38.2066
2006-01-18,38.1874
2006-01-19,38.3215
2006-01-20,37.5457
2006-01-23,37.3637
2006-01-24,37.1434
2006-01-25,36.8848
2006-01-26,37.2105
2006-01-27,38.1683
2006-01-30,38.5035
2006-01-31,38.5706
2006-02-01,38.5418
2006-02-02,38.0055
2006-02-03,37.3925
2006-02-06,37.335
2006-02-07,36.8178
2006-02-08,36.971
2006-02-09,37.4691
2006-02-10,37.6415
2006-02-13,37.8235
2006-02-14,38.7334
2006-02-15,40.467
2006-02-16,40.7831
2006-02-17,40.898
2006-02-21,40.5436
2006-02-22,40.9268
2006-02-23,40.5819
2006-02-24,43.9055
2006-02-27,43.3308
2006-02-28,43.1297
2006-03-01,43.8864
2006-03-02,43.2829
2006-03-03,43.2638
2006-03-06,44.1928
2006-03-07,43.7139
2006-03-08,43.1488
2006-03-09,43.0339
2006-03-10,43.168
2006-03-13,43.3404
2006-03-14,43.8385
2006-03-15,43.9726
2006-03-16,44.3461
2006-03-17,44.7101
2006-03-20,42.4784
2006-03-21,43.2446
2006-03-22,44.0971
2006-03-23,43.9151
2006-03-24,44.1928
2006-03-27,43.9534
2006-03-28,44.1737
2006-03-29,44.3844
2006-03-30,46.3096
2006-03-31,46.4916
2006-04-03,47.095
2006-04-04,47.1046
2006-04-05,47.4206
2006-04-06,46.846
2006-04-07,46.5873
2006-04-10,46.0414
2006-04-11,45.4842
2006-04-12,45.5417
2006-04-13,45.8294
2006-04-17,45.6376
2006-04-18,47.1144
2006-04-19,47.3542
2006-04-20,47.0952
2006-04-21,47.2679
2006-04-24,47.9583
2006-04-25,48.2268
2006-04-26,48.3419
2006-04-27,48.0542
2006-04-28,45.4266
2006-05-01,46.0116
2006-05-02,46.9993
2006-05-03,46.4815
2006-05-04,47.3638
2006-05-05,48.1309
2006-05-08,47.8432
2006-05-09,47.6706
2006-05-10,47.9775
2006-05-11,48.1597
2006-05-12,46.4911
2006-05-15,45.7815
2006-05-16,45.628
2006-05-17,43.921
2006-05-18,44.1128
2006-05-19,43.6238
2006-05-22,44.0649
2006-05-23,44.3238
2006-05-24,44.18
2006-05-25,44.6019
2006-05-26,44.7841
2006-05-30,44.4772
2006-05-31,44.9184
2006-06-01,44.5923
2006-06-02,45.0047
2006-06-05,44.3142
2006-06-06,44.1991
2006-06-07,43.4416
2006-06-08,43.0004
2006-06-09,43.1539
2006-06-12,42.1086
2006-06-13,41.6195
2006-06-14,41.5044
2006-06-15,42.1469
2006-06-16,41.6291
2006-06-19,40.7564
2006-06-20,40.603
2006-06-21,41.1688
2006-06-22,41.1208
2006-06-23,43.2018
2006-06-26,43.5758
2006-06-27,42.9141
2006-06-28,43.8827
2006-06-29,45.0143
2006-06-30,44.9663
2006-07-03,45.676
2006-07-05,44.1991
2006-07-06,44.3622
2006-07-07,43.7676
2006-07-10,43.7484
2006-07-11,45.1198
2006-07-12,44.1682
2006-07-13,43.2753
2006-07-14,42.776
2006-07-17,42.3247
2006-07-18,42.1999
2006-07-19,43.0064
2006-07-20,41.4893
2006-07-21,40.4043
2006-07-24,40.7308
2006-07-25,41.8926
2006-07-26,42.0174
2006-07-27,41.7678
2006-07-28,43.4193
2006-07-31,43.4481
2006-08-01,43.6209
2006-08-02,43.8322
2006-08-03,44.4851
2006-08-04,44.5043
2006-08-07,44.3123
2006-08-08,44.3027
2006-08-09,43.208
2006-08-10,43.7938
2006-08-11,43.016
2006-08-14,43.3329
2006-08-15,44.4755
2006-08-16,45.4453
2006-08-17,45.2244
2006-08-18,45.1284
2006-08-21,44.1298
2006-08-22,44.0242
2006-08-23,43.9666
2006-08-24,43.7361
2006-08-25,43.5441
2006-08-28,44.1778
2006-08-29,44.6099
2006-08-30,45.1188
2006-08-31,44.4755
2006-09-01,43.9954
2006-09-05,44.3507
2006-09-06,43.1984
2006-09-07,43.3425
2006-09-08,43.0544
2006-09-11,42.3823
2006-09-12,42.0078
2006-09-13,42.123
2006-09-14,42.0558
2006-09-15,41.2397
2006-09-18,40.6828
2006-09-19,40.8748
2006-09-20,40.9996
2006-09-21,40.8556
2006-09-22,40.7212
2006-09-25,41.8158
2006-09-26,42.3535
2006-09-27,42.3919
2006-09-28,43.2657
2006-09-29,42.9104
2006-10-02,42.3919
2006-10-03,42.3343
2006-10-04,42.8624
2006-10-05,43.208
2006-10-06,43.1504
2006-10-09,43.4193
2006-10-10,43.3233
2006-10-11,43.303
2006-10-12,44.2452
2006-10-13,44.2452
2006-10-16,45.322
2006-10-17,45.4855
2006-10-18,45.1393
2006-10-19,45.322
2006-10-20,44.7644
2006-10-23,45.4855
2006-10-24,45.9566
2006-10-25,46.2642
2006-10-26,47.6487
2006-10-27,47.5814
2006-10-30,46.5911
2006-10-31,45.9566
2006-11-01,44.7548
2006-11-02,44.8317
2006-11-03,44.4183
2006-11-06,44.7067
2006-11-07,45.6681
2006-11-08,45.947
2006-11-09,46.1008
2006-11-10,47.4083
2006-11-13,47.4756
2006-11-14,47.6775
2006-11-15,47.9948
2006-11-16,48.1486
2006-11-17,48.091
2006-11-20,47.9371
2006-11-21,47.8218
2006-11-22,48.5332
2006-11-24,49.2735
2006-11-27,48.1871
2006-11-28,47.841
2006-11-29,48.4082
2006-11-30,49.2735
2006-12-01,48.687
2006-12-04,49.2543
2006-12-05,49.2351
2006-12-06,48.9178
2006-12-07,48.7447
2006-12-08,48.4178
2006-12-11,48.6678
2006-12-12,48.2736
2006-12-13,47.9275
2006-12-14,49.3697
2006-12-15,48.1871
2006-12-18,48.5909
2006-12-19,49.0908
2006-12-20,48.687
2006-12-21,48.0429
2006-12-22,48.0525
2006-12-26,48.1775
2006-12-27,49.1293
2006-12-28,48.5524
2006-12-29,48.2544
2007-01-03,48.1102
2007-01-04,47.6775
2007-01-05,46.8507
2007-01-08,46.7161
2007-01-09,47.0622
2007-01-10,46.9419
2007-01-11,48.2897
2007-01-12,48.4726
2007-01-16,48.4438
2007-01-17,48.2416
2007-01-18,48.1068
2007-01-19,48.4149
2007-01-22,48.2223
2007-01-23,50.9661
2007-01-24,50.4751
2007-01-25,49.7434
2007-01-26,50.1093
2007-01-29,49.9263
2007-01-30,50.2825
2007-01-31,49.9649
2007-02-01,50.3788
2007-02-02,50.9276
2007-02-05,51.0623
2007-02-06,50.2055
2007-02-07,50.5521
2007-02-08,50.6291
2007-02-09,50.1093
2007-02-12,50.0804
2007-02-13,50.3114
2007-02-14,50.4751
2007-02-15,49.7916
2007-02-16,50.2344
2007-02-20,49.5316
2007-02-21,49.5605
2007-02-22,49.445
2007-02-23,53.1322
2007-02-26,52.9781
2007-02-27,51.5052
2007-02-28,51.1105
2007-03-01,51.1105
2007-03-02,50.8698
2007-03-05,50.1189
2007-03-06,50.6291
2007-03-07,50.658
2007-03-08,51.0816
2007-03-09,51.0142
2007-03-12,51.0238
2007-03-13,50.0419
2007-03-14,50.1189
2007-03-15,50.8313
2007-03-16,49.8204
2007-03-19,50.8409
2007-03-20,51.1201
2007-03-21,51.1682
2007-03-22,52.4872
2007-03-23,52.6316
2007-03-26,51.9384
2007-03-27,51.8036
2007-03-28,52.3331
2007-03-29,52.7086
2007-03-30,52.7856
2007-04-02,51.8133
2007-04-03,52.4775
2007-04-04,53.0359
2007-04-05,53.3151
2007-04-09,53.6232
2007-04-10,53.7579
2007-04-11,53.5411
2007-04-12,53.3387
2007-04-13,53.2038
2007-04-16,53.9749
2007-04-17,53.917
2007-04-18,53.6279
2007-04-19,53.7628
2007-04-20,54.611
2007-04-23,54.7266
2007-04-24,54.6014
2007-04-25,55.1604
2007-04-26,55.064
2007-04-27,55.6037
2007-04-30,54.1002
2007-05-01,54.2736
2007-05-02,54.4761
2007-05-03,54.6881
2007-05-04,54.6785
2007-05-07,55.1411
2007-05-08,54.5435
2007-05-09,55.17
2007-05-10,54.2736
2007-05-11,54.4857
2007-05-14,53.9652
2007-05-15,53.4929
2007-05-16,53.7146
2007-05-17,53.0881
2007-05-18,53.6472
2007-05-21,54.264
2007-05-22,54.1773
2007-05-23,53.917
2007-05-24,53.358
2007-05-25,55.1025
2007-05-29,55.623
2007-05-30,55.6616
2007-05-31,56.1435
2007-06-01,55.8543
2007-06-04,56.0375
2007-06-05,55.6037
2007-06-06,54.6303
2007-06-07,53.2231
2007-06-08,53.3676
2007-06-11,53.9363
2007-06-12,53.5893
2007-06-13,54.0616
2007-06-14,54.4182
2007-06-15,54.1869
2007-06-18,54.2447
2007-06-19,54.2447
2007-06-20,53.8977
2007-06-21,53.9941
2007-06-22,53.3098
2007-06-25,52.9725
2007-06-26,53.2327
2007-06-27,53.7339
2007-06-28,54.2062
2007-06-29,54.958
2007-07-02,56.8856
2007-07-03,57.6471
2007-07-05,57.3097
2007-07-06,57.8109
2007-07-09,58.9483
2007-07-10,57.9362
2007-07-11,58.0375
2007-07-12,59.3979
2007-07-13,59.8225
2007-07-16,59.4848
2007-07-17,59.6392
2007-07-18,59.5909
2007-07-19,60.4304
2007-07-20,59.9672
2007-07-23,59.8804
2007-07-24,58.6646
2007-07-25,58.819
2007-07-26,57.2366
2007-07-27,56.4551
2007-07-30,59.4848
2007-07-31,57.8445
2007-08-01,57.9892
2007-08-02,59.2532
2007-08-03,58.2111
2007-08-06,59.1953
2007-08-07,58.8383
2007-08-08,62.1768
2007-08-09,62.4277
2007-08-10,60.6233
2007-08-13,60.9803
2007-08-14,59.6971
2007-08-15,58.9734
2007-08-16,58.4524
2007-08-17,58.5778
2007-08-20,59.3207
2007-08-21,58.3076
2007-08-22,59.6488
2007-08-23,58.6646
2007-08-24,59.1278
2007-08-27,58.8769
2007-08-28,58.3269
2007-08-29,59.9769
2007-08-30,60.5944
2007-08-31,60.9996
2007-09-04,61.7136
2007-09-05,60.99
2007-09-06,61.5303
2007-09-07,60.2953
2007-09-10,60.4111
2007-09-11,61.0479
2007-09-12,61.3663
2007-09-13,61.4435
2007-09-14,60.083
2007-09-17,59.6006
2007-09-18,61.5496
2007-09-19,61.1444
2007-09-20,60.5944
2007-09-21,61.0382
2007-09-24,61.1154
2007-09-25,62.1189
2007-09-26,62.9776
2007-09-27,62.6882
2007-09-28,63.1224
2007-10-01,63.2575
2007-10-02,63.0548
2007-10-03,62.9005
2007-10-04,62.7268
2007-10-05,64.1837
2007-10-08,64.2609
2007-10-09,63.7978
2007-10-10,64.266
2007-10-11,63.899
2007-10-12,64.4495
2007-10-15,64.5558
2007-10-16,64.5654
2007-10-17,65.3381
2007-10-18,65.7341
2007-10-19,63.5513
2007-10-22,64.295
2007-10-23,65.1932
2007-10-24,64.7489
2007-10-25,65.8886
2007-10-26,64.4302
2007-10-29,66.0721
2007-10-30,66.1011
2007-10-31,68.4963
2007-11-01,67.2118
2007-11-02,67.0476
2007-11-05,66.5164
2007-11-06,67.347
2007-11-07,65.5312
2007-11-08,65.0097
2007-11-09,63.7445
2007-11-12,62.1315
2007-11-13,62.8076
2007-11-14,62.0929
2007-11-15,61.4941
2007-11-16,60.2482
2007-11-19,58.4324
2007-11-20,59.0989
2007-11-21,59.1085
2007-11-23,58.9153
2007-11-26,58.7125
2007-11-27,60.1902
2007-11-28,60.4124
2007-11-29,60.8373
2007-11-30,61.2333
2007-12-03,60.8277
2007-12-04,60.2578
2007-12-05,62.0543
2007-12-06,62.9332
2007-12-07,62.9235
2007-12-10,63.8411
2007-12-11,61.7259
2007-12-12,62.2571
2007-12-13,61.4168
2007-12-14,62.1219
2007-12-17,59.0795
2007-12-18,59.8522
2007-12-19,58.4324
2007-12-20,58.5483
2007-12-21,59.9778
2007-12-24,60.5862
2007-12-26,60.6925
2007-12-27,59.9488
2007-12-28,60.3737
2007-12-31,60.3448
2008-01-02,58.8381
2008-01-03,58.4517
2008-01-04,55.6509
2008-01-07,52.6665
2008-01-08,50.3678
2008-01-09,50.7287
2008-01-10,50.69
2008-01-11,48.9974
2008-01-14,50.719
2008-01-15,49.2876
2008-01-16,50.0323
2008-01-17,48.3591
2008-01-18,49.2199
2008-01-22,49.7131
2008-01-23,50.7964
2008-01-24,52.8565
2008-01-25,52.8178
2008-01-28,52.6147
2008-01-29,52.9532
2008-01-30,52.5953
2008-01-31,53.959
2008-02-01,55.2647
2008-02-04,55.2551
2008-02-05,53.6302
2008-02-06,53.2433
2008-02-07,52.073
2008-02-08,52.7017
2008-02-11,52.7597
2008-02-12,53.3014
2008-02-13,54.8102
2008-02-14,54.433
2008-02-15,53.4851
2008-02-19,52.7597
2008-02-20,54.1235
2008-02-21,54.8779
2008-02-22,57.3925
2008-02-25,56.6381
2008-02-26,57.3152
2008-02-27,57.2184
2008-02-28,56.5898
2008-02-29,54.5007
2008-03-03,55.1777
2008-03-04,54.4039
2008-03-05,54.8585
2008-03-06,54.2879
2008-03-07,52.7404
2008-03-10,51.3767
2008-03-11,53.1853
2008-03-12,54.0848
2008-03-13,54.7425
2008-03-14,53.5915
2008-03-17,53.0983
2008-03-18,55.0713
2008-03-19,54.4039
2008-03-20,54.6844
2008-03-24,56.5511
2008-03-25,57.673
2008-03-26,57.5956
2008-03-27,57.1798
2008-03-28,56.7445
2008-03-31,57.5763
2008-04-01,59.7331
2008-04-02,59.8008
2008-04-03,59.7041
2008-04-04,59.7718
2008-04-07,59.9266
2008-04-08,59.8589
2008-04-09,59.7067
2008-04-10,60.1618
2008-04-11,58.0219
2008-04-14,57.5474
2008-04-15,57.5377
2008-04-16,59.639
2008-04-17,59.0967
2008-04-18,60.036
2008-04-21,60.9462
2008-04-22,60.5201
2008-04-23,60.3071
2008-04-24,60.1618
2008-04-25,59.9972
2008-04-28,59.9488
2008-04-29,59.1548
2008-04-30,60.2296
2008-05-01,60.7913
2008-05-02,61.5078
2008-05-05,60.859
2008-05-06,60.7913
2008-05-07,60.0263
2008-05-08,60.859
2008-05-09,60.3749
2008-05-12,60.9946
2008-05-13,60.9655
2008-05-14,60.859
2008-05-15,60.8106
2008-05-16,61.4594
2008-05-19,60.0456
2008-05-20,59.7745
2008-05-21,58.3995
2008-05-22,58.8159
2008-05-23,58.7287
2008-05-27,59.4647
2008-05-28,61.1979
2008-05-29,61.9629
2008-05-30,62.8538
2008-06-02,62.2631
2008-06-03,61.9436
2008-06-04,62.786
2008-06-05,64.3934
2008-06-06,63.5607
2008-06-09,63.7156
2008-06-10,63.0087
2008-06-11,62.8828
2008-06-12,62.4761
2008-06-13,64.1804
2008-06-16,65.4489
2008-06-17,64.9066
2008-06-18,64.6742
2008-06-19,64.8776
2008-06-20,63.0668
2008-06-23,63.1346
2008-06-24,62.999
2008-06-25,64.2966
2008-06-26,61.8758
2008-06-27,64.1416
2008-06-30,63.6381
2008-07-01,63.4057
2008-07-02,59.7551
2008-07-03,59.4162
2008-07-07,59.1548
2008-07-08,59.8229
2008-07-09,58.236
2008-07-10,59.2152
2008-07-11,58.4105
2008-07-14,56.8012
2008-07-15,55.7832
2008-07-16,56.9369
2008-07-17,60.4076
2008-07-18,59.7484
2008-07-21,60.3688
2008-07-22,61.6388
2008-07-23,62.2011
2008-07-24,60.4367
2008-07-25,58.3911
2008-07-28,59.157
2008-07-29,60.6984
2008-07-30,60.5142
2008-07-31,59.3606
2008-08-01,60.2622
2008-08-04,58.5268
2008-08-05,58.8855
2008-08-06,58.9243
2008-08-07,58.9728
2008-08-08,59.6029
2008-08-11,60.0586
2008-08-12,59.5642
2008-08-13,60.0877
2008-08-14,60.1071
2008-08-15,60.8148
2008-08-18,60.1168
2008-08-19,59.6029
2008-08-20,59.38
2008-08-21,58.1584
2008-08-22,58.1197
2008-08-25,57.189
2008-08-26,57.1987
2008-08-27,57.6349
2008-08-28,58.0809
2008-08-29,57.2859
2008-09-02,57.3732
2008-09-03,56.4716
2008-09-04,54.5035
2008-09-05,54.4163
2008-09-08,56.268
2008-09-09,55.5797
2008-09-10,55.2888
2008-09-11,56.0741
2008-09-12,56.2389
2008-09-15,55.4051
2008-09-16,56.5491
2008-09-17,55.2597
2008-09-18,58.8952
2008-09-19,61.1735
2008-09-22,57.6058
2008-09-23,56.3261
2008-09-24,55.5506
2008-09-25,56.4037
2008-09-26,55.25
2008-09-29,52.6519
2008-09-30,55.124
2008-10-01,52.9815
2008-10-02,49.1036
2008-10-03,47.2422
2008-10-06,45.1385
2008-10-07,42.0071
2008-10-08,41.5148
2008-10-09,38.8249
2008-10-10,38.7569
2008-10-13,47.6716
2008-10-14,45.778
2008-10-15,41.6993
2008-10-16,40.4757
2008-10-17,41.8741
2008-10-20,43.8843
2008-10-21,42.1266
2008-10-22,39.5143
2008-10-23,40.7282
2008-10-24,36.0863
2008-10-27,36.9021
2008-10-28,40.2524
2008-10-29,41.7091
2008-10-30,43.3308
2008-10-31,43.7581
2008-11-03,43.7775
2008-11-04,44.8749
2008-11-05,42.0781
2008-11-06,39.1745
2008-11-07,40.4757
2008-11-10,40.0485
2008-11-11,39.4464
2008-11-12,37.4944
2008-11-13,41.6993
2008-11-14,38.5918
2008-11-17,38.4947
2008-11-18,40.0096
2008-11-19,37.3779
2008-11-20,34.183
2008-11-21,36.9409
2008-11-24,37.8343
2008-11-25,40.0776
2008-11-26,44.1854
2008-11-28,44.4476
2008-12-01,39.4075
2008-12-02,41.6799
2008-12-03,42.5248
2008-12-04,39.7183
2008-12-05,41.9907
2008-12-08,44.2631
2008-12-09,40.903
2008-12-10,40.1261
2008-12-11,38.0674
2008-12-12,38.5238
2008-12-15,37.3973
2008-12-16,40.1164
2008-12-17,40.8642
2008-12-18,40.3009
2008-12-19,40.3301
2008-12-22,38.5238
2008-12-23,38.3199
2008-12-24,38.5821
2008-12-26,39.2327
2008-12-29,39.0288
2008-12-30,41.0293
2008-12-31,42.1849
2009-01-02,43.4279
2009-01-05,43.5542
2009-01-06,44.3408
2009-01-07,41.8335
2009-01-08,42.3297
2009-01-09,41.6681
2009-01-12,41.1233
2009-01-13,40.6953
2009-01-14,39.2652
2009-01-15,40.5883
2009-01-16,41.0066
2009-01-20,39.0608
2009-01-21,40.7731
2009-01-22,39.7905
2009-01-23,40.0824
2009-01-26,40.598
2009-01-27,41.5028
2009-01-28,42.3589
2009-01-29,40.812
2009-01-30,39.8683
2009-02-02,39.5667
2009-02-03,39.5959
2009-02-04,39.0803
2009-02-05,38.4285
2009-02-06,42.5145
2009-02-09,42.6021
2009-02-10,41.3179
2009-02-11,40.6758
2009-02-12,40.7828
2009-02-13,42.5729
2009-02-17,41.853
2009-02-18,41.639
2009-02-19,41.6292
2009-02-20,42.0281
2009-02-23,39.5473
2009-02-24,40.9969
2009-02-25,40.9288
2009-02-26,40.6953
2009-02-27,40.2575
2009-03-02,37.0178
2009-03-03,37.9615
2009-03-04,38.983
2009-03-05,37.4751
2009-03-06,36.9886
2009-03-09,35.9185
2009-03-10,38.5744
2009-03-11,39.0706
2009-03-12,40.7147
2009-03-13,40.4131
2009-03-16,40.2478
2009-03-17,41.4638
2009-03-18,42.9523
2009-03-19,41.8627
2009-03-20,40.5299
2009-03-23,43.1275
2009-03-24,42.2713
2009-03-25,41.4541
2009-03-26,42.9523
2009-03-27,42.2811
2009-03-30,40.6661
2009-03-31,41.2985
2009-04-01,41.8822
2009-04-02,44.4895
2009-04-03,44.5673
2009-04-06,43.896
2009-04-07,42.622
2009-04-08,42.8462
2009-04-09,45.1171
2009-04-13,44.7467
2009-04-14,42.7682
2009-04-15,42.3198
2009-04-16,45.0002
2009-04-17,44.9027
2009-04-20,39.9807
2009-04-21,41.1892
2009-04-22,42.2516
2009-04-23,40.5849
2009-04-24,45.2536
2009-04-27,44.2107
2009-04-28,43.4992
2009-04-29,44.2789
2009-04-30,44.3374
2009-05-01,44.3374
2009-05-04,46.2087
2009-05-05,45.6824
2009-05-06,45.624
2009-05-07,44.4836
2009-05-08,45.7507
2009-05-11,44.7175
2009-05-12,44.0937
2009-05-13,42.1152
2009-05-14,42.2809
2009-05-15,41.93
2009-05-18,43.6454
2009-05-19,43.7721
2009-05-20,42.5538
2009-05-21,41.2477
2009-05-22,41.6278
2009-05-26,42.6025
2009-05-27,41.7058
2009-05-28,41.16
2009-05-29,41.7838
2009-06-01,43.1678
2009-06-02,43.0801
2009-06-03,43.6941
2009-06-04,45.5362
2009-06-05,46.0236
2009-06-08,46.1893
2009-06-09,46.1893
2009-06-10,46.4232
2009-06-11,46.7448
2009-06-12,45.8579
2009-06-15,44.8345
2009-06-16,43.967
2009-06-17,44.5031
2009-06-18,44.8442
2009-06-19,44.9027
2009-06-22,43.0411
2009-06-23,42.4271
2009-06-24,41.8618
2009-06-25,42.6415
2009-06-26,42.9924
2009-06-29,44.2984
2009-06-30,44.0645
2009-07-01,44.9027
2009-07-02,43.5869
2009-07-06,42.4173
2009-07-07,41.6668
2009-07-08,41.1814
2009-07-09,41.4157
2009-07-10,41.7673
2009-07-13,42.3435
2009-07-14,42.2458
2009-07-15,43.8864
2009-07-16,45.1657
2009-07-17,44.4431
2009-07-20,45.1462
2009-07-21,45.195
2009-07-22,45.7809
2009-07-23,46.8942
2009-07-24,46.0934
2009-07-27,45.5661
2009-07-28,45.6247
2009-07-29,45.7321
2009-07-30,46.7868
2009-07-31,46.6501
2009-08-03,47.1384
2009-08-04,47.1969
2009-08-05,46.2302
2009-08-06,45.7028
2009-08-07,45.7907
2009-08-10,45.4489
2009-08-11,45.1266
2009-08-12,45.5856
2009-08-13,45.5856
2009-08-14,44.6384
2009-08-17,43.4274
2009-08-18,44.0524
2009-08-19,44.3161
2009-08-20,44.4235
2009-08-21,45.1071
2009-08-24,45.029
2009-08-25,45.8981
2009-08-26,46.4938
2009-08-27,47.1579
2009-08-28,47.5583
2009-08-31,46.3376
2009-09-01,45.361
2009-09-02,45.6052
2009-09-03,45.6931
2009-09-04,46.3376
2009-09-08,46.6598
2009-09-09,47.5192
2009-09-10,48.9157
2009-09-11,49.5114
2009-09-14,49.9313
2009-09-15,51.025
2009-09-16,51.7965
2009-09-17,51.1325
2009-09-18,50.6149
2009-09-21,50.654
2009-09-22,50.654
2009-09-23,49.5114
2009-09-24,49.1012
2009-09-25,49.4626
2009-09-28,49.7458
2009-09-29,50.2731
2009-09-30,49.7848
2009-10-01,47.6559
2009-10-02,46.3669
2009-10-05,46.8259
2009-10-06,47.3923
2009-10-07,47.2385
2009-10-08,48.8134
2009-10-09,49.4297
2009-10-12,49.7427
2009-10-13,49.9873
2009-10-14,50.9459
2009-10-15,50.9459
2009-10-16,50.4471
2009-10-19,51.2296
2009-10-20,50.3688
2009-10-21,50.2221
2009-10-22,50.8579
2009-10-23,51.0633
2009-10-26,50.8677
2009-10-27,49.7134
2009-10-28,49.6547
2009-10-29,50.359
2009-10-30,49.4884
2009-11-02,49.0775
2009-11-03,49.5275
2009-11-04,49.371
2009-11-05,50.9753
2009-11-06,51.2688
2009-11-09,51.9731
2009-11-10,51.9437
2009-11-11,51.8361
2009-11-12,51.0046
2009-11-13,51.6503
2009-11-16,52.8241
2009-11-17,52.7557
2009-11-18,52.4915
2009-11-19,51.3079
2009-11-20,51.7383
2009-11-23,52.4231
2009-11-24,51.9242
2009-11-25,51.7187
2009-11-27,51.1025
2009-11-30,50.9166
2009-12-01,52.11
2009-12-02,51.9242
2009-12-03,51.6111
2009-12-04,52.56
2009-12-07,52.4426
2009-12-08,51.572
2009-12-09,51.8264
2009-12-10,52.6285
2009-12-11,53.147
2009-12-14,52.7752
2009-12-15,52.1198
2009-12-16,53.8513
2009-12-17,52.9709
2009-12-18,52.9904
2009-12-21,53.46
2009-12-22,53.2448
2009-12-23,51.8948
2009-12-24,52.0513
2009-12-28,52.4133
2009-12-29,52.5698
2009-12-30,52.0024
2009-12-31,51.259
2010-01-04,51.3275
2010-01-05,50.6916
2010-01-06,51.2355
2010-01-07,51.0885
2010-01-08,51.4217
2010-01-11,51.5785
2010-01-12,51.5295
2010-01-13,51.3923
2010-01-14,51.3923
2010-01-15,50.7062
2010-01-19,52.7447
2010-01-20,52.2155
2010-01-21,51.2355
2010-01-22,50.128
2010-01-25,50.226
2010-01-26,50.0104
2010-01-27,49.6674
2010-01-28,49.4028
2010-01-29,49.0598
2010-02-01,49.5008
2010-02-02,50.3436
2010-02-03,52.4703
2010-02-04,52.0489
2010-02-05,51.4119
2010-02-08,50.716
2010-02-09,51.1571
2010-02-10,50.667
2010-02-11,51.8627
2010-02-12,51.7647
2010-02-16,52.8133
2010-02-17,52.8329
2010-02-18,53.7639
2010-02-19,54.3911
2010-02-22,54.0579
2010-02-23,53.3621
2010-02-24,54.0089
2010-02-25,53.6757
2010-02-26,54.3911
2010-03-01,54.5969
2010-03-02,54.5969
2010-03-03,54.6655
2010-03-04,54.5479
2010-03-05,55.1947
2010-03-08,55.6651
2010-03-09,55.5573
2010-03-10,55.8023
2010-03-11,56.508
2010-03-12,56.8412
2010-03-15,56.0768
2010-03-16,56.7432
2010-03-17,57.1254
2010-03-18,56.6256
2010-03-19,56.1062
2010-03-22,56.2924
2010-03-23,56.7236
2010-03-24,56.1258
2010-03-25,55.6553
2010-03-26,55.7533
2010-03-29,55.8318
2010-03-30,56.6256
2010-03-31,56.7236
2010-04-01,57.3998
2010-04-05,57.7232
2010-04-06,58.272
2010-04-07,58.4634
2010-04-08,58.9738
2010-04-09,59.3075
2010-04-12,59.7689
2010-04-13,59.8474
2010-04-14,60.2793
2010-04-15,60.5149
2010-04-16,59.6805
2010-04-19,59.5235
2010-04-20,60.1026
2010-04-21,60.3873
2010-04-22,61.3492
2010-04-23,62.7038
2010-04-26,59.9259
2010-04-27,59.8572
2010-04-28,59.3861
2010-04-29,61.2314
2010-04-30,59.8474
2010-05-03,61.1627
2010-05-04,59.3959
2010-05-05,58.9051
2010-05-06,57.0597
2010-05-07,56.51
2010-05-10,59.8278
2010-05-11,59.5235
2010-05-12,60.7897
2010-05-13,60.4756
2010-05-14,59.1603
2010-05-17,59.6118
2010-05-18,59.0916
2010-05-19,57.9824
2010-05-20,55.9407
2010-05-21,56.9517
2010-05-24,56.2744
2010-05-25,55.6462
2010-05-26,55.7738
2010-05-27,57.7272
2010-05-28,57.0303
2010-06-01,55.656
2010-06-02,57.3345
2010-06-03,58.1493
2010-06-04,55.4204
2010-06-07,54.3898
2010-06-08,54.8708
2010-06-09,55.0867
2010-06-10,57.0106
2010-06-11,57.148
2010-06-14,57.7272
2010-06-15,59.337
2010-06-16,59.072
2010-06-17,59.2977
2010-06-18,59.445
2010-06-21,59.1897
2010-06-22,57.9922
2010-06-23,58.0413
2010-06-24,56.8241
2010-06-25,56.8732
2010-06-28,56.7849
2010-06-29,54.7922
2010-06-30,54.9395
2010-07-01,54.056
2010-07-02,53.8205
2010-07-06,53.7419
2010-07-07,55.0644
2010-07-08,55.7724
2010-07-09,55.9002
2010-07-12,55.6544
2010-07-13,56.9523
2010-07-14,57.2473
2010-07-15,57.5226
2010-07-16,55.9297
2010-07-19,56.2345
2010-07-20,57.2276
2010-07-21,57.267
2010-07-22,59.0861
2010-07-23,61.033
2010-07-26,62.3604
2010-07-27,61.7508
2010-07-28,60.9838
2010-07-29,60.9642
2010-07-30,61.505
2010-08-02,61.9475
2010-08-03,62.4489
2010-08-04,62.5866
2010-08-05,62.3309
2010-08-06,62.0949
2010-08-09,62.6456
2010-08-10,61.7705
2010-08-11,59.4991
2010-08-12,59.1549
2010-08-13,58.4764
2010-08-16,58.7812
2010-08-17,59.9022
2010-08-18,59.8727
2010-08-19,58.5158
2010-08-20,58.4863
2010-08-23,58.2699
2010-08-24,57.4538
2010-08-25,56.9032
2010-08-26,56.8737
2010-08-27,58.2404
2010-08-30,57.0605
2010-08-31,57.0703
2010-09-01,58.9189
2010-09-02,59.7744
2010-09-03,60.9248
2010-09-07,59.971
2010-09-08,61.2296
2010-09-09,61.3968
2010-09-10,61.2198
2010-09-13,62.9799
2010-09-14,62.6948
2010-09-15,62.8422
2010-09-16,62.8521
2010-09-17,63.0192
2010-09-20,63.8649
2010-09-21,64.1992
2010-09-22,62.9406
2010-09-23,62.4883
2010-09-24,64.2582
2010-09-27,63.4421
2010-09-28,64.5237
2010-09-29,64.209
2010-09-30,64.032
2010-10-01,64.917
2010-10-04,63.8649
2010-10-05,65.6151
2010-10-06,65.8366
2010-10-07,65.4526
2010-10-08,65.2557
2010-10-11,65.4329
2010-10-12,65.2458
2010-10-13,66.2995
2010-10-14,65.7382
2010-10-15,66.0237
2010-10-18,66.9986
2010-10-19,65.1277
2010-10-20,66.4373
2010-10-21,68.0621
2010-10-22,68.3772
2010-10-25,69.3028
2010-10-26,69.2831
2010-10-27,68.2984
2010-10-28,68.515
2010-10-29,68.387
2010-11-01,68.6627
2010-11-02,69.3323
2010-11-03,69.1058
2010-11-04,70.9374
2010-11-05,70.5829
2010-11-08,70.2087
2010-11-09,70.3072
2010-11-10,71.026
2010-11-11,70.3269
2010-11-12,69.7459
2010-11-15,70.3367
2010-11-16,68.771
2010-11-17,68.9975
2010-11-18,70.1693
2010-11-19,70.8684
2010-11-22,71.0949
2010-11-23,70.2973
2010-11-24,72.2864
2010-11-26,72.2372
2010-11-29,71.154
2010-11-30,71.4002
2010-12-01,72.6015
2010-12-02,73.6354
2010-12-03,74.1278
2010-12-06,74.7284
2010-12-07,75.3882
2010-12-08,75.2996
2010-12-09,75.595
2010-12-10,76.5009
2010-12-13,76.107
2010-12-14,76.1267
2010-12-15,76.0479
2010-12-16,77.1606
2010-12-17,77.0425
2010-12-20,75.979
2010-12-21,76.619
2010-12-22,76.8652
2010-12-23,75.6245
2010-12-27,76.56
2010-12-28,76.1562
2010-12-29,76.107
2010-12-30,75.6934
2010-12-31,75.2996
2011-01-03,75.8608
2011-01-04,74.7284
2011-01-05,75.1426
2011-01-06,74.5805
2011-01-07,73.8113
2011-01-10,74.0184
2011-01-11,74.6199
2011-01-12,74.3537
2011-01-13,74.1762
2011-01-14,74.2847
2011-01-18,74.6298
2011-01-19,72.9435
2011-01-20,72.5096
2011-01-21,72.9041
2011-01-24,73.7028
2011-01-25,73.8606
2011-01-26,74.9355
2011-01-27,75.5863
2011-01-28,74.6101
2011-01-31,76.6612
2011-02-01,77.7459
2011-02-02,77.9629
2011-02-03,77.9925
2011-02-04,78.7912
2011-02-07,79.5703
2011-02-08,80.9212
2011-02-09,80.9804
2011-02-10,81.8383
2011-02-11,82.5385
2011-02-14,83.5641
2011-02-15,83.3373
2011-02-16,83.8205
2011-02-17,83.4556
2011-02-18,84.0571
2011-02-22,82.3413
2011-02-23,81.7989
2011-02-24,81.0692
2011-02-25,82.0159
2011-02-28,82.9034
2011-03-01,82.1342
2011-03-02,83.5443
2011-03-03,86.1872
2011-03-04,84.7474
2011-03-07,83.6725
2011-03-08,84.6981
2011-03-09,85.132
2011-03-10,83.1992
2011-03-11,83.2879
2011-03-14,82.4202
2011-03-15,81.8383
2011-03-16,80.7142
2011-03-17,81.3453
2011-03-18,82.9625
2011-03-21,84.6094
2011-03-22,84.1163
2011-03-23,83.5443
2011-03-24,83.9092
2011-03-25,84.6587
2011-03-28,83.9388
2011-03-29,84.5305
2011-03-30,84.5305
2011-03-31,85.2898
2011-04-01,87.124
2011-04-04,87.2324
2011-04-05,86.3647
2011-04-06,85.9006
2011-04-07,85.1403
2011-04-08,84.3406
2011-04-11,84.0937
2011-04-12,83.5507
2011-04-13,83.7087
2011-04-14,83.4717
2011-04-15,83.8568
2011-04-18,82.2375
2011-04-19,82.7707
2011-04-20,84.696
2011-04-21,85.2983
2011-04-25,85.0219
2011-04-26,86.0882
2011-04-27,85.2786
2011-04-28,85.3575
2011-04-29,85.3872
2011-05-02,85.0811
2011-05-03,84.3899
2011-05-04,82.7608
2011-05-05,82.899
2011-05-06,82.7312
2011-05-09,82.7904
2011-05-10,83.7679
2011-05-11,82.5041
2011-05-12,82.9188
2011-05-13,81.6154
2011-05-16,81.8722
2011-05-17,81.1119
2011-05-18,81.9314
2011-05-19,82.3362
2011-05-20,82.3362
2011-05-23,81.0526
2011-05-24,79.9073
2011-05-25,81.0823
2011-05-26,81.339
2011-05-27,81.8919
2011-05-31,82.4053
2011-06-01,79.2063
2011-06-02,80.1443
2011-06-03,78.7126
2011-06-06,77.8733
2011-06-07,78.9199
2011-06-08,78.5645
2011-06-09,78.4855
2011-06-10,77.5771
2011-06-13,77.271
2011-06-14,78.8804
2011-06-15,77.4784
2011-06-16,77.8536
2011-06-17,78.9891
2011-06-20,79.4531
2011-06-21,81.1415
2011-06-22,80.8058
2011-06-23,80.4602
2011-06-24,80.0357
2011-06-27,79.9468
2011-06-28,81.2402
2011-06-29,81.6944
2011-06-30,82.2474
2011-07-01,82.6917
2011-07-05,82.5139
2011-07-06,83.1566
2011-07-07,83.819
2011-07-08,82.7117
2011-07-11,81.199
2011-07-12,80.6552
2011-07-13,81.1891
2011-07-14,80.1609
2011-07-15,81.199
2011-07-18,80.0324
2011-07-19,81.0705
2011-07-20,81.7428
2011-07-21,82.939
2011-07-22,83.4532
2011-07-25,86.2115
2011-07-26,85.1339
2011-07-27,82.3261
2011-07-28,81.3572
2011-07-29,80.7244
2011-08-01,79.37
2011-08-02,76.9379
2011-08-03,78.2923
2011-08-04,73.8631
2011-08-05,72.4988
2011-08-08,67.0314
2011-08-09,70.3435
2011-08-10,66.7645
2011-08-11,70.8773
2011-08-12,71.7375
2011-08-15,72.7163
2011-08-16,70.2446
2011-08-17,69.7503
2011-08-18,66.7348
2011-08-19,65.1431
2011-08-22,65.0937
2011-08-23,67.7927
2011-08-24,69.8788
2011-08-25,69.8096
2011-08-26,71.4112
2011-08-29,74.0312
2011-08-30,74.7134
2011-08-31,76.0283
2011-09-01,74.6442
2011-09-02,72.5976
2011-09-06,71.5991
2011-09-07,73.962
2011-09-08,72.6372
2011-09-09,70.1062
2011-09-12,70.126
2011-09-13,72.1329
2011-09-14,72.1231
2011-09-15,75.1583
2011-09-16,75.01
2011-09-19,73.7049
2011-09-20,72.568
2011-09-21,70.3336
2011-09-22,66.8535
2011-09-23,69.1867
2011-09-26,69.6811
2011-09-27,70.9564
2011-09-28,70.5511
2011-09-29,71.1443
2011-09-30,68.2178
2011-10-03,65.7363
2011-10-04,69.2362
2011-10-05,71.3255
2011-10-06,72.7118
2011-10-07,72.2563
2011-10-10,74.9695
2011-10-11,75.3458
2011-10-12,76.8114
2011-10-13,74.8309
2011-10-14,77.1183
2011-10-17,74.2764
2011-10-18,76.5044
2011-10-19,75.7716
2011-10-20,75.5637
2011-10-21,76.8411
2011-10-24,78.0293
2011-10-25,77.5738
2011-10-26,78.7621
2011-10-27,81.5842
2011-10-28,82.1189
2011-10-31,80.4158
2011-11-01,78.0689
2011-11-02,80.1979
2011-11-03,83.3468
2011-11-04,82.3863
2011-11-07,83.2973
2011-11-08,83.9409
2011-11-09,80.792
2011-11-10,81.6832
2011-11-11,84.5648
2011-11-14,84.7133
2011-11-15,85.9115
2011-11-16,84.0499
2011-11-17,81.6733
2011-11-18,82.4259
2011-11-21,80.792
2011-11-22,80.7821
2011-11-23,78.772
2011-11-25,78.7225
2011-11-28,81.7228
2011-11-29,82.0199
2011-11-30,84.3766
2011-12-01,83.8419
2011-12-02,83.8023
2011-12-05,84.3469
2011-12-06,83.9112
2011-12-07,83.3765
2011-12-08,82.2279
2011-12-09,83.8419
2011-12-12,82.1585
2011-12-13,81.9605
2011-12-14,80.6831
2011-12-15,81.1683
2011-12-16,82.317
2011-12-19,82.1684
2011-12-20,86.0699
2011-12-21,85.248
2011-12-22,86.5551
2011-12-23,87.2879
2011-12-27,87.5156
2011-12-28,85.6144
2011-12-29,86.1986
2011-12-30,86.1689
2012-01-03,87.2483
2012-01-04,87.3552
2012-01-05,88.7933
2012-01-06,89.0908
2012-01-09,89.7156
2012-01-10,90.8462
2012-01-11,91.3124
2012-01-12,91.8975
2012-01-13,91.9074
2012-01-17,92.1752
2012-01-18,92.8298
2012-01-19,93.9604
2012-01-20,93.2463
2012-01-23,93.2959
2012-01-24,94.2083
2012-01-25,94.605
2012-01-26,93.4447
2012-01-27,93.6827
2012-01-30,93.5339
2012-01-31,92.6215
2012-02-01,95.696
2012-02-02,92.6413
2012-02-03,93.1075
2012-02-06,93.5141
2012-02-07,93.9009
2012-02-08,93.6232
2012-02-09,93.6629
2012-02-10,92.3537
2012-02-13,93.4744
2012-02-14,93.3455
2012-02-15,92.5124
2012-02-16,93.762
2012-02-17,93.881
2012-02-21,94.3868
2012-02-22,94.1389
2012-02-23,93.524
2012-02-24,93.7819
2012-02-27,93.7521
2012-02-28,92.4132
2012-02-29,91.3619
2012-03-01,92.6215
2012-03-02,92.7901
2012-03-05,92.8099
2012-03-06,90.995
2012-03-07,92.2446
2012-03-08,93.4843
2012-03-09,94.2877
2012-03-12,94.8133
2012-03-13,97.015
2012-03-14,98.2052
2012-03-15,98.2548
2012-03-16,98.592
2012-03-19,98.6316
2012-03-20,98.9093
2012-03-21,98.8895
2012-03-22,98.4134
2012-03-23,98.9391
2012-03-26,99.6532
2012-03-27,99.8515
2012-03-28,98.3638
2012-03-29,98.0862
2012-03-30,98.344
2012-04-02,98.4134
2012-04-03,98.3341
2012-04-04,97.5506
2012-04-05,97.2531
2012-04-09,96.1621
2012-04-10,94.486
2012-04-11,95.7057
2012-04-12,97.9007
2012-04-13,96.977
2012-04-16,97.3346
2012-04-17,99.2118
2012-04-18,98.2881
2012-04-19,96.3315
2012-04-20,97.4935
2012-04-23,98.2186
2012-04-24,98.0696
2012-04-25,100.414
2012-04-26,101.377
2012-04-27,102.042
2012-04-30,101.228
2012-05-01,102.102
2012-05-02,102.162
2012-05-03,101.576
2012-05-04,100.046
2012-05-07,100.304
2012-05-08,100.503
2012-05-09,100.145
2012-05-10,100.88
2012-05-11,101.198
2012-05-14,100.314
2012-05-15,100.374
2012-05-16,99.7779
2012-05-17,96.2818
2012-05-18,94.8913
2012-05-21,98.0696
2012-05-22,98.6953
2012-05-23,99.4104
2012-05-24,99.768
2012-05-25,99.5693
2012-05-29,101.744
2012-05-30,101.059
2012-05-31,100.672
2012-06-01,96.8281
2012-06-04,95.2787
2012-06-05,96.2917
2012-06-06,98.6258
2012-06-07,98.4669
2012-06-08,99.321
2012-06-11,97.8014
2012-06-12,99.9964
2012-06-13,98.4669
2012-06-14,99.2416
2012-06-15,100.116
2012-06-18,100.761
2012-06-19,102.201
2012-06-20,101.089
2012-06-21,98.298
2012-06-22,98.5662
2012-06-25,95.527
2012-06-26,95.0204
2012-06-27,95.5071
2012-06-28,94.5834
2012-06-29,97.8511
2012-07-02,96.9075
2012-07-03,98.0795
2012-07-05,98.4569
2012-07-06,96.5599
2012-07-09,96.4308
2012-07-10,95.6263
2012-07-11,94.4307
2012-07-12,93.9234
2012-07-13,95.664
2012-07-16,94.1323
2012-07-17,94.0328
2012-07-18,95.7337
2012-07-19,96.1415
2012-07-20,96.4995
2012-07-23,95.4054
2012-07-24,93.257
2012-07-25,93.267
2012-07-26,95.3856
2012-07-27,97.9915
2012-07-30,99.3144
2012-07-31,98.9165
2012-08-01,100.956
2012-08-02,101.512
2012-08-03,103.004
2012-08-06,102.696
2012-08-07,102.806
2012-08-08,103.492
2012-08-09,103.353
2012-08-10,104.188
2012-08-13,104.437
2012-08-14,104.108
2012-08-15,104.437
2012-08-16,105.163
2012-08-17,105.471
2012-08-20,104.516
2012-08-21,103.641
2012-08-22,103.462
2012-08-23,103.929
2012-08-24,103.611
2012-08-27,103.243
2012-08-28,102.646
2012-08-29,102.557
2012-08-30,101.94
2012-08-31,102.438
2012-09-04,101.99
2012-09-05,101.403
2012-09-06,104.268
2012-09-07,104.198
2012-09-10,103.989
2012-09-11,103.86
2012-09-12,103.422
2012-09-13,104.397
2012-09-14,104.447
2012-09-17,104.258
2012-09-18,105.64
2012-09-19,108.505
2012-09-20,108.276
2012-09-21,108.574
2012-09-24,110.633
2012-09-25,109.519
2012-09-26,108.883
2012-09-27,109.46
2012-09-28,109.221
2012-10-01,108.634
2012-10-02,108.883
2012-10-03,108.654
2012-10-04,109.48
2012-10-05,110.414
2012-10-08,110.245
2012-10-09,108.366
2012-10-10,107.796
2012-10-11,109.309
2012-10-12,109.14
2012-10-15,109.628
2012-10-16,110.355
2012-10-17,110.345
2012-10-18,109.548
2012-10-19,107.337
2012-10-22,107.128
2012-10-23,106.411
2012-10-24,106.023
2012-10-25,108.423
2012-10-26,108.343
2012-10-31,108.772
2012-11-01,109.299
2012-11-02,110.076
2012-11-05,109.867
2012-11-06,110.992
2012-11-07,108.941
2012-11-08,107.965
2012-11-09,108.214
2012-11-12,108.463
2012-11-13,107.576
2012-11-14,106.581
2012-11-15,107.377
2012-11-16,107.606
2012-11-19,110.534
2012-11-20,112.516
2012-11-21,111.371
2012-11-23,111.401
2012-11-26,111.231
2012-11-27,110.584
2012-11-28,110.933
2012-11-29,110.714
2012-11-30,111.062
2012-12-03,109.608
2012-12-04,108.682
2012-12-05,110.026
2012-12-06,110.913
2012-12-07,111.291
2012-12-10,111.789
2012-12-11,112.138
2012-12-12,111.61
2012-12-13,110.803
2012-12-14,109.638
2012-12-17,109.748
2012-12-18,110.793
2012-12-19,109.113
2012-12-20,110.399
2012-12-21,110.718
2012-12-24,110.469
2012-12-26,109.492
2012-12-27,109.841
2012-12-28,108.694
2012-12-31,111.038
2013-01-02,113.929
2013-01-03,114.249
2013-01-04,115.237
2013-01-07,114.787
2013-01-08,114.439
2013-01-09,114.827
2013-01-10,114.019
2013-01-11,113.929
2013-01-14,113.9
2013-01-15,114.019
2013-01-16,113.821
2013-01-17,115.037
2013-01-18,116.134
2013-01-22,117.78
2013-01-23,117.331
2013-01-24,118.239
2013-01-25,118.478
2013-01-28,118.189
2013-01-29,118.857
2013-01-30,117.511
2013-01-31,117.281
2013-02-01,119.012
2013-02-04,117.121
2013-02-05,118.339
2013-02-06,119.047
2013-02-07,118.049
2013-02-08,119.087
2013-02-11,118.837
2013-02-12,119.216
2013-02-13,119.415
2013-02-14,119.52
2013-02-15,119.585
2013-02-19,121.35
2013-02-20,121.321
2013-02-21,121.689
2013-02-22,123.984
2013-02-25,121.171
2013-02-26,121.899
2013-02-27,124.053
2013-02-28,124.402
2013-03-01,124.532
2013-03-04,124.732
2013-03-05,125.41
2013-03-06,124.682
2013-03-07,125.26
2013-03-08,125.609
2013-03-11,125.878
2013-03-12,124.263
2013-03-13,124.312
2013-03-14,125.55
2013-03-15,124.452
2013-03-18,124.083
2013-03-19,125.001
2013-03-20,125.699
2013-03-21,124.123
2013-03-22,125.1
2013-03-25,124.602
2013-03-26,125.659
2013-03-27,125.759
2013-03-28,127.066
2013-04-01,125.609
2013-04-02,124.273
2013-04-03,123.136
2013-04-04,123.664
2013-04-05,122.218
2013-04-08,122.896
2013-04-09,122.418
2013-04-10,124.15
2013-04-11,124.22
2013-04-12,123.162
2013-04-15,119.107
2013-04-16,121.124
2013-04-17,120.885
2013-04-18,122.293
2013-04-19,122.463
2013-04-22,122.433
2013-04-23,123.731
2013-04-24,123.811
2013-04-25,123.431
2013-04-26,123.321
2013-04-29,118.448
2013-04-30,119.347
2013-05-01,117.928
2013-05-02,118.368
2013-05-03,119.736
2013-05-06,119.986
2013-05-07,120.895
2013-05-08,120.895
2013-05-09,120.595
2013-05-10,121.494
2013-05-13,120.805
2013-05-14,122.193
2013-05-15,121.843
2013-05-16,121.064
2013-05-17,123.511
2013-05-20,123.681
2013-05-21,124.55
2013-05-22,122.922
2013-05-23,122.882
2013-05-24,122.842
2013-05-28,126.158
2013-05-29,124.27
2013-05-30,125.159
2013-05-31,124.27
2013-06-03,125.239
2013-06-04,123.811
2013-06-05,121.843
2013-06-06,121.853
2013-06-07,123.621
2013-06-10,123.581
2013-06-11,121.094
2013-06-12,119.476
2013-06-13,121.394
2013-06-14,120.325
2013-06-17,123.411
2013-06-18,124.655
2013-06-19,123.781
2013-06-20,121.234
2013-06-21,121.973
2013-06-24,119.936
2013-06-25,120.175
2013-06-26,120.225
2013-06-27,123.851
2013-06-28,124.14
2013-07-01,125.259
2013-07-02,124.43
2013-07-03,124.39
2013-07-05,127.576
2013-07-08,126.717
2013-07-09,128.325
2013-07-10,128.17
2013-07-11,130.3
2013-07-12,130.28
2013-07-15,130.44
2013-07-16,128.9
2013-07-17,129.26
2013-07-18,130.6
2013-07-19,131.72
2013-07-22,132.29
2013-07-23,131.99
2013-07-24,131.77
2013-07-25,131.52
2013-07-26,131.2
2013-07-29,126.84
2013-07-30,126.76
2013-07-31,125.95
2013-08-01,127.96
2013-08-02,127.48
2013-08-05,126.65
2013-08-06,126.21
2013-08-07,126.02
2013-08-08,125.81
2013-08-09,125.69
