date,close_price
1998-01-02,2.73155
1998-01-05,2.94883
1998-01-06,2.95628
1998-01-07,2.88675
1998-01-08,2.83212
1998-01-09,2.65457
1998-01-12,2.59249
1998-01-13,2.88675
1998-01-14,2.92524
1998-01-15,2.88675
1998-01-16,2.88675
1998-01-20,2.94138
1998-01-21,2.93393
1998-01-22,2.80108
1998-01-23,2.87185
1998-01-26,2.77873
1998-01-27,2.79363
1998-01-28,2.95628
1998-01-29,2.92524
1998-01-30,2.93393
1998-02-02,2.97987
1998-02-03,2.96498
1998-02-04,3.01092
1998-02-05,3.01092
1998-02-06,3.08914
1998-02-09,3.10404
1998-02-10,3.06555
1998-02-11,3.00347
1998-02-12,3.02706
1998-02-13,3.13508
1998-02-17,3.12763
1998-02-18,3.24434
1998-02-19,3.2282
1998-02-20,3.14253
1998-02-23,3.16612
1998-02-24,3.02706
1998-02-25,3.18226
1998-02-26,3.20461
1998-02-27,3.12018
1998-03-02,3.11149
1998-03-03,3.0581
1998-03-04,3.04196
1998-03-05,2.97987
1998-03-06,3.04196
1998-03-09,2.93393
1998-03-10,3.04196
1998-03-11,3.16612
1998-03-12,3.22075
1998-03-13,3.29773
1998-03-16,3.30642
1998-03-17,3.3685
1998-03-18,3.50756
1998-03-19,3.43058
1998-03-20,3.3685
1998-03-23,3.48397
1998-03-24,3.48397
1998-03-25,3.61682
1998-03-26,3.49266
1998-03-27,3.49266
1998-03-30,3.43803
1998-03-31,3.35236
1998-04-01,3.32132
1998-04-02,3.34491
1998-04-03,3.43058
1998-04-06,3.48397
1998-04-07,3.29773
1998-04-08,3.33746
1998-04-09,3.49266
1998-04-13,3.47652
1998-04-14,3.5237
1998-04-15,3.53115
1998-04-16,3.54605
1998-04-17,3.53115
1998-04-20,3.57709
1998-04-21,3.63172
1998-04-22,3.72484
1998-04-23,3.72484
1998-04-24,3.6789
1998-04-27,3.61682
1998-04-28,3.73229
1998-04-29,3.74098
1998-04-30,3.62427
1998-05-01,3.61682
1998-05-04,3.6789
1998-05-05,3.6938
1998-05-06,3.6789
1998-05-07,3.70994
1998-05-08,3.71739
1998-05-11,3.6938
1998-05-12,3.6938
1998-05-13,3.83411
1998-05-14,3.81796
1998-05-15,3.6938
1998-05-18,3.61682
1998-05-19,3.98931
1998-05-20,3.91854
1998-05-21,3.78692
1998-05-22,3.48397
1998-05-26,3.00347
1998-05-27,3.04196
1998-05-28,3.04941
1998-05-29,2.96498
1998-06-01,2.79363
1998-06-02,2.87185
1998-06-03,2.96498
1998-06-04,3.08914
1998-06-05,3.14253
1998-06-08,2.79363
1998-06-09,3.073
1998-06-10,3.08914
1998-06-11,3.03451
1998-06-12,2.97987
1998-06-15,2.84081
1998-06-16,3.02706
1998-06-17,3.073
1998-06-18,3.06555
1998-06-19,2.99602
1998-06-22,3.10404
1998-06-23,3.2282
1998-06-24,3.12018
1998-06-25,3.2133
1998-06-26,3.25924
1998-06-29,3.20461
1998-06-30,3.25924
1998-07-01,3.02706
1998-07-02,2.87185
1998-07-06,2.76259
1998-07-07,3.14253
1998-07-08,3.14625
1998-07-09,3.13508
1998-07-10,3.073
1998-07-13,3.2282
1998-07-14,3.28283
1998-07-15,3.33746
1998-07-16,3.46907
1998-07-17,3.4281
1998-07-20,3.41444
1998-07-21,3.43058
1998-07-22,3.43803
1998-07-23,3.32132
1998-07-24,3.3685
1998-07-27,3.2133
1998-07-28,3.0581
1998-07-29,3.04941
1998-07-30,3.10404
1998-07-31,3.01092
1998-08-03,2.94138
1998-08-04,2.84826
1998-08-05,2.92524
1998-08-06,3.073
1998-08-07,3.11149
1998-08-10,2.94883
1998-08-11,2.84081
1998-08-12,2.96498
1998-08-13,2.99602
1998-08-14,2.94883
1998-08-17,2.92524
1998-08-18,2.98732
1998-08-19,3.03451
1998-08-20,2.82467
1998-08-21,2.739
1998-08-24,2.60739
1998-08-25,2.54531
1998-08-26,2.45219
1998-08-27,2.25105
1998-08-28,2.23491
1998-08-31,2.03376
1998-09-01,2.42115
1998-09-02,2.52172
1998-09-03,2.52172
1998-09-04,2.36652
1998-09-08,2.49937
1998-09-09,2.29699
1998-09-10,2.05611
1998-09-11,1.98658
1998-09-14,1.74571
1998-09-15,1.6141
1998-09-16,1.73081
1998-09-17,1.7544
1998-09-18,1.73081
1998-09-21,1.73081
1998-09-22,1.72336
1998-09-23,1.66128
1998-09-24,1.69977
1998-09-25,1.67618
1998-09-28,1.70722
1998-09-29,1.67618
1998-09-30,1.63769
1998-10-01,1.49739
1998-10-02,1.27265
1998-10-05,1.35833
1998-10-06,1.3037
1998-10-07,1.31487
1998-10-08,1.14849
1998-10-09,1.1249
1998-10-12,1.17953
1998-10-13,1.11
1998-10-14,1.08641
1998-10-15,1.1249
1998-10-16,1.37323
1998-10-19,1.56319
1998-10-20,1.59051
1998-10-21,1.65259
1998-10-22,1.6141
1998-10-23,1.70722
1998-10-26,1.7544
1998-10-27,1.81648
1998-10-28,1.77675
1998-10-29,1.86242
1998-10-30,1.98658
1998-11-02,2.00272
1998-11-03,1.96299
1998-11-04,1.96299
1998-11-05,2.0648
1998-11-06,2.13434
1998-11-09,2.22746
1998-11-10,2.19642
1998-11-11,2.17283
1998-11-12,2.11074
1998-11-13,2.0648
1998-11-16,2.1033
1998-11-17,2.1033
1998-11-18,2.42115
1998-11-19,2.40625
1998-11-20,2.35907
1998-11-23,2.49068
1998-11-24,2.53786
1998-11-25,2.5689
1998-11-27,2.49937
1998-11-30,2.47205
1998-12-01,2.45219
1998-12-02,2.47578
1998-12-03,2.4286
1998-12-04,2.51427
1998-12-07,2.45964
1998-12-08,2.54531
1998-12-09,2.55276
1998-12-10,2.49937
1998-12-11,2.46833
1998-12-14,2.42115
1998-12-15,2.35907
1998-12-16,2.34417
1998-12-17,2.32803
1998-12-18,2.37521
1998-12-21,2.50682
1998-12-22,2.51054
1998-12-23,2.63098
1998-12-24,2.65457
1998-12-28,2.70051
1998-12-29,2.70051
1998-12-30,2.64588
1998-12-31,2.68561
1999-01-04,2.62353
1999-01-05,2.59994
1999-01-06,2.59994
1999-01-07,2.60739
1999-01-08,2.53786
1999-01-11,2.48323
1999-01-12,2.4137
1999-01-13,2.55276
1999-01-14,2.49937
1999-01-15,2.83212
1999-01-19,2.76259
1999-01-20,2.82467
1999-01-21,2.71665
1999-01-22,2.83212
1999-01-25,2.80977
1999-01-26,2.73155
1999-01-27,2.53041
1999-01-28,2.63098
1999-01-29,2.5689
1999-02-01,2.53786
1999-02-02,2.42115
1999-02-03,2.45964
1999-02-04,2.47205
1999-02-05,2.39756
1999-02-08,2.35907
1999-02-09,2.2734
1999-02-10,2.25105
1999-02-11,2.37521
1999-02-12,2.30071
1999-02-16,2.2585
1999-02-17,2.25105
1999-02-18,2.29326
1999-02-19,2.37521
1999-02-22,2.42115
1999-02-23,2.45964
1999-02-24,2.45219
1999-02-25,2.29699
1999-02-26,2.24236
1999-03-01,2.2585
1999-03-02,2.18027
1999-03-03,2.09585
1999-03-04,2.0797
1999-03-05,2.15793
1999-03-08,2.18027
1999-03-09,2.18027
1999-03-10,2.15793
1999-03-11,2.0648
1999-03-12,1.87856
1999-03-15,1.79289
1999-03-16,1.95554
1999-03-17,1.99403
1999-03-18,2.01762
1999-03-19,1.9245
1999-03-22,1.90091
1999-03-23,1.99403
1999-03-24,1.97168
1999-03-25,2.0648
1999-03-26,1.96299
1999-03-29,2.11074
1999-03-30,2.04866
1999-03-31,2.11074
1999-04-01,2.00272
1999-04-05,1.9245
1999-04-06,1.83883
1999-04-07,1.82393
1999-04-08,1.80034
1999-04-09,1.69232
1999-04-12,1.74571
1999-04-13,1.6141
1999-04-14,1.76185
1999-04-15,2.11819
1999-04-16,2.18027
1999-04-19,2.14179
1999-04-20,2.23491
1999-04-21,2.19642
1999-04-22,2.26595
1999-04-23,2.35907
1999-04-26,2.47578
1999-04-27,2.63843
1999-04-28,2.51427
1999-04-29,2.48323
1999-04-30,2.46833
1999-05-03,2.45219
1999-05-04,2.44474
1999-05-05,2.42115
1999-05-06,2.39756
1999-05-07,2.34417
1999-05-10,2.22746
1999-05-11,2.46833
1999-05-12,2.51427
1999-05-13,2.52172
1999-05-14,2.50682
1999-05-17,2.49937
1999-05-18,2.54531
1999-05-19,2.80977
1999-05-20,2.84081
1999-05-21,3.073
1999-05-24,2.90289
1999-05-25,3.01836
1999-05-26,3.09659
1999-05-27,2.91779
1999-05-28,3.01092
1999-06-01,2.91779
1999-06-02,2.87185
1999-06-03,2.83212
1999-06-04,2.97987
1999-06-07,3.08914
1999-06-08,2.94138
1999-06-09,2.90289
1999-06-10,2.94138
1999-06-11,3.0581
1999-06-14,3.0581
1999-06-15,3.073
1999-06-16,3.2282
1999-06-17,3.12763
1999-06-18,3.12763
1999-06-21,3.39954
1999-06-22,3.43803
1999-06-23,3.45293
1999-06-24,3.29773
1999-06-25,3.31387
1999-06-28,3.28283
1999-06-29,3.30642
1999-06-30,3.18971
1999-07-01,3.35981
1999-07-02,3.44548
1999-07-06,3.27538
1999-07-07,3.19716
1999-07-08,3.35236
1999-07-09,3.39954
1999-07-12,3.59323
1999-07-13,3.53115
1999-07-14,3.5386
1999-07-15,3.55474
1999-07-16,3.6789
1999-07-19,3.97317
1999-07-20,3.78692
1999-07-21,3.81796
1999-07-22,3.5237
1999-07-23,3.66276
1999-07-26,3.55474
1999-07-27,3.60068
1999-07-28,3.60068
1999-07-29,3.64786
1999-07-30,3.75588
1999-08-02,3.60068
1999-08-03,3.57709
1999-08-04,3.48397
1999-08-05,3.46162
1999-08-06,3.39954
1999-08-09,3.39954
1999-08-10,3.40699
1999-08-11,3.46907
1999-08-12,3.47652
1999-08-13,3.60813
1999-08-16,3.50756
1999-08-17,3.56219
1999-08-18,3.53115
1999-08-19,3.56219
1999-08-20,3.43058
1999-08-23,3.47652
1999-08-24,3.46162
1999-08-25,3.50756
1999-08-26,3.56964
1999-08-27,3.54605
1999-08-30,3.60068
1999-08-31,3.71739
1999-09-01,4.09733
1999-09-02,4.12837
1999-09-03,4.00421
1999-09-07,4.33075
1999-09-08,4.46981
1999-09-09,4.3382
1999-09-10,4.43877
1999-09-13,4.3531
1999-09-14,4.45491
1999-09-15,4.40028
1999-09-16,4.23763
1999-09-17,4.40028
1999-09-20,4.23763
1999-09-21,4.02035
1999-09-22,4.28357
1999-09-23,4.14451
1999-09-24,3.98062
1999-09-27,4.15941
1999-09-28,4.05884
1999-09-29,4.36179
1999-09-30,4.46236
1999-10-01,4.42387
1999-10-04,4.69454
1999-10-05,4.55548
1999-10-06,4.78022
1999-10-07,4.67965
1999-10-08,4.6486
1999-10-11,4.96646
1999-10-12,4.81126
1999-10-13,4.81126
1999-10-14,4.95901
1999-10-15,4.91183
1999-10-18,4.72558
1999-10-19,4.83485
1999-10-20,5.17629
1999-10-21,5.02109
1999-10-22,5.37743
1999-10-25,5.1527
1999-10-26,5.45565
1999-10-27,5.54133
1999-10-28,5.6568
1999-10-29,5.92126
1999-11-01,5.95975
1999-11-02,5.82069
1999-11-03,6.00693
1999-11-04,6.20807
1999-11-05,6.19317
1999-11-08,6.16213
1999-11-09,6.14599
1999-11-10,5.94485
1999-11-11,5.92126
1999-11-12,5.99079
1999-11-15,5.87408
1999-11-16,5.97589
1999-11-17,6.06032
1999-11-18,5.72757
1999-11-19,5.68039
1999-11-22,5.88277
1999-11-23,5.88277
1999-11-24,5.7971
1999-11-26,5.78965
1999-11-29,5.78965
1999-11-30,5.82069
1999-12-01,5.47925
1999-12-02,6.16337
1999-12-03,6.33223
1999-12-06,6.4564
1999-12-07,6.68982
1999-12-08,7.91529
1999-12-09,7.43479
1999-12-10,7.21751
1999-12-13,7.26344
1999-12-14,6.67368
1999-12-15,7.14673
1999-12-16,6.85992
1999-12-17,6.94559
1999-12-20,7.54281
1999-12-21,8.03945
1999-12-22,8.24184
1999-12-23,7.91529
1999-12-27,7.59744
1999-12-28,7.13928
1999-12-29,7.52791
1999-12-30,7.11569
1999-12-31,7.27959
2000-01-03,7.04616
2000-01-04,6.73576
2000-01-05,6.33968
2000-01-06,5.95975
2000-01-07,6.41046
2000-01-10,7.01512
2000-01-11,6.51848
2000-01-12,6.5967
2000-01-13,6.78294
2000-01-14,6.6116
2000-01-18,6.79784
2000-01-19,7.04616
2000-01-20,7.52791
2000-01-21,7.2324
2000-01-24,7.24855
2000-01-25,7.20136
2000-01-26,7.17032
2000-01-27,6.63519
2000-01-28,6.21925
2000-01-31,6.19317
2000-02-01,6.30119
2000-02-02,6.65009
2000-02-03,7.17777
2000-02-04,7.23985
2000-02-07,8.00841
2000-02-08,7.57385
2000-02-09,7.79858
2000-02-10,8.56714
2000-02-11,8.17976
2000-02-14,7.94261
2000-02-15,7.93143
2000-02-16,8.23315
2000-02-17,7.93888
2000-02-18,7.94633
2000-02-22,7.99351
2000-02-23,8.3809
2000-02-24,8.2257
2000-02-25,8.92472
2000-02-28,8.6913
2000-02-29,8.87754
2000-03-01,8.90858
2000-03-02,8.56714
2000-03-03,9.01785
2000-03-06,9.40523
2000-03-07,9.59147
2000-03-08,9.80875
2000-03-09,9.9801
2000-03-10,10.0111
2000-03-13,9.52194
2000-03-14,8.8465
2000-03-15,8.56714
2000-03-16,8.62922
2000-03-17,8.81546
2000-03-20,8.73352
2000-03-21,8.6913
2000-03-22,9.00171
2000-03-23,9.0402
2000-03-24,9.10228
2000-03-27,8.82291
2000-03-28,9.11097
2000-03-29,8.87754
2000-03-30,8.98681
2000-03-31,9.37419
2000-04-03,7.65207
2000-04-04,7.23985
2000-04-05,7.94633
2000-04-06,8.07049
2000-04-07,8.27288
2000-04-10,7.57385
2000-04-11,7.36402
2000-04-12,7.20136
2000-04-13,7.09334
2000-04-14,6.51848
2000-04-17,7.34912
2000-04-18,7.88425
2000-04-19,8.34986
2000-04-20,7.40375
2000-04-24,6.84502
2000-04-25,7.32553
2000-04-26,6.87606
2000-04-27,7.37271
2000-04-28,7.7216
2000-05-01,7.65331
2000-05-02,7.63593
2000-05-03,7.256
2000-05-04,7.57385
2000-05-05,7.50432
2000-05-08,7.40375
2000-05-09,7.49687
2000-05-10,7.0623
2000-05-11,7.0772
2000-05-12,7.05361
2000-05-15,7.27959
2000-05-16,7.52791
2000-05-17,8.10898
2000-05-18,7.79113
2000-05-19,7.73153
2000-05-22,7.65207
2000-05-23,7.22495
2000-05-24,7.94385
2000-05-25,7.79113
2000-05-26,7.76009
2000-05-30,8.44298
2000-05-31,8.11768
2000-06-01,8.69875
2000-06-02,8.63667
2000-06-05,8.68385
2000-06-06,8.52865
2000-06-07,8.6913
2000-06-08,8.64536
2000-06-09,8.93962
2000-06-12,8.56714
2000-06-13,8.6913
2000-06-14,8.56714
2000-06-15,8.81546
2000-06-16,8.58328
2000-06-19,7.69801
2000-06-20,7.76009
2000-06-21,7.41865
2000-06-22,7.0623
2000-06-23,7.27959
2000-06-26,6.65878
2000-06-27,6.54207
2000-06-28,6.82888
2000-06-29,7.0623
2000-06-30,6.69727
2000-07-03,6.83633
2000-07-05,5.97713
2000-07-06,6.39431
2000-07-07,6.30864
2000-07-10,6.2627
2000-07-11,6.20807
2000-07-12,6.17703
2000-07-13,6.20807
2000-07-14,6.49489
2000-07-17,6.50358
2000-07-18,6.28629
2000-07-19,5.88277
2000-07-20,7.48073
2000-07-21,7.51177
2000-07-24,7.46583
2000-07-25,7.44969
2000-07-26,7.91529
2000-07-27,6.25525
2000-07-28,6.07646
2000-07-31,6.32478
2000-08-01,6.17703
2000-08-02,6.52593
2000-08-03,6.91455
2000-08-04,6.83633
2000-08-07,6.68113
2000-08-08,6.6116
2000-08-09,6.4415
2000-08-10,6.14599
2000-08-11,6.03797
2000-08-14,5.63445
2000-08-15,5.4631
2000-08-16,6.00693
2000-08-17,5.85173
2000-08-18,6.28629
2000-08-21,6.33596
2000-08-22,6.4564
2000-08-23,6.05039
2000-08-24,6.1671
2000-08-25,6.11495
2000-08-28,6.13854
2000-08-29,5.99824
2000-08-30,6.01438
2000-08-31,6.06901
2000-09-01,6.43281
2000-09-05,6.16958
2000-09-06,5.95975
2000-09-07,6.10005
2000-09-08,5.97589
2000-09-11,5.87408
2000-09-12,5.73502
2000-09-13,5.90512
2000-09-14,5.85173
2000-09-15,5.67294
2000-09-18,5.40102
2000-09-19,5.48669
2000-09-20,5.21478
2000-09-21,5.1378
2000-09-22,5.33894
2000-09-25,5.35508
2000-09-26,5.25575
2000-09-27,5.40102
2000-09-28,5.89022
2000-09-29,5.4482
2000-10-02,5.11421
2000-10-03,5.19988
2000-10-04,5.34639
2000-10-05,5.4482
2000-10-06,5.52518
2000-10-09,5.57982
2000-10-10,5.59472
2000-10-11,5.61831
2000-10-12,5.16884
2000-10-13,5.43206
2000-10-16,5.33894
2000-10-17,5.11421
2000-10-18,4.90438
2000-10-19,4.1979
2000-10-20,4.46236
2000-10-23,4.70324
2000-10-24,4.39283
2000-10-25,4.43877
2000-10-26,4.74918
2000-10-27,4.71069
2000-10-30,4.60142
2000-10-31,4.84975
2000-11-01,4.57907
2000-11-02,4.71814
2000-11-03,4.68709
2000-11-06,4.58652
2000-11-07,4.63246
2000-11-08,4.61012
2000-11-09,4.37669
2000-11-10,4.22149
2000-11-13,4.43877
2000-11-14,4.61012
2000-11-15,4.81871
2000-11-16,4.60142
2000-11-17,4.56293
2000-11-20,4.51699
2000-11-21,4.38414
2000-11-22,4.47726
2000-11-24,4.72558
2000-11-27,4.54803
2000-11-28,4.36179
2000-11-29,4.27612
2000-11-30,4.44622
2000-12-01,4.50085
2000-12-04,4.48347
2000-12-05,4.60142
2000-12-06,4.65605
2000-12-07,4.61012
2000-12-08,4.73428
2000-12-11,4.99005
2000-12-12,5.09807
2000-12-13,4.70324
2000-12-14,4.58652
2000-12-15,4.28357
2000-12-18,4.43877
2000-12-19,4.11347
2000-12-20,3.92723
2000-12-21,3.71739
2000-12-22,4.07374
2000-12-26,3.98931
2000-12-27,3.849
2000-12-28,4.37669
2000-12-29,4.14451
2001-01-02,4.15941
2001-01-03,4.88079
2001-01-04,4.56293
2001-01-05,4.42387
2001-01-08,4.48595
2001-01-09,4.69454
2001-01-10,4.94287
2001-01-11,5.12911
2001-01-12,5.27686
2001-01-16,5.26941
2001-01-17,5.4482
2001-01-18,6.20062
2001-01-19,6.15344
2001-01-22,6.1075
2001-01-23,6.09136
2001-01-24,6.54952
2001-01-25,6.28629
2001-01-26,6.16958
2001-01-29,6.18448
2001-01-30,6.41046
2001-01-31,6.37072
2001-02-01,6.49489
2001-02-02,5.98334
2001-02-05,5.63445
2001-02-06,5.95975
2001-02-07,5.89022
2001-02-08,6.07646
2001-02-09,6.10005
2001-02-12,6.19317
2001-02-13,6.19317
2001-02-14,6.23911
2001-02-15,6.36327
2001-02-16,6.30119
2001-02-20,6.18448
2001-02-21,6.05287
2001-02-22,6.02183
2001-02-23,6.15344
2001-02-26,6.22421
2001-02-27,6.19317
2001-02-28,5.66549
2001-03-01,6.16213
2001-03-02,5.97962
2001-03-05,5.94485
2001-03-06,6.05287
2001-03-07,6.33968
2001-03-08,6.00693
2001-03-09,5.55622
2001-03-12,5.40847
2001-03-13,5.6568
2001-03-14,5.53263
2001-03-15,5.293
2001-03-16,5.12911
2001-03-19,5.32404
2001-03-20,5.26196
2001-03-21,5.27686
2001-03-22,5.43206
2001-03-23,5.47925
2001-03-26,5.39357
2001-03-27,5.55622
2001-03-28,5.1527
2001-03-29,4.9826
2001-03-30,5.19119
2001-04-02,5.12911
2001-04-03,4.84975
2001-04-04,5.05958
2001-04-05,5.54133
2001-04-06,5.68039
2001-04-09,5.94609
2001-04-10,6.17952
2001-04-11,6.48123
2001-04-12,6.45143
2001-04-16,6.36203
2001-04-17,6.46881
2001-04-18,6.88475
2001-04-19,7.847
2001-04-20,7.40002
2001-04-23,7.43727
2001-04-24,7.15667
2001-04-25,7.12687
2001-04-26,8.05435
2001-04-27,7.90039
2001-04-30,8.07049
2001-05-01,7.92523
2001-05-02,8.27039
2001-05-03,7.94633
2001-05-04,8.2766
2001-05-07,8.09284
2001-05-08,8.27412
2001-05-09,8.33868
2001-05-10,8.20707
2001-05-11,8.16237
2001-05-14,8.0407
2001-05-15,8.10526
2001-05-16,8.42311
2001-05-17,8.44298
2001-05-18,8.50009
2001-05-21,9.07744
2001-05-22,8.89617
2001-05-23,8.39704
2001-05-24,8.68633
2001-05-25,8.76704
2001-05-29,8.67268
2001-05-30,8.41939
2001-05-31,8.79311
2001-06-01,8.30143
2001-06-04,7.95254
2001-06-05,8.32751
2001-06-06,8.27909
2001-06-07,8.29026
2001-06-08,8.15368
2001-06-11,8.02207
2001-06-12,8.07174
2001-06-13,7.48197
2001-06-14,6.97663
2001-06-15,6.45764
2001-06-18,6.44025
2001-06-19,6.74942
2001-06-20,7.21999
2001-06-21,7.60613
2001-06-22,4.83485
2001-06-25,5.06579
2001-06-26,5.09062
2001-06-27,5.14525
2001-06-28,5.20857
2001-06-29,5.34639
2001-07-02,5.43206
2001-07-03,5.37743
2001-07-05,5.36874
2001-07-06,4.97639
2001-07-09,5.2781
2001-07-10,5.03599
2001-07-11,4.89569
2001-07-12,5.19119
2001-07-13,5.04095
2001-07-16,4.90934
2001-07-17,4.90189
2001-07-18,4.63246
2001-07-19,5.48049
2001-07-20,5.70522
2001-07-23,5.99824
2001-07-24,5.80827
2001-07-25,5.8716
2001-07-26,6.11371
2001-07-27,6.11123
2001-07-30,6.05287
2001-07-31,5.997
2001-08-01,6.08019
2001-08-02,6.25774
2001-08-03,6.13606
2001-08-06,5.98707
2001-08-07,5.72012
2001-08-08,5.74247
2001-08-09,5.95851
2001-08-10,5.91629
2001-08-13,5.848
2001-08-14,5.88525
2001-08-15,5.61831
2001-08-16,5.63196
2001-08-17,5.33273
2001-08-20,5.26196
2001-08-21,5.05213
2001-08-22,5.16636
2001-08-23,4.93666
2001-08-24,5.20857
2001-08-27,5.41592
2001-08-28,5.32528
2001-08-29,5.27438
2001-08-30,5.26693
2001-08-31,5.34018
2001-09-04,5.15891
2001-09-05,5.3228
2001-09-06,5.2632
2001-09-07,5.15518
2001-09-10,5.15891
2001-09-17,4.68709
2001-09-18,4.39656
2001-09-19,4.57287
2001-09-20,4.49216
2001-09-21,4.57162
2001-09-24,4.6722
2001-09-25,4.78022
2001-09-26,4.30344
2001-09-27,4.33199
2001-09-28,4.29102
2001-10-01,4.33944
2001-10-02,4.72931
2001-10-03,5.23341
2001-10-04,5.3079
2001-10-05,5.43082
2001-10-08,5.90139
2001-10-09,5.73129
2001-10-10,5.81696
2001-10-11,5.75488
2001-10-12,5.98955
2001-10-15,6.36079
2001-10-16,6.27015
2001-10-17,5.9672
2001-10-18,6.54952
2001-10-19,6.72334
2001-10-22,6.73576
2001-10-23,7.0114
2001-10-24,7.19391
2001-10-25,7.35036
2001-10-26,7.14177
2001-10-29,6.85247
2001-10-30,6.73203
2001-10-31,6.82764
2001-11-01,7.22495
2001-11-02,7.13059
2001-11-05,7.41492
2001-11-06,7.69801
2001-11-07,7.51549
2001-11-08,7.35408
2001-11-09,7.14797
2001-11-12,7.36898
2001-11-13,7.61482
2001-11-14,7.62972
2001-11-15,7.56888
2001-11-16,7.58254
2001-11-19,7.95254
2001-11-20,7.69304
2001-11-21,7.81224
2001-11-23,7.84328
2001-11-26,8.15741
2001-11-27,8.08788
2001-11-28,7.996
2001-11-29,8.24432
2001-11-30,8.07049
2001-12-03,8.04566
2001-12-04,8.15492
2001-12-05,8.62674
2001-12-06,8.58452
2001-12-07,8.30888
2001-12-10,8.31385
2001-12-11,8.38586
2001-12-12,8.29647
2001-12-13,8.16237
2001-12-14,8.38586
2001-12-17,8.34117
2001-12-18,8.68509
2001-12-19,8.54852
2001-12-20,7.96496
2001-12-21,8.18472
2001-12-24,7.98979
2001-12-26,8.06429
2001-12-27,8.06677
2001-12-28,8.36103
2001-12-31,8.24804
2002-01-02,8.3064
2002-01-03,8.59197
2002-01-04,8.55597
2002-01-07,8.56838
2002-01-08,8.66647
2002-01-09,9.09483
2002-01-10,8.92721
2002-01-11,8.79684
2002-01-14,8.75835
2002-01-15,8.72855
2002-01-16,8.30392
2002-01-17,9.34191
2002-01-18,9.41268
2002-01-22,9.44993
2002-01-23,9.2252
2002-01-24,9.50828
2002-01-25,9.47228
2002-01-28,9.59271
2002-01-29,9.43627
2002-01-30,9.55422
2002-01-31,9.75661
2002-02-01,9.37667
2002-02-04,9.05137
2002-02-05,8.96197
2002-02-06,8.87258
2002-02-07,8.28654
2002-02-08,8.54479
2002-02-11,8.70868
2002-02-12,8.73848
2002-02-13,9.10104
2002-02-14,9.2103
2002-02-15,8.72358
2002-02-19,8.44546
2002-02-20,7.93143
2002-02-21,8.0109
2002-02-22,8.14748
2002-02-25,8.6764
2002-02-26,8.77821
2002-02-27,8.98432
2002-02-28,8.92969
2002-03-01,9.36426
2002-03-04,10.3551
2002-03-05,9.90063
2002-03-06,10.1415
2002-03-07,9.84104
2002-03-08,10.4047
2002-03-11,10.3774
2002-03-12,10.36
2002-03-13,10.5239
2002-03-14,10.1937
2002-03-15,10.2905
2002-03-18,10.4544
2002-03-19,10.5041
2002-03-20,10.3426
2002-03-21,10.1564
2002-03-22,10.3426
2002-03-25,9.97017
2002-03-26,9.88077
2002-03-27,10.0894
2002-03-28,10.2433
2002-04-01,10.3178
2002-04-02,9.93292
2002-04-03,9.76902
2002-04-04,9.17553
2002-04-05,8.77821
2002-04-08,9.25251
2002-04-09,8.75835
2002-04-10,8.93962
2002-04-11,8.44795
2002-04-12,8.92472
2002-04-15,8.93466
2002-04-16,9.32452
2002-04-17,9.28728
2002-04-18,9.28728
2002-04-19,9.32701
2002-04-22,9.30218
2002-04-23,8.75338
2002-04-24,8.60439
2002-04-25,8.94956
2002-04-26,8.51748
2002-04-29,8.3809
2002-04-30,8.83285
2002-05-01,8.77573
2002-05-02,8.41318
2002-05-03,8.41815
2002-05-06,8.04318
2002-05-07,8.34365
2002-05-08,9.25996
2002-05-09,8.81795
2002-05-10,8.38338
2002-05-13,8.736
2002-05-14,9.41392
2002-05-15,9.49835
2002-05-16,9.43875
2002-05-17,9.73426
2002-05-20,9.29969
2002-05-21,9.0762
2002-05-22,8.32875
2002-05-23,8.60687
2002-05-24,8.35607
2002-05-28,8.42311
2002-05-29,8.39083
2002-05-30,8.36352
2002-05-31,8.55224
2002-06-03,8.22694
2002-06-04,8.41318
2002-06-05,8.28157
2002-06-06,7.57385
2002-06-07,7.8768
2002-06-10,7.91157
2002-06-11,7.53908
2002-06-12,7.69056
2002-06-13,7.82217
2002-06-14,7.58378
2002-06-17,7.93392
2002-06-18,8.3809
2002-06-19,8.08043
2002-06-20,8.00096
2002-06-21,7.58626
2002-06-24,7.79237
2002-06-25,7.68808
2002-06-26,7.69553
2002-06-27,8.00593
2002-06-28,8.15989
2002-07-01,7.71043
2002-07-02,7.82962
2002-07-03,8.29399
2002-07-05,8.56217
2002-07-08,8.60439
2002-07-09,8.45043
2002-07-10,8.41815
2002-07-11,8.16237
2002-07-12,7.74022
2002-07-15,7.81969
2002-07-16,8.06801
2002-07-17,8.19714
2002-07-18,7.80976
2002-07-19,7.82465
2002-07-22,7.82217
2002-07-23,7.66573
2002-07-24,8.42063
2002-07-25,7.9513
2002-07-26,8.05808
2002-07-29,8.45788
2002-07-30,8.92721
2002-07-31,8.34862
2002-08-01,7.92647
2002-08-02,7.71539
2002-08-05,7.68559
2002-08-06,8.03573
2002-08-07,7.86687
2002-08-08,7.82465
2002-08-09,7.64835
2002-08-12,7.59868
2002-08-13,7.57137
2002-08-14,8.25177
2002-08-15,8.11768
2002-08-16,8.16734
2002-08-19,8.50258
2002-08-20,8.34365
2002-08-21,8.53486
2002-08-22,8.45788
2002-08-23,7.82714
2002-08-26,7.85197
2002-08-27,7.62351
2002-08-28,7.44224
2002-08-29,7.57385
2002-08-30,7.11197
2002-09-03,6.86613
2002-09-04,7.64835
2002-09-05,7.45217
2002-09-06,8.10526
2002-09-09,8.17727
2002-09-10,8.28405
2002-09-11,8.32875
2002-09-12,8.30888
2002-09-13,8.4256
2002-09-16,8.32627
2002-09-17,8.10278
2002-09-18,8.22197
2002-09-19,7.97613
2002-09-20,8.12761
2002-09-23,7.72781
2002-09-24,7.94882
2002-09-25,8.33123
2002-09-26,8.49264
2002-09-27,8.47278
2002-09-30,8.36352
2002-10-01,8.20707
2002-10-02,7.86439
2002-10-03,7.28828
2002-10-04,7.4919
2002-10-07,7.45217
2002-10-08,7.77499
2002-10-09,7.94633
2002-10-10,8.25177
2002-10-11,8.50754
2002-10-14,8.80305
2002-10-15,9.16808
2002-10-16,8.83533
2002-10-17,9.70942
2002-10-18,9.70198
2002-10-21,9.75164
2002-10-22,9.62251
2002-10-23,9.99748
2002-10-24,9.67714
2002-10-25,9.87828
2002-10-28,9.88325
2002-10-29,9.69453
2002-10-30,9.88325
2002-10-31,9.95278
2002-11-01,10.1639
2002-11-04,10.3973
2002-11-05,10.4097
2002-11-06,10.3948
2002-11-07,10.0223
2002-11-08,9.8758
2002-11-11,9.6399
2002-11-12,9.9652
2002-11-13,10.1663
2002-11-14,10.5214
2002-11-15,10.7797
2002-11-18,10.4618
2002-11-19,10.1514
2002-11-20,10.8492
2002-11-21,11.3707
2002-11-22,11.2863
2002-11-25,11.1348
2002-11-26,10.6456
2002-11-27,10.9312
2002-11-29,10.8592
2002-12-02,10.9361
2002-12-03,10.8467
2002-12-04,10.5761
2002-12-05,10.3054
2002-12-06,10.2408
2002-12-09,9.86339
2002-12-10,10.1713
2002-12-11,10.5637
2002-12-12,10.5637
2002-12-13,10.2458
2002-12-16,10.7449
2002-12-17,10.7474
2002-12-18,10.9262
2002-12-19,10.2682
2002-12-20,10.4817
2002-12-23,10.7201
2002-12-24,10.6183
2002-12-26,10.6034
2002-12-27,10.4147
2002-12-30,10.1961
2002-12-31,10.0397
2003-01-02,10.6059
2003-01-03,10.8964
2003-01-06,11.1447
2003-01-07,11.0653
2003-01-08,10.7946
2003-01-09,11.1795
2003-01-10,11.4452
2003-01-13,11.552
2003-01-14,11.7208
2003-01-15,11.4427
2003-01-16,11.8177
2003-01-17,11.2416
2003-01-21,11.3955
2003-01-22,11.2863
2003-01-23,11.4924
2003-01-24,10.8865
2003-01-27,10.951
2003-01-28,11.4353
2003-01-29,11.629
2003-01-30,11.4974
2003-01-31,11.6389
2003-02-03,11.773
2003-02-04,11.6339
2003-02-05,11.6588
2003-02-06,11.5396
2003-02-07,11.3806
2003-02-10,11.0255
2003-02-11,11.2167
2003-02-12,11.2515
2003-02-13,11.0976
2003-02-14,11.1249
2003-02-18,11.5271
2003-02-19,11.4005
2003-02-20,11.629
2003-02-21,11.8549
2003-02-24,11.8748
2003-02-25,11.8773
2003-02-26,11.778
2003-02-27,11.773
2003-02-28,10.0695
2003-03-03,10.4296
2003-03-04,10.365
2003-03-05,10.3377
2003-03-06,10.6481
2003-03-07,10.8443
2003-03-10,10.8865
2003-03-11,10.514
2003-03-12,10.591
2003-03-13,11.0876
2003-03-14,11.1497
2003-03-17,11.6588
2003-03-18,11.4974
2003-03-19,10.7921
2003-03-20,10.9535
2003-03-21,10.5041
2003-03-24,9.73922
2003-03-25,10.0918
2003-03-26,10.4892
2003-03-27,10.4022
2003-03-28,9.93292
2003-03-31,9.71439
2003-04-01,9.62996
2003-04-02,9.96768
2003-04-03,9.995
2003-04-04,9.83359
2003-04-07,9.90063
2003-04-08,9.90808
2003-04-09,9.74667
2003-04-10,9.36922
2003-04-11,9.88077
2003-04-14,9.97761
2003-04-15,9.98258
2003-04-16,10.0198
2003-04-17,10.4246
2003-04-21,10.2756
2003-04-22,10.6928
2003-04-23,10.6208
2003-04-24,10.7847
2003-04-25,10.6779
2003-04-28,10.9237
2003-04-29,10.9684
2003-04-30,10.9436
2003-05-01,10.7673
2003-05-02,11.2937
2003-05-05,11.3136
2003-05-06,11.6637
2003-05-07,11.6811
2003-05-08,11.2242
2003-05-09,11.2565
2003-05-12,11.4427
2003-05-13,11.4402
2003-05-14,11.254
2003-05-15,11.3434
2003-05-16,11.1795
2003-05-19,10.8567
2003-05-20,10.7822
2003-05-21,10.7449
2003-05-22,11.1124
2003-05-23,11.0479
2003-05-27,11.5818
2003-05-28,11.7606
2003-05-29,11.0429
2003-05-30,11.2863
2003-06-02,11.0156
2003-06-03,11.249
2003-06-04,11.8823
2003-06-05,11.8227
2003-06-06,12.1107
2003-06-09,12.071
2003-06-10,11.8599
2003-06-11,11.5793
2003-06-12,11.48
2003-06-13,11.182
2003-06-16,11.6513
2003-06-17,11.6712
2003-06-18,11.9865
2003-06-19,11.6513
2003-06-20,11.4626
2003-06-23,11.2068
2003-06-24,11.1894
2003-06-25,11.3012
2003-06-26,10.9908
2003-06-27,11.0851
2003-06-30,10.9063
2003-07-01,11.0131
2003-07-02,10.9684
2003-07-03,10.8517
2003-07-07,11.2962
2003-07-08,11.2863
2003-07-09,11.4328
2003-07-10,11.1621
2003-07-11,11.3881
2003-07-14,11.619
2003-07-15,11.5023
2003-07-16,11.2316
2003-07-17,10.9088
2003-07-18,10.9063
2003-07-21,10.6655
2003-07-22,10.6506
2003-07-23,10.5761
2003-07-24,11.6314
2003-07-25,11.701
2003-07-28,11.6935
2003-07-29,11.696
2003-07-30,11.619
2003-07-31,11.6712
2003-08-01,11.6314
2003-08-04,11.691
2003-08-05,11.4775
2003-08-06,11.4725
2003-08-07,11.6265
2003-08-08,11.6165
2003-08-11,11.7631
2003-08-12,11.8351
2003-08-13,11.8972
2003-08-14,12.0064
2003-08-15,12.0908
2003-08-18,12.1753
2003-08-19,12.4733
2003-08-20,12.4782
2003-08-21,13.2058
2003-08-22,13.5833
2003-08-25,13.4591
2003-08-26,13.4889
2003-08-27,13.9557
2003-08-28,14.0203
2003-08-29,14.2537
2003-09-02,14.3382
2003-09-03,14.5343
2003-09-04,14.882
2003-09-05,14.7678
2003-09-08,14.9565
2003-09-09,14.7951
2003-09-10,14.2686
2003-09-11,14.666
2003-09-12,14.7678
2003-09-15,14.6809
2003-09-16,15.1328
2003-09-17,15.2073
2003-09-18,15.8927
2003-09-19,15.7064
2003-09-22,15.5972
2003-09-23,16.3446
2003-09-24,15.8678
2003-09-25,15.7511
2003-09-26,15.3712
2003-09-29,15.8008
2003-09-30,15.6866
2003-10-01,16.3794
2003-10-02,16.1931
2003-10-03,16.208
2003-10-06,16.3074
2003-10-07,16.2627
2003-10-08,16.1286
2003-10-09,16.1633
2003-10-10,16.0888
2003-10-13,16.3123
2003-10-14,16.3123
2003-10-15,16.4936
2003-10-16,16.3968
2003-10-17,16.1286
2003-10-20,16.2478
2003-10-21,16.7866
2003-10-22,15.987
2003-10-23,16.213
2003-10-24,16.2155
2003-10-27,16.2354
2003-10-28,16.7121
2003-10-29,16.7196
2003-10-30,16.5035
2003-10-31,16.5284
2003-11-03,16.948
2003-11-04,16.948
2003-11-05,17.0846
2003-11-06,17.0399
2003-11-07,16.7792
2003-11-10,16.6078
2003-11-11,16.4862
2003-11-12,16.5482
2003-11-13,16.4762
2003-11-14,16.218
2003-11-17,16.362
2003-11-18,15.2197
2003-11-19,15.0235
2003-11-20,14.954
2003-11-21,14.7454
2003-11-24,15.8281
2003-11-25,16.2503
2003-11-26,16.1013
2003-11-28,16.3893
2003-12-01,16.8363
2003-12-02,16.3496
2003-12-03,16.1311
2003-12-04,16.4092
2003-12-05,16.1112
2003-12-08,16.2006
2003-12-09,16.0019
2003-12-10,15.9026
2003-12-11,16.3943
2003-12-12,16.4688
2003-12-15,15.9076
2003-12-16,15.997
2003-12-17,16.0864
2003-12-18,16.5482
2003-12-19,16.6128
2003-12-22,16.737
2003-12-23,17.0449
2003-12-24,16.8512
2003-12-26,17.1144
2003-12-29,17.1343
2003-12-30,17.2386
2003-12-31,17.1243
2004-01-02,17.2485
2004-01-05,17.6111
2004-01-06,17.8246
2004-01-07,17.9339
2004-01-08,17.8892
2004-01-09,17.9041
2004-01-12,18.1474
2004-01-13,17.6458
2004-01-14,17.8594
2004-01-15,17.8246
2004-01-16,18.3759
2004-01-20,18.6292
2004-01-21,18.6292
2004-01-22,18.8924
2004-01-23,19.2053
2004-01-26,19.7913
2004-01-27,19.7615
2004-01-28,19.4884
2004-01-29,19.5033
2004-01-30,19.2798
2004-02-02,19.3146
2004-02-03,19.7417
2004-02-04,19.3543
2004-02-05,19.7615
2004-02-06,19.8261
2004-02-09,20.0943
2004-02-10,20.0943
2004-02-11,20.7052
2004-02-12,20.2383
2004-02-13,20.1837
2004-02-17,20.2482
2004-02-18,20.8244
2004-02-19,20.2979
2004-02-20,20.1142
2004-02-23,19.5082
2004-02-24,19.7963
2004-02-25,19.7963
2004-02-26,20.3625
2004-02-27,20.283
2004-03-01,20.8889
2004-03-02,20.8144
2004-03-03,21.2962
2004-03-04,21.6836
2004-03-05,21.9567
2004-03-08,21.6786
2004-03-09,21.5743
2004-03-10,20.7598
2004-03-11,21.1372
2004-03-12,22.0163
2004-03-15,21.6935
2004-03-16,21.2962
2004-03-17,21.768
2004-03-18,21.7332
2004-03-19,21.2912
2004-03-22,20.3029
2004-03-23,20.8641
2004-03-24,21.3955
2004-03-25,22.6073
2004-03-26,22.9152
2004-03-29,23.3324
2004-03-30,23.4169
2004-03-31,22.9748
2004-04-01,23.1735
2004-04-02,23.2828
2004-04-05,24.1867
2004-04-06,23.7645
2004-04-07,23.5311
2004-04-08,23.8291
2004-04-12,24.2115
2004-04-13,24.0377
2004-04-14,23.839
2004-04-15,23.402
2004-04-16,22.7166
2004-04-19,23.4913
2004-04-20,23.4516
2004-04-21,23.5609
2004-04-22,24.4846
2004-04-23,24.137
2004-04-26,24.2462
2004-04-27,24.2611
2004-04-28,23.4218
2004-04-29,23.397
2004-04-30,22.503
2004-05-03,23.4715
2004-05-04,24.4151
2004-05-05,24.3803
2004-05-06,24.3654
2004-05-07,23.9731
2004-05-10,23.3026
2004-05-11,23.6701
2004-05-12,23.2977
2004-05-13,23.7248
2004-05-14,23.8589
2004-05-17,23.4715
2004-05-18,23.1735
2004-05-19,23.4764
2004-05-20,23.1983
2004-05-21,23.2182
2004-05-24,22.9947
2004-05-25,22.945
2004-05-26,22.3689
2004-05-27,22.5378
2004-05-28,22.6719
2004-06-01,22.0262
2004-06-02,22.3739
2004-06-03,22.801
2004-06-04,23.0195
2004-06-07,23.0543
2004-06-08,22.801
2004-06-09,21.8028
2004-06-10,21.917
2004-06-14,21.3359
2004-06-15,21.0131
2004-06-16,20.2929
2004-06-17,20.2929
2004-06-18,19.8907
2004-06-21,20.1738
2004-06-22,19.9304
2004-06-23,20.4966
2004-06-24,20.7747
2004-06-25,21.0975
2004-06-28,21.2813
2004-06-29,21.4551
2004-06-30,21.7829
2004-07-01,21.326
2004-07-02,21.2962
2004-07-06,20.7002
2004-07-07,20.8989
2004-07-08,20.427
2004-07-09,20.3376
2004-07-12,20.3774
2004-07-13,20.1787
2004-07-14,20.0744
2004-07-15,20.6505
2004-07-16,20.2036
2004-07-19,20.2582
2004-07-20,21.321
2004-07-21,21.5445
2004-07-22,21.2862
2004-07-23,21.2962
2004-07-26,21.3111
2004-07-27,22.2845
2004-07-28,22.3987
2004-07-29,23.0394
2004-07-30,23.2778
2004-08-02,23.104
2004-08-03,22.6024
2004-08-04,22.8407
2004-08-05,22.5477
2004-08-06,22.5676
2004-08-09,22.6321
2004-08-10,23.0096
2004-08-11,22.9202
2004-08-12,22.652
2004-08-13,22.4931
2004-08-16,22.5626
2004-08-17,22.4683
2004-08-18,23.2281
2004-08-19,23.7496
2004-08-20,23.9334
2004-08-23,24.0178
2004-08-24,23.9284
2004-08-25,24.281
2004-08-26,23.8489
2004-08-27,24.0824
2004-08-30,23.6304
2004-08-31,23.8738
2004-09-01,23.7595
2004-09-02,24.3058
2004-09-03,24.2065
2004-09-07,24.3207
2004-09-08,24.2661
2004-09-09,24.4449
2004-09-10,25.2246
2004-09-13,25.5276
2004-09-14,25.4779
2004-09-15,25.3289
2004-09-16,25.4233
2004-09-17,25.8206
2004-09-20,25.8305
2004-09-21,25.7561
2004-09-22,25.6468
2004-09-23,25.5673
2004-09-24,25.7362
2004-09-27,26.213
2004-09-28,26.6599
2004-09-29,27.2361
2004-09-30,27.2957
2004-10-01,28.3684
2004-10-04,28.3684
2004-10-05,28.2095
2004-10-06,28.6912
2004-10-07,28.2939
2004-10-08,27.3255
2004-10-11,27.6632
2004-10-12,27.5241
2004-10-13,26.3173
2004-10-14,26.6848
2004-10-15,26.6897
2004-10-18,27.5887
2004-10-19,27.4893
2004-10-20,27.0722
2004-10-21,29.8087
2004-10-22,29.1034
2004-10-25,28.8253
2004-10-26,29.2177
2004-10-27,30.8318
2004-10-28,29.4213
2004-10-29,28.2889
2004-11-01,28.731
2004-11-02,29.2475
2004-11-03,29.2872
2004-11-04,29.7739
2004-11-05,30.062
2004-11-08,29.8484
2004-11-09,29.8385
2004-11-10,29.61
2004-11-11,30.2855
2004-11-12,30.1613
2004-11-15,30.0222
2004-11-16,29.9974
2004-11-17,30.3848
2004-11-18,30.643
2004-11-19,30.1861
2004-11-22,30.7871
2004-11-23,31.2043
2004-11-24,31.4178
2004-11-26,31.7605
2004-11-29,31.9095
2004-11-30,31.7108
2004-12-01,32.6992
2004-12-02,32.7985
2004-12-03,33.2256
2004-12-06,33.1064
2004-12-07,31.7853
2004-12-08,32.2422
2004-12-09,31.4873
2004-12-10,31.2092
2004-12-13,32.6197
2004-12-14,27.5936
2004-12-15,27.0275
2004-12-16,24.882
2004-12-17,25.1998
2004-12-20,23.8489
2004-12-21,24.7528
2004-12-22,25.5077
2004-12-23,25.1899
2004-12-27,25.0707
2004-12-28,24.8522
2004-12-29,24.6833
2004-12-30,25.2693
2004-12-31,25.5872
2005-01-03,26.0242
2005-01-04,25.2296
2005-01-05,24.8621
2005-01-06,22.945
2005-01-07,23.6801
2005-01-10,23.5013
2005-01-11,23.3026
2005-01-12,23.3026
2005-01-13,23.8092
2005-01-14,24.3158
2005-01-18,24.7727
2005-01-19,24.7032
2005-01-20,23.8887
2005-01-21,23.2033
2005-01-24,22.3491
2005-01-25,22.1603
2005-01-26,22.6371
2005-01-27,22.7762
2005-01-28,22.5279
2005-01-31,23.1238
2005-02-01,23.2132
2005-02-02,22.8159
2005-02-03,22.5179
2005-02-04,23.253
2005-02-07,23.4317
2005-02-08,21.9517
2005-02-09,21.4253
2005-02-10,20.8889
2005-02-11,21.4352
2005-02-14,21.8921
2005-02-15,22.1107
2005-02-16,22.6371
2005-02-17,22.0809
2005-02-18,21.9418
2005-02-22,21.4154
2005-02-23,21.6339
2005-02-24,21.7928
2005-02-25,21.5147
2005-02-28,21.7928
2005-03-01,21.8921
2005-03-02,21.8524
2005-03-03,21.2862
2005-03-04,21.1372
2005-03-07,21.167
2005-03-08,20.9386
2005-03-09,21.0081
2005-03-10,21.0876
2005-03-11,21.0081
2005-03-14,21.0379
2005-03-15,20.6207
2005-03-16,20.3625
2005-03-17,20.1142
2005-03-18,20.3724
2005-03-21,20.3724
2005-03-22,19.9552
2005-03-23,20.3327
2005-03-24,20.7896
2005-03-28,21.167
2005-03-29,20.9982
2005-03-30,21.6637
2005-03-31,21.2167
2005-04-01,21.624
2005-04-04,21.0876
2005-04-05,20.7797
2005-04-06,20.4916
2005-04-07,20.6605
2005-04-08,20.4419
2005-04-11,20.8095
2005-04-12,20.8591
2005-04-13,20.5015
2005-04-14,19.9652
2005-04-15,18.803
2005-04-18,18.9222
2005-04-19,18.9023
2005-04-20,18.6838
2005-04-21,19.2103
2005-04-22,18.9023
2005-04-25,18.9023
2005-04-26,18.6242
2005-04-27,18.3759
2005-04-28,18.3858
2005-04-29,18.6937
2005-05-02,18.7533
2005-05-03,19.2897
2005-05-04,19.5877
2005-05-05,19.3096
2005-05-06,19.2003
2005-05-09,18.3759
2005-05-10,18.0978
2005-05-11,18.3461
2005-05-12,18.4256
2005-05-13,19.1308
2005-05-16,19.4884
2005-05-17,20.0446
2005-05-18,20.9585
2005-05-19,21.5544
2005-05-20,21.9915
2005-05-23,21.7332
2005-05-24,22.0511
2005-05-25,21.9815
2005-05-26,22.2199
2005-05-27,22.0908
2005-05-31,22.3193
2005-06-01,22.4484
2005-06-02,22.4583
2005-06-03,22.2895
2005-06-06,22.1206
2005-06-07,21.8425
2005-06-08,21.5346
2005-06-09,21.7332
2005-06-10,21.1472
2005-06-13,21.0478
2005-06-14,21.0081
2005-06-15,21.3558
2005-06-16,21.2664
2005-06-17,21.4551
2005-06-20,21.6836
2005-06-21,22.359
2005-06-22,22.2199
2005-06-23,21.5743
2005-06-24,21.0975
2005-06-27,21.5048
2005-06-28,21.7233
2005-06-29,21.3955
2005-06-30,21.614
2005-07-01,20.9883
2005-07-05,21.6935
2005-07-06,21.3756
2005-07-07,21.1968
2005-07-08,21.8028
2005-07-11,22.4385
2005-07-12,23.2331
2005-07-13,23.9483
2005-07-14,23.6304
2005-07-15,23.7695
2005-07-18,23.402
2005-07-19,23.8092
2005-07-20,24.137
2005-07-21,23.6701
2005-07-22,23.4516
2005-07-25,23.4218
2005-07-26,23.0046
2005-07-27,23.104
2005-07-28,23.6304
2005-07-29,21.8226
2005-08-01,21.2962
2005-08-02,21.5246
2005-08-03,21.8921
2005-08-04,21.5842
2005-08-05,21.8921
2005-08-08,21.8524
2005-08-09,22.1206
2005-08-10,21.9021
2005-08-11,21.8425
2005-08-12,21.5544
2005-08-15,21.4352
2005-08-16,21.2266
2005-08-17,21.475
2005-08-18,21.1174
2005-08-19,21.0776
2005-08-22,20.8095
2005-08-23,20.3923
2005-08-24,20.0347
2005-08-25,19.846
2005-08-26,20.1936
2005-08-29,20.1539
2005-08-30,20.3128
2005-08-31,20.8194
2005-09-01,20.73
2005-09-02,20.9982
2005-09-06,21.5346
2005-09-07,21.7134
2005-09-08,22.1107
2005-09-09,22.3789
2005-09-12,22.0411
2005-09-13,22.1007
2005-09-14,21.8127
2005-09-15,21.624
2005-09-16,21.7034
2005-09-19,21.6438
2005-09-20,21.624
2005-09-21,21.1571
2005-09-22,21.0776
2005-09-23,21.0677
2005-09-26,20.7101
2005-09-27,21.1372
2005-09-28,21.3458
2005-09-29,21.9716
2005-09-30,22.4981
2005-10-03,22.647
2005-10-04,22.4385
2005-10-05,22.4484
2005-10-06,21.4352
2005-10-07,21.7233
2005-10-10,22.0014
2005-10-11,21.9021
2005-10-12,21.8623
2005-10-13,21.5246
2005-10-14,21.9517
2005-10-17,22.0908
2005-10-18,22.061
2005-10-19,22.4683
2005-10-20,22.4186
2005-10-21,22.4087
2005-10-24,23.1735
2005-10-25,23.4913
2005-10-26,23.0444
2005-10-27,22.4385
2005-10-28,22.9053
2005-10-31,23.5907
2005-11-01,23.8191
2005-11-02,19.2401
2005-11-03,18.4256
2005-11-04,18.4752
2005-11-07,18.7831
2005-11-08,19.0414
2005-11-09,18.9818
2005-11-10,19.3394
2005-11-11,19.4387
2005-11-14,19.5281
2005-11-15,19.0017
2005-11-16,18.6639
2005-11-17,18.505
2005-11-18,18.3461
2005-11-21,17.8097
2005-11-22,17.5415
2005-11-23,17.5813
2005-11-25,17.6309
2005-11-28,17.8594
2005-11-29,17.8991
2005-11-30,17.5415
2005-12-01,17.7303
2005-12-02,17.9289
2005-12-05,17.8594
2005-12-06,17.4223
2005-12-07,17.7998
2005-12-08,17.8197
2005-12-09,17.5415
2005-12-12,17.3429
2005-12-13,17.2237
2005-12-14,17.6707
2005-12-15,17.2535
2005-12-16,17.0151
2005-12-19,16.5085
2005-12-20,16.6774
2005-12-21,16.6774
2005-12-22,17.1839
2005-12-23,17.1343
2005-12-27,17.2336
2005-12-28,17.2038
2005-12-29,17.1839
2005-12-30,17.4124
2006-01-03,17.3925
2006-01-04,17.909
2006-01-05,18.1077
2006-01-06,18.9321
2006-01-09,19.2699
2006-01-10,19.0315
2006-01-11,19.5678
2006-01-12,19.3394
2006-01-13,19.3096
2006-01-17,19.1805
2006-01-18,19.1209
2006-01-19,19.0911
2006-01-20,18.5249
2006-01-23,18.4852
2006-01-24,17.4124
2006-01-25,17.2237
2006-01-26,17.6111
2006-01-27,17.8693
2006-01-30,18.1276
2006-01-31,18.2567
2006-02-01,17.025
2006-02-02,16.7966
2006-02-03,16.578
2006-02-06,16.6376
2006-02-07,16.8164
2006-02-08,16.9456
2006-02-09,16.8462
2006-02-10,17.025
2006-02-13,16.9158
2006-02-14,16.9058
2006-02-15,17.2237
2006-02-16,17.4323
2006-02-17,17.4025
2006-02-21,17.1045
2006-02-22,17.5018
2006-02-23,17.4223
2006-02-24,17.2634
2006-02-27,17.0548
2006-02-28,16.7866
2006-03-01,16.7767
2006-03-02,16.8661
2006-03-03,16.8363
2006-03-06,16.3794
2006-03-07,15.7536
2006-03-08,15.6642
2006-03-09,15.8927
2006-03-10,15.9423
2006-03-13,15.6841
2006-03-14,15.9125
2006-03-15,15.694
2006-03-16,15.4159
2006-03-17,15.3762
2006-03-20,15.5351
2006-03-21,15.4953
2006-03-22,15.6741
2006-03-23,15.7337
2006-03-24,15.9324
2006-03-27,15.9423
2006-03-28,16.0019
2006-03-29,15.9026
2006-03-30,16.9356
2006-03-31,16.7767
2006-04-03,16.8661
2006-04-04,17.3131
2006-04-05,17.0846
2006-04-06,16.7866
2006-04-07,16.4092
2006-04-10,16.6873
2006-04-11,16.727
2006-04-12,16.7072
2006-04-13,16.7966
2006-04-17,16.2602
2006-04-18,16.2006
2006-04-19,16.3893
2006-04-20,16.1807
2006-04-21,16.0417
2006-04-24,16.2403
2006-04-25,15.9125
2006-04-26,15.7635
2006-04-27,16.1807
2006-04-28,16.2999
2006-05-01,16.6476
2006-05-02,17.323
2006-05-03,17.3528
2006-05-04,17.6806
2006-05-05,17.6508
2006-05-08,17.2932
2006-05-09,16.9555
2006-05-10,17.3627
2006-05-11,16.9456
2006-05-12,16.8959
2006-05-15,16.7966
2006-05-16,16.3992
2006-05-17,16.1807
2006-05-18,16.1112
2006-05-19,16.2006
2006-05-22,15.9622
2006-05-23,15.7635
2006-05-24,15.9324
2006-05-25,15.9622
2006-05-26,15.8629
2006-05-30,15.4159
2006-05-31,15.5748
2006-06-01,15.7238
2006-06-02,15.7735
2006-06-05,15.545
2006-06-06,15.247
2006-06-07,15.5053
2006-06-08,15.247
2006-06-09,15.3066
2006-06-12,15.5251
2006-06-13,15.4755
2006-06-14,15.257
2006-06-15,15.7437
2006-06-16,15.5947
2006-06-19,15.7039
2006-06-20,15.8231
2006-06-21,15.9026
2006-06-22,15.8033
2006-06-23,15.5351
2006-06-26,15.6046
2006-06-27,15.0782
2006-06-28,15.1477
2006-06-29,15.5251
2006-06-30,15.4358
2006-07-03,15.3265
2006-07-05,15.1179
2006-07-06,14.8894
2006-07-07,15.0484
2006-07-10,14.8994
2006-07-11,14.8894
2006-07-12,14.7802
2006-07-13,15.108
2006-07-14,15.098
2006-07-17,15.1179
2006-07-18,15.0583
2006-07-19,15.3762
2006-07-20,15.2073
2006-07-21,15.2272
2006-07-24,15.4953
2006-07-25,15.3166
2006-07-26,15.7139
2006-07-27,17.1343
2006-07-28,17.2535
2006-07-31,17.2336
2006-08-01,16.9754
2006-08-02,17.2137
2006-08-03,17.0846
2006-08-04,17.1144
2006-08-07,17.0052
2006-08-08,17.0846
2006-08-09,17.1144
2006-08-10,17.2733
2006-08-11,17.4521
2006-08-14,17.6409
2006-08-15,17.7601
2006-08-16,18.1772
2006-08-17,18.0779
2006-08-18,18.2269
2006-08-21,18.0878
2006-08-22,18.3759
2006-08-23,18.6044
2006-08-24,18.6143
2006-08-25,18.7633
2006-08-28,19.0613
2006-08-29,18.9321
2006-08-30,18.7732
2006-08-31,18.4951
2006-09-01,18.6143
2006-09-05,18.5448
2006-09-06,18.6044
2006-09-07,18.3958
2006-09-08,18.6242
2006-09-11,18.9123
2006-09-12,19.1407
2006-09-13,19.4884
2006-09-14,19.6274
2006-09-15,19.6771
2006-09-18,19.7864
2006-09-19,19.9155
2006-09-20,20.7995
2006-09-21,20.9783
2006-09-22,20.9485
2006-09-25,20.8293
2006-09-26,20.7499
2006-09-27,20.6803
2006-09-28,21.167
2006-09-29,21.1273
2006-10-02,20.581
2006-10-03,20.9982
2006-10-04,21.0181
2006-10-05,20.7499
2006-10-06,20.6704
2006-10-09,20.2532
2006-10-10,20.6009
2006-10-11,21.1372
2006-10-12,21.5644
2006-10-13,21.4849
2006-10-16,21.5048
2006-10-17,21.7531
2006-10-18,21.6637
2006-10-19,21.1968
2006-10-20,20.7598
2006-10-23,20.8591
2006-10-24,20.6803
2006-10-25,20.6406
2006-10-26,19.3295
2006-10-27,18.6838
2006-10-30,19.5082
2006-10-31,19.6771
2006-11-01,19.7665
2006-11-02,19.9751
2006-11-03,19.7466
2006-11-06,20.2631
2006-11-07,20.1837
2006-11-08,20.0744
2006-11-09,19.7367
2006-11-10,19.9453
2006-11-13,20.4022
2006-11-14,20.2731
2006-11-15,20.6207
2006-11-16,20.6207
2006-11-17,20.5313
2006-11-20,20.5115
2006-11-21,20.6009
2006-11-22,20.7995
2006-11-24,20.7598
2006-11-27,20.5313
2006-11-28,20.8492
2006-11-29,20.9684
2006-11-30,21.0478
2006-12-01,20.5115
2006-12-04,21.0181
2006-12-05,20.4817
2006-12-06,20.0049
2006-12-07,19.5976
2006-12-08,19.7864
2006-12-11,20.283
2006-12-12,20.4121
2006-12-13,20.5313
2006-12-14,20.7499
2006-12-15,21.0379
2006-12-18,20.9287
2006-12-19,21.2564
2006-12-20,21.2862
2006-12-21,20.8889
2006-12-22,20.6803
2006-12-26,20.7995
2006-12-27,20.8194
2006-12-28,21.1273
2006-12-29,20.6903
2007-01-03,21.1968
2007-01-04,21.5346
2007-01-05,21.2068
2007-01-08,21.2366
2007-01-09,21.4352
2007-01-10,21.326
2007-01-11,21.167
2007-01-12,20.3128
2007-01-16,17.6409
2007-01-17,17.7501
2007-01-18,17.6111
2007-01-19,17.4124
2007-01-22,17.3925
2007-01-23,17.2932
2007-01-24,17.3528
2007-01-25,17.8693
2007-01-26,17.6707
2007-01-29,17.4124
2007-01-30,17.5316
2007-01-31,17.5614
2007-02-01,17.8197
2007-02-02,17.909
2007-02-05,17.6806
2007-02-06,17.5217
2007-02-07,17.9587
2007-02-08,17.8892
2007-02-09,17.77
2007-02-12,17.6905
2007-02-13,17.7799
2007-02-14,18.1772
2007-02-15,18.1276
2007-02-16,17.8395
2007-02-20,17.7303
2007-02-21,17.3727
2007-02-22,17.4025
2007-02-23,17.2634
2007-02-26,17.0945
2007-02-27,16.6376
2007-02-28,16.9654
2007-03-01,16.8363
2007-03-02,16.8065
2007-03-05,16.578
2007-03-06,16.737
2007-03-07,16.5482
2007-03-08,16.429
2007-03-09,16.737
2007-03-12,16.886
2007-03-13,16.3098
2007-03-14,16.429
2007-03-15,16.5184
2007-03-16,16.7767
2007-03-19,16.7171
2007-03-20,16.8462
2007-03-21,16.9356
2007-03-22,17.0945
2007-03-23,17.4323
2007-03-26,17.4621
2007-03-27,17.6905
2007-03-28,17.3528
2007-03-29,17.3429
2007-03-30,17.1541
2007-04-02,16.8959
2007-04-03,16.8661
2007-04-04,16.7469
2007-04-05,16.8065
2007-04-09,16.8363
2007-04-10,16.9654
2007-04-11,16.9456
2007-04-12,17.2535
2007-04-13,17.2733
2007-04-16,17.4025
2007-04-17,17.3925
2007-04-18,17.2733
2007-04-19,17.1144
2007-04-20,17.5117
2007-04-23,17.6508
2007-04-24,17.3429
2007-04-25,17.4919
2007-04-26,17.6011
2007-04-27,17.6011
2007-04-30,17.5018
2007-05-01,17.7203
2007-05-02,18.068
2007-05-03,18.952
2007-05-04,19.2599
2007-05-07,19.3692
2007-05-08,19.5976
2007-05-09,19.6175
2007-05-10,19.3394
2007-05-11,19.5082
2007-05-14,19.5082
2007-05-15,19.4089
2007-05-16,19.7367
2007-05-17,19.7764
2007-05-18,19.7168
2007-05-21,19.6374
2007-05-22,19.4784
2007-05-23,19.4685
2007-05-24,19.1507
2007-05-25,19.6672
2007-05-29,19.4784
2007-05-30,19.6175
2007-05-31,19.8758
2007-06-01,19.836
2007-06-04,20.0347
2007-06-05,19.8857
2007-06-06,19.846
2007-06-07,19.4586
2007-06-08,19.5678
2007-06-11,19.4685
2007-06-12,19.4884
2007-06-13,19.8559
2007-06-14,19.3394
2007-06-15,19.5579
2007-06-18,20.0446
2007-06-19,19.7268
2007-06-20,19.2798
2007-06-21,19.9254
2007-06-22,19.7864
2007-06-25,19.5579
2007-06-26,19.7566
2007-06-27,20.3923
2007-06-28,20.3029
2007-06-29,20.0546
2007-07-02,19.7963
2007-07-03,19.7566
2007-07-05,19.7466
2007-07-06,19.6771
2007-07-09,19.5182
2007-07-10,18.7633
2007-07-11,19.3891
2007-07-12,19.697
2007-07-13,19.6672
2007-07-16,19.6374
2007-07-17,19.548
2007-07-18,19.3692
2007-07-19,19.6374
2007-07-20,19.6274
2007-07-23,19.6572
2007-07-24,19.4089
2007-07-25,19.7665
2007-07-26,20.0744
2007-07-27,19.3891
2007-07-30,19.1904
2007-07-31,19.1109
2007-08-01,18.8924
2007-08-02,18.8229
2007-08-03,18.4057
2007-08-06,18.2468
2007-08-07,17.9984
2007-08-08,17.8296
2007-08-09,17.4323
2007-08-10,17.77
2007-08-13,17.7402
2007-08-14,17.6905
2007-08-15,17.7303
2007-08-16,17.77
2007-08-17,17.9686
2007-08-20,18.1176
2007-08-21,18.4057
2007-08-22,18.5746
2007-08-23,18.5448
2007-08-24,18.7633
2007-08-27,18.5845
2007-08-28,18.1574
2007-08-29,18.5348
2007-08-30,18.5348
2007-08-31,18.6838
2007-09-04,18.9619
2007-09-05,18.654
2007-09-06,18.7931
2007-09-07,18.6937
2007-09-10,18.6242
2007-09-11,19.2798
2007-09-12,19.687
2007-09-13,19.6175
2007-09-14,19.3791
2007-09-17,19.3195
2007-09-18,19.4983
2007-09-19,19.4784
2007-09-20,19.1109
2007-09-21,19.1805
2007-09-24,18.8527
2007-09-25,19.1606
2007-09-26,19.2997
2007-09-27,19.0712
2007-09-28,19.2401
2007-10-01,19.7168
2007-10-02,20.2532
2007-10-03,19.995
2007-10-04,20.2036
2007-10-05,20.2433
2007-10-08,20.8691
2007-10-09,21.0081
2007-10-10,20.879
2007-10-11,20.7598
2007-10-12,20.9783
2007-10-15,20.4519
2007-10-16,20.5611
2007-10-17,20.4519
2007-10-18,20.3426
2007-10-19,19.8658
2007-10-22,20.2433
2007-10-23,20.7598
2007-10-24,20.8492
2007-10-25,18.4355
2007-10-26,18.207
2007-10-29,18.6242
2007-10-30,18.356
2007-10-31,18.6838
2007-11-01,18.4057
2007-11-02,18.3958
2007-11-05,18.2468
2007-11-06,17.3727
2007-11-07,17.174
2007-11-08,17.1541
2007-11-09,16.7866
2007-11-12,17.0449
2007-11-13,17.4025
2007-11-14,17.1343
2007-11-15,17.3528
2007-11-16,17.5415
2007-11-19,17.3031
2007-11-20,17.1343
2007-11-21,17.4521
2007-11-23,17.3627
2007-11-26,17.0648
2007-11-27,17.5217
2007-11-28,18.0978
2007-11-29,17.9388
2007-11-30,17.6508
2007-12-03,17.4422
2007-12-04,17.7402
2007-12-05,17.77
2007-12-06,17.8296
2007-12-07,17.5813
2007-12-10,17.5813
2007-12-11,17.035
2007-12-12,17.323
2007-12-13,16.8462
2007-12-14,16.8363
2007-12-17,16.4191
2007-12-18,16.3396
2007-12-19,16.0615
2007-12-20,16.1907
2007-12-21,16.7668
2007-12-24,16.4886
2007-12-26,16.6078
2007-12-27,16.29
2007-12-28,16.1609
2007-12-31,16.0516
2008-01-02,15.9423
2008-01-03,15.9821
2008-01-04,15.6443
2008-01-07,15.3662
2008-01-08,15.5748
2008-01-09,15.4953
2008-01-10,15.4755
2008-01-11,15.1974
2008-01-14,15.5549
2008-01-15,15.3265
2008-01-16,15.9026
2008-01-17,15.1576
2008-01-18,15.098
2008-01-22,14.9292
2008-01-23,15.2073
2008-01-24,16.7966
2008-01-25,16.28
2008-01-28,16.727
2008-01-29,16.7966
2008-01-30,16.9356
2008-01-31,17.8792
2008-02-01,18.515
2008-02-04,18.3759
2008-02-05,17.7899
2008-02-06,17.7005
2008-02-07,17.9388
2008-02-08,17.77
2008-02-11,17.6309
2008-02-12,17.6607
2008-02-13,17.9786
2008-02-14,17.3727
2008-02-15,17.4124
2008-02-19,17.2038
2008-02-20,17.7402
2008-02-21,17.323
2008-02-22,17.3031
2008-02-25,17.77
2008-02-26,17.4323
2008-02-27,17.3627
2008-02-28,17.1839
2008-02-29,16.727
2008-03-03,16.7469
2008-03-04,16.9853
2008-03-05,16.886
2008-03-06,16.9257
2008-03-07,16.8462
2008-03-10,16.6575
2008-03-11,17.0846
2008-03-12,17.0846
2008-03-13,17.1243
2008-03-14,16.3794
2008-03-17,16.429
2008-03-18,16.727
2008-03-19,16.4092
2008-03-20,16.9654
2008-03-24,17.025
2008-03-25,17.0052
2008-03-26,16.9456
2008-03-27,16.9257
2008-03-28,16.7171
2008-03-31,16.4886
2008-04-01,17.2733
2008-04-02,17.3727
2008-04-03,17.0846
2008-04-04,17.2336
2008-04-07,17.3429
2008-04-08,17.4323
2008-04-09,17.1641
2008-04-10,17.3528
2008-04-11,16.7866
2008-04-14,16.7668
2008-04-15,16.7966
2008-04-16,17.0151
2008-04-17,17.472
2008-04-18,17.5614
2008-04-21,17.472
2008-04-22,17.2336
2008-04-23,17.2634
2008-04-24,17.2038
2008-04-25,17.3727
2008-04-28,17.2038
2008-04-29,17.3826
2008-04-30,17.0747
2008-05-01,19.1805
2008-05-02,19.2699
2008-05-05,19.1308
2008-05-06,19.7665
2008-05-07,19.5678
2008-05-08,19.697
2008-05-09,19.836
2008-05-12,19.9354
2008-05-13,20.4717
2008-05-14,20.4618
2008-05-15,20.6207
2008-05-16,20.5909
2008-05-19,20.7201
2008-05-20,20.4121
2008-05-21,20.4121
2008-05-22,20.7101
2008-05-23,20.5214
2008-05-27,21.028
2008-05-28,21.2266
2008-05-29,21.4054
2008-05-30,21.6438
2008-06-02,20.7995
2008-06-03,20.6505
2008-06-04,20.9585
2008-06-05,20.8095
2008-06-06,20.1042
2008-06-09,20.3525
2008-06-10,20.1638
2008-06-11,19.6473
2008-06-12,19.8162
2008-06-13,20.0645
2008-06-16,20.1142
2008-06-17,19.8758
2008-06-18,19.5678
2008-06-19,20.0744
2008-06-20,19.25
2008-06-23,19.3791
2008-06-24,19.3593
2008-06-25,19.8559
2008-06-26,19.4685
2008-06-27,19.3493
2008-06-30,19.2202
2008-07-01,19.5778
2008-07-02,19.4387
2008-07-03,19.2401
2008-07-07,18.9719
2008-07-08,19.3593
2008-07-09,18.7533
2008-07-10,18.8229
2008-07-11,18.6937
2008-07-14,18.5646
2008-07-15,18.4852
2008-07-16,18.8229
2008-07-17,18.952
2008-07-18,19.0017
2008-07-21,18.8427
2008-07-22,19.1507
2008-07-23,19.4983
2008-07-24,19.2798
2008-07-25,19.3195
2008-07-28,18.8825
2008-07-29,19.5281
2008-07-30,19.5976
2008-07-31,20.9585
2008-08-01,21.5842
2008-08-04,21.3955
2008-08-05,21.9418
2008-08-06,22.1107
2008-08-07,21.5246
2008-08-08,21.8226
2008-08-11,22.0113
2008-08-12,21.7531
2008-08-13,21.912
2008-08-14,22.3292
2008-08-15,22.1206
2008-08-18,21.4948
2008-08-19,21.3955
2008-08-20,21.5842
2008-08-21,21.7233
2008-08-22,21.9021
2008-08-25,21.5942
2008-08-26,21.4948
2008-08-27,21.8524
2008-08-28,22.4981
2008-08-29,22.1405
2008-09-02,22.1107
2008-09-03,21.8425
2008-09-04,21.4452
2008-09-05,21.3657
2008-09-08,21.5644
2008-09-09,20.9485
2008-09-10,20.3327
2008-09-11,20.6803
2008-09-12,20.4022
2008-09-15,20.0148
2008-09-16,19.9652
2008-09-17,19.399
2008-09-18,19.1805
2008-09-19,19.7268
2008-09-22,19.2699
2008-09-23,19.3692
2008-09-24,19.4884
2008-09-25,19.5281
2008-09-26,19.697
2008-09-29,18.8924
2008-09-30,19.3891
2008-10-01,18.8129
2008-10-02,17.7203
2008-10-03,16.8065
2008-10-06,16.29
2008-10-07,14.8994
2008-10-08,14.5815
2008-10-09,13.8564
2008-10-10,13.5088
2008-10-13,15.1676
2008-10-14,14.7106
2008-10-15,13.9359
2008-10-16,14.5517
2008-10-17,15.2073
2008-10-20,15.6543
2008-10-21,14.949
2008-10-22,14.1544
2008-10-23,14.214
2008-10-24,13.6677
2008-10-27,13.618
2008-10-28,14.5915
2008-10-29,14.7802
2008-10-30,12.297
2008-10-31,12.585
2008-11-03,13.2803
2008-11-04,13.6081
2008-11-05,13.1512
2008-11-06,12.7141
2008-11-07,13.1214
2008-11-10,12.8234
2008-11-11,12.5155
2008-11-12,12.2274
2008-11-13,12.5651
2008-11-14,12.1281
2008-11-17,12.0784
2008-11-18,12.2374
2008-11-19,11.1646
2008-11-20,10.0223
2008-11-21,10.8368
2008-11-24,11.9493
2008-11-25,11.5321
2008-11-26,12.0586
2008-11-28,11.9493
2008-12-01,11.0653
2008-12-02,11.5222
2008-12-03,11.8202
2008-12-04,11.0355
2008-12-05,11.9195
2008-12-08,12.4857
2008-12-09,12.4757
2008-12-10,12.7042
2008-12-11,12.1976
2008-12-12,12.436
2008-12-15,12.2672
2008-12-16,13.2803
2008-12-17,13.3598
2008-12-18,13.032
2008-12-19,13.3896
2008-12-22,12.6247
2008-12-23,12.6645
2008-12-24,12.734
2008-12-26,12.7737
2008-12-29,12.5353
2008-12-30,12.883
2008-12-31,13.469
2009-01-02,14.7007
2009-01-05,14.2537
2009-01-06,14.5418
2009-01-07,13.8763
2009-01-08,13.9955
2009-01-09,13.5783
2009-01-12,13.4988
2009-01-13,13.4293
2009-01-14,12.6943
2009-01-15,13.4194
2009-01-16,13.4492
2009-01-20,12.7042
2009-01-21,13.6379
2009-01-22,13.0618
2009-01-23,13.479
2009-01-26,13.5584
2009-01-27,13.9259
2009-01-28,14.5219
2009-01-29,15.3861
2009-01-30,15.2868
2009-02-02,14.6213
2009-02-03,15.108
2009-02-04,15.1974
2009-02-05,15.5251
2009-02-06,15.9125
2009-02-09,15.5251
2009-02-10,14.7603
2009-02-11,14.8894
2009-02-12,14.8497
2009-02-13,14.7106
2009-02-17,14.1246
2009-02-18,14.1743
2009-02-19,13.9458
2009-02-20,13.8961
2009-02-23,13.3995
2009-02-24,14.1345
2009-02-25,13.7968
2009-02-26,13.4293
2009-02-27,13.767
2009-03-02,13.4392
2009-03-03,13.0618
2009-03-04,13.3796
2009-03-05,13.0618
2009-03-06,12.883
2009-03-09,12.5751
2009-03-10,13.3002
2009-03-11,13.32
2009-03-12,13.6081
2009-03-13,13.618
2009-03-16,13.0618
2009-03-17,13.6776
2009-03-18,14.1047
2009-03-19,14.0352
2009-03-20,13.9061
2009-03-23,14.1544
2009-03-24,14.2041
2009-03-25,14.7802
2009-03-26,15.4854
2009-03-27,14.8497
2009-03-30,14.4325
2009-03-31,14.7901
2009-04-01,15.1676
2009-04-02,15.8629
2009-04-03,16.0814
2009-04-06,16.0019
2009-04-07,15.9821
2009-04-08,16.4688
2009-04-09,17.0052
2009-04-13,16.2701
2009-04-14,15.9225
2009-04-15,16.3694
2009-04-16,16.8959
2009-04-17,17.1045
2009-04-20,16.6376
2009-04-21,16.9158
2009-04-22,17.1839
2009-04-23,17.0548
2009-04-24,17.4521
2009-04-27,16.876
2009-04-28,16.8661
2009-04-29,17.1442
2009-04-30,17.1144
2009-05-01,17.6607
2009-05-04,17.5813
2009-05-05,17.5217
2009-05-06,17.4323
2009-05-07,14.9292
2009-05-08,14.7504
2009-05-11,15.247
2009-05-12,15.0285
2009-05-13,14.8497
2009-05-14,14.7901
2009-05-15,14.7007
2009-05-18,14.9192
2009-05-19,15.3265
2009-05-20,14.9788
2009-05-21,14.7404
2009-05-22,14.1246
2009-05-26,14.3431
2009-05-27,14.7305
2009-05-28,15.0782
2009-05-29,15.4755
2009-06-01,15.5649
2009-06-02,15.9026
2009-06-03,15.694
2009-06-04,15.843
2009-06-05,15.9721
2009-06-08,16.0715
2009-06-09,16.4588
2009-06-10,16.3198
2009-06-11,15.7834
2009-06-12,16.4092
2009-06-15,15.9821
2009-06-16,15.6443
2009-06-17,15.8132
2009-06-18,15.6344
2009-06-19,15.7337
2009-06-22,14.959
2009-06-23,15.0186
2009-06-24,15.406
2009-06-25,15.7635
2009-06-26,15.8033
2009-06-29,15.5947
2009-06-30,15.4656
2009-07-01,15.5251
2009-07-02,15.6046
2009-07-06,15.4258
2009-07-07,15.3265
2009-07-08,15.1378
2009-07-09,15.2073
2009-07-10,15.4755
2009-07-13,15.4159
2009-07-14,15.8033
2009-07-15,16.4886
2009-07-16,16.29
2009-07-17,16.2701
2009-07-20,16.5383
2009-07-21,16.588
2009-07-22,16.7668
2009-07-23,17.3429
2009-07-24,17.2634
2009-07-27,17.1442
2009-07-28,17.1045
2009-07-29,17.1243
2009-07-30,14.6809
2009-07-31,14.8596
2009-08-03,15.1179
2009-08-04,15.4258
2009-08-05,15.0682
2009-08-06,15.1576
2009-08-07,15.4159
2009-08-10,15.247
2009-08-11,14.949
2009-08-12,15.247
2009-08-13,15.4358
2009-08-14,15.1378
2009-08-17,14.7007
2009-08-18,14.9788
2009-08-19,15.1576
2009-08-20,15.2669
2009-08-21,15.4258
2009-08-24,15.3166
2009-08-25,15.3166
2009-08-26,15.3464
2009-08-27,15.3762
2009-08-28,15.1278
2009-08-31,14.9987
2009-09-01,14.8398
2009-09-02,14.8795
2009-09-03,15.1576
2009-09-04,15.545
2009-09-08,15.5748
2009-09-09,15.6543
2009-09-10,15.8231
2009-09-11,15.8529
2009-09-14,15.7238
2009-09-15,15.5847
2009-09-16,15.8927
2009-09-17,15.9225
2009-09-18,15.5649
2009-09-21,15.6046
2009-09-22,15.4358
2009-09-23,15.3762
2009-09-24,15.1974
2009-09-25,15.5251
2009-09-28,15.8827
2009-09-29,15.9125
2009-09-30,16.3496
2009-10-01,15.8033
2009-10-02,15.8728
2009-10-05,16.141
2009-10-06,16.3098
2009-10-07,16.4489
2009-10-08,16.3198
2009-10-09,16.5184
2009-10-12,16.3297
2009-10-13,16.8164
2009-10-14,16.7568
2009-10-15,16.578
2009-10-16,16.5085
2009-10-19,16.6873
2009-10-20,16.3297
2009-10-21,16.6575
2009-10-22,16.7668
2009-10-23,16.5582
2009-10-26,16.3297
2009-10-27,16.0615
2009-10-28,15.6841
2009-10-29,17.7005
2009-10-30,17.4919
2009-11-02,17.2634
2009-11-03,17.1144
2009-11-04,17.1045
2009-11-05,17.3329
2009-11-06,17.3131
2009-11-09,17.6011
2009-11-10,17.5018
2009-11-11,17.4323
2009-11-12,17.2137
2009-11-13,17.3329
2009-11-16,17.6707
2009-11-17,17.6905
2009-11-18,17.8296
2009-11-19,17.7501
2009-11-20,17.6111
2009-11-23,17.8693
2009-11-24,17.7799
2009-11-25,17.8892
2009-11-27,17.8693
2009-11-30,17.6508
2009-12-01,17.8892
2009-12-02,17.8494
2009-12-03,17.8395
2009-12-04,17.7799
2009-12-07,17.5316
2009-12-08,17.2535
2009-12-09,17.5415
2009-12-10,17.5515
2009-12-11,17.4919
2009-12-14,17.621
2009-12-15,17.5117
2009-12-16,17.6011
2009-12-17,17.3329
2009-12-18,17.5117
2009-12-21,17.6905
2009-12-22,17.5912
2009-12-23,17.6707
2009-12-24,17.909
2009-12-28,17.9488
2009-12-29,17.9289
2009-12-30,18.0282
2009-12-31,17.7899
2010-01-04,18.2865
2010-01-05,18.1772
2010-01-06,18.217
2010-01-07,18.1971
2010-01-08,18.2468
2010-01-11,18.2368
2010-01-12,18.3362
2010-01-13,18.5845
2010-01-14,18.654
2010-01-15,18.7434
2010-01-19,19.0116
2010-01-20,18.6143
2010-01-21,18.505
2010-01-22,18.1772
2010-01-25,18.356
2010-01-26,18.356
2010-01-27,18.4653
2010-01-28,17.2932
2010-01-29,16.8164
2010-02-01,17.2137
2010-02-02,17.1839
2010-02-03,17.1144
2010-02-04,16.8065
2010-02-05,17.025
2010-02-08,16.8661
2010-02-09,16.9456
2010-02-10,16.9754
2010-02-11,17.1243
2010-02-12,16.7072
2010-02-16,16.9654
2010-02-17,16.8264
2010-02-18,16.9952
2010-02-19,17.0548
2010-02-22,16.7072
2010-02-23,16.5383
2010-02-24,16.3992
2010-02-25,16.4191
2010-02-26,16.4588
2010-03-01,16.5582
2010-03-02,16.4588
2010-03-03,16.5582
2010-03-04,16.6078
2010-03-05,16.8661
2010-03-08,16.7767
2010-03-09,17.0846
2010-03-10,17.3131
2010-03-11,17.2535
2010-03-12,17.3429
2010-03-15,17.2634
2010-03-16,17.174
2010-03-17,16.9853
2010-03-18,17.3429
2010-03-19,17.0747
2010-03-22,17.0648
2010-03-23,16.9456
2010-03-24,16.886
2010-03-25,16.9257
2010-03-26,16.7171
2010-03-29,16.8363
2010-03-30,16.9158
2010-03-31,16.8164
2010-04-01,16.6575
2010-04-05,16.7072
2010-04-06,16.6078
2010-04-07,16.588
2010-04-08,16.578
2010-04-09,16.9754
2010-04-12,17.0548
2010-04-13,16.578
2010-04-14,16.9952
2010-04-15,16.8562
2010-04-16,16.578
2010-04-19,16.7171
2010-04-20,16.9754
2010-04-21,17.0052
2010-04-22,17.1243
2010-04-23,17.2833
2010-04-26,16.9754
2010-04-27,16.8363
2010-04-28,17.2535
2010-04-29,17.025
2010-04-30,16.6674
2010-05-03,16.5284
2010-05-04,16.1112
2010-05-05,16.1311
2010-05-06,16.4787
2010-05-07,15.545
2010-05-10,16.1311
2010-05-11,16.1807
2010-05-12,16.4787
2010-05-13,16.28
2010-05-14,16.0218
2010-05-17,16.1509
2010-05-18,15.8629
2010-05-19,15.5251
2010-05-20,14.6709
2010-05-21,14.6213
2010-05-24,14.3332
2010-05-25,14.2438
2010-05-26,14.0551
2010-05-27,14.512
2010-05-28,14.0749
2010-06-01,13.7571
2010-06-02,14.1842
2010-06-03,14.4921
2010-06-04,13.8068
2010-06-07,13.8167
2010-06-08,13.9557
2010-06-09,13.8366
2010-06-10,14.363
2010-06-11,14.5716
2010-06-14,14.3233
2010-06-15,14.9093
2010-06-16,14.959
2010-06-17,14.9391
2010-06-18,15.0682
2010-06-21,14.8596
2010-06-22,14.5716
2010-06-23,14.661
2010-06-24,14.3034
2010-06-25,14.3431
2010-06-28,14.3233
2010-06-29,13.8266
2010-06-30,13.8068
2010-07-01,13.7869
2010-07-02,13.9061
2010-07-06,13.9359
2010-07-07,14.3531
2010-07-08,14.4027
2010-07-09,14.4623
2010-07-12,14.6312
2010-07-13,14.8696
2010-07-14,14.8596
2010-07-15,14.8398
2010-07-16,14.4921
2010-07-19,14.8
2010-07-20,14.8994
2010-07-21,14.4723
2010-07-22,15.098
2010-07-23,15.0782
2010-07-26,14.9888
2010-07-27,14.9093
2010-07-28,14.5617
2010-07-29,12.9227
2010-07-30,12.8929
2010-08-02,13.0618
2010-08-03,12.8731
2010-08-04,13.0022
2010-08-05,13.0121
2010-08-06,12.9525
2010-08-09,12.9625
2010-08-10,12.7936
2010-08-11,12.4559
2010-08-12,12.3267
2010-08-13,12.2672
2010-08-16,12.3069
2010-08-17,12.6347
2010-08-18,12.5254
2010-08-19,13.2902
2010-08-20,13.7074
2010-08-23,13.4492
2010-08-24,13.5882
2010-08-25,13.7372
2010-08-26,13.5684
2010-08-27,13.8961
2010-08-30,13.5882
2010-08-31,13.5386
2010-09-01,13.9955
2010-09-02,13.8862
2010-09-03,13.8763
2010-09-07,13.8763
2010-09-08,14.4921
2010-09-09,14.5219
2010-09-10,14.7603
2010-09-13,14.8994
2010-09-14,14.9093
2010-09-15,14.8994
2010-09-16,14.8398
2010-09-17,14.8696
2010-09-20,14.9788
2010-09-21,14.9689
2010-09-22,14.8199
2010-09-23,14.81
2010-09-24,15.0384
2010-09-27,15.3166
2010-09-28,15.4656
2010-09-29,15.4854
2010-09-30,15.0583
2010-10-01,15.3265
2010-10-04,14.9093
2010-10-05,15.1874
2010-10-06,14.81
2010-10-07,14.9391
2010-10-08,14.9192
2010-10-11,15.0782
2010-10-12,15.2868
2010-10-13,15.4854
2010-10-14,15.4457
2010-10-15,15.6145
2010-10-18,15.4854
2010-10-19,15.3861
2010-10-20,15.4854
2010-10-21,15.4656
2010-10-22,15.5748
2010-10-25,15.6741
2010-10-26,15.7735
2010-10-27,15.6741
2010-10-28,16.3595
2010-10-29,16.1013
2010-11-01,16.2701
2010-11-02,16.588
2010-11-03,16.2602
2010-11-04,16.439
2010-11-05,17.0846
2010-11-08,17.4323
2010-11-09,17.4422
2010-11-10,17.5415
2010-11-11,16.9654
2010-11-12,17.1243
2010-11-15,16.9754
2010-11-16,16.6178
2010-11-17,16.8264
2010-11-18,17.0548
2010-11-19,17.1243
2010-11-22,16.9356
2010-11-23,16.6277
2010-11-24,17.0846
2010-11-26,16.886
2010-11-29,16.5681
2010-11-30,16.7072
2010-12-01,17.035
2010-12-02,17.1541
2010-12-03,16.9853
2010-12-06,16.886
2010-12-07,16.8164
2010-12-08,16.9058
2010-12-09,16.8462
2010-12-10,17.1144
2010-12-13,17.025
2010-12-14,17.1343
2010-12-15,17.0449
2010-12-16,17.1641
2010-12-17,16.8363
2010-12-20,16.5681
2010-12-21,16.588
2010-12-22,16.6078
2010-12-23,16.3893
2010-12-27,16.6575
2010-12-28,16.6674
2010-12-29,16.6972
2010-12-30,16.6575
2010-12-31,16.6476
2011-01-03,17.0548
2011-01-04,17.0548
2011-01-05,17.4919
2011-01-06,17.5813
2011-01-07,17.4223
2011-01-10,16.9356
2011-01-11,16.9754
2011-01-12,17.4919
2011-01-13,17.2733
2011-01-14,17.3727
2011-01-18,18.1077
2011-01-19,17.8395
2011-01-20,17.7005
2011-01-21,17.7402
2011-01-24,17.77
2011-01-25,17.7203
2011-01-26,17.7104
2011-01-27,17.7998
2011-01-28,17.3429
2011-01-31,17.4819
2011-02-01,17.8594
2011-02-02,17.8097
2011-02-03,17.8494
2011-02-04,18.0481
2011-02-07,18.1474
2011-02-08,18.3461
2011-02-09,18.2468
2011-02-10,18.3362
2011-02-11,18.3163
2011-02-14,18.2964
2011-02-15,18.4057
2011-02-16,18.2269
2011-02-17,18.515
2011-02-18,18.4752
2011-02-22,17.8097
2011-02-23,17.5813
2011-02-24,17.7104
2011-02-25,18.0084
2011-02-28,17.919
2011-03-01,17.3131
2011-03-02,17.3329
2011-03-03,17.8395
2011-03-04,17.5912
2011-03-07,17.77
2011-03-08,17.8991
2011-03-09,18.3163
2011-03-10,17.909
2011-03-11,17.9885
2011-03-14,17.9289
2011-03-15,17.472
2011-03-16,16.9555
2011-03-17,17.1243
2011-03-18,17.1343
2011-03-21,17.5515
2011-03-22,17.5217
2011-03-23,17.6011
2011-03-24,17.9587
2011-03-25,18.0183
2011-03-28,17.8395
2011-03-29,18.0779
2011-03-30,17.9289
2011-03-31,18.4256
2011-04-01,18.3262
2011-04-04,18.2368
2011-04-05,18.2368
2011-04-06,18.2567
2011-04-07,18.1375
2011-04-08,18.0779
2011-04-11,18.3163
2011-04-12,18.1474
2011-04-13,18.207
2011-04-14,18.3262
2011-04-15,18.4156
2011-04-18,18.0878
2011-04-19,18.0084
2011-04-20,18.8229
2011-04-21,18.9023
2011-04-25,19.0414
2011-04-26,19.2202
2011-04-27,19.5976
2011-04-28,19.548
2011-04-29,19.5082
2011-05-02,19.4188
2011-05-03,19.4685
2011-05-04,19.4188
2011-05-05,19.1308
2011-05-06,19.2897
2011-05-09,19.2798
2011-05-10,19.4188
2011-05-11,19.2798
2011-05-12,20.283
2011-05-13,19.9354
2011-05-16,19.5678
2011-05-17,19.5182
2011-05-18,19.548
2011-05-19,19.4586
2011-05-20,19.3195
2011-05-23,18.8924
2011-05-24,18.7831
2011-05-25,18.8328
2011-05-26,19.1904
2011-05-27,19.0911
2011-05-31,19.3891
2011-06-01,18.9321
2011-06-02,18.6739
2011-06-03,18.3858
2011-06-06,18.3064
2011-06-07,18.6044
2011-06-08,18.7633
2011-06-09,18.7335
2011-06-10,18.366
2011-06-13,18.3163
2011-06-14,18.5348
2011-06-15,18.4156
2011-06-16,18.4752
2011-06-17,18.4256
2011-06-20,18.6739
2011-06-21,18.952
2011-06-22,18.7335
2011-06-23,18.8129
2011-06-24,18.6342
2011-06-27,18.9023
2011-06-28,19.3791
2011-06-29,19.399
2011-06-30,19.5877
2011-07-01,19.697
2011-07-05,19.6473
2011-07-06,19.6473
2011-07-07,19.7268
2011-07-08,19.5778
2011-07-11,19.2301
2011-07-12,19.1109
2011-07-13,19.1606
2011-07-14,18.8626
2011-07-15,18.8129
2011-07-18,18.7235
2011-07-19,19.3195
2011-07-20,18.7434
2011-07-21,18.9023
2011-07-22,18.9123
2011-07-25,18.9719
2011-07-26,18.9321
2011-07-27,18.3064
2011-07-28,19.3593
2011-07-29,18.9619
2011-08-01,18.9123
2011-08-02,18.3958
2011-08-03,18.1574
2011-08-04,17.0151
2011-08-05,17.0052
2011-08-08,15.9225
2011-08-09,16.7767
2011-08-10,15.8629
2011-08-11,16.5979
2011-08-12,16.6674
2011-08-15,16.876
2011-08-16,16.8065
2011-08-17,16.6575
2011-08-18,15.7039
2011-08-19,15.3066
2011-08-22,15.5251
2011-08-23,16.0913
2011-08-24,16.2503
2011-08-25,15.843
2011-08-26,16.2602
2011-08-29,16.737
2011-08-30,16.876
2011-08-31,17.0151
2011-09-01,16.8363
2011-09-02,16.2602
2011-09-06,15.992
2011-09-07,16.588
2011-09-08,16.3893
2011-09-09,15.9622
2011-09-12,16.1311
2011-09-13,16.2403
2011-09-14,16.7668
2011-09-15,17.2137
2011-09-16,17.4025
2011-09-19,17.2833
2011-09-20,17.2733
2011-09-21,16.9356
2011-09-22,15.9721
2011-09-23,16.2503
2011-09-26,16.7469
2011-09-27,17.035
2011-09-28,16.7668
2011-09-29,16.7668
2011-09-30,16.2304
2011-10-03,15.6642
2011-10-04,16.0516
2011-10-05,16.4688
2011-10-06,17.025
2011-10-07,16.9456
2011-10-10,17.4819
2011-10-11,17.6508
2011-10-12,17.4919
2011-10-13,17.6607
2011-10-14,17.8594
2011-10-17,17.4621
2011-10-18,18.0084
2011-10-19,17.8693
2011-10-20,17.8494
2011-10-21,18.2766
2011-10-24,18.515
2011-10-25,18.3759
2011-10-26,18.3163
2011-10-27,17.5713
2011-10-28,17.8494
2011-10-31,16.9158
2011-11-01,16.3297
2011-11-02,16.3992
2011-11-03,16.9158
2011-11-04,16.8562
2011-11-07,16.9952
2011-11-08,17.4025
2011-11-09,16.4688
2011-11-10,16.5979
2011-11-11,17.0052
2011-11-14,16.8164
2011-11-15,17.0846
2011-11-16,16.5383
2011-11-17,16.0119
2011-11-18,16.0814
2011-11-21,15.7437
2011-11-22,15.7337
2011-11-23,15.4755
2011-11-25,15.3265
2011-11-28,15.9523
2011-11-29,15.5152
2011-11-30,16.2602
2011-12-01,16.1311
2011-12-02,16.0218
2011-12-05,16.3893
2011-12-06,16.0715
2011-12-07,16.0913
2011-12-08,15.5847
2011-12-09,16.0913
2011-12-12,15.7337
2011-12-13,15.5351
2011-12-14,15.2768
2011-12-15,15.247
2011-12-16,15.3563
2011-12-19,15.1874
2011-12-20,15.5152
2011-12-21,15.0384
2011-12-22,15.4457
2011-12-23,15.6841
2011-12-27,15.7635
2011-12-28,15.5251
2011-12-29,15.5947
2011-12-30,15.5649
2012-01-03,15.6543
2012-01-04,15.6344
2012-01-05,15.7039
2012-01-06,15.6741
2012-01-09,15.5649
2012-01-10,15.7933
2012-01-11,16.1211
2012-01-12,15.9721
2012-01-13,15.7834
2012-01-17,16.1907
2012-01-18,16.439
2012-01-19,16.4986
2012-01-20,16.6674
2012-01-23,16.6674
2012-01-24,16.737
2012-01-25,16.9356
2012-01-26,16.7767
2012-01-27,16.9952
2012-01-30,16.9058
2012-01-31,17.0747
2012-02-01,17.323
2012-02-02,17.3329
2012-02-03,17.5316
2012-02-06,17.4025
2012-02-07,17.5018
2012-02-08,17.6309
2012-02-09,17.919
2012-02-10,17.6508
2012-02-13,17.7998
2012-02-14,17.7899
2012-02-15,17.8097
2012-02-16,18.0084
2012-02-17,17.8494
2012-02-21,17.8197
2012-02-22,17.7501
2012-02-23,17.7899
2012-02-24,17.77
2012-02-27,17.7998
2012-02-28,17.8097
2012-02-29,17.7203
2012-03-01,17.7799
2012-03-02,17.6111
2012-03-05,17.3925
2012-03-06,16.9952
2012-03-07,17.1641
2012-03-08,17.4521
2012-03-09,17.6011
2012-03-12,17.6806
2012-03-13,18.068
2012-03-14,17.7303
2012-03-15,18.0779
2012-03-16,18.0282
2012-03-19,18.1971
2012-03-20,18.1673
2012-03-21,18.058
2012-03-22,18.058
2012-03-23,18.0978
2012-03-26,18.5249
2012-03-27,18.4554
2012-03-28,18.2368
2012-03-29,18.2964
2012-03-30,18.5845
2012-04-02,18.6838
2012-04-03,18.3858
2012-04-04,18.0779
2012-04-05,18.1971
2012-04-09,17.8594
2012-04-10,17.4521
2012-04-11,17.8594
2012-04-12,18.1574
2012-04-13,17.9786
2012-04-16,18.0779
2012-04-17,18.3163
2012-04-18,18.058
2012-04-19,17.9885
2012-04-20,18.0183
2012-04-23,17.9587
2012-04-24,15.8827
2012-04-25,16.1807
2012-04-26,16.3595
2012-04-27,16.3694
2012-04-30,16.4191
2012-05-01,16.3297
2012-05-02,16.2701
2012-05-03,16.1311
2012-05-04,15.7238
2012-05-07,15.843
2012-05-08,15.7139
2012-05-09,15.7039
2012-05-10,15.396
2012-05-11,15.3563
2012-05-14,15.1378
2012-05-15,15.257
2012-05-16,14.9391
2012-05-17,14.7802
2012-05-18,14.6411
2012-05-21,14.9192
2012-05-22,14.8994
2012-05-23,14.9391
2012-05-24,14.8298
2012-05-25,14.9788
2012-05-29,15.0384
2012-05-30,14.7206
2012-05-31,14.7504
2012-06-01,14.3034
2012-06-04,14.3332
2012-06-05,14.4723
2012-06-06,14.6511
2012-06-07,14.3829
2012-06-08,14.4822
2012-06-11,14.214
2012-06-12,14.4723
2012-06-13,14.1941
2012-06-14,14.4623
2012-06-15,14.661
2012-06-18,14.6709
2012-06-19,14.8497
2012-06-20,14.9192
2012-06-21,14.3133
2012-06-22,14.4127
2012-06-25,13.9259
2012-06-26,13.9955
2012-06-27,14.0749
2012-06-28,13.7869
2012-06-29,14.4921
2012-07-02,14.4127
2012-07-03,14.7106
2012-07-05,14.6213
2012-07-06,14.0153
2012-07-09,13.8366
2012-07-10,13.7273
2012-07-11,13.6379
2012-07-12,13.1909
2012-07-13,13.3498
2012-07-16,13.2306
2012-07-17,13.3498
2012-07-18,13.4889
2012-07-19,13.7571
2012-07-20,13.469
2012-07-23,13.3399
2012-07-24,13.0916
2012-07-25,14.8398
2012-07-26,15.2768
2012-07-27,15.8033
2012-07-30,15.3464
2012-07-31,15.6642
2012-08-01,15.9026
2012-08-02,16.2006
2012-08-03,16.6476
2012-08-06,16.7668
2012-08-07,17.035
2012-08-08,16.9853
2012-08-09,16.886
2012-08-10,17.1541
2012-08-13,17.0747
2012-08-14,17.0747
2012-08-15,17.5713
2012-08-16,17.909
2012-08-17,17.8892
2012-08-20,17.7303
2012-08-21,17.8693
2012-08-22,17.7303
2012-08-23,17.6309
2012-08-24,17.5813
2012-08-27,17.5117
2012-08-28,17.6508
2012-08-29,17.7203
2012-08-30,17.5614
2012-08-31,17.7601
2012-09-04,17.77
2012-09-05,17.8097
2012-09-06,18.8229
2012-09-07,18.7732
2012-09-10,18.8427
2012-09-11,18.8924
2012-09-12,18.9421
2012-09-13,19.0712
2012-09-14,19.0116
2012-09-17,18.9719
2012-09-18,18.8527
2012-09-19,18.8328
2012-09-20,18.7434
2012-09-21,18.4057
2012-09-24,18.1276
2012-09-25,17.9488
2012-09-26,17.9289
2012-09-27,18.0878
2012-09-28,17.8594
2012-10-01,17.6508
2012-10-02,17.7998
2012-10-03,17.7998
2012-10-04,17.8991
2012-10-05,17.909
2012-10-08,17.6409
2012-10-09,17.5316
2012-10-10,17.5614
2012-10-11,17.8296
2012-10-12,17.7601
2012-10-15,17.8494
2012-10-16,18.217
2012-10-17,17.7303
2012-10-18,17.6309
2012-10-19,17.323
2012-10-22,17.2038
2012-10-23,17.2833
2012-10-24,17.2634
2012-10-25,18.4256
2012-10-26,18.2567
2012-10-31,18.068
2012-11-01,18.5746
2012-11-02,18.6739
2012-11-05,18.5845
2012-11-06,18.7235
2012-11-07,18.1176
2012-11-08,17.8494
2012-11-09,17.8494
2012-11-12,17.8395
2012-11-13,17.6806
2012-11-14,17.3925
2012-11-15,17.472
2012-11-16,17.8792
2012-11-19,18.068
2012-11-20,17.8792
2012-11-21,18.0878
2012-11-23,18.0878
2012-11-26,18.1772
2012-11-27,17.8991
2012-11-28,18.1077
2012-11-29,18.4951
2012-11-30,18.6838
2012-12-03,18.505
2012-12-04,18.5348
2012-12-05,18.7136
2012-12-06,18.7136
2012-12-07,18.8229
2012-12-10,18.6044
2012-12-11,18.9719
2012-12-12,18.6044
2012-12-13,18.4256
2012-12-14,18.5348
2012-12-17,18.3858
2012-12-18,18.6739
2012-12-19,18.4852
2012-12-20,18.515
2012-12-21,18.4156
2012-12-24,18.2964
2012-12-26,18.1772
2012-12-27,18.1375
2012-12-28,18.068
2012-12-31,18.6639
2013-01-02,19.3493
2013-01-03,19.2599
2013-01-04,19.4685
2013-01-07,19.5082
2013-01-08,19.2798
2013-01-09,19.3791
2013-01-10,19.8162
2013-01-11,19.8062
2013-01-14,19.7665
2013-01-15,20.6803
2013-01-16,20.5611
2013-01-17,20.73
2013-01-18,20.5413
2013-01-22,20.6903
2013-01-23,21.2366
2013-01-24,21.5445
2013-01-25,21.9319
2013-01-28,21.773
2013-01-29,21.7829
2013-01-30,21.8226
2013-01-31,21.6339
2013-02-01,21.9617
2013-02-04,21.4948
2013-02-05,22.0014
2013-02-06,22.1206
2013-02-07,22.0709
2013-02-08,22.4285
2013-02-11,22.4782
2013-02-12,22.5279
2013-02-13,22.4683
2013-02-14,22.4981
2013-02-15,22.3689
2013-02-19,22.4385
2013-02-20,22.4186
2013-02-21,22.1603
2013-02-22,22.7762
2013-02-25,22.3193
2013-02-26,22.3093
2013-02-27,23.0742
2013-02-28,23.3225
2013-03-01,23.4913
2013-03-04,23.7993
2013-03-05,24.0079
2013-03-06,24.3654
2013-03-07,24.4946
2013-03-08,24.4151
2013-03-11,24.3456
2013-03-12,24.276
2013-03-13,24.3754
2013-03-14,24.5244
2013-03-15,24.3853
2013-03-18,24.3456
2013-03-19,24.0575
2013-03-20,24.3456
2013-03-21,24.2462
2013-03-22,24.435
2013-03-25,24.425
2013-03-26,24.3853
2013-03-27,24.3555
2013-03-28,24.5144
2013-04-01,24.2959
2013-04-02,24.4846
2013-04-03,24.3058
2013-04-04,24.3456
2013-04-05,24.1569
2013-04-08,24.0973
2013-04-09,24.0377
2013-04-10,24.276
2013-04-11,24.1569
2013-04-12,24.0675
2013-04-15,23.8191
2013-04-16,23.9979
2013-04-17,23.6602
2013-04-18,23.392
2013-04-19,23.4119
2013-04-22,23.5112
2013-04-23,23.9979
2013-04-24,24.1867
2013-04-25,24.2661
2013-04-26,24.2661
2013-04-29,24.435
2013-04-30,24.137
2013-05-01,24.1767
2013-05-02,24.3952
2013-05-03,24.6634
2013-05-06,24.7628
2013-05-07,24.9316
2013-05-08,24.3356
2013-05-09,24.1867
2013-05-10,24.1767
2013-05-13,24.0476
2013-05-14,24.3456
2013-05-15,24.5244
2013-05-16,24.1469
2013-05-17,24.1271
2013-05-20,23.9681
2013-05-21,23.8688
2013-05-22,23.4317
2013-05-23,22.8954
2013-05-24,22.6868
2013-05-28,22.7662
2013-05-29,22.7265
2013-05-30,22.806
2013-05-31,22.2597
2013-06-03,22.2001
2013-06-04,21.773
2013-06-05,21.475
2013-06-06,21.7233
2013-06-07,22.061
2013-06-10,22.1107
2013-06-11,21.8723
2013-06-12,22.0213
2013-06-13,22.3491
2013-06-14,22.2199
2013-06-17,22.32
2013-06-18,22.73
2013-06-19,22.73
2013-06-20,22.4
2013-06-21,22.25
2013-06-24,22.02
2013-06-25,22.1
2013-06-26,22.51
2013-06-27,22.49
2013-06-28,22.5
2013-07-01,22.48
2013-07-02,22.45
2013-07-03,22.36
2013-07-05,23.02
2013-07-08,22.78
2013-07-09,22.86
2013-07-10,23.11
2013-07-11,23.64
2013-07-12,23.81
2013-07-15,23.93
2013-07-16,23.98
2013-07-17,24.22
2013-07-18,24.28
2013-07-19,24.0
2013-07-22,24.02
2013-07-23,23.9
2013-07-24,24.13
2013-07-25,24.23
2013-07-26,24.26
2013-07-29,24.04
2013-07-30,24.37
2013-07-31,26.67
2013-08-01,26.68
2013-08-02,26.51
2013-08-05,26.66
2013-08-06,26.65
2013-08-07,26.74
2013-08-08,26.85
2013-08-09,26.82
