date,close_price
1998-01-02,20.4481
1998-01-05,20.5355
1998-01-06,20.3559
1998-01-07,20.4142
1998-01-08,20.0841
1998-01-09,19.0212
1998-01-12,19.4143
1998-01-13,19.7492
1998-01-14,20.1132
1998-01-15,20.3559
1998-01-16,20.3559
1998-01-20,20.7199
1998-01-21,20.8121
1998-01-22,20.4481
1998-01-23,20.2346
1998-01-26,20.1715
1998-01-27,20.5355
1998-01-28,20.4142
1998-01-29,20.5695
1998-01-30,20.2055
1998-02-02,20.5986
1998-02-03,20.6908
1998-02-04,20.6908
1998-02-05,20.3268
1998-02-06,20.4142
1998-02-09,20.7782
1998-02-10,20.6277
1998-02-11,20.385
1998-02-12,20.1132
1998-02-13,20.1715
1998-02-17,19.8997
1998-02-18,19.7201
1998-02-19,20.2346
1998-02-20,20.8704
1998-02-23,20.9917
1998-02-24,21.5693
1998-02-25,22.3896
1998-02-26,22.6905
1998-02-27,22.5691
1998-03-02,22.904
1998-03-03,22.5691
1998-03-04,22.3265
1998-03-05,22.0255
1998-03-06,22.2682
1998-03-09,22.2973
1998-03-10,22.2973
1998-03-11,22.2973
1998-03-12,22.2682
1998-03-13,21.9624
1998-03-16,21.9624
1998-03-17,22.7827
1998-03-18,22.9623
1998-03-19,22.9623
1998-03-20,23.1176
1998-03-23,22.4478
1998-03-24,22.2973
1998-03-25,22.7196
1998-03-26,22.3556
1998-03-27,22.4478
1998-03-30,22.176
1998-03-31,22.2682
1998-04-01,22.2051
1998-04-02,22.4769
1998-04-03,23.1176
1998-04-06,23.603
1998-04-07,23.004
1998-04-08,22.9748
1998-04-09,22.9748
1998-04-13,23.2183
1998-04-14,23.4617
1998-04-15,23.5834
1998-04-16,23.6418
1998-04-17,24.0995
1998-04-20,23.34
1998-04-21,23.856
1998-04-22,23.5542
1998-04-23,23.2183
1998-04-24,22.7898
1998-04-27,22.0936
1998-04-28,21.5142
1998-04-29,21.4217
1998-04-30,21.7285
1998-05-01,22.0936
1998-05-04,22.1812
1998-05-05,21.9719
1998-05-06,21.636
1998-05-07,21.3
1998-05-08,21.3
1998-05-11,20.9349
1998-05-12,20.8132
1998-05-13,20.8765
1998-05-14,21.8794
1998-05-15,21.5435
1998-05-18,21.2708
1998-05-19,21.8794
1998-05-20,21.9719
1998-05-21,21.7869
1998-05-22,21.9719
1998-05-26,21.636
1998-05-27,20.9982
1998-05-28,20.9349
1998-05-29,20.9057
1998-06-01,20.5113
1998-06-02,21.1783
1998-06-03,21.1199
1998-06-04,20.9349
1998-06-05,20.9349
1998-06-08,20.9641
1998-06-09,21.1491
1998-06-10,21.2416
1998-06-11,20.7548
1998-06-12,20.4772
1998-06-15,19.9904
1998-06-16,19.781
1998-06-17,19.9028
1998-06-18,20.2046
1998-06-19,20.448
1998-06-22,20.633
1998-06-23,21.0566
1998-06-24,21.1199
1998-06-25,21.4217
1998-06-26,21.7577
1998-06-29,21.8794
1998-06-30,22.2737
1998-07-01,22.7898
1998-07-02,22.488
1998-07-06,22.2445
1998-07-07,22.2153
1998-07-08,22.2546
1998-07-09,22.2253
1998-07-10,22.1032
1998-07-13,21.8297
1998-07-14,22.0739
1998-07-15,21.9518
1998-07-16,22.5917
1998-07-17,22.4109
1998-07-20,22.0446
1998-07-21,21.5561
1998-07-22,21.6782
1998-07-23,21.1263
1998-07-24,21.5561
1998-07-27,21.7368
1998-07-28,21.3705
1998-07-29,21.644
1998-07-30,21.6147
1998-07-31,21.3998
1998-08-03,21.1556
1998-08-04,20.0907
1998-08-05,20.1493
1998-08-06,19.9051
1998-08-07,19.9051
1998-08-10,19.7537
1998-08-11,19.5094
1998-08-12,19.4801
1998-08-13,19.6022
1998-08-14,19.2945
1998-08-17,19.6609
1998-08-18,19.783
1998-08-19,19.9979
1998-08-20,19.6902
1998-08-21,19.2652
1998-08-24,19.021
1998-08-25,19.4459
1998-08-26,19.2652
1998-08-27,18.3811
1998-08-28,18.3176
1998-08-31,17.4627
1998-09-01,17.7363
1998-09-02,18.0733
1998-09-03,17.8926
1998-09-04,18.0733
1998-09-08,18.1368
1998-09-09,18.1026
1998-09-10,18.1368
1998-09-11,18.259
1998-09-14,18.259
1998-09-15,18.3176
1998-09-16,18.469
1998-09-17,18.259
1998-09-18,18.3176
1998-09-21,18.1954
1998-09-22,18.259
1998-09-23,18.5911
1998-09-24,18.1368
1998-09-25,18.0733
1998-09-28,18.044
1998-09-29,17.6777
1998-09-30,17.4627
1998-10-01,16.73
1998-10-02,17.2185
1998-10-05,16.9157
1998-10-06,17.2185
1998-10-07,16.7594
1998-10-08,16.1195
1998-10-09,16.8522
1998-10-12,17.2185
1998-10-13,17.0964
1998-10-14,17.4627
1998-10-15,18.2248
1998-10-16,18.5325
1998-10-19,19.0796
1998-10-20,20.0272
1998-10-21,19.6303
1998-10-22,19.3265
1998-10-23,19.5421
1998-10-26,18.9884
1998-10-27,19.8753
1998-10-28,19.7528
1998-10-29,20.3065
1998-10-30,21.2229
1998-11-02,21.561
1998-11-03,21.2866
1998-11-04,21.7129
1998-11-05,22.051
1998-11-06,21.4385
1998-11-09,22.0144
1998-11-10,21.2665
1998-11-11,20.8383
1998-11-12,20.804
1998-11-13,20.7298
1998-11-16,21.6261
1998-11-17,21.6604
1998-11-18,21.7289
1998-11-19,21.8374
1998-11-20,22.2656
1998-11-23,22.768
1998-11-24,22.551
1998-11-25,22.1571
1998-11-27,21.9801
1998-11-30,21.7289
1998-12-01,21.6261
1998-12-02,21.5177
1998-12-03,21.4092
1998-12-04,21.8716
1998-12-07,21.8716
1998-12-08,21.6261
1998-12-09,21.4092
1998-12-10,21.0153
1998-12-11,20.7698
1998-12-14,19.9819
1998-12-15,19.411
1998-12-16,19.057
1998-12-17,19.7307
1998-12-18,19.628
1998-12-21,19.4453
1998-12-22,19.6965
1998-12-23,20.1246
1998-12-24,19.7307
1998-12-28,19.588
1998-12-29,19.9477
1998-12-30,19.8734
1998-12-31,20.1246
1999-01-04,20.8383
1999-01-05,20.4101
1999-01-06,20.3928
1999-01-07,20.1753
1999-01-08,19.9978
1999-01-11,19.3911
1999-01-12,19.6029
1999-01-13,19.4942
1999-01-14,19.4942
1999-01-15,19.7117
1999-01-19,19.5342
1999-01-20,19.3511
1999-01-21,19.0306
1999-01-22,18.8875
1999-01-25,18.9619
1999-01-26,18.8188
1999-01-27,18.5326
1999-01-28,18.7444
1999-01-29,18.7787
1999-02-01,18.1034
1999-02-02,17.9603
1999-02-03,19.1393
1999-02-04,19.105
1999-02-05,18.3495
1999-02-08,19.105
1999-02-09,18.4926
1999-02-10,18.2808
1999-02-11,18.8875
1999-02-12,18.4239
1999-02-16,18.7444
1999-02-17,18.5326
1999-02-18,19.0649
1999-02-19,19.4598
1999-02-22,19.8891
1999-02-23,19.7117
1999-02-24,19.208
1999-02-25,19.0306
1999-02-26,18.9619
1999-03-01,19.0306
1999-03-02,19.3511
1999-03-03,19.3911
1999-03-04,19.2824
1999-03-05,19.3511
1999-03-08,19.5342
1999-03-09,19.4255
1999-03-10,19.5686
1999-03-11,19.746
1999-03-12,19.4255
1999-03-15,19.7117
1999-03-16,19.4942
1999-03-17,19.3167
1999-03-18,19.2824
1999-03-19,19.3511
1999-03-22,19.4598
1999-03-23,19.0306
1999-03-24,19.2481
1999-03-25,19.1737
1999-03-26,18.8875
1999-03-29,18.8188
1999-03-30,17.9946
1999-03-31,18.1034
1999-04-01,18.567
1999-04-05,18.567
1999-04-06,18.029
1999-04-07,18.4422
1999-04-08,18.2987
1999-04-09,17.9027
1999-04-12,18.2586
1999-04-13,18.2241
1999-04-14,18.1897
1999-04-15,19.0507
1999-04-16,19.8026
1999-04-19,19.5902
1999-04-20,19.4467
1999-04-21,19.5902
1999-04-22,20.124
1999-04-23,20.6636
1999-04-26,20.1642
1999-04-27,19.8772
1999-04-28,19.837
1999-04-29,20.2675
1999-04-30,19.5902
1999-05-03,20.5947
1999-05-04,20.3766
1999-05-05,20.5201
1999-05-06,20.1986
1999-05-07,20.698
1999-05-10,20.1986
1999-05-11,20.6291
1999-05-12,21.381
1999-05-13,20.985
1999-05-14,20.3421
1999-05-17,19.8772
1999-05-18,19.8026
1999-05-19,19.7337
1999-05-20,19.6935
1999-05-21,19.9805
1999-05-24,19.263
1999-05-25,19.2286
1999-05-26,19.2286
1999-05-27,18.976
1999-05-28,19.1195
1999-06-01,19.0162
1999-06-02,19.0507
1999-06-03,18.976
1999-06-04,19.0162
1999-06-07,19.0162
1999-06-08,19.0507
1999-06-09,19.0162
1999-06-10,19.2286
1999-06-11,19.1942
1999-06-14,19.2286
1999-06-15,19.5156
1999-06-16,19.6935
1999-06-17,19.8026
1999-06-18,19.7337
1999-06-21,19.6591
1999-06-22,19.5902
1999-06-23,19.55
1999-06-24,19.1597
1999-06-25,19.0162
1999-06-28,19.1942
1999-06-29,19.4467
1999-06-30,19.5902
1999-07-01,19.7681
1999-07-02,20.0896
1999-07-06,19.9116
1999-07-07,20.1074
1999-07-08,19.9981
1999-07-09,20.2858
1999-07-12,20.7519
1999-07-13,20.8267
1999-07-14,20.7174
1999-07-15,20.539
1999-07-16,20.1074
1999-07-19,20.1074
1999-07-20,19.9635
1999-07-21,19.8542
1999-07-22,20.1074
1999-07-23,19.7851
1999-07-26,19.8542
1999-07-27,19.6758
1999-07-28,19.4226
1999-07-29,18.9564
1999-07-30,19.0255
1999-08-02,19.2442
1999-08-03,19.0255
1999-08-04,18.778
1999-08-05,18.9219
1999-08-06,18.7377
1999-08-09,18.8816
1999-08-10,18.4903
1999-08-11,18.6342
1999-08-12,18.5593
1999-08-13,18.7032
1999-08-16,18.8816
1999-08-17,18.991
1999-08-18,18.6342
1999-08-19,18.2025
1999-08-20,18.0932
1999-08-23,18.1277
1999-08-24,18.2025
1999-08-25,18.2025
1999-08-26,17.84
1999-08-27,17.5522
1999-08-30,17.5522
1999-08-31,16.9768
1999-09-01,17.2645
1999-09-02,16.9077
1999-09-03,17.7306
1999-09-07,17.3738
1999-09-08,17.1206
1999-09-09,17.0516
1999-09-10,16.8329
1999-09-13,16.7638
1999-09-14,16.4358
1999-09-15,16.4358
1999-09-16,16.2229
1999-09-17,16.3668
1999-09-20,15.9006
1999-09-21,15.1064
1999-09-22,14.7842
1999-09-23,14.9971
1999-09-24,14.6403
1999-09-27,14.3526
1999-09-28,14.1742
1999-09-29,14.7842
1999-09-30,14.8532
1999-10-01,14.8187
1999-10-04,14.9971
1999-10-05,15.141
1999-10-06,15.7357
1999-10-07,15.4124
1999-10-08,15.8801
1999-10-11,15.9898
1999-10-12,15.9552
1999-10-13,15.1929
1999-10-14,16.0245
1999-10-15,15.268
1999-10-18,15.5221
1999-10-19,15.5567
1999-10-20,15.2334
1999-10-21,15.0486
1999-10-22,17.7915
1999-10-25,16.8214
1999-10-26,16.677
1999-10-27,17.1794
1999-10-28,18.0109
1999-10-29,18.0456
1999-11-01,18.265
1999-11-02,18.5133
1999-11-03,18.1899
1999-11-04,18.623
1999-11-05,19.853
1999-11-08,19.957
1999-11-09,19.5643
1999-11-10,19.3795
1999-11-11,19.6336
1999-11-12,19.8126
1999-11-15,19.9223
1999-11-16,20.7885
1999-11-17,20.3554
1999-11-18,19.8126
1999-11-19,19.7433
1999-11-22,19.5989
1999-11-23,19.4199
1999-11-24,18.9868
1999-11-26,18.623
1999-11-29,18.2997
1999-11-30,18.369
1999-12-01,17.9359
1999-12-02,18.0109
1999-12-03,18.2997
1999-12-06,18.1899
1999-12-07,17.8666
1999-12-08,17.4335
1999-12-09,17.4335
1999-12-10,17.4681
1999-12-13,17.2891
1999-12-14,17.0004
1999-12-15,16.6366
1999-12-16,16.4229
1999-12-17,16.3478
1999-12-20,16.2035
1999-12-21,16.2439
1999-12-22,16.1342
1999-12-23,16.8214
1999-12-27,16.7116
1999-12-28,16.6019
1999-12-29,16.677
1999-12-30,16.7116
1999-12-31,16.7809
2000-01-03,16.3132
2000-01-04,16.0245
2000-01-05,16.0766
2000-01-06,16.1519
2000-01-07,16.3315
2000-01-10,16.1114
2000-01-11,16.1519
2000-01-12,16.0418
2000-01-13,16.2562
2000-01-14,15.8623
2000-01-18,14.9179
2000-01-19,14.1938
2000-01-20,13.7245
2000-01-21,13.5043
2000-01-24,13.6144
2000-01-25,13.5449
2000-01-26,13.7593
2000-01-27,13.8693
2000-01-28,13.3595
2000-01-31,14.1242
2000-02-01,13.0003
2000-02-02,13.4001
2000-02-03,13.5043
2000-02-04,13.3595
2000-02-07,13.3248
2000-02-08,12.925
2000-02-09,12.4557
2000-02-10,12.0966
2000-02-11,12.1661
2000-02-14,11.9112
2000-02-15,12.0966
2000-02-16,12.0212
2000-02-17,11.7663
2000-02-18,11.4419
2000-02-22,11.5867
2000-02-23,11.4071
2000-02-24,11.2276
2000-02-25,11.187
2000-02-28,11.2623
2000-02-29,11.552
2000-03-01,11.6968
2000-03-02,11.3724
2000-03-03,11.6621
2000-03-06,11.3724
2000-03-07,11.0827
2000-03-08,11.1175
2000-03-09,11.187
2000-03-10,11.1175
2000-03-13,11.0422
2000-03-14,11.0827
2000-03-15,11.6968
2000-03-16,13.1104
2000-03-17,13.0003
2000-03-20,13.0698
2000-03-21,13.6144
2000-03-22,13.4001
2000-03-23,13.7593
2000-03-24,13.8346
2000-03-27,13.3595
2000-03-28,13.1104
2000-03-29,13.2147
2000-03-30,13.6492
2000-03-31,13.794
2000-04-03,13.7245
2000-04-04,13.4696
2000-04-05,13.6672
2000-04-06,13.8475
2000-04-07,13.6323
2000-04-10,13.8126
2000-04-11,13.8475
2000-04-12,13.9231
2000-04-13,13.8882
2000-04-14,13.0507
2000-04-17,12.9751
2000-04-18,13.3415
2000-04-19,12.9053
2000-04-20,13.1205
2000-04-24,13.8475
2000-04-25,14.5047
2000-04-26,14.0685
2000-04-27,13.5974
2000-04-28,14.5745
2000-05-01,14.906
2000-05-02,14.3593
2000-05-03,14.0685
2000-05-04,13.9231
2000-05-05,13.7428
2000-05-08,14.1034
2000-05-09,14.0336
2000-05-10,13.6323
2000-05-11,13.5218
2000-05-12,14.0336
2000-05-15,14.4291
2000-05-16,14.6152
2000-05-17,14.6501
2000-05-18,14.906
2000-05-19,14.5745
2000-05-22,15.0106
2000-05-23,15.1968
2000-05-24,15.8132
2000-05-25,15.2317
2000-05-26,15.3422
2000-05-30,15.3422
2000-05-31,15.8481
2000-06-01,16.4646
2000-06-02,16.1389
2000-06-05,15.883
2000-06-06,15.9237
2000-06-07,16.2494
2000-06-08,15.7027
2000-06-09,15.8481
2000-06-12,15.6678
2000-06-13,15.9237
2000-06-14,15.8132
2000-06-15,15.2665
2000-06-16,15.0514
2000-06-19,15.0106
2000-06-20,14.2837
2000-06-21,14.4291
2000-06-22,14.2488
2000-06-23,14.5745
2000-06-26,14.5396
2000-06-27,14.8304
2000-06-28,14.8653
2000-06-29,14.9409
2000-06-30,14.3593
2000-07-03,14.8653
2000-07-05,14.7018
2000-07-06,14.9586
2000-07-07,15.2096
2000-07-10,14.9178
2000-07-11,15.0637
2000-07-12,15.3555
2000-07-13,15.1746
2000-07-14,15.5773
2000-07-17,14.7719
2000-07-18,14.626
2000-07-19,14.2991
2000-07-20,14.3341
2000-07-21,14.4801
2000-07-24,14.3341
2000-07-25,14.6668
2000-07-26,15.0287
2000-07-27,14.9937
2000-07-28,14.5909
2000-07-31,14.5909
2000-08-01,15.0637
2000-08-02,14.8828
2000-08-03,14.5559
2000-08-04,15.5423
2000-08-07,15.3555
2000-08-08,15.7232
2000-08-09,15.2096
2000-08-10,15.0287
2000-08-11,15.8341
2000-08-14,16.5636
2000-08-15,16.3769
2000-08-16,15.7582
2000-08-17,15.7232
2000-08-18,15.7932
2000-08-21,15.98
2000-08-22,16.1959
2000-08-23,16.05
2000-08-24,15.8341
2000-08-25,15.7582
2000-08-28,15.6882
2000-08-29,15.6882
2000-08-30,16.1259
2000-08-31,16.4177
2000-09-01,16.0851
2000-09-05,16.05
2000-09-06,16.3769
2000-09-07,16.1959
2000-09-08,16.7446
2000-09-11,16.6337
2000-09-12,16.6337
2000-09-13,17.1064
2000-09-14,16.7446
2000-09-15,16.4878
2000-09-18,15.7932
2000-09-19,16.0851
2000-09-20,16.05
2000-09-21,15.9391
2000-09-22,16.3419
2000-09-25,16.1259
2000-09-26,16.1959
2000-09-27,16.5228
2000-09-28,16.8146
2000-09-29,16.3769
2000-10-02,17.2173
2000-10-03,16.6687
2000-10-04,16.6687
2000-10-05,16.8146
2000-10-06,16.6857
2000-10-09,16.5393
2000-10-10,16.6506
2000-10-11,16.5744
2000-10-12,15.8426
2000-10-13,16.4691
2000-10-16,16.7208
2000-10-17,16.393
2000-10-18,16.1763
2000-10-19,16.8321
2000-10-20,17.0545
2000-10-23,16.7208
2000-10-24,17.6751
2000-10-25,18.4421
2000-10-26,18.4069
2000-10-27,18.4421
2000-10-30,19.8355
2000-10-31,19.6481
2000-11-01,19.7945
2000-11-02,19.8706
2000-11-03,19.209
2000-11-06,19.1388
2000-11-07,19.25
2000-11-08,19.3203
2000-11-09,19.9818
2000-11-10,19.8706
2000-11-13,19.6481
2000-11-14,20.017
2000-11-15,20.017
2000-11-16,21.2582
2000-11-17,22.5754
2000-11-20,21.8846
2000-11-21,22.031
2000-11-22,21.4045
2000-11-24,21.6972
2000-11-27,21.8436
2000-11-28,21.7734
2000-11-29,21.99
2000-11-30,22.2476
2000-12-01,22.2476
2000-12-04,22.3939
2000-12-05,22.7628
2000-12-06,23.0145
2000-12-07,23.5297
2000-12-08,23.9337
2000-12-11,23.9337
2000-12-12,23.5649
2000-12-13,23.3483
2000-12-14,22.4701
2000-12-15,22.3588
2000-12-18,22.8682
2000-12-19,22.2125
2000-12-20,21.8846
2000-12-21,22.5403
2000-12-22,22.2476
2000-12-26,21.8846
2000-12-27,21.8436
2000-12-28,22.5403
2000-12-29,22.5052
2001-01-02,21.5509
2001-01-03,21.99
2001-01-04,20.3448
2001-01-05,20.0334
2001-01-08,20.2506
2001-01-09,20.5089
2001-01-10,20.6909
2001-01-11,20.0687
2001-01-12,19.5521
2001-01-16,19.9924
2001-01-17,19.9219
2001-01-18,19.9571
2001-01-19,19.5169
2001-01-22,20.1039
2001-01-23,20.3622
2001-01-24,20.8376
2001-01-25,20.8728
2001-01-26,20.9491
2001-01-29,20.7613
2001-01-30,20.8904
2001-01-31,20.6322
2001-02-01,20.2448
2001-02-02,20.3211
2001-02-05,20.5265
2001-02-06,19.8221
2001-02-07,20.0217
2001-02-08,20.0863
2001-02-09,19.9513
2001-02-12,20.8141
2001-02-13,20.8317
2001-02-14,20.6556
2001-02-15,20.3035
2001-02-16,20.5148
2001-02-20,20.0687
2001-02-21,19.7223
2001-02-22,19.8691
2001-02-23,19.7576
2001-02-26,20.1156
2001-02-27,20.8317
2001-02-28,20.4385
2001-03-01,20.8083
2001-03-02,21.2954
2001-03-05,21.2485
2001-03-06,21.3717
2001-03-07,21.3365
2001-03-08,21.3072
2001-03-09,21.2485
2001-03-12,21.0489
2001-03-13,21.1135
2001-03-14,20.8376
2001-03-15,21.3659
2001-03-16,20.8963
2001-03-19,21.0489
2001-03-20,20.9843
2001-03-21,21.0137
2001-03-22,20.8669
2001-03-23,21.2074
2001-03-26,21.5713
2001-03-27,21.9294
2001-03-28,21.9881
2001-03-29,22.2287
2001-03-30,22.6924
2001-04-02,22.7453
2001-04-03,22.0879
2001-04-04,22.3056
2001-04-05,22.9057
2001-04-06,22.2467
2001-04-09,22.435
2001-04-10,22.7822
2001-04-11,22.5409
2001-04-12,22.7116
2001-04-16,22.7292
2001-04-17,23.3117
2001-04-18,23.4588
2001-04-19,22.1173
2001-04-20,21.929
2001-04-23,21.7054
2001-04-24,21.6937
2001-04-25,22.235
2001-04-26,22.3585
2001-04-27,22.3644
2001-04-30,22.2879
2001-05-01,22.3879
2001-05-02,21.9643
2001-05-03,21.7819
2001-05-04,21.9114
2001-05-07,21.6937
2001-05-08,21.8407
2001-05-09,21.6701
2001-05-10,21.6878
2001-05-11,21.7054
2001-05-14,21.5583
2001-05-15,21.8407
2001-05-16,21.8878
2001-05-17,21.729
2001-05-18,21.6113
2001-05-21,21.929
2001-05-22,22.0114
2001-05-23,21.9114
2001-05-24,22.0702
2001-05-25,22.0408
2001-05-29,22.335
2001-05-30,22.2114
2001-05-31,22.3409
2001-06-01,22.2997
2001-06-04,22.5174
2001-06-05,22.7704
2001-06-06,22.6704
2001-06-07,22.6586
2001-06-08,22.7292
2001-06-11,22.6998
2001-06-12,22.6998
2001-06-13,22.6998
2001-06-14,22.5762
2001-06-15,22.6704
2001-06-18,22.8998
2001-06-19,23.041
2001-06-20,23.2587
2001-06-21,23.5
2001-06-22,23.1352
2001-06-25,23.0881
2001-06-26,23.3588
2001-06-27,23.4823
2001-06-28,23.5588
2001-06-29,23.6588
2001-07-02,23.9354
2001-07-03,23.9
2001-07-05,24.0061
2001-07-06,23.6464
2001-07-09,23.6582
2001-07-10,23.5934
2001-07-11,23.5757
2001-07-12,23.9531
2001-07-13,24.13
2001-07-16,24.1771
2001-07-17,24.13
2001-07-18,24.1005
2001-07-19,24.1123
2001-07-20,23.6641
2001-07-23,23.3634
2001-07-24,23.4518
2001-07-25,23.7172
2001-07-26,23.7939
2001-07-27,23.9177
2001-07-30,23.8941
2001-07-31,24.4897
2001-08-01,24.5369
2001-08-02,24.4484
2001-08-03,24.4012
2001-08-06,24.0533
2001-08-07,24.2302
2001-08-08,24.4484
2001-08-09,24.3423
2001-08-10,24.6194
2001-08-13,24.7786
2001-08-14,24.8258
2001-08-15,24.9968
2001-08-16,25.1324
2001-08-17,25.0617
2001-08-20,25.1442
2001-08-21,25.215
2001-08-22,25.0322
2001-08-23,25.156
2001-08-24,25.445
2001-08-27,25.0322
2001-08-28,24.8258
2001-08-29,24.7315
2001-08-30,25.0204
2001-08-31,24.9143
2001-09-04,24.7668
2001-09-05,24.4012
2001-09-06,23.9884
2001-09-07,23.3044
2001-09-10,23.499
2001-09-17,22.5555
2001-09-18,22.2607
2001-09-19,21.5707
2001-09-20,21.1226
2001-09-21,20.9928
2001-09-24,21.9658
2001-09-25,22.0779
2001-09-26,22.072
2001-09-27,22.4789
2001-09-28,22.9919
2001-10-01,22.7973
2001-10-02,23.216
2001-10-03,23.6179
2001-10-04,23.5647
2001-10-05,23.1746
2001-10-08,22.5126
2001-10-09,22.7786
2001-10-10,23.2219
2001-10-11,23.0741
2001-10-12,23.0091
2001-10-15,23.0505
2001-10-16,23.1391
2001-10-17,22.8732
2001-10-18,22.6249
2001-10-19,22.5481
2001-10-22,23.1273
2001-10-23,22.7609
2001-10-24,21.8684
2001-10-25,22.2999
2001-10-26,22.7077
2001-10-29,22.3353
2001-10-30,22.1284
2001-10-31,21.8861
2001-11-01,22.223
2001-11-02,22.7963
2001-11-05,23.2928
2001-11-06,23.4228
2001-11-07,23.2396
2001-11-08,23.3933
2001-11-09,23.0682
2001-11-12,23.0446
2001-11-13,23.3105
2001-11-14,23.3401
2001-11-15,23.3283
2001-11-16,23.281
2001-11-19,23.3755
2001-11-20,23.4051
2001-11-21,23.2337
2001-11-23,23.3637
2001-11-26,23.2869
2001-11-27,23.2928
2001-11-28,23.2751
2001-11-29,23.411
2001-11-30,23.3874
2001-12-03,23.1332
2001-12-04,23.2928
2001-12-05,23.1509
2001-12-06,22.9323
2001-12-07,23.1096
2001-12-10,22.6249
2001-12-11,22.5658
2001-12-12,22.6367
2001-12-13,22.5717
2001-12-14,22.6604
2001-12-17,22.7727
2001-12-18,22.8672
2001-12-19,22.9677
2001-12-20,23.1155
2001-12-21,22.9973
2001-12-24,22.95
2001-12-26,22.9263
2001-12-27,22.8613
2001-12-28,22.9441
2001-12-31,23.2692
2002-01-02,22.8968
2002-01-03,22.8141
2002-01-04,23.0032
2002-01-07,22.7313
2002-01-08,22.6721
2002-01-09,22.7254
2002-01-10,22.838
2002-01-11,22.607
2002-01-14,22.4411
2002-01-15,22.7136
2002-01-16,22.4885
2002-01-17,22.5596
2002-01-18,22.4766
2002-01-22,22.3759
2002-01-23,22.5892
2002-01-24,22.6721
2002-01-25,22.7847
2002-01-28,22.2989
2002-01-29,21.8487
2002-01-30,22.0442
2002-01-31,22.4589
2002-02-01,22.4174
2002-02-04,22.0679
2002-02-05,21.9612
2002-02-06,21.8961
2002-02-07,21.9138
2002-02-08,22.1982
2002-02-11,22.2278
2002-02-12,22.1745
2002-02-13,22.7373
2002-02-14,22.8202
2002-02-15,22.7077
2002-02-19,22.607
2002-02-20,22.7491
2002-02-21,22.4589
2002-02-22,22.6307
2002-02-25,23.3475
2002-02-26,23.5134
2002-02-27,23.7385
2002-02-28,23.8037
2002-03-01,24.0762
2002-03-04,24.793
2002-03-05,24.639
2002-03-06,24.7338
2002-03-07,24.3783
2002-03-08,24.4139
2002-03-11,24.2243
2002-03-12,24.1532
2002-03-13,23.9636
2002-03-14,24.094
2002-03-15,24.2954
2002-03-18,24.1591
2002-03-19,24.1058
2002-03-20,23.9577
2002-03-21,23.9518
2002-03-22,23.7859
2002-03-25,23.5311
2002-03-26,23.4067
2002-03-27,23.8688
2002-03-28,23.8096
2002-04-01,23.5726
2002-04-02,23.7207
2002-04-03,23.7089
2002-04-04,23.7682
2002-04-05,24.1007
2002-04-08,24.0889
2002-04-09,24.3917
2002-04-10,24.7717
2002-04-11,24.4332
2002-04-12,24.6648
2002-04-15,24.3561
2002-04-16,24.5876
2002-04-17,24.7361
2002-04-18,24.3857
2002-04-19,24.5164
2002-04-22,24.4392
2002-04-23,24.0651
2002-04-24,24.3145
2002-04-25,24.0889
2002-04-26,24.1007
2002-04-29,24.1185
2002-04-30,24.2967
2002-05-01,24.4867
2002-05-02,24.3679
2002-05-03,24.3798
2002-05-06,24.1126
2002-05-07,23.9285
2002-05-08,24.1245
2002-05-09,23.9226
2002-05-10,23.792
2002-05-13,24.1423
2002-05-14,24.1126
2002-05-15,24.0592
2002-05-16,24.2254
2002-05-17,24.4689
2002-05-20,24.0414
2002-05-21,23.9998
2002-05-22,24.1067
2002-05-23,24.2136
2002-05-24,24.2136
2002-05-28,24.1185
2002-05-29,24.1839
2002-05-30,23.8929
2002-05-31,23.9642
2002-06-03,23.8335
2002-06-04,23.596
2002-06-05,24.071
2002-06-06,23.8335
2002-06-07,23.976
2002-06-10,24.0829
2002-06-11,23.4773
2002-06-12,23.4535
2002-06-13,22.9963
2002-06-14,23.0557
2002-06-17,23.4773
2002-06-18,23.3585
2002-06-19,23.1804
2002-06-20,22.9132
2002-06-21,22.836
2002-06-24,22.4976
2002-06-25,22.3313
2002-06-26,22.2482
2002-06-27,22.4679
2002-06-28,22.6282
2002-07-01,22.2898
2002-07-02,21.8792
2002-07-03,21.653
2002-07-05,22.2125
2002-07-08,22.0518
2002-07-09,21.4387
2002-07-10,20.7602
2002-07-11,21.0697
2002-07-12,20.9626
2002-07-15,20.9864
2002-07-16,20.7185
2002-07-17,20.4448
2002-07-18,19.7603
2002-07-19,19.5877
2002-07-22,18.6056
2002-07-23,18.5878
2002-07-24,19.3734
2002-07-25,19.2603
2002-07-26,19.7841
2002-07-29,21.2185
2002-07-30,21.1114
2002-07-31,21.5756
2002-08-01,21.0757
2002-08-02,20.6233
2002-08-05,20.0817
2002-08-06,20.3674
2002-08-07,20.6114
2002-08-08,21.2245
2002-08-09,21.5935
2002-08-12,21.5816
2002-08-13,21.0161
2002-08-14,21.8316
2002-08-15,21.8196
2002-08-16,21.7958
2002-08-19,22.1708
2002-08-20,22.0101
2002-08-21,22.1351
2002-08-22,22.516
2002-08-23,22.0518
2002-08-26,22.3196
2002-08-27,22.1589
2002-08-28,21.9149
2002-08-29,22.153
2002-08-30,22.1946
2002-09-03,21.534
2002-09-04,21.6054
2002-09-05,21.5935
2002-09-06,21.6768
2002-09-09,21.9744
2002-09-10,21.8673
2002-09-11,21.8673
2002-09-12,21.3018
2002-09-13,21.5697
2002-09-16,21.4268
2002-09-17,20.8495
2002-09-18,20.8376
2002-09-19,20.5102
2002-09-20,20.4269
2002-09-23,20.6471
2002-09-24,20.0103
2002-09-25,20.6709
2002-09-26,21.1887
2002-09-27,20.5162
2002-09-30,20.3852
2002-10-01,21.4863
2002-10-02,20.818
2002-10-03,20.3406
2002-10-04,19.5769
2002-10-07,19.2964
2002-10-08,20.3406
2002-10-09,19.3621
2002-10-10,20.4421
2002-10-11,20.7941
2002-10-14,20.7404
2002-10-15,21.5638
2002-10-16,21.3609
2002-10-17,21.8442
2002-10-18,21.6533
2002-10-21,20.9731
2002-10-22,21.17
2002-10-23,21.349
2002-10-24,21.5101
2002-10-25,21.8979
2002-10-28,21.7309
2002-10-29,21.3311
2002-10-30,21.3609
2002-10-31,21.3609
2002-11-01,21.4982
2002-11-04,21.8681
2002-11-05,21.8084
2002-11-06,22.0948
2002-11-07,21.5757
2002-11-08,21.5161
2002-11-11,21.2774
2002-11-12,21.3013
2002-11-13,21.4743
2002-11-14,21.9576
2002-11-15,22.1605
2002-11-18,21.6593
2002-11-19,21.9576
2002-11-20,22.2858
2002-11-21,22.6617
2002-11-22,22.5364
2002-11-25,22.2977
2002-11-26,21.7965
2002-11-27,22.417
2002-11-29,22.1605
2002-12-02,22.2858
2002-12-03,22.3991
2002-12-04,22.5244
2002-12-05,22.1963
2002-12-06,22.25
2002-12-09,21.8263
2002-12-10,22.2201
2002-12-11,22.5841
2002-12-12,22.2798
2002-12-13,22.3514
2002-12-16,22.3096
2002-12-17,22.3693
2002-12-18,22.0113
2002-12-19,21.7607
2002-12-20,21.9815
2002-12-23,21.9576
2002-12-24,21.9516
2002-12-26,22.1068
2002-12-27,21.7428
2002-12-30,21.9337
2002-12-31,21.8144
2003-01-02,22.3156
2003-01-03,22.2917
2003-01-06,22.6685
2003-01-07,22.4292
2003-01-08,22.3455
2003-01-09,22.7761
2003-01-10,22.5608
2003-01-13,22.7761
2003-01-14,23.0273
2003-01-15,22.7223
2003-01-16,22.5249
2003-01-17,22.5488
2003-01-21,22.2498
2003-01-22,22.0285
2003-01-23,22.0763
2003-01-24,21.55
2003-01-27,21.3765
2003-01-28,21.544
2003-01-29,21.6218
2003-01-30,21.0954
2003-01-31,21.4962
2003-02-03,21.4722
2003-02-04,21.0416
2003-02-05,21.1194
2003-02-06,20.7425
2003-02-07,21.3646
2003-02-10,21.2509
2003-02-11,20.9638
2003-02-12,20.6648
2003-02-13,20.7366
2003-02-14,21.2509
2003-02-18,21.5201
2003-02-19,21.4842
2003-02-20,21.5201
2003-02-21,21.8072
2003-02-24,21.5739
2003-02-25,21.55
2003-02-26,21.1074
2003-02-27,21.6277
2003-02-28,21.7115
2003-03-03,21.7294
2003-03-04,21.3466
2003-03-05,21.4543
2003-03-06,21.1732
2003-03-07,21.3466
2003-03-10,20.6947
2003-03-11,19.9949
2003-03-12,20.1145
2003-03-13,20.7485
2003-03-14,21.0356
2003-03-17,21.861
2003-03-18,21.8072
2003-03-19,21.9926
2003-03-20,21.9627
2003-03-21,22.4292
2003-03-24,21.6337
2003-03-25,21.9029
2003-03-26,21.8012
2003-03-27,21.6636
2003-03-28,21.5799
2003-03-31,21.4663
2003-04-01,21.8561
2003-04-02,22.1799
2003-04-03,22.114
2003-04-04,22.3718
2003-04-07,22.3598
2003-04-08,22.2879
2003-04-09,22.1619
2003-04-10,22.3298
2003-04-11,22.4977
2003-04-14,23.0374
2003-04-15,23.2293
2003-04-16,22.7796
2003-04-17,22.8935
2003-04-21,22.6836
2003-04-22,23.4391
2003-04-23,23.4152
2003-04-24,23.0854
2003-04-25,22.7556
2003-04-28,23.2892
2003-04-29,23.1753
2003-04-30,23.2113
2003-05-01,23.2712
2003-05-02,23.5171
2003-05-05,23.1933
2003-05-06,23.3972
2003-05-07,23.2533
2003-05-08,23.0614
2003-05-09,23.3072
2003-05-12,23.613
2003-05-13,23.5651
2003-05-14,23.4811
2003-05-15,23.4451
2003-05-16,23.4331
2003-05-19,23.1153
2003-05-20,22.5097
2003-05-21,22.5457
2003-05-22,22.4258
2003-05-23,22.3538
2003-05-27,22.6596
2003-05-28,22.8035
2003-05-29,22.4618
2003-05-30,23.2413
2003-06-02,23.3612
2003-06-03,22.8815
2003-06-04,23.0074
2003-06-05,23.0074
2003-06-06,23.2952
2003-06-09,22.8575
2003-06-10,22.9115
2003-06-11,23.3012
2003-06-12,23.2712
2003-06-13,23.0554
2003-06-16,23.5471
2003-06-17,23.3612
2003-06-18,23.1213
2003-06-19,22.7256
2003-06-20,22.6057
2003-06-23,22.3538
2003-06-24,22.4738
2003-06-25,22.1679
2003-06-26,22.3658
2003-06-27,22.054
2003-06-30,22.3598
2003-07-01,22.4801
2003-07-02,22.7446
2003-07-03,22.6424
2003-07-07,22.9069
2003-07-08,23.1713
2003-07-09,22.967
2003-07-10,22.7927
2003-07-11,23.0571
2003-07-14,23.2134
2003-07-15,23.3216
2003-07-16,23.2194
2003-07-17,23.3937
2003-07-18,23.532
2003-07-21,23.4779
2003-07-22,23.4118
2003-07-23,23.5019
2003-07-24,23.8325
2003-07-25,24.4937
2003-07-28,24.5177
2003-07-29,24.4456
2003-07-30,24.4757
2003-07-31,24.4336
2003-08-01,24.1511
2003-08-04,24.1631
2003-08-05,24.121
2003-08-06,24.1811
2003-08-07,24.2713
2003-08-08,24.4216
2003-08-11,24.2533
2003-08-12,24.7101
2003-08-13,24.3975
2003-08-14,24.6259
2003-08-15,24.5839
2003-08-18,24.7341
2003-08-19,24.7221
2003-08-20,24.686
2003-08-21,24.4276
2003-08-22,24.1691
2003-08-25,24.1691
2003-08-26,24.3554
2003-08-27,24.1451
2003-08-28,24.2292
2003-08-29,24.2773
2003-09-02,25.1489
2003-09-03,25.0347
2003-09-04,25.1368
2003-09-05,25.0888
2003-09-08,25.221
2003-09-09,25.2871
2003-09-10,25.1549
2003-09-11,25.0948
2003-09-12,25.1248
2003-09-15,25.1969
2003-09-16,25.1789
2003-09-17,24.8904
2003-09-18,25.0888
2003-09-19,25.0226
2003-09-22,24.8002
2003-09-23,24.9024
2003-09-24,24.7642
2003-09-25,24.5718
2003-09-26,24.4576
2003-09-29,24.5298
2003-09-30,24.4757
2003-10-01,25.0122
2003-10-02,25.0303
2003-10-03,25.1147
2003-10-06,25.2051
2003-10-07,25.3136
2003-10-08,25.2894
2003-10-09,25.199
2003-10-10,25.3136
2003-10-13,25.5968
2003-10-14,25.6812
2003-10-15,25.7957
2003-10-16,25.7113
2003-10-17,25.7113
2003-10-20,25.4341
2003-10-21,25.4341
2003-10-22,25.0062
2003-10-23,25.6571
2003-10-24,26.0006
2003-10-27,26.1935
2003-10-28,26.3864
2003-10-29,26.4707
2003-10-30,26.1814
2003-10-31,26.4225
2003-11-03,26.6696
2003-11-04,26.4165
2003-11-05,26.2477
2003-11-06,26.2477
2003-11-07,26.2839
2003-11-10,26.3201
2003-11-11,26.3623
2003-11-12,26.5551
2003-11-13,26.6757
2003-11-14,26.5913
2003-11-17,26.5431
2003-11-18,26.3442
2003-11-19,26.537
2003-11-20,26.3442
2003-11-21,26.3864
2003-11-24,26.3261
2003-11-25,26.5612
2003-11-26,26.6214
2003-11-28,26.5792
2003-12-01,26.9047
2003-12-02,26.8143
2003-12-03,26.8806
2003-12-04,26.8565
2003-12-05,26.7239
2003-12-08,26.8625
2003-12-09,26.6455
2003-12-10,26.6817
2003-12-11,27.0614
2003-12-12,27.1337
2003-12-15,26.6877
2003-12-16,27.0072
2003-12-17,26.9288
2003-12-18,27.0976
2003-12-19,27.1036
2003-12-22,26.9047
2003-12-23,26.9951
2003-12-24,26.977
2003-12-26,26.8806
2003-12-29,27.206
2003-12-30,27.3989
2003-12-31,27.4471
2004-01-02,27.423
2004-01-05,27.6162
2004-01-06,27.58
2004-01-07,27.5377
2004-01-08,27.5075
2004-01-09,27.5377
2004-01-12,27.4954
2004-01-13,27.2598
2004-01-14,27.4229
2004-01-15,27.3021
2004-01-16,27.4108
2004-01-20,27.6162
2004-01-21,28.1117
2004-01-22,28.2204
2004-01-23,28.299
2004-01-26,28.4621
2004-01-27,28.4017
2004-01-28,28.1419
2004-01-29,28.3715
2004-01-30,28.6252
2004-02-02,28.9333
2004-02-03,29.1387
2004-02-04,28.9273
2004-02-05,28.9635
2004-02-06,29.3019
2004-02-09,29.3985
2004-02-10,30.1356
2004-02-11,30.3954
2004-02-12,30.335
2004-02-13,30.2746
2004-02-17,30.921
2004-02-18,31.1808
2004-02-19,30.8485
2004-02-20,31.0116
2004-02-23,31.0781
2004-02-24,31.1929
2004-02-25,31.2775
2004-02-26,31.3621
2004-02-27,31.5373
2004-03-01,31.5614
2004-03-02,31.6641
2004-03-03,32.081
2004-03-04,32.0266
2004-03-05,31.9964
2004-03-08,32.1716
2004-03-09,32.1354
2004-03-10,31.5493
2004-03-11,31.0479
2004-03-12,31.5433
2004-03-15,31.3137
2004-03-16,31.7668
2004-03-17,32.1414
2004-03-18,32.1958
2004-03-19,31.9239
2004-03-22,31.8393
2004-03-23,31.785
2004-03-24,31.4285
2004-03-25,31.9662
2004-03-26,31.9783
2004-03-29,32.2018
2004-03-30,32.4254
2004-03-31,32.5646
2004-04-01,32.9279
2004-04-02,32.9945
2004-04-05,33.2306
2004-04-06,33.1882
2004-04-07,32.946
2004-04-08,32.94
2004-04-12,33.0126
2004-04-13,32.498
2004-04-14,32.2014
2004-04-15,32.0682
2004-04-16,32.2862
2004-04-19,31.7958
2004-04-20,31.2449
2004-04-21,31.0088
2004-04-22,31.0269
2004-04-23,31.1117
2004-04-26,30.815
2004-04-27,31.2509
2004-04-28,30.7969
2004-04-29,30.7787
2004-04-30,31.5233
2004-05-03,31.5718
2004-05-04,31.4931
2004-05-05,31.4991
2004-05-06,31.4144
2004-05-07,30.3065
2004-05-10,30.137
2004-05-11,29.9977
2004-05-12,30.8453
2004-05-13,31.1419
2004-05-14,31.3417
2004-05-17,31.0511
2004-05-18,31.3841
2004-05-19,31.1117
2004-05-20,30.93
2004-05-21,31.0572
2004-05-24,31.2993
2004-05-25,31.372
2004-05-26,31.6202
2004-05-27,32.2438
2004-05-28,32.8007
2004-06-01,32.8007
2004-06-02,33.1034
2004-06-03,32.7341
2004-06-04,32.8007
2004-06-07,33.0853
2004-06-08,33.2306
2004-06-09,32.6312
2004-06-10,32.716
2004-06-14,32.3346
2004-06-15,32.492
2004-06-16,32.2983
2004-06-17,32.383
2004-06-18,32.044
2004-06-21,32.0803
2004-06-22,32.1166
2004-06-23,32.3285
2004-06-24,32.2983
2004-06-25,32.1893
2004-06-28,32.2983
2004-06-29,32.4314
2004-06-30,32.668
2004-07-01,32.662
2004-07-02,32.4921
2004-07-06,32.2919
2004-07-07,32.6134
2004-07-08,32.6074
2004-07-09,32.6074
2004-07-12,32.6741
2004-07-13,32.4678
2004-07-14,32.2009
2004-07-15,31.7641
2004-07-16,31.5457
2004-07-19,31.6671
2004-07-20,31.6064
2004-07-21,31.6671
2004-07-22,31.5215
2004-07-23,31.2667
2004-07-26,30.6722
2004-07-27,31.0422
2004-07-28,31.3213
2004-07-29,31.7217
2004-07-30,31.7399
2004-08-02,31.8248
2004-08-03,31.9764
2004-08-04,31.7763
2004-08-05,31.3334
2004-08-06,30.7996
2004-08-09,30.5508
2004-08-10,30.8663
2004-08-11,30.6722
2004-08-12,30.6236
2004-08-13,30.654
2004-08-16,31.024
2004-08-17,30.9937
2004-08-18,31.4244
2004-08-19,31.2727
2004-08-20,31.3091
2004-08-23,31.1817
2004-08-24,31.1089
2004-08-25,31.2849
2004-08-26,31.4669
2004-08-27,31.4972
2004-08-30,31.3152
2004-08-31,31.2545
2004-09-01,31.1029
2004-09-02,31.3395
2004-09-03,31.4669
2004-09-07,31.843
2004-09-08,31.3941
2004-09-09,31.2363
2004-09-10,31.2788
2004-09-13,31.4608
2004-09-14,31.4911
2004-09-15,31.3516
2004-09-16,31.5518
2004-09-17,31.5821
2004-09-20,31.5033
2004-09-21,31.7945
2004-09-22,31.2667
2004-09-23,31.3152
2004-09-24,31.5275
2004-09-27,31.6246
2004-09-28,31.6731
2004-09-29,31.7641
2004-09-30,32.213
2004-10-01,32.9835
2004-10-04,32.874
2004-10-05,32.643
2004-10-06,32.9165
2004-10-07,32.8618
2004-10-08,32.6734
2004-10-11,32.2478
2004-10-12,32.0108
2004-10-13,31.9986
2004-10-14,31.5853
2004-10-15,31.3968
2004-10-18,31.4454
2004-10-19,30.5154
2004-10-20,30.6431
2004-10-21,30.1993
2004-10-22,30.7038
2004-10-25,31.0139
2004-10-26,31.7129
2004-10-27,32.7645
2004-10-28,32.8983
2004-10-29,32.8375
2004-11-01,32.88
2004-11-02,32.9104
2004-11-03,32.8983
2004-11-04,33.652
2004-11-05,33.6703
2004-11-08,33.4271
2004-11-09,33.3177
2004-11-10,33.725
2004-11-11,34.1627
2004-11-12,33.8344
2004-11-15,34.0411
2004-11-16,33.725
2004-11-17,34.0411
2004-11-18,34.035
2004-11-19,33.342
2004-11-22,33.7858
2004-11-23,33.804
2004-11-24,33.8283
2004-11-26,33.7675
2004-11-29,33.5122
2004-11-30,33.4271
2004-12-01,34.0046
2004-12-02,34.0107
2004-12-03,34.0593
2004-12-06,33.9013
2004-12-07,33.5061
2004-12-08,33.4879
2004-12-09,33.8405
2004-12-10,33.8587
2004-12-13,34.1748
2004-12-14,34.4788
2004-12-15,34.9529
2004-12-16,34.5335
2004-12-17,34.1079
2004-12-20,34.3146
2004-12-21,34.4909
2004-12-22,34.3633
2004-12-23,34.5274
2004-12-27,34.4727
2004-12-28,34.8252
2004-12-29,34.8009
2004-12-30,34.7584
2004-12-31,34.7523
2005-01-03,34.5453
2005-01-04,34.2346
2005-01-05,34.2346
2005-01-06,34.3504
2005-01-07,34.0824
2005-01-10,34.1372
2005-01-11,33.6987
2005-01-12,33.5464
2005-01-13,32.9983
2005-01-14,32.9617
2005-01-18,33.9545
2005-01-19,34.0763
2005-01-20,33.9606
2005-01-21,33.4611
2005-01-24,33.2175
2005-01-25,33.1323
2005-01-26,33.1262
2005-01-27,32.9556
2005-01-28,32.8277
2005-01-31,33.2175
2005-02-01,33.4063
2005-02-02,33.6195
2005-02-03,33.5525
2005-02-04,33.7352
2005-02-07,33.7352
2005-02-08,33.7657
2005-02-09,33.4368
2005-02-10,32.1091
2005-02-11,32.6877
2005-02-14,33.0165
2005-02-15,33.3759
2005-02-16,33.315
2005-02-17,32.913
2005-02-18,32.6755
2005-02-22,32.0664
2005-02-23,32.4197
2005-02-24,32.2979
2005-02-25,32.2796
2005-02-28,31.7619
2005-03-01,32.2857
2005-03-02,32.3831
2005-03-03,31.9812
2005-03-04,32.3892
2005-03-07,32.4623
2005-03-08,32.4684
2005-03-09,32.2735
2005-03-10,32.2126
2005-03-11,31.8411
2005-03-14,32.2857
2005-03-15,31.9568
2005-03-16,31.3965
2005-03-17,31.8472
2005-03-18,31.5548
2005-03-21,31.6766
2005-03-22,30.9701
2005-03-23,31.2868
2005-03-24,31.1589
2005-03-28,31.5975
2005-03-29,31.2016
2005-03-30,31.8058
2005-03-31,31.8486
2005-04-01,31.4091
2005-04-04,31.5678
2005-04-05,31.4823
2005-04-06,31.7692
2005-04-07,31.9401
2005-04-08,31.519
2005-04-11,31.757
2005-04-12,32.0561
2005-04-13,31.6532
2005-04-14,31.2626
2005-04-15,31.0734
2005-04-18,31.2138
2005-04-19,31.6044
2005-04-20,30.7926
2005-04-21,31.2321
2005-04-22,31.6166
2005-04-25,31.9706
2005-04-26,31.7692
2005-04-27,31.8974
2005-04-28,31.8608
2005-04-29,32.5932
2005-05-02,32.5566
2005-05-03,32.6847
2005-05-04,33.4355
2005-05-05,33.1547
2005-05-06,33.1608
2005-05-09,33.0204
2005-05-10,32.349
2005-05-11,32.6603
2005-05-12,32.2575
2005-05-13,31.7326
2005-05-16,32.2758
2005-05-17,32.5261
2005-05-18,32.2087
2005-05-19,32.1904
2005-05-20,32.1904
2005-05-23,32.1965
2005-05-24,32.2148
2005-05-25,32.1354
2005-05-26,32.288
2005-05-27,32.3002
2005-05-31,32.1965
2005-06-01,32.2636
2005-06-02,32.2026
2005-06-03,31.696
2005-06-06,31.7631
2005-06-07,31.7631
2005-06-08,31.7387
2005-06-09,32.05
2005-06-10,32.349
2005-06-13,32.4406
2005-06-14,32.7153
2005-06-15,32.8129
2005-06-16,32.8312
2005-06-17,32.8068
2005-06-20,32.6725
2005-06-21,32.5077
2005-06-22,32.4101
2005-06-23,32.1904
2005-06-24,32.0317
2005-06-27,32.0072
2005-06-28,32.4101
2005-06-29,32.0866
2005-06-30,31.8791
2005-07-01,32.032
2005-07-05,32.4296
2005-07-06,32.2522
2005-07-07,32.2583
2005-07-08,32.295
2005-07-11,32.4235
2005-07-12,32.4969
2005-07-13,32.344
2005-07-14,32.4602
2005-07-15,32.4357
2005-07-18,32.4235
2005-07-19,32.3256
2005-07-20,32.4235
2005-07-21,31.3531
2005-07-22,31.8057
2005-07-25,31.928
2005-07-26,31.9342
2005-07-27,32.1727
2005-07-28,32.2094
2005-07-29,32.0076
2005-08-01,31.7996
2005-08-02,31.8179
2005-08-03,32.0198
2005-08-04,31.5182
2005-08-05,31.2246
2005-08-08,31.298
2005-08-09,31.1879
2005-08-10,31.1574
2005-08-11,31.3409
2005-08-12,31.2675
2005-08-15,31.7078
2005-08-16,31.6528
2005-08-17,31.7996
2005-08-18,32.0198
2005-08-19,32.191
2005-08-22,32.3501
2005-08-23,32.2277
2005-08-24,32.1605
2005-08-25,32.2033
2005-08-26,32.1727
2005-08-29,32.5397
2005-08-30,32.2644
2005-08-31,32.2828
2005-09-01,32.2583
2005-09-02,32.2277
2005-09-06,32.2767
2005-09-07,32.3195
2005-09-08,32.2277
2005-09-09,32.2522
2005-09-12,32.4663
2005-09-13,32.2216
2005-09-14,32.2155
2005-09-15,32.2767
2005-09-16,32.3745
2005-09-19,32.3317
2005-09-20,32.2828
2005-09-21,31.9953
2005-09-22,32.1727
2005-09-23,32.2339
2005-09-26,32.2339
2005-09-27,32.1605
2005-09-28,32.24
2005-09-29,32.503
2005-09-30,32.3562
2005-10-03,32.1356
2005-10-04,31.9088
2005-10-05,31.9088
2005-10-06,31.9456
2005-10-07,32.2276
2005-10-10,32.1479
2005-10-11,31.8843
2005-10-12,31.9517
2005-10-13,31.8843
2005-10-14,32.1663
2005-10-17,32.1234
2005-10-18,32.1785
2005-10-19,33.006
2005-10-20,31.8537
2005-10-21,31.725
2005-10-24,32.3685
2005-10-25,31.9763
2005-10-26,31.9272
2005-10-27,31.9211
2005-10-28,32.1234
2005-10-31,32.3747
2005-11-01,32.2705
2005-11-02,32.485
2005-11-03,32.6566
2005-11-04,32.5218
2005-11-07,32.7485
2005-11-08,32.5524
2005-11-09,32.8037
2005-11-10,33.0795
2005-11-11,33.0734
2005-11-14,33.1715
2005-11-15,33.0366
2005-11-16,32.8405
2005-11-17,33.0979
2005-11-18,33.1102
2005-11-21,33.1531
2005-11-22,33.3982
2005-11-23,33.4534
2005-11-25,33.4841
2005-11-28,33.5883
2005-11-29,33.625
2005-11-30,33.1653
2005-12-01,33.4166
2005-12-02,33.3799
2005-12-05,33.386
2005-12-06,33.4534
2005-12-07,33.5453
2005-12-08,33.4166
2005-12-09,33.435
2005-12-12,33.5883
2005-12-13,34.0173
2005-12-14,34.2747
2005-12-15,34.005
2005-12-16,33.8028
2005-12-19,33.6495
2005-12-20,33.5576
2005-12-21,33.7599
2005-12-22,33.8763
2005-12-23,33.9131
2005-12-27,33.8028
2005-12-28,34.0479
2005-12-29,33.9683
2005-12-30,34.0602
2006-01-03,34.2505
2006-01-04,34.3119
2006-01-05,34.0724
2006-01-06,34.3058
2006-01-09,34.2751
2006-01-10,34.1646
2006-01-11,34.0049
2006-01-12,33.9128
2006-01-13,34.14
2006-01-17,33.7776
2006-01-18,33.9312
2006-01-19,33.9987
2006-01-20,33.3293
2006-01-23,33.6917
2006-01-24,33.8575
2006-01-25,33.8513
2006-01-26,34.3304
2006-01-27,34.1953
2006-01-30,34.2874
2006-01-31,34.3918
2006-02-01,34.5085
2006-02-02,33.9066
2006-02-03,34.269
2006-02-06,33.9926
2006-02-07,33.8329
2006-02-08,33.8882
2006-02-09,33.3355
2006-02-10,33.7899
2006-02-13,33.4214
2006-02-14,33.9373
2006-02-15,34.054
2006-02-16,33.9435
2006-02-17,33.7654
2006-02-21,33.6487
2006-02-22,34.1093
2006-02-23,33.5934
2006-02-24,33.7531
2006-02-27,33.7039
2006-02-28,33.5627
2006-03-01,33.6118
2006-03-02,33.6057
2006-03-03,33.9496
2006-03-06,33.9373
2006-03-07,34.0417
2006-03-08,34.0049
2006-03-09,34.183
2006-03-10,34.5637
2006-03-13,34.4409
2006-03-14,34.8708
2006-03-15,35.0551
2006-03-16,35.2209
2006-03-17,35.098
2006-03-20,35.098
2006-03-21,34.9691
2006-03-22,35.0243
2006-03-23,34.8708
2006-03-24,34.7971
2006-03-27,34.7664
2006-03-28,34.7848
2006-03-29,35.1902
2006-03-30,35.5095
2006-03-31,35.1165
2006-04-03,34.9936
2006-04-04,35.1103
2006-04-05,35.3687
2006-04-06,35.3748
2006-04-07,34.8211
2006-04-10,35.1287
2006-04-11,34.7226
2006-04-12,34.7841
2006-04-13,34.8211
2006-04-17,34.7226
2006-04-18,35.0672
2006-04-19,34.8887
2006-04-20,35.4118
2006-04-21,35.6702
2006-04-24,35.701
2006-04-25,35.664
2006-04-26,35.9102
2006-04-27,36.7716
2006-04-28,36.9993
2006-05-01,36.5932
2006-05-02,36.5747
2006-05-03,36.5932
2006-05-04,36.9562
2006-05-05,37.5285
2006-05-08,37.227
2006-05-09,37.1347
2006-05-10,37.2516
2006-05-11,37.2577
2006-05-12,36.9747
2006-05-15,37.3069
2006-05-16,37.0977
2006-05-17,36.4578
2006-05-18,36.5686
2006-05-19,36.5255
2006-05-22,36.4517
2006-05-23,36.2424
2006-05-24,36.347
2006-05-25,36.2424
2006-05-26,36.4147
2006-05-30,35.9594
2006-05-31,36.2363
2006-06-01,36.6055
2006-06-02,36.7347
2006-06-05,36.1317
2006-06-06,36.2486
2006-06-07,36.1686
2006-06-08,36.2732
2006-06-09,36.0025
2006-06-12,35.6825
2006-06-13,35.7133
2006-06-14,35.2948
2006-06-15,35.984
2006-06-16,35.9286
2006-06-19,35.9102
2006-06-20,36.064
2006-06-21,36.1871
2006-06-22,36.0763
2006-06-23,36.0517
2006-06-26,36.384
2006-06-27,36.2424
2006-06-28,36.5747
2006-06-29,37.1224
2006-06-30,37.3439
2006-07-03,37.7684
2006-07-05,37.639
2006-07-06,37.5896
2006-07-07,37.9226
2006-07-10,38.1261
2006-07-11,38.1508
2006-07-12,37.9226
2006-07-13,36.9175
2006-07-14,36.8127
2006-07-17,36.9422
2006-07-18,37.306
2006-07-19,37.3615
2006-07-20,38.2864
2006-07-21,38.2864
2006-07-24,38.0829
2006-07-25,37.8178
2006-07-26,37.4663
2006-07-27,37.4108
2006-07-28,37.528
2006-07-31,37.2998
2006-08-01,37.2566
2006-08-02,37.1888
2006-08-03,37.084
2006-08-04,37.0532
2006-08-07,37.2936
2006-08-08,37.269
2006-08-09,36.9113
2006-08-10,37.1518
2006-08-11,37.0285
2006-08-14,37.1395
2006-08-15,37.2875
2006-08-16,37.3676
2006-08-17,37.7376
2006-08-18,37.6636
2006-08-21,37.9103
2006-08-22,37.6945
2006-08-23,37.6883
2006-08-24,38.0521
2006-08-25,37.8486
2006-08-28,38.0028
2006-08-29,38.1816
2006-08-30,38.3789
2006-08-31,38.3049
2006-09-01,38.3604
2006-09-05,38.2371
2006-09-06,37.9843
2006-09-07,37.7808
2006-09-08,37.8979
2006-09-11,38.1199
2006-09-12,38.3727
2006-09-13,38.3789
2006-09-14,38.2124
2006-09-15,38.3912
2006-09-18,38.1508
2006-09-19,38.1569
2006-09-20,38.6749
2006-09-21,38.3851
2006-09-22,38.5392
2006-09-25,38.8784
2006-09-26,39.0264
2006-09-27,39.0387
2006-09-28,39.1127
2006-09-29,38.8784
2006-10-02,38.8599
2006-10-03,39.0695
2006-10-04,39.3661
2006-10-05,39.3846
2006-10-06,39.3846
2006-10-09,39.2672
2006-10-10,39.0942
2006-10-11,39.4093
2006-10-12,39.3228
2006-10-13,39.4402
2006-10-16,39.6503
2006-10-17,39.6009
2006-10-18,39.6689
2006-10-19,38.6926
2006-10-20,38.6493
2006-10-23,38.8471
2006-10-24,38.6617
2006-10-25,38.4269
2006-10-26,38.8594
2006-10-27,38.4331
2006-10-30,38.5196
2006-10-31,38.1179
2006-11-01,38.1488
2006-11-02,38.5319
2006-11-03,38.4392
2006-11-06,38.6679
2006-11-07,38.8285
2006-11-08,38.7358
2006-11-09,38.637
2006-11-10,38.9892
2006-11-13,39.051
2006-11-14,39.2672
2006-11-15,39.224
2006-11-16,39.4773
2006-11-17,39.4402
2006-11-20,39.3599
2006-11-21,39.1066
2006-11-22,39.1375
2006-11-24,39.0819
2006-11-27,38.6246
2006-11-28,38.5443
2006-11-29,38.8841
2006-11-30,38.9892
2006-12-01,38.8471
2006-12-04,39.5453
2006-12-05,39.4032
2006-12-06,39.4279
2006-12-07,39.2116
2006-12-08,39.2919
2006-12-11,39.4835
2006-12-12,39.3661
2006-12-13,39.3537
2006-12-14,39.3661
2006-12-15,39.5823
2006-12-18,39.5515
2006-12-19,39.4155
2006-12-20,39.4773
2006-12-21,39.3908
2006-12-22,39.3599
2006-12-26,39.5453
2006-12-27,39.638
2006-12-28,39.5885
2006-12-29,39.3846
2007-01-03,39.8923
2007-01-04,39.9109
2007-01-05,39.2917
2007-01-08,38.9326
2007-01-09,39.0626
2007-01-10,39.4094
2007-01-11,40.0595
2007-01-12,40.0966
2007-01-16,39.8056
2007-01-17,40.0347
2007-01-18,39.9604
2007-01-19,39.9914
2007-01-22,39.7747
2007-01-23,39.9542
2007-01-24,40.53
2007-01-25,39.7932
2007-01-26,39.6632
2007-01-29,39.979
2007-01-30,40.2452
2007-01-31,40.2638
2007-02-01,40.6725
2007-02-02,40.9139
2007-02-05,40.8892
2007-02-06,41.013
2007-02-07,41.3969
2007-02-08,40.0843
2007-02-09,40.0223
2007-02-12,39.8118
2007-02-13,40.1524
2007-02-14,40.2886
2007-02-15,40.3133
2007-02-16,40.3505
2007-02-20,40.4248
2007-02-21,40.2143
2007-02-22,40.4248
2007-02-23,40.2762
2007-02-26,40.0409
2007-02-27,39.2917
2007-02-28,39.5642
2007-03-01,39.7251
2007-03-02,39.5827
2007-03-05,39.3536
2007-03-06,39.3227
2007-03-07,39.1431
2007-03-08,39.4341
2007-03-09,39.7128
2007-03-12,39.8056
2007-03-13,38.9202
2007-03-14,39.0688
2007-03-15,39.4218
2007-03-16,39.1122
2007-03-19,39.4341
2007-03-20,39.7747
2007-03-21,40.2514
2007-03-22,40.0595
2007-03-23,40.3133
2007-03-26,40.4867
2007-03-27,40.301
2007-03-28,40.1028
2007-03-29,40.4929
2007-03-30,40.5672
2007-04-02,40.4743
2007-04-03,40.648
2007-04-04,40.5674
2007-04-05,40.6418
2007-04-09,40.4867
2007-04-10,40.3192
2007-04-11,40.0028
2007-04-12,40.1952
2007-04-13,40.22
2007-04-16,40.7225
2007-04-17,40.6729
2007-04-18,40.7287
2007-04-19,41.4483
2007-04-20,41.7151
2007-04-23,41.5352
2007-04-24,41.6531
2007-04-25,42.2052
2007-04-26,42.3169
2007-04-27,42.3851
2007-04-30,42.4038
2007-05-01,42.6457
2007-05-02,42.9001
2007-05-03,42.9559
2007-05-04,42.8008
2007-05-07,43.2165
2007-05-08,42.8939
2007-05-09,42.9001
2007-05-10,42.7139
2007-05-11,43.1172
2007-05-14,42.9063
2007-05-15,43.142
2007-05-16,43.3405
2007-05-17,43.2785
2007-05-18,43.3592
2007-05-21,43.2785
2007-05-22,43.2971
2007-05-23,43.2723
2007-05-24,42.9373
2007-05-25,43.0241
2007-05-29,43.2909
2007-05-30,43.5763
2007-05-31,43.4522
2007-06-01,43.6073
2007-06-04,43.4708
2007-06-05,43.2227
2007-06-06,42.6581
2007-06-07,42.0874
2007-06-08,42.4162
2007-06-11,42.534
2007-06-12,42.2487
2007-06-13,42.4596
2007-06-14,42.7264
2007-06-15,42.7884
2007-06-18,42.6271
2007-06-19,42.7822
2007-06-20,42.2859
2007-06-21,42.4224
2007-06-22,41.8764
2007-06-25,41.8144
2007-06-26,41.5414
2007-06-27,41.9198
2007-06-28,41.7958
2007-06-29,41.5352
2007-07-02,42.106
2007-07-03,42.2366
2007-07-05,41.9569
2007-07-06,41.9258
2007-07-09,41.9506
2007-07-10,41.1239
2007-07-11,41.6834
2007-07-12,42.2987
2007-07-13,42.3547
2007-07-16,42.1806
2007-07-17,41.7704
2007-07-18,41.3353
2007-07-19,41.4347
2007-07-20,40.6391
2007-07-23,40.9499
2007-07-24,40.1294
2007-07-25,40.1108
2007-07-26,39.4767
2007-07-27,38.5879
2007-07-30,38.6873
2007-07-31,38.2833
2007-08-01,38.7495
2007-08-02,38.2274
2007-08-03,36.9531
2007-08-06,37.9104
2007-08-07,37.6866
2007-08-08,38.3765
2007-08-09,37.7798
2007-08-10,37.5871
2007-08-13,37.7301
2007-08-14,37.5685
2007-08-15,36.9407
2007-08-16,37.6369
2007-08-17,38.5506
2007-08-20,38.6562
2007-08-21,38.5071
2007-08-22,39.1411
2007-08-23,39.11
2007-08-24,39.3089
2007-08-27,38.9981
2007-08-28,37.6306
2007-08-29,38.5381
2007-08-30,38.0968
2007-08-31,38.2149
2007-09-04,38.3082
2007-09-05,37.6369
2007-09-06,37.4815
2007-09-07,37.2515
2007-09-10,36.978
2007-09-11,37.2204
2007-09-12,37.1334
2007-09-13,37.4069
2007-09-14,37.3261
2007-09-17,37.2515
2007-09-18,38.3082
2007-09-19,38.5879
2007-09-20,38.42
2007-09-21,38.5009
2007-09-24,38.1465
2007-09-25,38.0533
2007-09-26,38.5568
2007-09-27,38.936
2007-09-28,38.7371
2007-10-01,39.4643
2007-10-02,39.3089
2007-10-03,39.2217
2007-10-04,39.1345
2007-10-05,39.6889
2007-10-08,39.4771
2007-10-09,39.5082
2007-10-10,39.3214
2007-10-11,39.5518
2007-10-12,39.72
2007-10-15,39.7325
2007-10-16,39.5269
2007-10-17,39.7138
2007-10-18,39.3027
2007-10-19,39.3276
2007-10-22,40.2681
2007-10-23,40.1872
2007-10-24,39.5705
2007-10-25,39.9256
2007-10-26,40.374
2007-10-29,40.1124
2007-10-30,40.1685
2007-10-31,40.536
2007-11-01,39.7325
2007-11-02,39.446
2007-11-05,39.2591
2007-11-06,39.4024
2007-11-07,38.4618
2007-11-08,39.2591
2007-11-09,39.5954
2007-11-12,39.8259
2007-11-13,40.2308
2007-11-14,40.0688
2007-11-15,39.421
2007-11-16,38.7359
2007-11-19,38.0383
2007-11-20,38.0134
2007-11-21,37.1414
2007-11-23,37.5711
2007-11-26,36.6929
2007-11-27,37.6334
2007-11-28,38.8729
2007-11-29,38.5303
2007-11-30,38.3373
2007-12-03,38.2687
2007-12-04,38.0383
2007-12-05,38.6611
2007-12-06,39.0598
2007-12-07,38.9352
2007-12-10,39.1158
2007-12-11,38.2002
2007-12-12,38.3497
2007-12-13,38.5117
2007-12-14,37.6334
2007-12-17,37.6085
2007-12-18,37.6957
2007-12-19,37.5524
2007-12-20,37.6147
2007-12-21,38.3746
2007-12-24,38.9913
2007-12-26,38.7047
2007-12-27,37.7518
2007-12-28,37.6833
2007-12-31,37.6833
2008-01-02,37.1526
2008-01-03,37.5584
2008-01-04,37.29
2008-01-07,38.0765
2008-01-08,37.0278
2008-01-09,37.9204
2008-01-10,38.5446
2008-01-11,38.2762
2008-01-14,38.5633
2008-01-15,38.2138
2008-01-16,38.0952
2008-01-17,37.0902
2008-01-18,36.2413
2008-01-22,36.2413
2008-01-23,37.1214
2008-01-24,36.7469
2008-01-25,36.129
2008-01-28,37.4835
2008-01-29,38.0952
2008-01-30,37.3087
2008-01-31,38.039
2008-02-01,38.7569
2008-02-04,38.245
2008-02-05,37.5521
2008-02-06,37.5459
2008-02-07,38.4011
2008-02-08,37.3149
2008-02-11,36.9841
2008-02-12,37.5397
2008-02-13,37.8954
2008-02-14,37.4398
2008-02-15,38.0765
2008-02-19,37.9267
2008-02-20,38.089
2008-02-21,38.1576
2008-02-22,38.4385
2008-02-25,38.7132
2008-02-26,39.1626
2008-02-27,39.406
2008-02-28,38.813
2008-02-29,37.677
2008-03-03,37.5958
2008-03-04,37.9579
2008-03-05,37.5334
2008-03-06,36.5597
2008-03-07,36.8967
2008-03-10,36.8156
2008-03-11,37.7269
2008-03-12,36.466
2008-03-13,36.8905
2008-03-14,36.5472
2008-03-17,36.6907
2008-03-18,37.8081
2008-03-19,37.2151
2008-03-20,37.9953
2008-03-24,38.089
2008-03-25,38.3074
2008-03-26,37.5272
2008-03-27,37.4647
2008-03-28,37.1839
2008-03-31,37.496
2008-04-01,39.4997
2008-04-02,39.0678
2008-04-03,39.7935
2008-04-04,39.4432
2008-04-07,39.5746
2008-04-08,39.0115
2008-04-09,38.8864
2008-04-10,38.7613
2008-04-11,38.411
2008-04-14,38.0669
2008-04-15,38.5548
2008-04-16,39.2492
2008-04-17,39.7935
2008-04-18,39.8999
2008-04-21,39.5308
2008-04-22,39.1804
2008-04-23,38.8489
2008-04-24,39.3931
2008-04-25,39.4619
2008-04-28,39.3869
2008-04-29,40.7569
2008-04-30,40.4566
2008-05-01,40.7882
2008-05-02,40.7944
2008-05-05,40.1751
2008-05-06,40.7507
2008-05-07,39.8623
2008-05-08,39.512
2008-05-09,39.4182
2008-05-12,40.0375
2008-05-13,39.8811
2008-05-14,40.2001
2008-05-15,40.1563
2008-05-16,39.7685
2008-05-19,39.9687
2008-05-20,39.7309
2008-05-21,39.6309
2008-05-22,40.1126
2008-05-23,39.6058
2008-05-27,40.2252
2008-05-28,39.8623
2008-05-29,39.9436
2008-05-30,39.6746
2008-06-02,39.3931
2008-06-03,39.1241
2008-06-04,38.7738
2008-06-05,39.1116
2008-06-06,38.1545
2008-06-09,38.2733
2008-06-10,38.5236
2008-06-11,38.0231
2008-06-12,38.4422
2008-06-13,38.7238
2008-06-16,38.755
2008-06-17,38.1044
2008-06-18,37.8542
2008-06-19,38.1169
2008-06-20,37.5852
2008-06-23,37.4225
2008-06-24,37.4476
2008-06-25,37.4663
2008-06-26,36.9283
2008-06-27,36.8845
2008-06-30,36.7344
2008-07-01,37.1598
2008-07-02,36.9152
2008-07-03,36.9654
2008-07-07,36.4199
2008-07-08,37.1347
2008-07-09,36.7271
2008-07-10,36.9215
2008-07-11,36.4324
2008-07-14,35.7928
2008-07-15,35.335
2008-07-16,36.5014
2008-07-17,37.072
2008-07-18,37.3542
2008-07-21,36.6707
2008-07-22,37.8308
2008-07-23,38.1694
2008-07-24,35.9496
2008-07-25,36.0562
2008-07-28,35.2786
2008-07-29,36.4449
2008-07-30,36.5515
2008-07-31,36.3822
2008-08-01,36.3572
2008-08-04,36.0436
2008-08-05,36.9779
2008-08-06,36.5578
2008-08-07,36.4638
2008-08-08,37.4545
2008-08-11,37.6113
2008-08-12,36.6895
2008-08-13,36.1816
2008-08-14,36.771
2008-08-15,37.21
2008-08-18,36.4763
2008-08-19,36.3195
2008-08-20,36.6143
2008-08-21,36.1063
2008-08-22,36.7271
2008-08-25,36.2756
2008-08-26,36.3948
2008-08-27,37.1974
2008-08-28,37.5172
2008-08-29,37.4106
2008-09-02,37.8496
2008-09-03,38.069
2008-09-04,37.1473
2008-09-05,37.5737
2008-09-08,38.9845
2008-09-09,37.9248
2008-09-10,38.0753
2008-09-11,38.3387
2008-09-12,38.3951
2008-09-15,37.235
2008-09-16,37.8621
2008-09-17,35.0779
2008-09-18,36.9717
2008-09-19,38.9469
2008-09-22,37.6614
2008-09-23,37.6489
2008-09-24,37.6238
2008-09-25,39.1225
2008-09-26,39.2542
2008-09-29,38.5644
2008-09-30,37.7304
2008-10-01,36.6687
2008-10-02,34.318
2008-10-03,32.7153
2008-10-06,31.4456
2008-10-07,30.6034
2008-10-08,28.1898
2008-10-09,25.506
2008-10-10,23.9283
2008-10-13,26.9767
2008-10-14,28.4601
2008-10-15,25.8956
2008-10-16,24.7077
2008-10-17,21.2445
2008-10-20,22.3067
2008-10-21,23.2872
2008-10-22,22.2564
2008-10-23,22.1496
2008-10-24,23.4821
2008-10-27,21.9673
2008-10-28,24.4123
2008-10-29,24.1986
2008-10-30,25.0031
2008-10-31,26.2225
2008-11-03,26.4613
2008-11-04,28.6361
2008-11-05,26.9642
2008-11-06,25.8768
2008-11-07,26.6373
2008-11-10,26.6625
2008-11-11,26.0214
2008-11-12,24.4689
2008-11-13,25.0283
2008-11-14,24.2112
2008-11-17,22.1559
2008-11-18,21.4519
2008-11-19,19.1703
2008-11-20,17.3664
2008-11-21,18.4098
2008-11-24,20.9616
2008-11-25,21.6467
2008-11-26,22.3319
2008-11-28,22.7215
2008-12-01,19.7046
2008-12-02,21.521
2008-12-03,22.1119
2008-12-04,21.7599
2008-12-05,24.4814
2008-12-08,24.5254
2008-12-09,24.5506
2008-12-10,24.3306
2008-12-11,24.1735
2008-12-12,25.022
2008-12-15,24.2237
2008-12-16,27.2344
2008-12-17,27.0333
2008-12-18,27.203
2008-12-19,27.687
2008-12-22,26.7379
2008-12-23,26.5305
2008-12-24,26.1973
2008-12-26,26.6436
2008-12-29,26.0465
2008-12-30,27.4652
2008-12-31,28.2725
2009-01-02,28.222
2009-01-05,28.7266
2009-01-06,29.2122
2009-01-07,27.9067
2009-01-08,27.6797
2009-01-09,27.0238
2009-01-12,25.9706
2009-01-13,25.5796
2009-01-14,24.2741
2009-01-15,24.0786
2009-01-16,23.8074
2009-01-20,20.3892
2009-01-21,22.6407
2009-01-22,19.6829
2009-01-23,19.9162
2009-01-26,20.3072
2009-01-27,20.5154
2009-01-28,21.9343
2009-01-29,19.3234
2009-01-30,18.945
2009-02-02,19.3045
2009-02-03,18.9135
2009-02-04,18.3459
2009-02-05,19.5568
2009-02-06,19.7964
2009-02-09,19.891
2009-02-10,18.5603
2009-02-11,18.5477
2009-02-12,18.5036
2009-02-13,17.3558
2009-02-17,16.7692
2009-02-18,17.0783
2009-02-19,15.735
2009-02-20,13.9817
2009-02-23,12.8402
2009-02-24,14.4484
2009-02-25,13.7736
2009-02-26,14.7953
2009-02-27,13.0105
2009-03-02,12.2979
2009-03-03,11.4843
2009-03-04,12.2979
2009-03-05,10.8095
2009-03-06,10.8032
2009-03-09,10.9167
2009-03-10,12.8024
2009-03-11,12.7519
2009-03-12,14.3475
2009-03-13,14.6061
2009-03-16,14.8142
2009-03-17,15.8485
2009-03-18,17.772
2009-03-19,16.4665
2009-03-20,15.6088
2009-03-23,17.8477
2009-03-24,17.3368
2009-03-25,17.0089
2009-03-26,17.6711
2009-03-27,18.1945
2009-03-30,15.9242
2009-03-31,16.5233
2009-04-01,16.7388
2009-04-02,17.1509
2009-04-03,18.2922
2009-04-06,18.4887
2009-04-07,17.9181
2009-04-08,18.6092
2009-04-09,19.8963
2009-04-13,20.0041
2009-04-14,18.4634
2009-04-15,20.7142
2009-04-16,20.0611
2009-04-17,20.3908
2009-04-20,18.3682
2009-04-21,20.1499
2009-04-22,19.1608
2009-04-23,16.7197
2009-04-24,16.7958
2009-04-27,16.6183
2009-04-28,17.1953
2009-04-29,18.2288
2009-04-30,18.5458
2009-05-01,18.6599
2009-05-04,20.1626
2009-05-05,19.6363
2009-05-06,21.0439
2009-05-07,21.2214
2009-05-08,23.9732
2009-05-11,22.2423
2009-05-12,22.6861
2009-05-13,21.697
2009-05-14,22.4768
2009-05-15,22.3627
2009-05-18,24.0493
2009-05-19,23.0665
2009-05-20,23.206
2009-05-21,23.0094
2009-05-22,22.946
2009-05-26,23.7576
2009-05-27,23.1363
2009-05-28,25.013
2009-05-29,25.4442
2009-06-01,25.6597
2009-06-02,25.6597
2009-06-03,24.5819
2009-06-04,25.4188
2009-06-05,24.8482
2009-06-08,24.9306
2009-06-09,25.1018
2009-06-10,24.9813
2009-06-11,24.9496
2009-06-12,24.2649
2009-06-15,23.6308
2009-06-16,22.7241
2009-06-17,22.7305
2009-06-18,23.3138
2009-06-19,23.4152
2009-06-22,22.4768
2009-06-23,22.6037
2009-06-24,23.1489
2009-06-25,23.6308
2009-06-26,23.3518
2009-06-29,23.7196
2009-06-30,23.4406
2009-07-01,23.3768
2009-07-02,22.193
2009-07-06,22.6385
2009-07-07,21.8939
2009-07-08,21.4038
2009-07-09,21.8175
2009-07-10,21.3911
2009-07-13,22.8294
2009-07-14,22.7085
2009-07-15,23.9178
2009-07-16,24.2296
2009-07-17,24.0387
2009-07-20,25.2416
2009-07-21,25.1207
2009-07-22,25.2607
2009-07-23,26.5463
2009-07-24,26.7563
2009-07-27,26.9345
2009-07-28,25.337
2009-07-29,24.5479
2009-07-30,25.0379
2009-07-31,24.8597
2009-08-03,24.8215
2009-08-04,25.0125
2009-08-05,25.3116
2009-08-06,25.1334
2009-08-07,26.2281
2009-08-10,25.7126
2009-08-11,25.3116
2009-08-12,26.3808
2009-08-13,26.5845
2009-08-14,25.9417
2009-08-17,25.0697
2009-08-18,25.3943
2009-08-19,25.6489
2009-08-20,26.1008
2009-08-21,26.7945
2009-08-24,26.5909
2009-08-25,27.8001
2009-08-26,26.9091
2009-08-27,27.1446
2009-08-28,27.2146
2009-08-31,27.0936
2009-09-01,25.458
2009-09-02,25.4834
2009-09-03,25.8144
2009-09-04,26.0117
2009-09-08,25.9735
2009-09-09,26.8836
2009-09-10,27.2528
2009-09-11,26.9536
2009-09-14,27.9274
2009-09-15,27.8192
2009-09-16,29.5058
2009-09-17,29.2321
2009-09-18,28.5766
2009-09-21,27.8128
2009-09-22,27.9592
2009-09-23,27.2782
2009-09-24,26.7436
2009-09-25,26.7118
2009-09-28,27.8128
2009-09-29,27.9338
2009-09-30,27.7038
2009-10-01,26.1203
2009-10-02,25.8139
2009-10-05,27.3718
2009-10-06,28.4891
2009-10-07,28.2848
2009-10-08,28.9488
2009-10-09,28.9871
2009-10-12,29.2489
2009-10-13,28.885
2009-10-14,29.7533
2009-10-15,29.7661
2009-10-16,28.7892
2009-10-19,29.8682
2009-10-20,29.1148
2009-10-21,28.2209
2009-10-22,29.1723
2009-10-23,28.3295
2009-10-26,27.2568
2009-10-27,27.5378
2009-10-28,27.3207
2009-10-29,27.608
2009-10-30,25.9607
2009-11-02,25.9479
2009-11-03,25.8586
2009-11-04,25.75
2009-11-05,26.3949
2009-11-06,26.7716
2009-11-09,27.774
2009-11-10,27.3909
2009-11-11,27.7229
2009-11-12,27.0653
2009-11-13,27.2313
2009-11-16,28.1443
2009-11-17,28.0039
2009-11-18,27.94
2009-11-19,27.2632
2009-11-20,27.0078
2009-11-23,27.2058
2009-11-24,27.4995
2009-11-25,27.8315
2009-11-27,27.2121
2009-11-30,27.8251
2009-12-01,27.7676
2009-12-02,27.857
2009-12-03,27.0844
2009-12-04,27.8634
2009-12-07,27.6208
2009-12-08,27.5122
2009-12-09,27.8634
2009-12-10,27.8059
2009-12-11,28.3039
2009-12-14,28.9297
2009-12-15,28.0166
2009-12-16,28.3039
2009-12-17,27.4611
2009-12-18,27.3079
2009-12-21,27.9592
2009-12-22,28.0422
2009-12-23,27.9911
2009-12-24,28.1507
2009-12-28,27.9528
2009-12-29,28.0039
2009-12-30,28.2209
2009-12-31,28.106
2010-01-04,28.6764
2010-01-05,29.2914
2010-01-06,29.5221
2010-01-07,29.49
2010-01-08,29.5156
2010-01-11,29.5605
2010-01-12,29.663
2010-01-13,29.8808
2010-01-14,29.8936
2010-01-15,29.6438
2010-01-19,30.0666
2010-01-20,29.8104
2010-01-21,29.1761
2010-01-22,28.4073
2010-01-25,29.0287
2010-01-26,28.734
2010-01-27,29.3106
2010-01-28,28.939
2010-01-29,28.7468
2010-02-01,29.1312
2010-02-02,29.5797
2010-02-03,29.0672
2010-02-04,28.3432
2010-02-05,28.2151
2010-02-08,28.292
2010-02-09,28.324
2010-02-10,28.4265
2010-02-11,28.4906
2010-02-12,28.3688
2010-02-16,28.6315
2010-02-17,29.0544
2010-02-18,29.5285
2010-02-19,29.7655
2010-02-22,30.0154
2010-02-23,28.9134
2010-02-24,29.3619
2010-02-25,29.6694
2010-02-26,29.8039
2010-03-01,30.1051
2010-03-02,30.2268
2010-03-03,31.0468
2010-03-04,31.3544
2010-03-05,32.0079
2010-03-08,32.3666
2010-03-09,32.3154
2010-03-10,32.6101
2010-03-11,32.8151
2010-03-12,32.7382
2010-03-15,32.9817
2010-03-16,33.6992
2010-03-17,34.3719
2010-03-18,34.3719
2010-03-19,34.0708
2010-03-22,34.0196
2010-03-23,34.1669
2010-03-24,33.885
2010-03-25,33.7569
2010-03-26,33.7313
2010-03-29,34.0516
2010-03-30,33.9103
2010-03-31,34.3729
2010-04-01,34.7263
2010-04-05,35.1053
2010-04-06,35.1824
2010-04-07,34.662
2010-04-08,34.5592
2010-04-09,34.6042
2010-04-12,34.9447
2010-04-13,35.1439
2010-04-14,35.9984
2010-04-15,35.8185
2010-04-16,34.9832
2010-04-19,35.2467
2010-04-20,35.8377
2010-04-21,35.4908
2010-04-22,35.4266
2010-04-23,36.1204
2010-04-26,35.8377
2010-04-27,34.3279
2010-04-28,33.8075
2010-04-29,35.2145
2010-04-30,34.4114
2010-05-03,34.4693
2010-05-04,33.8396
2010-05-05,33.769
2010-05-06,32.6446
2010-05-07,31.5717
2010-05-10,34.103
2010-05-11,33.891
2010-05-12,34.4693
2010-05-13,33.8525
2010-05-14,32.786
2010-05-17,33.2228
2010-05-18,32.7089
2010-05-19,32.9915
2010-05-20,31.8094
2010-05-21,32.5161
2010-05-24,31.8222
2010-05-25,31.9122
2010-05-26,32.0021
2010-05-27,33.8717
2010-05-28,33.1393
2010-06-01,32.3876
2010-06-02,33.5698
2010-06-03,33.4284
2010-06-04,31.7773
2010-06-07,31.3082
2010-06-08,32.3619
2010-06-09,32.3491
2010-06-10,33.255
2010-06-11,33.3064
2010-06-14,33.2293
2010-06-15,34.0838
2010-06-16,33.7625
2010-06-17,33.8268
2010-06-18,33.936
2010-06-21,33.8204
2010-06-22,32.9402
2010-06-23,32.8952
2010-06-24,32.1756
2010-06-25,33.4156
2010-06-28,33.6083
2010-06-29,32.8759
2010-06-30,31.9222
2010-07-01,31.5033
2010-07-02,31.6258
2010-07-06,31.5807
2010-07-07,32.9274
2010-07-08,33.2689
2010-07-09,33.4558
2010-07-12,33.0563
2010-07-13,33.3785
2010-07-14,32.7792
2010-07-15,32.4763
2010-07-16,31.5678
2010-07-19,31.7546
2010-07-20,32.399
2010-07-21,31.6064
2010-07-22,32.5021
2010-07-23,32.9918
2010-07-26,33.256
2010-07-27,33.4622
2010-07-28,33.488
2010-07-29,34.3644
2010-07-30,34.2355
2010-08-02,35.0409
2010-08-03,34.4288
2010-08-04,34.2484
2010-08-05,34.3772
2010-08-06,34.3257
2010-08-09,34.7703
2010-08-10,34.461
2010-08-11,33.2754
2010-08-12,32.8759
2010-08-13,32.6245
2010-08-16,32.4248
2010-08-17,32.9532
2010-08-18,33.1658
2010-08-19,32.1413
2010-08-20,31.9222
2010-08-23,31.9931
2010-08-24,31.1554
2010-08-25,31.4196
2010-08-26,31.3294
2010-08-27,32.3797
2010-08-30,31.368
2010-08-31,31.7933
2010-09-01,33.0498
2010-09-02,33.0949
2010-09-03,33.6362
2010-09-07,32.9918
2010-09-08,33.2045
2010-09-09,33.604
2010-09-10,33.9004
2010-09-13,34.6672
2010-09-14,34.9572
2010-09-15,34.9701
2010-09-16,34.7252
2010-09-17,34.6672
2010-09-20,35.2729
2010-09-21,35.5436
2010-09-22,34.8154
2010-09-23,34.0679
2010-09-24,35.0474
2010-09-27,34.4546
2010-09-28,34.8025
2010-09-29,34.4535
2010-09-30,34.3695
2010-10-01,34.4599
2010-10-04,34.1691
2010-10-05,35.41
2010-10-06,35.1967
2010-10-07,34.8606
2010-10-08,35.1838
2010-10-11,35.1644
2010-10-12,35.3324
2010-10-13,35.4617
2010-10-14,35.2872
2010-10-15,35.2226
2010-10-18,35.6814
2010-10-19,34.9834
2010-10-20,35.5328
2010-10-21,35.7913
2010-10-22,35.7525
2010-10-25,35.8559
2010-10-26,36.0304
2010-10-27,35.9593
2010-10-28,37.0451
2010-10-29,37.0451
2010-11-01,36.5539
2010-11-02,37.1226
2010-11-03,37.2584
2010-11-04,38.2407
2010-11-05,38.2795
2010-11-08,38.0081
2010-11-09,37.84
2010-11-10,38.2795
2010-11-11,37.7819
2010-11-12,37.4652
2010-11-15,37.8206
2010-11-16,37.2648
2010-11-17,37.4264
2010-11-18,38.1179
2010-11-19,38.105
2010-11-22,37.9951
2010-11-23,37.6138
2010-11-24,38.0274
2010-11-26,37.6978
2010-11-29,37.7172
2010-11-30,37.155
2010-12-01,38.0533
2010-12-02,38.9387
2010-12-03,39.2683
2010-12-06,39.3265
2010-12-07,39.4493
2010-12-08,39.9081
2010-12-09,39.934
2010-12-10,39.8887
2010-12-13,40.0503
2010-12-14,39.7401
2010-12-15,39.0744
2010-12-16,38.9193
2010-12-17,39.068
2010-12-20,39.0809
2010-12-21,39.32
2010-12-22,39.5785
2010-12-23,39.3136
2010-12-27,39.2942
2010-12-28,39.1714
2010-12-29,39.1132
2010-12-30,38.7448
2010-12-31,38.6285
2011-01-03,39.2295
2011-01-04,39.5601
2011-01-05,40.0072
2011-01-06,39.8711
2011-01-07,39.7415
2011-01-10,39.8517
2011-01-11,39.4888
2011-01-12,39.9359
2011-01-13,39.7221
2011-01-14,39.8711
2011-01-18,39.8128
2011-01-19,39.5277
2011-01-20,39.5925
2011-01-21,39.7869
2011-01-24,39.9813
2011-01-25,40.3117
2011-01-26,40.7329
2011-01-27,41.1347
2011-01-28,40.4025
2011-01-31,40.3895
2011-02-01,41.1152
2011-02-02,40.6746
2011-02-03,40.6616
2011-02-04,41.2254
2011-02-07,41.7373
2011-02-08,41.7632
2011-02-09,41.8086
2011-02-10,40.6746
2011-02-11,41.0764
2011-02-14,40.8366
2011-02-15,41.0116
2011-02-16,41.4004
2011-02-17,41.9512
2011-02-18,42.3983
2011-02-22,41.6012
2011-02-23,41.2124
2011-02-24,41.0958
2011-02-25,41.7179
2011-02-28,42.2557
2011-03-01,41.8734
2011-03-02,41.3939
2011-03-03,42.0937
2011-03-04,42.3205
2011-03-07,41.8345
2011-03-08,42.5279
2011-03-09,42.1844
2011-03-10,41.7892
2011-03-11,42.2363
2011-03-14,41.7503
2011-03-15,41.4457
2011-03-16,40.7524
2011-03-17,41.3291
2011-03-18,41.9576
2011-03-21,42.6964
2011-03-22,42.2233
2011-03-23,42.2557
2011-03-24,42.1844
2011-03-25,42.7547
2011-03-28,42.7417
2011-03-29,42.6639
2011-03-30,42.7808
2011-03-31,43.0991
2011-04-01,43.6837
2011-04-04,44.041
2011-04-05,43.6707
2011-04-06,43.9111
2011-04-07,43.8851
2011-04-08,43.294
2011-04-11,43.5603
2011-04-12,43.4759
2011-04-13,43.268
2011-04-14,42.8913
2011-04-15,43.0926
2011-04-18,42.3586
2011-04-19,42.6444
2011-04-20,43.0017
2011-04-21,43.3849
2011-04-25,43.0342
2011-04-26,43.3719
2011-04-27,42.9887
2011-04-28,43.2225
2011-04-29,43.4629
2011-05-02,43.0407
2011-05-03,43.307
2011-05-04,43.0147
2011-05-05,42.4171
2011-05-06,42.7419
2011-05-09,42.7678
2011-05-10,43.2615
2011-05-11,43.1771
2011-05-12,43.3395
2011-05-13,42.8783
2011-05-16,43.281
2011-05-17,43.4239
2011-05-18,43.6318
2011-05-19,43.8786
2011-05-20,43.4369
2011-05-23,42.8523
2011-05-24,42.5924
2011-05-25,42.5665
2011-05-26,42.6704
2011-05-27,42.9212
2011-05-31,43.1752
2011-06-01,42.1723
2011-06-02,42.55
2011-06-03,41.9118
2011-06-06,41.7165
2011-06-07,41.4755
2011-06-08,41.3648
2011-06-09,41.3843
2011-06-10,41.1434
2011-06-13,41.1108
2011-06-14,41.4364
2011-06-15,40.0624
2011-06-16,40.6876
2011-06-17,40.9546
2011-06-20,40.9415
2011-06-21,41.176
2011-06-22,40.7983
2011-06-23,40.8373
2011-06-24,40.7071
2011-06-27,40.9285
2011-06-28,41.2281
2011-06-29,41.5276
2011-06-30,41.8011
2011-07-01,42.0225
2011-07-05,41.8955
2011-07-06,42.003
2011-07-07,42.6672
2011-07-08,42.1886
2011-07-11,40.8015
2011-07-12,40.7234
2011-07-13,40.7722
2011-07-14,40.5964
2011-07-15,40.3815
2011-07-18,39.9321
2011-07-19,40.4108
2011-07-20,40.4889
2011-07-21,41.1825
2011-07-22,40.9773
2011-07-25,40.694
2011-07-26,40.1959
2011-07-27,39.2874
2011-07-28,39.9712
2011-07-29,39.5121
2011-08-01,39.053
2011-08-02,37.959
2011-08-03,38.0957
2011-08-04,36.2789
2011-08-05,35.7904
2011-08-08,32.4693
2011-08-09,34.755
2011-08-10,32.7721
2011-08-11,35.6049
2011-08-12,35.3216
2011-08-15,35.976
2011-08-16,35.3118
2011-08-17,35.4095
2011-08-18,34.5108
2011-08-19,34.4034
2011-08-22,34.5206
2011-08-23,35.7416
2011-08-24,36.5328
2011-08-25,35.4583
2011-08-26,35.6244
2011-08-29,37.0994
2011-08-30,36.9431
2011-08-31,37.3338
2011-09-01,36.1909
2011-09-02,35.0969
2011-09-06,34.5597
2011-09-07,36.3668
2011-09-08,35.7221
2011-09-09,34.9406
2011-09-12,35.3411
2011-09-13,35.6244
2011-09-14,35.8491
2011-09-15,36.0346
2011-09-16,36.3277
2011-09-19,35.429
2011-09-20,35.1653
2011-09-21,33.5731
2011-09-22,33.6708
2011-09-23,33.4754
2011-09-26,34.4815
2011-09-27,34.716
2011-09-28,33.7977
2011-09-29,34.9406
2011-09-30,34.0908
2011-10-03,32.9479
2011-10-04,33.8173
2011-10-05,34.9345
2011-10-06,35.8657
2011-10-07,34.9639
2011-10-10,36.6793
2011-10-11,36.5225
2011-10-12,37.3262
2011-10-13,36.8067
2011-10-14,37.7575
2011-10-17,36.8852
2011-10-18,38.1496
2011-10-19,37.042
2011-10-20,38.1496
2011-10-21,38.973
2011-10-24,39.5905
2011-10-25,38.1202
2011-10-26,39.071
2011-10-27,39.9728
2011-10-28,40.7276
2011-10-31,40.1296
2011-11-01,38.6397
2011-11-02,40.2963
2011-11-03,40.7178
2011-11-04,40.6786
2011-11-07,41.3157
2011-11-08,41.7568
2011-11-09,40.1688
2011-11-10,40.855
2011-11-11,41.5019
2011-11-14,41.3941
2011-11-15,41.845
2011-11-16,41.0706
2011-11-17,40.6099
2011-11-18,41.1883
2011-11-21,40.6197
2011-11-22,40.4531
2011-11-23,39.0416
2011-11-25,38.8946
2011-11-28,40.1296
2011-11-29,40.2865
2011-11-30,41.7372
2011-12-01,41.7078
2011-12-02,41.8156
2011-12-05,42.2371
2011-12-06,42.8938
2011-12-07,42.737
2011-12-08,41.4431
2011-12-09,42.3645
2011-12-12,42.1587
2011-12-13,41.149
2011-12-14,41.4725
2011-12-15,41.4921
2011-12-16,41.3157
2011-12-19,40.7962
2011-12-20,41.6293
2011-12-21,41.747
2011-12-22,42.1195
2011-12-23,42.6292
2011-12-27,42.6194
2011-12-28,41.9528
2011-12-29,42.8056
2011-12-30,42.5507
2012-01-03,42.835
2012-01-04,42.7169
2012-01-05,43.2379
2012-01-06,42.7071
2012-01-09,42.6088
2012-01-10,43.1297
2012-01-11,43.1887
2012-01-12,43.3263
2012-01-13,43.1789
2012-01-17,43.1691
2012-01-18,43.7883
2012-01-19,44.093
2012-01-20,44.5451
2012-01-23,44.6926
2012-01-24,44.5353
2012-01-25,44.7319
2012-01-26,44.1814
2012-01-27,44.9874
2012-01-30,44.3485
2012-01-31,44.9186
2012-02-01,45.4494
2012-02-02,45.9212
2012-02-03,46.8353
2012-02-06,46.5601
2012-02-07,46.452
2012-02-08,46.2849
2012-02-09,45.872
2012-02-10,46.3635
2012-02-13,47.1891
2012-02-14,47.2678
2012-02-15,46.8746
2012-02-16,47.8378
2012-02-17,47.9165
2012-02-21,48.2212
2012-02-22,47.887
2012-02-23,47.9165
2012-02-24,47.9656
2012-02-27,47.828
2012-02-28,47.8772
2012-02-29,47.6609
2012-03-01,47.828
2012-03-02,47.7101
2012-03-05,48.349
2012-03-06,47.3661
2012-03-07,47.4545
2012-03-08,47.6609
2012-03-09,47.8968
2012-03-12,47.7396
2012-03-13,48.6045
2012-03-14,48.6733
2012-03-15,49.5579
2012-03-16,49.6267
2012-03-19,49.44
2012-03-20,49.5284
2012-03-21,49.2729
2012-03-22,48.6143
2012-03-23,48.7028
2012-03-26,49.6071
2012-03-27,49.44
2012-03-28,49.381
2012-03-29,48.8207
2012-03-30,48.978
2012-04-02,49.3515
2012-04-03,49.2332
2012-04-04,48.5629
2012-04-05,48.415
2012-04-09,47.6756
2012-04-10,47.3306
2012-04-11,47.9714
2012-04-12,48.5431
2012-04-13,47.8629
2012-04-16,48.0699
2012-04-17,48.8488
2012-04-18,48.5826
2012-04-19,47.9221
2012-04-20,47.9516
2012-04-23,47.5967
2012-04-24,48.1882
2012-04-25,47.3306
2012-04-26,47.9221
2012-04-27,48.3953
2012-04-30,47.9812
2012-05-01,48.2375
2012-05-02,47.9516
2012-05-03,47.6263
2012-05-04,46.9165
2012-05-07,47.1827
2012-05-08,47.5573
2012-05-09,46.9658
2012-05-10,47.2813
2012-05-11,47.4883
2012-05-14,46.9461
2012-05-15,46.3348
2012-05-16,45.7138
2012-05-17,45.1321
2012-05-18,44.8462
2012-05-21,45.487
2012-05-22,45.5856
2012-05-23,45.7433
2012-05-24,46.3644
2012-05-25,45.7926
2012-05-29,45.8912
2012-05-30,45.5166
2012-05-31,46.0292
2012-06-01,44.9349
2012-06-04,44.6688
2012-06-05,45.349
2012-06-06,46.4236
2012-06-07,46.6207
2012-06-08,46.7883
2012-06-11,46.6405
2012-06-12,47.1432
2012-06-13,46.67
2012-06-14,47.2714
2012-06-15,47.6953
2012-06-18,48.6417
2012-06-19,49.1248
2012-06-20,48.8783
2012-06-21,47.9615
2012-06-22,48.1685
2012-06-25,47.6362
2012-06-26,47.9418
2012-06-27,48.6516
2012-06-28,48.8783
2012-06-29,49.7755
2012-07-02,50.0121
2012-07-03,50.5657
2012-07-05,50.6152
2012-07-06,50.3581
2012-07-09,50.2691
2012-07-10,50.1208
2012-07-11,50.5262
2012-07-12,50.2098
2012-07-13,51.2974
2012-07-16,50.892
2012-07-17,51.0008
2012-07-18,51.3073
2012-07-19,51.0107
2012-07-20,50.6251
2012-07-23,50.2493
2012-07-24,49.8538
2012-07-25,49.7352
2012-07-26,48.4794
2012-07-27,49.399
2012-07-30,49.4979
2012-07-31,49.1913
2012-08-01,48.9837
2012-08-02,49.834
2012-08-03,50.714
2012-08-06,50.803
2012-08-07,50.7734
2012-08-08,50.0812
2012-08-09,49.2111
2012-08-10,49.7154
2012-08-13,49.8637
2012-08-14,49.6956
2012-08-15,49.9725
2012-08-16,50.3284
2012-08-17,50.5558
2012-08-20,50.4965
2012-08-21,50.0615
2012-08-22,50.0318
2012-08-23,49.8835
2012-08-24,50.368
2012-08-27,50.5163
2012-08-28,50.4075
2012-08-29,50.5361
2012-08-30,50.2691
2012-08-31,50.6547
2012-09-04,50.9217
2012-09-05,50.9909
2012-09-06,51.5545
2012-09-07,51.6435
2012-09-10,51.3469
2012-09-11,51.7325
2012-09-12,51.5743
2012-09-13,51.9302
2012-09-14,52.0983
2012-09-17,51.6138
2012-09-18,51.4358
2012-09-19,51.5842
2012-09-20,51.6039
2012-09-21,51.2974
2012-09-24,51.4358
2012-09-25,50.7437
2012-09-26,50.2691
2012-09-27,50.5163
2012-09-28,50.7635
2012-10-01,50.6844
2012-10-02,50.4866
2012-10-03,50.6057
2012-10-04,51.2701
2012-10-05,51.4387
2012-10-08,51.29
2012-10-09,50.6652
2012-10-10,50.3974
2012-10-11,50.8536
2012-10-12,50.3578
2012-10-15,50.328
2012-10-16,50.9925
2012-10-17,51.647
2012-10-18,51.518
2012-10-19,50.6553
2012-10-22,50.6949
2012-10-23,50.4768
2012-10-24,50.6255
2012-10-25,49.7528
2012-10-26,50.0305
2012-10-31,50.1594
2012-11-01,50.566
2012-11-02,50.1495
2012-11-05,50.2586
2012-11-06,50.3479
2012-11-07,49.4157
2012-11-08,49.4157
2012-11-09,49.8421
2012-11-12,49.6636
2012-11-13,49.614
2012-11-14,49.1182
2012-11-15,49.4653
2012-11-16,49.9809
2012-11-19,50.447
2012-11-20,50.7346
2012-11-21,50.7743
2012-11-23,51.409
2012-11-26,51.2701
2012-11-27,51.1412
2012-11-28,51.3395
2012-11-29,51.4585
2012-11-30,51.5478
2012-12-03,51.3495
2012-12-04,51.2404
2012-12-05,51.3594
2012-12-06,51.161
2012-12-07,51.3098
2012-12-10,51.6668
2012-12-11,51.5676
2012-12-12,51.5974
2012-12-13,50.685
2012-12-14,50.1099
2012-12-17,51.3296
2012-12-18,51.4189
2012-12-19,51.4486
2012-12-20,52.5097
2012-12-21,51.637
2012-12-24,51.6668
2012-12-26,51.1313
2012-12-27,50.7049
2012-12-28,50.5759
2012-12-31,51.161
2013-01-02,52.2151
2013-01-03,52.792
2013-01-04,53.1798
2013-01-07,53.2097
2013-01-08,52.7621
2013-01-09,52.7224
2013-01-10,52.8616
2013-01-11,53.1699
2013-01-14,53.1798
2013-01-15,53.1401
2013-01-16,53.2396
2013-01-17,53.3092
2013-01-18,53.4882
2013-01-22,54.1148
2013-01-23,54.1346
2013-01-24,55.2386
2013-01-25,55.6265
2013-01-28,55.358
2013-01-29,55.3679
2013-01-30,55.2784
2013-01-31,55.4077
2013-02-01,55.6861
2013-02-04,55.169
2013-02-05,54.7612
2013-02-06,55.4972
2013-02-07,55.1292
2013-02-08,55.2684
2013-02-11,55.4972
2013-02-12,55.6763
2013-02-13,55.8055
2013-02-14,55.6961
2013-02-15,55.8553
2013-02-19,56.4023
2013-02-20,55.5668
2013-02-21,55.3978
2013-02-22,55.7857
2013-02-25,54.6916
2013-02-26,55.0199
2013-02-27,55.7955
2013-02-28,55.9348
2013-03-01,55.9646
2013-03-04,56.3824
2013-03-05,57.0488
2013-03-06,57.5162
2013-03-07,57.6455
2013-03-08,58.0135
2013-03-11,58.4212
2013-03-12,58.471
2013-03-13,59.0578
2013-03-14,59.2766
2013-03-15,59.0478
2013-03-18,58.282
2013-03-19,58.4412
2013-03-20,58.8091
2013-03-21,58.6501
2013-03-22,58.8987
2013-03-25,58.8887
2013-03-26,58.9682
2013-03-27,58.9782
2013-03-28,59.4954
2013-04-01,59.1374
2013-04-02,59.2965
2013-04-03,58.1195
2013-04-04,58.8177
2013-04-05,57.9699
2013-04-08,58.1794
2013-04-09,58.2093
2013-04-10,59.7752
2013-04-11,59.6556
2013-04-12,59.466
2013-04-15,58.1495
2013-04-16,59.3563
2013-04-17,58.5085
2013-04-18,58.5085
2013-04-19,59.1369
2013-04-22,59.087
2013-04-23,59.9548
2013-04-24,60.5034
2013-04-25,61.2714
2013-04-26,61.1816
2013-04-29,61.7003
2013-04-30,61.9197
2013-05-01,61.1816
2013-05-02,62.0095
2013-05-03,62.4583
2013-05-06,62.7974
2013-05-07,63.3659
2013-05-08,63.9943
2013-05-09,63.8647
2013-05-10,64.0242
2013-05-13,63.9744
2013-05-14,64.6426
2013-05-15,65.2112
2013-05-16,64.3733
2013-05-17,64.6027
2013-05-20,64.9618
2013-05-21,64.9917
2013-05-22,64.2237
2013-05-23,64.1838
2013-05-24,64.0641
2013-05-28,64.5329
2013-05-29,64.4531
2013-05-30,65.3009
2013-05-31,64.4432
2013-06-03,64.0242
2013-06-04,63.1166
2013-06-05,62.6279
2013-06-06,63.7051
2013-06-07,64.8122
2013-06-10,64.9518
2013-06-11,64.2138
2013-06-12,64.3733
2013-06-13,65.1114
2013-06-14,64.493
2013-06-17,65.2012
2013-06-18,65.0416
2013-06-19,64.6925
2013-06-20,64.523
2013-06-21,64.4432
2013-06-24,63.6751
2013-06-25,64.4432
2013-06-26,64.902
2013-06-27,65.5702
2013-06-28,65.1413
2013-07-01,65.65
2013-07-02,65.92
2013-07-03,65.91
2013-07-05,67.02
2013-07-08,67.64
2013-07-09,68.07
2013-07-10,68.59
2013-07-11,68.94
2013-07-12,69.22
2013-07-15,69.25
2013-07-16,68.78
2013-07-17,68.72
2013-07-18,69.47
2013-07-19,69.56
2013-07-22,70.53
2013-07-23,70.26
2013-07-24,69.79
2013-07-25,70.63
2013-07-26,70.34
2013-07-29,70.31
2013-07-30,70.73
2013-07-31,71.06
2013-08-01,72.97
2013-08-02,72.36
2013-08-05,71.62
2013-08-06,71.05
2013-08-07,70.86
2013-08-08,71.2
2013-08-09,71.11
