date,close_price
1998-01-02,13.0106
1998-01-05,13.5259
1998-01-06,13.0776
1998-01-07,13.1704
1998-01-08,12.6912
1998-01-09,12.3356
1998-01-12,12.2377
1998-01-13,12.3975
1998-01-14,12.0471
1998-01-15,12.011
1998-01-16,11.9492
1998-01-20,11.9801
1998-01-21,12.078
1998-01-22,12.2068
1998-01-23,12.2068
1998-01-26,11.9183
1998-01-27,12.078
1998-01-28,12.6242
1998-01-29,12.5624
1998-01-30,12.6242
1998-02-02,13.0106
1998-02-03,13.1704
1998-02-04,13.2683
1998-02-05,13.7217
1998-02-06,13.6238
1998-02-09,13.8145
1998-02-10,13.8815
1998-02-11,13.9124
1998-02-12,13.7526
1998-02-13,13.8505
1998-02-17,13.5929
1998-02-18,13.6238
1998-02-19,13.1085
1998-02-20,12.8818
1998-02-23,13.2683
1998-02-24,13.2683
1998-02-25,13.428
1998-02-26,13.5259
1998-02-27,13.5259
1998-03-02,13.3971
1998-03-03,13.4641
1998-03-04,13.8145
1998-03-05,13.9124
1998-03-06,14.4276
1998-03-09,14.8811
1998-03-10,16.1332
1998-03-11,15.9735
1998-03-12,15.6849
1998-03-13,15.7467
1998-03-16,15.9735
1998-03-17,16.3599
1998-03-18,15.9795
1998-03-19,15.9795
1998-03-20,15.9486
1998-03-23,15.6908
1998-03-24,15.8197
1998-03-25,15.7218
1998-03-26,15.7527
1998-03-27,15.7218
1998-03-30,15.5929
1998-03-31,16.0465
1998-04-01,16.2063
1998-04-02,15.7218
1998-04-03,15.7527
1998-04-06,15.464
1998-04-07,15.6599
1998-04-08,15.6238
1998-04-09,15.3042
1998-04-13,14.562
1998-04-14,14.7888
1998-04-15,15.1444
1998-04-16,15.9176
1998-04-17,16.3043
1998-04-20,16.562
1998-04-21,17.0104
1998-04-22,16.7836
1998-04-23,16.495
1998-04-24,16.1084
1998-04-27,15.464
1998-04-28,16.0465
1998-04-29,15.9486
1998-04-30,16.3043
1998-05-01,16.1754
1998-05-04,16.464
1998-05-05,16.1754
1998-05-06,16.397
1998-05-07,16.3661
1998-05-08,16.4331
1998-05-11,16.1908
1998-05-12,16.5774
1998-05-13,16.531
1998-05-14,17.0104
1998-05-15,18.0233
1998-05-18,17.1109
1998-05-19,17.1109
1998-05-20,16.7243
1998-05-21,16.6702
1998-05-22,16.5774
1998-05-26,16.4305
1998-05-27,16.0439
1998-05-28,15.897
1998-05-29,16.0439
1998-06-01,15.9975
1998-06-02,15.897
1998-06-03,15.7037
1998-06-04,15.9511
1998-06-05,15.9975
1998-06-08,16.2372
1998-06-09,16.5774
1998-06-10,16.4769
1998-06-11,16.6702
1998-06-12,16.6238
1998-06-15,16.2372
1998-06-16,16.4848
1998-06-17,16.4848
1998-06-18,16.245
1998-06-19,15.8582
1998-06-22,16.6317
1998-06-23,16.4384
1998-06-24,16.5389
1998-06-25,16.6317
1998-06-26,15.9046
1998-06-29,16.3455
1998-06-30,16.2914
1998-07-01,16.1985
1998-07-02,16.4384
1998-07-06,16.3919
1998-07-07,16.1521
1998-07-08,16.245
1998-07-09,16.0516
1998-07-10,15.8118
1998-07-13,15.7112
1998-07-14,15.7112
1998-07-15,15.7112
1998-07-16,15.6648
1998-07-17,15.6648
1998-07-20,15.6648
1998-07-21,15.6648
1998-07-22,15.278
1998-07-23,15.1852
1998-07-24,15.425
1998-07-27,15.3786
1998-07-28,14.9376
1998-07-29,15.0846
1998-07-30,15.131
1998-07-31,14.605
1998-08-03,14.0712
1998-08-04,13.8778
1998-08-05,13.7309
1998-08-06,14.4116
1998-08-07,14.5044
1998-08-10,14.1176
1998-08-11,13.9707
1998-08-12,14.311
1998-08-13,13.9243
1998-08-14,13.9243
1998-08-17,13.8314
1998-08-18,14.6514
1998-08-19,14.1176
1998-08-20,13.5839
1998-08-21,13.5839
1998-08-24,13.6844
1998-08-25,13.2977
1998-08-26,13.3441
1998-08-27,13.0579
1998-08-28,13.2512
1998-08-31,11.9903
1998-09-01,13.2977
1998-09-02,13.8314
1998-09-03,13.1507
1998-09-04,12.8645
1998-09-08,13.7309
1998-09-09,13.4446
1998-09-10,12.9573
1998-09-11,13.0579
1998-09-14,12.7175
1998-09-15,12.7639
1998-09-16,13.1507
1998-09-17,13.1043
1998-09-18,13.638
1998-09-21,13.2512
1998-09-22,13.3519
1998-09-23,14.1259
1998-09-24,13.2048
1998-09-25,13.259
1998-09-28,13.1119
1998-09-29,12.872
1998-09-30,11.7574
1998-10-01,12.1908
1998-10-02,12.5314
1998-10-05,11.6103
1998-10-06,12.0438
1998-10-07,11.6103
1998-10-08,11.2698
1998-10-09,11.7109
1998-10-12,12.2915
1998-10-13,12.3379
1998-10-14,12.7249
1998-10-15,13.2048
1998-10-16,13.1584
1998-10-19,13.4525
1998-10-20,13.5454
1998-10-21,14.033
1998-10-22,14.5129
1998-10-23,14.5593
1998-10-26,14.9464
1998-10-27,15.2869
1998-10-28,14.6135
1998-10-29,14.9464
1998-10-30,15.3876
1998-11-02,15.5269
1998-11-03,15.4804
1998-11-04,15.6275
1998-11-05,15.7204
1998-11-06,15.7746
1998-11-09,15.9139
1998-11-10,16.1616
1998-11-11,16.2545
1998-11-12,16.3009
1998-11-13,16.2545
1998-11-16,17.0285
1998-11-17,17.1291
1998-11-18,16.6879
1998-11-19,16.982
1998-11-20,17.222
1998-11-23,17.0749
1998-11-24,17.4155
1998-11-25,17.5626
1998-11-27,17.222
1998-11-30,16.7885
1998-12-01,16.9356
1998-12-02,17.0749
1998-12-03,16.982
1998-12-04,17.4155
1998-12-07,17.4155
1998-12-08,17.5626
1998-12-09,17.7561
1998-12-10,17.609
1998-12-11,17.609
1998-12-14,17.2684
1998-12-15,17.369
1998-12-16,17.5626
1998-12-17,17.369
1998-12-18,17.5239
1998-12-21,17.8104
1998-12-22,17.7175
1998-12-23,17.8569
1998-12-24,18.1512
1998-12-28,18.3448
1998-12-29,18.2983
1998-12-30,18.0505
1998-12-31,18.1976
1999-01-04,18.3912
1999-01-05,18.1047
1999-01-06,18.0505
1999-01-07,18.2983
1999-01-08,18.5384
1999-01-11,18.2441
1999-01-12,18.2983
1999-01-13,18.4377
1999-01-14,18.1047
1999-01-15,18.3912
1999-01-19,18.7784
1999-01-20,19.6534
1999-01-21,19.3592
1999-01-22,19.2663
1999-01-25,19.1656
1999-01-26,19.6534
1999-01-27,19.3592
1999-01-28,19.5992
1999-01-29,19.8935
1999-02-01,20.0406
1999-02-02,19.7928
1999-02-03,19.6534
1999-02-04,19.3592
1999-02-05,19.3127
1999-02-08,19.0185
1999-02-09,18.3912
1999-02-10,18.6855
1999-02-11,19.1191
1999-02-12,18.5848
1999-02-16,18.972
1999-02-17,18.6855
1999-02-18,19.0727
1999-02-19,18.8249
1999-02-22,18.6313
1999-02-23,18.1976
1999-02-24,18.004
1999-02-25,17.6633
1999-02-26,17.7175
1999-03-01,15.7816
1999-03-02,15.9752
1999-03-03,15.6809
1999-03-04,15.8281
1999-03-05,15.9752
1999-03-08,16.1688
1999-03-09,16.2617
1999-03-10,15.6345
1999-03-11,15.3944
1999-03-12,15.7816
1999-03-15,15.4409
1999-03-16,15.4409
1999-03-17,15.0537
1999-03-18,14.713
1999-03-19,14.3723
1999-03-22,14.1787
1999-03-23,14.1864
1999-03-24,14.3801
1999-03-25,14.6745
1999-03-26,14.8682
1999-03-29,14.8682
1999-03-30,14.6745
1999-03-31,14.5273
1999-04-01,14.628
1999-04-05,14.7675
1999-04-06,14.0469
1999-04-07,13.9927
1999-04-08,14.4343
1999-04-09,15.0619
1999-04-12,15.3021
1999-04-13,15.4028
1999-04-14,15.4493
1999-04-15,15.1549
1999-04-16,15.4493
1999-04-19,15.5423
1999-04-20,15.6895
1999-04-21,16.1234
1999-04-22,15.736
1999-04-23,15.2556
1999-04-26,15.1549
1999-04-27,14.8682
1999-04-28,15.0619
1999-04-29,15.0154
1999-04-30,14.7675
1999-05-03,14.3801
1999-05-04,14.5738
1999-05-05,14.2406
1999-05-06,14.1399
1999-05-07,14.3336
1999-05-10,14.2406
1999-05-11,13.9927
1999-05-12,14.2406
1999-05-13,14.7675
1999-05-14,14.5738
1999-05-17,14.8682
1999-05-18,15.1084
1999-05-19,15.2091
1999-05-20,14.5738
1999-05-21,14.4343
1999-05-24,14.2406
1999-05-25,14.3336
1999-05-26,14.1399
1999-05-27,14.1399
1999-05-28,14.3801
1999-06-01,14.8682
1999-06-02,15.2091
1999-06-03,14.7675
1999-06-04,14.9147
1999-06-07,15.1084
1999-06-08,15.0154
1999-06-09,14.8682
1999-06-10,14.9147
1999-06-11,14.8682
1999-06-14,14.9612
1999-06-15,14.8217
1999-06-16,14.9612
1999-06-17,14.9147
1999-06-18,14.8682
1999-06-21,14.9147
1999-06-22,14.6822
1999-06-23,14.7752
1999-06-24,14.7287
1999-06-25,14.5814
1999-06-28,15.0232
1999-06-29,14.969
1999-06-30,14.7287
1999-07-01,15.0698
1999-07-02,14.7752
1999-07-06,14.7287
1999-07-07,14.7752
1999-07-08,14.7287
1999-07-09,14.4418
1999-07-12,14.1473
1999-07-13,13.9535
1999-07-14,13.9535
1999-07-15,13.907
1999-07-16,13.9535
1999-07-19,13.7597
1999-07-20,13.6667
1999-07-21,13.8062
1999-07-22,13.7597
1999-07-23,13.7597
1999-07-26,13.5659
1999-07-27,13.7597
1999-07-28,13.6124
1999-07-29,13.1318
1999-07-30,13.0853
1999-08-02,12.1628
1999-08-03,12.4031
1999-08-04,12.4496
1999-08-05,12.1628
1999-08-06,12.0155
1999-08-09,12.8372
1999-08-10,12.5969
1999-08-11,12.4031
1999-08-12,12.3566
1999-08-13,12.3101
1999-08-16,12.4496
1999-08-17,12.4031
1999-08-18,12.2558
1999-08-19,12.2093
1999-08-20,12.2093
1999-08-23,12.3566
1999-08-24,12.1163
1999-08-25,12.2558
1999-08-26,12.3101
1999-08-27,12.1163
1999-08-30,12.1163
1999-08-31,12.1163
1999-09-01,11.9225
1999-09-02,11.6279
1999-09-03,11.8682
1999-09-07,11.7287
1999-09-08,11.4341
1999-09-09,11.6279
1999-09-10,11.969
1999-09-13,12.062
1999-09-14,11.8217
1999-09-15,11.7287
1999-09-16,12.1628
1999-09-17,11.8682
1999-09-20,11.8682
1999-09-21,11.7363
1999-09-22,11.4416
1999-09-23,11.395
1999-09-24,11.2942
1999-09-27,11.2476
1999-09-28,10.9606
1999-09-29,11.395
1999-09-30,12.4112
1999-10-01,12.512
1999-10-04,13.3343
1999-10-05,13.0395
1999-10-06,13.4817
1999-10-07,13.8152
1999-10-08,14.1565
1999-10-11,13.8695
1999-10-12,13.7221
1999-10-13,13.1869
1999-10-14,13.3808
1999-10-15,13.4817
1999-10-18,13.3343
1999-10-19,13.9626
1999-10-20,14.397
1999-10-21,14.11
1999-10-22,14.2031
1999-10-25,14.0634
1999-10-26,14.3504
1999-10-27,14.2031
1999-10-28,14.11
1999-10-29,14.3039
1999-11-01,14.2031
1999-11-02,14.0091
1999-11-03,13.7687
1999-11-04,13.9626
1999-11-05,13.9626
1999-11-08,14.1565
1999-11-09,13.9161
1999-11-10,13.9626
1999-11-11,13.8695
1999-11-12,13.8152
1999-11-15,13.8695
1999-11-16,13.4817
1999-11-17,13.4817
1999-11-18,13.6756
1999-11-19,13.5282
1999-11-22,13.1869
1999-11-23,13.0938
1999-11-24,12.799
1999-11-26,12.799
1999-11-29,12.9464
1999-11-30,12.706
1999-12-01,12.512
1999-12-02,12.4577
1999-12-03,12.4112
1999-12-06,12.6051
1999-12-07,12.993
1999-12-08,12.993
1999-12-09,13.0395
1999-12-10,12.7525
1999-12-13,12.799
1999-12-14,12.4112
1999-12-15,12.2173
1999-12-16,12.2173
1999-12-17,12.3181
1999-12-20,12.2638
1999-12-21,11.8368
1999-12-22,11.6894
1999-12-23,11.9377
1999-12-27,12.3724
1999-12-28,12.613
1999-12-29,12.5199
1999-12-30,12.3258
1999-12-31,12.6596
2000-01-03,12.5199
2000-01-04,12.419
2000-01-05,12.5199
2000-01-06,12.419
2000-01-07,12.5199
2000-01-10,12.7139
2000-01-11,12.5199
2000-01-12,12.2715
2000-01-13,12.5665
2000-01-14,12.3724
2000-01-18,12.5199
2000-01-19,12.4656
2000-01-20,12.1318
2000-01-21,12.3724
2000-01-24,12.419
2000-01-25,13.3426
2000-01-26,13.3426
2000-01-27,12.908
2000-01-28,13.1952
2000-01-31,12.613
2000-02-01,14.3129
2000-02-02,14.0723
2000-02-03,14.2663
2000-02-04,13.9714
2000-02-07,13.8782
2000-02-08,13.6842
2000-02-09,13.1952
2000-02-10,13.1486
2000-02-11,12.908
2000-02-14,12.8536
2000-02-15,12.8536
2000-02-16,12.8071
2000-02-17,12.7139
2000-02-18,12.3258
2000-02-22,12.3258
2000-02-23,12.613
2000-02-24,12.4656
2000-02-25,12.8071
2000-02-28,12.8071
2000-02-29,12.5199
2000-03-01,12.5199
2000-03-02,12.3258
2000-03-03,12.8071
2000-03-06,12.613
2000-03-07,12.0775
2000-03-08,12.2715
2000-03-09,12.3724
2000-03-10,12.3724
2000-03-13,12.0775
2000-03-14,11.9843
2000-03-15,11.9843
2000-03-16,12.4656
2000-03-17,12.3724
2000-03-20,12.4656
2000-03-21,12.5277
2000-03-22,12.3335
2000-03-23,12.4267
2000-03-24,12.3335
2000-03-27,12.3801
2000-03-28,12.3335
2000-03-29,12.2792
2000-03-30,12.2326
2000-03-31,12.2326
2000-04-03,13.3976
2000-04-04,12.6675
2000-04-05,12.916
2000-04-06,13.4442
2000-04-07,13.5917
2000-04-10,13.6383
2000-04-11,13.7859
2000-04-12,13.6927
2000-04-13,13.351
2000-04-14,13.7393
2000-04-17,14.3218
2000-04-18,14.2208
2000-04-19,14.3684
2000-04-20,14.415
2000-04-24,13.4442
2000-04-25,13.8869
2000-04-26,14.8033
2000-04-27,15.0519
2000-04-28,15.4402
2000-05-01,15.4868
2000-05-02,15.246
2000-05-03,15.5334
2000-05-04,15.3858
2000-05-05,15.3392
2000-05-08,15.3392
2000-05-09,15.4402
2000-05-10,14.9509
2000-05-11,15.246
2000-05-12,15.1917
2000-05-15,15.246
2000-05-16,15.0519
2000-05-17,14.8033
2000-05-18,15.1451
2000-05-19,14.9975
2000-05-22,15.3858
2000-05-23,14.8033
2000-05-24,14.516
2000-05-25,14.081
2000-05-26,14.7567
2000-05-30,14.9509
2000-05-31,14.9509
2000-06-01,15.3858
2000-06-02,15.6344
2000-06-05,15.6344
2000-06-06,15.58
2000-06-07,15.4402
2000-06-08,15.0519
2000-06-09,15.0519
2000-06-12,14.9509
2000-06-13,14.7567
2000-06-14,14.7101
2000-06-15,14.7101
2000-06-16,14.7101
2000-06-19,14.415
2000-06-20,14.091
2000-06-21,13.7956
2000-06-22,14.2853
2000-06-23,14.091
2000-06-26,13.9433
2000-06-27,13.749
2000-06-28,13.9433
2000-06-29,13.749
2000-06-30,12.9251
2000-07-03,13.1194
2000-07-05,13.749
2000-07-06,13.648
2000-07-07,13.8967
2000-07-10,13.6013
2000-07-11,13.5081
2000-07-12,13.8967
2000-07-13,13.8423
2000-07-14,14.2309
2000-07-17,14.2309
2000-07-18,13.9899
2000-07-19,14.1842
2000-07-20,14.2853
2000-07-21,14.2853
2000-07-24,14.3785
2000-07-25,14.2309
2000-07-26,14.091
2000-07-27,14.1376
2000-07-28,14.1842
2000-07-31,13.9433
2000-08-01,13.9899
2000-08-02,14.3785
2000-08-03,13.9899
2000-08-04,14.0366
2000-08-07,14.0366
2000-08-08,13.8967
2000-08-09,13.9433
2000-08-10,13.648
2000-08-11,13.749
2000-08-14,13.6013
2000-08-15,13.6013
2000-08-16,13.9433
2000-08-17,13.7956
2000-08-18,13.8423
2000-08-21,13.5081
2000-08-22,13.749
2000-08-23,13.6013
2000-08-24,13.3604
2000-08-25,12.7308
2000-08-28,12.8241
2000-08-29,13.1194
2000-08-30,13.0184
2000-08-31,12.8707
2000-09-01,12.6298
2000-09-05,13.2127
2000-09-06,13.3137
2000-09-07,12.9718
2000-09-08,13.0184
2000-09-11,13.0184
2000-09-12,13.1661
2000-09-13,13.0184
2000-09-14,12.8241
2000-09-15,12.9718
2000-09-18,12.4821
2000-09-19,12.6867
2000-09-20,13.5657
2000-09-21,13.2701
2000-09-22,13.3712
2000-09-25,13.3712
2000-09-26,13.5657
2000-09-27,13.3712
2000-09-28,13.659
2000-09-29,13.029
2000-10-02,13.1768
2000-10-03,13.3712
2000-10-04,13.1768
2000-10-05,13.2234
2000-10-06,13.2234
2000-10-09,12.6401
2000-10-10,12.7412
2000-10-11,12.4456
2000-10-12,12.2511
2000-10-13,12.2511
2000-10-16,12.4456
2000-10-17,12.8345
2000-10-18,12.7879
2000-10-19,12.9356
2000-10-20,12.3989
2000-10-23,12.5467
2000-10-24,12.7412
2000-10-25,12.4456
2000-10-26,12.3989
2000-10-27,12.4456
2000-10-30,12.7412
2000-10-31,12.7879
2000-11-01,12.3989
2000-11-02,12.9356
2000-11-03,12.7879
2000-11-06,12.5467
2000-11-07,12.3989
2000-11-08,12.1578
2000-11-09,11.8155
2000-11-10,12.0567
2000-11-13,11.8155
2000-11-14,12.01
2000-11-15,12.4456
2000-11-16,12.6867
2000-11-17,12.6401
2000-11-20,12.5467
2000-11-21,12.1578
2000-11-22,12.1578
2000-11-24,12.01
2000-11-27,12.1033
2000-11-28,12.4456
2000-11-29,12.4456
2000-11-30,12.5467
2000-12-01,13.1768
2000-12-04,13.2234
2000-12-05,13.2701
2000-12-06,13.1301
2000-12-07,13.4179
2000-12-08,13.5657
2000-12-11,13.7602
2000-12-12,13.908
2000-12-13,13.908
2000-12-14,13.659
2000-12-15,13.908
2000-12-18,14.8258
2000-12-19,14.7892
2000-12-20,14.5946
2000-12-21,15.2796
2000-12-22,15.5676
2000-12-26,16.0035
2000-12-27,16.2526
2000-12-28,17.4201
2000-12-29,17.3656
2001-01-02,17.0309
2001-01-03,17.3656
2001-01-04,18.7823
2001-01-05,18.2452
2001-01-08,18.144
2001-01-09,17.2722
2001-01-10,17.9494
2001-01-11,18.0973
2001-01-12,17.7081
2001-01-16,17.5135
2001-01-17,18.0039
2001-01-18,17.9027
2001-01-19,17.5602
2001-01-22,17.4201
2001-01-23,18.0039
2001-01-24,18.0039
2001-01-25,17.6614
2001-01-26,18.0039
2001-01-29,18.323
2001-01-30,18.0662
2001-01-31,18.2841
2001-02-01,19.0002
2001-02-02,18.6967
2001-02-05,18.5955
2001-02-06,18.6889
2001-02-07,18.7979
2001-02-08,18.6188
2001-02-09,18.5643
2001-02-12,18.8679
2001-02-13,18.7901
2001-02-14,18.6033
2001-02-15,18.829
2001-02-16,18.6811
2001-02-20,18.5955
2001-02-21,18.2141
2001-02-22,18.0195
2001-02-23,18.3698
2001-02-26,18.6811
2001-02-27,18.6811
2001-02-28,18.5254
2001-03-01,18.6889
2001-03-02,18.7512
2001-03-05,18.7745
2001-03-06,18.7823
2001-03-07,18.8134
2001-03-08,18.8056
2001-03-09,18.6733
2001-03-12,18.362
2001-03-13,17.9806
2001-03-14,17.2645
2001-03-15,17.6459
2001-03-16,17.4902
2001-03-19,17.5135
2001-03-20,17.4473
2001-03-21,17.3149
2001-03-22,17.1357
2001-03-23,17.385
2001-03-26,17.9146
2001-03-27,17.7199
2001-03-28,17.9224
2001-03-29,17.9536
2001-03-30,18.8182
2001-04-02,19.6282
2001-04-03,19.5503
2001-04-04,19.0051
2001-04-05,18.9973
2001-04-06,19.083
2001-04-09,19.0674
2001-04-10,19.083
2001-04-11,19.527
2001-04-12,19.5114
2001-04-16,20.1734
2001-04-17,19.6282
2001-04-18,20.1734
2001-04-19,20.7966
2001-04-20,20.7654
2001-04-23,20.5162
2001-04-24,20.2513
2001-04-25,20.4461
2001-04-26,20.6408
2001-04-27,21.926
2001-04-30,21.9805
2001-05-01,22.0817
2001-05-02,22.1986
2001-05-03,22.0428
2001-05-04,22.1207
2001-05-07,21.926
2001-05-08,21.887
2001-05-09,21.8169
2001-05-10,21.9649
2001-05-11,21.8091
2001-05-14,22.1752
2001-05-15,22.7204
2001-05-16,23.2501
2001-05-17,23.2735
2001-05-18,23.1956
2001-05-21,23.0631
2001-05-22,23.6785
2001-05-23,23.2812
2001-05-24,23.1566
2001-05-25,23.2111
2001-05-29,22.8217
2001-05-30,22.588
2001-05-31,22.6348
2001-06-01,24.73
2001-06-04,23.8654
2001-06-05,23.6084
2001-06-06,23.476
2001-06-07,23.4682
2001-06-08,23.7719
2001-06-11,23.5694
2001-06-12,23.2579
2001-06-13,23.7564
2001-06-14,22.1986
2001-06-15,22.3699
2001-06-18,21.8013
2001-06-19,21.4701
2001-06-20,21.4701
2001-06-21,21.626
2001-06-22,21.8754
2001-06-25,21.4779
2001-06-26,21.2363
2001-06-27,21.9455
2001-06-28,22.6235
2001-06-29,22.3585
2001-07-02,22.9041
2001-07-03,22.9119
2001-07-05,22.5456
2001-07-06,22.3897
2001-07-09,22.4365
2001-07-10,22.2884
2001-07-11,22.5845
2001-07-12,23.5587
2001-07-13,23.5977
2001-07-16,25.2498
2001-07-17,25.959
2001-07-18,24.9459
2001-07-19,25.9512
2001-07-20,26.8864
2001-07-23,26.0525
2001-07-24,26.0291
2001-07-25,26.9721
2001-07-26,27.6969
2001-07-27,27.2449
2001-07-30,27.2994
2001-07-31,26.8084
2001-08-01,26.637
2001-08-02,26.7305
2001-08-03,26.4889
2001-08-06,26.5045
2001-08-07,26.3954
2001-08-08,25.8811
2001-08-09,24.9147
2001-08-10,24.7277
2001-08-13,25.2732
2001-08-14,25.3122
2001-08-15,25.055
2001-08-16,24.603
2001-08-17,23.9172
2001-08-20,24.4237
2001-08-21,24.2601
2001-08-22,23.9172
2001-08-23,22.8028
2001-08-24,21.4312
2001-08-27,21.4312
2001-08-28,21.135
2001-08-29,20.2544
2001-08-30,19.9193
2001-08-31,19.4907
2001-09-04,20.0907
2001-09-05,18.7815
2001-09-06,17.8931
2001-09-07,17.6515
2001-09-10,17.7138
2001-09-17,16.802
2001-09-18,16.6733
2001-09-19,16.9229
2001-09-20,16.377
2001-09-21,15.7141
2001-09-24,17.1569
2001-09-25,18.3812
2001-09-26,18.4046
2001-09-27,18.4514
2001-09-28,18.7556
2001-10-01,17.8665
2001-10-02,18.3266
2001-10-03,18.9895
2001-10-04,19.3405
2001-10-05,18.9973
2001-10-08,18.7556
2001-10-09,19.0207
2001-10-10,19.9643
2001-10-11,19.7304
2001-10-12,19.0285
2001-10-15,18.3266
2001-10-16,18.1707
2001-10-17,18.0849
2001-10-18,17.1725
2001-10-19,16.572
2001-10-22,16.182
2001-10-23,16.6733
2001-10-24,15.9949
2001-10-25,16.0651
2001-10-26,16.1508
2001-10-29,15.8857
2001-10-30,15.098
2001-10-31,15.4802
2001-11-01,15.3164
2001-11-02,15.5815
2001-11-05,16.5642
2001-11-06,16.8371
2001-11-07,16.0495
2001-11-08,16.0729
2001-11-09,16.143
2001-11-12,16.0261
2001-11-13,16.143
2001-11-14,15.9637
2001-11-15,16.6811
2001-11-16,16.0183
2001-11-19,15.8077
2001-11-20,15.7765
2001-11-21,15.4334
2001-11-23,15.5036
2001-11-26,15.3554
2001-11-27,15.4646
2001-11-28,15.7219
2001-11-29,15.4958
2001-11-30,15.7609
2001-12-03,15.7531
2001-12-04,15.41
2001-12-05,15.9091
2001-12-06,15.41
2001-12-07,15.0044
2001-12-10,14.9655
2001-12-11,15.0122
2001-12-12,15.41
2001-12-13,15.3242
2001-12-14,15.1292
2001-12-17,15.1838
2001-12-18,15.2189
2001-12-19,15.5701
2001-12-20,15.414
2001-12-21,15.7028
2001-12-24,15.8433
2001-12-26,16.1477
2001-12-27,16.3272
2001-12-28,16.4521
2001-12-31,16.4677
2002-01-02,16.3896
2002-01-03,16.4286
2002-01-04,16.6238
2002-01-07,16.4755
2002-01-08,16.3428
2002-01-09,16.7018
2002-01-10,16.3428
2002-01-11,16.3584
2002-01-14,16.3662
2002-01-15,16.7798
2002-01-16,17.3418
2002-01-17,17.7242
2002-01-18,17.7944
2002-01-22,18.333
2002-01-23,18.6998
2002-01-24,19.0978
2002-01-25,18.8949
2002-01-28,18.8715
2002-01-29,18.333
2002-01-30,18.4032
2002-01-31,19.1758
2002-02-01,18.77
2002-02-04,18.3954
2002-02-05,18.0598
2002-02-06,18.1456
2002-02-07,18.1847
2002-02-08,18.333
2002-02-11,18.0208
2002-02-12,17.8803
2002-02-13,17.7632
2002-02-14,17.6305
2002-02-15,17.6227
2002-02-19,17.0296
2002-02-20,16.9594
2002-02-21,17.1701
2002-02-22,17.0062
2002-02-25,17.092
2002-02-26,17.053
2002-02-27,17.5993
2002-02-28,17.9661
2002-03-01,18.0598
2002-03-04,19.2383
2002-03-05,19.73
2002-03-06,19.5114
2002-03-07,19.3788
2002-03-08,19.6519
2002-03-11,19.9485
2002-03-12,19.9017
2002-03-13,20.9241
2002-03-14,21.6655
2002-03-15,21.7748
2002-03-18,22.6177
2002-03-19,21.3644
2002-03-20,20.7319
2002-03-21,20.6928
2002-03-22,20.6772
2002-03-25,19.912
2002-03-26,19.6777
2002-03-27,19.9744
2002-03-28,19.6309
2002-04-01,20.1384
2002-04-02,19.748
2002-04-03,19.1467
2002-04-04,19.1858
2002-04-05,19.7168
2002-04-08,19.5528
2002-04-09,19.4435
2002-04-10,19.7402
2002-04-11,19.2717
2002-04-12,19.7558
2002-04-15,16.281
2002-04-16,16.3981
2002-04-17,15.6407
2002-04-18,16.2966
2002-04-19,16.2575
2002-04-22,16.5386
2002-04-23,16.3903
2002-04-24,16.0936
2002-04-25,16.0077
2002-04-26,16.5621
2002-04-29,16.8588
2002-04-30,17.2258
2002-05-01,17.8973
2002-05-02,18.4049
2002-05-03,17.6084
2002-05-06,17.421
2002-05-07,17.179
2002-05-08,17.2961
2002-05-09,17.3351
2002-05-10,17.218
2002-05-13,17.257
2002-05-14,17.5928
2002-05-15,17.9208
2002-05-16,17.7099
2002-05-17,17.6084
2002-05-20,17.5694
2002-05-21,17.6709
2002-05-22,17.5928
2002-05-23,17.6006
2002-05-24,17.5382
2002-05-28,17.6084
2002-05-29,17.5928
2002-05-30,17.5694
2002-05-31,17.6787
2002-06-03,17.382
2002-06-04,17.0384
2002-06-05,16.7417
2002-06-06,16.5465
2002-06-07,16.5621
2002-06-10,16.6089
2002-06-11,15.7578
2002-06-12,15.7187
2002-06-13,15.4064
2002-06-14,15.9608
2002-06-17,15.6953
2002-06-18,15.7485
2002-06-19,15.6312
2002-06-20,15.0998
2002-06-21,14.9044
2002-06-24,14.7403
2002-06-25,14.7715
2002-06-26,14.6543
2002-06-27,14.8419
2002-06-28,14.3807
2002-07-01,14.7324
2002-07-02,14.2635
2002-07-03,14.3104
2002-07-05,14.8497
2002-07-08,15.0685
2002-07-09,14.7403
2002-07-10,14.6074
2002-07-11,14.6308
2002-07-12,14.6074
2002-07-15,14.0447
2002-07-16,13.6773
2002-07-17,12.3956
2002-07-18,12.8645
2002-07-19,12.6769
2002-07-22,12.4346
2002-07-23,12.2783
2002-07-24,13.2944
2002-07-25,12.6379
2002-07-26,12.7004
2002-07-29,13.4038
2002-07-30,13.3334
2002-07-31,13.3647
2002-08-01,13.0365
2002-08-02,12.7316
2002-08-05,12.0361
2002-08-06,12.0829
2002-08-07,12.294
2002-08-08,12.7473
2002-08-09,12.5753
2002-08-12,12.4972
2002-08-13,12.4815
2002-08-14,12.7707
2002-08-15,12.9036
2002-08-16,13.7477
2002-08-19,13.7477
2002-08-20,13.3569
2002-08-21,13.3491
2002-08-22,13.4507
2002-08-23,13.0677
2002-08-26,13.3647
2002-08-27,13.1693
2002-08-28,12.8958
2002-08-29,13.5132
2002-08-30,13.3647
2002-09-03,12.5206
2002-09-04,12.6613
2002-09-05,12.3565
2002-09-06,12.5206
2002-09-09,12.9739
2002-09-10,12.6457
2002-09-11,12.6222
2002-09-12,12.294
2002-09-13,12.333
2002-09-16,12.1298
2002-09-17,12.0813
2002-09-18,12.003
2002-09-19,11.7761
2002-09-20,11.4553
2002-09-23,11.0641
2002-09-24,10.8763
2002-09-25,10.9389
2002-09-26,11.2988
2002-09-27,10.9154
2002-09-30,10.2816
2002-10-01,10.712
2002-10-02,10.3598
2002-10-03,9.85907
2002-10-04,9.45218
2002-10-07,9.13137
2002-10-08,9.49913
2002-10-09,9.28004
2002-10-10,9.54608
2002-10-11,10.0547
2002-10-14,10.0782
2002-10-15,9.93731
2002-10-16,9.45218
2002-10-17,9.80429
2002-10-18,9.97644
2002-10-21,10.2503
2002-10-22,10.1721
2002-10-23,10.1408
2002-10-24,10.1721
2002-10-25,10.3598
2002-10-28,10.2659
2002-10-29,10.0547
2002-10-30,10.2659
2002-10-31,10.5633
2002-11-01,10.5555
2002-11-04,10.9154
2002-11-05,10.6024
2002-11-06,10.5398
2002-11-07,10.1955
2002-11-08,10.1486
2002-11-11,9.92949
2002-11-12,9.99209
2002-11-13,9.43653
2002-11-14,9.78864
2002-11-15,9.80429
2002-11-18,9.6478
2002-11-19,9.70257
2002-11-20,9.6791
2002-11-21,10.1799
2002-11-22,10.485
2002-11-25,10.665
2002-11-26,10.2503
2002-11-27,10.665
2002-11-29,10.5633
2002-12-02,10.5633
2002-12-03,10.4929
2002-12-04,10.2425
2002-12-05,10.2816
2002-12-06,10.485
2002-12-09,10.1486
2002-12-10,10.4303
2002-12-11,10.3833
2002-12-12,10.4459
2002-12-13,10.3677
2002-12-16,10.5242
2002-12-17,10.4068
2002-12-18,10.4523
2002-12-19,10.4053
2002-12-20,10.6169
2002-12-23,10.7971
2002-12-24,10.9616
2002-12-26,10.8441
2002-12-27,10.7736
2002-12-30,10.5934
2002-12-31,10.5777
2003-01-02,10.7266
2003-01-03,11.1262
2003-01-06,11.8314
2003-01-07,12.1448
2003-01-08,11.8784
2003-01-09,11.7373
2003-01-10,12.372
2003-01-13,12.1683
2003-01-14,11.7295
2003-01-15,11.6041
2003-01-16,11.659
2003-01-17,11.1889
2003-01-21,11.3534
2003-01-22,10.7893
2003-01-23,11.3534
2003-01-24,11.1419
2003-01-27,10.8833
2003-01-28,11.1184
2003-01-29,11.228
2003-01-30,11.1419
2003-01-31,11.3769
2003-02-03,11.5258
2003-02-04,11.181
2003-02-05,11.1575
2003-02-06,11.0165
2003-02-07,11.1732
2003-02-10,11.3691
2003-02-11,11.5101
2003-02-12,11.4083
2003-02-13,11.228
2003-02-14,11.3064
2003-02-18,11.6276
2003-02-19,11.5728
2003-02-20,11.6982
2003-02-21,11.9567
2003-02-24,11.9567
2003-02-25,11.9332
2003-02-26,11.8
2003-02-27,12.0743
2003-02-28,12.278
2003-03-03,12.6071
2003-03-04,12.1213
2003-03-05,11.9019
2003-03-06,11.753
2003-03-07,12.1056
2003-03-10,11.7922
2003-03-11,11.612
2003-03-12,11.5571
2003-03-13,11.612
2003-03-14,11.4944
2003-03-17,11.9097
2003-03-18,11.8768
2003-03-19,11.8454
2003-03-20,11.7669
2003-03-21,12.2376
2003-03-24,11.916
2003-03-25,12.3553
2003-03-26,11.8062
2003-03-27,12.0337
2003-03-28,12.1984
2003-03-31,12.1749
2003-04-01,12.2219
2003-04-02,12.5749
2003-04-03,12.52
2003-04-04,12.5985
2003-04-07,12.6769
2003-04-08,12.7475
2003-04-09,12.6691
2003-04-10,12.6926
2003-04-11,12.7161
2003-04-14,13.0692
2003-04-15,13.3594
2003-04-16,13.6653
2003-04-17,13.7673
2003-04-21,13.9242
2003-04-22,14.4184
2003-04-23,14.6224
2003-04-24,14.7165
2003-04-25,14.5126
2003-04-28,14.5832
2003-04-29,14.5126
2003-04-30,14.4341
2003-05-01,14.7636
2003-05-02,14.8891
2003-05-05,14.6381
2003-05-06,14.9832
2003-05-07,14.9126
2003-05-08,14.6773
2003-05-09,14.7558
2003-05-12,14.944
2003-05-13,15.0068
2003-05-14,15.1009
2003-05-15,15.2578
2003-05-16,15.4461
2003-05-19,14.9832
2003-05-20,15.1088
2003-05-21,15.0617
2003-05-22,14.897
2003-05-23,15.2186
2003-05-27,15.7677
2003-05-28,16.003
2003-05-29,16.2384
2003-05-30,16.309
2003-06-02,16.764
2003-06-03,16.7718
2003-06-04,17.2425
2003-06-05,17.47
2003-06-06,17.6426
2003-06-09,16.866
2003-06-10,17.1484
2003-06-11,17.619
2003-06-12,17.8073
2003-06-13,17.5328
2003-06-16,17.9721
2003-06-17,18.0348
2003-06-18,18.0584
2003-06-19,17.7757
2003-06-20,18.0505
2003-06-23,17.3517
2003-06-24,17.5873
2003-06-25,17.4695
2003-06-26,17.4459
2003-06-27,17.4852
2003-06-30,17.5009
2003-07-01,17.6265
2003-07-02,17.6658
2003-07-03,17.705
2003-07-07,18.1997
2003-07-08,18.6237
2003-07-09,18.5294
2003-07-10,18.0662
2003-07-11,18.0505
2003-07-14,18.8043
2003-07-15,18.7257
2003-07-16,17.9798
2003-07-17,17.8307
2003-07-18,18.4902
2003-07-21,18.0348
2003-07-22,18.3881
2003-07-23,18.5059
2003-07-24,18.2939
2003-07-25,18.6865
2003-07-28,18.5766
2003-07-29,18.396
2003-07-30,18.2939
2003-07-31,18.2232
2003-08-01,18.4902
2003-08-04,18.4117
2003-08-05,18.5294
2003-08-06,18.3018
2003-08-07,18.4902
2003-08-08,18.5766
2003-08-11,18.5766
2003-08-12,19.0791
2003-08-13,18.9848
2003-08-14,19.2518
2003-08-15,19.1497
2003-08-18,19.5423
2003-08-19,19.4559
2003-08-20,19.401
2003-08-21,19.6679
2003-08-22,19.2282
2003-08-25,19.401
2003-08-26,19.5344
2003-08-27,19.5972
2003-08-28,19.7307
2003-08-29,19.8171
2003-09-02,20.5551
2003-09-03,20.9713
2003-09-04,21.0419
2003-09-05,20.8142
2003-09-08,20.6493
2003-09-09,20.6336
2003-09-10,20.0605
2003-09-11,20.2646
2003-09-12,20.5944
2003-09-15,20.0212
2003-09-16,20.3039
2003-09-17,20.2803
2003-09-18,20.5239
2003-09-19,20.9796
2003-09-22,20.6182
2003-09-23,20.681
2003-09-24,20.3903
2003-09-25,20.3039
2003-09-26,20.7439
2003-09-29,21.0346
2003-09-30,20.6653
2003-10-01,21.2153
2003-10-02,21.1839
2003-10-03,21.2861
2003-10-06,21.7182
2003-10-07,22.0168
2003-10-08,22.0011
2003-10-09,22.1347
2003-10-10,22.3625
2003-10-13,22.7869
2003-10-14,22.5668
2003-10-15,21.3096
2003-10-16,21.4432
2003-10-17,21.0189
2003-10-20,20.9875
2003-10-21,20.6103
2003-10-22,20.351
2003-10-23,20.3903
2003-10-24,20.3982
2003-10-27,21.0425
2003-10-28,21.6161
2003-10-29,21.6711
2003-10-30,21.5532
2003-10-31,21.5925
2003-11-03,22.064
2003-11-04,22.0011
2003-11-05,21.7732
2003-11-06,22.1032
2003-11-07,22.3704
2003-11-10,22.2918
2003-11-11,22.3075
2003-11-12,22.5668
2003-11-13,22.6611
2003-11-14,22.7869
2003-11-17,22.8104
2003-11-18,22.779
2003-11-19,22.7554
2003-11-20,22.2054
2003-11-21,21.9932
2003-11-24,22.3783
2003-11-25,22.5904
2003-11-26,22.834
2003-11-28,22.9204
2003-12-01,23.3997
2003-12-02,23.4076
2003-12-03,23.2269
2003-12-04,22.8026
2003-12-05,22.8733
2003-12-08,22.7004
2003-12-09,22.8497
2003-12-10,22.7004
2003-12-11,23.3133
2003-12-12,23.7062
2003-12-15,23.329
2003-12-16,23.6512
2003-12-17,23.0693
2003-12-18,23.659
2003-12-19,23.4781
2003-12-22,23.5568
2003-12-23,23.8477
2003-12-24,23.9499
2003-12-26,24.1858
2003-12-29,24.4531
2003-12-30,24.3509
2003-12-31,24.4688
2004-01-02,24.0364
2004-01-05,24.233
2004-01-06,24.2723
2004-01-07,24.2801
2004-01-08,24.2487
2004-01-09,24.1229
2004-01-12,24.0521
2004-01-13,23.7219
2004-01-14,23.9263
2004-01-15,23.6668
2004-01-16,23.4152
2004-01-20,23.5096
2004-01-21,18.5482
2004-01-22,19.303
2004-01-23,18.3595
2004-01-26,18.3595
2004-01-27,18.1393
2004-01-28,18.0922
2004-01-29,18.1315
2004-01-30,18.0607
2004-02-02,17.7934
2004-02-03,17.5968
2004-02-04,17.3767
2004-02-05,17.6912
2004-02-06,18.0529
2004-02-09,17.9192
2004-02-10,18.1315
2004-02-11,17.8877
2004-02-12,17.7069
2004-02-13,17.5103
2004-02-17,17.9585
2004-02-18,17.4553
2004-02-19,17.3688
2004-02-20,17.015
2004-02-23,16.9521
2004-02-24,16.6611
2004-02-25,16.5353
2004-02-26,16.7712
2004-02-27,16.6926
2004-03-01,16.5904
2004-03-02,16.8813
2004-03-03,16.7319
2004-03-04,16.7555
2004-03-05,16.7555
2004-03-08,17.2902
2004-03-09,16.5118
2004-03-10,16.1186
2004-03-11,15.9142
2004-03-12,15.8591
2004-03-15,15.6469
2004-03-16,15.6469
2004-03-17,15.9144
2004-03-18,16.064
2004-03-19,15.8987
2004-03-22,15.4973
2004-03-23,15.7334
2004-03-24,15.6626
2004-03-25,16.1112
2004-03-26,15.8515
2004-03-29,16.4575
2004-03-30,16.6307
2004-03-31,16.5047
2004-04-01,17.3548
2004-04-02,17.6853
2004-04-05,18.1654
2004-04-06,18.0316
2004-04-07,17.9529
2004-04-08,17.6302
2004-04-12,17.6775
2004-04-13,17.4335
2004-04-14,17.2367
2004-04-15,17.3548
2004-04-16,17.7168
2004-04-19,17.6696
2004-04-20,17.3705
2004-04-21,17.7404
2004-04-22,18.0002
2004-04-23,17.8034
2004-04-26,17.3469
2004-04-27,17.4964
2004-04-28,17.6775
2004-04-29,17.4099
2004-04-30,17.4492
2004-05-03,17.5909
2004-05-04,17.8742
2004-05-05,17.89
2004-05-06,17.6066
2004-05-07,17.4886
2004-05-10,17.4335
2004-05-11,17.1501
2004-05-12,17.0714
2004-05-13,17.6617
2004-05-14,17.465
2004-05-17,17.339
2004-05-18,17.4099
2004-05-19,17.5043
2004-05-20,17.465
2004-05-21,17.8034
2004-05-24,17.7011
2004-05-25,17.827
2004-05-26,17.9687
2004-05-27,17.7483
2004-05-28,18.1103
2004-06-01,18.3386
2004-06-02,18.5668
2004-06-03,18.0159
2004-06-04,18.2048
2004-06-07,18.2363
2004-06-08,17.7877
2004-06-09,17.8978
2004-06-10,17.6932
2004-06-14,17.2682
2004-06-15,17.6853
2004-06-16,17.5592
2004-06-17,17.4804
2004-06-18,17.0782
2004-06-21,16.9994
2004-06-22,16.9915
2004-06-23,16.9836
2004-06-24,16.889
2004-06-25,16.8023
2004-06-28,16.9994
2004-06-29,16.8496
2004-06-30,17.2044
2004-07-01,16.96
2004-07-02,17.0073
2004-07-06,16.5736
2004-07-07,16.5973
2004-07-08,17.3542
2004-07-09,17.3306
2004-07-12,17.2044
2004-07-13,16.9521
2004-07-14,16.755
2004-07-15,16.7392
2004-07-16,16.55
2004-07-19,16.5184
2004-07-20,16.8102
2004-07-21,18.0244
2004-07-22,18.1979
2004-07-23,18.1663
2004-07-26,18.0481
2004-07-27,18.1663
2004-07-28,17.8431
2004-07-29,18.1506
2004-07-30,17.9929
2004-08-02,18.0323
2004-08-03,17.8904
2004-08-04,17.7248
2004-08-05,17.3463
2004-08-06,17.0782
2004-08-09,17.2832
2004-08-10,16.9994
2004-08-11,17.0152
2004-08-12,16.6446
2004-08-13,16.613
2004-08-16,17.299
2004-08-17,17.4094
2004-08-18,17.4646
2004-08-19,17.4567
2004-08-20,17.7169
2004-08-23,17.2832
2004-08-24,17.4646
2004-08-25,17.8273
2004-08-26,17.5986
2004-08-27,17.6617
2004-08-30,17.6617
2004-08-31,17.5986
2004-09-01,17.8746
2004-09-02,18.0244
2004-09-03,17.9377
2004-09-07,18.4344
2004-09-08,18.6158
2004-09-09,18.7735
2004-09-10,19.1046
2004-09-13,19.349
2004-09-14,19.7985
2004-09-15,19.6958
2004-09-16,19.988
2004-09-17,19.9801
2004-09-20,20.0196
2004-09-21,20.0591
2004-09-22,19.9564
2004-09-23,19.8853
2004-09-24,20.0433
2004-09-27,19.7669
2004-09-28,19.9801
2004-09-29,19.9722
2004-09-30,19.909
2004-10-01,20.1223
2004-10-04,20.5882
2004-10-05,20.7224
2004-10-06,20.5882
2004-10-07,20.2328
2004-10-08,19.9801
2004-10-11,20.138
2004-10-12,19.909
2004-10-13,19.8616
2004-10-14,19.7116
2004-10-15,19.9801
2004-10-18,20.604
2004-10-19,20.9436
2004-10-20,18.3849
2004-10-21,18.5586
2004-10-22,18.1953
2004-10-25,17.9268
2004-10-26,18.4875
2004-10-27,18.7639
2004-10-28,18.7007
2004-10-29,18.6613
2004-11-01,18.8903
2004-11-02,18.5902
2004-11-03,18.756
2004-11-04,19.4431
2004-11-05,19.5379
2004-11-08,19.6089
2004-11-09,19.6484
2004-11-10,19.7116
2004-11-11,19.8695
2004-11-12,19.7274
2004-11-15,20.0591
2004-11-16,20.2486
2004-11-17,20.2486
2004-11-18,20.8962
2004-11-19,20.4618
2004-11-22,20.2723
2004-11-23,20.1696
2004-11-24,20.6198
2004-11-26,20.5566
2004-11-29,20.3671
2004-11-30,20.4145
2004-12-01,20.7303
2004-12-02,20.6277
2004-12-03,20.833
2004-12-06,20.4697
2004-12-07,20.2249
2004-12-08,20.0512
2004-12-09,20.0986
2004-12-10,19.8853
2004-12-13,20.2328
2004-12-14,20.1223
2004-12-15,20.0511
2004-12-16,19.7664
2004-12-17,19.5844
2004-12-20,19.7901
2004-12-21,19.7743
2004-12-22,20.0353
2004-12-23,19.7268
2004-12-27,19.8455
2004-12-28,19.6873
2004-12-29,19.7584
2004-12-30,19.5053
2004-12-31,19.2839
2005-01-03,19.3313
2005-01-04,18.8251
2005-01-05,18.5087
2005-01-06,18.7065
2005-01-07,18.572
2005-01-10,18.3743
2005-01-11,18.2319
2005-01-12,18.0816
2005-01-13,18.042
2005-01-14,18.1053
2005-01-18,18.5087
2005-01-19,17.7573
2005-01-20,18.1923
2005-01-21,18.1528
2005-01-24,18.3822
2005-01-25,18.2319
2005-01-26,18.4296
2005-01-27,18.3347
2005-01-28,18.5878
2005-01-31,18.7302
2005-02-01,18.92
2005-02-02,18.9754
2005-02-03,19.0545
2005-02-04,19.3155
2005-02-07,19.0861
2005-02-08,20.059
2005-02-09,19.3234
2005-02-10,19.4658
2005-02-11,19.5607
2005-02-14,19.4025
2005-02-15,19.6794
2005-02-16,19.1731
2005-02-17,19.2522
2005-02-18,18.8251
2005-02-22,18.8567
2005-02-23,18.6985
2005-02-24,19.0624
2005-02-25,19.0149
2005-02-28,19.007
2005-03-01,18.833
2005-03-02,19.2918
2005-03-03,19.3313
2005-03-04,19.2364
2005-03-07,19.3313
2005-03-08,19.4342
2005-03-09,19.3867
2005-03-10,19.7584
2005-03-11,19.624
2005-03-14,20.0116
2005-03-15,19.4737
2005-03-16,19.6003
2005-03-17,19.8692
2005-03-18,20.0353
2005-03-21,19.9166
2005-03-22,19.7582
2005-03-23,19.7186
2005-03-24,19.7661
2005-03-28,19.6552
2005-03-29,19.5047
2005-03-30,19.7424
2005-03-31,19.7899
2005-04-01,19.5602
2005-04-04,19.5443
2005-04-05,19.4651
2005-04-06,19.7424
2005-04-07,19.5522
2005-04-08,19.4334
2005-04-11,19.4651
2005-04-12,19.8533
2005-04-13,19.7582
2005-04-14,19.164
2005-04-15,19.0135
2005-04-18,19.5364
2005-04-19,19.2116
2005-04-20,19.8929
2005-04-21,20.1385
2005-04-22,19.2116
2005-04-25,19.5602
2005-04-26,19.679
2005-04-27,19.6948
2005-04-28,19.2987
2005-04-29,19.473
2005-05-02,19.3463
2005-05-03,19.3225
2005-05-04,19.1165
2005-05-05,19.0056
2005-05-06,18.9897
2005-05-09,18.8075
2005-05-10,18.6332
2005-05-11,18.9977
2005-05-12,18.9184
2005-05-13,18.7442
2005-05-16,19.4176
2005-05-17,19.1799
2005-05-18,19.2987
2005-05-19,19.1957
2005-05-20,19.164
2005-05-23,19.3463
2005-05-24,19.3859
2005-05-25,19.2908
2005-05-26,19.4176
2005-05-27,19.5522
2005-05-31,19.3463
2005-06-01,19.4651
2005-06-02,19.3621
2005-06-03,19.2908
2005-06-06,19.3542
2005-06-07,19.3542
2005-06-08,19.2433
2005-06-09,19.4176
2005-06-10,19.3463
2005-06-13,19.3859
2005-06-14,19.37
2005-06-15,19.4255
2005-06-16,19.5047
2005-06-17,18.9977
2005-06-20,19.1561
2005-06-21,18.9417
2005-06-22,19.1005
2005-06-23,18.8305
2005-06-24,18.5287
2005-06-27,18.1634
2005-06-28,18.4652
2005-06-29,18.3619
2005-06-30,19.1403
2005-07-01,18.9179
2005-07-05,19.037
2005-07-06,18.6876
2005-07-07,18.6955
2005-07-08,19.0052
2005-07-11,19.1323
2005-07-12,19.0529
2005-07-13,18.9973
2005-07-14,18.9973
2005-07-15,19.045
2005-07-18,19.0608
2005-07-19,19.1403
2005-07-20,19.8074
2005-07-21,19.7439
2005-07-22,19.8392
2005-07-25,19.6565
2005-07-26,19.6644
2005-07-27,19.7915
2005-07-28,19.863
2005-07-29,19.5374
2005-08-01,19.5215
2005-08-02,19.3865
2005-08-03,19.2435
2005-08-04,19.0688
2005-08-05,18.7908
2005-08-08,18.8305
2005-08-09,19.037
2005-08-10,18.7908
2005-08-11,18.9655
2005-08-12,18.8861
2005-08-15,18.8146
2005-08-16,18.8146
2005-08-17,18.9894
2005-08-18,18.9497
2005-08-19,19.0052
2005-08-22,19.037
2005-08-23,18.9179
2005-08-24,18.8305
2005-08-25,18.7829
2005-08-26,18.5923
2005-08-29,18.7749
2005-08-30,18.5367
2005-08-31,18.624
2005-09-01,18.8782
2005-09-02,18.759
2005-09-06,18.7432
2005-09-07,18.9258
2005-09-08,18.8067
2005-09-09,18.759
2005-09-12,18.9099
2005-09-13,18.7352
2005-09-14,18.632
2005-09-15,18.5843
2005-09-16,18.7511
2005-09-19,18.7034
2005-09-20,18.6636
2005-09-21,18.5123
2005-09-22,18.3531
2005-09-23,18.5442
2005-09-26,18.2655
2005-09-27,18.1142
2005-09-28,18.1063
2005-09-29,18.5522
2005-09-30,18.5442
2005-10-03,18.5522
2005-10-04,18.5044
2005-10-05,18.1142
2005-10-06,17.9868
2005-10-07,18.0505
2005-10-10,17.947
2005-10-11,17.9948
2005-10-12,17.7002
2005-10-13,17.8435
2005-10-14,18.1222
2005-10-17,18.2257
2005-10-18,18.2177
2005-10-19,16.6412
2005-10-20,16.4023
2005-10-21,16.5138
2005-10-24,16.8084
2005-10-25,16.681
2005-10-26,16.8801
2005-10-27,16.673
2005-10-28,16.896
2005-10-31,16.9517
2005-11-01,16.8004
2005-11-02,17.1667
2005-11-03,17.3021
2005-11-04,17.318
2005-11-07,17.3021
2005-11-08,17.31
2005-11-09,17.1986
2005-11-10,17.4613
2005-11-11,17.4534
2005-11-14,17.3339
2005-11-15,17.2543
2005-11-16,17.2941
2005-11-17,17.6126
2005-11-18,17.1508
2005-11-21,16.9597
2005-11-22,16.9915
2005-11-23,16.8801
2005-11-25,17.5489
2005-11-28,17.3737
2005-11-29,17.318
2005-11-30,17.1189
2005-12-01,17.5648
2005-12-02,17.9391
2005-12-05,17.9868
2005-12-06,17.7718
2005-12-07,17.8913
2005-12-08,17.6922
2005-12-09,17.4613
2005-12-12,17.5808
2005-12-13,17.748
2005-12-14,17.7241
2005-12-15,17.7957
2005-12-16,17.8754
2005-12-19,17.8276
2005-12-20,17.5321
2005-12-21,15.137
2005-12-22,15.6799
2005-12-23,15.8156
2005-12-27,15.8396
2005-12-28,15.8635
2005-12-29,15.8316
2005-12-30,15.7757
2006-01-03,15.4643
2006-01-04,15.7996
2006-01-05,16.3345
2006-01-06,16.2308
2006-01-09,16.127
2006-01-10,16.3266
2006-01-11,16.5261
2006-01-12,16.0711
2006-01-13,16.2148
2006-01-17,15.9433
2006-01-18,15.2967
2006-01-19,15.6
2006-01-20,15.8236
2006-01-23,15.7278
2006-01-24,15.7517
2006-01-25,15.6719
2006-01-26,15.6799
2006-01-27,15.7437
2006-01-30,15.4005
2006-01-31,15.6719
2006-02-01,15.8954
2006-02-02,15.5841
2006-02-03,15.5202
2006-02-06,15.9593
2006-02-07,15.632
2006-02-08,15.6639
2006-02-09,15.5761
2006-02-10,15.624
2006-02-13,15.8156
2006-02-14,15.5761
2006-02-15,15.7917
2006-02-16,15.9194
2006-02-17,15.632
2006-02-21,15.6958
2006-02-22,15.8795
2006-02-23,15.8236
2006-02-24,15.8635
2006-02-27,15.9274
2006-02-28,15.64
2006-03-01,15.7278
2006-03-02,15.8475
2006-03-03,15.8396
2006-03-06,15.7837
2006-03-07,15.8156
2006-03-08,15.7118
2006-03-09,15.6958
2006-03-10,15.8236
2006-03-13,15.7996
2006-03-14,15.8555
2006-03-15,15.8715
2006-03-16,16.0391
2006-03-17,16.0152
2006-03-20,15.9114
2006-03-21,15.9675
2006-03-22,15.9195
2006-03-23,16.0476
2006-03-24,16.0876
2006-03-27,16.0156
2006-03-28,15.8875
2006-03-29,16.0316
2006-03-30,16.0156
2006-03-31,15.9515
2006-04-03,15.9755
2006-04-04,16.0156
2006-04-05,16.0876
2006-04-06,16.0796
2006-04-07,15.9916
2006-04-10,15.9275
2006-04-11,15.6873
2006-04-12,15.6072
2006-04-13,15.6873
2006-04-17,15.6632
2006-04-18,15.9916
2006-04-19,15.7753
2006-04-20,16.5201
2006-04-21,16.2958
2006-04-24,16.1837
2006-04-25,16.0556
2006-04-26,16.3039
2006-04-27,16.0636
2006-04-28,16.0636
2006-05-01,16.1037
2006-05-02,15.9275
2006-05-03,16.0316
2006-05-04,16.0556
2006-05-05,16.1437
2006-05-08,16.0796
2006-05-09,15.9355
2006-05-10,15.9755
2006-05-11,15.2949
2006-05-12,15.3029
2006-05-15,15.391
2006-05-16,15.3429
2006-05-17,15.0867
2006-05-18,15.0626
2006-05-19,15.2628
2006-05-22,14.9826
2006-05-23,14.5261
2006-05-24,14.6302
2006-05-25,14.8064
2006-05-26,14.6222
2006-05-30,14.5502
2006-05-31,14.4461
2006-06-01,14.7503
2006-06-02,15.0066
2006-06-05,14.8304
2006-06-06,15.0386
2006-06-07,14.8945
2006-06-08,14.8785
2006-06-09,14.7904
2006-06-12,14.7183
2006-06-13,14.6142
2006-06-14,14.6142
2006-06-15,14.6783
2006-06-16,15.0466
2006-06-19,14.9345
2006-06-20,14.7416
2006-06-21,15.2158
2006-06-22,15.0631
2006-06-23,15.3525
2006-06-26,15.3123
2006-06-27,15.1757
2006-06-28,15.2078
2006-06-29,15.4811
2006-06-30,15.5534
2006-07-03,15.883
2006-07-05,15.2802
2006-07-06,15.1596
2006-07-07,15.1917
2006-07-10,14.9988
2006-07-11,15.039
2006-07-12,14.9345
2006-07-13,14.7175
2006-07-14,14.7979
2006-07-17,15.0551
2006-07-18,14.6773
2006-07-19,16.2929
2006-07-20,16.2769
2006-07-21,16.2286
2006-07-24,16.2769
2006-07-25,16.4457
2006-07-26,16.5743
2006-07-27,16.5662
2006-07-28,16.8636
2006-07-31,16.9279
2006-08-01,16.952
2006-08-02,17.0967
2006-08-03,17.4102
2006-08-04,17.1691
2006-08-07,17.2012
2006-08-08,17.2655
2006-08-09,17.3941
2006-08-10,17.4343
2006-08-11,17.3379
2006-08-14,17.6835
2006-08-15,17.9407
2006-08-16,18.1899
2006-08-17,18.0211
2006-08-18,18.3346
2006-08-21,18.1658
2006-08-22,18.3265
2006-08-23,18.2783
2006-08-24,18.0452
2006-08-25,18.0854
2006-08-28,18.222
2006-08-29,18.2622
2006-08-30,18.0211
2006-08-31,17.9166
2006-09-01,18.0452
2006-09-05,17.997
2006-09-06,17.8362
2006-09-07,18.0693
2006-09-08,18.0774
2006-09-11,18.1497
2006-09-12,18.3667
2006-09-13,18.7847
2006-09-14,18.9857
2006-09-15,18.841
2006-09-18,18.7284
2006-09-19,18.7125
2006-09-20,18.8899
2006-09-21,18.5593
2006-09-22,18.5352
2006-09-25,18.5271
2006-09-26,19.1076
2006-09-27,19.2285
2006-09-28,18.5029
2006-09-29,18.3659
2006-10-02,18.1482
2006-10-03,18.2852
2006-10-04,18.519
2006-10-05,18.8899
2006-10-06,18.7851
2006-10-09,18.6642
2006-10-10,18.5513
2006-10-11,18.6561
2006-10-12,18.5916
2006-10-13,18.7045
2006-10-16,19.1721
2006-10-17,18.7851
2006-10-18,19.3978
2006-10-19,18.9383
2006-10-20,18.7528
2006-10-23,19.551
2006-10-24,19.3736
2006-10-25,19.4139
2006-10-26,19.6397
2006-10-27,19.5591
2006-10-30,19.8654
2006-10-31,19.4139
2006-11-01,19.3656
2006-11-02,19.5833
2006-11-03,19.5107
2006-11-06,19.7606
2006-11-07,19.7123
2006-11-08,20.0509
2006-11-09,19.8493
2006-11-10,20.0589
2006-11-13,20.1557
2006-11-14,20.333
2006-11-15,20.2766
2006-11-16,20.72
2006-11-17,20.7281
2006-11-20,20.7684
2006-11-21,20.9135
2006-11-22,20.591
2006-11-24,20.4862
2006-11-27,20.325
2006-11-28,20.5427
2006-11-29,20.7765
2006-11-30,20.9377
2006-12-01,20.8168
2006-12-04,21.0667
2006-12-05,21.2118
2006-12-06,21.1151
2006-12-07,20.9619
2006-12-08,20.9297
2006-12-11,20.9055
2006-12-12,20.9619
2006-12-13,21.0587
2006-12-14,21.0506
2006-12-15,21.0587
2006-12-18,21.1635
2006-12-19,21.1958
2006-12-20,21.1877
2006-12-21,21.1312
2006-12-22,21.0907
2006-12-26,21.2039
2006-12-27,21.3979
2006-12-28,21.4545
2006-12-29,21.309
2007-01-03,21.0261
2007-01-04,21.2767
2007-01-05,21.0018
2007-01-08,21.1392
2007-01-09,21.0988
2007-01-10,21.3575
2007-01-11,21.4626
2007-01-12,21.9072
2007-01-16,21.9153
2007-01-17,24.0252
2007-01-18,23.718
2007-01-19,23.6776
2007-01-22,23.8554
2007-01-23,24.0818
2007-01-24,24.3566
2007-01-25,24.203
2007-01-26,24.0737
2007-01-29,24.3647
2007-01-30,24.8012
2007-01-31,24.9952
2007-02-01,25.2216
2007-02-02,25.4641
2007-02-05,25.4237
2007-02-06,25.4964
2007-02-07,25.7066
2007-02-08,25.4237
2007-02-09,25.2862
2007-02-12,25.4479
2007-02-13,25.1246
2007-02-14,25.4237
2007-02-15,25.7389
2007-02-16,25.8521
2007-02-20,26.2159
2007-02-21,26.2482
2007-02-22,26.2078
2007-02-23,25.941
2007-02-26,26.3937
2007-02-27,25.5611
2007-02-28,25.2054
2007-03-01,25.3347
2007-03-02,24.8659
2007-03-05,24.3728
2007-03-06,24.6557
2007-03-07,24.6557
2007-03-08,24.9871
2007-03-09,25.0276
2007-03-12,25.2782
2007-03-13,24.7123
2007-03-14,24.7608
2007-03-15,25.0922
2007-03-16,24.8497
2007-03-19,25.3267
2007-03-20,25.44
2007-03-21,26.1367
2007-03-22,26.2259
2007-03-23,26.1935
2007-03-26,26.1935
2007-03-27,26.08
2007-03-28,25.6992
2007-03-29,25.6425
2007-03-30,25.7965
2007-04-02,25.9585
2007-04-03,26.1367
2007-04-04,26.3636
2007-04-05,26.3879
2007-04-09,26.2745
2007-04-10,26.2178
2007-04-11,25.9504
2007-04-12,26.0962
2007-04-13,26.2016
2007-04-16,26.3474
2007-04-17,26.1773
2007-04-18,26.3069
2007-04-19,26.1124
2007-04-20,26.5905
2007-04-23,26.0395
2007-04-24,25.7803
2007-04-25,25.8775
2007-04-26,25.7236
2007-04-27,25.7236
2007-04-30,25.1645
2007-05-01,25.1807
2007-05-02,25.205
2007-05-03,25.5048
2007-05-04,25.3428
2007-05-07,25.6263
2007-05-08,25.4805
2007-05-09,25.9666
2007-05-10,25.2293
2007-05-11,25.6749
2007-05-14,25.3752
2007-05-15,25.0916
2007-05-16,25.205
2007-05-17,26.2502
2007-05-18,26.1286
2007-05-21,26.2664
2007-05-22,27.5546
2007-05-23,27.7895
2007-05-24,26.9388
2007-05-25,26.955
2007-05-29,26.3636
2007-05-30,26.477
2007-05-31,26.874
2007-06-01,26.8983
2007-06-04,26.6634
2007-06-05,25.8694
2007-06-06,25.6182
2007-06-07,24.9377
2007-06-08,25.0592
2007-06-11,25.1564
2007-06-12,24.6541
2007-06-13,24.7837
2007-06-14,24.7027
2007-06-15,24.6379
2007-06-18,24.8485
2007-06-19,24.8809
2007-06-20,24.6942
2007-06-21,24.5642
2007-06-22,23.874
2007-06-25,23.8334
2007-06-26,24.0608
2007-06-27,24.1907
2007-06-28,24.0851
2007-06-29,23.9552
2007-07-02,24.0121
2007-07-03,24.5886
2007-07-05,24.1745
2007-07-06,24.3288
2007-07-09,24.1339
2007-07-10,23.8497
2007-07-11,23.8984
2007-07-12,24.3531
2007-07-13,24.1988
2007-07-16,23.9958
2007-07-17,24.4262
2007-07-18,24.0445
2007-07-19,24.0039
2007-07-20,23.8984
2007-07-23,23.8334
2007-07-24,23.8903
2007-07-25,23.8578
2007-07-26,23.2569
2007-07-27,23.3218
2007-07-30,23.3218
2007-07-31,22.8752
2007-08-01,23.2975
2007-08-02,23.6466
2007-08-03,23.0376
2007-08-06,23.4436
2007-08-07,23.5573
2007-08-08,23.606
2007-08-09,22.3311
2007-08-10,22.1281
2007-08-13,22.8102
2007-08-14,22.2093
2007-08-15,22.4935
2007-08-16,22.5504
2007-08-17,22.8996
2007-08-20,22.4611
2007-08-21,22.7372
2007-08-22,22.8671
2007-08-23,22.8021
2007-08-24,23.1432
2007-08-27,22.7534
2007-08-28,22.3149
2007-08-29,22.729
2007-08-30,22.5991
2007-08-31,22.5666
2007-09-04,22.7128
2007-09-05,22.3961
2007-09-06,22.2256
2007-09-07,21.917
2007-09-10,21.9414
2007-09-11,22.6966
2007-09-12,22.6803
2007-09-13,22.5747
2007-09-14,22.7453
2007-09-17,22.591
2007-09-18,22.8758
2007-09-19,23.1282
2007-09-20,22.6235
2007-09-21,22.7537
2007-09-24,22.6316
2007-09-25,22.4118
2007-09-26,22.8514
2007-09-27,23.1119
2007-09-28,22.6153
2007-10-01,22.6397
2007-10-02,22.9409
2007-10-03,22.9328
2007-10-04,22.7863
2007-10-05,23.2096
2007-10-08,23.5759
2007-10-09,23.7062
2007-10-10,23.6492
2007-10-11,23.5108
2007-10-12,23.2991
2007-10-15,23.0631
2007-10-16,22.9654
2007-10-17,22.8677
2007-10-18,23.0956
2007-10-19,22.6316
2007-10-22,22.7537
2007-10-23,23.812
2007-10-24,24.333
2007-10-25,23.9016
2007-10-26,23.812
2007-10-29,24.8459
2007-10-30,23.8527
2007-10-31,24.3575
2007-11-01,24.0155
2007-11-02,24.276
2007-11-05,23.7306
2007-11-06,23.7957
2007-11-07,23.2991
2007-11-08,23.8934
2007-11-09,23.7957
2007-11-12,23.462
2007-11-13,23.7225
2007-11-14,23.7795
2007-11-15,23.2096
2007-11-16,22.9409
2007-11-19,22.4851
2007-11-20,22.5746
2007-11-21,22.3874
2007-11-23,23.4945
2007-11-26,22.2327
2007-11-27,22.2734
2007-11-28,22.6967
2007-11-29,22.5909
2007-11-30,22.7537
2007-12-03,22.7781
2007-12-04,22.078
2007-12-05,21.9478
2007-12-06,22.135
2007-12-07,22.0047
2007-12-10,22.3955
2007-12-11,23.1445
2007-12-12,22.9165
2007-12-13,23.4945
2007-12-14,23.462
2007-12-17,23.698
2007-12-18,24.3005
2007-12-19,23.2038
2007-12-20,23.6036
2007-12-21,24.2396
2007-12-24,24.6484
2007-12-26,25.1299
2007-12-27,25.2571
2007-12-28,25.5388
2007-12-31,26.3474
2008-01-02,24.4576
2008-01-03,23.8035
2008-01-04,22.8859
2008-01-07,22.7042
2008-01-08,20.9598
2008-01-09,21.0688
2008-01-10,21.7411
2008-01-11,20.5419
2008-01-14,20.7326
2008-01-15,19.7787
2008-01-16,19.7878
2008-01-17,18.7521
2008-01-18,18.3341
2008-01-22,18.3796
2008-01-23,19.1881
2008-01-24,20.2693
2008-01-25,20.1966
2008-01-28,20.1875
2008-01-29,20.7054
2008-01-30,20.4783
2008-01-31,20.9053
2008-02-01,21.2505
2008-02-04,20.8144
2008-02-05,20.2511
2008-02-06,19.8514
2008-02-07,19.9967
2008-02-08,19.7969
2008-02-11,19.7787
2008-02-12,20.1875
2008-02-13,20.6055
2008-02-14,20.2057
2008-02-15,20.0422
2008-02-19,19.7696
2008-02-20,20.2511
2008-02-21,20.0149
2008-02-22,20.7508
2008-02-25,20.8326
2008-02-26,21.1142
2008-02-27,21.4595
2008-02-28,20.8326
2008-02-29,20.1603
2008-03-03,20.342
2008-03-04,20.5328
2008-03-05,20.669
2008-03-06,20.2511
2008-03-07,20.3147
2008-03-10,19.8877
2008-03-11,20.3874
2008-03-12,19.9786
2008-03-13,19.7423
2008-03-14,19.8605
2008-03-17,19.706
2008-03-18,20.5536
2008-03-19,20.426
2008-03-20,20.7542
2008-03-24,21.0458
2008-03-25,21.219
2008-03-26,21.0732
2008-03-27,21.9026
2008-03-28,21.4378
2008-03-31,21.5289
2008-04-01,22.6683
2008-04-02,23.4795
2008-04-03,23.4795
2008-04-04,23.762
2008-04-07,23.1878
2008-04-08,23.1969
2008-04-09,22.6227
2008-04-10,22.4768
2008-04-11,22.2307
2008-04-14,22.012
2008-04-15,21.8297
2008-04-16,22.5498
2008-04-17,22.3037
2008-04-18,22.7776
2008-04-21,22.486
2008-04-22,22.249
2008-04-23,22.887
2008-04-24,23.1331
2008-04-25,23.1331
2008-04-28,22.9964
2008-04-29,21.6474
2008-04-30,21.6656
2008-05-01,22.2125
2008-05-02,22.2399
2008-05-05,22.3584
2008-05-06,22.6591
2008-05-07,22.3675
2008-05-08,22.3037
2008-05-09,22.2125
2008-05-12,22.4404
2008-05-13,22.6774
2008-05-14,22.9326
2008-05-15,22.7503
2008-05-16,22.5315
2008-05-19,22.4951
2008-05-20,22.3219
2008-05-21,21.8388
2008-05-22,21.8753
2008-05-23,21.5016
2008-05-27,21.7841
2008-05-28,22.5406
2008-05-29,22.4951
2008-05-30,22.3037
2008-06-02,22.5042
2008-06-03,22.3037
2008-06-04,22.3948
2008-06-05,22.8414
2008-06-06,22.2763
2008-06-09,22.3037
2008-06-10,22.249
2008-06-11,21.9938
2008-06-12,22.1396
2008-06-13,22.331
2008-06-16,22.2581
2008-06-17,21.8833
2008-06-18,21.6182
2008-06-19,21.737
2008-06-20,21.1794
2008-06-23,21.2982
2008-06-24,20.9235
2008-06-25,21.2251
2008-06-26,20.4939
2008-06-27,20.439
2008-06-30,20.2745
2008-07-01,20.5487
2008-07-02,20.2653
2008-07-03,20.439
2008-07-07,20.2379
2008-07-08,20.9418
2008-07-09,20.5121
2008-07-10,20.375
2008-07-11,20.0459
2008-07-14,20.0368
2008-07-15,19.982
2008-07-16,20.3842
2008-07-17,20.8869
2008-07-18,21.0332
2008-07-21,20.7407
2008-07-22,20.7772
2008-07-23,20.9235
2008-07-24,20.5396
2008-07-25,20.375
2008-07-28,19.9454
2008-07-29,20.1374
2008-07-30,20.1831
2008-07-31,17.8704
2008-08-01,17.5688
2008-08-04,17.6602
2008-08-05,18.4372
2008-08-06,18.4646
2008-08-07,18.1995
2008-08-08,19.2324
2008-08-11,19.2781
2008-08-12,19.1501
2008-08-13,18.8668
2008-08-14,18.9582
2008-08-15,19.0862
2008-08-18,18.8211
2008-08-19,17.8978
2008-08-20,17.7699
2008-08-21,17.8521
2008-08-22,18.2543
2008-08-25,17.8247
2008-08-26,17.8156
2008-08-27,17.9344
2008-08-28,18.3183
2008-08-29,18.2361
2008-09-02,18.2818
2008-09-03,18.0807
2008-09-04,17.3951
2008-09-05,17.4134
2008-09-08,17.9435
2008-09-09,17.4774
2008-09-10,17.3494
2008-09-11,17.2763
2008-09-12,17.1117
2008-09-15,16.4444
2008-09-16,16.4354
2008-09-17,15.6554
2008-09-18,15.9583
2008-09-19,16.5089
2008-09-22,16.1968
2008-09-23,16.362
2008-09-24,16.4079
2008-09-25,16.8025
2008-09-26,15.9674
2008-09-29,14.0495
2008-09-30,15.0865
2008-10-01,14.5634
2008-10-02,14.233
2008-10-03,14.2239
2008-10-06,13.6182
2008-10-07,13.1685
2008-10-08,13.1961
2008-10-09,12.6546
2008-10-10,12.517
2008-10-13,13.5356
2008-10-14,13.4347
2008-10-15,12.0765
2008-10-16,12.4252
2008-10-17,12.2692
2008-10-20,12.4895
2008-10-21,11.7186
2008-10-22,10.7826
2008-10-23,10.8468
2008-10-24,10.8285
2008-10-27,10.5165
2008-10-28,11.9205
2008-10-29,11.7462
2008-10-30,12.0398
2008-10-31,12.5812
2008-11-03,12.6088
2008-11-04,12.93
2008-11-05,12.2233
2008-11-06,11.5076
2008-11-07,11.6819
2008-11-10,11.6085
2008-11-11,11.0212
2008-11-12,10.6358
2008-11-13,11.7645
2008-11-14,11.2139
2008-11-17,11.2965
2008-11-18,11.2598
2008-11-19,10.6174
2008-11-20,10.0485
2008-11-21,10.4064
2008-11-24,11.2873
2008-11-25,11.7278
2008-11-26,12.2692
2008-11-28,13.0951
2008-12-01,11.9664
2008-12-02,12.4344
2008-12-03,12.3977
2008-12-04,12.0765
2008-12-05,12.361
2008-12-08,12.6546
2008-12-09,12.4161
2008-12-10,12.7739
2008-12-11,12.3518
2008-12-12,12.5721
2008-12-15,12.4069
2008-12-16,12.7391
2008-12-17,12.4992
2008-12-18,12.5177
2008-12-19,13.0342
2008-12-22,12.7114
2008-12-23,12.7944
2008-12-24,12.8866
2008-12-26,12.9789
2008-12-29,12.5822
2008-12-30,12.7944
2008-12-31,12.9235
2009-01-02,13.763
2009-01-05,13.6615
2009-01-06,13.6892
2009-01-07,13.4124
2009-01-08,13.4217
2009-01-09,13.1726
2009-01-12,13.2003
2009-01-13,13.1634
2009-01-14,12.6468
2009-01-15,12.7667
2009-01-16,12.7206
2009-01-20,11.9457
2009-01-21,12.3793
2009-01-22,12.0657
2009-01-23,11.7151
2009-01-26,11.9089
2009-01-27,12.2502
2009-01-28,12.2871
2009-01-29,12.038
2009-01-30,11.6598
2009-02-02,12.0195
2009-02-03,12.0933
2009-02-04,12.038
2009-02-05,12.3055
2009-02-06,12.6007
2009-02-09,12.4162
2009-02-10,11.8535
2009-02-11,12.0657
2009-02-12,12.2409
2009-02-13,12.2133
2009-02-17,11.6875
2009-02-18,11.872
2009-02-19,11.7797
2009-02-20,11.752
2009-02-23,11.3462
2009-02-24,11.7797
2009-02-25,11.6967
2009-02-26,11.586
2009-02-27,11.6506
2009-03-02,11.2816
2009-03-03,11.2631
2009-03-04,11.3646
2009-03-05,11.0417
2009-03-06,10.8942
2009-03-09,10.5159
2009-03-10,11.1063
2009-03-11,11.1432
2009-03-12,11.4292
2009-03-13,11.9181
2009-03-16,11.8627
2009-03-17,12.0759
2009-03-18,12.3541
2009-03-19,12.2521
2009-03-20,12.113
2009-03-23,12.6417
2009-03-24,12.3356
2009-03-25,12.6046
2009-03-26,12.9106
2009-03-27,12.7622
2009-03-30,12.7066
2009-03-31,12.8086
2009-04-01,12.9663
2009-04-02,13.2353
2009-04-03,13.4857
2009-04-06,13.2909
2009-04-07,12.7715
2009-04-08,12.8735
2009-04-09,13.124
2009-04-13,13.2167
2009-04-14,13.1796
2009-04-15,13.2445
2009-04-16,13.5784
2009-04-17,13.3187
2009-04-20,13.0312
2009-04-21,13.4857
2009-04-22,13.3837
2009-04-23,13.4579
2009-04-24,13.5692
2009-04-27,13.5228
2009-04-28,13.4579
2009-04-29,11.909
2009-04-30,11.5843
2009-05-01,11.7698
2009-05-04,11.8255
2009-05-05,11.8719
2009-05-06,12.0295
2009-05-07,12.2892
2009-05-08,12.5582
2009-05-11,12.2707
2009-05-12,12.2058
2009-05-13,11.8626
2009-05-14,11.9739
2009-05-15,12.0574
2009-05-18,12.2058
2009-05-19,12.1501
2009-05-20,12.4747
2009-05-21,12.2707
2009-05-22,12.3634
2009-05-26,12.6046
2009-05-27,12.6138
2009-05-28,12.5582
2009-05-29,12.6231
2009-06-01,12.957
2009-06-02,13.0498
2009-06-03,12.957
2009-06-04,13.0683
2009-06-05,13.1054
2009-06-08,13.1889
2009-06-09,13.2724
2009-06-10,13.3187
2009-06-11,13.3002
2009-06-12,13.3929
2009-06-15,12.7715
2009-06-16,12.7062
2009-06-17,12.7062
2009-06-18,12.6037
2009-06-19,12.4266
2009-06-22,12.2588
2009-06-23,12.3893
2009-06-24,12.3054
2009-06-25,12.4825
2009-06-26,12.5384
2009-06-29,12.2867
2009-06-30,12.4638
2009-07-01,12.7622
2009-07-02,12.4638
2009-07-06,12.3799
2009-07-07,12.1282
2009-07-08,12.1282
2009-07-09,12.0723
2009-07-10,11.9511
2009-07-13,12.0537
2009-07-14,12.1282
2009-07-15,11.9045
2009-07-16,12.3054
2009-07-17,12.3986
2009-07-20,12.5664
2009-07-21,12.7062
2009-07-22,12.6316
2009-07-23,12.5384
2009-07-24,12.3986
2009-07-27,12.4638
2009-07-28,12.7342
2009-07-29,13.5452
2009-07-30,13.6291
2009-07-31,13.6944
2009-08-03,13.6571
2009-08-04,13.6198
2009-08-05,13.5918
2009-08-06,13.6105
2009-08-07,13.8808
2009-08-10,13.8435
2009-08-11,13.7783
2009-08-12,14.0486
2009-08-13,13.9834
2009-08-14,14.0766
2009-08-17,13.8808
2009-08-18,14.0766
2009-08-19,14.1418
2009-08-20,14.0393
2009-08-21,14.319
2009-08-24,14.3283
2009-08-25,14.4122
2009-08-26,14.552
2009-08-27,14.2537
2009-08-28,14.3563
2009-08-31,14.2071
2009-09-01,14.0113
2009-09-02,13.9274
2009-09-03,13.9927
2009-09-04,14.0952
2009-09-08,14.2071
2009-09-09,14.2164
2009-09-10,14.3656
2009-09-11,14.4588
2009-09-14,14.5241
2009-09-15,14.6645
2009-09-16,14.9173
2009-09-17,14.8986
2009-09-18,14.9829
2009-09-21,15.0859
2009-09-22,15.0578
2009-09-23,15.0578
2009-09-24,14.9829
2009-09-25,14.7768
2009-09-28,15.3106
2009-09-29,15.2825
2009-09-30,15.0671
2009-10-01,14.7207
2009-10-02,14.4491
2009-10-05,14.73
2009-10-06,14.9548
2009-10-07,14.9548
2009-10-08,15.2263
2009-10-09,15.2357
2009-10-12,15.2451
2009-10-13,15.3762
2009-10-14,15.5447
2009-10-15,15.5354
2009-10-16,15.5073
2009-10-19,15.7039
2009-10-20,15.6571
2009-10-21,15.5541
2009-10-22,15.6571
2009-10-23,15.5354
2009-10-26,15.4417
2009-10-27,15.5073
2009-10-28,14.5053
2009-10-29,14.9641
2009-10-30,14.9922
2009-11-02,15.1702
2009-11-03,15.1608
2009-11-04,15.1608
2009-11-05,15.5447
2009-11-06,15.6758
2009-11-09,15.9568
2009-11-10,15.8631
2009-11-11,16.0504
2009-11-12,16.0129
2009-11-13,16.0504
2009-11-16,16.3594
2009-11-17,16.322
2009-11-18,16.2939
2009-11-19,16.2096
2009-11-20,16.0972
2009-11-23,16.4062
2009-11-24,16.3594
2009-11-25,16.3969
2009-11-27,16.0598
2009-11-30,16.1815
2009-12-01,16.4343
2009-12-02,16.3594
2009-12-03,16.1909
2009-12-04,16.4156
2009-12-07,16.4718
2009-12-08,16.3594
2009-12-09,16.1159
2009-12-10,16.1909
2009-12-11,16.2096
2009-12-14,16.3313
2009-12-15,16.2096
2009-12-16,16.3969
2009-12-17,16.2564
2009-12-18,16.4624
2009-12-21,16.3966
2009-12-22,16.359
2009-12-23,16.359
2009-12-24,16.3872
2009-12-28,16.359
2009-12-29,16.3026
2009-12-30,16.406
2009-12-31,16.2368
2010-01-04,16.1897
2010-01-05,16.1803
2010-01-06,15.8795
2010-01-07,15.7855
2010-01-08,16.0017
2010-01-11,15.9641
2010-01-12,15.9077
2010-01-13,16.0581
2010-01-14,15.9641
2010-01-15,15.5316
2010-01-19,16.0393
2010-01-20,16.0017
2010-01-21,14.0838
2010-01-22,13.8017
2010-01-25,13.6795
2010-01-26,14.0462
2010-01-27,13.9051
2010-01-28,13.8017
2010-01-29,13.4538
2010-02-01,13.6795
2010-02-02,13.7171
2010-02-03,13.6419
2010-02-04,13.6419
2010-02-05,13.6889
2010-02-08,13.5573
2010-02-09,13.6889
2010-02-10,13.4726
2010-02-11,13.4821
2010-02-12,13.3598
2010-02-16,13.4915
2010-02-17,13.5009
2010-02-18,13.5103
2010-02-19,13.5103
2010-02-22,13.5291
2010-02-23,13.6043
2010-02-24,13.6419
2010-02-25,13.5667
2010-02-26,13.3974
2010-03-01,13.6325
2010-03-02,13.5197
2010-03-03,13.6889
2010-03-04,13.6795
2010-03-05,13.9803
2010-03-08,14.0744
2010-03-09,14.1308
2010-03-10,14.1308
2010-03-11,14.1778
2010-03-12,14.2248
2010-03-15,14.2436
2010-03-16,14.291
2010-03-17,14.4326
2010-03-18,14.3571
2010-03-19,14.3098
2010-03-22,14.6877
2010-03-23,14.7349
2010-03-24,14.6027
2010-03-25,14.6121
2010-03-26,14.7538
2010-03-29,14.8577
2010-03-30,15.0466
2010-03-31,14.801
2010-04-01,14.9427
2010-04-05,15.1222
2010-04-06,15.2166
2010-04-07,15.2261
2010-04-08,15.2072
2010-04-09,15.415
2010-04-12,15.3394
2010-04-13,15.2827
2010-04-14,15.5
2010-04-15,15.585
2010-04-16,15.3111
2010-04-19,15.4244
2010-04-20,15.5755
2010-04-21,15.5189
2010-04-22,15.5944
2010-04-23,15.8211
2010-04-26,15.7172
2010-04-27,15.2261
2010-04-28,15.1505
2010-04-29,15.2827
2010-04-30,15.1222
2010-05-03,15.056
2010-05-04,14.7254
2010-05-05,14.6499
2010-05-06,14.376
2010-05-07,14.1209
2010-05-10,14.6499
2010-05-11,14.5838
2010-05-12,14.7916
2010-05-13,14.716
2010-05-14,14.4232
2010-05-17,14.5743
2010-05-18,14.4988
2010-05-19,14.1776
2010-05-20,13.5164
2010-05-21,13.6581
2010-05-24,13.5825
2010-05-25,13.4503
2010-05-26,13.5259
2010-05-27,13.9037
2010-05-28,13.8092
2010-06-01,13.5164
2010-06-02,13.7242
2010-06-03,14.0359
2010-06-04,13.4881
2010-06-07,13.1858
2010-06-08,13.3747
2010-06-09,13.2425
2010-06-10,13.6581
2010-06-11,13.6203
2010-06-14,13.5825
2010-06-15,14.0476
2010-06-16,14.0192
2010-06-17,14.0097
2010-06-18,14.1046
2010-06-21,13.8863
2010-06-22,13.7154
2010-06-23,13.6015
2010-06-24,13.3927
2010-06-25,13.3927
2010-06-28,13.3168
2010-06-29,12.9656
2010-06-30,12.9276
2010-07-01,13.0795
2010-07-02,12.9656
2010-07-06,13.0036
2010-07-07,13.4781
2010-07-08,13.6015
2010-07-09,13.7059
2010-07-12,13.7249
2010-07-13,13.9907
2010-07-14,13.9907
2010-07-15,13.9907
2010-07-16,13.4212
2010-07-19,13.5541
2010-07-20,13.7154
2010-07-21,13.4402
2010-07-22,14.5697
2010-07-23,14.6361
2010-07-26,14.7026
2010-07-27,14.5032
2010-07-28,14.2754
2010-07-29,14.152
2010-07-30,14.1615
2010-08-02,14.3419
2010-08-03,14.1426
2010-08-04,14.3039
2010-08-05,14.3134
2010-08-06,14.4273
2010-08-09,14.6361
2010-08-10,14.2944
2010-08-11,13.7914
2010-08-12,13.6395
2010-08-13,13.6015
2010-08-16,13.668
2010-08-17,13.7629
2010-08-18,13.7724
2010-08-19,13.5161
2010-08-20,13.4971
2010-08-23,13.4402
2010-08-24,13.2883
2010-08-25,13.5351
2010-08-26,13.5161
2010-08-27,13.8198
2010-08-30,13.5825
2010-08-31,13.4686
2010-09-01,14.0666
2010-09-02,13.6015
2010-09-03,13.7914
2010-09-07,13.611
2010-09-08,13.5256
2010-09-09,13.3547
2010-09-10,13.5066
2010-09-13,13.8103
2010-09-14,13.8008
2010-09-15,13.982
2010-09-16,14.0774
2010-09-17,14.2776
2010-09-20,14.5542
2010-09-21,14.3921
2010-09-22,14.3158
2010-09-23,14.1727
2010-09-24,14.5352
2010-09-27,14.5161
2010-09-28,14.5638
2010-09-29,14.5256
2010-09-30,14.5352
2010-10-01,14.5638
2010-10-04,14.5256
2010-10-05,14.745
2010-10-06,14.5638
2010-10-07,14.5733
2010-10-08,14.6401
2010-10-11,14.6687
2010-10-12,14.7927
2010-10-13,14.9357
2010-10-14,15.0502
2010-10-15,15.1932
2010-10-18,15.2314
2010-10-19,14.9643
2010-10-20,15.2219
2010-10-21,15.0693
2010-10-22,15.2123
2010-10-25,15.0788
2010-10-26,14.9739
2010-10-27,14.7831
2010-10-28,14.7831
2010-10-29,14.8976
2010-11-01,14.7831
2010-11-02,14.9167
2010-11-03,14.9357
2010-11-04,15.0406
2010-11-05,15.2123
2010-11-08,15.0693
2010-11-09,14.9739
2010-11-10,15.136
2010-11-11,15.0883
2010-11-12,14.8308
2010-11-15,14.6591
2010-11-16,14.4207
2010-11-17,14.6401
2010-11-18,14.8308
2010-11-19,14.888
2010-11-22,14.9167
2010-11-23,14.745
2010-11-24,14.7068
2010-11-26,14.6878
2010-11-29,14.4779
2010-11-30,14.4207
2010-12-01,14.5733
2010-12-02,14.7164
2010-12-03,14.8022
2010-12-06,14.7068
2010-12-07,14.7259
2010-12-08,14.6878
2010-12-09,14.5161
2010-12-10,14.6305
2010-12-13,14.6305
2010-12-14,14.5635
2010-12-15,14.6497
2010-12-16,14.688
2010-12-17,14.6401
2010-12-20,14.6305
2010-12-21,14.5347
2010-12-22,14.6401
2010-12-23,14.573
2010-12-27,14.6401
2010-12-28,14.7263
2010-12-29,14.8605
2010-12-30,14.7455
2010-12-31,14.7359
2011-01-03,15.0617
2011-01-04,14.918
2011-01-05,15.1767
2011-01-06,15.282
2011-01-07,15.2916
2011-01-10,15.3779
2011-01-11,15.3683
2011-01-12,15.4641
2011-01-13,15.1479
2011-01-14,15.7228
2011-01-18,16.7384
2011-01-19,16.4414
2011-01-20,16.3551
2011-01-21,16.3647
2011-01-24,16.633
2011-01-25,16.7767
2011-01-26,17.2175
2011-01-27,17.0929
2011-01-28,16.6426
2011-01-31,16.6809
2011-02-01,16.9971
2011-02-02,16.6522
2011-02-03,16.6617
2011-02-04,16.6809
2011-02-07,16.93
2011-02-08,17.0067
2011-02-09,16.9109
2011-02-10,16.9875
2011-02-11,16.9588
2011-02-14,17.0258
2011-02-15,16.9779
2011-02-16,16.9588
2011-02-17,16.9875
2011-02-18,16.8821
2011-02-22,16.6522
2011-02-23,16.518
2011-02-24,16.5564
2011-02-25,16.9013
2011-02-28,16.9971
2011-03-01,17.0067
2011-03-02,17.2366
2011-03-03,17.6103
2011-03-04,17.3037
2011-03-07,17.1312
2011-03-08,17.3899
2011-03-09,17.3995
2011-03-10,17.0929
2011-03-11,17.16
2011-03-14,17.1121
2011-03-15,16.939
2011-03-16,16.814
2011-03-17,17.0063
2011-03-18,17.1025
2011-03-21,17.3526
2011-03-22,17.2757
2011-03-23,17.3045
2011-03-24,17.5354
2011-03-25,17.5065
2011-03-28,17.4584
2011-03-29,17.3141
2011-03-30,17.4007
2011-03-31,17.3334
2011-04-01,17.5258
2011-04-04,17.7374
2011-04-05,17.7278
2011-04-06,17.8336
2011-04-07,17.8336
2011-04-08,17.6797
2011-04-11,17.7374
2011-04-12,17.5642
2011-04-13,17.7085
2011-04-14,18.0837
2011-04-15,18.2087
2011-04-18,17.949
2011-04-19,17.9875
2011-04-20,18.1702
2011-04-21,18.3818
2011-04-25,18.3241
2011-04-26,18.3722
2011-04-27,17.9298
2011-04-28,18.1125
2011-04-29,18.151
2011-05-02,18.1125
2011-05-03,18.2953
2011-05-04,18.1125
2011-05-05,17.949
2011-05-06,18.1029
2011-05-09,18.1702
2011-05-10,18.4684
2011-05-11,18.2279
2011-05-12,18.3626
2011-05-13,18.2568
2011-05-16,18.0259
2011-05-17,17.9009
2011-05-18,18.2087
2011-05-19,18.2087
2011-05-20,18.1221
2011-05-23,17.7085
2011-05-24,17.6219
2011-05-25,17.6893
2011-05-26,17.6316
2011-05-27,17.7566
2011-05-31,17.8913
2011-06-01,17.5354
2011-06-02,17.4777
2011-06-03,17.1506
2011-06-06,17.1314
2011-06-07,17.0737
2011-06-08,16.9198
2011-06-09,17.016
2011-06-10,16.7947
2011-06-13,16.814
2011-06-14,16.9492
2011-06-15,16.5629
2011-06-16,16.8622
2011-06-17,17.1327
2011-06-20,17.2099
2011-06-21,17.4707
2011-06-22,17.4031
2011-06-23,17.3355
2011-06-24,17.1616
2011-06-27,17.2679
2011-06-28,17.5866
2011-06-29,17.7025
2011-06-30,17.9632
2011-07-01,18.1371
2011-07-05,18.0888
2011-07-06,18.0984
2011-07-07,18.2626
2011-07-08,18.0019
2011-07-11,17.7604
2011-07-12,17.7121
2011-07-13,17.8184
2011-07-14,17.5093
2011-07-15,17.5093
2011-07-18,17.2292
2011-07-19,17.4417
2011-07-20,17.4997
2011-07-21,17.6638
2011-07-22,17.5383
2011-07-25,17.6155
2011-07-26,17.5576
2011-07-27,18.5137
2011-07-28,18.3882
2011-07-29,18.0019
2011-08-01,17.7218
2011-08-02,17.3258
2011-08-03,17.5673
2011-08-04,16.9202
2011-08-05,17.152
2011-08-08,15.9834
2011-08-09,16.1862
2011-08-10,15.8385
2011-08-11,16.6594
2011-08-12,16.7753
2011-08-15,16.7077
2011-08-16,16.7077
2011-08-17,16.6015
2011-08-18,15.9448
2011-08-19,16.0027
2011-08-22,16.1379
2011-08-23,16.7753
2011-08-24,17.1327
2011-08-25,16.5435
2011-08-26,16.8526
2011-08-29,17.4224
2011-08-30,17.519
2011-08-31,17.5286
2011-09-01,17.1133
2011-09-02,16.6208
2011-09-06,16.5435
2011-09-07,17.0747
2011-09-08,16.8429
2011-09-09,16.447
2011-09-12,16.7174
2011-09-13,16.9009
2011-09-14,17.3372
2011-09-15,17.6184
2011-09-16,17.725
2011-09-19,17.5505
2011-09-20,17.5408
2011-09-21,17.056
2011-09-22,16.5615
2011-09-23,16.6681
2011-09-26,16.9978
2011-09-27,17.0948
2011-09-28,16.6972
2011-09-29,16.6681
2011-09-30,16.4354
2011-10-03,16.4645
2011-10-04,16.9008
2011-10-05,17.2887
2011-10-06,17.279
2011-10-07,17.4148
2011-10-10,17.7929
2011-10-11,17.8123
2011-10-12,18.1226
2011-10-13,18.2486
2011-10-14,18.4232
2011-10-17,18.0062
2011-10-18,18.2583
2011-10-19,17.8705
2011-10-20,17.9384
2011-10-21,18.2874
2011-10-24,18.6559
2011-10-25,18.1129
2011-10-26,19.0341
2011-10-27,19.7904
2011-10-28,19.6158
2011-10-31,19.3056
2011-11-01,18.7723
2011-11-02,19.1504
2011-11-03,19.6352
2011-11-04,19.4219
2011-11-07,19.4607
2011-11-08,19.5868
2011-11-09,18.8789
2011-11-10,19.0825
2011-11-11,19.6449
2011-11-14,19.3153
2011-11-15,19.5868
2011-11-16,19.228
2011-11-17,18.7529
2011-11-18,18.8886
2011-11-21,18.6365
2011-11-22,18.4814
2011-11-23,18.2583
2011-11-25,18.1614
2011-11-28,18.6462
2011-11-29,18.6947
2011-11-30,19.4316
2011-12-01,19.4219
2011-12-02,19.451
2011-12-05,19.6449
2011-12-06,19.6934
2011-12-07,19.3443
2011-12-08,19.0244
2011-12-09,19.6061
2011-12-12,19.2474
2011-12-13,19.0623
2011-12-14,18.8186
2011-12-15,18.6822
2011-12-16,18.7309
2011-12-19,18.458
2011-12-20,19.2377
2011-12-21,19.0817
2011-12-22,19.1012
2011-12-23,19.1695
2011-12-27,19.1889
2011-12-28,18.9648
2011-12-29,19.1402
2011-12-30,19.0525
2012-01-03,19.4228
2012-01-04,19.1695
2012-01-05,19.0038
2012-01-06,18.9258
2012-01-09,19.033
2012-01-10,19.725
2012-01-11,19.8516
2012-01-12,20.0563
2012-01-13,20.0953
2012-01-17,20.1927
2012-01-18,20.3389
2012-01-19,20.3974
2012-01-20,20.2415
2012-01-23,20.183
2012-01-24,20.3584
2012-01-25,21.3135
2012-01-26,21.1868
2012-01-27,20.9334
2012-01-30,20.8457
2012-01-31,20.8944
2012-02-01,20.8457
2012-02-02,20.8359
2012-02-03,21.0309
2012-02-06,21.1478
2012-02-07,21.0406
2012-02-08,20.9919
2012-02-09,21.0601
2012-02-10,20.8457
2012-02-13,20.8749
2012-02-14,21.0016
2012-02-15,20.9139
2012-02-16,21.0406
2012-02-17,21.0893
2012-02-21,20.9919
2012-02-22,20.9821
2012-02-23,21.1965
2012-02-24,21.4012
2012-02-27,21.3914
2012-02-28,21.3817
2012-02-29,21.3232
2012-03-01,21.3037
2012-03-02,21.4207
2012-03-05,21.3817
2012-03-06,21.0893
2012-03-07,21.4791
2012-03-08,21.5961
2012-03-09,21.7618
2012-03-12,21.7715
2012-03-13,21.9469
2012-03-14,22.0444
2012-03-15,22.1321
2012-03-16,22.2101
2012-03-19,22.1516
2012-03-20,22.2788
2012-03-21,22.4158
2012-03-22,22.2397
2012-03-23,22.2984
2012-03-26,22.6703
2012-03-27,22.5431
2012-03-28,22.3571
2012-03-29,22.4452
2012-03-30,22.5725
2012-04-02,22.7193
2012-04-03,22.6312
2012-04-04,22.1907
2012-04-05,22.2886
2012-04-09,22.083
2012-04-10,21.9558
2012-04-11,22.2005
2012-04-12,22.4256
2012-04-13,22.1809
2012-04-16,22.318
2012-04-17,22.7487
2012-04-18,22.641
2012-04-19,22.8368
2012-04-20,22.8955
2012-04-23,22.6214
2012-04-24,22.7095
2012-04-25,22.9249
2012-04-26,23.1598
2012-04-27,23.2772
2012-04-30,23.0129
2012-05-01,23.1206
2012-05-02,23.1206
2012-05-03,22.9249
2012-05-04,22.641
2012-05-07,22.5431
2012-05-08,22.3865
2012-05-09,22.3767
2012-05-10,22.3571
2012-05-11,22.4158
2012-05-14,22.1222
2012-05-15,22.3571
2012-05-16,22.0635
2012-05-17,21.8873
2012-05-18,21.4076
2012-05-21,22.0243
2012-05-22,22.1711
2012-05-23,22.7193
2012-05-24,22.8172
2012-05-25,23.0521
2012-05-29,23.2577
2012-05-30,22.9934
2012-05-31,22.778
2012-06-01,22.0635
2012-06-04,22.1124
2012-06-05,22.2103
2012-06-06,22.7291
2012-06-07,22.8368
2012-06-08,22.9249
2012-06-11,22.7291
2012-06-12,22.8661
2012-06-13,22.5137
2012-06-14,23.0129
2012-06-15,23.3066
2012-06-18,23.4045
2012-06-19,23.5126
2012-06-20,23.4733
2012-06-21,23.0801
2012-06-22,23.1784
2012-06-25,22.8442
2012-06-26,22.8245
2012-06-27,22.8245
2012-06-28,22.8835
2012-06-29,23.493
2012-07-02,23.9058
2012-07-03,23.8468
2012-07-05,23.837
2012-07-06,23.6306
2012-07-09,23.3455
2012-07-10,23.2275
2012-07-11,23.316
2012-07-12,23.0899
2012-07-13,22.9916
2012-07-16,23.0408
2012-07-17,23.0998
2012-07-18,23.3848
2012-07-19,23.8075
2012-07-20,23.6699
2012-07-23,23.316
2012-07-24,23.2767
2012-07-25,22.2544
2012-07-26,22.4903
2012-07-27,23.1882
2012-07-30,23.316
2012-07-31,23.2669
2012-08-01,23.0801
2012-08-02,22.8245
2012-08-03,23.0604
2012-08-06,23.3062
2012-08-07,23.3947
2012-08-08,23.2964
2012-08-09,23.2865
2012-08-10,23.2374
2012-08-13,23.3455
2012-08-14,23.2079
2012-08-15,23.2964
2012-08-16,23.2964
2012-08-17,23.5421
2012-08-20,23.1686
2012-08-21,22.8835
2012-08-22,22.8442
2012-08-23,22.8639
2012-08-24,22.9916
2012-08-27,22.9032
2012-08-28,22.7656
2012-08-29,22.7754
2012-08-30,22.6476
2012-08-31,22.8344
2012-09-04,22.9228
2012-09-05,22.7656
2012-09-06,23.1096
2012-09-07,23.2374
2012-09-10,23.0211
2012-09-11,22.9327
2012-09-12,22.9228
2012-09-13,23.1587
2012-09-14,23.4241
2012-09-17,23.4635
2012-09-18,23.6214
2012-09-19,23.8681
2012-09-20,23.799
2012-09-21,24.0063
2012-09-24,23.5918
2012-09-25,23.4634
2012-09-26,23.3252
2012-09-27,23.651
2012-09-28,23.3845
2012-10-01,23.3154
2012-10-02,23.4634
2012-10-03,23.7003
2012-10-04,23.7793
2012-10-05,23.8484
2012-10-08,23.6411
2012-10-09,23.3252
2012-10-10,22.9699
2012-10-11,22.9501
2012-10-12,22.733
2012-10-15,22.9798
2012-10-16,23.0686
2012-10-17,23.0982
2012-10-18,23.1377
2012-10-19,22.7428
2012-10-22,22.9008
2012-10-23,22.7626
2012-10-24,21.963
2012-10-25,22.121
2012-10-26,22.1605
2012-10-31,22.2098
2012-11-01,22.3381
2012-11-02,22.0815
2012-11-05,21.8248
2012-11-06,22.0914
2012-11-07,22.042
2012-11-08,21.7459
2012-11-09,21.7459
2012-11-12,21.7557
2012-11-13,21.657
2012-11-14,21.3412
2012-11-15,21.3313
2012-11-16,21.2326
2012-11-19,21.3806
2012-11-20,21.3412
2012-11-21,21.4596
2012-11-23,21.4497
2012-11-26,21.509
2012-11-27,21.4399
2012-11-28,21.5188
2012-11-29,21.5781
2012-11-30,21.6866
2012-12-03,21.5978
2012-12-04,21.8248
2012-12-05,22.042
2012-12-06,21.963
2012-12-07,21.8545
2012-12-10,21.6768
2012-12-11,22.0223
2012-12-12,21.8841
2012-12-13,21.9732
2012-12-14,21.7749
2012-12-17,21.9534
2012-12-18,22.0128
2012-12-19,21.7749
2012-12-20,21.6559
2012-12-21,21.4774
2012-12-24,21.4675
2012-12-26,21.2493
2012-12-27,21.3782
2012-12-28,21.0709
2012-12-31,21.1998
2013-01-02,22.0922
2013-01-03,22.1913
2013-01-04,22.0723
2013-01-07,22.0922
2013-01-08,22.5185
2013-01-09,23.3614
2013-01-10,23.1135
2013-01-11,23.4506
2013-01-14,23.52
2013-01-15,23.5498
2013-01-16,23.5101
2013-01-17,23.6786
2013-01-18,23.4506
2013-01-22,23.3614
2013-01-23,23.1432
2013-01-24,23.4407
2013-01-25,23.5398
2013-01-28,23.0936
2013-01-29,22.8953
2013-01-30,22.7763
2013-01-31,23.054
2013-02-01,23.0193
2013-02-04,22.9548
2013-02-05,23.0837
2013-02-06,23.163
2013-02-07,22.8854
2013-02-08,22.9995
2013-02-11,22.7961
2013-02-12,22.7961
2013-02-13,22.8011
2013-02-14,22.8507
2013-02-15,23.0837
2013-02-19,23.2622
2013-02-20,21.7748
2013-02-21,22.0426
2013-02-22,22.6475
2013-02-25,22.9747
2013-02-26,23.2225
2013-02-27,23.5498
2013-02-28,23.5795
2013-03-01,23.5994
2013-03-04,23.5596
2013-03-05,23.8869
2013-03-06,23.9662
2013-03-07,24.0456
2013-03-08,24.0555
2013-03-11,24.1844
2013-03-12,24.1546
2013-03-13,24.1943
2013-03-14,24.2339
2013-03-15,24.0852
2013-03-18,23.7878
2013-03-19,23.7379
2013-03-20,23.9968
2013-03-21,24.0963
2013-03-22,24.2258
2013-03-25,24.4249
2013-03-26,24.6041
2013-03-27,24.4548
2013-03-28,24.6838
2013-04-01,24.2855
2013-04-02,24.2158
2013-04-03,23.9271
2013-04-04,24.1262
2013-04-05,23.8972
2013-04-08,24.0764
2013-04-09,24.3751
2013-04-10,24.7734
2013-04-11,24.8332
2013-04-12,24.7933
2013-04-15,24.2556
2013-04-16,24.4647
2013-04-17,24.1461
2013-04-18,23.7379
2013-04-19,23.8474
2013-04-22,23.8773
2013-04-23,24.1162
2013-04-24,23.3695
2013-04-25,23.3197
2013-04-26,23.1504
2013-04-29,23.3695
2013-04-30,23.5089
2013-05-01,23.3993
2013-05-02,23.5387
2013-05-03,23.8076
2013-05-06,23.6781
2013-05-07,23.8175
2013-05-08,23.8574
2013-05-09,23.9569
2013-05-10,24.1262
2013-05-13,23.8574
2013-05-14,23.8574
2013-05-15,23.8474
2013-05-16,23.8076
2013-05-17,24.0864
2013-05-20,24.0266
2013-05-21,23.9171
2013-05-22,23.5487
2013-05-23,23.5089
2013-05-24,23.5387
2013-05-28,23.7279
2013-05-29,23.5487
2013-05-30,23.6283
2013-05-31,23.4292
2013-06-03,23.3296
2013-06-04,23.3794
2013-06-05,23.1006
2013-06-06,23.0409
2013-06-07,23.3495
2013-06-10,23.3097
2013-06-11,23.0807
2013-06-12,22.8417
2013-06-13,23.698
2013-06-14,23.3495
2013-06-17,23.25
2013-06-18,23.25
2013-06-19,23.02
2013-06-20,22.63
2013-06-21,22.78
2013-06-24,23.2
2013-06-25,23.52
2013-06-26,23.75
2013-06-27,24.31
2013-06-28,24.52
2013-07-01,24.7
2013-07-02,24.65
2013-07-03,24.64
2013-07-05,24.75
2013-07-08,24.89
2013-07-09,25.28
2013-07-10,25.29
2013-07-11,25.67
2013-07-12,25.63
2013-07-15,25.7
2013-07-16,25.49
2013-07-17,25.45
2013-07-18,25.62
2013-07-19,25.46
2013-07-22,25.64
2013-07-23,25.96
2013-07-24,27.19
2013-07-25,27.1
2013-07-26,27.15
2013-07-29,27.15
2013-07-30,27.35
2013-07-31,27.41
2013-08-01,28.08
2013-08-02,28.17
2013-08-05,28.16
2013-08-06,28.05
2013-08-07,27.82
2013-08-08,28.04
2013-08-09,27.91
