date,close_price
1998-01-02,13.7615
1998-01-05,13.7615
1998-01-06,13.6202
1998-01-07,13.5259
1998-01-08,13.4675
1998-01-09,12.8661
1998-01-12,13.1376
1998-01-13,13.3487
1998-01-14,13.656
1998-01-15,13.3619
1998-01-16,13.409
1998-01-20,13.4562
1998-01-21,13.5033
1998-01-22,14.0688
1998-01-23,14.1028
1998-01-26,14.7984
1998-01-27,14.87
1998-01-28,15.3168
1998-01-29,15.5769
1998-01-30,15.3884
1998-02-02,15.9068
1998-02-03,16.0822
1998-02-04,15.954
1998-02-05,15.954
1998-02-06,16.0011
1998-02-09,15.9068
1998-02-10,16.4007
1998-02-11,16.2839
1998-02-12,16.4479
1998-02-13,16.1896
1998-02-17,16.3178
1998-02-18,16.3178
1998-02-19,16.1645
1998-02-20,16.3424
1998-02-23,16.2232
1998-02-24,16.0454
1998-02-25,16.6016
1998-02-26,17.0159
1998-02-27,16.8854
1998-03-02,17.0632
1998-03-03,17.0519
1998-03-04,16.8854
1998-03-05,16.7908
1998-03-06,17.0046
1998-03-09,17.1105
1998-03-10,17.1465
1998-03-11,17.0992
1998-03-12,17.0273
1998-03-13,17.1105
1998-03-16,17.2051
1998-03-17,17.2051
1998-03-18,17.3356
1998-03-19,17.417
1998-03-20,17.5835
1998-03-23,17.5248
1998-03-24,17.5362
1998-03-25,17.4643
1998-03-26,17.3111
1998-03-27,17.3356
1998-03-30,17.1938
1998-03-31,17.4529
1998-04-01,17.8559
1998-04-02,17.9978
1998-04-03,17.9146
1998-04-06,18.3516
1998-04-07,18.1265
1998-04-08,18.0319
1998-04-09,18.0205
1998-04-13,18.1151
1998-04-14,18.4462
1998-04-15,18.1265
1998-04-16,18.3157
1998-04-17,18.2211
1998-04-20,18.3516
1998-04-21,18.5181
1998-04-22,18.4462
1998-04-23,18.5181
1998-04-24,18.5521
1998-04-27,18.4103
1998-04-28,18.2816
1998-04-29,18.3289
1998-04-30,18.6467
1998-05-01,18.6827
1998-05-04,18.8492
1998-05-05,18.5654
1998-05-06,18.3762
1998-05-07,18.1397
1998-05-08,18.1984
1998-05-11,18.3762
1998-05-12,18.4349
1998-05-13,18.2211
1998-05-14,18.2457
1998-05-15,18.1038
1998-05-18,17.7727
1998-05-19,17.9619
1998-05-20,18.3037
1998-05-21,18.2562
1998-05-22,18.279
1998-05-26,18.0416
1998-05-27,17.6257
1998-05-28,17.7681
1998-05-29,17.9105
1998-06-01,17.8631
1998-06-02,17.7339
1998-06-03,17.4965
1998-06-04,17.2231
1998-06-05,17.4016
1998-06-08,17.3883
1998-06-09,17.3541
1998-06-10,16.5698
1998-06-11,16.1311
1998-06-12,16.5109
1998-06-15,16.3324
1998-06-16,16.2849
1998-06-17,16.8546
1998-06-18,16.6894
1998-06-19,16.2963
1998-06-22,16.3685
1998-06-23,16.7236
1998-06-24,16.9268
1998-06-25,17.0085
1998-06-26,17.1642
1998-06-29,17.3883
1998-06-30,17.4718
1998-07-01,17.7814
1998-07-02,17.8764
1998-07-06,18.053
1998-07-07,17.9941
1998-07-08,18.1954
1998-07-09,18.1479
1998-07-10,17.9713
1998-07-13,17.9941
1998-07-14,18.1137
1998-07-15,18.279
1998-07-16,18.3378
1998-07-17,17.9466
1998-07-20,17.639
1998-07-21,17.8991
1998-07-22,18.3264
1998-07-23,18.2087
1998-07-24,18.0055
1998-07-27,18.4689
1998-07-28,17.9713
1998-07-29,17.7567
1998-07-30,18.2562
1998-07-31,18.2087
1998-08-03,18.4214
1998-08-04,17.7339
1998-08-05,17.4491
1998-08-06,17.4491
1998-08-07,17.1395
1998-08-10,17.2117
1998-08-11,16.6761
1998-08-12,16.9021
1998-08-13,16.9021
1998-08-14,16.5812
1998-08-17,16.9496
1998-08-18,17.0692
1998-08-19,16.911
1998-08-20,16.9225
1998-08-21,16.4706
1998-08-24,16.4343
1998-08-25,16.3981
1998-08-26,15.8032
1998-08-27,14.825
1998-08-28,14.9795
1998-08-31,13.9079
1998-09-01,14.5752
1998-09-02,14.9795
1998-09-03,14.3598
1998-09-04,14.5161
1998-09-08,15.254
1998-09-09,14.9204
1998-09-10,14.3483
1998-09-11,14.6343
1998-09-14,15.1587
1998-09-15,15.2426
1998-09-16,15.4695
1998-09-17,15.3494
1998-09-18,15.1701
1998-09-21,14.8727
1998-09-22,14.539
1998-09-23,15.2655
1998-09-24,15.111
1998-09-25,15.0996
1998-09-28,15.254
1998-09-29,15.3494
1998-09-30,14.5867
1998-10-01,14.0871
1998-10-02,14.5161
1998-10-05,14.1348
1998-10-06,14.6115
1998-10-07,14.5505
1998-10-08,14.3483
1998-10-09,14.7545
1998-10-12,15.1225
1998-10-13,15.0043
1998-10-14,14.8021
1998-10-15,15.2788
1998-10-16,15.8985
1998-10-19,16.1845
1998-10-20,16.5525
1998-10-21,17.2447
1998-10-22,17.0903
1998-10-23,16.768
1998-10-26,16.8042
1998-10-27,17.1131
1998-10-28,17.4239
1998-10-29,17.8053
1998-10-30,18.1618
1998-11-02,18.2572
1998-11-03,18.1142
1998-11-04,18.3296
1998-11-05,18.5318
1998-11-06,18.8178
1998-11-09,18.6976
1998-11-10,18.5794
1998-11-11,18.6633
1998-11-12,18.9493
1998-11-13,19.1743
1998-11-16,18.5794
1998-11-17,18.8769
1998-11-18,19.0778
1998-11-19,19.3055
1998-11-20,19.784
1998-11-23,20.3332
1998-11-24,20.7753
1998-11-25,21.3015
1998-11-27,21.3858
1998-11-30,20.5361
1998-12-01,20.4059
1998-12-02,19.4606
1998-12-03,19.3534
1998-12-04,19.4606
1998-12-07,20.071
1998-12-08,20.1667
1998-12-09,20.3925
1998-12-10,20.1897
1998-12-11,19.8318
1998-12-14,19.2328
1998-12-15,19.3878
1998-12-16,18.9706
1998-12-17,18.8501
1998-12-18,19.2577
1998-12-21,19.9275
1998-12-22,19.9753
1998-12-23,20.7408
1998-12-24,20.4174
1998-12-28,20.8365
1998-12-29,21.0279
1998-12-30,21.1465
1998-12-31,20.9552
1999-01-04,20.6681
1999-01-05,21.2901
1999-01-06,21.5178
1999-01-07,21.3494
1999-01-08,21.9847
1999-01-11,21.4814
1999-01-12,21.3015
1999-01-13,21.2422
1999-01-14,20.8116
1999-01-15,21.0509
1999-01-19,20.9073
1999-01-20,21.4106
1999-01-21,21.8278
1999-01-22,21.9235
1999-01-25,22.1761
1999-01-26,22.4498
1999-01-27,22.1512
1999-01-28,22.379
1999-01-29,22.8459
1999-02-01,23.2153
1999-02-02,23.2287
1999-02-03,23.4679
1999-02-04,23.4545
1999-02-05,23.9214
1999-02-08,22.8938
1999-02-09,23.0124
1999-02-10,22.7732
1999-02-11,23.0603
1999-02-12,22.7617
1999-02-16,23.2153
1999-02-17,23.3687
1999-02-18,23.6336
1999-02-19,24.029
1999-02-22,24.2804
1999-02-23,24.004
1999-02-24,23.7891
1999-02-25,23.4167
1999-02-26,23.7296
1999-03-01,23.9445
1999-03-02,23.9215
1999-03-03,23.6336
1999-03-04,24.0885
1999-03-05,24.7603
1999-03-08,24.4013
1999-03-09,24.2804
1999-03-10,24.1845
1999-03-11,24.4839
1999-03-12,24.4724
1999-03-15,24.8083
1999-03-16,24.8927
1999-03-17,24.9522
1999-03-18,25.3361
1999-03-19,25.8889
1999-03-22,25.5875
1999-03-23,24.9772
1999-03-24,24.6643
1999-03-25,25.1077
1999-03-26,25.3476
1999-03-29,25.7929
1999-03-30,25.9849
1999-03-31,26.0079
1999-04-01,25.7315
1999-04-05,26.1039
1999-04-06,25.9369
1999-04-07,25.8409
1999-04-08,25.72
1999-04-09,25.3361
1999-04-12,25.3956
1999-04-13,25.3361
1999-04-14,26.3918
1999-04-15,27.3035
1999-04-16,27.244
1999-04-19,28.2152
1999-04-20,27.219
1999-04-21,26.2593
1999-04-22,26.4647
1999-04-23,26.7277
1999-04-26,26.6566
1999-04-27,27.6029
1999-04-28,27.6758
1999-04-29,27.6874
1999-04-30,27.7603
1999-05-03,28.5146
1999-05-04,28.3361
1999-05-05,28.0437
1999-05-06,27.7801
1999-05-07,27.8878
1999-05-10,28.4285
1999-05-11,28.7902
1999-05-12,28.2611
1999-05-13,28.0802
1999-05-14,27.2856
1999-05-17,26.5159
1999-05-18,25.5443
1999-05-19,25.3018
1999-05-20,24.2667
1999-05-21,24.6284
1999-05-24,24.5322
1999-05-25,25.0863
1999-05-26,24.9401
1999-05-27,23.8588
1999-05-28,23.8588
1999-06-01,24.3398
1999-06-02,24.7746
1999-06-03,25.398
1999-06-04,25.8791
1999-06-07,26.337
1999-06-08,25.8329
1999-06-09,24.967
1999-06-10,24.0743
1999-06-11,23.7164
1999-06-14,24.005
1999-06-15,24.0512
1999-06-16,24.6515
1999-06-17,25.2557
1999-06-18,25.4942
1999-06-21,25.7829
1999-06-22,25.2788
1999-06-23,24.9901
1999-06-24,24.2936
1999-06-25,24.8708
1999-06-28,25.0863
1999-06-29,26.5063
1999-06-30,27.6338
1999-07-01,27.3953
1999-07-02,26.9373
1999-07-06,26.8911
1999-07-07,26.9142
1999-07-08,27.0835
1999-07-09,26.9142
1999-07-12,26.9373
1999-07-13,26.287
1999-07-14,26.8411
1999-07-15,26.5063
1999-07-16,26.9873
1999-07-19,26.6025
1999-07-20,26.1677
1999-07-21,27.0104
1999-07-22,26.9604
1999-07-23,26.5063
1999-07-26,26.5756
1999-07-27,26.5525
1999-07-28,27.0104
1999-07-29,26.2408
1999-07-30,25.6867
1999-08-02,25.5173
1999-08-03,25.2287
1999-08-04,25.0132
1999-08-05,24.8939
1999-08-06,24.7015
1999-08-09,24.436
1999-08-10,23.9088
1999-08-11,24.2936
1999-08-12,25.5443
1999-08-13,25.1094
1999-08-16,25.6636
1999-08-17,25.9753
1999-08-18,25.8329
1999-08-19,25.5443
1999-08-20,26.0253
1999-08-23,26.9373
1999-08-24,26.7949
1999-08-25,26.9919
1999-08-26,26.9417
1999-08-27,26.2201
1999-08-30,25.6643
1999-08-31,25.6412
1999-09-01,26.0271
1999-09-02,26.0271
1999-09-03,25.9769
1999-09-07,25.2552
1999-09-08,25.1819
1999-09-09,24.9156
1999-09-10,24.2904
1999-09-13,24.1206
1999-09-14,24.0974
1999-09-15,23.9276
1999-09-16,23.5417
1999-09-17,23.9045
1999-09-20,23.3487
1999-09-21,23.3989
1999-09-22,22.4341
1999-09-23,21.7587
1999-09-24,22.2141
1999-09-27,21.6854
1999-09-28,21.5889
1999-09-29,22.3376
1999-09-30,22.8432
1999-10-01,22.3106
1999-10-04,22.3376
1999-10-05,21.4191
1999-10-06,21.9517
1999-10-07,22.4572
1999-10-08,22.82
1999-10-11,22.5537
1999-10-12,21.203
1999-10-13,20.5276
1999-10-14,20.8402
1999-10-15,20.3809
1999-10-18,20.0683
1999-10-19,20.6974
1999-10-20,21.6121
1999-10-21,21.5156
1999-10-22,21.9517
1999-10-25,21.3959
1999-10-26,21.1528
1999-10-27,21.2261
1999-10-28,22.3608
1999-10-29,23.4684
1999-11-01,23.0361
1999-11-02,23.1095
1999-11-03,23.013
1999-11-04,21.9015
1999-11-05,21.5657
1999-11-08,21.7587
1999-11-09,21.1798
1999-11-10,20.817
1999-11-11,20.7669
1999-11-12,20.817
1999-11-15,21.0833
1999-11-16,21.7085
1999-11-17,21.8825
1999-11-18,22.5835
1999-11-19,22.0025
1999-11-22,21.1311
1999-11-23,21.836
1999-11-24,21.7392
1999-11-26,21.3984
1999-11-29,21.1079
1999-11-30,21.9793
1999-12-01,22.4867
1999-12-02,22.4867
1999-12-03,23.819
1999-12-06,22.5835
1999-12-07,21.8089
1999-12-08,22.5835
1999-12-09,23.0444
1999-12-10,22.9243
1999-12-13,22.7307
1999-12-14,22.6571
1999-12-15,22.3898
1999-12-16,22.2698
1999-12-17,21.836
1999-12-20,22.537
1999-12-21,22.6106
1999-12-22,22.2698
1999-12-23,23.0947
1999-12-27,23.7454
1999-12-28,24.8608
1999-12-29,24.5471
1999-12-30,24.7872
1999-12-31,25.1745
2000-01-03,24.2063
2000-01-04,23.238
2000-01-05,22.7539
2000-01-06,23.8422
2000-01-07,24.8841
2000-01-10,25.0545
2000-01-11,24.4968
2000-01-12,25.0041
2000-01-13,25.3682
2000-01-14,24.764
2000-01-18,24.3031
2000-01-19,23.4549
2000-01-20,22.9708
2000-01-21,23.5518
2000-01-24,23.238
2000-01-25,21.9793
2000-01-26,22.0529
2000-01-27,21.4719
2000-01-28,20.2868
2000-01-31,20.5037
2000-02-01,20.8406
2000-02-02,20.8174
2000-02-03,20.5037
2000-02-04,19.7523
2000-02-07,19.6323
2000-02-08,19.7756
2000-02-09,19.5819
2000-02-10,19.4154
2000-02-11,18.7376
2000-02-14,19.5354
2000-02-15,20.3333
2000-02-16,20.3139
2000-02-17,21.0176
2000-02-18,20.4111
2000-02-22,20.8738
2000-02-23,20.6561
2000-02-24,19.7813
2000-02-25,19.513
2000-02-28,19.9251
2000-02-29,19.828
2000-03-01,19.7541
2000-03-02,19.8046
2000-03-03,20.2167
2000-03-06,19.4392
2000-03-07,19.7074
2000-03-08,19.1243
2000-03-09,18.6849
2000-03-10,19.0271
2000-03-13,19.1009
2000-03-14,19.4158
2000-03-15,21.457
2000-03-16,22.0635
2000-03-17,21.2859
2000-03-20,21.7952
2000-03-21,22.0635
2000-03-22,21.7485
2000-03-23,22.355
2000-03-24,22.114
2000-03-27,22.3317
2000-03-28,22.5028
2000-03-29,22.4289
2000-03-30,23.813
2000-03-31,24.47
2000-04-03,23.984
2000-04-04,24.5905
2000-04-05,23.6186
2000-04-06,23.8869
2000-04-07,23.5953
2000-04-10,24.8821
2000-04-11,24.9327
2000-04-12,24.9793
2000-04-13,23.6691
2000-04-14,22.1373
2000-04-17,23.1832
2000-04-18,22.6
2000-04-19,23.7391
2000-04-20,24.9055
2000-04-24,25.2243
2000-04-25,25.0299
2000-04-26,23.6186
2000-04-27,24.0812
2000-04-28,24.1551
2000-05-01,24.1551
2000-05-02,24.3728
2000-05-03,23.8363
2000-05-04,23.9607
2000-05-05,25.4187
2000-05-08,24.2251
2000-05-09,24.4467
2000-05-10,23.2065
2000-05-11,24.7111
2000-05-12,24.956
2000-05-15,24.9055
2000-05-16,25.7569
2000-05-17,25.445
2000-05-18,25.1759
2000-05-19,24.3258
2000-05-22,24.1035
2000-05-23,23.6902
2000-05-24,23.3236
2000-05-25,23.1559
2000-05-26,22.9844
2000-05-30,23.0818
2000-05-31,23.5693
2000-06-01,24.0567
2000-06-02,24.591
2000-06-05,23.7409
2000-06-06,24.0333
2000-06-07,23.3977
2000-06-08,22.2278
2000-06-09,22.9103
2000-06-12,22.766
2000-06-13,22.3253
2000-06-14,23.3002
2000-06-15,23.1793
2000-06-16,22.9103
2000-06-19,22.376
2000-06-20,21.7404
2000-06-21,22.2044
2000-06-22,22.0328
2000-06-23,22.2785
2000-06-26,22.2512
2000-06-27,22.0328
2000-06-28,22.1069
2000-06-29,21.2763
2000-06-30,22.5203
2000-07-03,22.1069
2000-07-05,22.9844
2000-07-06,22.5203
2000-07-07,22.8869
2000-07-10,23.1793
2000-07-11,23.2261
2000-07-12,23.5186
2000-07-13,23.5693
2000-07-14,23.7136
2000-07-17,23.5693
2000-07-18,23.0077
2000-07-19,22.4462
2000-07-20,22.3994
2000-07-21,22.9337
2000-07-24,23.1052
2000-07-25,22.7153
2000-07-26,22.5437
2000-07-27,22.4735
2000-07-28,22.3994
2000-07-31,22.7894
2000-08-01,23.0584
2000-08-02,22.7387
2000-08-03,22.3019
2000-08-04,23.0077
2000-08-07,23.7643
2000-08-08,23.9359
2000-08-09,23.7643
2000-08-10,23.8618
2000-08-11,23.7643
2000-08-14,23.7643
2000-08-15,23.4952
2000-08-16,23.6434
2000-08-17,24.2751
2000-08-18,23.9827
2000-08-21,24.7392
2000-08-22,24.9342
2000-08-23,25.0361
2000-08-24,24.7427
2000-08-25,24.7192
2000-08-28,24.9892
2000-08-29,24.5002
2000-08-30,23.886
2000-08-31,24.375
2000-09-01,24.2302
2000-09-05,23.9838
2000-09-06,24.9892
2000-09-07,24.7662
2000-09-08,24.0816
2000-09-11,24.598
2000-09-12,24.598
2000-09-13,24.598
2000-09-14,25.0596
2000-09-15,25.0126
2000-09-18,25.2082
2000-09-19,24.4493
2000-09-20,23.8156
2000-09-21,24.5471
2000-09-22,25.6229
2000-09-25,26.1353
2000-09-26,26.2605
2000-09-27,26.9451
2000-09-28,28.0443
2000-09-29,27.1133
2000-10-02,26.8473
2000-10-03,27.5554
2000-10-04,27.6297
2000-10-05,28.4121
2000-10-06,28.1656
2000-10-09,27.3832
2000-10-10,28.0678
2000-10-11,27.9935
2000-10-12,26.6009
2000-10-13,27.2854
2000-10-16,28.2165
2000-10-17,27.3598
2000-10-18,26.773
2000-10-19,26.7221
2000-10-20,25.9163
2000-10-23,24.7427
2000-10-24,25.306
2000-10-25,25.0361
2000-10-26,25.9671
2000-10-27,26.2097
2000-10-30,26.8473
2000-10-31,27.3089
2000-11-01,26.8708
2000-11-02,26.8473
2000-11-03,26.2331
2000-11-06,27.3089
2000-11-07,26.6009
2000-11-08,26.5265
2000-11-09,26.6009
2000-11-10,25.795
2000-11-13,25.8419
2000-11-14,26.3309
2000-11-15,26.3211
2000-11-16,26.9374
2000-11-17,27.2317
2000-11-20,27.059
2000-11-21,27.4751
2000-11-22,27.5732
2000-11-24,28.2365
2000-11-27,27.4515
2000-11-28,26.8392
2000-11-29,27.3299
2000-11-30,27.793
2000-12-01,27.6949
2000-12-04,28.4328
2000-12-05,29.6338
2000-12-06,29.5122
2000-12-07,29.4886
2000-12-08,29.3905
2000-12-11,28.2836
2000-12-12,28.9705
2000-12-13,28.1384
2000-12-14,27.8205
2000-12-15,27.9657
2000-12-18,29.0215
2000-12-19,29.3395
2000-12-20,28.7507
2000-12-21,29.3905
2000-12-22,29.8065
2000-12-26,30.4424
2000-12-27,31.2274
2000-12-28,30.8349
2000-12-29,30.8349
2001-01-02,29.363
2001-01-03,29.5122
2001-01-04,28.9234
2001-01-05,27.9893
2001-01-08,28.3582
2001-01-09,27.6949
2001-01-10,28.3111
2001-01-11,29.0215
2001-01-12,27.6949
2001-01-16,27.844
2001-01-17,28.2836
2001-01-18,28.629
2001-01-19,27.8676
2001-01-22,28.1384
2001-01-23,28.578
2001-01-24,28.6526
2001-01-25,29.6849
2001-01-26,28.7272
2001-01-29,29.0412
2001-01-30,29.2217
2001-01-31,29.3826
2001-02-01,29.104
2001-02-02,29.0176
2001-02-05,29.155
2001-02-06,29.2256
2001-02-07,29.1589
2001-02-08,29.4376
2001-02-09,29.3866
2001-02-12,29.3983
2001-02-13,30.4149
2001-02-14,30.3816
2001-02-15,31.2436
2001-02-16,30.8028
2001-02-20,31.0075
2001-02-21,31.1492
2001-02-22,30.8618
2001-02-23,30.3934
2001-02-26,30.8028
2001-02-27,31.3972
2001-02-28,30.665
2001-03-01,30.7043
2001-03-02,30.7201
2001-03-05,31.6491
2001-03-06,31.6491
2001-03-07,32.1687
2001-03-08,32.2868
2001-03-09,32.1687
2001-03-12,30.8421
2001-03-13,31.1964
2001-03-14,29.5234
2001-03-15,29.7793
2001-03-16,28.0866
2001-03-19,28.744
2001-03-20,28.3307
2001-03-21,27.4568
2001-03-22,26.5711
2001-03-23,26.3742
2001-03-26,28.248
2001-03-27,29.3305
2001-03-28,28.7637
2001-03-29,29.3541
2001-03-30,28.8188
2001-04-02,28.8739
2001-04-03,27.8937
2001-04-04,28.0945
2001-04-05,29.5392
2001-04-06,29.0432
2001-04-09,29.484
2001-04-10,29.3738
2001-04-11,28.7204
2001-04-12,29.6454
2001-04-16,29.6021
2001-04-17,29.7714
2001-04-18,30.7555
2001-04-19,30.4445
2001-04-20,30.2005
2001-04-23,30.1729
2001-04-24,30.1729
2001-04-25,30.0312
2001-04-26,30.291
2001-04-27,30.8421
2001-04-30,30.7713
2001-05-01,30.8776
2001-05-02,30.7319
2001-05-03,30.8264
2001-05-04,31.0783
2001-05-07,30.8618
2001-05-08,30.3973
2001-05-09,30.2241
2001-05-10,30.9799
2001-05-11,31.1413
2001-05-14,31.0508
2001-05-15,31.2948
2001-05-16,32.6825
2001-05-17,33.3931
2001-05-18,34.4669
2001-05-21,34.0997
2001-05-22,33.4326
2001-05-23,33.3971
2001-05-24,33.247
2001-05-25,32.8641
2001-05-29,32.9549
2001-05-30,32.2286
2001-05-31,32.9233
2001-06-01,32.8799
2001-06-04,33.2984
2001-06-05,33.5155
2001-06-06,32.5641
2001-06-07,32.8128
2001-06-08,32.1338
2001-06-11,31.8772
2001-06-12,31.7233
2001-06-13,31.6956
2001-06-14,30.3929
2001-06-15,29.2955
2001-06-18,30.7206
2001-06-19,29.4494
2001-06-20,29.2876
2001-06-21,29.3468
2001-06-22,28.9954
2001-06-25,28.9954
2001-06-26,29.0586
2001-06-27,28.9599
2001-06-28,29.3507
2001-06-29,28.9402
2001-07-02,28.0598
2001-07-03,28.798
2001-07-05,28.6204
2001-07-06,28.7586
2001-07-09,28.6796
2001-07-10,28.3836
2001-07-11,28.2967
2001-07-12,29.3744
2001-07-13,29.631
2001-07-16,29.6113
2001-07-17,30.2034
2001-07-18,29.6863
2001-07-19,29.9231
2001-07-20,30.0771
2001-07-23,29.7731
2001-07-24,29.1612
2001-07-25,29.1336
2001-07-26,28.8967
2001-07-27,28.8928
2001-07-30,28.6204
2001-07-31,28.9757
2001-08-01,28.5375
2001-08-02,28.4822
2001-08-03,28.5059
2001-08-06,28.6244
2001-08-07,28.802
2001-08-08,28.1506
2001-08-09,28.5178
2001-08-10,29.1928
2001-08-13,28.7783
2001-08-14,28.6915
2001-08-15,28.0125
2001-08-16,28.9362
2001-08-17,28.3204
2001-08-20,29.0389
2001-08-21,28.4664
2001-08-22,28.8882
2001-08-23,28.8843
2001-08-24,28.9001
2001-08-27,28.8486
2001-08-28,28.2229
2001-08-29,27.324
2001-08-30,26.7261
2001-08-31,27.0943
2001-09-04,26.8884
2001-09-05,26.928
2001-09-06,26.829
2001-09-07,25.9974
2001-09-10,26.1875
2001-09-17,19.008
2001-09-18,19.4278
2001-09-19,18.9684
2001-09-20,16.4934
2001-09-21,16.7508
2001-09-24,17.7171
2001-09-25,18.3229
2001-09-26,17.7606
2001-09-27,17.8319
2001-09-28,18.418
2001-10-01,18.616
2001-10-02,19.3882
2001-10-03,20.2079
2001-10-04,20.6079
2001-10-05,20.5524
2001-10-08,20.5564
2001-10-09,20.1208
2001-10-10,20.6514
2001-10-11,20.8692
2001-10-12,20.4574
2001-10-15,20.9841
2001-10-16,21.3286
2001-10-17,20.5445
2001-10-18,19.9624
2001-10-19,20.4059
2001-10-22,20.893
2001-10-23,20.9761
2001-10-24,21.087
2001-10-25,21.5424
2001-10-26,22.576
2001-10-29,21.487
2001-10-30,21.1702
2001-10-31,21.3523
2001-11-01,21.2454
2001-11-02,21.4949
2001-11-05,21.8909
2001-11-06,22.477
2001-11-07,21.978
2001-11-08,22.4215
2001-11-09,22.576
2001-11-12,21.8394
2001-11-13,22.5522
2001-11-14,23.1307
2001-11-15,22.9239
2001-11-16,23.2022
2001-11-19,23.6555
2001-11-20,23.2659
2001-11-21,23.3613
2001-11-23,23.6754
2001-11-26,24.0332
2001-11-27,23.8026
2001-11-28,23.5163
2001-11-29,24.4188
2001-11-30,23.9338
2001-12-03,23.4726
2001-12-04,24.2439
2001-12-05,24.5023
2001-12-06,24.5699
2001-12-07,24.2876
2001-12-10,24.0371
2001-12-11,24.1922
2001-12-12,23.6992
2001-12-13,24.053
2001-12-14,24.4268
2001-12-17,25.0311
2001-12-18,25.1901
2001-12-19,25.7387
2001-12-20,25.1941
2001-12-21,25.4048
2001-12-24,25.4684
2001-12-26,25.691
2001-12-27,26.0767
2001-12-28,25.7586
2001-12-31,25.7228
2002-01-02,25.532
2002-01-03,26.1999
2002-01-04,26.1482
2002-01-07,26.1482
2002-01-08,25.7745
2002-01-09,25.8779
2002-01-10,25.6115
2002-01-11,25.3491
2002-01-14,24.7488
2002-01-15,24.3313
2002-01-16,23.6038
2002-01-17,25.1821
2002-01-18,25.3094
2002-01-22,25.7467
2002-01-23,25.5241
2002-01-24,26.1244
2002-01-25,26.359
2002-01-28,26.9315
2002-01-29,26.2516
2002-01-30,26.2596
2002-01-31,27.3211
2002-02-01,27.818
2002-02-04,26.6373
2002-02-05,26.7923
2002-02-06,26.9474
2002-02-07,26.7923
2002-02-08,27.0627
2002-02-11,27.5119
2002-02-12,27.1939
2002-02-13,27.8901
2002-02-14,27.7106
2002-02-15,27.6387
2002-02-19,27.1959
2002-02-20,27.9779
2002-02-21,27.5709
2002-02-22,27.7505
2002-02-25,28.0218
2002-02-26,28.6482
2002-02-27,29.119
2002-02-28,29.0991
2002-03-01,29.7375
2002-03-04,30.9265
2002-03-05,29.4702
2002-03-06,29.913
2002-03-07,29.7933
2002-03-08,29.9928
2002-03-11,30.2043
2002-03-12,29.913
2002-03-13,29.4781
2002-03-14,29.7534
2002-03-15,29.6617
2002-03-18,29.4063
2002-03-19,29.5061
2002-03-20,29.2308
2002-03-21,29.115
2002-03-22,29.0113
2002-03-25,28.6283
2002-03-26,28.8078
2002-03-27,29.3864
2002-03-28,29.6058
2002-04-01,29.5699
2002-04-02,29.6218
2002-04-03,29.0313
2002-04-04,29.3225
2002-04-05,29.0472
2002-04-08,29.5101
2002-04-09,29.1031
2002-04-10,29.925
2002-04-11,29.6657
2002-04-12,29.0472
2002-04-15,28.724
2002-04-16,29.147
2002-04-17,27.8382
2002-04-18,26.8487
2002-04-19,27.4911
2002-04-22,27.8223
2002-04-23,27.5111
2002-04-24,27.2956
2002-04-25,27.5789
2002-04-26,27.2517
2002-04-29,27.0961
2002-04-30,28.0058
2002-05-01,28.1814
2002-05-02,27.7305
2002-05-03,27.7944
2002-05-06,26.9245
2002-05-07,27.2118
2002-05-08,28.0816
2002-05-09,27.7305
2002-05-10,27.4672
2002-05-13,27.7425
2002-05-14,28.2891
2002-05-15,28.2271
2002-05-16,28.0069
2002-05-17,28.147
2002-05-20,27.7666
2002-05-21,27.2501
2002-05-22,27.3422
2002-05-23,27.6906
2002-05-24,27.6345
2002-05-28,27.3863
2002-05-29,27.3462
2002-05-30,27.3502
2002-05-31,27.5464
2002-06-03,26.4293
2002-06-04,26.4734
2002-06-05,27.4383
2002-06-06,27.1861
2002-06-07,27.3102
2002-06-10,27.6265
2002-06-11,27.5144
2002-06-12,27.9868
2002-06-13,27.5865
2002-06-14,27.3582
2002-06-17,27.8547
2002-06-18,27.9388
2002-06-19,28.0069
2002-06-20,27.5865
2002-06-21,26.4854
2002-06-24,26.6095
2002-06-25,26.4654
2002-06-26,25.9849
2002-06-27,26.7376
2002-06-28,27.2061
2002-07-01,26.5214
2002-07-02,26.045
2002-07-03,25.9689
2002-07-05,27.7266
2002-07-08,27.2141
2002-07-09,26.7977
2002-07-10,25.6966
2002-07-11,25.7287
2002-07-12,25.3283
2002-07-15,25.004
2002-07-16,24.7678
2002-07-17,25.9409
2002-07-18,25.7847
2002-07-19,24.6797
2002-07-22,23.983
2002-07-23,24.5275
2002-07-24,25.9889
2002-07-25,26.2252
2002-07-26,26.3413
2002-07-29,28.0869
2002-07-30,28.4233
2002-07-31,27.7666
2002-08-01,27.2181
2002-08-02,26.3052
2002-08-05,25.3203
2002-08-06,26.1451
2002-08-07,26.9579
2002-08-08,27.5784
2002-08-09,27.5985
2002-08-12,27.4063
2002-08-13,25.072
2002-08-14,24.4755
2002-08-15,24.7277
2002-08-16,24.4955
2002-08-19,25.3203
2002-08-20,25.032
2002-08-21,24.6039
2002-08-22,25.0219
2002-08-23,24.2823
2002-08-26,24.0853
2002-08-27,24.2662
2002-08-28,23.8442
2002-08-29,23.6593
2002-08-30,23.8884
2002-09-03,22.775
2002-09-04,23.2935
2002-09-05,22.8915
2002-09-06,23.595
2002-09-09,23.7557
2002-09-10,24.5918
2002-09-11,24.9978
2002-09-12,24.5757
2002-09-13,23.3136
2002-09-16,24.017
2002-09-17,23.3136
2002-09-18,23.197
2002-09-19,23.0161
2002-09-20,23.3859
2002-09-23,23.0724
2002-09-24,22.4494
2002-09-25,23.1689
2002-09-26,24.0894
2002-09-27,22.779
2002-09-30,22.7107
2002-10-01,23.7437
2002-10-02,22.6303
2002-10-03,22.2283
2002-10-04,21.1028
2002-10-07,20.6607
2002-10-08,20.5441
2002-10-09,19.8005
2002-10-10,20.9461
2002-10-11,22.0635
2002-10-14,21.5369
2002-10-15,22.1881
2002-10-16,21.9831
2002-10-17,24.1255
2002-10-18,24.4109
2002-10-21,25.5646
2002-10-22,24.636
2002-10-23,24.8451
2002-10-24,24.3265
2002-10-25,24.8732
2002-10-28,24.1376
2002-10-29,24.62
2002-10-30,25.1747
2002-10-31,24.7928
2002-11-01,25.0943
2002-11-04,25.1023
2002-11-05,25.6007
2002-11-06,26.473
2002-11-07,25.6771
2002-11-08,25.3354
2002-11-11,24.5195
2002-11-12,25.0139
2002-11-13,25.0643
2002-11-14,25.2459
2002-11-15,25.4639
2002-11-18,24.9433
2002-11-19,25.0603
2002-11-20,25.5849
2002-11-21,26.3274
2002-11-22,25.6858
2002-11-25,26.1418
2002-11-26,25.4316
2002-11-27,25.7786
2002-11-29,25.2096
2002-12-02,25.5082
2002-12-03,24.8182
2002-12-04,25.3831
2002-12-05,24.7415
2002-12-06,24.9715
2002-12-09,24.4187
2002-12-10,24.5034
2002-12-11,24.7576
2002-12-12,25.0442
2002-12-13,24.3137
2002-12-16,25.141
2002-12-17,24.8464
2002-12-18,24.8585
2002-12-19,24.8182
2002-12-20,25.0401
2002-12-23,24.8464
2002-12-24,24.8182
2002-12-26,24.794
2002-12-27,24.6325
2002-12-30,24.7819
2002-12-31,24.9554
2003-01-02,25.5607
2003-01-03,25.9764
2003-01-06,26.1701
2003-01-07,25.6858
2003-01-08,25.4719
2003-01-09,26.1983
2003-01-10,25.932
2003-01-13,25.9279
2003-01-14,25.8956
2003-01-15,25.8553
2003-01-16,26.7229
2003-01-17,26.5252
2003-01-21,26.2306
2003-01-22,25.597
2003-01-23,26.2427
2003-01-24,25.7827
2003-01-27,25.4074
2003-01-28,25.7786
2003-01-29,25.8392
2003-01-30,25.5002
2003-01-31,25.6333
2003-02-03,26.1337
2003-02-04,26.0571
2003-02-05,25.9199
2003-02-06,25.7665
2003-02-07,25.6697
2003-02-10,25.8069
2003-02-11,25.2702
2003-02-12,24.5186
2003-02-13,24.1337
2003-02-14,25.0615
2003-02-18,25.0939
2003-02-19,25.2195
2003-02-20,24.6118
2003-02-21,24.8954
2003-02-24,24.1824
2003-02-25,24.1378
2003-02-26,23.441
2003-02-27,23.7327
2003-02-28,23.7286
2003-03-03,23.3964
2003-03-04,23.0844
2003-03-05,23.0439
2003-03-06,22.8211
2003-03-07,23.1088
2003-03-10,22.6672
2003-03-11,21.9987
2003-03-12,21.9541
2003-03-13,23.2465
2003-03-14,23.8501
2003-03-17,24.6969
2003-03-18,24.9521
2003-03-19,25.0574
2003-03-20,24.8346
2003-03-21,25.8677
2003-03-24,24.94
2003-03-25,24.9562
2003-03-26,24.8387
2003-03-27,24.3647
2003-03-28,23.8056
2003-03-31,23.4369
2003-04-01,23.9028
2003-04-02,24.4619
2003-04-03,23.838
2003-04-04,24.3079
2003-04-07,24.7617
2003-04-08,24.6766
2003-04-09,24.8427
2003-04-10,24.7779
2003-04-11,24.7901
2003-04-14,25.3208
2003-04-15,25.811
2003-04-16,25.2154
2003-04-17,24.3242
2003-04-21,24.6847
2003-04-22,24.9237
2003-04-23,24.8103
2003-04-24,24.6888
2003-04-25,24.4619
2003-04-28,24.8103
2003-04-29,25.0696
2003-04-30,25.0169
2003-05-01,24.9643
2003-05-02,25.6651
2003-05-05,25.179
2003-05-06,25.5031
2003-05-07,25.6327
2003-05-08,25.5639
2003-05-09,26.2202
2003-05-12,27.0466
2003-05-13,27.2452
2003-05-14,27.42
2003-05-15,27.5787
2003-05-16,27.416
2003-05-19,27.0295
2003-05-20,26.7082
2003-05-21,26.7122
2003-05-22,27.0255
2003-05-23,26.8668
2003-05-27,27.6397
2003-05-28,27.7658
2003-05-29,27.0377
2003-05-30,27.7536
2003-06-02,28.2539
2003-06-03,28.2417
2003-06-04,28.3434
2003-06-05,28.6932
2003-06-06,28.9006
2003-06-09,28.1685
2003-06-10,28.7379
2003-06-11,29.6084
2003-06-12,29.5718
2003-06-13,29.3277
2003-06-16,29.8931
2003-06-17,29.7671
2003-06-18,29.7101
2003-06-19,29.2464
2003-06-20,29.5149
2003-06-23,28.799
2003-06-24,28.9495
2003-06-25,28.7501
2003-06-26,28.5956
2003-06-27,28.7217
2003-06-30,28.8112
2003-07-01,28.9942
2003-07-02,29.2342
2003-07-03,29.0593
2003-07-07,29.4823
2003-07-08,30.0721
2003-07-09,29.523
2003-07-10,29.1935
2003-07-11,29.8525
2003-07-14,29.5311
2003-07-15,29.2139
2003-07-16,29.3603
2003-07-17,29.9582
2003-07-18,30.2633
2003-07-21,29.9989
2003-07-22,30.8409
2003-07-23,31.0362
2003-07-24,30.4179
2003-07-25,30.7433
2003-07-28,31.1704
2003-07-29,31.2151
2003-07-30,30.9751
2003-07-31,30.605
2003-08-01,30.6172
2003-08-04,30.8246
2003-08-05,30.3121
2003-08-06,29.8647
2003-08-07,29.7101
2003-08-08,29.7671
2003-08-11,29.7223
2003-08-12,30.3243
2003-08-13,30.3487
2003-08-14,30.9101
2003-08-15,31.0931
2003-08-18,31.3006
2003-08-19,32.0368
2003-08-20,31.6899
2003-08-21,32.4123
2003-08-22,32.0164
2003-08-25,31.796
2003-08-26,32.0001
2003-08-27,32.1225
2003-08-28,32.6327
2003-08-29,32.7266
2003-09-02,32.6532
2003-09-03,32.5307
2003-09-04,32.4532
2003-09-05,31.8205
2003-09-08,32.494
2003-09-09,32.1266
2003-09-10,31.7552
2003-09-11,31.9307
2003-09-12,32.0042
2003-09-15,32.0001
2003-09-16,32.5715
2003-09-17,32.3593
2003-09-18,32.4368
2003-09-19,32.3266
2003-09-22,32.045
2003-09-23,32.3429
2003-09-24,31.9225
2003-09-25,31.9389
2003-09-26,31.8491
2003-09-29,32.3552
2003-09-30,31.5634
2003-10-01,32.5838
2003-10-02,32.8817
2003-10-03,33.3634
2003-10-06,33.2327
2003-10-07,33.3879
2003-10-08,33.4858
2003-10-09,33.694
2003-10-10,33.5634
2003-10-13,33.9756
2003-10-14,34.3593
2003-10-15,34.1266
2003-10-16,34.4164
2003-10-17,34.196
2003-10-20,34.3634
2003-10-21,34.2736
2003-10-22,33.8327
2003-10-23,33.8327
2003-10-24,33.943
2003-10-27,34.2123
2003-10-28,34.294
2003-10-29,34.5919
2003-10-30,34.9838
2003-10-31,34.6042
2003-11-03,35.0083
2003-11-04,35.143
2003-11-05,35.3062
2003-11-06,35.6532
2003-11-07,35.3593
2003-11-10,34.8695
2003-11-11,34.7879
2003-11-12,35.3247
2003-11-13,35.4108
2003-11-14,35.1772
2003-11-17,34.8288
2003-11-18,34.1198
2003-11-19,34.0583
2003-11-20,34.1648
2003-11-21,34.3862
2003-11-24,34.8247
2003-11-25,34.9968
2003-11-26,35.3821
2003-11-28,35.1239
2003-12-01,35.8124
2003-12-02,35.9108
2003-12-03,35.8165
2003-12-04,36.0706
2003-12-05,35.9436
2003-12-08,36.3042
2003-12-09,36.2428
2003-12-10,36.21
2003-12-11,36.5665
2003-12-12,37.5502
2003-12-15,37.5543
2003-12-16,38.3494
2003-12-17,38.1567
2003-12-18,38.4272
2003-12-19,38.5174
2003-12-22,38.9191
2003-12-23,38.9273
2003-12-24,38.5502
2003-12-26,38.7961
2003-12-29,39.1404
2003-12-30,38.7469
2003-12-31,38.8617
2004-01-02,38.665
2004-01-05,38.9314
2004-01-06,38.792
2004-01-07,38.9232
2004-01-08,38.8863
2004-01-09,38.3617
2004-01-12,38.124
2004-01-13,38.3371
2004-01-14,39.2633
2004-01-15,39.1117
2004-01-16,39.9191
2004-01-20,38.9355
2004-01-21,39.2715
2004-01-22,38.9764
2004-01-23,38.6281
2004-01-26,38.9887
2004-01-27,39.3043
2004-01-28,38.9805
2004-01-29,39.0502
2004-01-30,39.165
2004-02-02,39.4314
2004-02-03,39.4068
2004-02-04,38.6199
2004-02-05,38.6772
2004-02-06,38.6322
2004-02-09,38.8494
2004-02-10,39.1404
2004-02-11,39.2223
2004-02-12,38.9805
2004-02-13,38.8371
2004-02-17,39.1199
2004-02-18,40.0494
2004-02-19,39.9548
2004-02-20,39.7697
2004-02-23,38.5891
2004-02-24,37.7788
2004-02-25,37.9598
2004-02-26,36.9848
2004-02-27,37.8898
2004-03-01,37.9227
2004-03-02,37.1823
2004-03-03,37.2111
2004-03-04,37.1124
2004-03-05,37.0013
2004-03-08,37.2275
2004-03-09,36.5488
2004-03-10,35.833
2004-03-11,35.2037
2004-03-12,35.9277
2004-03-15,36.1498
2004-03-16,36.2362
2004-03-17,36.5858
2004-03-18,36.1292
2004-03-19,35.1461
2004-03-22,34.6977
2004-03-23,34.7388
2004-03-24,34.6031
2004-03-25,35.253
2004-03-26,35.5369
2004-03-29,35.3435
2004-03-30,35.253
2004-03-31,35.4793
2004-04-01,35.6397
2004-04-02,36.0716
2004-04-05,36.6681
2004-04-06,36.882
2004-04-07,37.0795
2004-04-08,36.9437
2004-04-12,36.7175
2004-04-13,36.2691
2004-04-14,36.302
2004-04-15,36.2403
2004-04-16,36.4542
2004-04-19,36.2979
2004-04-20,35.9565
2004-04-21,34.9939
2004-04-22,36.1045
2004-04-23,36.5694
2004-04-26,36.7997
2004-04-27,36.9972
2004-04-28,36.6434
2004-04-29,35.8248
2004-04-30,35.5204
2004-05-03,35.7261
2004-05-04,35.541
2004-05-05,35.4423
2004-05-06,35.2654
2004-05-07,35.0103
2004-05-10,34.274
2004-05-11,34.2
2004-05-12,34.7594
2004-05-13,34.2946
2004-05-14,34.2082
2004-05-17,33.8668
2004-05-18,33.8256
2004-05-19,33.8834
2004-05-20,33.6893
2004-05-21,33.6686
2004-05-24,34.1933
2004-05-25,34.7303
2004-05-26,34.247
2004-05-27,34.7427
2004-05-28,35.0071
2004-06-01,34.9906
2004-06-02,35.3004
2004-06-03,35.1889
2004-06-04,35.4202
2004-06-07,35.9696
2004-06-08,36.3291
2004-06-09,36.2712
2004-06-10,36.4778
2004-06-14,36.3456
2004-06-15,36.8785
2004-06-16,36.6637
2004-06-17,36.7215
2004-06-18,37.1016
2004-06-21,36.643
2004-06-22,36.3043
2004-06-23,36.9735
2004-06-24,37.1842
2004-06-25,36.9157
2004-06-28,36.8041
2004-06-29,37.4321
2004-06-30,37.8245
2004-07-01,37.494
2004-07-02,37.0107
2004-07-06,36.5687
2004-07-07,36.5811
2004-07-08,36.5067
2004-07-09,37.1181
2004-07-12,37.2131
2004-07-13,37.3288
2004-07-14,37.1098
2004-07-15,37.589
2004-07-16,37.5312
2004-07-19,37.1511
2004-07-20,37.4114
2004-07-21,38.2748
2004-07-22,38.2376
2004-07-23,38.0807
2004-07-26,38.4153
2004-07-27,39.0804
2004-07-28,39.1713
2004-07-29,38.9027
2004-07-30,38.5681
2004-08-02,38.7829
2004-08-03,38.659
2004-08-04,38.6425
2004-08-05,37.7915
2004-08-06,37.1677
2004-08-09,36.9983
2004-08-10,37.7502
2004-08-11,37.9815
2004-08-12,37.5395
2004-08-13,37.5353
2004-08-16,38.2996
2004-08-17,38.06
2004-08-18,38.5078
2004-08-19,38.4331
2004-08-20,38.9515
2004-08-23,38.5493
2004-08-24,38.8229
2004-08-25,38.9598
2004-08-26,38.8147
2004-08-27,38.7732
2004-08-30,38.7151
2004-08-31,38.8561
2004-09-01,38.9391
2004-09-02,39.7394
2004-09-03,39.1215
2004-09-07,39.3952
2004-09-08,39.2915
2004-09-09,38.993
2004-09-10,39.1215
2004-09-13,39.221
2004-09-14,39.2003
2004-09-15,39.0676
2004-09-16,39.3247
2004-09-17,39.673
2004-09-20,39.4491
2004-09-21,39.4864
2004-09-22,38.8437
2004-09-23,38.4083
2004-09-24,38.2092
2004-09-27,37.8609
2004-09-28,38.317
2004-09-29,38.4663
2004-09-30,38.7234
2004-10-01,39.3579
2004-10-04,39.2376
2004-10-05,38.9059
2004-10-06,38.8603
2004-10-07,38.3087
2004-10-08,38.3543
2004-10-11,38.288
2004-10-12,38.3004
2004-10-13,37.5291
2004-10-14,37.6618
2004-10-15,37.9936
2004-10-18,37.3342
2004-10-19,37.3342
2004-10-20,37.2637
2004-10-21,37.6784
2004-10-22,37.7116
2004-10-25,38.0889
2004-10-26,38.3087
2004-10-27,38.5451
2004-10-28,38.2051
2004-10-29,38.4539
2004-11-01,39.2832
2004-11-02,38.8769
2004-11-03,39.4325
2004-11-04,39.7104
2004-11-05,40.2495
2004-11-08,40.2785
2004-11-09,40.3531
2004-11-10,40.519
2004-11-11,40.4775
2004-11-12,40.4941
2004-11-15,40.6227
2004-11-16,40.3822
2004-11-17,40.5111
2004-11-18,40.661
2004-11-19,40.4778
2004-11-22,40.4903
2004-11-23,40.4529
2004-11-24,40.507
2004-11-26,40.4237
2004-11-29,40.4487
2004-11-30,40.6069
2004-12-01,41.639
2004-12-02,41.2311
2004-12-03,40.9398
2004-12-06,40.7858
2004-12-07,40.2448
2004-12-08,40.8399
2004-12-09,41.3851
2004-12-10,42.076
2004-12-13,42.8043
2004-12-14,42.8542
2004-12-15,42.6503
2004-12-16,42.4464
2004-12-17,43.3037
2004-12-20,43.1997
2004-12-21,43.1872
2004-12-22,43.7324
2004-12-23,43.9363
2004-12-27,43.4868
2004-12-28,43.5742
2004-12-29,43.2288
2004-12-30,43.2871
2004-12-31,43.054
2005-01-03,42.8709
2005-01-04,42.384
2005-01-05,42.0427
2005-01-06,42.0593
2005-01-07,41.6223
2005-01-10,41.5474
2005-01-11,41.6515
2005-01-12,42.4214
2005-01-13,41.8512
2005-01-14,42.0344
2005-01-18,42.5629
2005-01-19,42.0427
2005-01-20,41.4933
2005-01-21,41.639
2005-01-24,41.2395
2005-01-25,41.4517
2005-01-26,41.9303
2005-01-27,42.5255
2005-01-28,42.4422
2005-01-31,41.9012
2005-02-01,41.6432
2005-02-02,41.4392
2005-02-03,41.8304
2005-02-04,42.3049
2005-02-07,41.6889
2005-02-08,42.0718
2005-02-09,41.7888
2005-02-10,42.6878
2005-02-11,42.2508
2005-02-14,42.1717
2005-02-15,42.7668
2005-02-16,43.0468
2005-02-17,42.3656
2005-02-18,42.1733
2005-02-22,41.3373
2005-02-23,41.7804
2005-02-24,41.8473
2005-02-25,42.236
2005-02-28,41.7637
2005-03-01,41.8598
2005-03-02,41.6383
2005-03-03,41.7052
2005-03-04,42.1315
2005-03-07,42.4492
2005-03-08,42.6916
2005-03-09,42.0312
2005-03-10,42.5118
2005-03-11,42.4324
2005-03-14,43.0343
2005-03-15,42.7668
2005-03-16,42.4324
2005-03-17,42.817
2005-03-18,43.3102
2005-03-21,43.4021
2005-03-22,42.9758
2005-03-23,42.608
2005-03-24,42.6581
2005-03-28,42.5411
2005-03-29,42.3739
2005-03-30,42.934
2005-03-31,42.445
2005-04-01,42.1733
2005-04-04,41.7344
2005-04-05,41.7219
2005-04-06,41.9434
2005-04-07,42.5035
2005-04-08,42.1733
2005-04-11,42.236
2005-04-12,42.6832
2005-04-13,42.2443
2005-04-14,41.6801
2005-04-15,40.8191
2005-04-18,41.0448
2005-04-19,41.1284
2005-04-20,41.4544
2005-04-21,42.7835
2005-04-22,42.4241
2005-04-25,42.7041
2005-04-26,42.3948
2005-04-27,42.5035
2005-04-28,41.6968
2005-04-29,42.4868
2005-05-02,42.4283
2005-05-03,42.2067
2005-05-04,42.6916
2005-05-05,42.8128
2005-05-06,42.6414
2005-05-09,43.0301
2005-05-10,42.5954
2005-05-11,43.423
2005-05-12,42.6372
2005-05-13,42.1775
2005-05-16,42.98
2005-05-17,43.6989
2005-05-18,44.3661
2005-05-19,44.0681
2005-05-20,44.1101
2005-05-23,45.13
2005-05-24,44.916
2005-05-25,44.8824
2005-05-26,45.1552
2005-05-27,45.2937
2005-05-31,44.7858
2005-06-01,45.1216
2005-06-02,44.9369
2005-06-03,44.6179
2005-06-06,44.916
2005-06-07,44.9286
2005-06-08,44.5592
2005-06-09,44.4962
2005-06-10,44.1017
2005-06-13,44.3157
2005-06-14,44.4752
2005-06-15,43.9883
2005-06-16,44.0975
2005-06-17,44.5844
2005-06-20,44.7103
2005-06-21,44.4752
2005-06-22,44.5088
2005-06-23,43.9632
2005-06-24,43.7449
2005-06-27,43.2748
2005-06-28,44.4836
2005-06-29,44.1143
2005-06-30,42.9306
2005-07-01,43.1489
2005-07-05,43.3923
2005-07-06,42.4857
2005-07-07,42.5696
2005-07-08,43.3084
2005-07-11,43.4595
2005-07-12,42.9306
2005-07-13,43.1573
2005-07-14,43.3419
2005-07-15,43.3839
2005-07-18,43.1573
2005-07-19,43.5014
2005-07-20,43.5434
2005-07-21,43.4511
2005-07-22,42.9558
2005-07-25,42.4017
2005-07-26,42.3094
2005-07-27,42.6872
2005-07-28,43.1153
2005-07-29,42.5193
2005-08-01,42.0324
2005-08-02,42.1751
2005-08-03,41.9988
2005-08-04,41.5958
2005-08-05,41.4363
2005-08-08,41.4028
2005-08-09,41.747
2005-08-10,41.9988
2005-08-11,43.3336
2005-08-12,43.5266
2005-08-15,43.4595
2005-08-16,43.2244
2005-08-17,43.4944
2005-08-18,43.4016
2005-08-19,43.6461
2005-08-22,43.7136
2005-08-23,43.4606
2005-08-24,42.7946
2005-08-25,42.6428
2005-08-26,42.4321
2005-08-29,42.4911
2005-08-30,42.0443
2005-08-31,42.1876
2005-09-01,42.2044
2005-09-02,42.7019
2005-09-06,43.056
2005-09-07,43.2246
2005-09-08,42.8873
2005-09-09,43.3173
2005-09-12,43.3173
2005-09-13,43.4353
2005-09-14,42.9211
2005-09-15,42.7356
2005-09-16,43.2499
2005-09-19,42.9211
2005-09-20,43.0138
2005-09-21,42.6513
2005-09-22,42.9464
2005-09-23,43.604
2005-09-26,43.6883
2005-09-27,43.8232
2005-09-28,43.7641
2005-09-29,43.4606
2005-09-30,43.663
2005-10-03,43.604
2005-10-04,42.5585
2005-10-05,42.1286
2005-10-06,42.0274
2005-10-07,42.255
2005-10-10,42.1707
2005-10-11,42.0358
2005-10-12,42.2887
2005-10-13,42.5332
2005-10-14,43.5112
2005-10-17,43.115
2005-10-18,42.2044
2005-10-19,43.7136
2005-10-20,43.7473
2005-10-21,42.9548
2005-10-24,43.4185
2005-10-25,43.233
2005-10-26,42.9716
2005-10-27,42.4827
2005-10-28,43.3257
2005-10-31,43.2161
2005-11-01,42.8789
2005-11-02,42.8536
2005-11-03,43.4269
2005-11-04,43.5028
2005-11-07,43.5534
2005-11-08,43.4438
2005-11-09,44.2868
2005-11-10,44.5566
2005-11-11,45.0203
2005-11-14,45.2564
2005-11-15,45.0372
2005-11-16,45.2912
2005-11-17,45.5028
2005-11-18,45.325
2005-11-21,45.5621
2005-11-22,45.9938
2005-11-23,46.087
2005-11-25,45.9769
2005-11-28,45.7991
2005-11-29,45.8753
2005-11-30,45.5959
2005-12-01,45.8922
2005-12-02,46.561
2005-12-05,46.1801
2005-12-06,46.5187
2005-12-07,46.434
2005-12-08,46.7981
2005-12-09,46.9251
2005-12-12,47.0182
2005-12-13,47.5938
2005-12-14,48.3134
2005-12-15,48.7621
2005-12-16,49.1092
2005-12-19,48.3981
2005-12-20,48.5674
2005-12-21,48.5928
2005-12-22,48.9991
2005-12-23,48.5081
2005-12-27,48.0341
2005-12-28,48.1102
2005-12-29,47.7293
2005-12-30,47.3314
2006-01-03,47.8224
2006-01-04,47.543
2006-01-05,47.3483
2006-01-06,47.5684
2006-01-09,48.1018
2006-01-10,48.0848
2006-01-11,47.4161
2006-01-12,46.9758
2006-01-13,47.1113
2006-01-17,47.4499
2006-01-18,47.1367
2006-01-19,47.3737
2006-01-20,46.5695
2006-01-23,46.1377
2006-01-24,47.8393
2006-01-25,48.2034
2006-01-26,48.6266
2006-01-27,49.7526
2006-01-30,49.4394
2006-01-31,49.4224
2006-02-01,49.0923
2006-02-02,48.8975
2006-02-03,48.4319
2006-02-06,48.3727
2006-02-07,48.1949
2006-02-08,48.0087
2006-02-09,48.0594
2006-02-10,48.4404
2006-02-13,48.5928
2006-02-14,49.1431
2006-02-15,49.3978
2006-02-16,49.3978
2006-02-17,49.2618
2006-02-21,49.9926
2006-02-22,50.0266
2006-02-23,49.7802
2006-02-24,50.0946
2006-02-27,49.9501
2006-02-28,49.7462
2006-03-01,49.9076
2006-03-02,49.5082
2006-03-03,49.2363
2006-03-06,49.0238
2006-03-07,49.0578
2006-03-08,49.1258
2006-03-09,48.7774
2006-03-10,49.1513
2006-03-13,49.2533
2006-03-14,49.5337
2006-03-15,49.1853
2006-03-16,49.4742
2006-03-17,50.0011
2006-03-20,49.8736
2006-03-21,49.6527
2006-03-22,50.2645
2006-03-23,49.9076
2006-03-24,50.4005
2006-03-27,50.3155
2006-03-28,49.5762
2006-03-29,49.5762
2006-03-30,49.3043
2006-03-31,49.2278
2006-04-03,49.4232
2006-04-04,49.3978
2006-04-05,49.4997
2006-04-06,49.4402
2006-04-07,48.9729
2006-04-10,48.9899
2006-04-11,48.7604
2006-04-12,48.8369
2006-04-13,48.514
2006-04-17,48.9049
2006-04-18,49.9586
2006-04-19,53.3917
2006-04-20,54.5219
2006-04-21,54.5389
2006-04-24,54.8448
2006-04-25,54.5219
2006-04-26,54.5219
2006-04-27,54.3435
2006-04-28,53.2728
2006-05-01,53.4597
2006-05-02,53.9866
2006-05-03,53.8336
2006-05-04,54.1735
2006-05-05,55.1848
2006-05-08,55.1508
2006-05-09,55.2612
2006-05-10,56.162
2006-05-11,55.9751
2006-05-12,55.1763
2006-05-15,55.0148
2006-05-16,55.3377
2006-05-17,54.3861
2006-05-18,53.5243
2006-05-19,53.4731
2006-05-22,53.695
2006-05-23,53.4219
2006-05-24,52.9526
2006-05-25,53.2427
2006-05-26,53.4561
2006-05-30,53.311
2006-05-31,53.3622
2006-06-01,53.968
2006-06-02,53.7547
2006-06-05,52.4833
2006-06-06,51.2376
2006-06-07,51.2205
2006-06-08,51.4253
2006-06-09,51.2291
2006-06-12,50.9646
2006-06-13,50.7086
2006-06-14,50.7854
2006-06-15,51.8519
2006-06-16,52.6625
2006-06-19,51.9629
2006-06-20,51.9629
2006-06-21,52.398
2006-06-22,52.8502
2006-06-23,53.2001
2006-06-26,53.0977
2006-06-27,52.4578
2006-06-28,52.3212
2006-06-29,54.0533
2006-06-30,54.0789
2006-07-03,54.5994
2006-07-05,54.4629
2006-07-06,54.4629
2006-07-07,53.8656
2006-07-10,53.6694
2006-07-11,54.48
2006-07-12,53.9851
2006-07-13,52.4578
2006-07-14,50.2649
2006-07-17,49.514
2006-07-18,50.282
2006-07-19,52.0311
2006-07-20,51.4339
2006-07-21,51.2035
2006-07-24,52.4066
2006-07-25,52.9441
2006-07-26,52.6796
2006-07-27,52.5601
2006-07-28,52.9612
2006-07-31,53.0721
2006-08-01,52.5943
2006-08-02,53.1148
2006-08-03,53.5584
2006-08-04,53.3878
2006-08-07,53.7974
2006-08-08,52.7991
2006-08-09,51.4509
2006-08-10,51.5277
2006-08-11,51.3229
2006-08-14,51.5874
2006-08-15,52.0141
2006-08-16,53.2778
2006-08-17,53.1321
2006-08-18,52.9436
2006-08-21,52.678
2006-08-22,52.1466
2006-08-23,52.0695
2006-08-24,52.2495
2006-08-25,51.9838
2006-08-28,52.7037
2006-08-29,53.2864
2006-08-30,53.355
2006-08-31,53.7834
2006-09-01,54.1691
2006-09-05,54.6318
2006-09-06,54.2291
2006-09-07,53.792
2006-09-08,54.2719
2006-09-11,53.9291
2006-09-12,54.1691
2006-09-13,54.7775
2006-09-14,54.0148
2006-09-15,55.3431
2006-09-18,54.9318
2006-09-19,55.0003
2006-09-20,54.7604
2006-09-21,53.8948
2006-09-22,53.4321
2006-09-25,54.2119
2006-09-26,54.469
2006-09-27,54.1605
2006-09-28,54.5376
2006-09-29,54.2633
2006-10-02,54.8118
2006-10-03,55.5574
2006-10-04,55.8744
2006-10-05,56.4143
2006-10-06,56.0287
2006-10-09,55.8659
2006-10-10,55.9687
2006-10-11,56.1401
2006-10-12,56.8771
2006-10-13,56.9371
2006-10-16,57.237
2006-10-17,55.9687
2006-10-18,56.1572
2006-10-19,55.7031
2006-10-20,55.7116
2006-10-23,55.6688
2006-10-24,55.7973
2006-10-25,55.8659
2006-10-26,55.8573
2006-10-27,55.5917
2006-10-30,56.1315
2006-10-31,56.2944
2006-11-01,55.0432
2006-11-02,55.1032
2006-11-03,54.8461
2006-11-06,55.8316
2006-11-07,56.1401
2006-11-08,56.2001
2006-11-09,55.6431
2006-11-10,55.763
2006-11-13,56.0201
2006-11-14,56.2601
2006-11-15,56.4194
2006-11-16,57.4691
2006-11-17,56.841
2006-11-20,56.6431
2006-11-21,56.6517
2006-11-22,56.6173
2006-11-24,57.0045
2006-11-27,55.8343
2006-11-28,55.4815
2006-11-29,55.7052
2006-11-30,55.559
2006-12-01,54.9222
2006-12-04,55.8515
2006-12-05,55.6536
2006-12-06,55.8515
2006-12-07,55.6966
2006-12-08,55.6708
2006-12-11,55.9376
2006-12-12,55.7655
2006-12-13,55.2492
2006-12-14,53.382
2006-12-15,53.7348
2006-12-18,53.5885
2006-12-19,53.7864
2006-12-20,54.3285
2006-12-21,54.036
2006-12-22,53.8811
2006-12-26,54.4576
2006-12-27,54.2081
2006-12-28,54.0876
2006-12-29,53.7606
2007-01-03,54.036
2007-01-04,54.079
2007-01-05,53.8983
2007-01-08,54.3715
2007-01-09,53.7692
2007-01-10,53.9413
2007-01-11,54.819
2007-01-12,55.3697
2007-01-16,55.4987
2007-01-17,55.7655
2007-01-18,55.7827
2007-01-19,56.0494
2007-01-22,55.1718
2007-01-23,56.7464
2007-01-24,57.5552
2007-01-25,57.0131
2007-01-26,56.8324
2007-01-29,56.5915
2007-01-30,57.538
2007-01-31,58.5275
2007-02-01,59.0352
2007-02-02,58.5361
2007-02-05,58.2952
2007-02-06,58.8373
2007-02-07,58.8631
2007-02-08,58.5017
2007-02-09,58.1747
2007-02-12,57.7359
2007-02-13,57.7703
2007-02-14,58.9147
2007-02-15,59.5798
2007-02-16,59.2948
2007-02-20,58.8369
2007-02-21,58.405
2007-02-22,58.2841
2007-02-23,58.3186
2007-02-26,58.0767
2007-02-27,56.5132
2007-02-28,56.7205
2007-03-01,56.2367
2007-03-02,55.6234
2007-03-05,54.915
2007-03-06,55.4161
2007-03-07,55.4506
2007-03-08,55.7184
2007-03-09,55.6839
2007-03-12,56.3922
2007-03-13,55.5716
2007-03-14,55.9258
2007-03-15,55.6407
2007-03-16,55.7962
2007-03-19,56.159
2007-03-20,56.349
2007-03-21,57.187
2007-03-22,57.0401
2007-03-23,57.6448
2007-03-26,57.3338
2007-03-27,57.1524
2007-03-28,56.4268
2007-03-29,56.1417
2007-03-30,56.1158
2007-04-02,55.9085
2007-04-03,56.4009
2007-04-04,56.0812
2007-04-05,56.0553
2007-04-09,56.1849
2007-04-10,55.7012
2007-04-11,55.3124
2007-04-12,55.9517
2007-04-13,56.1849
2007-04-16,56.876
2007-04-17,57.1697
2007-04-18,57.7571
2007-04-19,57.9817
2007-04-20,58.2841
2007-04-23,58.6037
2007-04-24,58.5519
2007-04-25,58.7851
2007-04-26,58.4136
2007-04-27,58.5
2007-04-30,57.9731
2007-05-01,58.4741
2007-05-02,59.1047
2007-05-03,58.6814
2007-05-04,58.716
2007-05-07,59.6403
2007-05-08,59.0443
2007-05-09,59.4157
2007-05-10,58.7505
2007-05-11,59.0356
2007-05-14,58.9406
2007-05-15,59.1825
2007-05-16,59.421
2007-05-17,60.1755
2007-05-18,59.95
2007-05-21,59.7592
2007-05-22,60.0107
2007-05-23,59.7245
2007-05-24,59.2129
2007-05-25,59.473
2007-05-29,59.872
2007-05-30,60.1755
2007-05-31,61.2161
2007-06-01,61.3549
2007-06-04,61.3982
2007-06-05,61.3549
2007-06-06,60.6698
2007-06-07,59.7679
2007-06-08,60.93
2007-06-11,60.8432
2007-06-12,60.479
2007-06-13,61.2768
2007-06-14,61.8145
2007-06-15,62.4389
2007-06-18,62.6557
2007-06-19,62.2221
2007-06-20,62.3782
2007-06-21,62.4302
2007-06-22,62.1094
2007-06-25,61.8058
2007-06-26,61.2075
2007-06-27,62.014
2007-06-28,61.6758
2007-06-29,61.4676
2007-07-02,62.7424
2007-07-03,62.8465
2007-07-05,62.5256
2007-07-06,62.9245
2007-07-09,62.8205
2007-07-10,62.5256
2007-07-11,63.2627
2007-07-12,64.1646
2007-07-13,65.0579
2007-07-16,66.5061
2007-07-17,66.5148
2007-07-18,65.5782
2007-07-19,66.9831
2007-07-20,65.9511
2007-07-23,66.0378
2007-07-24,64.841
2007-07-25,65.1706
2007-07-26,64.6763
2007-07-27,63.6096
2007-07-30,63.9392
2007-07-31,63.3408
2007-08-01,64.7457
2007-08-02,64.9191
2007-08-03,64.0606
2007-08-06,64.8497
2007-08-07,64.3121
2007-08-08,64.156
2007-08-09,62.9852
2007-08-10,63.4709
2007-08-13,64.1126
2007-08-14,63.124
2007-08-15,62.3314
2007-08-16,61.8959
2007-08-17,64.3783
2007-08-20,65.1274
2007-08-21,63.4463
2007-08-22,64.387
2007-08-23,63.8296
2007-08-24,64.8487
2007-08-27,64.1344
2007-08-28,62.645
2007-08-29,64.7616
2007-08-30,64.3174
2007-08-31,65.0142
2007-09-04,64.8661
2007-09-05,63.9864
2007-09-06,65.3713
2007-09-07,64.2651
2007-09-10,64.8226
2007-09-11,64.9706
2007-09-12,65.171
2007-09-13,65.3103
2007-09-14,66.312
2007-09-17,65.9985
2007-09-18,68.0454
2007-09-19,68.6638
2007-09-20,68.6116
2007-09-21,69.1255
2007-09-24,68.5419
2007-09-25,69.6742
2007-09-26,69.8136
2007-09-27,70.3014
2007-09-28,70.0139
2007-10-01,71.5208
2007-10-02,70.223
2007-10-03,69.3781
2007-10-04,69.7701
2007-10-05,70.4408
2007-10-08,69.9094
2007-10-09,70.6759
2007-10-10,70.0401
2007-10-11,69.0035
2007-10-12,69.9443
2007-10-15,69.561
2007-10-16,69.4478
2007-10-17,66.7998
2007-10-18,67.4879
2007-10-19,66.1378
2007-10-22,65.9549
2007-10-23,66.2162
2007-10-24,66.7127
2007-10-25,65.9636
2007-10-26,65.7459
2007-10-29,65.9549
2007-10-30,66.0246
2007-10-31,66.7388
2007-11-01,65.0752
2007-11-02,65.8678
2007-11-05,66.373
2007-11-06,66.7214
2007-11-07,64.84
2007-11-08,65.1274
2007-11-09,64.0996
2007-11-12,64.3348
2007-11-13,65.6413
2007-11-14,65.4927
2007-11-15,64.6267
2007-11-16,64.9679
2007-11-19,64.3556
2007-11-20,64.9941
2007-11-21,63.6208
2007-11-23,64.2593
2007-11-26,63.612
2007-11-27,64.7492
2007-11-28,66.4112
2007-11-29,65.9739
2007-11-30,65.3528
2007-12-03,65.5802
2007-12-04,65.4315
2007-12-05,67.216
2007-12-06,68.1957
2007-12-07,68.222
2007-12-10,68.8955
2007-12-11,66.9361
2007-12-12,67.1635
2007-12-13,67.9246
2007-12-14,67.1023
2007-12-17,65.5715
2007-12-18,66.385
2007-12-19,66.28
2007-12-20,66.8923
2007-12-21,68.1345
2007-12-24,68.4844
2007-12-26,68.0295
2007-12-27,67.1985
2007-12-28,67.2073
2007-12-31,66.8748
2008-01-02,65.7114
2008-01-03,66.7261
2008-01-04,65.554
2008-01-07,65.3703
2008-01-08,62.6148
2008-01-09,62.9822
2008-01-10,63.2621
2008-01-11,62.7635
2008-01-14,63.1222
2008-01-15,62.4399
2008-01-16,62.055
2008-01-17,59.4919
2008-01-18,59.5619
2008-01-22,58.9321
2008-01-23,61.6613
2008-01-24,63.5071
2008-01-25,63.577
2008-01-28,64.4343
2008-01-29,64.0232
2008-01-30,63.6645
2008-01-31,64.1106
2008-02-01,64.8104
2008-02-04,64.7317
2008-02-05,63.3496
2008-02-06,62.7548
2008-02-07,62.4661
2008-02-08,62.3699
2008-02-11,62.5361
2008-02-12,63.6383
2008-02-13,64.5517
2008-02-14,63.7873
2008-02-15,62.8384
2008-02-19,63.2514
2008-02-20,63.2338
2008-02-21,62.2849
2008-02-22,63.3832
2008-02-25,64.5517
2008-02-26,64.4287
2008-02-27,64.0246
2008-02-28,63.4007
2008-02-29,61.9598
2008-03-03,60.9143
2008-03-04,60.5453
2008-03-05,61.2921
2008-03-06,60.4662
2008-03-07,59.3767
2008-03-10,58.2521
2008-03-11,59.9654
2008-03-12,59.8951
2008-03-13,60.1147
2008-03-14,59.5261
2008-03-17,59.4206
2008-03-18,61.2394
2008-03-19,60.4662
2008-03-20,60.6419
2008-03-24,61.7929
2008-03-25,61.5469
2008-03-26,61.1251
2008-03-27,60.9846
2008-03-28,60.2202
2008-03-31,60.475
2008-04-01,62.5661
2008-04-02,62.5573
2008-04-03,62.2498
2008-04-04,62.9175
2008-04-07,63.102
2008-04-08,63.0317
2008-04-09,62.2146
2008-04-10,63.0317
2008-04-11,61.1163
2008-04-14,61.4151
2008-04-15,62.0828
2008-04-16,63.761
2008-04-17,62.1883
2008-04-18,63.6468
2008-04-21,63.3832
2008-04-22,62.7418
2008-04-23,63.1547
2008-04-24,63.9191
2008-04-25,63.8664
2008-04-28,64.1124
2008-04-29,64.2091
2008-04-30,63.6731
2008-05-01,65.4918
2008-05-02,65.9839
2008-05-05,65.5094
2008-05-06,65.6412
2008-05-07,64.2178
2008-05-08,64.9735
2008-05-09,64.2266
2008-05-12,65.4216
2008-05-13,65.8609
2008-05-14,66.311
2008-05-15,65.4727
2008-05-16,65.2698
2008-05-19,65.5522
2008-05-20,64.7315
2008-05-21,63.5403
2008-05-22,63.3815
2008-05-23,61.7932
2008-05-27,62.4109
2008-05-28,61.9962
2008-05-29,61.952
2008-05-30,62.6227
2008-06-02,62.4109
2008-06-03,61.5903
2008-06-04,61.1049
2008-06-05,61.7932
2008-06-06,59.1461
2008-06-09,59.6049
2008-06-10,59.1637
2008-06-11,58.8549
2008-06-12,59.9667
2008-06-13,60.4873
2008-06-16,60.8314
2008-06-17,60.4785
2008-06-18,60.0549
2008-06-19,60.7255
2008-06-20,60.6726
2008-06-23,60.6902
2008-06-24,60.1432
2008-06-25,58.2019
2008-06-26,55.4224
2008-06-27,53.8782
2008-06-30,54.3988
2008-07-01,53.5341
2008-07-02,52.7753
2008-07-03,53.8694
2008-07-07,53.4723
2008-07-08,54.4694
2008-07-09,54.0018
2008-07-10,54.8753
2008-07-11,53.5253
2008-07-14,53.8694
2008-07-15,52.8723
2008-07-16,53.9312
2008-07-17,57.0901
2008-07-18,56.5607
2008-07-21,56.5166
2008-07-22,57.6195
2008-07-23,57.999
2008-07-24,56.6048
2008-07-25,57.5754
2008-07-28,56.5077
2008-07-29,57.796
2008-07-30,58.4049
2008-07-31,56.4548
2008-08-01,56.093
2008-08-04,56.3489
2008-08-05,57.7607
2008-08-06,58.6784
2008-08-07,57.1342
2008-08-08,59.0049
2008-08-11,59.2696
2008-08-12,58.7402
2008-08-13,58.6517
2008-08-14,58.6074
2008-08-15,59.1926
2008-08-18,58.3237
2008-08-19,57.5434
2008-08-20,57.4282
2008-08-21,56.8696
2008-08-22,58.3946
2008-08-25,57.5878
2008-08-26,57.5523
2008-08-27,57.641
2008-08-28,59.1039
2008-08-29,58.1109
2008-09-02,58.7581
2008-09-03,59.8044
2008-09-04,57.5168
2008-09-05,56.8696
2008-09-08,58.2882
2008-09-09,57.0026
2008-09-10,56.1514
2008-09-11,56.639
2008-09-12,57.1622
2008-09-15,56.1248
2008-09-16,55.8854
2008-09-17,53.9082
2008-09-18,55.2736
2008-09-19,56.9228
2008-09-22,54.6618
2008-09-23,53.2432
2008-09-24,52.6757
2008-09-25,52.392
2008-09-26,53.9525
2008-09-29,50.7783
2008-09-30,52.9861
2008-10-01,52.3831
2008-10-02,48.6947
2008-10-03,48.7124
2008-10-06,46.9303
2008-10-07,44.4476
2008-10-08,44.0575
2008-10-09,41.9207
2008-10-10,42.3286
2008-10-13,47.6839
2008-10-14,46.3894
2008-10-15,44.0309
2008-10-16,47.1431
2008-10-17,44.9353
2008-10-20,46.2919
2008-10-21,45.2988
2008-10-22,42.9226
2008-10-23,43.1797
2008-10-24,42.098
2008-10-27,40.1208
2008-10-28,45.2634
2008-10-29,46.6643
2008-10-30,47.6484
2008-10-31,48.5351
2008-11-03,48.1893
2008-11-04,50.8315
2008-11-05,47.4888
2008-11-06,44.8555
2008-11-07,45.9283
2008-11-10,46.3007
2008-11-11,45.8929
2008-11-12,43.8604
2008-11-13,46.8439
2008-11-14,44.7537
2008-11-17,42.9314
2008-11-18,43.771
2008-11-19,41.0197
2008-11-20,38.5542
2008-11-21,41.8683
2008-11-24,43.7621
2008-11-25,42.0738
2008-11-26,42.6544
2008-11-28,43.1011
2008-12-01,40.5999
2008-12-02,41.0376
2008-12-03,42.3686
2008-12-04,42.0381
2008-12-05,43.914
2008-12-08,43.4763
2008-12-09,42.8599
2008-12-10,42.976
2008-12-11,42.0381
2008-12-12,43.5299
2008-12-15,44.307
2008-12-16,46.0936
2008-12-17,45.1646
2008-12-18,45.2986
2008-12-19,45.8881
2008-12-22,46.3348
2008-12-23,45.2807
2008-12-24,45.2092
2008-12-26,45.6559
2008-12-29,45.7184
2008-12-30,47.4514
2008-12-31,48.0499
2009-01-02,49.1129
2009-01-05,48.5144
2009-01-06,49.0682
2009-01-07,47.7908
2009-01-08,47.773
2009-01-09,47.0941
2009-01-12,46.835
2009-01-13,45.4058
2009-01-14,44.6822
2009-01-15,44.4499
2009-01-16,45.5933
2009-01-20,44.048
2009-01-21,43.9854
2009-01-22,43.7442
2009-01-23,42.44
2009-01-26,43.4763
2009-01-27,44.0033
2009-01-28,45.2271
2009-01-29,43.5388
2009-01-30,42.842
2009-02-02,42.5204
2009-02-03,43.2261
2009-02-04,42.4758
2009-02-05,42.976
2009-02-06,43.7889
2009-02-09,44.3695
2009-02-10,42.0738
2009-02-11,42.5026
2009-02-12,41.9755
2009-02-13,42.1721
2009-02-17,40.8053
2009-02-18,40.4495
2009-02-19,40.3324
2009-02-20,39.6567
2009-02-23,38.1252
2009-02-24,38.6928
2009-02-25,37.3865
2009-02-26,36.9901
2009-02-27,36.873
2009-03-02,35.3325
2009-03-03,34.6658
2009-03-04,35.3235
2009-03-05,34.0983
2009-03-06,34.7109
2009-03-09,33.819
2009-03-10,36.6117
2009-03-11,36.9631
2009-03-12,37.6567
2009-03-13,36.5577
2009-03-16,36.9901
2009-03-17,37.5306
2009-03-18,37.7018
2009-03-19,36.945
2009-03-20,36.4856
2009-03-23,39.2063
2009-03-24,38.8369
2009-03-25,39.4045
2009-03-26,40.9179
2009-03-27,40.017
2009-03-30,38.4135
2009-03-31,38.7018
2009-04-01,39.5306
2009-04-02,41.2242
2009-04-03,41.1702
2009-04-06,41.6837
2009-04-07,40.6747
2009-04-08,40.1792
2009-04-09,42.5305
2009-04-13,41.7828
2009-04-14,41.1161
2009-04-15,42.1341
2009-04-16,42.8278
2009-04-17,42.5936
2009-04-20,41.2332
2009-04-21,43.1791
2009-04-22,42.1972
2009-04-23,43.2242
2009-04-24,44.4584
2009-04-27,43.5935
2009-04-28,43.2062
2009-04-29,43.9989
2009-04-30,43.9719
2009-05-01,44.5575
2009-05-04,46.08
2009-05-05,46.6745
2009-05-06,47.0709
2009-05-07,46.6205
2009-05-08,48.134
2009-05-11,47.2601
2009-05-12,47.5304
2009-05-13,45.9463
2009-05-14,46.6995
2009-05-15,46.5361
2009-05-18,48.1152
2009-05-19,47.4709
2009-05-20,46.8719
2009-05-21,46.0915
2009-05-22,46.3365
2009-05-26,47.8157
2009-05-27,46.7267
2009-05-28,47.5162
2009-05-29,47.7159
2009-06-01,50.0844
2009-06-02,50.3658
2009-06-03,49.5581
2009-06-04,49.9574
2009-06-05,51.119
2009-06-08,51.2188
2009-06-09,50.4384
2009-06-10,50.3748
2009-06-11,50.3476
2009-06-12,50.6017
2009-06-15,49.7759
2009-06-16,49.4946
2009-06-17,49.5944
2009-06-18,49.8666
2009-06-19,49.1679
2009-06-22,47.725
2009-06-23,47.0534
2009-06-24,46.1096
2009-06-25,47.2803
2009-06-26,46.8538
2009-06-29,47.6161
2009-06-30,47.1442
2009-07-01,47.3892
2009-07-02,45.7285
2009-07-06,46.2276
2009-07-07,44.9117
2009-07-08,45.1386
2009-07-09,45.0116
2009-07-10,45.0569
2009-07-13,46.5543
2009-07-14,46.7993
2009-07-15,48.7958
2009-07-16,48.9138
2009-07-17,48.9047
2009-07-20,49.7759
2009-07-21,48.9591
2009-07-22,48.2604
2009-07-23,48.4056
2009-07-24,47.3892
2009-07-27,47.2349
2009-07-28,47.5888
2009-07-29,48.2332
2009-07-30,49.1316
2009-07-31,49.431
2009-08-03,50.0572
2009-08-04,49.6398
2009-08-05,49.186
2009-08-06,50.0028
2009-08-07,50.4111
2009-08-10,50.7015
2009-08-11,50.638
2009-08-12,52.8341
2009-08-13,52.1081
2009-08-14,51.8722
2009-08-17,50.9556
2009-08-18,51.5001
2009-08-19,51.1845
2009-08-20,52.2992
2009-08-21,53.551
2009-08-24,54.1906
2009-08-25,54.5469
2009-08-26,54.5469
2009-08-27,54.8119
2009-08-28,54.5377
2009-08-31,54.1814
2009-09-01,53.9804
2009-09-02,53.7703
2009-09-03,54.5926
2009-09-04,55.3052
2009-09-08,55.1408
2009-09-09,55.8717
2009-09-10,56.6118
2009-09-11,56.6392
2009-09-14,56.2646
2009-09-15,56.0179
2009-09-16,56.5661
2009-09-17,57.1509
2009-09-18,57.4798
2009-09-21,57.2514
2009-09-22,57.7631
2009-09-23,57.3336
2009-09-24,57.0138
2009-09-25,56.2281
2009-09-28,56.3286
2009-09-29,56.0636
2009-09-30,55.6433
2009-10-01,54.7844
2009-10-02,54.5195
2009-10-05,55.1682
2009-10-06,56.1184
2009-10-07,55.7986
2009-10-08,56.4017
2009-10-09,56.7489
2009-10-12,56.1367
2009-10-13,56.6666
2009-10-14,58.293
2009-10-15,58.8686
2009-10-16,59.2889
2009-10-19,59.8462
2009-10-20,59.7914
2009-10-21,59.8371
2009-10-22,60.1478
2009-10-23,60.1752
2009-10-26,59.1975
2009-10-27,58.5214
2009-10-28,57.2788
2009-10-29,58.1377
2009-10-30,56.2098
2009-11-02,57.2514
2009-11-03,57.69
2009-11-04,58.0097
2009-11-05,59.7732
2009-11-06,59.4625
2009-11-09,60.9153
2009-11-10,60.8878
2009-11-11,61.1894
2009-11-12,60.9335
2009-11-13,62.1853
2009-11-16,63.4005
2009-11-17,63.9121
2009-11-18,63.2003
2009-11-19,62.5112
2009-11-20,62.4469
2009-11-23,63.0992
2009-11-24,62.7225
2009-11-25,62.7776
2009-11-27,61.7394
2009-11-30,61.813
2009-12-01,62.4561
2009-12-02,62.5939
2009-12-03,61.767
2009-12-04,62.8052
2009-12-07,63.2462
2009-12-08,62.7409
2009-12-09,61.8956
2009-12-10,62.4193
2009-12-11,63.7423
2009-12-14,64.2476
2009-12-15,64.4957
2009-12-16,64.5508
2009-12-17,63.9536
2009-12-18,63.7147
2009-12-21,63.7607
2009-12-22,63.7147
2009-12-23,63.9169
2009-12-24,64.6427
2009-12-28,64.6794
2009-12-29,64.6519
2009-12-30,64.7621
2009-12-31,63.7882
2010-01-04,65.7911
2010-01-05,64.8172
2010-01-06,64.5141
2010-01-07,64.7989
2010-01-08,64.8816
2010-01-11,66.3332
2010-01-12,65.8554
2010-01-13,66.6823
2010-01-14,66.912
2010-01-15,66.1586
2010-01-19,66.4158
2010-01-20,65.589
2010-01-21,64.4497
2010-01-22,63.4116
2010-01-25,63.0441
2010-01-26,62.9338
2010-01-27,62.1161
2010-01-28,61.9783
2010-01-29,62.0334
2010-02-01,62.1253
2010-02-02,62.5479
2010-02-03,62.7133
2010-02-04,61.0228
2010-02-05,61.0412
2010-02-08,60.0857
2010-02-09,61.1331
2010-02-10,61.2525
2010-02-11,61.2801
2010-02-12,60.3154
2010-02-16,60.9953
2010-02-17,62.2485
2010-02-18,63.0067
2010-02-19,63.3396
2010-02-22,63.2287
2010-02-23,62.6184
2010-02-24,63.4321
2010-02-25,63.4413
2010-02-26,63.5153
2010-03-01,64.3845
2010-03-02,64.4677
2010-03-03,64.3198
2010-03-04,65.1057
2010-03-05,65.8825
2010-03-08,65.4664
2010-03-09,66.3725
2010-03-10,66.3725
2010-03-11,66.5575
2010-03-12,66.1136
2010-03-15,66.4188
2010-03-16,66.9921
2010-03-17,66.7516
2010-03-18,67.0383
2010-03-19,67.6578
2010-03-22,67.1585
2010-03-23,67.5099
2010-03-24,67.5654
2010-03-25,67.7318
2010-03-26,68.0739
2010-03-29,68.4068
2010-03-30,68.4993
2010-03-31,68.0647
2010-04-01,68.5178
2010-04-05,69.2205
2010-04-06,69.0633
2010-04-07,68.3698
2010-04-08,68.1109
2010-04-09,68.4068
2010-04-12,68.2496
2010-04-13,67.9075
2010-04-14,68.416
2010-04-15,68.9339
2010-04-16,68.1941
2010-04-19,68.2404
2010-04-20,68.6102
2010-04-21,71.1253
2010-04-22,70.589
2010-04-23,70.7277
2010-04-26,70.6815
2010-04-27,68.7582
2010-04-28,69.0356
2010-04-29,70.2931
2010-04-30,69.2945
2010-05-03,70.4596
2010-05-04,68.5732
2010-05-05,68.0924
2010-05-06,65.8917
2010-05-07,64.292
2010-05-10,67.4821
2010-05-11,67.6393
2010-05-12,68.0812
2010-05-13,67.9417
2010-05-14,66.5373
2010-05-17,66.0072
2010-05-18,65.7561
2010-05-19,64.4447
2010-05-20,61.794
2010-05-21,61.794
2010-05-24,61.5056
2010-05-25,61.5521
2010-05-26,61.487
2010-05-27,63.2821
2010-05-28,62.6217
2010-06-01,61.4405
2010-06-02,62.7891
2010-06-03,63.1147
2010-06-04,60.5477
2010-06-07,58.7526
2010-06-08,59.6362
2010-06-09,59.0782
2010-06-10,60.9383
2010-06-11,61.5521
2010-06-14,62.2032
2010-06-15,63.7843
2010-06-16,63.7657
2010-06-17,63.7843
2010-06-18,64.3517
2010-06-21,64.5005
2010-06-22,63.1984
2010-06-23,63.1147
2010-06-24,62.538
2010-06-25,63.0775
2010-06-28,62.3706
2010-06-29,60.3431
2010-06-30,60.3338
2010-07-01,59.8408
2010-07-02,59.8036
2010-07-06,60.0733
2010-07-07,61.8498
2010-07-08,62.5287
2010-07-09,62.8077
2010-07-12,61.9707
2010-07-13,63.0775
2010-07-14,63.2263
2010-07-15,63.4402
2010-07-16,61.3847
2010-07-19,61.7661
2010-07-20,62.8356
2010-07-21,62.259
2010-07-22,64.6493
2010-07-23,65.9979
2010-07-26,66.5745
2010-07-27,66.0537
2010-07-28,66.1374
2010-07-29,66.1653
2010-07-30,66.1839
2010-08-02,67.5046
2010-08-03,66.9559
2010-08-04,67.6534
2010-08-05,68.0533
2010-08-06,67.6162
2010-08-09,68.2301
2010-08-10,68.2022
2010-08-11,66.2955
2010-08-12,65.6538
2010-08-13,65.7561
2010-08-16,65.4305
2010-08-17,65.5143
2010-08-18,65.4343
2010-08-19,64.0776
2010-08-20,63.7875
2010-08-23,62.9079
2010-08-24,61.4295
2010-08-25,61.0271
2010-08-26,60.8961
2010-08-27,62.3652
2010-08-30,61.2424
2010-08-31,60.9336
2010-09-01,62.9454
2010-09-02,63.067
2010-09-03,63.8343
2010-09-07,63.6378
2010-09-08,64.0495
2010-09-09,64.2273
2010-09-10,64.4331
2010-09-13,64.3676
2010-09-14,64.377
2010-09-15,63.8904
2010-09-16,64.0963
2010-09-17,65.0694
2010-09-20,65.8367
2010-09-21,66.0519
2010-09-22,66.0613
2010-09-23,65.3127
2010-09-24,66.8098
2010-09-27,66.3701
2010-09-28,67.0718
2010-09-29,66.8192
2010-09-30,66.7163
2010-10-01,66.5572
2010-10-04,65.9677
2010-10-05,67.8672
2010-10-06,68.1386
2010-10-07,68.045
2010-10-08,68.2134
2010-10-11,68.2321
2010-10-12,68.3444
2010-10-13,69.3831
2010-10-14,69.2988
2010-10-15,69.3363
2010-10-18,69.8228
2010-10-19,68.7748
2010-10-20,69.224
2010-10-21,70.1223
2010-10-22,70.0848
2010-10-25,70.1971
2010-10-26,69.8509
2010-10-27,69.7105
2010-10-28,69.9258
2010-10-29,69.9538
2010-11-01,69.8228
2010-11-02,70.3562
2010-11-03,70.141
2010-11-04,71.32
2010-11-05,71.8253
2010-11-08,71.6568
2010-11-09,71.741
2010-11-10,71.2451
2010-11-11,70.5246
2010-11-12,70.0661
2010-11-15,70.5059
2010-11-16,69.4205
2010-11-17,69.2936
2010-11-18,70.63
2010-11-19,70.8182
2010-11-22,70.7429
2010-11-23,69.8018
2010-11-24,71.6181
2010-11-26,70.837
2010-11-29,70.4417
2010-11-30,70.9217
2010-12-01,73.6415
2010-12-02,74.0462
2010-12-03,74.0932
2010-12-06,73.8015
2010-12-07,73.8768
2010-12-08,73.1333
2010-12-09,72.9357
2010-12-10,73.7356
2010-12-13,73.5662
2010-12-14,74.1968
2010-12-15,74.3473
2010-12-16,74.3003
2010-12-17,74.2626
2010-12-20,74.225
2010-12-21,74.6861
2010-12-22,74.8744
2010-12-23,74.7426
2010-12-27,74.6203
2010-12-28,74.6673
2010-12-29,74.4979
2010-12-30,74.2156
2010-12-31,74.0368
2011-01-03,74.3473
2011-01-04,74.4226
2011-01-05,74.5638
2011-01-06,74.5261
2011-01-07,74.3944
2011-01-10,73.8391
2011-01-11,74.2626
2011-01-12,74.752
2011-01-13,74.8085
2011-01-14,74.4038
2011-01-18,74.9026
2011-01-19,75.1473
2011-01-20,74.8367
2011-01-21,75.392
2011-01-24,76.6907
2011-01-25,76.8883
2011-01-26,76.6813
2011-01-27,77.7259
2011-01-28,76.6248
2011-01-31,76.4742
2011-02-01,76.9918
2011-02-02,77.3024
2011-02-03,77.3683
2011-02-04,77.5847
2011-02-07,78.6858
2011-02-08,78.9493
2011-02-09,79.034
2011-02-10,79.674
2011-02-11,80.1634
2011-02-14,80.1634
2011-02-15,79.9187
2011-02-16,80.4436
2011-02-17,79.9706
2011-02-18,80.349
2011-02-22,79.0437
2011-02-23,78.3438
2011-02-24,78.2208
2011-02-25,78.8829
2011-02-28,78.9775
2011-03-01,77.7196
2011-03-02,77.6061
2011-03-03,79.2896
2011-03-04,78.4478
2011-03-07,77.8236
2011-03-08,78.76
2011-03-09,78.4289
2011-03-10,76.6318
2011-03-11,76.8683
2011-03-14,76.3575
2011-03-15,75.2793
2011-03-16,74.0592
2011-03-17,75.232
2011-03-18,75.8373
2011-03-21,77.0291
2011-03-22,76.5089
2011-03-23,77.4642
2011-03-24,78.2681
2011-03-25,78.987
2011-03-28,78.9586
2011-03-29,79.5166
2011-03-30,79.6491
2011-03-31,80.0179
2011-04-01,80.6516
2011-04-04,80.5949
2011-04-05,80.7368
2011-04-06,81.0678
2011-04-07,80.6989
2011-04-08,80.1882
2011-04-11,80.3679
2011-04-12,79.4883
2011-04-13,79.6207
2011-04-14,79.4599
2011-04-15,78.9302
2011-04-18,77.379
2011-04-19,77.956
2011-04-20,81.1151
2011-04-21,82.3825
2011-04-25,81.8339
2011-04-26,83.0919
2011-04-27,83.073
2011-04-28,84.1702
2011-04-29,84.6809
2011-05-02,85.1538
2011-05-03,85.0025
2011-05-04,84.5958
2011-05-05,83.754
2011-05-06,84.3593
2011-05-09,84.7093
2011-05-10,84.8985
2011-05-11,84.7282
2011-05-12,84.7282
2011-05-13,84.1229
2011-05-16,84.104
2011-05-17,83.0919
2011-05-18,82.9494
2011-05-19,83.8244
2011-05-20,83.3013
2011-05-23,81.9508
2011-05-24,81.4753
2011-05-25,82.0269
2011-05-26,82.0935
2011-05-27,82.103
2011-05-31,83.3679
2011-06-01,80.2009
2011-06-02,80.1534
2011-06-03,79.1928
2011-06-06,79.6398
2011-06-07,79.2023
2011-06-08,78.9456
2011-06-09,79.9822
2011-06-10,78.6317
2011-06-13,78.7078
2011-06-14,79.8871
2011-06-15,79.2214
2011-06-16,80.1914
2011-06-17,80.4482
2011-06-20,81.3327
2011-06-21,81.3232
2011-06-22,81.2851
2011-06-23,80.9618
2011-06-24,80.239
2011-06-27,81.152
2011-06-28,82.3122
2011-06-29,82.2076
2011-06-30,84.2333
2011-07-01,85.7265
2011-07-05,85.1654
2011-07-06,85.9357
2011-07-07,86.9248
2011-07-08,85.8977
2011-07-11,84.7469
2011-07-12,84.2238
2011-07-13,83.891
2011-07-14,83.5581
2011-07-15,83.91
2011-07-18,83.2633
2011-07-19,84.3855
2011-07-20,82.9399
2011-07-21,83.8149
2011-07-22,83.5391
2011-07-25,83.0921
2011-07-26,81.9604
2011-07-27,79.7064
2011-07-28,78.879
2011-07-29,78.879
2011-08-01,78.3179
2011-08-02,75.1224
2011-08-03,75.4648
2011-08-04,70.8427
2011-08-05,70.586
2011-08-08,66.4109
2011-08-09,68.0467
2011-08-10,63.9762
2011-08-11,66.3919
2011-08-12,68.8646
2011-08-15,69.9773
2011-08-16,68.9787
2011-08-17,68.9116
2011-08-18,65.2065
2011-08-19,64.4981
2011-08-22,64.7566
2011-08-23,66.7862
2011-08-24,68.3754
2011-08-25,67.5042
2011-08-26,68.5095
2011-08-29,70.7306
2011-08-30,70.721
2011-08-31,70.9316
2011-09-01,69.8881
2011-09-02,68.0212
2011-09-06,67.6191
2011-09-07,69.8115
2011-09-08,69.5434
2011-09-09,67.6095
2011-09-12,68.0691
2011-09-13,69.3807
2011-09-14,70.587
2011-09-15,72.2911
2011-09-16,72.2815
2011-09-19,72.3198
2011-09-20,72.8559
2011-09-21,71.7741
2011-09-22,65.4554
2011-09-23,65.8863
2011-09-26,68.4807
2011-09-27,70.0125
2011-09-28,68.8637
2011-09-29,69.2562
2011-09-30,67.3893
2011-10-03,66.5086
2011-10-04,66.5373
2011-10-05,66.6713
2011-10-06,67.9638
2011-10-07,68.3659
2011-10-10,70.5582
2011-10-11,70.5295
2011-10-12,71.1039
2011-10-13,70.4433
2011-10-14,71.4103
2011-10-17,68.9116
2011-10-18,70.9316
2011-10-19,70.0987
2011-10-20,71.0848
2011-10-21,72.3772
2011-10-24,73.3538
2011-10-25,71.9464
2011-10-26,72.8655
2011-10-27,75.8238
2011-10-28,76.1493
2011-10-31,74.7419
2011-11-01,72.023
2011-11-02,73.6314
2011-11-03,75.1057
2011-11-04,74.3686
2011-11-07,74.9526
2011-11-08,75.5461
2011-11-09,73.191
2011-11-10,74.1292
2011-11-11,76.4269
2011-11-14,75.6706
2011-11-15,76.0152
2011-11-16,74.5709
2011-11-17,72.6059
2011-11-18,73.2994
2011-11-21,71.4597
2011-11-22,70.3328
2011-11-23,68.5123
2011-11-25,68.705
2011-11-28,70.3906
2011-11-29,70.3521
2011-11-30,73.7811
2011-12-01,73.7522
2011-12-02,73.704
2011-12-05,73.7618
2011-12-06,73.5306
2011-12-07,73.4439
2011-12-08,71.5079
2011-12-09,73.5884
2011-12-12,71.7872
2011-12-13,71.4405
2011-12-14,70.5351
2011-12-15,70.7951
2011-12-16,69.6971
2011-12-19,69.2251
2011-12-20,71.662
2011-12-21,71.007
2011-12-22,70.7662
2011-12-23,71.4501
2011-12-27,71.2671
2011-12-28,70.3521
2011-12-29,71.1034
2011-12-30,70.4484
2012-01-03,71.951
2012-01-04,72.3555
2012-01-05,71.6235
2012-01-06,71.1419
2012-01-09,71.4019
2012-01-10,73.3091
2012-01-11,73.9352
2012-01-12,74.4168
2012-01-13,73.1453
2012-01-17,74.2241
2012-01-18,74.725
2012-01-19,74.3686
2012-01-20,73.8677
2012-01-23,74.0604
2012-01-24,74.8887
2012-01-25,74.7828
2012-01-26,74.5516
2012-01-27,74.8117
2012-01-30,74.7442
2012-01-31,75.4666
2012-02-01,77.2582
2012-02-02,77.0848
2012-02-03,78.0769
2012-02-06,77.5857
2012-02-07,77.3642
2012-02-08,78.7415
2012-02-09,80.6679
2012-02-10,80.3404
2012-02-13,81.7082
2012-02-14,81.4288
2012-02-15,79.9462
2012-02-16,80.5855
2012-02-17,81.2346
2012-02-21,81.3217
2012-02-22,81.2249
2012-02-23,80.8955
2012-02-24,81.2927
2012-02-27,81.1474
2012-02-28,80.8858
2012-02-29,81.3024
2012-03-01,81.5349
2012-03-02,81.9126
2012-03-05,80.6727
2012-03-06,78.8806
2012-03-07,80.0043
2012-03-08,80.9052
2012-03-09,80.8665
2012-03-12,81.3895
2012-03-13,83.8694
2012-03-14,84.0825
2012-03-15,84.16
2012-03-16,82.707
2012-03-19,81.9611
2012-03-20,80.6146
2012-03-21,80.1593
2012-03-22,79.52
2012-03-23,79.2972
2012-03-26,80.8858
2012-03-27,80.5371
2012-03-28,78.9
2012-03-29,79.7428
2012-03-30,80.3143
2012-04-02,80.0624
2012-04-03,79.6847
2012-04-04,79.3844
2012-04-05,79.0356
2012-04-09,77.7473
2012-04-10,76.0908
2012-04-11,77.1467
2012-04-12,78.6288
2012-04-13,77.2532
2012-04-16,77.4373
2012-04-17,78.7353
2012-04-18,78.716
2012-04-19,77.8441
2012-04-20,78.5125
2012-04-23,77.4373
2012-04-24,77.3792
2012-04-25,77.2339
2012-04-26,78.6966
2012-04-27,79.4715
2012-04-30,79.0066
2012-05-01,78.8516
2012-05-02,78.9194
2012-05-03,78.3575
2012-05-04,77.0304
2012-05-07,76.4492
2012-05-08,76.4105
2012-05-09,74.6087
2012-05-10,74.8121
2012-05-11,74.7443
2012-05-14,73.5431
2012-05-15,73.8434
2012-05-16,72.8202
2012-05-17,71.5725
2012-05-18,70.4709
2012-05-21,71.8747
2012-05-22,72.0404
2012-05-23,72.1769
2012-05-24,71.5627
2012-05-25,71.1045
2012-05-29,73.1517
2012-05-30,71.9234
2012-05-31,72.2938
2012-06-01,70.2272
2012-06-04,69.7203
2012-06-05,69.0964
2012-06-06,71.6992
2012-06-07,73.5709
2012-06-08,73.4929
2012-06-11,72.6935
2012-06-12,72.3913
2012-06-13,71.553
2012-06-14,72.2256
2012-06-15,72.5765
2012-06-18,73.103
2012-06-19,74.5165
2012-06-20,73.9608
2012-06-21,72.9177
2012-06-22,73.3272
2012-06-25,71.9429
2012-06-26,71.8649
2012-06-27,72.2353
2012-06-28,70.7633
2012-06-29,73.5806
2012-07-02,73.1712
2012-07-03,73.7268
2012-07-05,73.5416
2012-07-06,72.2451
2012-07-09,72.4596
2012-07-10,72.2841
2012-07-11,70.7341
2012-07-12,69.9932
2012-07-13,71.6992
2012-07-16,71.4067
2012-07-17,71.7284
2012-07-18,72.986
2012-07-19,73.8926
2012-07-20,72.3426
2012-07-23,71.4847
2012-07-24,70.1687
2012-07-25,70.5781
2012-07-26,71.0655
2012-07-27,72.3523
2012-07-30,73.0737
2012-07-31,72.5863
2012-08-01,72.908
2012-08-02,72.5473
2012-08-03,74.8577
2012-08-06,74.7504
2012-08-07,76.1542
2012-08-08,75.3841
2012-08-09,75.0526
2012-08-10,75.9202
2012-08-13,75.54
2012-08-14,75.8032
2012-08-15,76.5246
2012-08-16,77.3393
2012-08-17,78.8902
2012-08-20,78.5466
2012-08-21,77.8006
2012-08-22,78.2816
2012-08-23,77.7319
2012-08-24,78.527
2012-08-27,79.0963
2012-08-28,79.1454
2012-08-29,78.7429
2012-08-30,77.6043
2012-08-31,78.5761
2012-09-04,76.927
2012-09-05,76.554
2012-09-06,77.938
2012-09-07,77.8497
2012-09-10,77.1626
2012-09-11,77.2019
2012-09-12,77.2902
2012-09-13,78.9982
2012-09-14,80.765
2012-09-17,80.608
2012-09-18,79.8521
2012-09-19,80.235
2012-09-20,79.3123
2012-09-21,78.8705
2012-09-24,78.5761
2012-09-25,77.2706
2012-09-26,77.0154
2012-09-27,76.819
2012-09-28,76.8092
2012-10-01,76.8681
2012-10-02,77.0154
2012-10-03,77.0939
2012-10-04,77.0742
2012-10-05,76.9466
2012-10-08,76.9368
2012-10-09,75.9356
2012-10-10,74.5417
2012-10-11,74.7282
2012-10-12,74.5417
2012-10-15,74.7871
2012-10-16,76.2104
2012-10-17,77.1135
2012-10-18,77.7515
2012-10-19,76.5638
2012-10-22,76.2693
2012-10-23,75.7491
2012-10-24,76.4558
2012-10-25,75.8669
2012-10-26,76.6718
2012-10-31,76.7896
2012-11-01,77.516
2012-11-02,76.6522
2012-11-05,76.446
2012-11-06,78.4877
2012-11-07,76.3381
2012-11-08,74.8362
2012-11-09,74.3749
2012-11-12,75.5724
2012-11-13,75.6215
2012-11-14,73.719
2012-11-15,74.0748
2012-11-16,74.4307
2012-11-19,75.6465
2012-11-20,75.7651
2012-11-21,76.4175
2012-11-23,77.8705
2012-11-26,77.7815
2012-11-27,77.9397
2012-11-28,78.9479
2012-11-29,78.8095
2012-11-30,79.3136
2012-12-03,78.9084
2012-12-04,79.2741
2012-12-05,79.1654
2012-12-06,79.9166
2012-12-07,80.0451
2012-12-10,80.0649
2012-12-11,80.2032
2012-12-12,79.8672
2012-12-13,79.3729
2012-12-14,78.9479
2012-12-17,79.0863
2012-12-18,81.4487
2012-12-19,82.1208
2012-12-20,82.0912
2012-12-21,81.5673
2012-12-24,81.4586
2012-12-26,81.2115
2012-12-27,81.1917
2012-12-28,79.8968
2012-12-31,80.9545
2013-01-02,82.936
2013-01-03,83.2227
2013-01-04,83.9147
2013-01-07,83.628
2013-01-08,82.5604
2013-01-09,83.5292
2013-01-10,83.9344
2013-01-11,84.1914
2013-01-14,84.7747
2013-01-15,84.9921
2013-01-16,84.567
2013-01-17,85.4468
2013-01-18,85.9114
2013-01-22,86.4551
2013-01-23,87.0186
2013-01-24,87.9082
2013-01-25,88.6991
2013-01-28,88.8127
2013-01-29,88.6941
2013-01-30,88.0615
2013-01-31,86.9445
2013-02-01,88.7827
2013-02-04,88.526
2013-02-05,88.1109
2013-02-06,88.3432
2013-02-07,88.8522
2013-02-08,89.0005
2013-02-11,88.5952
2013-02-12,88.9115
2013-02-13,89.0208
2013-02-14,89.17
2013-02-15,90.1743
2013-02-19,90.4925
2013-02-20,89.6572
2013-02-21,88.8318
2013-02-22,89.9157
2013-02-25,87.9568
2013-02-26,88.7274
2013-02-27,90.0053
2013-02-28,90.1544
2013-03-01,89.5379
2013-03-04,88.6926
2013-03-05,90.4129
2013-03-06,90.5323
2013-03-07,91.2284
2013-03-08,91.4969
2013-03-11,92.4018
2013-03-12,92.5907
2013-03-13,92.5808
2013-03-14,92.8791
2013-03-15,92.7697
2013-03-18,92.2725
2013-03-19,92.6106
2013-03-20,92.9388
2013-03-21,91.9444
2013-03-22,92.9587
2013-03-25,92.372
2013-03-26,92.1532
2013-03-27,92.0637
2013-03-28,92.9288
2013-04-01,92.4018
2013-04-02,92.4117
2013-04-03,92.6802
2013-04-04,92.6504
2013-04-05,92.1234
2013-04-08,93.1476
2013-04-09,93.9233
2013-04-10,94.6094
2013-04-11,95.2458
2013-04-12,95.0768
2013-04-15,93.1277
2013-04-16,93.9829
2013-04-17,92.4316
2013-04-18,91.0892
2013-04-19,92.7399
2013-04-22,93.1178
2013-04-23,92.3521
2013-04-24,91.3974
2013-04-25,91.5665
2013-04-26,90.6616
2013-04-29,91.0295
2013-04-30,90.6914
2013-05-01,90.5522
2013-05-02,91.2483
2013-05-03,92.5609
2013-05-06,92.9388
2013-05-07,93.3366
2013-05-08,93.7642
2013-05-09,94.1321
2013-05-10,94.6392
2013-05-13,94.4503
2013-05-14,95.3453
2013-05-15,95.77
2013-05-16,95.21
2013-05-17,97.32
2013-05-20,97.26
2013-05-21,97.66
2013-05-22,96.21
2013-05-23,95.41
2013-05-24,95.03
2013-05-28,96.03
2013-05-29,95.18
2013-05-30,96.09
2013-05-31,95.15
2013-06-03,95.17
2013-06-04,94.28
2013-06-05,92.97
2013-06-06,92.63
2013-06-07,94.57
2013-06-10,94.03
2013-06-11,93.74
2013-06-12,92.68
2013-06-13,94.31
2013-06-14,94.0
2013-06-17,94.99
2013-06-18,96.19
2013-06-19,94.33
2013-06-20,92.49
2013-06-21,92.15
2013-06-24,91.57
2013-06-25,91.77
2013-06-26,93.03
2013-06-27,93.51
2013-06-28,93.13
2013-07-01,94.77
2013-07-02,93.83
2013-07-03,94.73
2013-07-05,96.46
2013-07-08,96.94
2013-07-09,98.06
2013-07-10,97.72
2013-07-11,99.78
2013-07-12,99.79
2013-07-15,100.22
2013-07-16,99.98
2013-07-17,100.89
2013-07-18,101.38
2013-07-19,102.43
2013-07-22,102.15
2013-07-23,105.2
2013-07-24,105.02
2013-07-25,104.74
2013-07-26,104.98
2013-07-29,105.0
2013-07-30,105.72
2013-07-31,105.6
2013-08-01,107.29
2013-08-02,107.7
2013-08-05,106.65
2013-08-06,105.12
2013-08-07,106.07
2013-08-08,106.31
2013-08-09,105.57
