date,close_price
1998-01-02,24.6981
1998-01-05,24.8958
1998-01-06,24.6054
1998-01-07,24.1636
1998-01-08,23.8902
1998-01-09,23.1873
1998-01-12,23.1727
1998-01-13,23.4778
1998-01-14,23.7365
1998-01-15,23.9195
1998-01-16,24.149
1998-01-20,24.2393
1998-01-21,23.9806
1998-01-22,23.6462
1998-01-23,23.9049
1998-01-26,24.3003
1998-01-27,24.2393
1998-01-28,23.9049
1998-01-29,24.1636
1998-01-30,24.0416
1998-02-02,24.332
1998-02-03,24.332
1998-02-04,24.6664
1998-02-05,24.4541
1998-02-06,24.5615
1998-02-09,24.7738
1998-02-10,24.7738
1998-02-11,24.3784
1998-02-12,23.9195
1998-02-13,23.9513
1998-02-17,23.9659
1998-02-18,24.1636
1998-02-19,24.4223
1998-02-20,24.4884
1998-02-23,24.459
1998-02-24,24.1204
1998-02-25,24.459
1998-02-26,24.6283
1998-02-27,24.7338
1998-03-02,24.9644
1998-03-03,24.8417
1998-03-04,24.4737
1998-03-05,24.3657
1998-03-06,25.0576
1998-03-09,25.119
1998-03-10,25.6097
1998-03-11,25.379
1998-03-12,25.7765
1998-03-13,25.6244
1998-03-16,26.0218
1998-03-17,26.6966
1998-03-18,27.1431
1998-03-19,27.2486
1998-03-20,27.0965
1998-03-23,27.1725
1998-03-24,27.2805
1998-03-25,27.8472
1998-03-26,26.9738
1998-03-27,26.8192
1998-03-30,26.8364
1998-03-31,26.8806
1998-04-01,27.3884
1998-04-02,27.3271
1998-04-03,26.7898
1998-04-06,27.1431
1998-04-07,27.0499
1998-04-08,26.5297
1998-04-09,27.0818
1998-04-13,26.9125
1998-04-14,27.6632
1998-04-15,27.6166
1998-04-16,27.9846
1998-04-17,29.2114
1998-04-20,28.2913
1998-04-21,28.5833
1998-04-22,28.9513
1998-04-23,28.2913
1998-04-24,28.0926
1998-04-27,27.2658
1998-04-28,28.0313
1998-04-29,27.6632
1998-04-30,28.23
1998-05-01,28.7673
1998-05-04,28.4606
1998-05-05,28.3232
1998-05-06,28.2472
1998-05-07,27.7099
1998-05-08,27.8178
1998-05-11,27.5406
1998-05-12,27.9233
1998-05-13,28.2619
1998-05-14,28.1245
1998-05-15,27.862
1998-05-18,27.8006
1998-05-19,27.8939
1998-05-20,28.0165
1998-05-21,28.2766
1998-05-22,27.8502
1998-05-26,27.4189
1998-05-27,27.8971
1998-05-28,28.1731
1998-05-29,27.9735
1998-06-01,27.9883
1998-06-02,28.0351
1998-06-03,28.0967
1998-06-04,28.2199
1998-06-05,28.0671
1998-06-08,28.0967
1998-06-09,27.6186
1998-06-10,27.5422
1998-06-11,27.4805
1998-06-12,27.5274
1998-06-15,27.3573
1998-06-16,27.3425
1998-06-17,28.2199
1998-06-18,27.9735
1998-06-19,27.2045
1998-06-22,27.2193
1998-06-23,26.5563
1998-06-24,25.8785
1998-06-25,25.8638
1998-06-26,25.9402
1998-06-29,26.3715
1998-06-30,26.3246
1998-07-01,26.926
1998-07-02,26.8176
1998-07-06,27.2045
1998-07-07,27.1873
1998-07-08,26.958
1998-07-09,27.0813
1998-07-10,26.9876
1998-07-13,27.759
1998-07-14,27.8354
1998-07-15,28.4984
1998-07-16,29.7603
1998-07-17,29.0061
1998-07-20,29.2206
1998-07-21,29.6075
1998-07-22,29.5459
1998-07-23,28.9914
1998-07-24,28.8213
1998-07-27,28.6833
1998-07-28,28.4664
1998-07-29,28.252
1998-07-30,28.5748
1998-07-31,28.2051
1998-08-03,28.252
1998-08-04,27.5126
1998-08-05,28.0499
1998-08-06,29.1442
1998-08-07,30.0068
1998-08-10,29.9304
1998-08-11,29.2526
1998-08-12,29.2058
1998-08-13,28.5748
1998-08-14,28.666
1998-08-17,28.8361
1998-08-18,28.8065
1998-08-19,28.7129
1998-08-20,28.4812
1998-08-21,28.0499
1998-08-24,28.5896
1998-08-25,29.3992
1998-08-26,29.0278
1998-08-27,28.2232
1998-08-28,27.9459
1998-08-31,27.9138
1998-09-01,27.79
1998-09-02,27.8519
1998-09-03,27.2478
1998-09-04,27.0175
1998-09-08,27.4335
1998-09-09,27.1091
1998-09-10,25.4232
1998-09-11,25.9035
1998-09-14,25.9951
1998-09-15,26.0273
1998-09-16,26.5224
1998-09-17,25.9654
1998-09-18,25.8094
1998-09-21,25.438
1998-09-22,25.4529
1998-09-23,25.9183
1998-09-24,25.6237
1998-09-25,25.7326
1998-09-28,25.7178
1998-09-29,25.2845
1998-09-30,25.0518
1998-10-01,24.2943
1998-10-02,24.0467
1998-10-05,23.9229
1998-10-06,23.8288
1998-10-07,24.418
1998-10-08,24.0912
1998-10-09,24.0912
1998-10-12,24.215
1998-10-13,23.6431
1998-10-14,24.2621
1998-10-15,24.9577
1998-10-16,25.6559
1998-10-19,27.0473
1998-10-20,29.1665
1998-10-21,28.3792
1998-10-22,27.9138
1998-10-23,28.0524
1998-10-26,28.1762
1998-10-27,28.1935
1998-10-28,28.3619
1998-10-29,29.1219
1998-10-30,29.3076
1998-11-02,29.4611
1998-11-03,29.7235
1998-11-04,30.4365
1998-11-05,30.8227
1998-11-06,30.8549
1998-11-09,31.303
1998-11-10,31.1941
1998-11-11,30.8698
1998-11-12,30.793
1998-11-13,30.3746
1998-11-16,30.9787
1998-11-17,30.9317
1998-11-18,31.5506
1998-11-19,32.0754
1998-11-20,31.9368
1998-11-23,31.6311
1998-11-24,31.646
1998-11-25,31.8175
1998-11-27,32.0512
1998-11-30,31.1662
1998-12-01,31.9119
1998-12-02,31.8945
1998-12-03,31.646
1998-12-04,32.4091
1998-12-07,32.7347
1998-12-08,32.9062
1998-12-09,32.5483
1998-12-10,32.5334
1998-12-11,31.9418
1998-12-14,31.4769
1998-12-15,31.5689
1998-12-16,30.8232
1998-12-17,30.2962
1998-12-18,30.684
1998-12-21,31.6311
1998-12-22,31.3203
1998-12-23,31.3054
1998-12-24,31.2731
1998-12-28,31.0569
1998-12-29,31.1811
1998-12-30,31.1339
1998-12-31,32.6875
1999-01-04,33.217
1999-01-05,32.4538
1999-01-06,32.3296
1999-01-07,31.9567
1999-01-08,32.2053
1999-01-11,32.2997
1999-01-12,32.0984
1999-01-13,32.347
1999-01-14,32.7496
1999-01-15,32.6577
1999-01-19,32.9212
1999-01-20,33.1548
1999-01-21,33.0604
1999-01-22,32.7969
1999-01-25,33.0305
1999-01-26,33.729
1999-01-27,33.5724
1999-01-28,33.7589
1999-01-29,34.2734
1999-02-01,34.5518
1999-02-02,34.3355
1999-02-03,34.2411
1999-02-04,34.4275
1999-02-05,34.3654
1999-02-08,34.256
1999-02-09,33.4804
1999-02-10,33.4655
1999-02-11,33.6346
1999-02-12,33.9627
1999-02-16,34.0397
1999-02-17,33.6047
1999-02-18,33.4183
1999-02-19,33.1548
1999-02-22,33.4883
1999-02-23,33.6281
1999-02-24,33.4558
1999-02-25,33.8927
1999-02-26,33.5806
1999-03-01,33.6905
1999-03-02,34.2822
1999-03-03,34.4545
1999-03-04,34.4395
1999-03-05,35.1111
1999-03-08,35.5156
1999-03-09,35.1735
1999-03-10,34.8764
1999-03-11,34.3122
1999-03-12,34.4545
1999-03-15,34.0351
1999-03-16,33.9901
1999-03-17,34.0351
1999-03-18,33.2411
1999-03-19,32.8666
1999-03-22,32.6794
1999-03-23,31.6907
1999-03-24,32.8666
1999-03-25,32.0202
1999-03-26,31.2712
1999-03-29,31.788
1999-03-30,30.8967
1999-03-31,31.3686
1999-04-01,31.4585
1999-04-05,29.9605
1999-04-06,31.1289
1999-04-07,29.8706
1999-04-08,30.1477
1999-04-09,30.335
1999-04-12,31.039
1999-04-13,30.8518
1999-04-14,31.4585
1999-04-15,32.4921
1999-04-16,34.2673
1999-04-19,34.6418
1999-04-20,34.3646
1999-04-21,34.3646
1999-04-22,34.7841
1999-04-23,34.9264
1999-04-26,35.8102
1999-04-27,34.5968
1999-04-28,35.7653
1999-04-29,35.5331
1999-04-30,35.8102
1999-05-03,35.8102
1999-05-04,35.8102
1999-05-05,36.0949
1999-05-06,35.9076
1999-05-07,37.8251
1999-05-10,37.2633
1999-05-11,37.0311
1999-05-12,36.327
1999-05-13,36.6566
1999-05-14,35.578
1999-05-17,35.4357
1999-05-18,34.4545
1999-05-19,34.829
1999-05-20,35.2035
1999-05-21,35.1586
1999-05-24,35.1137
1999-05-25,34.5082
1999-05-26,34.7865
1999-05-27,34.9294
1999-05-28,34.0343
1999-06-01,34.3653
1999-06-02,34.4104
1999-06-03,34.5533
1999-06-04,34.4104
1999-06-07,34.3202
1999-06-08,34.7865
1999-06-09,34.2675
1999-06-10,34.2675
1999-06-11,33.7561
1999-06-14,33.6131
1999-06-15,32.6278
1999-06-16,33.38
1999-06-17,33.0942
1999-06-18,33.6131
1999-06-21,32.3872
1999-06-22,32.154
1999-06-23,35.3055
1999-06-24,35.3506
1999-06-25,35.1174
1999-06-28,35.4484
1999-06-29,36.1027
1999-06-30,35.9147
1999-07-01,36.6217
1999-07-02,37.7499
1999-07-06,36.3359
1999-07-07,36.3885
1999-07-08,36.2456
1999-07-09,35.9598
1999-07-12,34.9294
1999-07-13,35.9147
1999-07-14,35.4484
1999-07-15,35.2077
1999-07-16,34.8843
1999-07-19,34.5082
1999-07-20,34.5082
1999-07-21,34.6962
1999-07-22,34.5533
1999-07-23,34.3653
1999-07-26,33.8012
1999-07-27,33.4251
1999-07-28,33.1919
1999-07-29,33.0942
1999-07-30,32.9061
1999-08-02,32.7181
1999-08-03,32.4398
1999-08-04,32.342
1999-08-05,32.342
1999-08-06,32.154
1999-08-09,32.342
1999-08-10,31.5899
1999-08-11,31.6877
1999-08-12,31.9208
1999-08-13,32.3872
1999-08-16,32.8159
1999-08-17,32.9061
1999-08-18,33.0039
1999-08-19,32.7181
1999-08-20,33.6583
1999-08-23,34.0343
1999-08-24,33.4702
1999-08-25,33.149
1999-08-26,32.5824
1999-08-27,32.4842
1999-08-30,32.3406
1999-08-31,32.2047
1999-09-01,31.7287
1999-09-02,31.3963
1999-09-03,31.6381
1999-09-07,31.351
1999-09-08,31.5399
1999-09-09,30.7844
1999-09-10,30.5502
1999-09-13,30.452
1999-09-14,29.8854
1999-09-15,29.3717
1999-09-16,28.707
1999-09-17,29.1829
1999-09-20,29.6059
1999-09-21,28.707
1999-09-22,28.4274
1999-09-23,27.9515
1999-09-24,26.6295
1999-09-27,27.4831
1999-09-28,26.2971
1999-09-29,27.1054
1999-09-30,27.5285
1999-10-01,26.4859
1999-10-04,27.2414
1999-10-05,26.9619
1999-10-06,28.2386
1999-10-07,28.6616
1999-10-08,28.8052
1999-10-11,28.994
1999-10-12,27.9968
1999-10-13,27.1961
1999-10-14,27.3396
1999-10-15,26.9619
1999-10-18,27.1961
1999-10-19,27.7626
1999-10-20,27.8609
1999-10-21,27.6191
1999-10-22,28.6616
1999-10-25,28.9411
1999-10-26,28.5634
1999-10-27,30.0743
1999-10-28,31.0186
1999-10-29,31.1622
1999-11-01,31.4492
1999-11-02,31.3963
1999-11-03,31.4492
1999-11-04,31.7287
1999-11-05,31.7287
1999-11-08,31.8723
1999-11-09,31.4945
1999-11-10,31.1622
1999-11-11,30.9733
1999-11-12,31.3057
1999-11-15,31.5852
1999-11-16,32.2953
1999-11-17,32.1065
1999-11-18,32.9072
1999-11-19,32.7713
1999-11-22,32.1075
1999-11-23,30.8781
1999-11-24,29.9295
1999-11-26,30.0737
1999-11-29,29.9295
1999-11-30,30.5442
1999-12-01,29.884
1999-12-02,30.3545
1999-12-03,30.9236
1999-12-06,30.2634
1999-12-07,29.7398
1999-12-08,29.5046
1999-12-09,29.1707
1999-12-10,29.072
1999-12-13,28.8368
1999-12-14,29.8309
1999-12-15,29.2617
1999-12-16,28.9354
1999-12-17,28.4573
1999-12-20,28.0779
1999-12-21,28.4118
1999-12-22,28.3132
1999-12-23,28.981
1999-12-27,28.8823
1999-12-28,29.9295
1999-12-29,29.7398
1999-12-30,29.9295
1999-12-31,30.309
2000-01-03,29.884
2000-01-04,29.8309
2000-01-05,31.7812
2000-01-06,31.8267
2000-01-07,31.9178
2000-01-10,33.2002
2000-01-11,32.54
2000-01-12,32.0619
2000-01-13,32.5856
2000-01-14,32.54
2000-01-18,33.4886
2000-01-19,33.4886
2000-01-20,33.0105
2000-01-21,32.4414
2000-01-24,32.0164
2000-01-25,31.9178
2000-01-26,32.4414
2000-01-27,32.7297
2000-01-28,31.8267
2000-01-31,32.1075
2000-02-01,32.0619
2000-02-02,32.0164
2000-02-03,32.54
2000-02-04,32.3503
2000-02-07,31.9178
2000-02-08,31.9178
2000-02-09,31.7812
2000-02-10,31.9709
2000-02-11,31.1589
2000-02-14,31.3486
2000-02-15,31.9178
2000-02-16,31.9709
2000-02-17,32.2061
2000-02-18,31.9178
2000-02-22,32.0164
2000-02-23,31.0323
2000-02-24,29.9341
2000-02-25,30.6053
2000-02-28,30.5061
2000-02-29,30.4146
2000-03-01,30.6968
2000-03-02,29.9341
2000-03-03,30.8874
2000-03-06,30.0333
2000-03-07,29.1257
2000-03-08,29.2706
2000-03-09,29.6519
2000-03-10,29.507
2000-03-13,30.079
2000-03-14,30.079
2000-03-15,30.9866
2000-03-16,33.6559
2000-03-17,33.3661
2000-03-20,32.7483
2000-03-21,33.511
2000-03-22,32.7483
2000-03-23,34.3651
2000-03-24,33.8465
2000-03-27,33.7016
2000-03-28,33.8465
2000-03-29,34.1745
2000-03-30,34.7007
2000-03-31,34.8456
2000-04-03,35.7532
2000-04-04,35.2269
2000-04-05,35.654
2000-04-06,35.3185
2000-04-07,34.6549
2000-04-10,34.51
2000-04-11,34.7999
2000-04-12,35.654
2000-04-13,35.7532
2000-04-14,35.082
2000-04-17,35.3718
2000-04-18,33.0305
2000-04-19,32.3212
2000-04-20,32.8398
2000-04-24,33.4118
2000-04-25,33.8465
2000-04-26,33.2745
2000-04-27,33.0839
2000-04-28,33.4652
2000-05-01,33.7474
2000-05-02,33.5567
2000-05-03,33.3203
2000-05-04,33.6025
2000-05-05,33.4652
2000-05-08,33.3661
2000-05-09,34.1287
2000-05-10,34.3651
2000-05-11,35.5625
2000-05-12,35.5625
2000-05-15,35.654
2000-05-16,35.9896
2000-05-17,36.6531
2000-05-18,37.0344
2000-05-19,36.8971
2000-05-22,36.9887
2000-05-23,36.226
2000-05-24,36.0498
2000-05-25,36.9154
2000-05-26,35.7664
2000-05-30,36.8695
2000-05-31,35.8124
2000-06-01,35.3834
2000-06-02,37.1529
2000-06-05,36.7699
2000-06-06,35.4293
2000-06-07,34.4718
2000-06-08,34.3262
2000-06-09,34.6173
2000-06-12,34.4718
2000-06-13,33.5602
2000-06-14,35.0003
2000-06-15,34.4718
2000-06-16,34.0888
2000-06-19,33.4223
2000-06-20,32.5567
2000-06-21,32.6563
2000-06-22,32.6563
2000-06-23,31.9822
2000-06-26,32.1277
2000-06-27,31.7447
2000-06-28,32.1737
2000-06-29,32.7482
2000-06-30,32.7022
2000-07-03,33.3227
2000-07-05,34.4718
2000-07-06,33.2768
2000-07-07,33.0853
2000-07-10,33.0393
2000-07-11,33.6598
2000-07-12,32.9397
2000-07-13,33.7057
2000-07-14,33.4683
2000-07-17,33.4223
2000-07-18,33.0853
2000-07-19,33.0393
2000-07-20,33.0853
2000-07-21,32.9857
2000-07-24,33.4223
2000-07-25,33.2308
2000-07-26,32.9397
2000-07-27,32.6563
2000-07-28,32.6563
2000-07-31,32.8478
2000-08-01,33.5602
2000-08-02,33.5602
2000-08-03,33.6598
2000-08-04,33.8973
2000-08-07,34.5177
2000-08-08,34.9008
2000-08-09,34.4718
2000-08-10,34.1347
2000-08-11,35.4753
2000-08-14,35.4293
2000-08-15,35.6208
2000-08-16,35.8124
2000-08-17,35.6668
2000-08-18,35.5749
2000-08-21,35.6367
2000-08-22,35.2519
2000-08-23,34.6286
2000-08-24,34.2438
2000-08-25,34.39
2000-08-28,33.4743
2000-08-29,34.1515
2000-08-30,33.5205
2000-08-31,34.0976
2000-09-01,33.5743
2000-09-05,33.5743
2000-09-06,34.0053
2000-09-07,34.0976
2000-09-08,33.8591
2000-09-11,33.8591
2000-09-12,33.2819
2000-09-13,33.0895
2000-09-14,32.32
2000-09-15,31.5043
2000-09-18,30.3962
2000-09-19,30.35
2000-09-20,30.1576
2000-09-21,29.7729
2000-09-22,29.5343
2000-09-25,29.6728
2000-09-26,29.2881
2000-09-27,29.1496
2000-09-28,30.25
2000-09-29,30.881
2000-10-02,31.0195
2000-10-03,32.0353
2000-10-04,30.9272
2000-10-05,30.0114
2000-10-06,29.4805
2000-10-09,29.4343
2000-10-10,28.7648
2000-10-11,28.5724
2000-10-12,28.5186
2000-10-13,28.9572
2000-10-16,28.9033
2000-10-17,28.811
2000-10-18,28.2338
2000-10-19,29.0957
2000-10-20,29.0957
2000-10-23,29.2419
2000-10-24,29.8652
2000-10-25,29.5343
2000-10-26,29.9653
2000-10-27,30.25
2000-10-30,31.789
2000-10-31,32.42
2000-11-01,32.42
2000-11-02,32.9972
2000-11-03,32.7048
2000-11-06,32.8048
2000-11-07,32.851
2000-11-08,33.4281
2000-11-09,33.0434
2000-11-10,32.2277
2000-11-13,32.5586
2000-11-14,33.0434
2000-11-15,32.5586
2000-11-16,32.6586
2000-11-17,32.4662
2000-11-20,32.2886
2000-11-21,32.2886
2000-11-22,32.0952
2000-11-24,32.2422
2000-11-27,32.4819
2000-11-28,32.6753
2000-11-29,32.7758
2000-11-30,33.1625
2000-12-01,33.642
2000-12-04,34.9026
2000-12-05,35.5754
2000-12-06,34.7557
2000-12-07,35.096
2000-12-08,35.4285
2000-12-11,35.2352
2000-12-12,35.096
2000-12-13,34.9026
2000-12-14,34.6551
2000-12-15,34.0751
2000-12-18,34.8485
2000-12-19,35.4285
2000-12-20,34.949
2000-12-21,35.3821
2000-12-22,35.7688
2000-12-26,36.3024
2000-12-27,36.6891
2000-12-28,36.7819
2000-12-29,36.9753
2001-01-02,35.7688
2001-01-03,36.3024
2001-01-04,36.9289
2001-01-05,35.7688
2001-01-08,35.3821
2001-01-09,34.4618
2001-01-10,34.8485
2001-01-11,34.8485
2001-01-12,34.8021
2001-01-16,35.7688
2001-01-17,35.3821
2001-01-18,34.9026
2001-01-19,33.9823
2001-01-22,32.9692
2001-01-23,33.9359
2001-01-24,33.6884
2001-01-25,33.9823
2001-01-26,34.1292
2001-01-29,34.4231
2001-01-30,34.5314
2001-01-31,35.1114
2001-02-01,35.3744
2001-02-02,35.3125
2001-02-05,34.9954
2001-02-06,35.2274
2001-02-07,35.1888
2001-02-08,34.8021
2001-02-09,34.6706
2001-02-12,34.253
2001-02-13,34.4076
2001-02-14,34.0132
2001-02-15,34.253
2001-02-16,33.6807
2001-02-20,33.5105
2001-02-21,33.2734
2001-02-22,32.5815
2001-02-23,32.0296
2001-02-26,32.7681
2001-02-27,32.6204
2001-02-28,32.908
2001-03-01,33.872
2001-03-02,34.4629
2001-03-05,35.6057
2001-03-06,35.5668
2001-03-07,35.9944
2001-03-08,36.5386
2001-03-09,36.523
2001-03-12,36.1576
2001-03-13,36.1965
2001-03-14,35.2947
2001-03-15,35.5046
2001-03-16,35.0382
2001-03-19,35.6679
2001-03-20,35.7612
2001-03-21,34.9993
2001-03-22,33.9653
2001-03-23,34.4629
2001-03-26,35.4735
2001-03-27,36.2665
2001-03-28,36.0177
2001-03-29,35.7612
2001-03-30,36.3909
2001-04-02,35.9866
2001-04-03,35.87
2001-04-04,36.4453
2001-04-05,36.9895
2001-04-06,36.1343
2001-04-09,36.663
2001-04-10,36.1032
2001-04-11,34.9371
2001-04-12,34.7894
2001-04-16,34.7738
2001-04-17,34.7272
2001-04-18,35.6445
2001-04-19,35.3958
2001-04-20,34.8283
2001-04-23,34.2841
2001-04-24,34.4784
2001-04-25,34.4395
2001-04-26,34.6961
2001-04-27,36.0799
2001-04-30,35.94
2001-05-01,35.5746
2001-05-02,35.388
2001-05-03,34.8982
2001-05-04,35.6212
2001-05-07,37.1294
2001-05-08,37.8757
2001-05-09,38.9641
2001-05-10,39.3217
2001-05-11,39.2518
2001-05-14,39.2595
2001-05-15,39.3995
2001-05-16,41.9805
2001-05-17,41.7317
2001-05-18,41.7317
2001-05-21,41.9494
2001-05-22,41.9883
2001-05-23,41.6876
2001-05-24,41.7032
2001-05-25,41.1021
2001-05-29,42.0389
2001-05-30,41.4456
2001-05-31,42.2184
2001-06-01,41.7891
2001-06-04,41.9296
2001-06-05,42.0155
2001-06-06,41.6798
2001-06-07,41.9296
2001-06-08,42.2106
2001-06-11,41.7422
2001-06-12,42.0077
2001-06-13,42.6712
2001-06-14,40.8288
2001-06-15,40.7898
2001-06-18,40.985
2001-06-19,40.8445
2001-06-20,42.3511
2001-06-21,42.3511
2001-06-22,41.8437
2001-06-25,40.7118
2001-06-26,41.8827
2001-06-27,41.3285
2001-06-28,41.3675
2001-06-29,41.9374
2001-07-02,43.0459
2001-07-03,42.1404
2001-07-05,41.9998
2001-07-06,41.3207
2001-07-09,41.2192
2001-07-10,40.9303
2001-07-11,40.3917
2001-07-12,40.5946
2001-07-13,40.8054
2001-07-16,40.5868
2001-07-17,40.3292
2001-07-18,40.5478
2001-07-19,40.6181
2001-07-20,40.2043
2001-07-23,39.33
2001-07-24,38.0341
2001-07-25,38.2526
2001-07-26,37.2768
2001-07-27,37.4017
2001-07-30,37.5657
2001-07-31,38.3463
2001-08-01,37.995
2001-08-02,37.9794
2001-08-03,37.7608
2001-08-06,37.3549
2001-08-07,37.6281
2001-08-08,37.3939
2001-08-09,37.4798
2001-08-10,38.3307
2001-08-13,38.1277
2001-08-14,38.1355
2001-08-15,37.8233
2001-08-16,38.4634
2001-08-17,37.8233
2001-08-20,37.9013
2001-08-21,38.0106
2001-08-22,37.6848
2001-08-23,37.8887
2001-08-24,38.7828
2001-08-27,38.4612
2001-08-28,37.8809
2001-08-29,37.7083
2001-08-30,37.4809
2001-08-31,37.6613
2001-09-04,38.7436
2001-09-05,39.12
2001-09-06,38.2808
2001-09-07,37.0338
2001-09-10,36.6025
2001-09-17,34.5006
2001-09-18,34.0771
2001-09-19,32.9399
2001-09-20,31.4968
2001-09-21,30.0772
2001-09-24,31.6693
2001-09-25,31.3791
2001-09-26,31.6458
2001-09-27,32.6026
2001-09-28,33.7869
2001-10-01,33.3948
2001-10-02,33.9594
2001-10-03,35.4496
2001-10-04,35.7947
2001-10-05,35.9201
2001-10-08,35.2613
2001-10-09,35.8652
2001-10-10,36.5789
2001-10-11,37.4181
2001-10-12,37.2377
2001-10-15,36.3044
2001-10-16,36.328
2001-10-17,36.2417
2001-10-18,35.9437
2001-10-19,35.4182
2001-10-22,36.3201
2001-10-23,33.8889
2001-10-24,33.5516
2001-10-25,33.4418
2001-10-26,33.732
2001-10-29,33.1752
2001-10-30,32.7203
2001-10-31,32.6262
2001-11-01,32.3438
2001-11-02,32.7124
2001-11-05,33.9438
2001-11-06,34.1163
2001-11-07,34.8378
2001-11-08,34.6967
2001-11-09,34.1555
2001-11-12,34.281
2001-11-13,35.3555
2001-11-14,35.1751
2001-11-15,35.4417
2001-11-16,35.7398
2001-11-19,36.4378
2001-11-20,36.3358
2001-11-21,35.7972
2001-11-23,36.5065
2001-11-26,35.9785
2001-11-27,35.8287
2001-11-28,36.0336
2001-11-29,35.8839
2001-11-30,36.5696
2001-12-03,36.4119
2001-12-04,36.5617
2001-12-05,37.1213
2001-12-06,37.6572
2001-12-07,37.8542
2001-12-10,37.5075
2001-12-11,37.539
2001-12-12,37.1607
2001-12-13,37.0503
2001-12-14,37.1528
2001-12-17,36.9558
2001-12-18,36.7903
2001-12-19,36.5853
2001-12-20,36.6247
2001-12-21,36.743
2001-12-24,37.3419
2001-12-26,37.4838
2001-12-27,37.5311
2001-12-28,37.7597
2001-12-31,37.7754
2002-01-02,37.4759
2002-01-03,37.4365
2002-01-04,37.7991
2002-01-07,37.9803
2002-01-08,37.6493
2002-01-09,37.8936
2002-01-10,37.6808
2002-01-11,37.2631
2002-01-14,37.1292
2002-01-15,37.3025
2002-01-16,36.8454
2002-01-17,36.5696
2002-01-18,36.1203
2002-01-22,36.1676
2002-01-23,35.8997
2002-01-24,36.0888
2002-01-25,36.3804
2002-01-28,36.4514
2002-01-29,36.2543
2002-01-30,36.3253
2002-01-31,36.5065
2002-02-01,36.1597
2002-02-04,36.144
2002-02-05,36.2543
2002-02-06,36.1519
2002-02-07,36.3883
2002-02-08,36.2307
2002-02-11,36.9164
2002-02-12,37.2474
2002-02-13,37.0976
2002-02-14,36.9952
2002-02-15,36.9558
2002-02-19,36.1992
2002-02-20,36.6388
2002-02-21,36.8448
2002-02-22,37.3914
2002-02-25,37.6925
2002-02-26,37.7954
2002-02-27,37.6132
2002-02-28,38.2945
2002-03-01,37.5657
2002-03-04,38.5797
2002-03-05,36.6388
2002-03-06,37.6687
2002-03-07,37.9935
2002-03-08,37.9222
2002-03-11,37.6766
2002-03-12,38.0885
2002-03-13,37.9063
2002-03-14,37.9697
2002-03-15,38.1044
2002-03-18,37.7796
2002-03-19,38.3341
2002-03-20,37.6845
2002-03-21,37.233
2002-03-22,37.6291
2002-03-25,36.4962
2002-03-26,37.534
2002-03-27,37.6845
2002-03-28,37.6528
2002-04-01,37.6449
2002-04-02,37.8192
2002-04-03,37.2647
2002-04-04,37.5974
2002-04-05,38.0648
2002-04-08,38.6985
2002-04-09,38.9441
2002-04-10,39.2531
2002-04-11,38.8332
2002-04-12,39.2293
2002-04-15,39.0392
2002-04-16,38.7302
2002-04-17,38.2866
2002-04-18,37.9776
2002-04-19,38.041
2002-04-22,36.8844
2002-04-23,37.0825
2002-04-24,37.0191
2002-04-25,36.726
2002-04-26,36.5596
2002-04-29,36.5359
2002-04-30,36.5992
2002-05-01,37.1696
2002-05-02,37.2567
2002-05-03,37.4073
2002-05-06,36.6864
2002-05-07,37.0666
2002-05-08,37.233
2002-05-09,36.8765
2002-05-10,36.7656
2002-05-13,36.9874
2002-05-14,37.7796
2002-05-15,37.74
2002-05-16,37.5419
2002-05-17,38.0252
2002-05-20,37.6766
2002-05-21,37.0983
2002-05-22,37.2056
2002-05-23,38.1132
2002-05-24,37.5081
2002-05-28,37.1419
2002-05-29,37.1419
2002-05-30,37.3728
2002-05-31,38.0973
2002-06-03,37.0543
2002-06-04,37.0225
2002-06-05,37.8744
2002-06-06,37.1817
2002-06-07,37.3967
2002-06-10,37.0543
2002-06-11,36.7359
2002-06-12,37.2693
2002-06-13,36.7836
2002-06-14,37.2136
2002-06-17,37.6196
2002-06-18,38.1371
2002-06-19,36.9986
2002-06-20,37.6674
2002-06-21,34.419
2002-06-24,34.7693
2002-06-25,34.3314
2002-06-26,34.2279
2002-06-27,34.2756
2002-06-28,34.7613
2002-07-01,34.2756
2002-07-02,33.4476
2002-07-03,33.3043
2002-07-05,34.2677
2002-07-08,33.7502
2002-07-09,33.169
2002-07-10,32.2852
2002-07-11,31.7358
2002-07-12,31.8553
2002-07-15,31.4333
2002-07-16,29.8489
2002-07-17,30.2231
2002-07-18,29.7215
2002-07-19,28.4157
2002-07-22,27.5877
2002-07-23,27.7629
2002-07-24,28.9651
2002-07-25,29.7613
2002-07-26,30.5416
2002-07-29,32.8664
2002-07-30,31.903
2002-07-31,32.1498
2002-08-01,31.4094
2002-08-02,30.1833
2002-08-05,29.9444
2002-08-06,30.7008
2002-08-07,31.0591
2002-08-08,31.911
2002-08-09,31.7279
2002-08-12,30.7724
2002-08-13,30.5416
2002-08-14,31.3775
2002-08-15,31.8154
2002-08-16,31.8314
2002-08-19,32.5957
2002-08-20,32.6674
2002-08-21,30.8759
2002-08-22,31.2661
2002-08-23,31.1339
2002-08-26,31.8708
2002-08-27,31.5904
2002-08-28,31.238
2002-08-29,31.23
2002-08-30,31.27
2002-09-03,30.4531
2002-09-04,31.5824
2002-09-05,31.6385
2002-09-06,31.9188
2002-09-09,32.1191
2002-09-10,32.5676
2002-09-11,32.8239
2002-09-12,32.087
2002-09-13,32.3033
2002-09-16,32.2793
2002-09-17,31.6785
2002-09-18,31.3982
2002-09-19,30.0766
2002-09-20,30.6453
2002-09-23,30.1567
2002-09-24,29.0674
2002-09-25,29.7081
2002-09-26,29.9084
2002-09-27,28.8191
2002-09-30,28.8831
2002-10-01,29.0914
2002-10-02,28.1382
2002-10-03,27.6657
2002-10-04,27.2732
2002-10-07,26.6404
2002-10-08,27.1851
2002-10-09,25.9195
2002-10-10,27.1691
2002-10-11,28.1623
2002-10-14,28.0421
2002-10-15,29.8283
2002-10-16,28.9152
2002-10-17,30.3329
2002-10-18,29.1875
2002-10-21,29.9645
2002-10-22,29.1314
2002-10-23,29.4999
2002-10-24,28.6989
2002-10-25,29.2916
2002-10-28,26.8006
2002-10-29,26.6724
2002-10-30,26.6404
2002-10-31,26.8807
2002-11-01,27.6096
2002-11-04,27.8739
2002-11-05,28.1543
2002-11-06,28.6108
2002-11-07,27.6737
2002-11-08,27.6817
2002-11-11,27.4093
2002-11-12,27.6737
2002-11-13,27.7458
2002-11-14,28.5227
2002-11-15,28.779
2002-11-18,28.7069
2002-11-19,28.8511
2002-11-20,29.2516
2002-11-21,30.0686
2002-11-22,29.5962
2002-11-25,29.9427
2002-11-26,29.4833
2002-11-27,30.386
2002-11-29,30.4183
2002-12-02,30.4505
2002-12-03,29.6365
2002-12-04,29.9105
2002-12-05,29.8299
2002-12-06,29.9911
2002-12-09,29.4833
2002-12-10,29.6203
2002-12-11,29.8783
2002-12-12,29.8702
2002-12-13,29.6203
2002-12-16,30.515
2002-12-17,30.515
2002-12-18,29.5478
2002-12-19,29.6848
2002-12-20,30.3377
2002-12-23,30.378
2002-12-24,30.2813
2002-12-26,30.0314
2002-12-27,29.572
2002-12-30,29.7815
2002-12-31,30.241
2003-01-02,30.8938
2003-01-03,30.2571
2003-01-06,30.4828
2003-01-07,30.2248
2003-01-08,29.3382
2003-01-09,29.0723
2003-01-10,28.8627
2003-01-13,28.6612
2003-01-14,28.637
2003-01-15,28.0325
2003-01-16,27.9439
2003-01-17,27.7746
2003-01-21,27.1459
2003-01-22,27.0412
2003-01-23,27.4764
2003-01-24,27.3636
2003-01-27,27.0009
2003-01-28,27.5006
2003-01-29,27.6134
2003-01-30,27.0412
2003-01-31,27.4442
2003-02-03,27.5086
2003-02-04,26.7026
2003-02-05,26.2513
2003-02-06,25.7113
2003-02-07,25.5662
2003-02-10,25.7113
2003-02-11,25.6548
2003-02-12,25.5339
2003-02-13,25.2438
2003-02-14,25.8402
2003-02-18,26.1546
2003-02-19,25.9692
2003-02-20,25.9531
2003-02-21,26.4931
2003-02-24,25.7757
2003-02-25,26.082
2003-02-26,25.9478
2003-02-27,25.8423
2003-02-28,25.8017
2003-03-03,25.7854
2003-03-04,24.8839
2003-03-05,24.6809
2003-03-06,24.2911
2003-03-07,24.5672
2003-03-10,24.0718
2003-03-11,23.8444
2003-03-12,23.5602
2003-03-13,24.153
2003-03-14,24.1855
2003-03-17,24.8433
2003-03-18,24.8271
2003-03-19,25.0951
2003-03-20,25.0382
2003-03-21,26.094
2003-03-24,25.4849
2003-03-25,25.4199
2003-03-26,25.0951
2003-03-27,24.9164
2003-03-28,24.9489
2003-03-31,24.5185
2003-04-01,24.9408
2003-04-02,25.688
2003-04-03,25.623
2003-04-04,25.558
2003-04-07,25.7448
2003-04-08,25.6636
2003-04-09,25.3956
2003-04-10,25.4768
2003-04-11,25.5012
2003-04-14,25.9072
2003-04-15,26.094
2003-04-16,25.5093
2003-04-17,25.8666
2003-04-21,25.688
2003-04-22,25.9803
2003-04-23,26.1671
2003-04-24,26.0372
2003-04-25,25.4037
2003-04-28,25.9722
2003-04-29,26.8249
2003-04-30,28.3436
2003-05-01,28.1812
2003-05-02,28.6279
2003-05-05,28.303
2003-05-06,28.7984
2003-05-07,28.6441
2003-05-08,28.4167
2003-05-09,28.7335
2003-05-12,29.1395
2003-05-13,28.9852
2003-05-14,28.8959
2003-05-15,28.9934
2003-05-16,28.8878
2003-05-19,28.4411
2003-05-20,28.5954
2003-05-21,28.6728
2003-05-22,29.0163
2003-05-23,29.2371
2003-05-27,29.9813
2003-05-28,30.1694
2003-05-29,29.5233
2003-05-30,29.9077
2003-06-02,30.5783
2003-06-03,30.1612
2003-06-04,30.7746
2003-06-05,31.3307
2003-06-06,31.5597
2003-06-09,30.4965
2003-06-10,31.1753
2003-06-11,32.0095
2003-06-12,32.1567
2003-06-13,31.8214
2003-06-16,32.4675
2003-06-17,32.5002
2003-06-18,32.3285
2003-06-19,31.6497
2003-06-20,30.7991
2003-06-23,30.4965
2003-06-24,30.7419
2003-06-25,30.3902
2003-06-26,30.701
2003-06-27,30.2103
2003-06-30,30.2839
2003-07-01,30.4475
2003-07-02,30.7501
2003-07-03,30.3984
2003-07-07,31.4943
2003-07-08,31.4861
2003-07-09,31.2489
2003-07-10,31.0445
2003-07-11,30.9954
2003-07-14,31.1017
2003-07-15,30.4311
2003-07-16,30.1367
2003-07-17,29.8914
2003-07-18,30.3821
2003-07-21,29.9568
2003-07-22,30.4148
2003-07-23,30.5702
2003-07-24,30.4066
2003-07-25,30.3166
2003-07-28,30.8646
2003-07-29,32.582
2003-07-30,32.5411
2003-07-31,32.8355
2003-08-01,32.5656
2003-08-04,32.672
2003-08-05,32.5902
2003-08-06,32.4348
2003-08-07,32.5002
2003-08-08,32.8928
2003-08-11,32.7864
2003-08-12,32.9173
2003-08-13,32.7619
2003-08-14,33.5307
2003-08-15,33.8169
2003-08-18,33.9396
2003-08-19,34.5121
2003-08-20,34.0704
2003-08-21,34.3076
2003-08-22,33.6124
2003-08-25,33.9127
2003-08-26,33.8798
2003-08-27,33.888
2003-08-28,34.0197
2003-08-29,34.0197
2003-09-02,34.7848
2003-09-03,35.1057
2003-09-04,34.3405
2003-09-05,33.6741
2003-09-08,34.4722
2003-09-09,34.069
2003-09-10,33.3039
2003-09-11,33.4931
2003-09-12,34.5544
2003-09-15,35.0069
2003-09-16,35.2784
2003-09-17,33.1311
2003-09-18,33.5672
2003-09-19,33.6577
2003-09-22,33.4273
2003-09-23,33.345
2003-09-24,32.7362
2003-09-25,32.621
2003-09-26,32.5634
2003-09-29,33.1723
2003-09-30,32.8596
2003-10-01,33.5342
2003-10-02,33.9621
2003-10-03,34.3734
2003-10-06,34.5873
2003-10-07,34.8671
2003-10-08,34.5956
2003-10-09,34.5544
2003-10-10,34.5544
2003-10-13,37.4422
2003-10-14,37.3928
2003-10-15,37.1213
2003-10-16,36.8416
2003-10-17,35.9942
2003-10-20,36.0107
2003-10-21,35.8955
2003-10-22,35.6816
2003-10-23,35.8132
2003-10-24,35.6816
2003-10-27,35.9119
2003-10-28,36.603
2003-10-29,36.5536
2003-10-30,36.6441
2003-10-31,36.4714
2003-11-03,36.7511
2003-11-04,36.5125
2003-11-05,36.7346
2003-11-06,37.1789
2003-11-07,36.5948
2003-11-10,36.8087
2003-11-11,36.71
2003-11-12,37.0061
2003-11-13,36.7017
2003-11-14,36.5701
2003-11-17,36.1999
2003-11-18,35.7227
2003-11-19,35.7392
2003-11-20,35.5828
2003-11-21,35.4347
2003-11-24,36.2578
2003-11-25,36.7791
2003-11-26,36.7295
2003-11-28,36.7957
2003-12-01,37.9458
2003-12-02,37.9872
2003-12-03,37.8465
2003-12-04,38.2106
2003-12-05,37.8465
2003-12-08,39.2614
2003-12-09,39.0049
2003-12-10,38.4009
2003-12-11,39.22
2003-12-12,39.5427
2003-12-15,39.4352
2003-12-16,39.3028
2003-12-17,38.7401
2003-12-18,39.4269
2003-12-19,39.5427
2003-12-22,39.9151
2003-12-23,39.8571
2003-12-24,39.733
2003-12-26,39.8902
2003-12-29,39.973
2003-12-30,39.5179
2003-12-31,39.3193
2004-01-02,39.0214
2004-01-05,41.5203
2004-01-06,41.1066
2004-01-07,41.1231
2004-01-08,40.4694
2004-01-09,40.7756
2004-01-12,40.9494
2004-01-13,41.0817
2004-01-14,40.9907
2004-01-15,41.2803
2004-01-16,40.999
2004-01-20,40.668
2004-01-21,41.2141
2004-01-22,41.0817
2004-01-23,40.9659
2004-01-26,41.4293
2004-01-27,41.1231
2004-01-28,40.4281
2004-01-29,39.8737
2004-01-30,39.7248
2004-02-02,39.4186
2004-02-03,39.5676
2004-02-04,38.4753
2004-02-05,38.8808
2004-02-06,39.2862
2004-02-09,39.0628
2004-02-10,39.0794
2004-02-11,38.9056
2004-02-12,38.7318
2004-02-13,38.1444
2004-02-17,38.6739
2004-02-18,38.2271
2004-02-19,38.1775
2004-02-20,38.4505
2004-02-23,38.4753
2004-02-24,38.4588
2004-02-25,38.8582
2004-02-26,38.7334
2004-02-27,39.4573
2004-03-01,39.7901
2004-03-02,40.0397
2004-03-03,39.7651
2004-03-04,39.9399
2004-03-05,39.9315
2004-03-08,39.3158
2004-03-09,38.9247
2004-03-10,38.6418
2004-03-11,38.3672
2004-03-12,39.0911
2004-03-15,38.309
2004-03-16,38.6751
2004-03-17,38.8665
2004-03-18,38.6252
2004-03-19,38.4255
2004-03-22,38.5503
2004-03-23,38.4005
2004-03-24,38.1759
2004-03-25,38.6668
2004-03-26,38.542
2004-03-29,38.9913
2004-03-30,39.0911
2004-03-31,39.4573
2004-04-01,39.9648
2004-04-02,39.8816
2004-04-05,39.84
2004-04-06,40.0064
2004-04-07,39.4073
2004-04-08,39.1161
2004-04-12,39.4323
2004-04-13,38.8998
2004-04-14,38.6418
2004-04-15,39.2243
2004-04-16,39.6237
2004-04-19,39.7069
2004-04-20,39.7069
2004-04-21,39.9399
2004-04-22,40.4142
2004-04-23,40.1229
2004-04-26,39.607
2004-04-27,39.9232
2004-04-28,39.0828
2004-04-29,38.8998
2004-04-30,38.4588
2004-05-03,38.4504
2004-05-04,38.3589
2004-05-05,38.2091
2004-05-06,37.5934
2004-05-07,36.3619
2004-05-10,35.5714
2004-05-11,35.2469
2004-05-12,35.43
2004-05-13,35.43
2004-05-14,35.8627
2004-05-17,35.2969
2004-05-18,35.6796
2004-05-19,35.3884
2004-05-20,35.638
2004-05-21,35.9126
2004-05-24,36.3536
2004-05-25,37.1441
2004-05-26,36.8429
2004-05-27,37.2698
2004-05-28,37.5041
2004-06-01,37.4623
2004-06-02,37.6297
2004-06-03,37.5041
2004-06-04,37.5376
2004-06-07,38.0314
2004-06-08,38.1569
2004-06-09,38.1235
2004-06-10,38.2825
2004-06-14,37.8724
2004-06-15,38.3243
2004-06-16,38.5838
2004-06-17,38.8432
2004-06-18,39.2199
2004-06-21,39.337
2004-06-22,39.2031
2004-06-23,39.7388
2004-06-24,39.3622
2004-06-25,39.3287
2004-06-28,38.9939
2004-06-29,39.6551
2004-06-30,39.7639
2004-07-01,38.952
2004-07-02,38.9604
2004-07-06,38.249
2004-07-07,38.86
2004-07-08,38.701
2004-07-09,38.6173
2004-07-12,38.5085
2004-07-13,38.6089
2004-07-14,38.2239
2004-07-15,38.2323
2004-07-16,38.5503
2004-07-19,38.5085
2004-07-20,38.7428
2004-07-21,38.2072
2004-07-22,37.9058
2004-07-23,37.7217
2004-07-26,37.32
2004-07-27,37.5878
2004-07-28,38.1904
2004-07-29,39.5379
2004-07-30,39.8141
2004-08-02,40.3498
2004-08-03,40.1322
2004-08-04,39.9899
2004-08-05,38.9437
2004-08-06,38.3662
2004-08-09,38.0983
2004-08-10,38.8349
2004-08-11,38.6424
2004-08-12,38.4917
2004-08-13,38.3997
2004-08-16,39.2785
2004-08-17,39.6886
2004-08-18,39.8978
2004-08-19,40.0652
2004-08-20,40.3079
2004-08-23,39.8643
2004-08-24,40.041
2004-08-25,40.1841
2004-08-26,40.1083
2004-08-27,40.0158
2004-08-30,39.7381
2004-08-31,40.0915
2004-09-01,40.3776
2004-09-02,41.0425
2004-09-03,41.1014
2004-09-07,41.741
2004-09-08,40.8237
2004-09-09,40.6385
2004-09-10,40.4366
2004-09-13,40.9499
2004-09-14,40.8405
2004-09-15,40.6133
2004-09-16,41.2697
2004-09-17,41.1435
2004-09-20,41.0509
2004-09-21,41.6989
2004-09-22,41.4632
2004-09-23,41.0761
2004-09-24,40.9331
2004-09-27,41.4043
2004-09-28,41.0172
2004-09-29,41.5895
2004-09-30,42.9023
2004-10-01,43.5082
2004-10-04,42.633
2004-10-05,42.7172
2004-10-06,43.0874
2004-10-07,42.5657
2004-10-08,42.633
2004-10-11,42.8518
2004-10-12,41.1182
2004-10-13,40.9667
2004-10-14,40.3356
2004-10-15,40.4955
2004-10-18,40.3524
2004-10-19,39.5108
2004-10-20,39.7886
2004-10-21,40.0663
2004-10-22,40.0999
2004-10-25,40.2598
2004-10-26,40.9583
2004-10-27,41.3959
2004-10-28,41.2613
2004-10-29,41.8672
2004-11-01,41.9682
2004-11-02,41.8419
2004-11-03,42.1197
2004-11-04,42.2543
2004-11-05,42.389
2004-11-08,42.33
2004-11-09,42.2796
2004-11-10,42.2543
2004-11-11,42.3048
2004-11-12,42.532
2004-11-15,43.4156
2004-11-16,43.4241
2004-11-17,44.1394
2004-11-18,44.232
2004-11-19,43.7102
2004-11-22,43.6255
2004-11-23,43.617
2004-11-24,44.0907
2004-11-26,43.9384
2004-11-29,43.8708
2004-11-30,43.8877
2004-12-01,44.725
2004-12-02,44.4713
2004-12-03,44.3275
2004-12-06,44.6573
2004-12-07,43.8285
2004-12-08,45.4186
2004-12-09,45.8414
2004-12-10,46.5265
2004-12-13,45.8837
2004-12-14,45.3763
2004-12-15,46.3151
2004-12-16,45.9429
2004-12-17,45.3255
2004-12-20,45.6977
2004-12-21,45.7061
2004-12-22,45.6131
2004-12-23,46.0952
2004-12-27,45.7315
2004-12-28,46.2051
2004-12-29,46.2474
2004-12-30,46.2643
2004-12-31,46.2643
2005-01-03,45.0295
2005-01-04,44.4628
2005-01-05,44.3444
2005-01-06,44.4967
2005-01-07,44.7081
2005-01-10,44.8688
2005-01-11,45.038
2005-01-12,45.1987
2005-01-13,45.2663
2005-01-14,46.0698
2005-01-18,46.3405
2005-01-19,46.4504
2005-01-20,46.1121
2005-01-21,46.1375
2005-01-24,46.0275
2005-01-25,46.3151
2005-01-26,46.5688
2005-01-27,46.7718
2005-01-28,47.33
2005-01-31,47.7614
2005-02-01,47.0763
2005-02-02,47.7529
2005-02-03,47.9813
2005-02-04,48.5733
2005-02-07,48.6748
2005-02-08,48.6325
2005-02-09,48.4295
2005-02-10,48.1927
2005-02-11,48.3957
2005-02-14,48.1927
2005-02-15,47.8713
2005-02-16,48.328
2005-02-17,48.328
2005-02-18,48.328
2005-02-22,47.0509
2005-02-23,47.7143
2005-02-24,48.9726
2005-02-25,49.7719
2005-02-28,49.1597
2005-03-01,48.7941
2005-03-02,49.4063
2005-03-03,49.4828
2005-03-04,50.7156
2005-03-07,50.0524
2005-03-08,49.9929
2005-03-09,49.4063
2005-03-10,48.7856
2005-03-11,49.0237
2005-03-14,48.9046
2005-03-15,48.6411
2005-03-16,48.1139
2005-03-17,48.0459
2005-03-18,47.6888
2005-03-21,47.6463
2005-03-22,48.0204
2005-03-23,47.6888
2005-03-24,47.8248
2005-03-28,48.4795
2005-03-29,47.3997
2005-03-30,47.5783
2005-03-31,48.352
2005-04-01,48.8026
2005-04-04,48.4285
2005-04-05,48.6836
2005-04-06,48.6581
2005-04-07,48.7941
2005-04-08,48.6836
2005-04-11,48.7346
2005-04-12,48.386
2005-04-13,47.9439
2005-04-14,47.4508
2005-04-15,45.7503
2005-04-18,45.9799
2005-04-19,45.8693
2005-04-20,45.1211
2005-04-21,45.6143
2005-04-22,45.1807
2005-04-25,45.6483
2005-04-26,45.2317
2005-04-27,44.7641
2005-04-28,45.2657
2005-04-29,45.0701
2005-05-02,47.0511
2005-05-03,47.0767
2005-05-04,47.5528
2005-05-05,47.5783
2005-05-06,47.9864
2005-05-09,48.1479
2005-05-10,47.7143
2005-05-11,47.4848
2005-05-12,46.3965
2005-05-13,46.609
2005-05-16,47.7993
2005-05-17,48.6156
2005-05-18,49.4998
2005-05-19,49.3722
2005-05-20,49.6528
2005-05-23,50.6901
2005-05-24,51.0557
2005-05-25,50.4405
2005-05-26,51.3034
2005-05-27,51.5768
2005-05-31,51.1924
2005-06-01,51.5341
2005-06-02,51.6622
2005-06-03,51.312
2005-06-06,52.0125
2005-06-07,52.8156
2005-06-08,52.1749
2005-06-09,52.9865
2005-06-10,52.9181
2005-06-13,53.0719
2005-06-14,53.5674
2005-06-15,54.1655
2005-06-16,55.2249
2005-06-17,56.1732
2005-06-20,55.5581
2005-06-21,54.9258
2005-06-22,54.6354
2005-06-23,54.0032
2005-06-24,54.0544
2005-06-27,54.5499
2005-06-28,54.9942
2005-06-29,55.1736
2005-06-30,55.4812
2005-07-01,55.353
2005-07-05,55.8913
2005-07-06,56.2672
2005-07-07,55.8656
2005-07-08,57.0788
2005-07-11,57.6939
2005-07-12,57.0104
2005-07-13,56.8054
2005-07-14,56.831
2005-07-15,56.8994
2005-07-18,57.019
2005-07-19,57.0703
2005-07-20,59.5564
2005-07-21,59.095
2005-07-22,59.2659
2005-07-25,59.1378
2005-07-26,60.3339
2005-07-27,59.8469
2005-07-28,61.5641
2005-07-29,60.1117
2005-08-01,61.5812
2005-08-02,61.5043
2005-08-03,60.9148
2005-08-04,60.4278
2005-08-05,59.4282
2005-08-08,59.4026
2005-08-09,60.1459
2005-08-10,59.7956
2005-08-11,60.1373
2005-08-12,59.6418
2005-08-15,59.4624
2005-08-16,58.9242
2005-08-17,58.8131
2005-08-18,57.9161
2005-08-19,57.7537
2005-08-22,57.7196
2005-08-23,57.5054
2005-08-24,56.8962
2005-08-25,56.8447
2005-08-26,56.3813
2005-08-29,56.5186
2005-08-30,56.0896
2005-08-31,61.6153
2005-09-01,60.2425
2005-09-02,60.0366
2005-09-06,60.7401
2005-09-07,60.8603
2005-09-08,59.9937
2005-09-09,60.6543
2005-09-12,60.6629
2005-09-13,59.9937
2005-09-14,60.0194
2005-09-15,60.4398
2005-09-16,60.9461
2005-09-19,60.2682
2005-09-20,59.1099
2005-09-21,59.599
2005-09-22,61.1091
2005-09-23,60.9804
2005-09-26,61.3493
2005-09-27,62.9882
2005-09-28,62.5163
2005-09-29,63.4515
2005-09-30,63.7089
2005-10-03,65.0303
2005-10-04,62.9281
2005-10-05,61.0405
2005-10-06,59.599
2005-10-07,59.9593
2005-10-10,58.8696
2005-10-11,58.9297
2005-10-12,58.166
2005-10-13,58.2175
2005-10-14,58.801
2005-10-17,59.1099
2005-10-18,58.638
2005-10-19,59.4703
2005-10-20,57.5826
2005-10-21,57.7885
2005-10-24,59.23
2005-10-25,57.7456
2005-10-26,58.1403
2005-10-27,56.1239
2005-10-28,54.4937
2005-10-31,55.7979
2005-11-01,56.5873
2005-11-02,58.5951
2005-11-03,58.0631
2005-11-04,57.5483
2005-11-07,57.574
2005-11-08,55.6949
2005-11-09,54.7425
2005-11-10,56.0982
2005-11-11,55.9266
2005-11-14,55.9266
2005-11-15,55.6434
2005-11-16,56.1411
2005-11-17,57.5054
2005-11-18,57.9086
2005-11-21,57.5297
2005-11-22,58.3915
2005-11-23,57.8399
2005-11-25,58.3484
2005-11-28,57.3488
2005-11-29,57.6504
2005-11-30,57.5297
2005-12-01,59.5979
2005-12-02,59.8995
2005-12-05,58.6155
2005-12-06,59.1929
2005-12-07,58.9171
2005-12-08,59.0378
2005-12-09,59.0895
2005-12-12,59.3738
2005-12-13,59.7961
2005-12-14,63.2603
2005-12-15,61.261
2005-12-16,60.6061
2005-12-19,59.3221
2005-12-20,59.1153
2005-12-21,60.0288
2005-12-22,60.0632
2005-12-23,59.8995
2005-12-27,59.7358
2005-12-28,58.8913
2005-12-29,58.9085
2005-12-30,58.3484
2006-01-03,59.1929
2006-01-04,58.4776
2006-01-05,59.0808
2006-01-06,60.2442
2006-01-09,60.1063
2006-01-10,60.8216
2006-01-11,60.2528
2006-01-12,58.7879
2006-01-13,58.6931
2006-01-17,58.6931
2006-01-18,59.641
2006-01-19,59.8823
2006-01-20,58.4001
2006-01-23,59.2877
2006-01-24,59.7616
2006-01-25,59.7358
2006-01-26,62.2865
2006-01-27,61.9763
2006-01-30,62.4933
2006-01-31,61.8384
2006-02-01,66.6383
2006-02-02,65.6645
2006-02-03,64.1651
2006-02-06,69.1977
2006-02-07,66.9744
2006-02-08,66.0868
2006-02-09,68.0516
2006-02-10,67.0261
2006-02-13,66.0523
2006-02-14,67.3794
2006-02-15,67.8189
2006-02-16,67.9568
2006-02-17,67.0778
2006-02-21,66.6124
2006-02-22,67.7639
2006-02-23,68.8376
2006-02-24,69.132
2006-02-27,69.2965
2006-02-28,68.3267
2006-03-01,69.2446
2006-03-02,69.1233
2006-03-03,68.803
2006-03-06,67.7379
2006-03-07,66.7941
2006-03-08,66.8287
2006-03-09,66.9759
2006-03-10,67.1491
2006-03-13,67.5128
2006-03-14,68.7164
2006-03-15,73.6259
2006-03-16,73.8337
2006-03-17,74.9421
2006-03-20,74.2753
2006-03-21,73.9203
2006-03-22,74.6217
2006-03-23,75.2105
2006-03-24,74.968
2006-03-27,74.7083
2006-03-28,74.5264
2006-03-29,75.0719
2006-03-30,76.0677
2006-03-31,75.0286
2006-04-03,77.0288
2006-04-04,78.2324
2006-04-05,80.7435
2006-04-06,79.7044
2006-04-07,77.0462
2006-04-10,77.6609
2006-04-11,75.7213
2006-04-12,76.1716
2006-04-13,78.8212
2006-04-17,78.6307
2006-04-18,80.8214
2006-04-19,80.8733
2006-04-20,80.7002
2006-04-21,80.8474
2006-04-24,79.6525
2006-04-25,79.7823
2006-04-26,75.756
2006-04-27,74.2667
2006-04-28,73.5999
2006-05-01,74.2753
2006-05-02,74.8988
2006-05-03,74.3359
2006-05-04,75.0893
2006-05-05,76.1716
2006-05-08,76.2495
2006-05-09,75.1932
2006-05-10,75.6607
2006-05-11,75.1412
2006-05-12,72.5609
2006-05-15,71.3054
2006-05-16,72.0327
2006-05-17,69.3052
2006-05-18,69.0887
2006-05-19,69.2878
2006-05-22,67.7639
2006-05-23,67.8591
2006-05-24,67.0679
2006-05-25,68.8253
2006-05-26,69.4778
2006-05-30,67.7552
2006-05-31,67.9553
2006-06-01,70.3913
2006-06-02,71.2178
2006-06-05,68.5034
2006-06-06,67.3463
2006-06-07,66.1979
2006-06-08,65.0843
2006-06-09,64.919
2006-06-12,63.6401
2006-06-13,61.9088
2006-06-14,62.1872
2006-06-15,63.9881
2006-06-16,62.9789
2006-06-19,63.3617
2006-06-20,63.3617
2006-06-21,65.3366
2006-06-22,65.3888
2006-06-23,66.3371
2006-06-26,66.6155
2006-06-27,65.7455
2006-06-28,65.2235
2006-06-29,67.6508
2006-06-30,68.0423
2006-07-03,68.486
2006-07-05,67.1027
2006-07-06,67.442
2006-07-07,66.0761
2006-07-10,65.2235
2006-07-11,64.6319
2006-07-12,63.1703
2006-07-13,60.9692
2006-07-14,60.0384
2006-07-17,59.8557
2006-07-18,59.2119
2006-07-19,61.5
2006-07-20,59.2815
2006-07-21,58.3506
2006-07-24,60.9779
2006-07-25,61.4216
2006-07-26,60.482
2006-07-27,59.1945
2006-07-28,59.673
2006-07-31,58.2027
2006-08-01,61.3868
2006-08-02,62.1002
2006-08-03,63.1181
2006-08-04,64.3709
2006-08-07,65.615
2006-08-08,63.875
2006-08-09,61.7957
2006-08-10,62.3699
2006-08-11,62.2655
2006-08-14,62.4917
2006-08-15,64.1447
2006-08-16,65.5628
2006-08-17,65.5106
2006-08-18,66.4589
2006-08-21,65.5976
2006-08-22,66.6503
2006-08-23,66.3093
2006-08-24,66.4928
2006-08-25,66.6939
2006-08-28,67.8217
2006-08-29,67.5594
2006-08-30,67.8129
2006-08-31,68.7221
2006-09-01,69.369
2006-09-05,68.8445
2006-09-06,67.6556
2006-09-07,67.2097
2006-09-08,67.9266
2006-09-11,67.3234
2006-09-12,68.1976
2006-09-13,68.7571
2006-09-14,68.591
2006-09-15,68.0227
2006-09-18,67.5157
2006-09-19,66.2568
2006-09-20,66.5366
2006-09-21,65.741
2006-09-22,66.1694
2006-09-25,66.3268
2006-09-26,67.2534
2006-09-27,68.1276
2006-09-28,69.5613
2006-09-29,68.3637
2006-10-02,68.521
2006-10-03,67.7867
2006-10-04,69.2466
2006-10-05,69.8673
2006-10-06,70.0771
2006-10-09,69.9897
2006-10-10,71.1699
2006-10-11,71.2049
2006-10-12,72.7872
2006-10-13,72.2364
2006-10-16,72.5861
2006-10-17,71.9042
2006-10-18,72.3064
2006-10-19,73.6614
2006-10-20,69.369
2006-10-23,69.2379
2006-10-24,70.2345
2006-10-25,70.0509
2006-10-26,70.1908
2006-10-27,70.3744
2006-10-30,69.3253
2006-10-31,71.1174
2006-11-01,70.9951
2006-11-02,71.2049
2006-11-03,70.8902
2006-11-06,72.1228
2006-11-07,71.913
2006-11-08,74.3958
2006-11-09,76.2229
2006-11-10,76.6338
2006-11-13,77.5167
2006-11-14,78.3822
2006-11-15,78.9329
2006-11-16,79.1777
2006-11-17,78.828
2006-11-20,77.5342
2006-11-21,77.7527
2006-11-22,78.0862
2006-11-24,77.8843
2006-11-27,76.3743
2006-11-28,76.1285
2006-11-29,76.8835
2006-11-30,77.8053
2006-12-01,77.1732
2006-12-04,78.1476
2006-12-05,78.569
2006-12-06,79.2274
2006-12-07,79.3591
2006-12-08,79.6224
2006-12-11,80.0965
2006-12-12,79.0694
2006-12-13,80.0087
2006-12-14,79.9824
2006-12-15,79.8068
2006-12-18,79.9034
2006-12-19,80.3511
2006-12-20,79.324
2006-12-21,78.6392
2006-12-22,77.7438
2006-12-26,78.6743
2006-12-27,79.8946
2006-12-28,79.5961
2006-12-29,78.8938
2007-01-03,78.9553
2007-01-04,78.7533
2007-01-05,77.4629
2007-01-08,78.0423
2007-01-09,78.8587
2007-01-10,79.0782
2007-01-11,80.5442
2007-01-12,81.6854
2007-01-16,83.0724
2007-01-17,84.1171
2007-01-18,83.8801
2007-01-19,84.9774
2007-01-22,84.2839
2007-01-23,87.7954
2007-01-24,89.3316
2007-01-25,88.4713
2007-01-26,88.287
2007-01-29,88.3309
2007-01-30,88.761
2007-01-31,89.3316
2007-02-01,90.6572
2007-02-02,90.4202
2007-02-05,92.5007
2007-02-06,93.8
2007-02-07,94.0194
2007-02-08,95.8893
2007-02-09,95.9332
2007-02-12,94.8973
2007-02-13,97.7943
2007-02-14,98.1191
2007-02-15,98.5053
2007-02-16,98.1542
2007-02-20,97.566
2007-02-21,107.457
2007-02-22,105.341
2007-02-23,105.676
2007-02-26,105.553
2007-02-27,100.722
2007-02-28,102.952
2007-03-01,104.301
2007-03-02,103.587
2007-03-05,99.9902
2007-03-06,101.163
2007-03-07,103.358
2007-03-08,105.597
2007-03-09,104.574
2007-03-12,105.173
2007-03-13,102.115
2007-03-14,101.542
2007-03-15,103.269
2007-03-16,101.11
2007-03-19,101.709
2007-03-20,103.384
2007-03-21,105.482
2007-03-22,105.306
2007-03-23,104.865
2007-03-26,104.239
2007-03-27,103.172
2007-03-28,102.185
2007-03-29,103.102
2007-03-30,102.582
2007-04-02,102.062
2007-04-03,104.645
2007-04-04,104.036
2007-04-05,104.38
2007-04-09,104.098
2007-04-10,104.9
2007-04-11,102.317
2007-04-12,102.256
2007-04-13,100.642
2007-04-16,103.014
2007-04-17,101.365
2007-04-18,99.999
2007-04-19,100.246
2007-04-20,102.996
2007-04-23,103.931
2007-04-24,103.622
2007-04-25,105.658
2007-04-26,107.113
2007-04-27,107.774
2007-04-30,109.176
2007-05-01,101.762
2007-05-02,102.917
2007-05-03,104.459
2007-05-04,104.274
2007-05-07,104.697
2007-05-08,104.248
2007-05-09,103.031
2007-05-10,100.228
2007-05-11,101.312
2007-05-14,98.5269
2007-05-15,98.9764
2007-05-16,101.198
2007-05-17,100.986
2007-05-18,100.766
2007-05-21,101.947
2007-05-22,103.675
2007-05-23,103.808
2007-05-24,103.171
2007-05-25,103.835
2007-05-29,104.401
2007-05-30,106.153
2007-05-31,105.826
2007-06-01,107.525
2007-06-04,107.277
2007-06-05,106.26
2007-06-06,104.056
2007-06-07,100.622
2007-06-08,103.118
2007-06-11,103.454
2007-06-12,101.755
2007-06-13,104.144
2007-06-14,105.171
2007-06-15,106.994
2007-06-18,106.985
2007-06-19,105.286
2007-06-20,103.578
2007-06-21,105.755
2007-06-22,104.631
2007-06-25,102.879
2007-06-26,100.782
2007-06-27,102.534
2007-06-28,101.658
2007-06-29,101.251
2007-07-02,101.861
2007-07-03,101.702
2007-07-05,100.835
2007-07-06,102.374
2007-07-09,100.074
2007-07-10,97.1974
2007-07-11,97.746
2007-07-12,101.808
2007-07-13,101.436
2007-07-16,98.1974
2007-07-17,98.5248
2007-07-18,99.5514
2007-07-19,93.9141
2007-07-20,91.2326
2007-07-23,91.1529
2007-07-24,89.4892
2007-07-25,88.6396
2007-07-26,85.551
2007-07-27,84.8253
2007-07-30,84.0466
2007-07-31,84.7457
2007-08-01,85.3917
2007-08-02,85.7723
2007-08-03,83.0908
2007-08-06,84.6395
2007-08-07,84.3386
2007-08-08,87.436
2007-08-09,86.4094
2007-08-10,85.2678
2007-08-13,84.0554
2007-08-14,80.2677
2007-08-15,78.303
2007-08-16,76.0463
2007-08-17,78.1968
2007-08-20,78.1172
2007-08-21,77.1437
2007-08-22,80.7469
2007-08-23,79.1988
2007-08-24,81.5476
2007-08-27,80.907
2007-08-28,77.5796
2007-08-29,79.964
2007-08-30,78.8875
2007-08-31,80.044
2007-09-04,79.7149
2007-09-05,77.7042
2007-09-06,77.7754
2007-09-07,75.4711
2007-09-10,73.7985
2007-09-11,76.1562
2007-09-12,76.2451
2007-09-13,76.9213
2007-09-14,75.6579
2007-09-17,73.1135
2007-09-18,76.2362
2007-09-19,75.4444
2007-09-20,74.6704
2007-09-21,77.028
2007-09-24,76.4142
2007-09-25,75.4889
2007-09-26,75.649
2007-09-27,79.4035
2007-09-28,79.1099
2007-10-01,81.4052
2007-10-02,84.4123
2007-10-03,84.4301
2007-10-04,83.2024
2007-10-05,84.4301
2007-10-08,83.8074
2007-10-09,82.7309
2007-10-10,81.8234
2007-10-11,80.5156
2007-10-12,81.9746
2007-10-15,82.3483
2007-10-16,80.1241
2007-10-17,79.9195
2007-10-18,77.5974
2007-10-19,76.2718
2007-10-22,76.0227
2007-10-23,75.6401
2007-10-24,76.6722
2007-10-25,77.1081
2007-10-26,78.327
2007-10-29,78.7006
2007-10-30,76.7255
2007-10-31,75.8448
2007-11-01,73.6829
2007-11-02,73.7273
2007-11-05,71.7167
2007-11-06,75.3821
2007-11-07,71.2719
2007-11-08,70.7025
2007-11-09,71.9836
2007-11-12,71.9925
2007-11-13,74.448
2007-11-14,73.9498
2007-11-15,74.1277
2007-11-16,73.7007
2007-11-19,71.9925
2007-11-20,72.464
2007-11-21,72.7302
2007-11-23,73.106
2007-11-26,71.9339
2007-11-27,73.2133
2007-11-28,77.2395
2007-11-29,78.1879
2007-11-30,79.1989
2007-12-03,78.4294
2007-12-04,74.7612
2007-12-05,75.3785
2007-12-06,78.9573
2007-12-07,78.5457
2007-12-10,79.9415
2007-12-11,75.8527
2007-12-12,75.8527
2007-12-13,75.4053
2007-12-14,72.936
2007-12-17,71.755
2007-12-18,72.6676
2007-12-19,72.4886
2007-12-20,72.0234
2007-12-21,72.8107
2007-12-24,72.7212
2007-12-26,72.1039
2007-12-27,70.2608
2007-12-28,69.3035
2007-12-31,70.735
2008-01-02,68.4088
2008-01-03,66.4047
2008-01-04,63.5237
2008-01-07,63.4611
2008-01-08,60.4996
2008-01-09,61.1617
2008-01-10,60.4012
2008-01-11,61.4301
2008-01-14,63.5864
2008-01-15,62.6559
2008-01-16,63.7027
2008-01-17,59.7213
2008-01-18,59.086
2008-01-22,59.2918
2008-01-23,61.788
2008-01-24,63.5237
2008-01-25,63.148
2008-01-28,65.8052
2008-01-29,67.5409
2008-01-30,66.181
2008-01-31,70.1535
2008-02-01,69.2051
2008-02-04,67.532
2008-02-05,62.3606
2008-02-06,62.4322
2008-02-07,63.2464
2008-02-08,62.7811
2008-02-11,62.1369
2008-02-12,60.9917
2008-02-13,62.8706
2008-02-14,59.8555
2008-02-15,59.6497
2008-02-19,59.4618
2008-02-20,61.3764
2008-02-21,60.961
2008-02-22,61.4926
2008-02-25,62.9434
2008-02-26,64.4933
2008-02-27,64.3402
2008-02-28,64.6195
2008-02-29,63.1327
2008-03-03,64.241
2008-03-04,64.178
2008-03-05,63.4481
2008-03-06,60.2761
2008-03-07,59.0326
2008-03-10,56.7888
2008-03-11,59.2578
2008-03-12,59.429
2008-03-13,59.2668
2008-03-14,59.0055
2008-03-17,57.9692
2008-03-18,60.6906
2008-03-19,58.1675
2008-03-20,59.4651
2008-03-24,63.394
2008-03-25,61.6909
2008-03-26,59.9697
2008-03-27,60.4383
2008-03-28,59.5462
2008-03-31,59.8526
2008-04-01,64.205
2008-04-02,62.7001
2008-04-03,63.2859
2008-04-04,63.5742
2008-04-07,63.1867
2008-04-08,63.421
2008-04-09,62.628
2008-04-10,63.5472
2008-04-11,63.7454
2008-04-14,61.3755
2008-04-15,62.0964
2008-04-16,63.2768
2008-04-17,64.6285
2008-04-18,65.1782
2008-04-21,64.5925
2008-04-22,62.1324
2008-04-23,60.0778
2008-04-24,60.3031
2008-04-25,60.6185
2008-04-28,61.7359
2008-04-29,61.817
2008-04-30,62.0513
2008-05-01,61.6368
2008-05-02,61.9522
2008-05-05,60.3932
2008-05-06,58.8073
2008-05-07,58.4018
2008-05-08,58.6451
2008-05-09,59.8165
2008-05-12,63.5652
2008-05-13,64.9349
2008-05-14,65.3494
2008-05-15,67.4941
2008-05-16,69.7289
2008-05-19,74.7031
2008-05-20,73.4956
2008-05-21,70.4858
2008-05-22,68.5193
2008-05-23,67.4402
2008-05-27,68.9637
2008-05-28,69.4806
2008-05-29,69.0453
2008-05-30,69.9249
2008-06-02,70.2332
2008-06-03,67.1863
2008-06-04,66.4064
2008-06-05,67.4946
2008-06-06,64.3752
2008-06-09,64.6472
2008-06-10,65.3545
2008-06-11,62.3167
2008-06-12,62.4164
2008-06-13,62.8154
2008-06-16,63.0784
2008-06-17,61.5912
2008-06-18,60.2491
2008-06-19,60.0134
2008-06-20,57.8733
2008-06-23,57.3564
2008-06-24,56.9211
2008-06-25,57.2657
2008-06-26,54.9986
2008-06-27,54.917
2008-06-30,54.2913
2008-07-01,52.8041
2008-07-02,51.0902
2008-07-03,51.2263
2008-07-07,49.5215
2008-07-08,51.4076
2008-07-09,50.3013
2008-07-10,47.9073
2008-07-11,45.7128
2008-07-14,46.3385
2008-07-15,49.3492
2008-07-16,54.518
2008-07-17,57.6919
2008-07-18,57.1297
2008-07-21,55.0349
2008-07-22,57.6919
2008-07-23,59.0975
2008-07-24,55.8239
2008-07-25,55.6606
2008-07-28,54.4092
2008-07-29,56.4133
2008-07-30,59.3877
2008-07-31,57.302
2008-08-01,58.4264
2008-08-04,57.1387
2008-08-05,60.4396
2008-08-06,61.9993
2008-08-07,62.0628
2008-08-08,61.9268
2008-08-11,61.8723
2008-08-12,62.226
2008-08-13,62.8336
2008-08-14,67.1682
2008-08-15,66.9868
2008-08-18,66.0528
2008-08-19,64.1757
2008-08-20,67.4584
2008-08-21,67.6488
2008-08-22,67.5128
2008-08-25,64.8363
2008-08-26,65.2926
2008-08-27,67.9945
2008-08-28,70.0301
2008-08-29,68.2866
2008-09-02,68.88
2008-09-03,70.2765
2008-09-04,68.1406
2008-09-05,68.6426
2008-09-08,71.1985
2008-09-09,67.1821
2008-09-10,66.2328
2008-09-11,67.173
2008-09-12,68.4144
2008-09-15,67.0817
2008-09-16,65.6486
2008-09-17,66.4702
2008-09-18,70.45
2008-09-19,75.7625
2008-09-22,69.4915
2008-09-23,72.8506
2008-09-24,71.9013
2008-09-25,72.6224
2008-09-26,71.8648
2008-09-29,68.4874
2008-09-30,67.0361
2008-10-01,65.0279
2008-10-02,63.0745
2008-10-03,58.9487
2008-10-06,54.9232
2008-10-07,54.5033
2008-10-08,57.1778
2008-10-09,52.1666
2008-10-10,50.8886
2008-10-13,51.1625
2008-10-14,50.8065
2008-10-15,46.8084
2008-10-16,47.5752
2008-10-17,49.9941
2008-10-20,51.2355
2008-10-21,48.634
2008-10-22,45.9504
2008-10-23,46.0508
2008-10-24,44.1704
2008-10-27,40.4918
2008-10-28,43.2303
2008-10-29,44.4899
2008-10-30,45.2202
2008-10-31,49.3278
2008-11-03,49.9302
2008-11-04,53.5449
2008-11-05,51.3724
2008-11-06,49.7477
2008-11-07,52.3948
2008-11-10,53.0976
2008-11-11,48.9992
2008-11-12,48.5701
2008-11-13,51.8653
2008-11-14,48.8896
2008-11-17,46.1056
2008-11-18,46.0052
2008-11-19,41.1491
2008-11-20,37.4613
2008-11-21,36.6946
2008-11-24,43.5741
2008-11-25,49.3766
2008-11-26,57.221
2008-11-28,55.4193
2008-12-01,52.2224
2008-12-02,56.8884
2008-12-03,58.801
2008-12-04,59.5217
2008-12-05,61.3234
2008-12-08,66.4145
2008-12-09,64.428
2008-12-10,64.6405
2008-12-11,59.6603
2008-12-12,62.6632
2008-12-15,60.7691
2008-12-16,64.2524
2008-12-17,62.6355
2008-12-18,61.0832
2008-12-19,62.2197
2008-12-22,62.3952
2008-12-23,61.4343
2008-12-24,60.8245
2008-12-26,62.4414
2008-12-29,62.1458
2008-12-30,64.2154
2008-12-31,64.4187
2009-01-02,64.3818
2009-01-05,64.4002
2009-01-06,61.8224
2009-01-07,58.9489
2009-01-08,58.2189
2009-01-09,56.5743
2009-01-12,52.9154
2009-01-13,53.673
2009-01-14,51.5849
2009-01-15,52.4626
2009-01-16,54.1812
2009-01-20,49.8755
2009-01-21,49.506
2009-01-22,48.4342
2009-01-23,49.0347
2009-01-26,46.6694
2009-01-27,48.5912
2009-01-28,49.3212
2009-01-29,46.8727
2009-01-30,45.5514
2009-02-02,44.5905
2009-02-03,46.8357
2009-02-04,47.5656
2009-02-05,47.0297
2009-02-06,47.3993
2009-02-09,45.3574
2009-02-10,43.879
2009-02-11,41.4028
2009-02-12,43.8513
2009-02-13,42.4192
2009-02-17,40.793
2009-02-18,39.5271
2009-02-19,37.6053
2009-02-20,37.3374
2009-02-23,36.6167
2009-02-24,38.7048
2009-02-25,39.471
2009-02-26,40.1909
2009-02-27,38.5828
2009-03-02,38.1061
2009-03-03,36.9561
2009-03-04,37.0122
2009-03-05,34.5254
2009-03-06,33.441
2009-03-09,32.3097
2009-03-10,33.9738
2009-03-11,34.488
2009-03-12,34.7311
2009-03-13,37.0122
2009-03-16,37.2647
2009-03-17,38.4146
2009-03-18,37.9845
2009-03-19,37.1338
2009-03-20,36.1147
2009-03-23,37.9471
2009-03-24,38.3865
2009-03-25,41.0229
2009-03-26,42.9955
2009-03-27,41.509
2009-03-30,41.4249
2009-03-31,41.481
2009-04-01,42.9488
2009-04-02,44.295
2009-04-03,45.0897
2009-04-06,43.3975
2009-04-07,40.7331
2009-04-08,41.1164
2009-04-09,43.865
2009-04-13,44.2202
2009-04-14,43.9398
2009-04-15,45.4169
2009-04-16,49.1284
2009-04-17,48.8012
2009-04-20,45.8189
2009-04-21,45.903
2009-04-22,46.0152
2009-04-23,46.3798
2009-04-24,48.0439
2009-04-27,47.2025
2009-04-28,47.4082
2009-04-29,46.8753
2009-04-30,44.5474
2009-05-01,42.3598
2009-05-04,47.2119
2009-05-05,45.1084
2009-05-06,46.4453
2009-05-07,44.1641
2009-05-08,44.3885
2009-05-11,43.3788
2009-05-12,43.0142
2009-05-13,39.6393
2009-05-14,38.7792
2009-05-15,38.5548
2009-05-18,40.5929
2009-05-19,40.1441
2009-05-20,39.5832
2009-05-21,38.3061
2009-05-22,38.0791
2009-05-26,39.5262
2009-05-27,38.6277
2009-05-28,39.6492
2009-05-29,41.8719
2009-06-01,45.135
2009-06-02,45.6079
2009-06-03,43.6595
2009-06-04,43.7352
2009-06-05,43.5649
2009-06-08,42.2408
2009-06-09,42.2029
2009-06-10,41.6165
2009-06-11,40.4058
2009-06-12,44.577
2009-06-15,43.5176
2009-06-16,42.8555
2009-06-17,41.7584
2009-06-18,41.0868
2009-06-19,41.0963
2009-06-22,40.6518
2009-06-23,40.9544
2009-06-24,41.2476
2009-06-25,42.5623
2009-06-26,42.0232
2009-06-29,41.0112
2009-06-30,40.718
2009-07-01,40.4058
2009-07-02,40.7463
2009-07-06,41.3422
2009-07-07,38.7885
2009-07-08,39.5641
2009-07-09,40.2451
2009-07-10,38.5899
2009-07-13,39.0344
2009-07-14,38.7696
2009-07-15,39.8005
2009-07-16,39.8951
2009-07-17,39.8384
2009-07-20,40.8598
2009-07-21,40.2545
2009-07-22,42.08
2009-07-23,44.1986
2009-07-24,44.8891
2009-07-27,44.9837
2009-07-28,45.7876
2009-07-29,43.7825
2009-07-30,44.8323
2009-07-31,44.8891
2009-08-03,45.2296
2009-08-04,46.8186
2009-08-05,46.8848
2009-08-06,46.1281
2009-08-07,47.6887
2009-08-10,46.6389
2009-08-11,45.6836
2009-08-12,46.4686
2009-08-13,46.5821
2009-08-14,45.3431
2009-08-17,43.6879
2009-08-18,44.558
2009-08-19,45.3715
2009-08-20,45.6079
2009-08-21,46.9888
2009-08-24,46.1616
2009-08-25,46.5799
2009-08-26,46.637
2009-08-27,47.0552
2009-08-28,48.4526
2009-08-31,47.5971
2009-09-01,46.637
2009-09-02,45.943
2009-09-03,46.1141
2009-09-04,46.751
2009-09-08,48.6713
2009-09-09,49.6884
2009-09-10,50.4299
2009-09-11,52.4547
2009-09-14,52.0744
2009-09-15,53.5574
2009-09-16,57.645
2009-09-17,56.9891
2009-09-18,54.6601
2009-09-21,53.8711
2009-09-22,53.9471
2009-09-23,52.8635
2009-09-24,51.2379
2009-09-25,50.4394
2009-09-28,51.8558
2009-09-29,51.9509
2009-09-30,51.352
2009-10-01,47.9488
2009-10-02,47.5305
2009-10-05,47.8442
2009-10-06,49.3177
2009-10-07,48.7283
2009-10-08,49.9166
2009-10-09,49.2511
2009-10-12,49.1656
2009-10-13,48.985
2009-10-14,48.7568
2009-10-15,50.8006
2009-10-16,49.8405
2009-10-19,50.5535
2009-10-20,51.0953
2009-10-21,49.7645
2009-10-22,49.888
2009-10-23,48.3005
2009-10-26,46.751
2009-10-27,45.905
2009-10-28,44.3365
2009-10-29,45.3251
2009-10-30,43.7376
2009-11-02,44.7928
2009-11-03,42.806
2009-11-04,43.3764
2009-11-05,44.6787
2009-11-06,45.5913
2009-11-09,46.2852
2009-11-10,45.8765
2009-11-11,46.2377
2009-11-12,45.2586
2009-11-13,45.905
2009-11-16,47.6731
2009-11-17,47.9013
2009-11-18,47.7587
2009-11-19,47.0172
2009-11-20,47.3309
2009-11-23,48.2864
2009-11-24,47.6845
2009-11-25,47.7514
2009-11-27,46.5189
2009-11-30,46.3374
2009-12-01,46.366
2009-12-02,47.2546
2009-12-03,46.3469
2009-12-04,46.796
2009-12-07,46.3947
2009-12-08,45.9456
2009-12-09,45.5921
2009-12-10,45.4106
2009-12-11,45.7163
2009-12-14,46.3183
2009-12-15,46.0125
2009-12-16,46.7291
2009-12-17,46.6718
2009-12-18,47.4934
2009-12-21,48.9743
2009-12-22,50.5125
2009-12-23,50.4934
2009-12-24,51.1431
2009-12-28,50.9042
2009-12-29,51.2099
2009-12-30,51.1813
2009-12-31,50.3501
2010-01-04,50.4074
2010-01-05,50.5125
2010-01-06,51.401
2010-01-07,50.7418
2010-01-08,50.331
2010-01-11,49.8915
2010-01-12,49.7482
2010-01-13,50.4361
2010-01-14,50.2354
2010-01-15,48.831
2010-01-19,49.4902
2010-01-20,48.6399
2010-01-21,46.28
2010-01-22,44.9042
2010-01-25,44.6941
2010-01-26,44.8374
2010-01-27,44.1399
2010-01-28,43.1845
2010-01-29,42.1718
2010-02-01,42.8979
2010-02-02,43.7769
2010-02-03,43.0508
2010-02-04,41.4074
2010-02-05,41.6559
2010-02-08,41.5699
2010-02-09,40.6718
2010-02-10,40.8915
2010-02-11,41.1208
2010-02-12,40.9871
2010-02-16,42.5253
2010-02-17,42.3629
2010-02-18,42.5157
2010-02-19,43.4807
2010-02-22,43.71
2010-02-23,43.1558
2010-02-24,43.1173
2010-02-25,42.7331
2010-02-26,41.7147
2010-03-01,41.3304
2010-03-02,41.071
2010-03-03,42.2143
2010-03-04,42.1086
2010-03-05,43.3383
2010-03-08,44.1549
2010-03-09,43.9051
2010-03-10,43.6361
2010-03-11,43.7706
2010-03-12,43.4824
2010-03-15,43.6265
2010-03-16,44.6833
2010-03-17,47.7384
2010-03-18,46.4895
2010-03-19,46.6432
2010-03-22,47.6231
2010-03-23,48.19
2010-03-24,47.7576
2010-03-25,46.2589
2010-03-26,45.8938
2010-03-29,46.3742
2010-03-30,45.7401
2010-03-31,45.3943
2010-04-01,47.0947
2010-04-05,47.431
2010-04-06,46.893
2010-04-07,45.9899
2010-04-08,46.1148
2010-04-09,46.5279
2010-04-12,47.3637
2010-04-13,47.8729
2010-04-14,49.4677
2010-04-15,51.2066
2010-04-16,50.8512
2010-04-19,50.8224
2010-04-20,51.7062
2010-04-21,52.2634
2010-04-22,53.743
2010-04-23,55.0207
2010-04-26,55.6548
2010-04-27,53.1281
2010-04-28,53.7814
2010-04-29,55.9142
2010-04-30,55.0111
2010-05-03,56.481
2010-05-04,53.2914
2010-05-05,51.8984
2010-05-06,49.7944
2010-05-07,49.0931
2010-05-10,52.8591
2010-05-11,52.4556
2010-05-12,52.5036
2010-05-13,51.8311
2010-05-14,50.8031
2010-05-17,51.2066
2010-05-18,50.3996
2010-05-19,49.8616
2010-05-20,46.9602
2010-05-21,47.7865
2010-05-24,47.3445
2010-05-25,47.3061
2010-05-26,48.136
2010-05-27,50.1735
2010-05-28,48.7733
2010-06-01,48.1167
2010-06-02,49.2851
2010-06-03,49.6713
2010-06-04,46.2627
2010-06-07,44.3122
2010-06-08,44.5246
2010-06-09,43.8873
2010-06-10,45.1329
2010-06-11,45.4226
2010-06-14,45.2295
2010-06-15,46.1179
2010-06-16,46.0599
2010-06-17,45.6544
2010-06-18,45.8861
2010-06-21,46.9966
2010-06-22,45.1812
2010-06-23,45.3261
2010-06-24,44.4473
2010-06-25,44.4184
2010-06-28,44.1673
2010-06-29,42.7575
2010-06-30,42.3809
2010-07-01,42.2168
2010-07-02,41.9271
2010-07-06,42.7575
2010-07-07,42.1781
2010-07-08,42.3423
2010-07-09,42.97
2010-07-12,42.352
2010-07-13,43.6652
2010-07-14,43.501
2010-07-15,42.941
2010-07-16,41.7436
2010-07-19,41.676
2010-07-20,43.2403
2010-07-21,42.6223
2010-07-22,43.5976
2010-07-23,44.6018
2010-07-26,45.7509
2010-07-27,45.2681
2010-07-28,44.3508
2010-07-29,43.4431
2010-07-30,43.6362
2010-08-02,45.2005
2010-08-03,41.0291
2010-08-04,40.8166
2010-08-05,40.1697
2010-08-06,40.2179
2010-08-09,40.1504
2010-08-10,39.2137
2010-08-11,38.3446
2010-08-12,37.3694
2010-08-13,37.0604
2010-08-16,36.9348
2010-08-17,37.2728
2010-08-18,37.8039
2010-08-19,37.128
2010-08-20,37.5335
2010-08-23,36.9831
2010-08-24,35.9722
2010-08-25,36.5749
2010-08-26,36.6526
2010-08-27,37.4107
2010-08-30,36.4193
2010-08-31,35.7487
2010-09-01,36.5554
2010-09-02,37.2747
2010-09-03,37.4691
2010-09-07,37.1969
2010-09-08,37.1289
2010-09-09,37.022
2010-09-10,37.3524
2010-09-13,37.3719
2010-09-14,36.7984
2010-09-15,36.7304
2010-09-16,36.0792
2010-09-17,35.632
2010-09-20,35.5737
2010-09-21,36.7012
2010-09-22,35.7681
2010-09-23,34.7087
2010-09-24,35.4085
2010-09-27,35.1461
2010-09-28,35.7098
2010-09-29,35.8945
2010-09-30,35.8362
2010-10-01,36.4388
2010-10-04,35.8459
2010-10-05,36.604
2010-10-06,36.9248
2010-10-07,36.0306
2010-10-08,35.7292
2010-10-11,35.4765
2010-10-12,34.9906
2010-10-13,35.4765
2010-10-14,35.3891
2010-10-15,35.4863
2010-10-18,35.4765
2010-10-19,34.8836
2010-10-20,35.1752
2010-10-21,35.3793
2010-10-22,35.6612
2010-10-25,35.875
2010-10-26,35.6806
2010-10-27,35.2433
2010-10-28,35.2335
2010-10-29,35.5057
2010-11-01,35.1752
2010-11-02,38.4343
2010-11-03,38.033
2010-11-04,40.4309
2010-11-05,41.5368
2010-11-08,42.5253
2010-11-09,41.2041
2010-11-10,40.8909
2010-11-11,40.7343
2010-11-12,39.7849
2010-11-15,38.7475
2010-11-16,38.3462
2010-11-17,38.1015
2010-11-18,38.7377
2010-11-19,38.6888
2010-11-22,39.1292
2010-11-23,38.3658
2010-11-24,39.0313
2010-11-26,37.8373
2010-11-29,38.6105
2010-11-30,39.3054
2010-12-01,41.0181
2010-12-02,41.4292
2010-12-03,41.116
2010-12-06,40.7734
2010-12-07,41.3509
2010-12-08,41.3704
2010-12-09,41.5368
2010-12-10,42.3687
2010-12-13,43.8564
2010-12-14,46.3326
2010-12-15,45.4713
2010-12-16,46.313
2010-12-17,45.0309
2010-12-20,44.5219
2010-12-21,44.5611
2010-12-22,44.287
2010-12-23,43.827
2010-12-27,43.4551
2010-12-28,43.3866
2010-12-29,44.2087
2010-12-30,43.8662
2010-12-31,43.4355
2011-01-03,43.5236
2011-01-04,41.1845
2011-01-05,40.3134
2011-01-06,39.6381
2011-01-07,39.6283
2011-01-10,39.4815
2011-01-11,39.5892
2011-01-12,39.8339
2011-01-13,39.6283
2011-01-14,40.1666
2011-01-18,39.7262
2011-01-19,39.5011
2011-01-20,39.8143
2011-01-21,39.599
2011-01-24,41.1453
2011-01-25,41.3509
2011-01-26,42.1632
2011-01-27,42.2317
2011-01-28,40.8224
2011-01-31,41.6641
2011-02-01,42.1926
2011-02-02,41.9087
2011-02-03,42.4373
2011-02-04,41.987
2011-02-07,43.6704
2011-02-08,43.7977
2011-02-09,43.1028
2011-02-10,43.1321
2011-02-11,43.5334
2011-02-14,43.5138
2011-02-15,42.8092
2011-02-16,44.4828
2011-02-17,46.0096
2011-02-18,45.6964
2011-02-22,43.2398
2011-02-23,42.7377
2011-02-24,42.6589
2011-02-25,44.2633
2011-02-28,45.1393
2011-03-01,42.9247
2011-03-02,43.1904
2011-03-03,43.6334
2011-03-04,42.9542
2011-03-07,42.275
2011-03-08,43.3381
2011-03-09,43.2495
2011-03-10,41.6451
2011-03-11,41.4679
2011-03-14,41.9601
2011-03-15,42.3341
2011-03-16,41.3104
2011-03-17,41.7829
2011-03-18,42.3735
2011-03-21,42.9148
2011-03-22,42.2455
2011-03-23,42.3636
2011-03-24,44.0172
2011-03-25,44.5881
2011-03-28,44.096
2011-03-29,44.283
2011-03-30,44.9031
2011-03-31,44.9129
2011-04-01,45.5133
2011-04-04,45.1295
2011-04-05,45.3263
2011-04-06,45.4346
2011-04-07,45.0409
2011-04-08,44.2731
2011-04-11,43.8401
2011-04-12,43.2692
2011-04-13,43.0034
2011-04-14,42.7377
2011-04-15,42.9542
2011-04-18,41.8813
2011-04-19,41.6353
2011-04-20,42.088
2011-04-21,43.0034
2011-04-25,43.1609
2011-04-26,43.3085
2011-04-27,43.5349
2011-04-28,43.7023
2011-04-29,44.4405
2011-05-02,44.7653
2011-05-03,44.3913
2011-05-04,43.4857
2011-05-05,40.7789
2011-05-06,40.2966
2011-05-09,39.9226
2011-05-10,41.0742
2011-05-11,40.3163
2011-05-12,39.9718
2011-05-13,39.3222
2011-05-16,39.7257
2011-05-17,39.9128
2011-05-18,40.0702
2011-05-19,39.9817
2011-05-20,39.6175
2011-05-23,38.7612
2011-05-24,39.0761
2011-05-25,38.4816
2011-05-26,38.7391
2011-05-27,39.1452
2011-05-31,40.106
2011-06-01,38.6698
2011-06-02,38.5311
2011-06-03,37.4118
2011-06-06,37.3029
2011-06-07,37.2633
2011-06-08,36.9463
2011-06-09,37.0652
2011-06-10,36.6095
2011-06-13,37.2534
2011-06-14,38.3627
2011-06-15,37.4614
2011-06-16,37.6496
2011-06-17,38.5311
2011-06-20,38.6302
2011-06-21,39.2146
2011-06-22,38.7094
2011-06-23,38.2637
2011-06-24,37.9764
2011-06-27,37.8873
2011-06-28,38.0854
2011-06-29,38.1646
2011-06-30,38.1745
2011-07-01,39.3632
2011-07-05,39.175
2011-07-06,38.967
2011-07-07,39.3235
2011-07-08,37.6793
2011-07-11,36.7383
2011-07-12,36.5402
2011-07-13,36.5897
2011-07-14,35.5893
2011-07-15,35.3119
2011-07-18,34.579
2011-07-19,35.0544
2011-07-20,35.0742
2011-07-21,35.7973
2011-07-22,35.52
2011-07-25,35.4011
2011-07-26,35.1535
2011-07-27,34.1828
2011-07-28,33.5191
2011-07-29,33.9747
2011-08-01,33.222
2011-08-02,31.1617
2011-08-03,32.7465
2011-08-04,33.2715
2011-08-05,33.4399
2011-08-08,32.2711
2011-08-09,31.7956
2011-08-10,29.7849
2011-08-11,30.4188
2011-08-12,29.9632
2011-08-15,32.5385
2011-08-16,32.8852
2011-08-17,32.063
2011-08-18,29.5967
2011-08-19,29.2203
2011-08-22,29.7452
2011-08-23,31.548
2011-08-24,33.6042
2011-08-25,33.4944
2011-08-26,34.4328
2011-08-29,35.1217
2011-08-30,34.9419
2011-08-31,34.922
2011-09-01,34.1233
2011-09-02,32.3862
2011-09-06,34.922
2011-09-07,35.4811
2011-09-08,34.4428
2011-09-09,31.7373
2011-09-12,32.2864
2011-09-13,33.0251
2011-09-14,33.1449
2011-09-15,33.2048
2011-09-16,33.115
2011-09-19,31.2681
2011-09-20,30.7389
2011-09-21,29.9802
2011-09-22,28.6424
2011-09-23,28.8021
2011-09-26,29.7905
2011-09-27,30.1699
2011-09-28,29.4111
2011-09-29,28.8421
2011-09-30,27.6041
2011-10-03,26.1665
2011-10-04,27.4644
2011-10-05,28.3229
2011-10-06,29.0318
2011-10-07,27.9336
2011-10-10,29.8903
2011-10-11,30.9286
2011-10-12,31.4278
2011-10-13,31.3879
2011-10-14,32.0667
2011-10-17,30.09
2011-10-18,30.7589
2011-10-19,30.1898
2011-10-20,30.2398
2011-10-21,30.7789
2011-10-24,32.0268
2011-10-25,30.7489
2011-10-26,31.4977
2011-10-27,34.5825
2011-10-28,33.125
2011-10-31,31.2681
2011-11-01,30.2298
2011-11-02,30.8388
2011-11-03,31.1582
2011-11-04,30.4993
2011-11-07,30.2298
2011-11-08,31.328
2011-11-09,29.0517
2011-11-10,29.6807
2011-11-11,30.4494
2011-11-14,30.5093
2011-11-15,32.2165
2011-11-16,31.4777
2011-11-17,31.0884
2011-11-18,32.1266
2011-11-21,31.4675
2011-11-22,30.9083
2011-11-23,29.9795
2011-11-25,29.65
2011-11-28,29.8197
2011-11-29,30.4689
2011-11-30,32.3963
2011-12-01,32.2265
2011-12-02,32.6859
2011-12-05,32.8557
2011-12-06,33.8543
2011-12-07,34.1938
2011-12-08,32.4162
2011-12-09,33.5347
2011-12-12,38.6478
2011-12-13,38.6478
2011-12-14,37.9288
2011-12-15,38.5679
2011-12-16,38.6378
2011-12-19,38.1385
2011-12-20,38.2484
2011-12-21,38.8975
2011-12-22,39.1971
2011-12-23,39.4867
2011-12-27,39.5966
2011-12-28,38.6079
2011-12-29,39.1372
2011-12-30,39.3868
2012-01-03,39.5766
2012-01-04,39.2171
2012-01-05,39.5666
2012-01-06,39.237
2012-01-09,39.4368
2012-01-10,39.6565
2012-01-11,40.3555
2012-01-12,40.4454
2012-01-13,40.5952
2012-01-17,40.8748
2012-01-18,41.1544
2012-01-19,41.6238
2012-01-20,42.5825
2012-01-23,42.0432
2012-01-24,42.1831
2012-01-25,43.2716
2012-01-26,43.2117
2012-01-27,43.4314
2012-01-30,43.721
2012-01-31,43.8009
2012-02-01,43.9607
2012-02-02,43.9407
2012-02-03,44.7596
2012-02-06,45.1291
2012-02-07,45.7183
2012-02-08,45.8082
2012-02-09,47.3361
2012-02-10,46.8068
2012-02-13,47.0465
2012-02-14,47.0365
2012-02-15,47.1364
2012-02-16,47.5258
2012-02-17,47.6357
2012-02-21,46.687
2012-02-22,45.9979
2012-02-23,46.3475
2012-02-24,46.0878
2012-02-27,45.938
2012-02-28,45.2887
2012-02-29,44.5296
2012-03-01,44.0501
2012-03-02,43.5707
2012-03-05,43.7205
2012-03-06,43.3809
2012-03-07,43.7904
2012-03-08,44.9291
2012-03-09,45.918
2012-03-12,45.2088
2012-03-13,46.1078
2012-03-14,45.5185
2012-03-15,45.8381
2012-03-16,45.6783
2012-03-19,45.6982
2012-03-20,45.2687
2012-03-21,45.0889
2012-03-22,44.13
2012-03-23,44.11
2012-03-26,44.19
2012-03-27,44.0701
2012-03-28,42.7016
2012-03-29,42.362
2012-03-30,42.6517
2012-04-02,43.0512
2012-04-03,42.9214
2012-04-04,42.4319
2012-04-05,42.4819
2012-04-09,42.0524
2012-04-10,41.2133
2012-04-11,41.6928
2012-04-12,42.0624
2012-04-13,41.5529
2012-04-16,41.533
2012-04-17,42.3021
2012-04-18,41.3032
2012-04-19,40.9936
2012-04-20,41.1734
2012-04-23,40.8737
2012-04-24,41.0435
2012-04-25,41.7128
2012-04-26,41.8926
2012-04-27,42.3321
2012-04-30,42.7716
2012-05-01,42.9913
2012-05-02,42.7216
2012-05-03,42.6517
2012-05-04,41.3432
2012-05-07,41.4431
2012-05-08,40.8537
2012-05-09,39.9048
2012-05-10,39.9548
2012-05-11,39.9548
2012-05-14,38.9659
2012-05-15,38.3266
2012-05-16,35.2101
2012-05-17,33.9615
2012-05-18,34.5509
2012-05-21,36.3289
2012-05-22,35.1302
2012-05-23,34.5409
2012-05-24,34.9604
2012-05-25,35.7195
2012-05-29,36.0092
2012-05-30,35.0203
2012-05-31,34.5808
2012-06-01,32.9427
2012-06-04,32.5731
2012-06-05,32.9127
2012-06-06,33.2723
2012-06-07,33.7219
2012-06-08,34.1516
2012-06-11,33.2124
2012-06-12,33.9018
2012-06-13,32.8826
2012-06-14,33.4022
2012-06-15,34.3114
2012-06-18,34.6612
2012-06-19,34.831
2012-06-20,34.3914
2012-06-21,34.3514
2012-06-22,35.2706
2012-06-25,34.6911
2012-06-26,35.4805
2012-06-27,37.289
2012-06-28,37.6886
2012-06-29,39.597
2012-07-02,39.7569
2012-07-03,40.6861
2012-07-05,41.1158
2012-07-06,41.1258
2012-07-09,41.3056
2012-07-10,40.4663
2012-07-11,41.0458
2012-07-12,41.6453
2012-07-13,43.0642
2012-07-16,43.1641
2012-07-17,43.8635
2012-07-18,44.0434
2012-07-19,44.0533
2012-07-20,44.0434
2012-07-23,43.9634
2012-07-24,42.6845
2012-07-25,42.075
2012-07-26,37.6886
2012-07-27,39.7569
2012-07-30,38.7278
2012-07-31,38.6978
2012-08-01,37.4688
2012-08-02,36.9093
2012-08-03,38.3681
2012-08-06,38.6578
2012-08-07,39.4971
2012-08-08,39.1175
2012-08-09,39.8269
2012-08-10,39.7469
2012-08-13,39.3473
2012-08-14,39.0775
2012-08-15,39.0775
2012-08-16,39.7469
2012-08-17,40.3764
2012-08-20,40.3564
2012-08-21,40.0367
2012-08-22,40.2565
2012-08-23,39.5769
2012-08-24,40.9661
2012-08-27,40.2265
2012-08-28,40.3464
2012-08-29,39.9367
2012-08-30,38.4476
2012-08-31,39.0172
2012-09-04,37.7679
2012-09-05,37.9079
2012-09-06,38.4076
2012-09-07,40.3265
2012-09-10,41.5357
2012-09-11,41.9655
2012-09-12,46.293
2012-09-13,46.7927
2012-09-14,49.2712
2012-09-17,46.163
2012-09-18,46.153
2012-09-19,47.5722
2012-09-20,47.7221
2012-09-21,48.4617
2012-09-24,48.2818
2012-09-25,46.0831
2012-09-26,45.6933
2012-09-27,47.7621
2012-09-28,47.3024
2012-10-01,47.0925
2012-10-02,47.7821
2012-10-03,47.1325
2012-10-04,47.8521
2012-10-05,48.1319
2012-10-08,47.5922
2012-10-09,45.5534
2012-10-10,45.8832
2012-10-11,46.7627
2012-10-12,46.163
2012-10-15,46.4729
2012-10-16,47.7521
2012-10-17,49.3212
2012-10-18,48.6916
2012-10-19,46.4929
2012-10-22,46.9526
2012-10-23,46.273
2012-10-24,46.313
2012-10-25,46.8726
2012-10-26,46.4829
2012-10-31,45.9732
2012-11-01,47.3024
2012-11-02,46.4029
2012-11-05,46.6128
2012-11-06,48.3618
2012-11-07,46.1431
2012-11-08,46.0031
2012-11-09,46.273
2012-11-12,46.9326
2012-11-13,47.3723
2012-11-14,47.0625
2012-11-15,46.4729
2012-11-16,46.5328
2012-11-19,48.1519
2012-11-20,48.1419
2012-11-21,48.4517
2012-11-23,49.2215
2012-11-26,49.4714
2012-11-27,48.7716
2012-11-28,49.6013
2012-11-29,51.2307
2012-11-30,52.8801
2012-12-03,52.3103
2012-12-04,52.8701
2012-12-05,51.0708
2012-12-06,51.9604
2012-12-07,51.9404
2012-12-10,52.0304
2012-12-11,52.3203
2012-12-12,51.2607
2012-12-13,51.6306
2012-12-14,51.5506
2012-12-17,52.6602
2012-12-18,53.13
2012-12-19,53.08
2012-12-20,53.2
2012-12-21,52.2403
2012-12-24,52.9501
2012-12-26,52.8101
2012-12-27,51.6805
2012-12-28,51.1807
2012-12-31,51.9504
2013-01-02,53.8097
2013-01-03,53.3999
2013-01-04,53.7997
2013-01-07,53.6797
2013-01-08,53.7197
2013-01-09,53.7297
2013-01-10,54.1795
2013-01-11,54.5095
2013-01-14,53.7897
2013-01-15,54.3295
2013-01-16,54.0697
2013-01-17,55.1093
2013-01-18,56.6487
2013-01-22,58.4879
2013-01-23,57.5183
2013-01-24,57.5183
2013-01-25,57.1085
2013-01-28,56.8386
2013-01-29,58.6779
2013-01-30,56.7286
2013-01-31,56.5887
2013-02-01,56.8286
2013-02-04,56.2288
2013-02-05,56.3188
2013-02-06,56.2088
2013-02-07,55.3392
2013-02-08,55.9889
2013-02-11,55.669
2013-02-12,56.0289
2013-02-13,55.879
2013-02-14,54.8493
2013-02-15,54.9443
2013-02-19,54.7093
2013-02-20,52.2703
2013-02-21,51.9504
2013-02-22,51.9304
2013-02-25,49.5108
2013-02-26,50.6106
2013-02-27,51.0605
2013-02-28,51.0105
2013-03-01,51.8804
2013-03-04,52.1003
2013-03-05,53.62
2013-03-06,53.4501
2013-03-07,54.03
2013-03-08,54.6798
2013-03-11,54.6299
2013-03-12,54.2899
2013-03-13,54.3699
2013-03-14,54.7698
2013-03-15,54.5599
2013-03-18,54.04
2013-03-19,53.0501
2013-03-20,53.71
2013-03-21,52.2703
2013-03-22,51.3705
2013-03-25,51.4804
2013-03-26,51.4304
2013-03-27,51.1305
2013-03-28,51.8004
2013-04-01,50.1707
2013-04-02,49.0509
2013-04-03,48.1011
2013-04-04,48.431
2013-04-05,48.8509
2013-04-08,48.8409
2013-04-09,49.6408
2013-04-10,49.8307
2013-04-11,50.7906
2013-04-12,48.8409
2013-04-15,45.7115
2013-04-16,48.551
2013-04-17,47.7111
2013-04-18,45.9615
2013-04-19,46.0015
2013-04-22,46.6913
2013-04-23,46.8913
2013-04-24,47.9911
2013-04-25,47.4312
2013-04-26,46.5414
2013-04-29,48.8109
2013-04-30,49.9107
2013-05-01,48.511
2013-05-02,50.9105
2013-05-03,53.4601
2013-05-06,53.68
2013-05-07,54.4999
2013-05-08,54.8498
2013-05-09,54.5699
2013-05-10,54.5799
2013-05-13,54.05
2013-05-14,54.6998
2013-05-15,54.8998
2013-05-16,54.4599
2013-05-17,54.9998
2013-05-20,55.0398
2013-05-21,54.9498
2013-05-22,53.84
2013-05-23,53.58
2013-05-24,53.74
2013-05-28,54.82
2013-05-29,54.37
2013-05-30,54.65
2013-05-31,53.62
2013-06-03,53.19
2013-06-04,52.08
2013-06-05,50.9
2013-06-06,51.64
2013-06-07,52.21
2013-06-10,53.39
2013-06-11,52.81
2013-06-12,53.14
2013-06-13,54.45
2013-06-14,53.71
2013-06-17,54.48
2013-06-18,54.11
2013-06-19,53.52
2013-06-20,51.6
2013-06-21,50.19
2013-06-24,48.03
2013-06-25,48.67
2013-06-26,49.09
2013-06-27,50.2
2013-06-28,48.48
2013-07-01,48.75
2013-07-02,47.79
2013-07-03,47.42
2013-07-05,46.86
2013-07-08,46.87
2013-07-09,48.95
2013-07-10,49.32
2013-07-11,50.75
2013-07-12,50.68
2013-07-15,50.2
2013-07-16,49.17
2013-07-17,50.02
2013-07-18,50.23
2013-07-19,50.49
2013-07-22,50.28
2013-07-23,49.63
2013-07-24,48.92
2013-07-25,48.04
2013-07-26,48.91
2013-07-29,47.87
2013-07-30,47.4
2013-07-31,47.22
2013-08-01,49.76
2013-08-02,49.23
2013-08-05,49.4
2013-08-06,47.72
2013-08-07,47.21
2013-08-08,48.21
2013-08-09,48.36
