date,close_price
1998-01-02,16.7515
1998-01-05,17.485
1998-01-06,16.9276
1998-01-07,16.8102
1998-01-08,16.0181
1998-01-09,15.1576
1998-01-12,14.7957
1998-01-13,15.891
1998-01-14,15.6465
1998-01-15,16.0181
1998-01-16,15.5292
1998-01-20,16.9276
1998-01-21,18.7074
1998-01-22,18.2771
1998-01-23,17.9055
1998-01-26,17.172
1998-01-27,16.4386
1998-01-28,17.661
1998-01-29,16.996
1998-01-30,18.2771
1998-02-02,17.7295
1998-02-03,17.9739
1998-02-04,18.2184
1998-02-05,17.9055
1998-02-06,17.7881
1998-02-09,17.5437
1998-02-10,18.3358
1998-02-11,18.6389
1998-02-12,18.766
1998-02-13,19.4408
1998-02-17,19.1963
1998-02-18,19.1963
1998-02-19,18.766
1998-02-20,18.3358
1998-02-23,18.2184
1998-02-24,17.661
1998-02-25,17.6023
1998-02-26,18.0913
1998-02-27,17.8468
1998-03-02,17.6023
1998-03-03,17.1134
1998-03-04,16.996
1998-03-05,16.0181
1998-03-06,16.1355
1998-03-09,15.402
1998-03-10,16.0181
1998-03-11,17.1134
1998-03-12,16.8689
1998-03-13,16.8102
1998-03-16,16.6244
1998-03-17,16.4386
1998-03-18,16.2626
1998-03-19,16.8102
1998-03-20,16.3799
1998-03-23,16.3213
1998-03-24,16.6831
1998-03-25,16.8689
1998-03-26,17.485
1998-03-27,17.485
1998-03-30,17.661
1998-03-31,17.2405
1998-04-01,18.8247
1998-04-02,18.3944
1998-04-03,17.9739
1998-04-06,17.8468
1998-04-07,17.2992
1998-04-08,18.15
1998-04-09,17.7881
1998-04-13,17.5437
1998-04-14,18.15
1998-04-15,18.7074
1998-04-16,18.0913
1998-04-17,18.0913
1998-04-20,19.255
1998-04-21,19.4408
1998-04-22,20.9076
1998-04-23,20.4187
1998-04-24,21.4553
1998-04-27,20.4774
1998-04-28,18.6389
1998-04-29,18.766
1998-04-30,19.3137
1998-05-01,19.1279
1998-05-04,19.4408
1998-05-05,19.3137
1998-05-06,19.255
1998-05-07,19.4408
1998-05-08,19.9297
1998-05-11,19.3137
1998-05-12,19.4995
1998-05-13,19.1963
1998-05-14,19.1963
1998-05-15,18.6389
1998-05-18,18.5802
1998-05-19,18.3944
1998-05-20,18.3944
1998-05-21,17.7881
1998-05-22,17.1134
1998-05-26,16.996
1998-05-27,16.5071
1998-05-28,16.8102
1998-05-29,16.6244
1998-06-01,15.6465
1998-06-02,15.5292
1998-06-03,15.2162
1998-06-04,15.2847
1998-06-05,15.1576
1998-06-08,14.8544
1998-06-09,15.2162
1998-06-10,11.0015
1998-06-11,10.5125
1998-06-12,10.8157
1998-06-15,10.6983
1998-06-16,11.0601
1998-06-17,11.3046
1998-06-18,11.2459
1998-06-19,11.1873
1998-06-22,11.0015
1998-06-23,10.8841
1998-06-24,10.9428
1998-06-25,11.0015
1998-06-26,11.0015
1998-06-29,11.2459
1998-06-30,11.6175
1998-07-01,11.4317
1998-07-02,10.9428
1998-07-06,10.9428
1998-07-07,11.0015
1998-07-08,12.2825
1998-07-09,12.1065
1998-07-10,11.862
1998-07-13,12.2238
1998-07-14,12.038
1998-07-15,12.2825
1998-07-16,12.527
1998-07-17,12.2238
1998-07-20,11.9794
1998-07-21,11.9207
1998-07-22,11.3731
1998-07-23,11.4317
1998-07-24,11.1286
1998-07-27,10.8841
1998-07-28,11.3046
1998-07-29,11.0015
1998-07-30,11.1286
1998-07-31,10.9428
1998-08-03,10.757
1998-08-04,10.6983
1998-08-05,10.3267
1998-08-06,11.862
1998-08-07,11.862
1998-08-10,11.6762
1998-08-11,11.4904
1998-08-12,11.862
1998-08-13,12.1065
1998-08-14,12.8986
1998-08-17,12.8399
1998-08-18,12.7128
1998-08-19,12.1652
1998-08-20,11.6762
1998-08-21,11.3046
1998-08-24,11.1286
1998-08-25,10.9428
1998-08-26,10.6983
1998-08-27,9.7204
1998-08-28,9.34879
1998-08-31,8.12641
1998-09-01,8.55669
1998-09-02,9.04564
1998-09-03,8.80116
1998-09-04,8.61536
1998-09-08,9.10431
1998-09-09,10.0822
1998-09-10,9.9062
1998-09-11,9.96487
1998-09-14,10.0822
1998-09-15,9.66172
1998-09-16,9.53459
1998-09-17,9.9062
1998-09-18,10.3267
1998-09-21,10.757
1998-09-22,10.4538
1998-09-23,11.0015
1998-09-24,10.5712
1998-09-25,10.5125
1998-09-28,10.3952
1998-09-29,10.1507
1998-09-30,10.5125
1998-10-01,9.41724
1998-10-02,9.53459
1998-10-05,9.17277
1998-10-06,8.80116
1998-10-07,8.25353
1998-10-08,8.00906
1998-10-09,7.95038
1998-10-12,8.19486
1998-10-13,7.88193
1998-10-14,7.70591
1998-10-15,7.70591
1998-10-16,7.63745
1998-10-19,8.19486
1998-10-20,7.5201
1998-10-21,7.70591
1998-10-22,7.76458
1998-10-23,8.74249
1998-10-26,8.61536
1998-10-27,8.49801
1998-10-28,9.17277
1998-10-29,9.47592
1998-10-30,10.2093
1998-11-02,10.1507
1998-11-03,12.4683
1998-11-04,13.7494
1998-11-05,13.3875
1998-11-06,13.0844
1998-11-09,13.0159
1998-11-10,12.9573
1998-11-11,12.9573
1998-11-12,13.3289
1998-11-13,12.8399
1998-11-16,12.8399
1998-11-17,12.5954
1998-11-18,12.4683
1998-11-19,14.4241
1998-11-20,13.9938
1998-11-23,13.8178
1998-11-24,13.9938
1998-11-25,13.7494
1998-11-27,13.9352
1998-11-30,12.8986
1998-12-01,17.2405
1998-12-02,16.1355
1998-12-03,17.1134
1998-12-04,17.7295
1998-12-07,17.3578
1998-12-08,17.2405
1998-12-09,16.6831
1998-12-10,15.5878
1998-12-11,15.402
1998-12-14,15.2162
1998-12-15,15.4607
1998-12-16,15.2162
1998-12-17,15.2847
1998-12-18,15.7736
1998-12-21,15.9497
1998-12-22,15.3434
1998-12-23,14.9718
1998-12-24,15.5878
1998-12-28,15.2162
1998-12-29,14.2383
1998-12-30,14.9131
1998-12-31,14.6686
1999-01-04,14.6686
1999-01-05,16.1355
1999-01-06,16.1355
1999-01-07,17.485
1999-01-08,17.7881
1999-01-11,18.6389
1999-01-12,18.0913
1999-01-13,19.8613
1999-01-14,19.4995
1999-01-15,19.4995
1999-01-19,19.9884
1999-01-20,15.6465
1999-01-21,16.1355
1999-01-22,15.0402
1999-01-25,14.6686
1999-01-26,14.3068
1999-01-27,13.3289
1999-01-28,13.6907
1999-01-29,13.4462
1999-02-01,13.8178
1999-02-02,12.7715
1999-02-03,12.9573
1999-02-04,12.351
1999-02-05,12.4683
1999-02-08,12.7715
1999-02-09,11.7936
1999-02-10,11.7936
1999-02-11,11.862
1999-02-12,11.3046
1999-02-16,10.9428
1999-02-17,9.83774
1999-02-18,10.6983
1999-02-19,10.3952
1999-02-22,10.8157
1999-02-23,10.6983
1999-02-24,10.0822
1999-02-25,10.0235
1999-02-26,9.29012
1999-03-01,9.77907
1999-03-02,9.53459
1999-03-03,9.29012
1999-03-04,9.29012
1999-03-05,9.17277
1999-03-08,9.34879
1999-03-09,9.53459
1999-03-10,9.29012
1999-03-11,9.29012
1999-03-12,9.23144
1999-03-15,9.29012
1999-03-16,9.29012
1999-03-17,9.66172
1999-03-18,9.34879
1999-03-19,9.10431
1999-03-22,8.49801
1999-03-23,8.49801
1999-03-24,8.37088
1999-03-25,8.43934
1999-03-26,8.43934
1999-03-29,8.25353
1999-03-30,7.88193
1999-03-31,7.70591
1999-04-01,8.00906
1999-04-05,7.76458
1999-04-06,7.46143
1999-04-07,7.27563
1999-04-08,7.1485
1999-04-09,7.1485
1999-04-12,7.1485
1999-04-13,6.90402
1999-04-14,6.84535
1999-04-15,6.90402
1999-04-16,6.97248
1999-04-19,6.84535
1999-04-20,6.84535
1999-04-21,6.60087
1999-04-22,7.3343
1999-04-23,7.46143
1999-04-26,7.21695
1999-04-27,8.61536
1999-04-28,7.95038
1999-04-29,8.06773
1999-04-30,7.76458
1999-05-03,7.70591
1999-05-04,7.46143
1999-05-05,7.5201
1999-05-06,7.39298
1999-05-07,7.46143
1999-05-10,8.25353
1999-05-11,8.19486
1999-05-12,8.55669
1999-05-13,8.80116
1999-05-14,8.85984
1999-05-17,8.55669
1999-05-18,8.68381
1999-05-19,8.61536
1999-05-20,8.80116
1999-05-21,8.68381
1999-05-24,8.37088
1999-05-25,8.12641
1999-05-26,7.63745
1999-05-27,7.57878
1999-05-28,7.82326
1999-06-01,7.76458
1999-06-02,7.57878
1999-06-03,7.5201
1999-06-04,7.39298
1999-06-07,7.63745
1999-06-08,7.3343
1999-06-09,7.57878
1999-06-10,7.39298
1999-06-11,7.3343
1999-06-14,7.03115
1999-06-15,6.78667
1999-06-16,6.728
1999-06-17,6.3564
1999-06-18,6.5422
1999-06-21,6.41507
1999-06-22,6.41507
1999-06-23,6.41507
1999-06-24,6.23905
1999-06-25,6.23905
1999-06-28,6.29772
1999-06-29,6.23905
1999-06-30,6.29772
1999-07-01,6.29772
1999-07-02,6.23905
1999-07-06,6.23905
1999-07-07,6.23905
1999-07-08,6.11192
1999-07-09,6.05324
1999-07-12,5.92612
1999-07-13,5.75009
1999-07-14,6.78667
1999-07-15,6.60087
1999-07-16,6.05324
1999-07-19,5.86744
1999-07-20,5.80877
1999-07-21,5.92612
1999-07-22,5.56429
1999-07-23,5.01666
1999-07-26,4.77219
1999-07-27,4.88953
1999-07-28,4.83086
1999-07-29,4.77219
1999-07-30,4.70373
1999-08-02,4.45926
1999-08-03,4.03876
1999-08-04,3.91163
1999-08-05,4.1561
1999-08-06,3.91163
1999-08-09,3.79428
1999-08-10,3.72583
1999-08-11,3.60848
1999-08-12,3.48135
1999-08-13,3.60848
1999-08-16,4.28323
1999-08-17,4.58638
1999-08-18,5.50562
1999-08-19,6.728
1999-08-20,5.80877
1999-08-23,5.50562
1999-08-24,5.80877
1999-08-25,5.68164
1999-08-26,5.50562
1999-08-27,5.37849
1999-08-30,5.56429
1999-08-31,6.05324
1999-09-01,6.17059
1999-09-02,5.99457
1999-09-03,5.92612
1999-09-07,5.75009
1999-09-08,5.50562
1999-09-09,5.26114
1999-09-10,5.26114
1999-09-13,5.13401
1999-09-14,5.01666
1999-09-15,4.88953
1999-09-16,4.52771
1999-09-17,4.58638
1999-09-20,4.52771
1999-09-21,4.09743
1999-09-22,4.28323
1999-09-23,4.34191
1999-09-24,4.1561
1999-09-27,4.03876
1999-09-28,3.9703
1999-09-29,3.66715
1999-09-30,3.66715
1999-10-01,4.09743
1999-10-04,3.85295
1999-10-05,3.79428
1999-10-06,3.91163
1999-10-07,3.79428
1999-10-08,3.5498
1999-10-11,3.60848
1999-10-12,3.5498
1999-10-13,3.42267
1999-10-14,3.5498
1999-10-15,3.48135
1999-10-18,3.30533
1999-10-19,3.42267
1999-10-20,3.23687
1999-10-21,3.23687
1999-10-22,3.30533
1999-10-25,2.9924
1999-10-26,3.06085
1999-10-27,3.1782
1999-10-28,3.11952
1999-10-29,3.11952
1999-11-01,2.9924
1999-11-02,3.06085
1999-11-03,2.9924
1999-11-04,2.81637
1999-11-05,2.74792
1999-11-08,2.93372
1999-11-09,2.9924
1999-11-10,4.1561
1999-11-11,3.79428
1999-11-12,3.5498
1999-11-15,3.60848
1999-11-16,3.60848
1999-11-17,3.91163
1999-11-18,3.79428
1999-11-19,3.66715
1999-11-22,3.79428
1999-11-23,3.66715
1999-11-24,3.66715
1999-11-26,3.60848
1999-11-29,3.91163
1999-11-30,3.91163
1999-12-01,3.72583
1999-12-02,3.66715
1999-12-03,3.72583
1999-12-06,3.66715
1999-12-07,3.5498
1999-12-08,3.48135
1999-12-09,3.48135
1999-12-10,3.42267
1999-12-13,3.5498
1999-12-14,3.5498
1999-12-15,3.48135
1999-12-16,3.60848
1999-12-17,4.09743
1999-12-20,3.85295
1999-12-21,3.79428
1999-12-22,3.79428
1999-12-23,3.60848
1999-12-27,3.60848
1999-12-28,3.5498
1999-12-29,3.5498
1999-12-30,3.72583
1999-12-31,4.09743
2000-01-03,3.91163
2000-01-04,4.52771
2000-01-05,4.28323
2000-01-06,4.45926
2000-01-07,5.13401
2000-01-10,4.94821
2000-01-11,4.58638
2000-01-12,4.40058
2000-01-13,4.21478
2000-01-14,4.40058
2000-01-18,4.88953
2000-01-19,5.56429
2000-01-20,5.37849
2000-01-21,5.01666
2000-01-24,4.64506
2000-01-25,4.88953
2000-01-26,4.94821
2000-01-27,4.70373
2000-01-28,4.64506
2000-01-31,4.70373
2000-02-01,4.52771
2000-02-02,4.52771
2000-02-03,4.94821
2000-02-04,4.83086
2000-02-07,5.13401
2000-02-08,5.01666
2000-02-09,4.88953
2000-02-10,4.70373
2000-02-11,4.52771
2000-02-14,4.52771
2000-02-15,4.45926
2000-02-16,4.45926
2000-02-17,4.40058
2000-02-18,4.28323
2000-02-22,4.21478
2000-02-23,4.1561
2000-02-24,4.09743
2000-02-25,3.9703
2000-02-28,3.85295
2000-02-29,4.52771
2000-03-01,4.34191
2000-03-02,4.58638
2000-03-03,4.40058
2000-03-06,4.64506
2000-03-07,4.40058
2000-03-08,4.34191
2000-03-09,5.26114
2000-03-10,5.07534
2000-03-13,6.90402
2000-03-14,6.60087
2000-03-15,6.29772
2000-03-16,7.3343
2000-03-17,7.27563
2000-03-20,6.728
2000-03-21,6.90402
2000-03-22,8.25353
2000-03-23,8.06773
2000-03-24,8.43934
2000-03-27,8.12641
2000-03-28,7.5201
2000-03-29,7.03115
2000-03-30,6.728
2000-03-31,7.27563
2000-04-03,6.84535
2000-04-04,6.3564
2000-04-05,7.46143
2000-04-06,7.5201
2000-04-07,7.3343
2000-04-10,6.97248
2000-04-11,6.5422
2000-04-12,6.23905
2000-04-13,6.60087
2000-04-14,5.75009
2000-04-17,5.50562
2000-04-18,5.99457
2000-04-19,6.11192
2000-04-20,6.05324
2000-04-24,5.92612
2000-04-25,6.78667
2000-04-26,6.65955
2000-04-27,7.27563
2000-04-28,6.728
2000-05-01,6.78667
2000-05-02,6.48352
2000-05-03,6.48352
2000-05-04,6.3564
2000-05-05,6.48352
2000-05-08,6.29772
2000-05-09,5.86744
2000-05-10,5.75009
2000-05-11,5.75009
2000-05-12,5.56429
2000-05-15,5.75009
2000-05-16,5.43716
2000-05-17,5.07534
2000-05-18,5.13401
2000-05-19,5.01666
2000-05-22,4.88953
2000-05-23,4.83086
2000-05-24,4.52771
2000-05-25,4.28323
2000-05-26,4.45926
2000-05-30,4.58638
2000-05-31,4.58638
2000-06-01,4.21478
2000-06-02,4.45926
2000-06-05,4.45926
2000-06-06,4.34191
2000-06-07,4.21478
2000-06-08,4.21478
2000-06-09,4.21478
2000-06-12,4.28323
2000-06-13,4.21478
2000-06-14,4.1561
2000-06-15,3.9703
2000-06-16,3.85295
2000-06-19,4.64506
2000-06-20,4.77219
2000-06-21,5.07534
2000-06-22,4.94821
2000-06-23,4.70373
2000-06-26,4.70373
2000-06-27,4.77219
2000-06-28,4.70373
2000-06-29,4.58638
2000-06-30,4.83086
2000-07-03,4.83086
2000-07-05,4.45926
2000-07-06,4.40058
2000-07-07,4.45926
2000-07-10,4.52771
2000-07-11,4.83086
2000-07-12,5.31981
2000-07-13,5.62297
2000-07-14,5.13401
2000-07-17,4.88953
2000-07-18,4.83086
2000-07-19,4.77219
2000-07-20,4.64506
2000-07-21,4.70373
2000-07-24,4.58638
2000-07-25,4.34191
2000-07-26,4.21478
2000-07-27,3.9703
2000-07-28,3.72583
2000-07-31,4.03876
2000-08-01,3.85295
2000-08-02,3.79428
2000-08-03,3.72583
2000-08-04,3.66715
2000-08-07,3.79428
2000-08-08,3.66715
2000-08-09,3.5498
2000-08-10,3.5498
2000-08-11,3.5498
2000-08-14,3.72583
2000-08-15,4.03876
2000-08-16,4.1561
2000-08-17,4.34191
2000-08-18,5.31981
2000-08-21,5.31981
2000-08-22,5.13401
2000-08-23,4.77219
2000-08-24,5.40783
2000-08-25,5.31981
2000-08-28,5.92612
2000-08-29,5.86744
2000-08-30,5.68164
2000-08-31,5.75009
2000-09-01,5.56429
2000-09-05,5.86744
2000-09-06,5.68164
2000-09-07,5.62297
2000-09-08,5.68164
2000-09-11,5.56429
2000-09-12,5.19269
2000-09-13,4.94821
2000-09-14,5.13401
2000-09-15,5.19269
2000-09-18,5.37849
2000-09-19,5.50562
2000-09-20,5.86744
2000-09-21,5.99457
2000-09-22,5.50562
2000-09-25,5.31981
2000-09-26,5.07534
2000-09-27,4.88953
2000-09-28,5.26114
2000-09-29,5.68164
2000-10-02,5.62297
2000-10-03,5.37849
2000-10-04,6.05324
2000-10-05,6.48352
2000-10-06,5.99457
2000-10-09,6.05324
2000-10-10,5.86744
2000-10-11,5.37849
2000-10-12,5.01666
2000-10-13,5.43716
2000-10-16,5.50562
2000-10-17,5.13401
2000-10-18,4.88953
2000-10-19,5.01666
2000-10-20,5.01666
2000-10-23,5.43716
2000-10-24,5.62297
2000-10-25,5.92612
2000-10-26,5.92612
2000-10-27,5.80877
2000-10-30,5.75009
2000-10-31,5.86744
2000-11-01,5.62297
2000-11-02,5.92612
2000-11-03,5.75009
2000-11-06,5.80877
2000-11-07,5.68164
2000-11-08,5.80877
2000-11-09,5.68164
2000-11-10,5.43716
2000-11-13,5.13401
2000-11-14,5.19269
2000-11-15,5.43716
2000-11-16,5.37849
2000-11-17,5.37849
2000-11-20,5.56429
2000-11-21,5.37849
2000-11-22,5.19269
2000-11-24,5.26114
2000-11-27,5.01666
2000-11-28,4.09743
2000-11-29,3.42267
2000-11-30,3.23687
2000-12-01,3.1782
2000-12-04,2.25897
2000-12-05,2.38609
2000-12-06,2.32742
2000-12-07,2.25897
2000-12-08,2.50344
2000-12-11,3.1782
2000-12-12,3.364
2000-12-13,2.87505
2000-12-14,2.74792
2000-12-15,2.74792
2000-12-18,2.5719
2000-12-19,2.32742
2000-12-20,2.25897
2000-12-21,2.5719
2000-12-22,2.63057
2000-12-26,2.50344
2000-12-27,2.32742
2000-12-28,2.50344
2000-12-29,2.44477
2001-01-02,2.32742
2001-01-03,2.63057
2001-01-04,3.1782
2001-01-05,3.11952
2001-01-08,3.1782
2001-01-09,3.48135
2001-01-10,3.72583
2001-01-11,3.79428
2001-01-12,3.79428
2001-01-16,3.79428
2001-01-17,3.66715
2001-01-18,3.79428
2001-01-19,3.60848
2001-01-22,4.1561
2001-01-23,4.83086
2001-01-24,5.13401
2001-01-25,4.77219
2001-01-26,4.09743
2001-01-29,4.41036
2001-01-30,4.69395
2001-01-31,5.11445
2001-02-01,4.93843
2001-02-02,4.64506
2001-02-05,4.75263
2001-02-06,4.49837
2001-02-07,4.23434
2001-02-08,4.19522
2001-02-09,4.09743
2001-02-12,4.8113
2001-02-13,4.88953
2001-02-14,4.71351
2001-02-15,5.07534
2001-02-16,4.85042
2001-02-20,4.46904
2001-02-21,4.22456
2001-02-22,4.2539
2001-02-23,4.19522
2001-02-26,4.32235
2001-02-27,4.19522
2001-02-28,4.04853
2001-03-01,3.7845
2001-03-02,3.80406
2001-03-05,3.71605
2001-03-06,4.02898
2001-03-07,4.28323
2001-03-08,4.2539
2001-03-09,4.10721
2001-03-12,4.00942
2001-03-13,3.7845
2001-03-14,3.76494
2001-03-15,4.05831
2001-03-16,3.98986
2001-03-19,4.205
2001-03-20,3.82362
2001-03-21,3.85295
2001-03-22,3.91163
2001-03-23,4.12677
2001-03-26,4.10721
2001-03-27,4.30279
2001-03-28,4.22456
2001-03-29,4.46904
2001-03-30,4.64506
2001-04-02,4.61572
2001-04-03,4.10721
2001-04-04,3.71605
2001-04-05,4.00942
2001-04-06,3.86273
2001-04-09,3.92141
2001-04-10,4.56683
2001-04-11,4.65484
2001-04-12,4.89931
2001-04-16,5.10467
2001-04-17,4.91887
2001-04-18,5.19269
2001-04-19,5.22202
2001-04-20,5.01666
2001-04-23,4.92865
2001-04-24,4.94821
2001-04-25,5.10467
2001-04-26,4.93843
2001-04-27,4.91887
2001-04-30,5.18291
2001-05-01,5.36871
2001-05-02,5.19269
2001-05-03,5.27092
2001-05-04,5.21224
2001-05-07,5.19269
2001-05-08,5.07534
2001-05-09,4.98733
2001-05-10,4.88953
2001-05-11,4.8602
2001-05-14,4.8113
2001-05-15,4.8602
2001-05-16,5.12423
2001-05-17,4.95799
2001-05-18,4.89931
2001-05-21,4.98733
2001-05-22,4.8113
2001-05-23,4.79174
2001-05-24,4.78197
2001-05-25,4.75263
2001-05-29,4.40058
2001-05-30,4.09743
2001-05-31,4.24412
2001-06-01,4.30279
2001-06-04,4.22456
2001-06-05,4.28323
2001-06-06,3.99964
2001-06-07,3.91163
2001-06-08,3.82362
2001-06-11,3.54002
2001-06-12,3.42267
2001-06-13,3.22709
2001-06-14,3.08041
2001-06-15,3.42267
2001-06-18,3.03151
2001-06-19,3.04129
2001-06-20,3.1782
2001-06-21,3.33466
2001-06-22,3.3151
2001-06-25,3.1293
2001-06-26,3.364
2001-06-27,3.34444
2001-06-28,3.51069
2001-06-29,3.86273
2001-07-02,3.4129
2001-07-03,3.45201
2001-07-05,3.47157
2001-07-06,3.20754
2001-07-09,3.28577
2001-07-10,3.06085
2001-07-11,3.07063
2001-07-12,3.10974
2001-07-13,3.11952
2001-07-16,3.11952
2001-07-17,3.07063
2001-07-18,3.07063
2001-07-19,3.10974
2001-07-20,3.13908
2001-07-23,3.05107
2001-07-24,2.92394
2001-07-25,2.91416
2001-07-26,3.27599
2001-07-27,3.33466
2001-07-30,3.30533
2001-07-31,3.45201
2001-08-01,3.66715
2001-08-02,3.61826
2001-08-03,3.71605
2001-08-06,3.93119
2001-08-07,3.81384
2001-08-08,3.60848
2001-08-09,3.71605
2001-08-10,3.56936
2001-08-13,3.62804
2001-08-14,3.58892
2001-08-15,3.47157
2001-08-16,3.57914
2001-08-17,3.56936
2001-08-20,3.54002
2001-08-21,3.4129
2001-08-22,3.63781
2001-08-23,3.50091
2001-08-24,3.54002
2001-08-27,3.44223
2001-08-28,3.40312
2001-08-29,3.28577
2001-08-30,3.13908
2001-08-31,3.10974
2001-09-04,2.9924
2001-09-05,3.47157
2001-09-06,3.1293
2001-09-07,3.19776
2001-09-10,3.10974
2001-09-17,2.80659
2001-09-18,2.69902
2001-09-19,2.64035
2001-09-20,2.44477
2001-09-21,2.17095
2001-09-24,2.34698
2001-09-25,2.25897
2001-09-26,2.0536
2001-09-27,1.99493
2001-09-28,2.14162
2001-10-01,2.34698
2001-10-02,2.29808
2001-10-03,2.73814
2001-10-04,2.64035
2001-10-05,2.56212
2001-10-08,2.50344
2001-10-09,2.42521
2001-10-10,2.41543
2001-10-11,2.56212
2001-10-12,2.56212
2001-10-15,2.4741
2001-10-16,2.49366
2001-10-17,2.59145
2001-10-18,2.65991
2001-10-19,3.03151
2001-10-22,3.05107
2001-10-23,3.15864
2001-10-24,3.45201
2001-10-25,3.26621
2001-10-26,3.4129
2001-10-29,3.19776
2001-10-30,3.33466
2001-10-31,3.27599
2001-11-01,3.3151
2001-11-02,3.87251
2001-11-05,3.72583
2001-11-06,3.90185
2001-11-07,3.8334
2001-11-08,4.1561
2001-11-09,3.9703
2001-11-12,4.14633
2001-11-13,4.14633
2001-11-14,4.28323
2001-11-15,4.10721
2001-11-16,4.05831
2001-11-19,4.2539
2001-11-20,3.81384
2001-11-21,4.21478
2001-11-23,4.4397
2001-11-26,4.77219
2001-11-27,4.52771
2001-11-28,4.32235
2001-11-29,4.36147
2001-11-30,4.5766
2001-12-03,4.52771
2001-12-04,4.61572
2001-12-05,4.74285
2001-12-06,5.16335
2001-12-07,5.48606
2001-12-10,5.32959
2001-12-11,5.85766
2001-12-12,6.03369
2001-12-13,5.91634
2001-12-14,5.61319
2001-12-17,5.82833
2001-12-18,6.10214
2001-12-19,5.76965
2001-12-20,5.44694
2001-12-21,5.98479
2001-12-24,5.96523
2001-12-26,6.33684
2001-12-27,6.60087
2001-12-28,6.32706
2001-12-31,6.09236
2002-01-02,6.00435
2002-01-03,6.00435
2002-01-04,6.34662
2002-01-07,6.71822
2002-01-08,6.9627
2002-01-09,7.31474
2002-01-10,7.1485
2002-01-11,7.25607
2002-01-14,6.68888
2002-01-15,6.82579
2002-01-16,6.81601
2002-01-17,6.83557
2002-01-18,6.32706
2002-01-22,6.79645
2002-01-23,6.89424
2002-01-24,6.97248
2002-01-25,6.70844
2002-01-28,6.63999
2002-01-29,6.74756
2002-01-30,6.31728
2002-01-31,6.18037
2002-02-01,5.58385
2002-02-04,5.38827
2002-02-05,5.47628
2002-02-06,5.84788
2002-02-07,5.85766
2002-02-08,5.69142
2002-02-11,6.11192
2002-02-12,6.0728
2002-02-13,5.82833
2002-02-14,5.96523
2002-02-15,5.84788
2002-02-19,5.21224
2002-02-20,5.99457
2002-02-21,5.72076
2002-02-22,5.54473
2002-02-25,5.75987
2002-02-26,5.887
2002-02-27,6.10214
2002-02-28,5.7012
2002-03-01,6.04347
2002-03-04,6.65955
2002-03-05,6.45419
2002-03-06,6.83557
2002-03-07,6.41507
2002-03-08,6.44441
2002-03-11,6.60087
2002-03-12,6.4933
2002-03-13,6.10214
2002-03-14,5.85766
2002-03-15,5.86744
2002-03-18,5.91634
2002-03-19,5.79899
2002-03-20,5.81855
2002-03-21,5.887
2002-03-22,5.90656
2002-03-25,5.87722
2002-03-26,6.06302
2002-03-27,6.06302
2002-03-28,6.06302
2002-04-01,6.00435
2002-04-02,5.85766
2002-04-03,5.86744
2002-04-04,6.55198
2002-04-05,6.46397
2002-04-08,6.59109
2002-04-09,6.46397
2002-04-10,6.40529
2002-04-11,6.29772
2002-04-12,6.53242
2002-04-15,6.93336
2002-04-16,7.03115
2002-04-17,7.1485
2002-04-18,7.28541
2002-04-19,7.02137
2002-04-22,6.97248
2002-04-23,6.90402
2002-04-24,6.3564
2002-04-25,6.5422
2002-04-26,5.91634
2002-04-29,6.05324
2002-04-30,6.02391
2002-05-01,5.92612
2002-05-02,5.92612
2002-05-03,5.78921
2002-05-06,4.98733
2002-05-07,4.09743
2002-05-08,4.78197
2002-05-09,4.84064
2002-05-10,4.77219
2002-05-13,4.70373
2002-05-14,5.08512
2002-05-15,5.2807
2002-05-16,5.49584
2002-05-17,5.40783
2002-05-20,5.12423
2002-05-21,4.78197
2002-05-22,4.74285
2002-05-23,4.70373
2002-05-24,4.36147
2002-05-28,4.64506
2002-05-29,4.49837
2002-05-30,4.45926
2002-05-31,4.54727
2002-06-03,4.23434
2002-06-04,4.34191
2002-06-05,4.23434
2002-06-06,4.35169
2002-06-07,4.33213
2002-06-10,4.0192
2002-06-11,3.76494
2002-06-12,3.88229
2002-06-13,3.93119
2002-06-14,3.98008
2002-06-17,4.13655
2002-06-18,4.12677
2002-06-19,4.03876
2002-06-20,3.8334
2002-06-21,3.46179
2002-06-24,3.71605
2002-06-25,3.37378
2002-06-26,3.09019
2002-06-27,3.08041
2002-06-28,3.13908
2002-07-01,3.23687
2002-07-02,3.52047
2002-07-03,3.39334
2002-07-05,3.98008
2002-07-08,3.76494
2002-07-09,3.82362
2002-07-10,3.93119
2002-07-11,4.00942
2002-07-12,4.19522
2002-07-15,4.13655
2002-07-16,4.205
2002-07-17,4.23434
2002-07-18,3.82362
2002-07-19,3.84317
2002-07-22,3.07063
2002-07-23,3.09997
2002-07-24,2.98262
2002-07-25,3.01195
2002-07-26,3.55958
2002-07-29,4.54727
2002-07-30,4.47881
2002-07-31,4.30279
2002-08-01,4.28323
2002-08-02,4.205
2002-08-05,4.00942
2002-08-06,4.45926
2002-08-07,4.54727
2002-08-08,5.00688
2002-08-09,4.71351
2002-08-12,4.88953
2002-08-13,4.69395
2002-08-14,4.98733
2002-08-15,5.07534
2002-08-16,5.12423
2002-08-19,5.31003
2002-08-20,5.18291
2002-08-21,5.14379
2002-08-22,5.15357
2002-08-23,5.00688
2002-08-26,4.84064
2002-08-27,4.40058
2002-08-28,3.89207
2002-08-29,4.14633
2002-08-30,3.93119
2002-09-03,3.9703
2002-09-04,4.05831
2002-09-05,4.03876
2002-09-06,4.26367
2002-09-09,4.31257
2002-09-10,4.54727
2002-09-11,4.60594
2002-09-12,4.4397
2002-09-13,4.50815
2002-09-16,4.36147
2002-09-17,4.42992
2002-09-18,4.40058
2002-09-19,4.16588
2002-09-20,4.04853
2002-09-23,3.79428
2002-09-24,3.89207
2002-09-25,4.17566
2002-09-26,4.40058
2002-09-27,4.12677
2002-09-30,4.36147
2002-10-01,4.82108
2002-10-02,4.78197
2002-10-03,4.68417
2002-10-04,4.72329
2002-10-07,4.59616
2002-10-08,4.65484
2002-10-09,4.6744
2002-10-10,4.83086
2002-10-11,4.97755
2002-10-14,4.80152
2002-10-15,4.97755
2002-10-16,4.90909
2002-10-17,5.57407
2002-10-18,5.79899
2002-10-21,6.26838
2002-10-22,6.20971
2002-10-23,6.19015
2002-10-24,6.08258
2002-10-25,5.96523
2002-10-28,6.24883
2002-10-29,6.05324
2002-10-30,6.10214
2002-10-31,6.03369
2002-11-01,6.82579
2002-11-04,6.88447
2002-11-05,6.86491
2002-11-06,7.16806
2002-11-07,7.00181
2002-11-08,7.28541
2002-11-11,7.18762
2002-11-12,7.17784
2002-11-13,7.54944
2002-11-14,7.7548
2002-11-15,7.73524
2002-11-18,7.66679
2002-11-19,7.55922
2002-11-20,7.48099
2002-11-21,7.85259
2002-11-22,7.9895
2002-11-25,8.23398
2002-11-26,8.05795
2002-11-27,8.45889
2002-11-29,8.26331
2002-12-02,8.69359
2002-12-03,8.16552
2002-12-04,7.62767
2002-12-05,7.18762
2002-12-06,7.15828
2002-12-09,6.5422
2002-12-10,7.22673
2002-12-11,7.13872
2002-12-12,7.03115
2002-12-13,6.61065
2002-12-16,6.88447
2002-12-17,6.81601
2002-12-18,6.34662
2002-12-19,6.33684
2002-12-20,6.59109
2002-12-23,6.34662
2002-12-24,6.60087
2002-12-26,6.4933
2002-12-27,6.3075
2002-12-30,6.15103
2002-12-31,6.25861
2003-01-02,6.68888
2003-01-03,6.97248
2003-01-06,7.57878
2003-01-07,7.84281
2003-01-08,7.48099
2003-01-09,7.91127
2003-01-10,7.53966
2003-01-13,7.23651
2003-01-14,7.53966
2003-01-15,7.36364
2003-01-16,7.43209
2003-01-17,6.85513
2003-01-21,6.92358
2003-01-22,6.9627
2003-01-23,7.23651
2003-01-24,7.97972
2003-01-27,7.81348
2003-01-28,8.15574
2003-01-29,8.25353
2003-01-30,7.91127
2003-01-31,7.76458
2003-02-03,7.71569
2003-02-04,7.67657
2003-02-05,7.68635
2003-02-06,7.57878
2003-02-07,7.23651
2003-02-10,7.13872
2003-02-11,7.40276
2003-02-12,7.08983
2003-02-13,6.86491
2003-02-14,6.94314
2003-02-18,7.31474
2003-02-19,7.18762
2003-02-20,7.15828
2003-02-21,7.35386
2003-02-24,7.37342
2003-02-25,7.60812
2003-02-26,7.70591
2003-02-27,7.84281
2003-02-28,7.91127
2003-03-03,7.67657
2003-03-04,7.48099
2003-03-05,7.569
2003-03-06,7.76458
2003-03-07,7.62767
2003-03-10,7.6179
2003-03-11,7.5201
2003-03-12,6.99204
2003-03-13,7.26585
2003-03-14,7.00181
2003-03-17,7.44187
2003-03-18,7.78414
2003-03-19,7.58856
2003-03-20,7.58856
2003-03-21,7.96016
2003-03-24,7.79392
2003-03-25,8.12641
2003-03-26,8.3611
2003-03-27,9.07498
2003-03-28,8.94785
2003-03-31,8.85006
2003-04-01,9.251
2003-04-02,9.66172
2003-04-03,9.74973
2003-04-04,9.09453
2003-04-07,8.80116
2003-04-08,8.39044
2003-04-09,8.41
2003-04-10,8.54691
2003-04-11,8.72293
2003-04-14,8.94785
2003-04-15,9.04564
2003-04-16,9.14343
2003-04-17,9.29012
2003-04-21,9.4368
2003-04-22,9.53459
2003-04-23,9.22166
2003-04-24,9.0163
2003-04-25,9.07498
2003-04-28,9.03586
2003-04-29,9.10431
2003-04-30,9.11409
2003-05-01,9.13365
2003-05-02,9.33901
2003-05-05,9.64216
2003-05-06,9.61283
2003-05-07,9.40746
2003-05-08,9.2021
2003-05-09,9.24122
2003-05-12,10.1898
2003-05-13,10.933
2003-05-14,10.7863
2003-05-15,11.021
2003-05-16,11.0503
2003-05-19,10.5223
2003-05-20,10.2778
2003-05-21,10.2387
2003-05-22,10.5223
2003-05-23,10.4538
2003-05-27,11.422
2003-05-28,11.6371
2003-05-29,12.1456
2003-05-30,12.2336
2003-06-02,12.351
2003-06-03,12.3412
2003-06-04,12.1847
2003-06-05,12.5368
2003-06-06,11.598
2003-06-09,11.4024
2003-06-10,11.0895
2003-06-11,11.197
2003-06-12,11.3828
2003-06-13,11.0992
2003-06-16,11.5491
2003-06-17,11.8718
2003-06-18,12.1163
2003-06-19,11.4708
2003-06-20,11.0797
2003-06-23,10.9721
2003-06-24,10.5027
2003-06-25,10.4147
2003-06-26,10.6983
2003-06-27,10.5125
2003-06-30,10.2093
2003-07-01,11.5589
2003-07-02,12.5172
2003-07-03,12.4194
2003-07-07,12.8888
2003-07-08,12.4585
2003-07-09,12.3901
2003-07-10,12.0772
2003-07-11,12.0283
2003-07-14,12.5954
2003-07-15,12.3901
2003-07-16,12.1652
2003-07-17,11.9696
2003-07-18,11.4317
2003-07-21,10.8254
2003-07-22,11.5686
2003-07-23,12.038
2003-07-24,11.3633
2003-07-25,9.7204
2003-07-28,9.52481
2003-07-29,9.2999
2003-07-30,9.4857
2003-07-31,9.73017
2003-08-01,9.56393
2003-08-04,9.251
2003-08-05,8.98697
2003-08-06,8.89895
2003-08-07,8.43934
2003-08-08,8.45889
2003-08-11,8.80116
2003-08-12,9.00652
2003-08-13,9.16299
2003-08-14,9.19233
2003-08-15,9.09453
2003-08-18,9.50526
2003-08-19,9.64216
2003-08-20,9.6715
2003-08-21,9.4857
2003-08-22,9.05542
2003-08-25,8.75227
2003-08-26,8.8794
2003-08-27,9.26078
2003-08-28,11.2068
2003-08-29,11.1677
2003-09-02,11.2948
2003-09-03,10.8939
2003-09-04,11.1775
2003-09-05,11.2557
2003-09-08,11.5491
2003-09-09,11.6469
2003-09-10,10.8157
2003-09-11,10.9819
2003-09-12,11.0015
2003-09-15,10.7276
2003-09-16,11.2068
2003-09-17,12.1945
2003-09-18,12.3999
2003-09-19,12.8595
2003-09-22,12.8399
2003-09-23,13.2702
2003-09-24,12.8008
2003-09-25,12.3216
2003-09-26,12.439
2003-09-29,12.5954
2003-09-30,12.5759
2003-10-01,13.0062
2003-10-02,13.1137
2003-10-03,13.6027
2003-10-06,14.1601
2003-10-07,14.4926
2003-10-08,14.1992
2003-10-09,14.4632
2003-10-10,14.0916
2003-10-13,13.9254
2003-10-14,14.1601
2003-10-15,13.6809
2003-10-16,13.945
2003-10-17,13.4756
2003-10-20,13.28
2003-10-21,13.9547
2003-10-22,12.0576
2003-10-23,12.126
2003-10-24,12.5759
2003-10-27,12.5172
2003-10-28,12.9573
2003-10-29,13.9058
2003-10-30,13.4756
2003-10-31,13.0942
2003-11-03,13.6222
2003-11-04,13.6907
2003-11-05,13.6907
2003-11-06,13.6125
2003-11-07,12.8204
2003-11-10,12.439
2003-11-11,12.1847
2003-11-12,13.2017
2003-11-13,12.879
2003-11-14,12.3314
2003-11-17,12.0283
2003-11-18,11.598
2003-11-19,11.4024
2003-11-20,11.3926
2003-11-21,11.4415
2003-11-24,12.1456
2003-11-25,11.9402
2003-11-26,12.0674
2003-11-28,12.1652
2003-12-01,12.439
2003-12-02,11.9305
2003-12-03,11.109
2003-12-04,11.1384
2003-12-05,11.2459
2003-12-08,11.0797
2003-12-09,10.6592
2003-12-10,10.2778
2003-12-11,11.0308
2003-12-12,11.1677
2003-12-15,10.1702
2003-12-16,10.4147
2003-12-17,10.3952
2003-12-18,10.4538
2003-12-19,10.2289
2003-12-22,10.4538
2003-12-23,10.6592
2003-12-24,10.6787
2003-12-26,10.7863
2003-12-29,11.0503
2003-12-30,11.2948
2003-12-31,11.5002
2004-01-02,11.9891
2004-01-05,12.1163
2004-01-06,12.3803
2004-01-07,12.4879
2004-01-08,12.9573
2004-01-09,12.6835
2004-01-12,12.791
2004-01-13,12.6639
2004-01-14,12.527
2004-01-15,12.3314
2004-01-16,12.6052
2004-01-20,12.6932
2004-01-21,10.9232
2004-01-22,10.5125
2004-01-23,10.8254
2004-01-26,10.9232
2004-01-27,10.7668
2004-01-28,10.5125
2004-01-29,10.0529
2004-01-30,10.0138
2004-02-02,10.0235
2004-02-03,9.81819
2004-02-04,9.46614
2004-02-05,9.81819
2004-02-06,10.6592
2004-02-09,10.3267
2004-02-10,10.3463
2004-02-11,10.4636
2004-02-12,10.5907
2004-02-13,10.9721
2004-02-17,10.8841
2004-02-18,11.0112
2004-02-19,11.109
2004-02-20,10.7472
2004-02-23,10.5027
2004-02-24,10.268
2004-02-25,10.8548
2004-02-26,11.2753
2004-02-27,11.1481
2004-03-01,11.3339
2004-03-02,11.0699
2004-03-03,10.9721
2004-03-04,11.1384
2004-03-05,10.9721
2004-03-08,10.5614
2004-03-09,10.3365
2004-03-10,10.1311
2004-03-11,9.81819
2004-03-12,10.2974
2004-03-15,10.1018
2004-03-16,10.4636
2004-03-17,10.6201
2004-03-18,10.4929
2004-03-19,10.3071
2004-03-22,9.93554
2004-03-23,9.92576
2004-03-24,9.93554
2004-03-25,10.4147
2004-03-26,10.2876
2004-03-29,10.845
2004-03-30,10.9526
2004-03-31,10.9721
2004-04-01,11.2068
2004-04-02,11.3828
2004-04-05,11.2753
2004-04-06,11.197
2004-04-07,11.1188
2004-04-08,11.1873
2004-04-12,11.2655
2004-04-13,11.1384
2004-04-14,10.9134
2004-04-15,10.6983
2004-04-16,10.2974
2004-04-19,10.4636
2004-04-20,10.3267
2004-04-21,10.0529
2004-04-22,8.82072
2004-04-23,8.68381
2004-04-26,8.39044
2004-04-27,8.20464
2004-04-28,8.32199
2004-04-29,8.01884
2004-04-30,7.92105
2004-05-03,7.71569
2004-05-04,7.95038
2004-05-05,8.34155
2004-05-06,8.16552
2004-05-07,8.24376
2004-05-10,7.96994
2004-05-11,8.14597
2004-05-12,8.06773
2004-05-13,8.02862
2004-05-14,7.85259
2004-05-17,7.81348
2004-05-18,7.90149
2004-05-19,7.95038
2004-05-20,7.96994
2004-05-21,8.06773
2004-05-24,8.48823
2004-05-25,8.77183
2004-05-26,8.93807
2004-05-27,8.80116
2004-05-28,8.93807
2004-06-01,8.95763
2004-06-02,8.75227
2004-06-03,8.72293
2004-06-04,8.91851
2004-06-07,8.95763
2004-06-08,9.09453
2004-06-09,8.86962
2004-06-10,8.90873
2004-06-14,8.7816
2004-06-15,8.97719
2004-06-16,8.85984
2004-06-17,8.80116
2004-06-18,8.98697
2004-06-21,8.67404
2004-06-22,8.65448
2004-06-23,8.88917
2004-06-24,8.70337
2004-06-25,8.49801
2004-06-28,8.41978
2004-06-29,8.50779
2004-06-30,8.49801
2004-07-01,8.40022
2004-07-02,8.20464
2004-07-06,7.89171
2004-07-07,8.00906
2004-07-08,7.91127
2004-07-09,7.95038
2004-07-12,7.8037
2004-07-13,7.95038
2004-07-14,7.79392
2004-07-15,7.88193
2004-07-16,7.78414
2004-07-19,7.9895
2004-07-20,8.27309
2004-07-21,7.7548
2004-07-22,7.92105
2004-07-23,7.70591
2004-07-26,7.60812
2004-07-27,7.89171
2004-07-28,7.68635
2004-07-29,8.02862
2004-07-30,6.85513
2004-08-02,7.01159
2004-08-03,6.79645
2004-08-04,6.84535
2004-08-05,6.87469
2004-08-06,6.63999
2004-08-09,6.41507
2004-08-10,6.728
2004-08-11,6.65955
2004-08-12,6.40529
2004-08-13,6.38573
2004-08-16,6.39551
2004-08-17,6.44441
2004-08-18,6.87469
2004-08-19,7.02137
2004-08-20,7.31474
2004-08-23,7.37342
2004-08-24,7.17784
2004-08-25,7.37342
2004-08-26,7.30497
2004-08-27,7.31474
2004-08-30,7.30497
2004-08-31,7.28541
2004-09-01,7.66679
2004-09-02,7.85259
2004-09-03,7.82326
2004-09-07,7.96994
2004-09-08,8.05795
2004-09-09,8.15574
2004-09-10,8.35133
2004-09-13,8.23398
2004-09-14,8.39044
2004-09-15,8.15574
2004-09-16,8.47845
2004-09-17,8.67404
2004-09-20,8.71315
2004-09-21,8.74249
2004-09-22,8.58602
2004-09-23,8.50779
2004-09-24,8.31221
2004-09-27,8.16552
2004-09-28,8.31221
2004-09-29,8.56647
2004-09-30,8.58602
2004-10-01,8.91851
2004-10-04,9.17277
2004-10-05,9.08476
2004-10-06,9.30968
2004-10-07,9.28034
2004-10-08,9.23144
2004-10-11,9.26078
2004-10-12,9.0163
2004-10-13,8.89895
2004-10-14,8.84028
2004-10-15,8.81094
2004-10-18,8.95763
2004-10-19,8.86962
2004-10-20,8.72293
2004-10-21,7.88193
2004-10-22,7.99928
2004-10-25,8.11663
2004-10-26,7.88193
2004-10-27,8.01884
2004-10-28,8.01884
2004-10-29,8.16552
2004-11-01,8.24376
2004-11-02,8.37088
2004-11-03,8.40022
2004-11-04,8.44912
2004-11-05,8.67404
2004-11-08,8.58602
2004-11-09,8.68381
2004-11-10,8.65448
2004-11-11,8.77183
2004-11-12,8.79138
2004-11-15,9.05542
2004-11-16,8.99674
2004-11-17,9.2021
2004-11-18,8.99674
2004-11-19,8.85006
2004-11-22,9.05542
2004-11-23,9.0163
2004-11-24,9.29012
2004-11-26,9.35857
2004-11-29,9.17277
2004-11-30,9.55415
2004-12-01,10.1409
2004-12-02,10.3854
2004-12-03,10.4147
2004-12-06,10.6005
2004-12-07,10.1605
2004-12-08,10.1702
2004-12-09,10.0333
2004-12-10,10.0333
2004-12-13,10.004
2004-12-14,10.0822
2004-12-15,10.3169
2004-12-16,10.268
2004-12-17,10.2289
2004-12-20,9.99421
2004-12-21,10.1213
2004-12-22,10.3463
2004-12-23,10.268
2004-12-27,10.3169
2004-12-28,10.3658
2004-12-29,10.4245
2004-12-30,10.4832
2004-12-31,10.6005
2005-01-03,10.5027
2005-01-04,10.1996
2005-01-05,9.97465
2005-01-06,9.88664
2005-01-07,9.87686
2005-01-10,9.89642
2005-01-11,9.75951
2005-01-12,9.7204
2005-01-13,9.88664
2005-01-14,10.2191
2005-01-18,10.6592
2005-01-19,10.268
2005-01-20,9.97465
2005-01-21,10.0431
2005-01-24,9.86708
2005-01-25,10.0822
2005-01-26,9.92576
2005-01-27,10.2191
2005-01-28,10.2289
2005-01-31,10.5223
2005-02-01,11.0503
2005-02-02,11.285
2005-02-03,11.3046
2005-02-04,11.3046
2005-02-07,11.0895
2005-02-08,11.0601
2005-02-09,10.9721
2005-02-10,10.9037
2005-02-11,10.9232
2005-02-14,10.9526
2005-02-15,11.0015
2005-02-16,11.0406
2005-02-17,11.0308
2005-02-18,11.0308
2005-02-22,10.7765
2005-02-23,10.6298
2005-02-24,10.7179
2005-02-25,11.1384
2005-02-28,11.0699
2005-03-01,11.2362
2005-03-02,11.5784
2005-03-03,11.6273
2005-03-04,11.7055
2005-03-07,11.6958
2005-03-08,11.598
2005-03-09,11.6762
2005-03-10,11.6371
2005-03-11,11.51
2005-03-14,11.5491
2005-03-15,11.4806
2005-03-16,11.3242
2005-03-17,11.2948
2005-03-18,11.3242
2005-03-21,11.7838
2005-03-22,11.6567
2005-03-23,11.8327
2005-03-24,11.7642
2005-03-28,11.1873
2005-03-29,10.6885
2005-03-30,10.9232
2005-03-31,12.4585
2005-04-01,12.5954
2005-04-04,12.7421
2005-04-05,12.6052
2005-04-06,12.6932
2005-04-07,13.1528
2005-04-08,13.4267
2005-04-11,13.5831
2005-04-12,13.2604
2005-04-13,12.967
2005-04-14,12.3607
2005-04-15,11.7251
2005-04-18,11.9794
2005-04-19,12.4096
2005-04-20,12.1554
2005-04-21,12.615
2005-04-22,11.9305
2005-04-25,12.3803
2005-04-26,12.2532
2005-04-27,12.439
2005-04-28,12.3705
2005-04-29,12.4194
2005-05-02,12.4977
2005-05-03,12.6443
2005-05-04,12.8204
2005-05-05,12.5172
2005-05-06,12.9279
2005-05-09,13.1333
2005-05-10,12.8986
2005-05-11,12.967
2005-05-12,12.9866
2005-05-13,13.3387
2005-05-16,13.6907
2005-05-17,13.9156
2005-05-18,14.2188
2005-05-19,14.033
2005-05-20,13.8961
2005-05-23,14.1112
2005-05-24,14.2774
2005-05-25,14.2774
2005-05-26,14.4926
2005-05-27,14.5904
2005-05-31,14.6784
2005-06-01,14.6784
2005-06-02,14.7175
2005-06-03,14.4535
2005-06-06,14.6002
2005-06-07,15.5878
2005-06-08,15.0598
2005-06-09,15.1184
2005-06-10,15.314
2005-06-13,15.1967
2005-06-14,13.9841
2005-06-15,14.0819
2005-06-16,14.0721
2005-06-17,13.0159
2005-06-20,13.4364
2005-06-21,13.5831
2005-06-22,13.808
2005-06-23,13.5342
2005-06-24,12.9475
2005-06-27,12.8986
2005-06-28,12.9573
2005-06-29,13.2213
2005-06-30,13.1235
2005-07-01,13.456
2005-07-05,13.3778
2005-07-06,13.6516
2005-07-07,13.6125
2005-07-08,13.9645
2005-07-11,14.2383
2005-07-12,14.2285
2005-07-13,14.2481
2005-07-14,14.209
2005-07-15,13.9743
2005-07-18,13.8569
2005-07-19,14.3557
2005-07-20,14.1894
2005-07-21,13.7103
2005-07-22,13.7983
2005-07-25,13.7689
2005-07-26,14.3263
2005-07-27,14.2383
2005-07-28,14.6588
2005-07-29,14.6588
2005-08-01,14.6979
2005-08-02,14.7566
2005-08-03,14.649
2005-08-04,14.6686
2005-08-05,14.5708
2005-08-08,14.3068
2005-08-09,14.2285
2005-08-10,14.2579
2005-08-11,14.5219
2005-08-12,14.2774
2005-08-15,14.3361
2005-08-16,13.9352
2005-08-17,14.1014
2005-08-18,13.7494
2005-08-19,13.8276
2005-08-22,13.9156
2005-08-23,14.0721
2005-08-24,14.0134
2005-08-25,13.9352
2005-08-26,13.456
2005-08-29,13.5929
2005-08-30,13.2506
2005-08-31,13.5636
2005-09-01,13.2995
2005-09-02,13.2898
2005-09-06,13.2213
2005-09-07,14.0623
2005-09-08,13.5147
2005-09-09,13.368
2005-09-12,13.4169
2005-09-13,13.72
2005-09-14,13.2017
2005-09-15,12.8497
2005-09-16,12.7519
2005-09-19,12.5857
2005-09-20,12.615
2005-09-21,12.7226
2005-09-22,12.5074
2005-09-23,12.3607
2005-09-26,12.4781
2005-09-27,12.1065
2005-09-28,12.0087
2005-09-29,12.3607
2005-09-30,12.6346
2005-10-03,12.6052
2005-10-04,12.4977
2005-10-05,12.2727
2005-10-06,12.038
2005-10-07,11.9305
2005-10-10,11.9011
2005-10-11,12.0283
2005-10-12,11.5002
2005-10-13,11.6567
2005-10-14,11.6762
2005-10-17,11.5784
2005-10-18,11.6273
2005-10-19,11.4806
2005-10-20,11.3437
2005-10-21,11.0992
2005-10-24,11.3144
2005-10-25,11.4611
2005-10-26,11.5197
2005-10-27,11.1873
2005-10-28,11.5393
2005-10-31,11.8327
2005-11-01,11.5686
2005-11-02,11.8718
2005-11-03,12.3999
2005-11-04,12.6443
2005-11-07,12.2141
2005-11-08,12.1163
2005-11-09,12.1358
2005-11-10,11.9011
2005-11-11,12.1652
2005-11-14,11.9598
2005-11-15,11.862
2005-11-16,12.3999
2005-11-17,13.4462
2005-11-18,13.5733
2005-11-21,13.28
2005-11-22,14.5219
2005-11-23,14.4828
2005-11-25,14.4241
2005-11-28,14.209
2005-11-29,14.473
2005-11-30,14.5904
2005-12-01,14.6197
2005-12-02,14.6588
2005-12-05,14.6393
2005-12-06,14.6099
2005-12-07,14.649
2005-12-08,14.8055
2005-12-09,14.9522
2005-12-12,14.9718
2005-12-13,14.962
2005-12-14,14.9131
2005-12-15,14.6295
2005-12-16,14.962
2005-12-19,14.7957
2005-12-20,15.1967
2005-12-21,17.925
2005-12-22,18.5509
2005-12-23,18.4433
2005-12-27,17.8957
2005-12-28,18.0228
2005-12-29,18.0326
2005-12-30,18.2086
2006-01-03,18.59
2006-01-04,19.2257
2006-01-05,19.0203
2006-01-06,19.4701
2006-01-09,20.673
2006-01-10,20.8979
2006-01-11,21.2695
2006-01-12,21.1619
2006-01-13,21.0935
2006-01-17,20.6241
2006-01-18,20.5849
2006-01-19,21.2401
2006-01-20,20.1938
2006-01-23,20.4969
2006-01-24,20.3894
2006-01-25,20.1742
2006-01-26,21.0543
2006-01-27,21.2401
2006-01-30,21.4944
2006-01-31,21.3673
2006-02-01,21.1912
2006-02-02,21.69
2006-02-03,22.2376
2006-02-06,22.3745
2006-02-07,21.5237
2006-02-08,22.355
2006-02-09,22.5994
2006-02-10,22.4919
2006-02-13,22.9808
2006-02-14,23.2449
2006-02-15,23.5187
2006-02-16,23.4404
2006-02-17,23.6556
2006-02-21,23.1275
2006-02-22,22.5897
2006-02-23,21.6509
2006-02-24,21.866
2006-02-27,22.0616
2006-02-28,21.778
2006-03-01,22.6385
2006-03-02,22.4527
2006-03-03,22.0225
2006-03-06,21.8758
2006-03-07,20.2133
2006-03-08,19.2159
2006-03-09,18.8345
2006-03-10,18.3749
2006-03-13,18.6096
2006-03-14,19.1279
2006-03-15,19.6755
2006-03-16,19.0007
2006-03-17,18.991
2006-03-20,19.3039
2006-03-21,18.5705
2006-03-22,18.6878
2006-03-23,18.4531
2006-03-24,18.766
2006-03-27,18.59
2006-03-28,18.2673
2006-03-29,18.9225
2006-03-30,19.3234
2006-03-31,18.991
2006-04-03,19.4017
2006-04-04,20.0373
2006-04-05,20.448
2006-04-06,20.6925
2006-04-07,19.9884
2006-04-10,19.3919
2006-04-11,19.5581
2006-04-12,19.4115
2006-04-13,19.3332
2006-04-17,19.5386
2006-04-18,19.92
2006-04-19,19.3137
2006-04-20,18.9616
2006-04-21,18.7856
2006-04-24,18.5216
2006-04-25,18.9127
2006-04-26,18.6976
2006-04-27,19.2159
2006-04-28,20.4969
2006-05-01,20.8099
2006-05-02,21.0152
2006-05-03,21.0935
2006-05-04,21.3086
2006-05-05,20.8881
2006-05-08,21.113
2006-05-09,20.8979
2006-05-10,20.448
2006-05-11,19.6853
2006-05-12,19.431
2006-05-15,19.1963
2006-05-16,18.59
2006-05-17,18.766
2006-05-18,18.8247
2006-05-19,21.2206
2006-05-22,20.4383
2006-05-23,19.8613
2006-05-24,19.5875
2006-05-25,20.008
2006-05-26,20.1058
2006-05-30,19.6168
2006-05-31,19.9004
2006-06-01,19.9102
2006-06-02,20.2427
2006-06-05,19.1474
2006-06-06,19.1572
2006-06-07,18.4433
2006-06-08,19.2159
2006-06-09,19.3919
2006-06-12,18.7269
2006-06-13,17.2894
2006-06-14,17.0156
2006-06-15,17.7783
2006-06-16,17.3383
2006-06-19,17.6023
2006-06-20,17.309
2006-06-21,17.8272
2006-06-22,17.5437
2006-06-23,17.9446
2006-06-26,17.661
2006-06-27,18.0326
2006-06-28,18.0424
2006-06-29,18.678
2006-06-30,19.343
2006-07-03,19.519
2006-07-05,19.0887
2006-07-06,19.431
2006-07-07,19.2843
2006-07-10,18.6096
2006-07-11,18.8149
2006-07-12,18.3944
2006-07-13,18.0913
2006-07-14,17.9544
2006-07-17,18.1402
2006-07-18,18.2966
2006-07-19,18.7856
2006-07-20,18.3847
2006-07-21,17.0938
2006-07-24,17.3872
2006-07-25,17.1329
2006-07-26,16.5071
2006-07-27,16.3408
2006-07-28,17.4067
2006-07-31,17.1329
2006-08-01,16.908
2006-08-02,16.7515
2006-08-03,16.7907
2006-08-04,16.6049
2006-08-07,16.5755
2006-08-08,16.2822
2006-08-09,15.9008
2006-08-10,15.891
2006-08-11,15.7443
2006-08-14,15.7639
2006-08-15,16.7124
2006-08-16,17.7783
2006-08-17,17.4361
2006-08-18,17.6414
2006-08-21,17.5045
2006-08-22,17.7001
2006-08-23,17.2601
2006-08-24,16.8298
2006-08-25,16.8298
2006-08-28,17.1329
2006-08-29,17.4263
2006-08-30,17.6708
2006-08-31,17.8957
2006-09-01,18.4727
2006-09-05,17.8859
2006-09-06,16.5853
2006-09-07,16.067
2006-09-08,16.0377
2006-09-11,16.067
2006-09-12,16.6244
2006-09-13,16.5071
2006-09-14,16.4288
2006-09-15,15.6954
2006-09-18,16.1452
2006-09-19,16.7418
2006-09-20,16.8591
2006-09-21,17.1818
2006-09-22,16.7809
2006-09-25,16.6244
2006-09-26,16.6049
2006-09-27,17.6708
2006-09-28,17.5534
2006-09-29,17.7197
2006-10-02,17.3774
2006-10-03,16.9862
2006-10-04,17.1036
2006-10-05,16.8982
2006-10-06,16.7124
2006-10-09,16.6635
2006-10-10,16.7027
2006-10-11,16.6342
2006-10-12,16.556
2006-10-13,17.2992
2006-10-16,17.7783
2006-10-17,17.4948
2006-10-18,17.1818
2006-10-19,17.4556
2006-10-20,17.2209
2006-10-23,16.7809
2006-10-24,16.644
2006-10-25,17.8272
2006-10-26,17.9348
2006-10-27,17.6903
2006-10-30,17.5437
2006-10-31,17.8566
2006-11-01,17.5339
2006-11-02,17.573
2006-11-03,18.5216
2006-11-06,18.4433
2006-11-07,18.4335
2006-11-08,18.9812
2006-11-09,19.2061
2006-11-10,19.1474
2006-11-13,18.9714
2006-11-14,19.832
2006-11-15,20.008
2006-11-16,20.1938
2006-11-17,20.008
2006-11-20,20.2916
2006-11-21,20.272
2006-11-22,20.8881
2006-11-24,20.8685
2006-11-27,19.7928
2006-11-28,20.2916
2006-11-29,20.4187
2006-11-30,20.0862
2006-12-01,20.6143
2006-12-04,20.8099
2006-12-05,21.1619
2006-12-06,20.6045
2006-12-07,20.6632
2006-12-08,20.6143
2006-12-11,20.5752
2006-12-12,20.1449
2006-12-13,20.1449
2006-12-14,20.1253
2006-12-15,19.9884
2006-12-18,20.3796
2006-12-19,20.5752
2006-12-20,20.4872
2006-12-21,20.2622
2006-12-22,20.096
2006-12-26,20.1644
2006-12-27,20.5165
2006-12-28,20.272
2006-12-29,20.0373
2007-01-03,19.9493
2007-01-04,20.0764
2007-01-05,19.4115
2007-01-08,19.4897
2007-01-09,19.5679
2007-01-10,20.0862
2007-01-11,20.673
2007-01-12,20.5752
2007-01-16,20.3209
2007-01-17,20.6632
2007-01-18,19.7928
2007-01-19,19.7146
2007-01-22,19.6364
2007-01-23,19.4603
2007-01-24,20.3796
2007-01-25,20.3013
2007-01-26,18.7074
2007-01-29,19.1376
2007-01-30,19.0301
2007-01-31,19.1474
2007-02-01,19.0301
2007-02-02,18.8736
2007-02-05,18.7465
2007-02-06,18.6487
2007-02-07,18.7171
2007-02-08,18.6585
2007-02-09,18.4238
2007-02-12,18.2282
2007-02-13,18.2673
2007-02-14,18.6194
2007-02-15,18.4727
2007-02-16,18.4238
2007-02-20,18.4629
2007-02-21,19.0301
2007-02-22,18.8834
2007-02-23,19.7146
2007-02-26,19.7244
2007-02-27,18.7856
2007-02-28,18.7563
2007-03-01,18.6487
2007-03-02,18.1011
2007-03-05,17.7392
2007-03-06,17.9055
2007-03-07,17.9055
2007-03-08,17.7099
2007-03-09,17.7588
2007-03-12,17.6317
2007-03-13,17.2796
2007-03-14,17.2894
2007-03-15,17.6023
2007-03-16,17.2503
2007-03-19,17.3676
2007-03-20,17.0938
2007-03-21,17.4165
2007-03-22,17.084
2007-03-23,17.2209
2007-03-26,17.2209
2007-03-27,17.0351
2007-03-28,16.6733
2007-03-29,16.732
2007-03-30,16.4288
2007-04-02,16.4093
2007-04-03,16.7027
2007-04-04,16.3702
2007-04-05,16.3897
2007-04-09,16.6049
2007-04-10,16.155
2007-04-11,16.3506
2007-04-12,16.3017
2007-04-13,16.7907
2007-04-16,17.0156
2007-04-17,16.8591
2007-04-18,16.7418
2007-04-19,16.8787
2007-04-20,16.9667
2007-04-23,17.1525
2007-04-24,17.397
2007-04-25,17.397
2007-04-26,17.8468
2007-04-27,17.1916
2007-04-30,17.2796
2007-05-01,17.2307
2007-05-02,17.4361
2007-05-03,17.6219
2007-05-04,17.7392
2007-05-07,17.9348
2007-05-08,17.925
2007-05-09,17.7979
2007-05-10,17.7001
2007-05-11,17.9837
2007-05-14,17.8566
2007-05-15,17.6219
2007-05-16,17.6219
2007-05-17,17.3774
2007-05-18,17.3676
2007-05-21,17.2405
2007-05-22,17.6219
2007-05-23,17.5925
2007-05-24,17.084
2007-05-25,17.0547
2007-05-29,17.5828
2007-05-30,18.1597
2007-05-31,18.3944
2007-06-01,18.6585
2007-06-04,18.7171
2007-06-05,18.6976
2007-06-06,18.6976
2007-06-07,18.7856
2007-06-08,19.0887
2007-06-11,19.4897
2007-06-12,19.4799
2007-06-13,19.6657
2007-06-14,19.4115
2007-06-15,19.3332
2007-06-18,18.5607
2007-06-19,18.7074
2007-06-20,18.5118
2007-06-21,18.8443
2007-06-22,18.9029
2007-06-25,18.8345
2007-06-26,18.7758
2007-06-27,19.3039
2007-06-28,19.0887
2007-06-29,18.9225
2007-07-02,19.4603
2007-07-03,20.1938
2007-07-05,20.1644
2007-07-06,20.6338
2007-07-09,20.8001
2007-07-10,20.536
2007-07-11,20.5067
2007-07-12,20.7707
2007-07-13,20.8196
2007-07-16,20.7316
2007-07-17,21.1032
2007-07-18,21.1619
2007-07-19,21.2988
2007-07-20,22.2963
2007-07-23,22.3941
2007-07-24,22.0811
2007-07-25,22.2572
2007-07-26,22.042
2007-07-27,20.5067
2007-07-30,21.0641
2007-07-31,20.8979
2007-08-01,21.0739
2007-08-02,21.2206
2007-08-03,20.6436
2007-08-06,20.5849
2007-08-07,19.5777
2007-08-08,19.4506
2007-08-09,18.6487
2007-08-10,20.0275
2007-08-13,20.1253
2007-08-14,19.2354
2007-08-15,19.4017
2007-08-16,20.0569
2007-08-17,19.9493
2007-08-20,20.3209
2007-08-21,20.008
2007-08-22,20.9272
2007-08-23,20.7707
2007-08-24,21.3966
2007-08-27,21.2988
2007-08-28,20.9272
2007-08-29,22.4723
2007-08-30,22.9808
2007-08-31,22.883
2007-09-04,23.2937
2007-09-05,22.9613
2007-09-06,22.5897
2007-09-07,21.8758
2007-09-10,21.9442
2007-09-11,22.8635
2007-09-12,22.8732
2007-09-13,22.3354
2007-09-14,21.8171
2007-09-17,21.5922
2007-09-18,22.4527
2007-09-19,22.6972
2007-09-20,23.3818
2007-09-21,23.7631
2007-09-24,24.1641
2007-09-25,24.7899
2007-09-26,25.1615
2007-09-27,24.6726
2007-09-28,24.741
2007-10-01,24.8584
2007-10-02,24.5944
2007-10-03,24.6041
2007-10-04,24.5552
2007-10-05,24.7997
2007-10-08,25.2593
2007-10-09,25.7092
2007-10-10,25.9928
2007-10-11,25.1029
2007-10-12,24.8682
2007-10-15,24.6041
2007-10-16,24.5259
2007-10-17,24.8682
2007-10-18,25.054
2007-10-19,24.4183
2007-10-22,24.5259
2007-10-23,24.7997
2007-10-24,23.8707
2007-10-25,23.1764
2007-10-26,23.9881
2007-10-29,24.7997
2007-10-30,24.1836
2007-10-31,25.3669
2007-11-01,25.3962
2007-11-02,28.2517
2007-11-05,27.1858
2007-11-06,27.0685
2007-11-07,26.4817
2007-11-08,25.7287
2007-11-09,25.807
2007-11-12,24.5944
2007-11-13,25.9048
2007-11-14,25.9048
2007-11-15,25.8461
2007-11-16,26.0319
2007-11-19,25.8265
2007-11-20,24.6139
2007-11-21,24.7313
2007-11-23,24.8291
2007-11-26,25.054
2007-11-27,25.719
2007-11-28,27.401
2007-11-29,27.6063
2007-11-30,27.0782
2007-12-03,27.0489
2007-12-04,27.5085
2007-12-05,29.7284
2007-12-06,29.6306
2007-12-07,30.7161
2007-12-10,30.8041
2007-12-11,29.5035
2007-12-12,28.9265
2007-12-13,28.4375
2007-12-14,29.1612
2007-12-17,28.8678
2007-12-18,28.3886
2007-12-19,29.4448
2007-12-20,29.611
2007-12-21,29.0438
2007-12-24,29.5426
2007-12-26,29.8848
2007-12-27,29.2981
2007-12-28,29.259
2007-12-31,29.5132
2008-01-02,27.9388
2008-01-03,27.7041
2008-01-04,25.0931
2008-01-07,24.6726
2008-01-08,22.9808
2008-01-09,24.2325
2008-01-10,24.8388
2008-01-11,23.4795
2008-01-14,24.6237
2008-01-15,24.7508
2008-01-16,24.2032
2008-01-17,23.1079
2008-01-18,23.0688
2008-01-22,23.5969
2008-01-23,24.5846
2008-01-24,26.3546
2008-01-25,25.5038
2008-01-28,26.3644
2008-01-29,26.3448
2008-01-30,26.1199
2008-01-31,25.9048
2008-02-01,27.3129
2008-02-04,27.7334
2008-02-05,27.3814
2008-02-06,27.4205
2008-02-07,26.5502
2008-02-08,27.5085
2008-02-11,27.7432
2008-02-12,28.3006
2008-02-13,28.8287
2008-02-14,27.8019
2008-02-15,28.1637
2008-02-19,28.8776
2008-02-20,29.9631
2008-02-21,30.6183
2008-02-22,30.6378
2008-02-25,32.4078
2008-02-26,33.2977
2008-02-27,33.2097
2008-02-28,31.6451
2008-02-29,30.1782
2008-03-03,30.5498
2008-03-04,31.0388
2008-03-05,31.1855
2008-03-06,30.7063
2008-03-07,29.5719
2008-03-10,28.946
2008-03-11,30.1684
2008-03-12,29.7675
2008-03-13,30.5596
2008-03-14,30.5987
2008-03-17,29.0047
2008-03-18,30.8334
2008-03-19,28.7309
2008-03-20,28.4082
2008-03-24,30.8432
2008-03-25,29.8751
2008-03-26,28.8385
2008-03-27,26.4622
2008-03-28,26.159
2008-03-31,26.4035
2008-04-01,27.2934
2008-04-02,26.9218
2008-04-03,28.2224
2008-04-04,27.6943
2008-04-07,27.5379
2008-04-08,27.6161
2008-04-09,27.8508
2008-04-10,29.1221
2008-04-11,27.088
2008-04-14,26.3937
2008-04-15,26.5404
2008-04-16,27.5085
2008-04-17,27.4694
2008-04-18,28.6722
2008-04-21,30.0315
2008-04-22,29.2199
2008-04-23,29.5719
2008-04-24,30.5205
2008-04-25,27.753
2008-04-28,28.3593
2008-04-29,28.3691
2008-04-30,28.3495
2008-05-01,29.0243
2008-05-02,28.7602
2008-05-05,28.8776
2008-05-06,28.9754
2008-05-07,29.1025
2008-05-08,29.7284
2008-05-09,29.787
2008-05-12,29.8262
2008-05-13,30.5498
2008-05-14,33.1511
2008-05-15,33.2293
2008-05-16,34.6766
2008-05-19,34.3734
2008-05-20,33.992
2008-05-21,33.8747
2008-05-22,34.9895
2008-05-23,34.5006
2008-05-27,35.1558
2008-05-28,35.987
2008-05-29,36.1532
2008-05-30,36.6715
2008-06-02,36.2412
2008-06-03,37.6983
2008-06-04,37.7472
2008-06-05,39.0674
2008-06-06,38.0797
2008-06-09,37.933
2008-06-10,38.4317
2008-06-11,36.5444
2008-06-12,36.2706
2008-06-13,36.6715
2008-06-16,37.7374
2008-06-17,38.3046
2008-06-18,38.4122
2008-06-19,38.4513
2008-06-20,36.5835
2008-06-23,35.2633
2008-06-24,35.3807
2008-06-25,35.811
2008-06-26,34.5103
2008-06-27,34.1485
2008-06-30,33.7476
2008-07-01,34.0312
2008-07-02,33.5813
2008-07-03,32.5447
2008-07-07,32.9848
2008-07-08,34.833
2008-07-09,33.2195
2008-07-10,32.7403
2008-07-11,32.3003
2008-07-14,32.9848
2008-07-15,33.1217
2008-07-16,31.3126
2008-07-17,31.782
2008-07-18,31.7429
2008-07-21,32.4665
2008-07-22,33.0826
2008-07-23,34.1583
2008-07-24,32.6132
2008-07-25,30.2956
2008-07-28,29.1807
2008-07-29,28.7016
2008-07-30,28.33
2008-07-31,28.1539
2008-08-01,28.0268
2008-08-04,27.4401
2008-08-05,28.3984
2008-08-06,28.4278
2008-08-07,28.4082
2008-08-08,28.3886
2008-08-11,28.3984
2008-08-12,28.7505
2008-08-13,28.0659
2008-08-14,28.2126
2008-08-15,28.8189
2008-08-18,27.8606
2008-08-19,27.1663
2008-08-20,27.8801
2008-08-21,28.0562
2008-08-22,28.1833
2008-08-25,27.3423
2008-08-26,26.8924
2008-08-27,27.5672
2008-08-28,27.5868
2008-08-29,26.7262
2008-09-02,25.7874
2008-09-03,25.3865
2008-09-04,25.6407
2008-09-05,25.1322
2008-09-08,24.7899
2008-09-09,23.1373
2008-09-10,23.9489
2008-09-11,23.3133
2008-09-12,23.4893
2008-09-15,22.3061
2008-09-16,22.1594
2008-09-17,20.3796
2008-09-18,21.8464
2008-09-19,23.372
2008-09-22,21.3477
2008-09-23,20.7023
2008-09-24,20.8783
2008-09-25,21.4357
2008-09-26,21.1717
2008-09-29,18.5607
2008-09-30,20.7023
2008-10-01,20.2231
2008-10-02,19.5581
2008-10-03,18.3944
2008-10-06,17.9935
2008-10-07,16.4875
2008-10-08,15.1771
2008-10-09,14.4535
2008-10-10,14.0427
2008-10-13,15.4705
2008-10-14,15.3629
2008-10-15,14.3263
2008-10-16,15.3629
2008-10-17,14.6002
2008-10-20,15.2065
2008-10-21,14.4046
2008-10-22,13.4267
2008-10-23,12.7617
2008-10-24,14.4339
2008-10-27,13.6907
2008-10-28,14.0819
2008-10-29,15.1673
2008-10-30,15.7247
2008-10-31,15.979
2008-11-03,16.5951
2008-11-04,17.1525
2008-11-05,15.4998
2008-11-06,14.9815
2008-11-07,15.4705
2008-11-10,14.6686
2008-11-11,14.033
2008-11-12,12.8399
2008-11-13,14.0916
2008-11-14,13.1528
2008-11-17,12.8986
2008-11-18,12.2825
2008-11-19,10.9819
2008-11-20,9.68128
2008-11-21,10.1213
2008-11-24,11.4024
2008-11-25,11.2459
2008-11-26,12.2434
2008-11-28,11.9109
2008-12-01,10.5223
2008-12-02,11.6762
2008-12-03,12.3803
2008-12-04,11.3926
2008-12-05,11.7251
2008-12-08,12.8497
2008-12-09,12.3412
2008-12-10,12.4292
2008-12-11,11.5197
2008-12-12,12.2727
2008-12-15,11.5686
2008-12-16,12.2141
2008-12-17,12.4292
2008-12-18,11.7349
2008-12-19,12.126
2008-12-22,11.6273
2008-12-23,10.9917
2008-12-24,11.0699
2008-12-26,11.0992
2008-12-29,10.7472
2008-12-30,10.9819
2008-12-31,11.1873
2009-01-02,12.0283
2009-01-05,11.7936
2009-01-06,13.9841
2009-01-07,13.2115
2009-01-08,13.368
2009-01-09,13.6418
2009-01-12,13.0453
2009-01-13,12.8008
2009-01-14,11.9598
2009-01-15,12.7128
2009-01-16,13.0551
2009-01-20,11.7642
2009-01-21,12.6052
2009-01-22,12.0967
2009-01-23,12.6737
2009-01-26,12.7226
2009-01-27,13.2898
2009-01-28,14.0721
2009-01-29,15.3629
2009-01-30,14.385
2009-02-02,15.1869
2009-02-03,14.9131
2009-02-04,16.468
2009-02-05,16.556
2009-02-06,17.485
2009-02-09,16.8102
2009-02-10,16.1844
2009-02-11,16.2724
2009-02-12,16.6244
2009-02-13,16.331
2009-02-17,15.3238
2009-02-18,15.3727
2009-02-19,14.2481
2009-02-20,14.2481
2009-02-23,13.5147
2009-02-24,14.0427
2009-02-25,14.2481
2009-02-26,13.1724
2009-02-27,13.4071
2009-03-02,12.4096
2009-03-03,13.4071
2009-03-04,14.6784
2009-03-05,14.1992
2009-03-06,14.1699
2009-03-09,14.7371
2009-03-10,15.6856
2009-03-11,16.2333
2009-03-12,16.82
2009-03-13,16.8298
2009-03-16,16.3408
2009-03-17,16.6733
2009-03-18,17.1916
2009-03-19,17.4556
2009-03-20,16.8982
2009-03-23,18.4629
2009-03-24,18.7269
2009-03-25,18.5509
2009-03-26,18.9421
2009-03-27,19.0985
2009-03-30,18.502
2009-03-31,18.8932
2009-04-01,19.431
2009-04-02,19.5875
2009-04-03,20.8294
2009-04-06,20.2231
2009-04-07,19.8026
2009-04-08,20.7805
2009-04-09,21.602
2009-04-13,20.8881
2009-04-14,20.6143
2009-04-15,20.8588
2009-04-16,21.6509
2009-04-17,21.8464
2009-04-20,20.7023
2009-04-21,21.2108
2009-04-22,21.5628
2009-04-23,21.3673
2009-04-24,20.6436
2009-04-27,21.3086
2009-04-28,20.6632
2009-04-29,21.5433
2009-04-30,23.0395
2009-05-01,22.8341
2009-05-04,23.6849
2009-05-05,23.8316
2009-05-06,24.037
2009-05-07,22.8635
2009-05-08,23.1862
2009-05-11,22.5603
2009-05-12,21.8367
2009-05-13,22.0029
2009-05-14,22.4625
2009-05-15,22.5799
2009-05-18,23.0982
2009-05-19,23.812
2009-05-20,23.6165
2009-05-21,23.8316
2009-05-22,23.9392
2009-05-26,24.4183
2009-05-27,24.2619
2009-05-28,24.0272
2009-05-29,24.2717
2009-06-01,25.3767
2009-06-02,23.8316
2009-06-03,22.8439
2009-06-04,23.4795
2009-06-05,23.1471
2009-06-08,23.2449
2009-06-09,24.3694
2009-06-10,24.0565
2009-06-11,24.8486
2009-06-12,24.5455
2009-06-15,24.3597
2009-06-16,23.5676
2009-06-17,23.9098
2009-06-18,24.0956
2009-06-19,24.8975
2009-06-22,23.8414
2009-06-23,24.4183
2009-06-24,25.1713
2009-06-25,25.0344
2009-06-26,26.2861
2009-06-29,25.9145
2009-06-30,25.8461
2009-07-01,26.1786
2009-07-02,25.1518
2009-07-06,25.7385
2009-07-07,24.389
2009-07-08,24.565
2009-07-09,25.1127
2009-07-10,24.7899
2009-07-13,25.8167
2009-07-14,25.6896
2009-07-15,27.1076
2009-07-16,28.2126
2009-07-17,28.5549
2009-07-20,28.3104
2009-07-21,28.4864
2009-07-22,29.5523
2009-07-23,29.523
2009-07-24,29.6893
2009-07-27,30.8236
2009-07-28,30.1293
2009-07-29,29.4643
2009-07-30,29.7968
2009-07-31,29.6012
2009-08-03,30.6574
2009-08-04,30.6867
2009-08-05,30.5889
2009-08-06,31.0094
2009-08-07,31.2637
2009-08-10,31.1366
2009-08-11,31.2246
2009-08-12,31.5766
2009-08-13,31.2344
2009-08-14,30.452
2009-08-17,30.0511
2009-08-18,30.5694
2009-08-19,31.381
2009-08-20,32.1731
2009-08-21,32.0656
2009-08-24,31.7037
2009-08-25,32.3785
2009-08-26,33.3662
2009-08-27,34.0409
2009-08-28,33.6107
2009-08-31,33.4835
2009-09-01,32.4665
2009-09-02,31.958
2009-09-03,32.3492
2009-09-04,33.1706
2009-09-08,34.2365
2009-09-09,34.4028
2009-09-10,34.9797
2009-09-11,34.3245
2009-09-14,34.4614
2009-09-15,35.6447
2009-09-16,35.987
2009-09-17,35.7621
2009-09-18,35.4589
2009-09-21,35.2633
2009-09-22,35.4394
2009-09-23,35.9968
2009-09-24,35.3318
2009-09-25,34.4125
2009-09-28,36.0848
2009-09-29,35.3709
2009-09-30,35.7523
2009-10-01,34.4712
2009-10-02,34.5103
2009-10-05,35.6447
2009-10-06,35.7816
2009-10-07,35.4198
2009-10-08,35.6252
2009-10-09,36.3879
2009-10-12,36.8182
2009-10-13,36.9551
2009-10-14,36.8573
2009-10-15,35.3905
2009-10-16,35.1166
2009-10-19,35.8892
2009-10-20,35.7523
2009-10-21,35.0091
2009-10-22,36.3488
2009-10-23,34.6375
2009-10-26,34.6081
2009-10-27,33.7965
2009-10-28,32.8772
2009-10-29,34.2072
2009-10-30,32.9555
2009-11-02,33.3564
2009-11-03,33.4933
2009-11-04,34.0605
2009-11-05,35.4491
2009-11-06,35.5763
2009-11-09,36.5542
2009-11-10,36.8378
2009-11-11,37.7277
2009-11-12,37.5907
2009-11-13,37.6299
2009-11-16,38.2851
2009-11-17,38.2068
2009-11-18,37.6494
2009-11-19,36.4075
2009-11-20,36.2608
2009-11-23,37.2778
2009-11-24,36.8769
2009-11-25,37.6201
2009-11-27,36.6715
2009-11-30,36.0457
2009-12-01,37.5125
2009-12-02,38.0308
2009-12-03,37.7374
2009-12-04,38.598
2009-12-07,38.2068
2009-12-08,37.8157
2009-12-09,38.6567
2009-12-10,38.5491
2009-12-11,38.1384
2009-12-14,38.8914
2009-12-15,38.7349
2009-12-16,40.1822
2009-12-17,41.0428
2009-12-18,41.786
2009-12-21,42.2651
2009-12-22,42.4901
2009-12-23,43.0866
2009-12-24,43.6342
2009-12-28,43.0181
2009-12-29,43.0084
2009-12-30,43.6831
2009-12-31,43.2039
2010-01-04,44.2796
2010-01-05,45.414
2010-01-06,45.4238
2010-01-07,44.6023
2010-01-08,44.7686
2010-01-11,44.7979
2010-01-12,43.6635
2010-01-13,44.397
2010-01-14,44.7099
2010-01-15,43.0475
2010-01-19,43.8689
2010-01-20,43.3017
2010-01-21,44.2699
2010-01-22,39.8302
2010-01-25,40.5929
2010-01-26,39.9671
2010-01-27,39.6639
2010-01-28,38.5784
2010-01-29,37.1605
2010-02-01,38.8425
2010-02-02,39.5368
2010-02-03,39.5857
2010-02-04,37.9135
2010-02-05,38.5295
2010-02-08,38.7936
2010-02-09,39.4488
2010-02-10,39.175
2010-02-11,39.3705
2010-02-12,38.9109
2010-02-16,41.5415
2010-02-17,41.6002
2010-02-18,42.4509
2010-02-19,42.1869
2010-02-22,41.4046
2010-02-23,39.9182
2010-02-24,38.0797
2010-02-25,38.2362
2010-02-26,37.8059
2010-03-01,39.5857
2010-03-02,38.7056
2010-03-03,37.7961
2010-03-04,38.51
2010-03-05,38.3633
2010-03-08,38.7251
2010-03-09,37.9135
2010-03-10,37.1507
2010-03-11,38.0308
2010-03-12,37.5516
2010-03-15,37.356
2010-03-16,37.7961
2010-03-17,38.2557
2010-03-18,38.1775
2010-03-19,37.3365
2010-03-22,39.6932
2010-03-23,41.1308
2010-03-24,40.7885
2010-03-25,39.8008
2010-03-26,38.6469
2010-03-29,39.0185
2010-03-30,38.4709
2010-03-31,38.1188
2010-04-01,38.0993
2010-04-05,39.6932
2010-04-06,40.1626
2010-04-07,39.3999
2010-04-08,39.3999
2010-04-09,40.4462
2010-04-12,40.1431
2010-04-13,39.3119
2010-04-14,40.5342
2010-04-15,40.8374
2010-04-16,39.5955
2010-04-19,38.7936
2010-04-20,39.3314
2010-04-21,39.3803
2010-04-22,39.8693
2010-04-23,43.7516
2010-04-26,43.1257
2010-04-27,41.9033
2010-04-28,41.786
2010-04-29,41.9522
2010-04-30,40.2018
2010-05-03,40.7298
2010-05-04,39.6737
2010-05-05,39.7324
2010-05-06,37.8743
2010-05-07,37.493
2010-05-10,39.0283
2010-05-11,38.8033
2010-05-12,39.6248
2010-05-13,38.8914
2010-05-14,37.6885
2010-05-17,38.1775
2010-05-18,35.9674
2010-05-19,35.2633
2010-05-20,34.5299
2010-05-21,35.2144
2010-05-24,34.7842
2010-05-25,34.4223
2010-05-26,33.6107
2010-05-27,35.4589
2010-05-28,34.0605
2010-06-01,32.8577
2010-06-02,34.4712
2010-06-03,35.7523
2010-06-04,33.6302
2010-06-07,32.6914
2010-06-08,32.711
2010-06-09,32.4763
2010-06-10,33.3564
2010-06-11,33.5813
2010-06-14,33.6009
2010-06-15,34.7255
2010-06-16,34.4223
2010-06-17,34.4614
2010-06-18,34.2365
2010-06-21,33.3955
2010-06-22,32.5545
2010-06-23,32.6328
2010-06-24,30.7161
2010-06-25,31.0974
2010-06-28,31.0094
2010-06-29,29.9826
2010-06-30,29.5132
2010-07-01,30.2858
2010-07-02,29.5426
2010-07-06,29.1612
2010-07-07,30.54
2010-07-08,30.853
2010-07-09,30.9019
2010-07-12,30.6867
2010-07-13,31.381
2010-07-14,31.9287
2010-07-15,31.9971
2010-07-16,30.7258
2010-07-19,30.9997
2010-07-20,31.1757
2010-07-21,29.523
2010-07-22,27.5965
2010-07-23,27.4107
2010-07-26,28.2028
2010-07-27,28.1344
2010-07-28,27.1858
2010-07-29,26.3742
2010-07-30,25.8363
2010-08-02,26.5502
2010-08-03,26.1297
2010-08-04,26.5208
2010-08-05,26.2666
2010-08-06,25.6016
2010-08-09,25.4354
2010-08-10,23.8707
2010-08-11,24.5552
2010-08-12,23.7436
2010-08-13,23.9685
2010-08-16,24.2325
2010-08-17,23.6067
2010-08-18,23.812
2010-08-19,23.5089
2010-08-20,24.1543
2010-08-23,23.7729
2010-08-24,23.1862
2010-08-25,23.5773
2010-08-26,23.0884
2010-08-27,24.7019
2010-08-30,24.1836
2010-08-31,23.6165
2010-09-01,25.0638
2010-09-02,25.4745
2010-09-03,26.0123
2010-09-07,25.4354
2010-09-08,25.5723
2010-09-09,25.3571
2010-09-10,25.0833
2010-09-13,26.4524
2010-09-14,26.0808
2010-09-15,26.648
2010-09-16,26.3155
2010-09-17,25.9439
2010-09-20,26.7458
2010-09-21,26.8435
2010-09-22,26.0808
2010-09-23,26.5502
2010-09-24,27.5281
2010-09-27,27.0489
2010-09-28,27.1076
2010-09-29,28.0659
2010-09-30,27.7237
2010-10-01,27.6357
2010-10-04,27.3618
2010-10-05,28.1344
2010-10-06,27.2836
2010-10-07,27.7334
2010-10-08,28.2908
2010-10-11,28.5353
2010-10-12,28.7211
2010-10-13,29.0047
2010-10-14,28.8678
2010-10-15,31.1561
2010-10-18,30.7454
2010-10-19,29.5328
2010-10-20,29.8262
2010-10-21,29.8359
2010-10-22,29.7577
2010-10-25,29.787
2010-10-26,30.2564
2010-10-27,30.9116
2010-10-28,30.9116
2010-10-29,31.293
2010-11-01,31.8993
2010-11-02,32.2905
2010-11-03,32.5154
2010-11-04,32.8479
2010-11-05,33.992
2010-11-08,33.9627
2010-11-09,33.7476
2010-11-10,32.7599
2010-11-11,32.2709
2010-11-12,31.8504
2010-11-15,31.2735
2010-11-16,30.9214
2010-11-17,30.6965
2010-11-18,31.606
2010-11-19,33.2684
2010-11-22,32.9457
2010-11-23,32.2514
2010-11-24,33.1608
2010-11-26,33.1706
2010-11-29,32.9946
2010-11-30,32.7697
2010-12-01,33.4151
2010-12-02,33.8551
2010-12-03,33.9138
2010-12-06,33.6791
2010-12-07,34.2854
2010-12-08,34.217
2010-12-09,34.2854
2010-12-10,34.9113
2010-12-13,34.745
2010-12-14,33.8551
2010-12-15,32.4567
2010-12-16,32.3003
2010-12-17,32.2612
2010-12-20,32.3589
2010-12-21,32.7599
2010-12-22,33.0239
2010-12-23,33.0826
2010-12-27,33.0728
2010-12-28,33.1119
2010-12-29,32.9261
2010-12-30,32.9359
2010-12-31,33.1413
2011-01-03,33.3857
2011-01-04,32.2905
2011-01-05,32.0656
2011-01-06,32.2709
2011-01-07,32.2905
2011-01-10,32.0753
2011-01-11,31.8504
2011-01-12,32.2025
2011-01-13,31.9971
2011-01-14,32.6523
2011-01-18,33.2097
2011-01-19,32.2612
2011-01-20,31.0388
2011-01-21,30.7552
2011-01-24,31.7233
2011-01-25,31.5864
2011-01-26,33.0239
2011-01-27,33.9725
2011-01-28,33.1706
2011-01-31,33.2488
2011-02-01,33.6791
2011-02-02,35.586
2011-02-03,35.1753
2011-02-04,35.3905
2011-02-07,35.5371
2011-02-08,35.5469
2011-02-09,34.9504
2011-02-10,34.3343
2011-02-11,33.64
2011-02-14,33.8943
2011-02-15,33.4346
2011-02-16,33.0239
2011-02-17,32.8772
2011-02-18,32.535
2011-02-22,31.381
2011-02-23,30.0902
2011-02-24,30.0217
2011-02-25,30.4814
2011-02-28,29.8848
2011-03-01,28.7505
2011-03-02,29.0732
2011-03-03,29.699
2011-03-04,29.347
2011-03-07,33.9236
2011-03-08,35.5176
2011-03-09,34.7255
2011-03-10,33.5715
2011-03-11,33.6693
2011-03-14,33.0239
2011-03-15,32.9848
2011-03-16,32.1047
2011-03-17,32.9652
2011-03-18,33.0924
2011-03-21,33.6302
2011-03-22,33.4542
2011-03-23,33.6498
2011-03-24,35.3024
2011-03-25,36.6226
2011-03-28,36.2315
2011-03-29,36.2119
2011-03-30,36.8671
2011-03-31,36.4564
2011-04-01,37.3365
2011-04-04,36.4466
2011-04-05,36.1923
2011-04-06,36.8573
2011-04-07,36.9355
2011-04-08,38.0015
2011-04-11,37.8939
2011-04-12,37.268
2011-04-13,36.8182
2011-04-14,37.5614
2011-04-15,37.8646
2011-04-18,37.8352
2011-04-19,38.6371
2011-04-20,39.7128
2011-04-21,40.3484
2011-04-25,39.5661
2011-04-26,39.9475
2011-04-27,38.9207
2011-04-28,39.3999
2011-04-29,38.9109
2011-05-02,38.5882
2011-05-03,37.6983
2011-05-04,37.1116
2011-05-05,36.7889
2011-05-06,37.268
2011-05-09,37.2485
2011-05-10,38.0308
2011-05-11,37.6005
2011-05-12,37.6005
2011-05-13,36.652
2011-05-16,35.5763
2011-05-17,35.4882
2011-05-18,35.987
2011-05-19,35.5469
2011-05-20,35.3416
2011-05-23,35.058
2011-05-24,35.1851
2011-05-25,35.0286
2011-05-26,34.8135
2011-05-27,34.9211
2011-05-31,35.8305
2011-06-01,34.5103
2011-06-02,34.2267
2011-06-03,34.1778
2011-06-06,33.552
2011-06-07,33.3857
2011-06-08,32.9555
2011-06-09,32.9261
2011-06-10,33.1999
2011-06-13,32.8675
2011-06-14,34.6277
2011-06-15,33.4249
2011-06-16,33.4933
2011-06-17,32.7012
2011-06-20,32.7697
2011-06-21,34.0214
2011-06-22,33.8258
2011-06-23,36.2217
2011-06-24,34.4028
2011-06-27,34.1387
2011-06-28,34.8428
2011-06-29,35.1558
2011-06-30,35.5763
2011-07-01,35.811
2011-07-05,35.9772
2011-07-06,36.5737
2011-07-07,37.6494
2011-07-08,37.669
2011-07-11,36.3977
2011-07-12,36.2119
2011-07-13,36.4857
2011-07-14,36.2803
2011-07-15,36.4466
2011-07-18,35.8794
2011-07-19,36.8671
2011-07-20,37.2485
2011-07-21,34.3343
2011-07-22,37.1605
2011-07-25,36.0848
2011-07-26,35.6447
2011-07-27,34.7646
2011-07-28,34.5592
2011-07-29,33.7085
2011-08-01,33.8062
2011-08-02,32.1047
2011-08-03,32.4274
2011-08-04,30.364
2011-08-05,29.924
2011-08-08,28.4669
2011-08-09,29.6306
2011-08-10,28.418
2011-08-11,29.8653
2011-08-12,30.0022
2011-08-15,30.7552
2011-08-16,30.364
2011-08-17,29.3274
2011-08-18,27.2152
2011-08-19,25.807
2011-08-22,25.895
2011-08-23,26.9022
2011-08-24,27.264
2011-08-25,26.9707
2011-08-26,27.665
2011-08-29,28.4571
2011-08-30,28.9949
2011-08-31,28.77
2011-09-01,28.0464
2011-09-02,26.824
2011-09-06,26.8729
2011-09-07,27.841
2011-09-08,27.6748
2011-09-09,27.8508
2011-09-12,28.1833
2011-09-13,28.4767
2011-09-14,28.9656
2011-09-15,29.3959
2011-09-16,29.347
2011-09-19,28.6136
2011-09-20,27.7334
2011-09-21,27.0782
2011-09-22,25.4158
2011-09-23,25.8167
2011-09-26,27.1956
2011-09-27,27.4694
2011-09-28,26.423
2011-09-29,26.1492
2011-09-30,25.1615
2011-10-03,24.0467
2011-10-04,24.8291
2011-10-05,26.3448
2011-10-06,26.8729
2011-10-07,26.2861
2011-10-10,27.3129
2011-10-11,28.242
2011-10-12,26.9413
2011-10-13,28.0366
2011-10-14,27.6943
2011-10-17,25.6114
2011-10-18,26.2861
2011-10-19,23.8609
2011-10-20,25.4158
2011-10-21,25.4256
2011-10-24,26.6675
2011-10-25,25.7483
2011-10-26,27.264
2011-10-27,26.7653
2011-10-28,26.6969
2011-10-31,26.0808
2011-11-01,25.9439
2011-11-02,26.7262
2011-11-03,27.8312
2011-11-04,27.3227
2011-11-07,27.0587
2011-11-08,27.1663
2011-11-09,25.4647
2011-11-10,25.1909
2011-11-11,26.0123
2011-11-14,25.7483
2011-11-15,24.4868
2011-11-16,26.2177
2011-11-17,24.6139
2011-11-18,25.4647
2011-11-21,25.6016
2011-11-22,25.2007
2011-11-23,25.0344
2011-11-25,24.8095
2011-11-28,25.9537
2011-11-29,26.912
2011-11-30,28.4375
2011-12-01,28.5744
2011-12-02,30.7845
2011-12-05,31.3028
2011-12-06,30.9997
2011-12-07,31.1268
2011-12-08,30.8236
2011-12-09,31.6842
2011-12-12,31.2246
2011-12-13,30.364
2011-12-14,29.8457
2011-12-15,29.9728
2011-12-16,30.3053
2011-12-19,29.9435
2011-12-20,31.1561
2011-12-21,30.6867
2011-12-22,30.9801
2011-12-23,31.4202
2011-12-27,30.5303
2011-12-28,30.0609
2011-12-29,30.4325
2011-12-30,30.3053
2012-01-03,30.2956
2012-01-04,30.5987
2012-01-05,32.0265
2012-01-06,32.7599
2012-01-09,32.9946
2012-01-10,32.7794
2012-01-11,32.6034
2012-01-12,33.1119
2012-01-13,32.5741
2012-01-17,32.3492
2012-01-18,32.887
2012-01-19,33.1706
2012-01-20,33.8845
2012-01-23,33.9627
2012-01-24,36.0554
2012-01-25,36.5737
2012-01-26,36.1532
2012-01-27,36.251
2012-01-30,36.0457
2012-01-31,35.5371
2012-02-01,37.1702
2012-02-02,36.7204
2012-02-03,37.7179
2012-02-06,37.8548
2012-02-07,38.021
2012-02-08,38.9305
2012-02-09,38.3144
2012-02-10,37.6494
2012-02-13,37.3072
2012-02-14,38.2655
2012-02-15,37.3952
2012-02-16,39.6932
2012-02-17,39.5172
2012-02-21,39.3216
2012-02-22,38.6958
2012-02-23,38.8522
2012-02-24,38.8425
2012-02-27,37.9917
2012-02-28,38.4709
2012-02-29,38.334
2012-03-01,38.9598
2012-03-02,38.0895
2012-03-05,37.6201
2012-03-06,36.4075
2012-03-07,37.004
2012-03-08,38.109
2012-03-09,39.439
2012-03-12,38.7447
2012-03-13,39.2239
2012-03-14,38.7447
2012-03-15,37.9917
2012-03-16,37.4049
2012-03-19,37.3267
2012-03-20,38.2068
2012-03-21,38.6175
2012-03-22,41.1601
2012-03-23,41.5122
2012-03-26,41.6393
2012-03-27,41.5024
2012-03-28,41.2383
2012-03-29,41.0819
2012-03-30,40.456
2012-04-02,40.9939
2012-04-03,40.7396
2012-04-04,40.4169
2012-04-05,38.8522
2012-04-09,38.862
2012-04-10,37.4441
2012-04-11,37.3658
2012-04-12,38.2851
2012-04-13,38.1873
2012-04-16,38.7056
2012-04-17,38.6469
2012-04-18,40.5929
2012-04-19,41.121
2012-04-20,40.5342
2012-04-23,40.5538
2012-04-24,40.4951
2012-04-25,42.1967
2012-04-26,43.1355
2012-04-27,37.0431
2012-04-30,37.9135
2012-05-01,39.1554
2012-05-02,39.6444
2012-05-03,38.3731
2012-05-04,38.109
2012-05-07,38.2851
2012-05-08,38.2948
2012-05-09,39.0772
2012-05-10,39.8302
2012-05-11,39.4097
2012-05-14,39.0576
2012-05-15,39.0869
2012-05-16,37.7766
2012-05-17,36.3292
2012-05-18,33.904
2012-05-21,35.1655
2012-05-22,33.7378
2012-05-23,33.3662
2012-05-24,33.0728
2012-05-25,33.4249
2012-05-29,32.4078
2012-05-30,31.5571
2012-05-31,30.6965
2012-06-01,29.4057
2012-06-04,29.259
2012-06-05,29.259
2012-06-06,30.2369
2012-06-07,30.1391
2012-06-08,30.5205
2012-06-11,29.9337
2012-06-12,29.8653
2012-06-13,29.6501
2012-06-14,29.5035
2012-06-15,30.0315
2012-06-18,29.8653
2012-06-19,30.188
2012-06-20,30.1978
2012-06-21,28.7211
2012-06-22,29.083
2012-06-25,28.3006
2012-06-26,28.4962
2012-06-27,29.1416
2012-06-28,28.1539
2012-06-29,29.7773
2012-07-02,29.1807
2012-07-03,29.8946
2012-07-05,29.9924
2012-07-06,30.3542
2012-07-09,30.8725
2012-07-10,31.3321
2012-07-11,30.8725
2012-07-12,30.6183
2012-07-13,30.8823
2012-07-16,30.9116
2012-07-17,31.2637
2012-07-18,32.6621
2012-07-19,31.9873
2012-07-20,31.3321
2012-07-23,31.5571
2012-07-24,31.0485
2012-07-25,31.7722
2012-07-26,38.3731
2012-07-27,38.9989
2012-07-30,39.2923
2012-07-31,38.9403
2012-08-01,38.5393
2012-08-02,38.9598
2012-08-03,40.0844
2012-08-06,40.2898
2012-08-07,40.8374
2012-08-08,40.945
2012-08-09,42.0989
2012-08-10,43.0084
2012-08-13,43.3408
2012-08-14,43.0084
2012-08-15,43.1844
2012-08-16,44.3774
2012-08-17,44.4654
2012-08-20,44.2992
2012-08-21,43.6733
2012-08-22,43.5266
2012-08-23,42.4998
2012-08-24,42.6563
2012-08-27,42.7639
2012-08-28,42.5487
2012-08-29,42.539
2012-08-30,41.1503
2012-08-31,40.9645
2012-09-04,41.3948
2012-09-05,40.9156
2012-09-06,42.0891
2012-09-07,40.9059
2012-09-10,40.2409
2012-09-11,41.2775
2012-09-12,40.5831
2012-09-13,41.5708
2012-09-14,40.1235
2012-09-17,38.6175
2012-09-18,38.4709
2012-09-19,38.1677
2012-09-20,38.2166
2012-09-21,39.263
2012-09-24,39.1652
2012-09-25,38.7447
2012-09-26,37.9867
2012-09-27,38.9708
2012-09-28,38.0851
2012-10-01,37.5143
2012-10-02,37.5832
2012-10-03,36.9927
2012-10-04,37.3765
2012-10-05,37.3864
2012-10-08,37.721
2012-10-09,36.5892
2012-10-10,35.7921
2012-10-11,36.0677
2012-10-12,35.487
2012-10-15,35.2213
2012-10-16,35.7921
2012-10-17,35.6642
2012-10-18,34.9655
2012-10-19,34.3455
2012-10-22,34.7391
2012-10-23,33.9617
2012-10-24,33.2137
2012-10-25,33.8731
2012-10-26,33.5582
2012-10-31,33.6861
2012-11-01,34.867
2012-11-02,34.6505
2012-11-05,35.0147
2012-11-06,36.4219
2012-11-07,34.7982
2012-11-08,34.2766
2012-11-09,34.5226
2012-11-12,34.1978
2012-11-13,34.1388
2012-11-14,33.3121
2012-11-15,33.3614
2012-11-16,34.0699
2012-11-19,34.4144
2012-11-20,33.4696
2012-11-21,33.7255
2012-11-23,34.5423
2012-11-26,35.2213
2012-11-27,34.1388
2012-11-28,33.381
2012-11-29,33.3614
2012-11-30,32.948
2012-12-03,32.9283
2012-12-04,33.076
2012-12-05,35.4477
2012-12-06,36.5105
2012-12-07,36.9337
2012-12-10,37.7997
2012-12-11,37.5832
2012-12-12,37.4447
2012-12-13,37.4546
2012-12-14,37.4051
2012-12-17,37.6428
2012-12-18,39.2476
2012-12-19,40.8722
2012-12-20,41.7835
2012-12-21,41.6448
2012-12-24,41.417
2012-12-26,41.6646
2012-12-27,41.734
2012-12-28,41.1198
2012-12-31,41.9915
2013-01-02,42.9425
2013-01-03,42.5859
2013-01-04,42.4175
2013-01-07,42.5463
2013-01-08,41.5061
2013-01-09,43.3882
2013-01-10,43.6954
2013-01-11,43.5368
2013-01-14,44.1807
2013-01-15,44.4383
2013-01-16,44.8643
2013-01-17,44.8147
2013-01-18,44.2996
2013-01-22,46.9841
2013-01-23,46.5978
2013-01-24,47.3507
2013-01-25,47.5686
2013-01-28,48.2422
2013-01-29,45.6864
2013-01-30,46.3898
2013-01-31,46.6275
2013-02-01,46.3007
2013-02-04,45.9539
2013-02-05,46.1619
2013-02-06,47.5389
2013-02-07,47.1327
2013-02-08,47.9796
2013-02-11,48.1432
2013-02-12,47.7171
2013-02-13,48.1728
2013-02-14,48.3462
2013-02-15,48.0787
2013-02-19,48.1234
2013-02-20,46.1223
2013-02-21,45.3398
2013-02-22,45.4487
2013-02-25,44.468
2013-02-26,45.4784
2013-02-27,46.5879
2013-02-28,46.7712
2013-03-01,47.6875
2013-03-04,47.4398
2013-03-05,47.8757
2013-03-06,48.3214
2013-03-07,46.8455
2013-03-08,47.2219
2013-03-11,47.5389
2013-03-12,49.4705
2013-03-13,49.8866
2013-03-14,50.2432
2013-03-15,49.7083
2013-03-18,49.1535
2013-03-19,48.3809
2013-03-20,48.8464
2013-03-21,47.6578
2013-03-22,47.4002
2013-03-25,47.1129
2013-03-26,48.4375
2013-03-27,49.9313
2013-03-28,49.9512
2013-04-01,50.1504
2013-04-02,49.7819
2013-04-03,50.3695
2013-04-04,50.5786
2013-04-05,49.6027
2013-04-08,50.0209
2013-04-09,51.3952
2013-04-10,52.9985
2013-04-11,52.2118
2013-04-12,52.0723
2013-04-15,51.0466
2013-04-16,51.8732
2013-04-17,50.489
2013-04-18,49.0948
2013-04-19,49.752
2013-04-22,50.3097
2013-04-23,53.0582
2013-04-24,52.64
2013-04-25,52.3811
2013-04-26,53.1279
2013-04-29,53.9545
2013-04-30,55.0101
2013-05-01,54.6018
2013-05-02,56.4242
2013-05-03,56.942
2013-05-06,57.908
2013-05-07,58.5951
2013-05-08,58.8042
2013-05-09,57.3602
2013-05-10,58.1868
2013-05-13,57.5992
2013-05-14,58.9635
2013-05-15,59.3021
2013-05-16,58.8241
2013-05-17,60.1685
2013-05-20,59.2523
2013-05-21,60.4573
2013-05-22,60.1585
2013-05-23,62.0208
2013-05-24,62.0108
2013-05-28,62.6481
2013-05-29,63.5444
2013-05-30,63.5444
2013-05-31,63.2556
2013-06-03,63.5444
2013-06-04,63.1759
2013-06-05,62.5386
2013-06-06,63.5145
2013-06-07,63.9427
2013-06-10,64.2913
2013-06-11,64.3311
2013-06-12,63.7436
2013-06-13,64.0722
2013-06-14,63.6838
2013-06-17,64.3909
2013-06-18,64.4506
2013-06-19,63.405
2013-06-20,61.3038
2013-06-21,59.9594
2013-06-24,58.3362
2013-06-25,59.8498
2013-06-26,60.78
2013-06-27,62.66
2013-06-28,62.19
2013-07-01,63.07
2013-07-02,63.21
2013-07-03,63.21
2013-07-05,64.54
2013-07-08,65.22
2013-07-09,66.22
2013-07-10,67.22
2013-07-11,67.06
2013-07-12,67.81
2013-07-15,68.2
2013-07-16,67.9
2013-07-17,68.57
2013-07-18,69.62
2013-07-19,69.79
2013-07-22,70.08
2013-07-23,67.76
2013-07-24,67.66
2013-07-25,63.51
2013-07-26,62.55
2013-07-29,62.52
2013-07-30,65.12
2013-07-31,64.38
2013-08-01,66.4
2013-08-02,65.13
2013-08-05,64.72
2013-08-06,64.4
2013-08-07,63.65
2013-08-08,66.75
2013-08-09,67.48
